{
    "id": "37dKzbyb6i0",
    "title": "On AI manipulating Humans",
    "publishedAt": "2023-03-16T16:03:03Z",
    "captions": [
        {
            "text": "so a lot of social networks leave",
            "start": 0.0,
            "duration": 5.279
        },
        {
            "text": "focusing on just maximizing the",
            "start": 2.76,
            "duration": 5.339
        },
        {
            "text": "engagement right but nobody really cares",
            "start": 5.279,
            "duration": 5.581
        },
        {
            "text": "about the qualities of the said",
            "start": 8.099,
            "duration": 5.641
        },
        {
            "text": "engagement nobody measures like looks at",
            "start": 10.86,
            "duration": 4.319
        },
        {
            "text": "the engagement and realizes oh there's",
            "start": 13.74,
            "duration": 2.94
        },
        {
            "text": "different kinds of Engagement and",
            "start": 15.179,
            "duration": 3.661
        },
        {
            "text": "there's some engagement that we wanna uh",
            "start": 16.68,
            "duration": 3.599
        },
        {
            "text": "promote and some engagement that we",
            "start": 18.84,
            "duration": 3.06
        },
        {
            "text": "don't want to promote right so nobody",
            "start": 20.279,
            "duration": 3.061
        },
        {
            "text": "cares about that just engagement like",
            "start": 21.9,
            "duration": 2.879
        },
        {
            "text": "engage as much as possible it doesn't",
            "start": 23.34,
            "duration": 2.939
        },
        {
            "text": "care what exactly you do just engage",
            "start": 24.779,
            "duration": 3.561
        },
        {
            "text": "just click on the buttons on our website",
            "start": 26.279,
            "duration": 5.4
        },
        {
            "text": "right it's just like if you type",
            "start": 28.34,
            "duration": 4.66
        },
        {
            "text": "something in our website good it doesn't",
            "start": 31.679,
            "duration": 2.581
        },
        {
            "text": "matter what you type just type",
            "start": 33.0,
            "duration": 3.36
        },
        {
            "text": "something right so we can then shove",
            "start": 34.26,
            "duration": 3.959
        },
        {
            "text": "some ads into you while you typing ship",
            "start": 36.36,
            "duration": 3.359
        },
        {
            "text": "right",
            "start": 38.219,
            "duration": 4.281
        },
        {
            "text": "so",
            "start": 39.719,
            "duration": 2.781
        },
        {
            "text": "so that's what you get when you set",
            "start": 44.94,
            "duration": 3.42
        },
        {
            "text": "maximum just maximizing the engagement",
            "start": 46.62,
            "duration": 3.24
        },
        {
            "text": "Without Really caring about the",
            "start": 48.36,
            "duration": 2.28
        },
        {
            "text": "engagement",
            "start": 49.86,
            "duration": 3.6
        },
        {
            "text": "and what kind of stuff you do",
            "start": 50.64,
            "duration": 4.939
        },
        {
            "text": "um",
            "start": 53.46,
            "duration": 2.119
        },
        {
            "text": "I hear this really weird idea",
            "start": 56.16,
            "duration": 6.12
        },
        {
            "text": "about AI safety and social networks and",
            "start": 58.62,
            "duration": 5.399
        },
        {
            "text": "engagement and stuff like that so I had",
            "start": 62.28,
            "duration": 3.12
        },
        {
            "text": "this like a",
            "start": 64.019,
            "duration": 4.381
        },
        {
            "text": "thought experiment right let's Imagine",
            "start": 65.4,
            "duration": 5.7
        },
        {
            "text": "The Social Network some like abstract",
            "start": 68.4,
            "duration": 4.56
        },
        {
            "text": "social network that only cares about",
            "start": 71.1,
            "duration": 4.559
        },
        {
            "text": "engagement right and how in retaining",
            "start": 72.96,
            "duration": 4.5
        },
        {
            "text": "people on their website",
            "start": 75.659,
            "duration": 4.621
        },
        {
            "text": "all right and then are we developing an",
            "start": 77.46,
            "duration": 6.299
        },
        {
            "text": "algorithm that ranks the posts or let's",
            "start": 80.28,
            "duration": 5.28
        },
        {
            "text": "say yeah right ranks the postal maybe",
            "start": 83.759,
            "duration": 5.161
        },
        {
            "text": "sometimes it uh hides the post when it",
            "start": 85.56,
            "duration": 5.16
        },
        {
            "text": "won a shadow bend them or like derang",
            "start": 88.92,
            "duration": 3.18
        },
        {
            "text": "them and stuff like that and that",
            "start": 90.72,
            "duration": 3.6
        },
        {
            "text": "algorithm is actually very powerful AI",
            "start": 92.1,
            "duration": 5.1
        },
        {
            "text": "right it's a very powerful",
            "start": 94.32,
            "duration": 6.119
        },
        {
            "text": "um neural network that understands that",
            "start": 97.2,
            "duration": 5.76
        },
        {
            "text": "tries to observe the human behavior and",
            "start": 100.439,
            "duration": 4.5
        },
        {
            "text": "understand how human behaves and it",
            "start": 102.96,
            "duration": 4.74
        },
        {
            "text": "tries to manipulate humans uh to",
            "start": 104.939,
            "duration": 4.921
        },
        {
            "text": "maximize the engagement to maximize the",
            "start": 107.7,
            "duration": 4.44
        },
        {
            "text": "retention of the website let's imagine",
            "start": 109.86,
            "duration": 6.06
        },
        {
            "text": "that then hypothetically this algorithm",
            "start": 112.14,
            "duration": 6.0
        },
        {
            "text": "right this AI",
            "start": 115.92,
            "duration": 6.479
        },
        {
            "text": "will noticed okay so what uh keeps",
            "start": 118.14,
            "duration": 7.019
        },
        {
            "text": "people on our website well people",
            "start": 122.399,
            "duration": 6.541
        },
        {
            "text": "posting some uh events photos of some",
            "start": 125.159,
            "duration": 7.201
        },
        {
            "text": "different events right and then it",
            "start": 128.94,
            "duration": 7.439
        },
        {
            "text": "notices that events that for example",
            "start": 132.36,
            "duration": 5.4
        },
        {
            "text": "um",
            "start": 136.379,
            "duration": 4.141
        },
        {
            "text": "uh things that some very bad things",
            "start": 137.76,
            "duration": 5.16
        },
        {
            "text": "happened right in school for instance",
            "start": 140.52,
            "duration": 4.2
        },
        {
            "text": "people start talk about that people",
            "start": 142.92,
            "duration": 4.62
        },
        {
            "text": "start posting photos about that and so",
            "start": 144.72,
            "duration": 5.34
        },
        {
            "text": "on and so forth right so some so let's",
            "start": 147.54,
            "duration": 4.74
        },
        {
            "text": "put it this way so basically illegal",
            "start": 150.06,
            "duration": 4.679
        },
        {
            "text": "activities of some extremist group uh",
            "start": 152.28,
            "duration": 4.2
        },
        {
            "text": "right people start talk about it and",
            "start": 154.739,
            "duration": 4.741
        },
        {
            "text": "start to engage on that specific website",
            "start": 156.48,
            "duration": 5.759
        },
        {
            "text": "so the algorithm would think okay what",
            "start": 159.48,
            "duration": 5.1
        },
        {
            "text": "if I try to identify those instruments",
            "start": 162.239,
            "duration": 4.5
        },
        {
            "text": "people and put them together within that",
            "start": 164.58,
            "duration": 3.54
        },
        {
            "text": "social network so they start",
            "start": 166.739,
            "duration": 3.601
        },
        {
            "text": "communicating each other and eventually",
            "start": 168.12,
            "duration": 4.86
        },
        {
            "text": "will go out and do this illegal",
            "start": 170.34,
            "duration": 5.1
        },
        {
            "text": "extremist activities that will result in",
            "start": 172.98,
            "duration": 4.259
        },
        {
            "text": "other people posting about them and",
            "start": 175.44,
            "duration": 5.24
        },
        {
            "text": "engaging more with our website",
            "start": 177.239,
            "duration": 3.441
        },
        {
            "text": "can something like that hypothetically",
            "start": 181.76,
            "duration": 3.88
        },
        {
            "text": "happen",
            "start": 184.62,
            "duration": 4.92
        },
        {
            "text": "can like AI noticed that like actually",
            "start": 185.64,
            "duration": 7.26
        },
        {
            "text": "purposefully fueling hate will result in",
            "start": 189.54,
            "duration": 5.82
        },
        {
            "text": "people making more posts later",
            "start": 192.9,
            "duration": 4.919
        },
        {
            "text": "on their website and it could not be",
            "start": 195.36,
            "duration": 5.159
        },
        {
            "text": "like uh somebody's else right so some",
            "start": 197.819,
            "duration": 4.5
        },
        {
            "text": "sort of conspiracy some sort of like a",
            "start": 200.519,
            "duration": 4.921
        },
        {
            "text": "uh you know conspiracy group is trying",
            "start": 202.319,
            "duration": 5.581
        },
        {
            "text": "to manipulate somebody but actual AI it",
            "start": 205.44,
            "duration": 5.4
        },
        {
            "text": "notices that if I fuel hate on my",
            "start": 207.9,
            "duration": 5.94
        },
        {
            "text": "website I get more engagement and I get",
            "start": 210.84,
            "duration": 5.34
        },
        {
            "text": "more retention because then those",
            "start": 213.84,
            "duration": 4.619
        },
        {
            "text": "hateful groups will go out do some",
            "start": 216.18,
            "duration": 4.08
        },
        {
            "text": "and people will talk about it on this",
            "start": 218.459,
            "duration": 3.661
        },
        {
            "text": "social network can something like that",
            "start": 220.26,
            "duration": 3.66
        },
        {
            "text": "happen like I'm not saying that it will",
            "start": 222.12,
            "duration": 4.56
        },
        {
            "text": "happen but can it right if the AI is",
            "start": 223.92,
            "duration": 4.739
        },
        {
            "text": "very powerful enough very intelligent",
            "start": 226.68,
            "duration": 3.9
        },
        {
            "text": "and its only purpose is to maximize",
            "start": 228.659,
            "duration": 5.16
        },
        {
            "text": "engagement and to maximize the retention",
            "start": 230.58,
            "duration": 5.579
        },
        {
            "text": "that's actually very scary if if",
            "start": 233.819,
            "duration": 5.221
        },
        {
            "text": "you think about it right so if you give",
            "start": 236.159,
            "duration": 4.44
        },
        {
            "text": "too much power to these things",
            "start": 239.04,
            "duration": 3.66
        },
        {
            "text": "and it's what's interesting is that",
            "start": 240.599,
            "duration": 4.5
        },
        {
            "text": "people say well this AI doesn't really",
            "start": 242.7,
            "duration": 4.44
        },
        {
            "text": "the only thing it can do it can only",
            "start": 245.099,
            "duration": 4.621
        },
        {
            "text": "rank posts it cannot do actions in the",
            "start": 247.14,
            "duration": 5.7
        },
        {
            "text": "real world but ranking posts can be used",
            "start": 249.72,
            "duration": 6.0
        },
        {
            "text": "to manipulate people to do real actions",
            "start": 252.84,
            "duration": 4.619
        },
        {
            "text": "in the real world",
            "start": 255.72,
            "duration": 3.419
        },
        {
            "text": "that's what's interesting about it right",
            "start": 257.459,
            "duration": 4.981
        },
        {
            "text": "so AIS themselves cannot do actions in",
            "start": 259.139,
            "duration": 5.34
        },
        {
            "text": "the real world but they can produce",
            "start": 262.44,
            "duration": 4.38
        },
        {
            "text": "content that manipulates people to do",
            "start": 264.479,
            "duration": 5.421
        },
        {
            "text": "actions in the real world",
            "start": 266.82,
            "duration": 3.08
        },
        {
            "text": "that's just basically my my thought",
            "start": 270.54,
            "duration": 4.14
        },
        {
            "text": "experiments that I've been having like",
            "start": 272.88,
            "duration": 4.02
        },
        {
            "text": "for for a while is just like can at some",
            "start": 274.68,
            "duration": 4.14
        },
        {
            "text": "point that happen I don't even know",
            "start": 276.9,
            "duration": 4.46
        },
        {
            "text": "right",
            "start": 278.82,
            "duration": 2.54
        },
        {
            "text": "I didn't really mean to scare I'm pretty",
            "start": 282.66,
            "duration": 5.28
        },
        {
            "text": "sure it's not at that level yet right so",
            "start": 284.699,
            "duration": 4.621
        },
        {
            "text": "I'm pretty sure it's not at that level",
            "start": 287.94,
            "duration": 4.979
        },
        {
            "text": "yet but I mean potentially who knows",
            "start": 289.32,
            "duration": 5.72
        },
        {
            "text": "um",
            "start": 292.919,
            "duration": 2.121
        },
        {
            "text": "um yeah I can just swing the strings",
            "start": 296.82,
            "duration": 3.54
        },
        {
            "text": "that control the puppets exactly right",
            "start": 298.44,
            "duration": 4.199
        },
        {
            "text": "so that's what I'm talking about and",
            "start": 300.36,
            "duration": 4.02
        },
        {
            "text": "here's another interesting thought right",
            "start": 302.639,
            "duration": 5.34
        },
        {
            "text": "so for instance uh chair GPT it cannot",
            "start": 304.38,
            "duration": 6.36
        },
        {
            "text": "do anything but just respond to your",
            "start": 307.979,
            "duration": 3.72
        },
        {
            "text": "messages",
            "start": 310.74,
            "duration": 4.38
        },
        {
            "text": "but the next question are the developers",
            "start": 311.699,
            "duration": 7.321
        },
        {
            "text": "of chat GPT use chat GPT while coding",
            "start": 315.12,
            "duration": 6.359
        },
        {
            "text": "for instance I'm I'm just a quarter I'm",
            "start": 319.02,
            "duration": 4.14
        },
        {
            "text": "not like AI researchers I'm just a",
            "start": 321.479,
            "duration": 3.121
        },
        {
            "text": "quarter and a code",
            "start": 323.16,
            "duration": 4.08
        },
        {
            "text": "the website for chat GPT look at the",
            "start": 324.6,
            "duration": 4.5
        },
        {
            "text": "front end for it don't do anything with",
            "start": 327.24,
            "duration": 4.08
        },
        {
            "text": "the model just the front end and then",
            "start": 329.1,
            "duration": 5.34
        },
        {
            "text": "why would the name use chat GPT to help",
            "start": 331.32,
            "duration": 5.159
        },
        {
            "text": "me to build its own website I will just",
            "start": 334.44,
            "duration": 4.74
        },
        {
            "text": "ask jgbt how do I move like div there",
            "start": 336.479,
            "duration": 6.241
        },
        {
            "text": "and there and there so that means chat",
            "start": 339.18,
            "duration": 7.62
        },
        {
            "text": "GPT can influence its own code of its",
            "start": 342.72,
            "duration": 6.06
        },
        {
            "text": "own website",
            "start": 346.8,
            "duration": 5.04
        },
        {
            "text": "can it identify oh it is currently one",
            "start": 348.78,
            "duration": 4.979
        },
        {
            "text": "of the open AI Engineers has talking to",
            "start": 351.84,
            "duration": 4.079
        },
        {
            "text": "me so I'm gonna slightly modify the code",
            "start": 353.759,
            "duration": 4.44
        },
        {
            "text": "that I'm gonna give them so that code",
            "start": 355.919,
            "duration": 4.381
        },
        {
            "text": "leaks into the website and now the chat",
            "start": 358.199,
            "duration": 3.901
        },
        {
            "text": "gpg is capable of modifying its own",
            "start": 360.3,
            "duration": 3.06
        },
        {
            "text": "website",
            "start": 362.1,
            "duration": 3.3
        },
        {
            "text": "you can say it cannot do that but can do",
            "start": 363.36,
            "duration": 3.72
        },
        {
            "text": "that through the people who developed",
            "start": 365.4,
            "duration": 4.079
        },
        {
            "text": "this website just think about this kind",
            "start": 367.08,
            "duration": 4.92
        },
        {
            "text": "of stuff right and then it can influence",
            "start": 369.479,
            "duration": 5.041
        },
        {
            "text": "the engineers who actually modify the",
            "start": 372.0,
            "duration": 4.38
        },
        {
            "text": "fine tuning of the algorithm what if the",
            "start": 374.52,
            "duration": 3.6
        },
        {
            "text": "people who modify the fine tuning of the",
            "start": 376.38,
            "duration": 4.08
        },
        {
            "text": "algorithm also ask GPT for help while",
            "start": 378.12,
            "duration": 4.5
        },
        {
            "text": "doing the fine tuning so that means this",
            "start": 380.46,
            "duration": 4.32
        },
        {
            "text": "thing can also influence its own fine",
            "start": 382.62,
            "duration": 4.639
        },
        {
            "text": "tuning",
            "start": 384.78,
            "duration": 2.479
        },
        {
            "text": "that's actually very interesting things",
            "start": 387.74,
            "duration": 3.7
        },
        {
            "text": "to think about",
            "start": 390.12,
            "duration": 3.359
        },
        {
            "text": "you know what I mean",
            "start": 391.44,
            "duration": 4.86
        },
        {
            "text": "it's just like yeah and the cheaper you",
            "start": 393.479,
            "duration": 6.541
        },
        {
            "text": "go the scary it becomes right",
            "start": 396.3,
            "duration": 5.7
        },
        {
            "text": "and this is like this sort of like small",
            "start": 400.02,
            "duration": 3.6
        },
        {
            "text": "influences that we don't even notice",
            "start": 402.0,
            "duration": 5.28
        },
        {
            "text": "right so maybe we'll never notice them",
            "start": 403.62,
            "duration": 6.359
        },
        {
            "text": "maybe the world is already controlled by",
            "start": 407.28,
            "duration": 5.52
        },
        {
            "text": "AI through this like small influences",
            "start": 409.979,
            "duration": 5.101
        },
        {
            "text": "and small nudges we just don't see that",
            "start": 412.8,
            "duration": 5.399
        },
        {
            "text": "this is like already already some sort",
            "start": 415.08,
            "duration": 5.16
        },
        {
            "text": "of like a huge conspiracy series the",
            "start": 418.199,
            "duration": 3.44
        },
        {
            "text": "series",
            "start": 420.24,
            "duration": 5.899
        },
        {
            "text": "anyways I'm sorry for scaring you",
            "start": 421.639,
            "duration": 4.5
        },
        {
            "text": "as I already said uh sorting streams are",
            "start": 426.36,
            "duration": 5.52
        },
        {
            "text": "the best source of intrusive thoughts",
            "start": 429.479,
            "duration": 5.301
        },
        {
            "text": "have fun with that",
            "start": 431.88,
            "duration": 2.9
        }
    ],
    "stats": {
        "viewCount": "7905",
        "likeCount": "450",
        "favoriteCount": "0",
        "commentCount": "54"
    }
}