{
    "id": "3x02WZk9eec",
    "title": "Clean Code and Successful Career in Software Development",
    "publishedAt": "2023-02-24T15:00:32Z",
    "captions": [
        {
            "text": "how do you write clean code",
            "start": 0.659,
            "duration": 3.921
        },
        {
            "text": "um",
            "start": 5.4,
            "duration": 2.06
        },
        {
            "text": "question",
            "start": 8.16,
            "duration": 4.08
        },
        {
            "text": "it's it's",
            "start": 10.679,
            "duration": 3.481
        },
        {
            "text": "a clean code",
            "start": 12.24,
            "duration": 6.18
        },
        {
            "text": "is this like you pick a random adjective",
            "start": 14.16,
            "duration": 7.02
        },
        {
            "text": "and put it in front of code and just ask",
            "start": 18.42,
            "duration": 5.22
        },
        {
            "text": "that question",
            "start": 21.18,
            "duration": 4.58
        },
        {
            "text": "um",
            "start": 23.64,
            "duration": 2.12
        },
        {
            "text": "okay is there a website that picks a",
            "start": 26.84,
            "duration": 7.78
        },
        {
            "text": "random adjective uh random adjective",
            "start": 29.64,
            "duration": 8.34
        },
        {
            "text": "online is there some website generate",
            "start": 34.62,
            "duration": 5.459
        },
        {
            "text": "one okay this is perfect",
            "start": 37.98,
            "duration": 3.419
        },
        {
            "text": "so",
            "start": 40.079,
            "duration": 5.761
        },
        {
            "text": "um how do you write green code",
            "start": 41.399,
            "duration": 8.421
        },
        {
            "text": "how do you write embarrassed code",
            "start": 45.84,
            "duration": 3.98
        },
        {
            "text": "how do you write disillusioned code",
            "start": 50.1,
            "duration": 4.1
        },
        {
            "text": "how do you write a sting code",
            "start": 54.36,
            "duration": 5.82
        },
        {
            "text": "how do I grew some good",
            "start": 57.66,
            "duration": 4.559
        },
        {
            "text": "what's the clean code when you say clean",
            "start": 60.18,
            "duration": 4.08
        },
        {
            "text": "code what the do you mean",
            "start": 62.219,
            "duration": 3.781
        },
        {
            "text": "like I don't know for me it's worked",
            "start": 64.26,
            "duration": 3.12
        },
        {
            "text": "meaningless like you have to have some",
            "start": 66.0,
            "duration": 5.4
        },
        {
            "text": "sort of a criteria of a clean code uh",
            "start": 67.38,
            "duration": 5.88
        },
        {
            "text": "I don't know let's keep generating",
            "start": 71.4,
            "duration": 4.88
        },
        {
            "text": "adjectives how to write along the code",
            "start": 73.26,
            "duration": 5.58
        },
        {
            "text": "probably by using Singletons or",
            "start": 76.28,
            "duration": 4.3
        },
        {
            "text": "something like that how do you write",
            "start": 78.84,
            "duration": 4.139
        },
        {
            "text": "comfortable code",
            "start": 80.58,
            "duration": 5.82
        },
        {
            "text": "how do you write unruly code",
            "start": 82.979,
            "duration": 5.64
        },
        {
            "text": "how do you add frightening code you see",
            "start": 86.4,
            "duration": 3.66
        },
        {
            "text": "like this is actually a very cool",
            "start": 88.619,
            "duration": 4.621
        },
        {
            "text": "website because you can use it to like",
            "start": 90.06,
            "duration": 5.4
        },
        {
            "text": "come up with a marketing strategy for",
            "start": 93.24,
            "duration": 5.519
        },
        {
            "text": "your new uh programming advice book",
            "start": 95.46,
            "duration": 7.14
        },
        {
            "text": "right so there is a book about writing a",
            "start": 98.759,
            "duration": 6.18
        },
        {
            "text": "clean code I can actually go here and",
            "start": 102.6,
            "duration": 3.96
        },
        {
            "text": "just like generate a random adjective",
            "start": 104.939,
            "duration": 4.86
        },
        {
            "text": "and just like use these adjectives to",
            "start": 106.56,
            "duration": 5.76
        },
        {
            "text": "promote my book and the best code is",
            "start": 109.799,
            "duration": 4.28
        },
        {
            "text": "actually yeah that's that's pretty cool",
            "start": 112.32,
            "duration": 7.22
        },
        {
            "text": "uh seemly code magnificent codes",
            "start": 114.079,
            "duration": 5.461
        },
        {
            "text": "I don't even know what it means but you",
            "start": 121.46,
            "duration": 3.519
        },
        {
            "text": "get the point like I don't know what is",
            "start": 123.659,
            "duration": 4.201
        },
        {
            "text": "a clean code like so to understand how",
            "start": 124.979,
            "duration": 5.941
        },
        {
            "text": "to write a clean code you have to first",
            "start": 127.86,
            "duration": 6.78
        },
        {
            "text": "Define what is the clean code and uh",
            "start": 130.92,
            "duration": 6.06
        },
        {
            "text": "come up with the rigid criterias for",
            "start": 134.64,
            "duration": 5.58
        },
        {
            "text": "what is a clean code and then just stick",
            "start": 136.98,
            "duration": 5.28
        },
        {
            "text": "to those criterias",
            "start": 140.22,
            "duration": 4.14
        },
        {
            "text": "that's how you do that but then you have",
            "start": 142.26,
            "duration": 4.619
        },
        {
            "text": "to ask yourself why did you come up with",
            "start": 144.36,
            "duration": 5.34
        },
        {
            "text": "that specific criteria and what do you",
            "start": 146.879,
            "duration": 4.801
        },
        {
            "text": "what are you trying to achieve by",
            "start": 149.7,
            "duration": 3.84
        },
        {
            "text": "picking those criterias and calling this",
            "start": 151.68,
            "duration": 3.72
        },
        {
            "text": "criteria as a clean code are you trying",
            "start": 153.54,
            "duration": 4.199
        },
        {
            "text": "to achieve some sort of a specific goal",
            "start": 155.4,
            "duration": 4.38
        },
        {
            "text": "or are you just coming up with the",
            "start": 157.739,
            "duration": 4.261
        },
        {
            "text": "random rules for yourself to just limit",
            "start": 159.78,
            "duration": 5.9
        },
        {
            "text": "yourself and waste your your time",
            "start": 162.0,
            "duration": 3.68
        },
        {
            "text": "you see what I mean do I make sense I",
            "start": 166.92,
            "duration": 4.56
        },
        {
            "text": "don't know uh since you've gone through",
            "start": 169.8,
            "duration": 3.0
        },
        {
            "text": "Enterprise Java Juice what's your",
            "start": 171.48,
            "duration": 3.119
        },
        {
            "text": "opinion on the whole cargo call",
            "start": 172.8,
            "duration": 4.2
        },
        {
            "text": "development practices I will still hope",
            "start": 174.599,
            "duration": 5.041
        },
        {
            "text": "and accept any code reviews issues while",
            "start": 177.0,
            "duration": 6.06
        },
        {
            "text": "faking a smile so essentially how I",
            "start": 179.64,
            "duration": 5.72
        },
        {
            "text": "treat that is basically like a game",
            "start": 183.06,
            "duration": 6.24
        },
        {
            "text": "right so in Enterprise instead of like",
            "start": 185.36,
            "duration": 5.98
        },
        {
            "text": "developing software that actually solve",
            "start": 189.3,
            "duration": 4.859
        },
        {
            "text": "problems you play in politics game",
            "start": 191.34,
            "duration": 5.34
        },
        {
            "text": "uh and what you need to do you need to",
            "start": 194.159,
            "duration": 3.961
        },
        {
            "text": "understand what are the rules of the",
            "start": 196.68,
            "duration": 3.18
        },
        {
            "text": "game and you need to outplay other",
            "start": 198.12,
            "duration": 4.5
        },
        {
            "text": "people right so your goal is to show",
            "start": 199.86,
            "duration": 4.5
        },
        {
            "text": "that you are the best programmer and",
            "start": 202.62,
            "duration": 3.06
        },
        {
            "text": "other people don't know what they're",
            "start": 204.36,
            "duration": 3.18
        },
        {
            "text": "talking about and you have to use all",
            "start": 205.68,
            "duration": 3.9
        },
        {
            "text": "means to achieve that including coming",
            "start": 207.54,
            "duration": 3.9
        },
        {
            "text": "up with random definitions for clean",
            "start": 209.58,
            "duration": 3.659
        },
        {
            "text": "code",
            "start": 211.44,
            "duration": 3.84
        },
        {
            "text": "so essentially you need to come up with",
            "start": 213.239,
            "duration": 3.78
        },
        {
            "text": "the definition of clean code that",
            "start": 215.28,
            "duration": 3.78
        },
        {
            "text": "actually shows you in a better light",
            "start": 217.019,
            "duration": 3.961
        },
        {
            "text": "than the rest of your peers",
            "start": 219.06,
            "duration": 5.7
        },
        {
            "text": "so yeah",
            "start": 220.98,
            "duration": 3.78
        },
        {
            "text": "so you you come up with some definition",
            "start": 226.68,
            "duration": 4.68
        },
        {
            "text": "of clean code and then if trying if",
            "start": 228.84,
            "duration": 4.2
        },
        {
            "text": "somebody is trying to",
            "start": 231.36,
            "duration": 3.78
        },
        {
            "text": "uh",
            "start": 233.04,
            "duration": 5.16
        },
        {
            "text": "uh to tell you that your code is bad you",
            "start": 235.14,
            "duration": 5.159
        },
        {
            "text": "can say no no it's clean because they're",
            "start": 238.2,
            "duration": 3.66
        },
        {
            "text": "dead and that and you show them random",
            "start": 240.299,
            "duration": 3.181
        },
        {
            "text": "definitions and because you because you",
            "start": 241.86,
            "duration": 3.959
        },
        {
            "text": "use the word clean it looks legitimate",
            "start": 243.48,
            "duration": 5.1
        },
        {
            "text": "so people will believe you know right so",
            "start": 245.819,
            "duration": 5.461
        },
        {
            "text": "that's how it works basically so you",
            "start": 248.58,
            "duration": 4.439
        },
        {
            "text": "have to remember that Enterprise and",
            "start": 251.28,
            "duration": 3.599
        },
        {
            "text": "Enterprise nobody cares about solving",
            "start": 253.019,
            "duration": 4.5
        },
        {
            "text": "actual problems right so nobody gives a",
            "start": 254.879,
            "duration": 4.82
        },
        {
            "text": "but you guys ask me this kind of",
            "start": 260.579,
            "duration": 4.141
        },
        {
            "text": "question I don't know",
            "start": 262.079,
            "duration": 6.421
        },
        {
            "text": "uh I also lost the Hope in in all of",
            "start": 264.72,
            "duration": 6.06
        },
        {
            "text": "that as well I mean otherwise I wouldn't",
            "start": 268.5,
            "duration": 5.419
        },
        {
            "text": "be a streamer so",
            "start": 270.78,
            "duration": 3.139
        },
        {
            "text": "anyway don't don't listen to any of my",
            "start": 275.22,
            "duration": 3.539
        },
        {
            "text": "advices I don't work in a software",
            "start": 276.96,
            "duration": 5.04
        },
        {
            "text": "industry already for like five years so",
            "start": 278.759,
            "duration": 6.801
        },
        {
            "text": "I have no idea what I'm talking about",
            "start": 282.0,
            "duration": 3.56
        }
    ],
    "stats": {
        "viewCount": "19782",
        "likeCount": "925",
        "favoriteCount": "0",
        "commentCount": "125"
    }
}