{
    "id": "6_C9h1dPp54",
    "title": "JavaScript is the new C",
    "publishedAt": "2022-09-05T15:15:11Z",
    "captions": [
        {
            "text": "uh let me enable the compilation for the",
            "start": 1.199,
            "duration": 8.101
        },
        {
            "text": "webassembly platform so and see how it",
            "start": 5.339,
            "duration": 5.701
        },
        {
            "text": "is going to fail",
            "start": 9.3,
            "duration": 4.08
        },
        {
            "text": "okay so I wanted to recompile actually",
            "start": 11.04,
            "duration": 5.159
        },
        {
            "text": "this entire stuff is it going to fail",
            "start": 13.38,
            "duration": 4.56
        },
        {
            "text": "it didn't really fail that much which is",
            "start": 16.199,
            "duration": 5.761
        },
        {
            "text": "nice so let's actually go to here and",
            "start": 17.94,
            "duration": 6.9
        },
        {
            "text": "let me take a look at the console",
            "start": 21.96,
            "duration": 7.079
        },
        {
            "text": "okay is trying to call to memset so this",
            "start": 24.84,
            "duration": 6.12
        },
        {
            "text": "is what's interesting about webassender",
            "start": 29.039,
            "duration": 3.781
        },
        {
            "text": "right so the program is trying to call",
            "start": 30.96,
            "duration": 4.439
        },
        {
            "text": "to ellipsey function that is not",
            "start": 32.82,
            "duration": 4.68
        },
        {
            "text": "implemented so we have to start",
            "start": 35.399,
            "duration": 6.18
        },
        {
            "text": "implementing leap C in JavaScript",
            "start": 37.5,
            "duration": 6.84
        },
        {
            "text": "yes that's what we're doing on on this",
            "start": 41.579,
            "duration": 5.221
        },
        {
            "text": "channel we're implementing leap C in",
            "start": 44.34,
            "duration": 4.68
        },
        {
            "text": "JavaScript in browser",
            "start": 46.8,
            "duration": 5.36
        },
        {
            "text": "so let's go",
            "start": 49.02,
            "duration": 3.14
        },
        {
            "text": "so",
            "start": 52.86,
            "duration": 2.719
        },
        {
            "text": "okay so let me see",
            "start": 55.64,
            "duration": 7.2
        },
        {
            "text": "we need to implement a mem set",
            "start": 58.199,
            "duration": 9.24
        },
        {
            "text": "S C and M right so let's go ahead and",
            "start": 62.84,
            "duration": 5.92
        },
        {
            "text": "Implement that",
            "start": 67.439,
            "duration": 4.261
        },
        {
            "text": "so what we need to do we need to take",
            "start": 68.76,
            "duration": 6.6
        },
        {
            "text": "the chunk of memory right of this size n",
            "start": 71.7,
            "duration": 6.239
        },
        {
            "text": "that starts at s",
            "start": 75.36,
            "duration": 6.36
        },
        {
            "text": "right so to do that we need to get that",
            "start": 77.939,
            "duration": 6.54
        },
        {
            "text": "memory so here's the was a module but we",
            "start": 81.72,
            "duration": 4.68
        },
        {
            "text": "don't really have a global access to the",
            "start": 84.479,
            "duration": 5.341
        },
        {
            "text": "Wasa module unfortunately so and this is",
            "start": 86.4,
            "duration": 5.46
        },
        {
            "text": "something that we'll have to fix right",
            "start": 89.82,
            "duration": 4.28
        },
        {
            "text": "so let's actually make a global variable",
            "start": 91.86,
            "duration": 6.299
        },
        {
            "text": "uh that refers to the wasm module right",
            "start": 94.1,
            "duration": 6.22
        },
        {
            "text": "and here as we get there was a module we",
            "start": 98.159,
            "duration": 5.64
        },
        {
            "text": "can actually assign uh that was a module",
            "start": 100.32,
            "duration": 5.1
        },
        {
            "text": "to double room",
            "start": 103.799,
            "duration": 3.301
        },
        {
            "text": "I actually want to rename that I'm going",
            "start": 105.42,
            "duration": 3.54
        },
        {
            "text": "to create a place to as a module with a",
            "start": 107.1,
            "duration": 5.28
        },
        {
            "text": "w0 to indicate that it's a thing that we",
            "start": 108.96,
            "duration": 5.519
        },
        {
            "text": "initialize this top with but for this",
            "start": 112.38,
            "duration": 3.839
        },
        {
            "text": "one I'm gonna clear the place with a",
            "start": 114.479,
            "duration": 5.041
        },
        {
            "text": "little W there we go so this is like",
            "start": 116.219,
            "duration": 6.481
        },
        {
            "text": "um purely preferential naming nothing",
            "start": 119.52,
            "duration": 4.8
        },
        {
            "text": "nothing particular special period",
            "start": 122.7,
            "duration": 4.739
        },
        {
            "text": "referential and another thing we can do",
            "start": 124.32,
            "duration": 5.219
        },
        {
            "text": "in here we can do something cool we can",
            "start": 127.439,
            "duration": 4.141
        },
        {
            "text": "align by regular expression boom look",
            "start": 129.539,
            "duration": 5.101
        },
        {
            "text": "how nice it looks like can your veeam do",
            "start": 131.58,
            "duration": 6.12
        },
        {
            "text": "that tell me tell me can your room do",
            "start": 134.64,
            "duration": 5.16
        },
        {
            "text": "that it cannot do",
            "start": 137.7,
            "duration": 4.64
        },
        {
            "text": "bro",
            "start": 139.8,
            "duration": 2.54
        },
        {
            "text": "though to be fair like I couldn't find",
            "start": 142.86,
            "duration": 5.28
        },
        {
            "text": "the analog of a line by regular",
            "start": 145.14,
            "duration": 5.459
        },
        {
            "text": "expression in veeam out of the box I",
            "start": 148.14,
            "duration": 4.02
        },
        {
            "text": "know that you can write an extension and",
            "start": 150.599,
            "duration": 3.301
        },
        {
            "text": "stuff like that but out of the box like",
            "start": 152.16,
            "duration": 3.96
        },
        {
            "text": "I couldn't find anything like that",
            "start": 153.9,
            "duration": 4.64
        },
        {
            "text": "but in emacs it actually comes without",
            "start": 156.12,
            "duration": 5.839
        },
        {
            "text": "out of the box",
            "start": 158.54,
            "duration": 3.419
        },
        {
            "text": "so and of course like I mean there the",
            "start": 164.16,
            "duration": 4.799
        },
        {
            "text": "the text edges as equivalent if there's",
            "start": 166.5,
            "duration": 4.98
        },
        {
            "text": "if there's something lacking in one",
            "start": 168.959,
            "duration": 4.261
        },
        {
            "text": "editor you can always just implement it",
            "start": 171.48,
            "duration": 3.72
        },
        {
            "text": "right they all have like a turing",
            "start": 173.22,
            "duration": 3.72
        },
        {
            "text": "complete language in them",
            "start": 175.2,
            "duration": 4.22
        },
        {
            "text": "so",
            "start": 176.94,
            "duration": 2.48
        },
        {
            "text": "all right so no I probably want to do",
            "start": 179.7,
            "duration": 7.94
        },
        {
            "text": "query places no and say no 64. all right",
            "start": 182.22,
            "duration": 5.42
        },
        {
            "text": "okay",
            "start": 188.4,
            "duration": 4.86
        },
        {
            "text": "so in memset uh we need to take the",
            "start": 189.959,
            "duration": 5.941
        },
        {
            "text": "buffer right so this is going to be",
            "start": 193.26,
            "duration": 4.28
        },
        {
            "text": "instance",
            "start": 195.9,
            "duration": 6.36
        },
        {
            "text": "experts memory buffer so here's an",
            "start": 197.54,
            "duration": 7.24
        },
        {
            "text": "interesting thing right so when you work",
            "start": 202.26,
            "duration": 5.88
        },
        {
            "text": "with the web assembly but in JavaScript",
            "start": 204.78,
            "duration": 6.539
        },
        {
            "text": "you have a memory literally as an array",
            "start": 208.14,
            "duration": 5.4
        },
        {
            "text": "right you have a buffer and if you",
            "start": 211.319,
            "duration": 4.261
        },
        {
            "text": "modify that buffer you literally modify",
            "start": 213.54,
            "duration": 4.619
        },
        {
            "text": "an internal memory of webassembly right",
            "start": 215.58,
            "duration": 5.7
        },
        {
            "text": "so if you've got a pointer it's going to",
            "start": 218.159,
            "duration": 6.36
        },
        {
            "text": "be an index an index of the byte within",
            "start": 221.28,
            "duration": 5.76
        },
        {
            "text": "that buffer right so essentially to the",
            "start": 224.519,
            "duration": 4.08
        },
        {
            "text": "reference that index you do something",
            "start": 227.04,
            "duration": 4.199
        },
        {
            "text": "like this right ID reference that index",
            "start": 228.599,
            "duration": 5.7
        },
        {
            "text": "and I got the byte out of it right so",
            "start": 231.239,
            "duration": 5.7
        },
        {
            "text": "this is how you program like a low level",
            "start": 234.299,
            "duration": 6.101
        },
        {
            "text": "JavaScript if that makes any sense",
            "start": 236.939,
            "duration": 3.841
        },
        {
            "text": "[Music]",
            "start": 240.4,
            "duration": 1.36
        },
        {
            "text": "um",
            "start": 240.78,
            "duration": 3.48
        },
        {
            "text": "the second pile J2 rube assembly and",
            "start": 241.76,
            "duration": 4.0
        },
        {
            "text": "then run it using JavaScript that's",
            "start": 244.26,
            "duration": 3.0
        },
        {
            "text": "precisely what they do",
            "start": 245.76,
            "duration": 3.24
        },
        {
            "text": "that's precisely what they do if you're",
            "start": 247.26,
            "duration": 5.16
        },
        {
            "text": "interested how exactly I do that I",
            "start": 249.0,
            "duration": 6.12
        },
        {
            "text": "actually uh created like a proof of",
            "start": 252.42,
            "duration": 4.68
        },
        {
            "text": "concept that demonstrates how you can do",
            "start": 255.12,
            "duration": 4.019
        },
        {
            "text": "that as well right if you have a Java",
            "start": 257.1,
            "duration": 4.139
        },
        {
            "text": "Java compiler of course right so this is",
            "start": 259.139,
            "duration": 3.901
        },
        {
            "text": "like a complete example that",
            "start": 261.239,
            "duration": 4.221
        },
        {
            "text": "demonstrates how you can do that right",
            "start": 263.04,
            "duration": 5.939
        },
        {
            "text": "and uh this is how it looks like right",
            "start": 265.46,
            "duration": 5.5
        },
        {
            "text": "so this animation is being generated",
            "start": 268.979,
            "duration": 3.841
        },
        {
            "text": "pixel by pixel in real time by",
            "start": 270.96,
            "duration": 3.78
        },
        {
            "text": "webassembly module generated from a GI",
            "start": 272.82,
            "duration": 5.28
        },
        {
            "text": "program right so this animation is being",
            "start": 274.74,
            "duration": 7.26
        },
        {
            "text": "drawn by Jai",
            "start": 278.1,
            "duration": 6.18
        },
        {
            "text": "pixel by pixel by the way it's pixel by",
            "start": 282.0,
            "duration": 4.199
        },
        {
            "text": "pixel animation",
            "start": 284.28,
            "duration": 5.1
        },
        {
            "text": "right so and everything is documented in",
            "start": 286.199,
            "duration": 5.341
        },
        {
            "text": "this report right so if you have a j",
            "start": 289.38,
            "duration": 3.539
        },
        {
            "text": "compiler if you're one of the better",
            "start": 291.54,
            "duration": 3.36
        },
        {
            "text": "tester you can try to replicate this",
            "start": 292.919,
            "duration": 3.961
        },
        {
            "text": "thing on your machine as well but it",
            "start": 294.9,
            "duration": 3.78
        },
        {
            "text": "only works for Linux now right because",
            "start": 296.88,
            "duration": 4.86
        },
        {
            "text": "like I have a Linux environment and uh",
            "start": 298.68,
            "duration": 6.42
        },
        {
            "text": "Microsoft does not provide windows in my",
            "start": 301.74,
            "duration": 4.94
        },
        {
            "text": "country anymore",
            "start": 305.1,
            "duration": 4.08
        },
        {
            "text": "I mean that you can always buy it but I",
            "start": 306.68,
            "duration": 5.14
        },
        {
            "text": "mean that's besides the point uh so yeah",
            "start": 309.18,
            "duration": 4.76
        },
        {
            "text": "anyway",
            "start": 311.82,
            "duration": 2.12
        },
        {
            "text": "oops yep",
            "start": 320.22,
            "duration": 3.72
        },
        {
            "text": "anyway so let's continue",
            "start": 325.68,
            "duration": 3.62
        },
        {
            "text": "um all right so the cool thing is that",
            "start": 331.5,
            "duration": 4.32
        },
        {
            "text": "we can actually take a slice out of the",
            "start": 333.96,
            "duration": 6.72
        },
        {
            "text": "buffer right so I can do uint 8 array",
            "start": 335.82,
            "duration": 7.14
        },
        {
            "text": "and I'm gonna say that okay use buffer",
            "start": 340.68,
            "duration": 6.18
        },
        {
            "text": "and start from s and take the size n",
            "start": 342.96,
            "duration": 6.36
        },
        {
            "text": "right and here we can have something",
            "start": 346.86,
            "duration": 6.54
        },
        {
            "text": "like oh how can I say that like like a",
            "start": 349.32,
            "duration": 6.12
        },
        {
            "text": "chunk let's call it chunk",
            "start": 353.4,
            "duration": 5.519
        },
        {
            "text": "I'm gonna do console lope chunk and",
            "start": 355.44,
            "duration": 4.74
        },
        {
            "text": "let's see how it's going to react",
            "start": 358.919,
            "duration": 2.881
        },
        {
            "text": "specifically to that",
            "start": 360.18,
            "duration": 4.32
        },
        {
            "text": "can I cover a big in oh okay so s is",
            "start": 361.8,
            "duration": 4.8
        },
        {
            "text": "actually big int because it's a 64-bit",
            "start": 364.5,
            "duration": 4.58
        },
        {
            "text": "integer",
            "start": 366.6,
            "duration": 2.48
        },
        {
            "text": "uh 64-bit integers so it's a number so",
            "start": 369.319,
            "duration": 6.82
        },
        {
            "text": "this is what I'll have to do uh and I",
            "start": 373.319,
            "duration": 4.44
        },
        {
            "text": "wonder if I have to do that for both of",
            "start": 376.139,
            "duration": 3.721
        },
        {
            "text": "them I think I think it's for both of",
            "start": 377.759,
            "duration": 4.621
        },
        {
            "text": "them yeah there we go so this is uh the",
            "start": 379.86,
            "duration": 5.36
        },
        {
            "text": "chunk of memory we got so that means",
            "start": 382.38,
            "duration": 6.3
        },
        {
            "text": "game was trying to set 4 kilobytes of",
            "start": 385.22,
            "duration": 4.479
        },
        {
            "text": "memory",
            "start": 388.68,
            "duration": 3.6
        },
        {
            "text": "uh right and as far as I know you can do",
            "start": 389.699,
            "duration": 5.22
        },
        {
            "text": "you int 8 array field right you can",
            "start": 392.28,
            "duration": 5.34
        },
        {
            "text": "literally feel it okay so we have an",
            "start": 394.919,
            "duration": 5.881
        },
        {
            "text": "analog of memset uh in JavaScript which",
            "start": 397.62,
            "duration": 4.199
        },
        {
            "text": "is nice",
            "start": 400.8,
            "duration": 3.019
        },
        {
            "text": "right",
            "start": 401.819,
            "duration": 4.32
        },
        {
            "text": "so and you can actually set the value so",
            "start": 403.819,
            "duration": 4.901
        },
        {
            "text": "I can do the following thing I can do",
            "start": 406.139,
            "duration": 6.18
        },
        {
            "text": "um the field with c and if I remember",
            "start": 408.72,
            "duration": 5.94
        },
        {
            "text": "correct the memset returns the pointer",
            "start": 412.319,
            "duration": 4.681
        },
        {
            "text": "back right so it takes the pointer and",
            "start": 414.66,
            "duration": 4.56
        },
        {
            "text": "also returns it back right I don't",
            "start": 417.0,
            "duration": 4.56
        },
        {
            "text": "really know why why but it does that",
            "start": 419.22,
            "duration": 5.22
        },
        {
            "text": "right okay so let's actually try to see",
            "start": 421.56,
            "duration": 6.78
        },
        {
            "text": "if it works now and looks like it worked",
            "start": 424.44,
            "duration": 7.259
        },
        {
            "text": "it just like memset memory and it didn't",
            "start": 428.34,
            "duration": 6.44
        },
        {
            "text": "try to do anything else",
            "start": 431.699,
            "duration": 3.081
        }
    ],
    "stats": {
        "viewCount": "96739",
        "likeCount": "2633",
        "favoriteCount": "0",
        "commentCount": "226"
    }
}