{
    "id": "8vRuUFMXUdY",
    "title": "Cracking Secret Message with C and Computer Vision",
    "publishedAt": "2024-06-06T13:31:32Z",
    "captions": [
        {
            "text": "[artemchan] PogChamp",
            "start": 8.0,
            "duration": 4.0
        },
        {
            "text": "[mbilyanov] so early, what is going on lol",
            "start": 12.0,
            "duration": 6.0
        },
        {
            "text": "[afterschoolchan] Hello, Mr. Zozzin",
            "start": 18.0,
            "duration": 6.0
        },
        {
            "text": "[boolmano] average for books",
            "start": 24.0,
            "duration": 53.0
        },
        {
            "text": "[cephon_altera] low probability of the notebook being used",
            "start": 77.0,
            "duration": 4.0
        },
        {
            "text": "[casensio] !today",
            "start": 81.0,
            "duration": 8.0
        },
        {
            "text": "[boolmano] nice screenshot bro",
            "start": 89.0,
            "duration": 1.0
        },
        {
            "text": "[mbilyanov] !today",
            "start": 90.0,
            "duration": 17.0
        },
        {
            "text": "[switchmeplease] You have no any document scanner?",
            "start": 107.0,
            "duration": 20.0
        },
        {
            "text": "[ajaybhaijitega] LGTM",
            "start": 127.0,
            "duration": 14.0
        },
        {
            "text": "[rustputin_] russian minesweeper",
            "start": 141.0,
            "duration": 5.0
        },
        {
            "text": "[themelopeus] that's so cool",
            "start": 146.0,
            "duration": 6.0
        },
        {
            "text": "[sn0wcr4sh_] @rustputin_ lmfao",
            "start": 152.0,
            "duration": 2.0
        },
        {
            "text": "[\uc591\ub2f4\uc744 (put_sheep)] Zozin cipher lol",
            "start": 154.0,
            "duration": 14.0
        },
        {
            "text": "[koikoder] koikoder subscribed at Tier 1. They've subscribed for 14 months, currently on a 12 month streak! Tell me you are a KGB agent without telling me you are a KGB agent. tsodinPause",
            "start": 168.0,
            "duration": 3.0
        },
        {
            "text": "[takkeo] Pog",
            "start": 171.0,
            "duration": 6.0
        },
        {
            "text": "[tw_int] Tsodingcode",
            "start": 177.0,
            "duration": 2.0
        },
        {
            "text": "[theartofwar26] tthat so cool",
            "start": 179.0,
            "duration": 3.0
        },
        {
            "text": "[leiswatch] :o",
            "start": 182.0,
            "duration": 5.0
        },
        {
            "text": "[hackme_3] Did you do the base64 in your head though",
            "start": 187.0,
            "duration": 11.0
        },
        {
            "text": "[saltyarch] Pog",
            "start": 198.0,
            "duration": 1.0
        },
        {
            "text": "[bullpsy_] so if my mom finds it you gone body",
            "start": 199.0,
            "duration": 1.0
        },
        {
            "text": "[naimaaannnn] Pog",
            "start": 200.0,
            "duration": 1.0
        },
        {
            "text": "[boolmano] furry",
            "start": 201.0,
            "duration": 1.0
        },
        {
            "text": "[takkeo] nice",
            "start": 202.0,
            "duration": 3.0
        },
        {
            "text": "[intr1k4t] did you get fired from your job?",
            "start": 205.0,
            "duration": 6.0
        },
        {
            "text": "[hal_9] notebook is cool",
            "start": 211.0,
            "duration": 3.0
        },
        {
            "text": "[eric_nakamoto] Nice\n[ajaybhaijitega] what if you are not BibleThump BibleThump BibleThump",
            "start": 214.0,
            "duration": 1.0
        },
        {
            "text": "[saltyarch] That was better than 9-% of ppl in drawing section on twitch television website",
            "start": 215.0,
            "duration": 5.0
        },
        {
            "text": "[koikoder] @intr1k4t He is the job",
            "start": 220.0,
            "duration": 23.0
        },
        {
            "text": "[sn0wcr4sh_] PogChamp PogChamp PogChamp\n[helmutschneider] uwu early tsoding stream!",
            "start": 243.0,
            "duration": 13.0
        },
        {
            "text": "[sn0wcr4sh_] 3:15 AM rip sleep",
            "start": 256.0,
            "duration": 10.0
        },
        {
            "text": "[temperthetadelta] custom qr code format go brrr",
            "start": 266.0,
            "duration": 7.0
        },
        {
            "text": "[mbilyanov] Using C, I hope \ud83e\ude86",
            "start": 273.0,
            "duration": 4.0
        },
        {
            "text": "[themelopeus] you should re-shape it into a rectangle from that paralelogram",
            "start": 277.0,
            "duration": 17.0
        },
        {
            "text": "[\uc591\ub2f4\uc744 (put_sheep)] Let's do homography",
            "start": 294.0,
            "duration": 9.0
        },
        {
            "text": "[a66ath] I did something like this for my master's thesis",
            "start": 303.0,
            "duration": 6.0
        },
        {
            "text": "[tw_int] !today",
            "start": 309.0,
            "duration": 10.0
        },
        {
            "text": "[dshindov] automatic \u0415\u0413\u042d parser let's go",
            "start": 319.0,
            "duration": 11.0
        },
        {
            "text": "[takkeo] SeemsGood",
            "start": 330.0,
            "duration": 5.0
        },
        {
            "text": "[themelopeus] Could you scale it down untill you have just 1 pixel per cell?",
            "start": 335.0,
            "duration": 4.0
        },
        {
            "text": "[pentagonhacker] forsenE\n[iwas_official] Pog",
            "start": 339.0,
            "duration": 12.0
        },
        {
            "text": "[takkeo] Pogey  2010",
            "start": 351.0,
            "duration": 50.0
        },
        {
            "text": "[duskyelf_cool] @ChaseCares He's a calm person\n[apparentlypotatoes] that's very hot",
            "start": 401.0,
            "duration": 3.0
        },
        {
            "text": "[afterschoolchan] PanimOS",
            "start": 404.0,
            "duration": 8.0
        },
        {
            "text": "[sudokufan] HACKERMANS",
            "start": 412.0,
            "duration": 13.0
        },
        {
            "text": "[duskyelf_cool] This wrapper around Raylib",
            "start": 425.0,
            "duration": 12.0
        },
        {
            "text": "[duskyelf_cool] not a wrapper, but just one more feature",
            "start": 437.0,
            "duration": 15.0
        },
        {
            "text": "[rustputin_] you are becoming a Panim Andy",
            "start": 452.0,
            "duration": 38.0
        },
        {
            "text": "[vulpes_manius] \u041a\u0430\u043a \u0433\u043e\u0432\u043e\u0440\u0438\u0442\u0441\u044f, why not?",
            "start": 490.0,
            "duration": 22.0
        },
        {
            "text": "[tw_int] !cyril why not?\n[mrbotka] \u0448\u043dy \u043f\u0444\u0442?",
            "start": 512.0,
            "duration": 17.0
        },
        {
            "text": "[sudokufan] @mrbotka LUL",
            "start": 529.0,
            "duration": 57.0
        },
        {
            "text": "[sudokufan] !cyril C is just a wrapper around assembly, which is itself a wrapper around machine code",
            "start": 586.0,
            "duration": 1.0
        },
        {
            "text": "[mrbotka] C is j\u0446s\u0442 \u0434 \u0448\u0433\u0434pp\u0451\u0433 \u0434\u0433\u0444\u0446\u043fd \u0434ss\u0451\u043c\u0431ly, \u0448\u043dic\u043d is i\u0442s\u0451lf \u0434 \u0448\u0433\u0434pp\u0451\u0433 \u0434\u0433\u0444\u0446\u043fd \u043c\u0434c\u043di\u043f\u0451 c\u0444d\u0451",
            "start": 587.0,
            "duration": 14.0
        },
        {
            "text": "[sn0wcr4sh_] @MrBotka so tired i can read russian",
            "start": 601.0,
            "duration": 8.0
        },
        {
            "text": "[keshancs] you can load texture from image",
            "start": 609.0,
            "duration": 5.0
        },
        {
            "text": "[keshancs] yup",
            "start": 614.0,
            "duration": 17.0
        },
        {
            "text": "[rustputin_] !cyril CLITERAL",
            "start": 631.0,
            "duration": 1.0
        },
        {
            "text": "[mrbotka] CLIT\u0401\u042f\u0414L",
            "start": 632.0,
            "duration": 1.0
        },
        {
            "text": "[sudokufan] !cyril",
            "start": 633.0,
            "duration": 1.0
        },
        {
            "text": "[afterschoolchan] I just know that the difference of image and texture is just the location",
            "start": 634.0,
            "duration": 20.0
        },
        {
            "text": "[duskyelf_cool] !help",
            "start": 654.0,
            "duration": 1.0
        },
        {
            "text": "[mrbotka] @duskyelf_cool command `help` does not exist",
            "start": 655.0,
            "duration": 11.0
        },
        {
            "text": "[sudokufan] !cyril LUL\n[mrbotka] L\u0426L",
            "start": 666.0,
            "duration": 15.0
        },
        {
            "text": "[sudokufan] !cyril KEKW\n[mrbotka] K\u0401K\u0428",
            "start": 681.0,
            "duration": 10.0
        },
        {
            "text": "[sudokufan] !cyril Keking\n[mrbotka] K\u0451\u043ai\u043fg",
            "start": 691.0,
            "duration": 2.0
        },
        {
            "text": "[duskyelf_cool] !cyril DuskyElf",
            "start": 693.0,
            "duration": 1.0
        },
        {
            "text": "[mrbotka] D\u0446s\u043ay\u0401lf",
            "start": 694.0,
            "duration": 42.0
        },
        {
            "text": "[lifeez] !cyril Hello World\n[mrbotka] H\u0451ll\u0444 \u0428\u0444\u0433ld",
            "start": 736.0,
            "duration": 28.0
        },
        {
            "text": "[tw_int] chat, calm down",
            "start": 764.0,
            "duration": 16.0
        },
        {
            "text": "[lifeez] !cyril calm down\n[mrbotka] c\u0434l\u043c d\u0444\u0448\u043f",
            "start": 780.0,
            "duration": 2.0
        },
        {
            "text": "[mini__bomba] wooo image viewer in c",
            "start": 782.0,
            "duration": 22.0
        },
        {
            "text": "[eliphazbouye] Hi Mr tsoding",
            "start": 804.0,
            "duration": 4.0
        },
        {
            "text": "[duskyelf_cool] !cyril imagine viewer in c\n[mrbotka] i\u043c\u0434gi\u043f\u0451 vi\u0451\u0448\u0451\u0433 i\u043f c",
            "start": 808.0,
            "duration": 12.0
        },
        {
            "text": "[mini__bomba] hwell",
            "start": 820.0,
            "duration": 24.0
        },
        {
            "text": "[pillepalle73] heya folks honoHallo",
            "start": 844.0,
            "duration": 2.0
        },
        {
            "text": "[eliphazbouye] Mr Tsoding are you already use a BSD OS ?",
            "start": 846.0,
            "duration": 29.0
        },
        {
            "text": "[sn0wcr4sh_] damn cool",
            "start": 875.0,
            "duration": 2.0
        },
        {
            "text": "[mini__bomba] image viewer in c Pog",
            "start": 877.0,
            "duration": 4.0
        },
        {
            "text": "[allcompressed] first try Pog",
            "start": 881.0,
            "duration": 1.0
        },
        {
            "text": "[hal_9] Can you make it to zoom at the cursor?\n[nigelwithrow] just recreated feh",
            "start": 882.0,
            "duration": 4.0
        },
        {
            "text": "[boolmano] !cyril qwertyuiopasdfghjklzxcvbnm\u0439\u0446\u0443\u043a\u0435\u043d\u0433\u0448\u0449\u0437\u0445\u044a\u0444\u044b\u0432\u0430\u043f\u0440\u043e\u043b\u0434\u0436\u044d\u044f\u0447\u0441\u043c\u0438\u0442\u044c\u0431\u044e\n[mrbotka] q\u0448\u0451\u0433\u0442y\u0446i\u0444p\u0434sdfg\u043dj\u043alz\u0436cv\u0431\u043f\u043c\u0439\u0446\u0443\u043a\u0435\u043d\u0433\u0448\u0449\u0437\u0445\u044a\u0444\u044b\u0432\u0430\u043f\u0440\u043e\u043b\u0434\u0436\u044d\u044f\u0447\u0441\u043c\u0438\u0442\u044c\u0431\u044e",
            "start": 886.0,
            "duration": 194.0
        },
        {
            "text": "[corranr] corranr subscribed at Tier 1. They've subscribed for 13 months! COMPUTERS?",
            "start": 1080.0,
            "duration": 142.0
        },
        {
            "text": "[tw_int] lagging. probably need to set FPS",
            "start": 1222.0,
            "duration": 269.0
        },
        {
            "text": "[joel1337] KEKW",
            "start": 1491.0,
            "duration": 3.0
        },
        {
            "text": "[sn0wcr4sh_] PogChamp",
            "start": 1494.0,
            "duration": 3.0
        },
        {
            "text": "[cephon_altera] already better than feh",
            "start": 1497.0,
            "duration": 1.0
        },
        {
            "text": "[sudokufan] !cyril \ud83e\udd21\n[mrbotka] \ud83e\udd21",
            "start": 1498.0,
            "duration": 3.0
        },
        {
            "text": "[joel1337] doenst",
            "start": 1501.0,
            "duration": 4.0
        },
        {
            "text": "[rurinka] Pog",
            "start": 1505.0,
            "duration": 6.0
        },
        {
            "text": "[sn0wcr4sh_] holy shit",
            "start": 1511.0,
            "duration": 3.0
        },
        {
            "text": "[hal_9] so good, and made it in 15 mins",
            "start": 1514.0,
            "duration": 2.0
        },
        {
            "text": "[krzysckh] wouldn't it be easier to not care about \"states\" and just add mouse delta to the camera offset when mouse is down?",
            "start": 1516.0,
            "duration": 2.0
        },
        {
            "text": "[keshancs] already better than photoshop",
            "start": 1518.0,
            "duration": 4.0
        },
        {
            "text": "[s4my_h4ck3r] just like that you made google maps",
            "start": 1522.0,
            "duration": 71.0
        },
        {
            "text": "[bjumahoke] i wonder how many dependencies the average js dev would need to make that\n[themelopeus] Shoudn't the 3rd point pe (200,200)? To have them go in clockwise direction",
            "start": 1593.0,
            "duration": 82.0
        },
        {
            "text": "[belst_] can't you also change the camera offset so camera 0,0 is also top left?",
            "start": 1675.0,
            "duration": 23.0
        },
        {
            "text": "[boolmano] maybe use macro for mapping dots at the image?",
            "start": 1698.0,
            "duration": 28.0
        },
        {
            "text": "[bjumahoke] right mouse button to drag nodes?",
            "start": 1726.0,
            "duration": 16.0
        },
        {
            "text": "[tw_int] or one key to cycle markers",
            "start": 1742.0,
            "duration": 10.0
        },
        {
            "text": "[s4my_h4ck3r] or CTRL + click",
            "start": 1752.0,
            "duration": 14.0
        },
        {
            "text": "[ne4ehbk0] Middle",
            "start": 1766.0,
            "duration": 12.0
        },
        {
            "text": "[krzysckh] this also would be easier if you just added mouse delta to the offset every frame - then you can just add the mouse delta to position of each node when mouse is in the given circle",
            "start": 1778.0,
            "duration": 2.0
        },
        {
            "text": "[krzysckh] o_O",
            "start": 1780.0,
            "duration": 10.0
        },
        {
            "text": "[albertogp_twitch] enum instead of boolean for dragging state?",
            "start": 1790.0,
            "duration": 8.0
        },
        {
            "text": "[bjumahoke] @AlbertoGP_twitch this",
            "start": 1798.0,
            "duration": 10.0
        },
        {
            "text": "[akoya_here] !today",
            "start": 1808.0,
            "duration": 113.0
        },
        {
            "text": "[sudokufan] !cyril !today\n[mrbotka] @s\u0446d\u0444\u043a\u0446f\u0434\u043f D\u0451c\u0444di\u043fg S\u0451c\u0433\u0451\u0442 M\u0451ss\u0434g\u0451 f\u0433\u0444\u043c \u0442\u043d\u0451 P\u0434s\u0442 \u0446si\u043fg C\u0444\u043cp\u0446\u0442\u0451\u0433 Visi\u0444\u043f",
            "start": 1921.0,
            "duration": 21.0
        },
        {
            "text": "[keshancs] @sudokufan can you chill the fuck out?",
            "start": 1942.0,
            "duration": 51.0
        },
        {
            "text": "[themelopeus] do that if it's easier",
            "start": 1993.0,
            "duration": 4.0
        },
        {
            "text": "[jamestansx] !today",
            "start": 1997.0,
            "duration": 20.0
        },
        {
            "text": "[albertogp_twitch] Keys 1..4 + click to move each node?",
            "start": 2017.0,
            "duration": 77.0
        },
        {
            "text": "[albertogp_twitch] PogChamp",
            "start": 2094.0,
            "duration": 91.0
        },
        {
            "text": "[iwas_official] POGGERS",
            "start": 2185.0,
            "duration": 2.0
        },
        {
            "text": "[larsgretnes] What in the world - streaming at this hour? Did Tsoding forget to go to bed? :p",
            "start": 2187.0,
            "duration": 3.0
        },
        {
            "text": "[tw_int] haxor",
            "start": 2190.0,
            "duration": 20.0
        },
        {
            "text": "[sn0wcr4sh_] bro just made connect 4",
            "start": 2210.0,
            "duration": 3.0
        },
        {
            "text": "[themelopeus] Why did you put them in that order? Criss crossed?",
            "start": 2213.0,
            "duration": 9.0
        },
        {
            "text": "[shivanshukantprasad] label the circles?",
            "start": 2222.0,
            "duration": 1.0
        },
        {
            "text": "[sudokufan] KEKW",
            "start": 2223.0,
            "duration": 2.0
        },
        {
            "text": "[koikoder] Dnd is for losers",
            "start": 2225.0,
            "duration": 4.0
        },
        {
            "text": "[sn0wcr4sh_] LUL",
            "start": 2229.0,
            "duration": 17.0
        },
        {
            "text": "[tw_int] @TheMelopeus opengl?",
            "start": 2246.0,
            "duration": 15.0
        },
        {
            "text": "[abraomd] Trello is in shambles",
            "start": 2261.0,
            "duration": 2.0
        },
        {
            "text": "[keshancs] dnd deez nuts",
            "start": 2263.0,
            "duration": 1.0
        },
        {
            "text": "[sn0wcr4sh_] lol\n[gorkii_pirozhok] :)",
            "start": 2264.0,
            "duration": 1.0
        },
        {
            "text": "[gunash_farzaliyev] antalya is best place for vacation do you want 5 night 4 day for only 500 euro?",
            "start": 2265.0,
            "duration": 5.0
        },
        {
            "text": "[pirlaa_] Too Bad you needed one extra column on the right",
            "start": 2270.0,
            "duration": 7.0
        },
        {
            "text": "[themelopeus] @tw_int Aahh that's the order for drawing the triangles?",
            "start": 2277.0,
            "duration": 15.0
        },
        {
            "text": "[bl4ckhaz3] !today",
            "start": 2292.0,
            "duration": 2.0
        },
        {
            "text": "[tw_int] @TheMelopeus I think so",
            "start": 2294.0,
            "duration": 5.0
        },
        {
            "text": "[timberbro] shmol dots pspBebi",
            "start": 2299.0,
            "duration": 25.0
        },
        {
            "text": "[tw_int] draw a tor",
            "start": 2324.0,
            "duration": 8.0
        },
        {
            "text": "[themelopeus] can you draw a line between them so you see the area?",
            "start": 2332.0,
            "duration": 26.0
        },
        {
            "text": "[krzysckh] printf to file then scanf from file KEKW",
            "start": 2358.0,
            "duration": 16.0
        },
        {
            "text": "[bl4ckhaz3] is Tsoding solving a message in a bottle? Kappa",
            "start": 2374.0,
            "duration": 27.0
        },
        {
            "text": "[tw_int] his message from the past",
            "start": 2401.0,
            "duration": 6.0
        },
        {
            "text": "[iwas_official] KEKW",
            "start": 2407.0,
            "duration": 15.0
        },
        {
            "text": "[bl4ckhaz3] a time capsule message",
            "start": 2422.0,
            "duration": 14.0
        },
        {
            "text": "[halianlian] !today",
            "start": 2436.0,
            "duration": 48.0
        },
        {
            "text": "[tw_int] Bitcoin passcode from 1st weeks of Bitcoin KEK",
            "start": 2484.0,
            "duration": 41.0
        },
        {
            "text": "[pirlaa_] The fact nodes didnt reset to zero is insane",
            "start": 2525.0,
            "duration": 35.0
        },
        {
            "text": "[halianlian] wow, just accidentally landed in the live stream... watching live for the first time...",
            "start": 2560.0,
            "duration": 24.0
        },
        {
            "text": "[tw_int] @HalianLian EU friendly stream",
            "start": 2584.0,
            "duration": 28.0
        },
        {
            "text": "[mopcpayc] @Tsoding mister sir monsieur, why so early? :O",
            "start": 2612.0,
            "duration": 42.0
        },
        {
            "text": "[pirlaa_] Implement migrations Kappa",
            "start": 2654.0,
            "duration": 8.0
        },
        {
            "text": "[tw_int] @MopcPayc join discord for early alerts",
            "start": 2662.0,
            "duration": 106.0
        },
        {
            "text": "[sn0wcr4sh_] PogChamp",
            "start": 2768.0,
            "duration": 37.0
        },
        {
            "text": "[tw_int] @Tsoding Are you sure it's safe to decode your easter egg online? Do you remember what's there?",
            "start": 2805.0,
            "duration": 2.0
        },
        {
            "text": "[ardnys35] i'll go grabb breakfast",
            "start": 2807.0,
            "duration": 1.0
        },
        {
            "text": "[rahulfromearth] Kappa tea\n[nvp135] \u0447\u0442\u043e \u0442\u0430\u043c \u043d\u0430\u043f\u0438\u0441\u0430\u043d\u043e?) \u0411\u0435\u0440\u0442\u0440\u0430\u043d \u0420\u0430\u0441\u0441\u0435\u043b",
            "start": 2815.2,
            "duration": 3.0
        },
        {
            "text": "[tw_int] long boil if soft",
            "start": 2818.2,
            "duration": 3.0
        },
        {
            "text": "[hal_9] we love You Tsoding. just talking to us already feels better",
            "start": 2821.2,
            "duration": 3.0
        },
        {
            "text": "[themelopeus] @straydogx you do it",
            "start": 2824.2,
            "duration": 2.0
        },
        {
            "text": "[eliphazbouye] @MimHufford VoHiYo okay",
            "start": 2826.2,
            "duration": 11.0
        },
        {
            "text": "[eliphazbouye] @HAL_9 yeah",
            "start": 2837.2,
            "duration": 4.0
        },
        {
            "text": "[straydogx] @TheMelopeus I guess",
            "start": 2841.2,
            "duration": 22.0
        },
        {
            "text": "[akronsus] @straydogx practice. you will get the hang of it",
            "start": 2863.2,
            "duration": 57.0
        },
        {
            "text": "[s4my_h4ck3r] your welcom :)",
            "start": 2920.2,
            "duration": 25.0
        },
        {
            "text": "[mimhufford] @EliphazBouye You've got to find a way to break it down and slowly work towards the big thing. Try to always keep it in a functional state. Start by faking things and add a TODO to come back and put the real thing in. Keep working on the most obvious next step to move towards the finished thing.",
            "start": 2945.2,
            "duration": 35.0
        },
        {
            "text": "[a_noctua] @Tsoding you only need 3 points (but 4 will work too)",
            "start": 2980.2,
            "duration": 67.0
        },
        {
            "text": "[sn0wcr4sh_] this is art",
            "start": 3047.2,
            "duration": 29.0
        },
        {
            "text": "[\ub0b4\uc77c\ub9cc\uc0b4\uace0\uc2f6\uc5b4 (wjm0101)] You're way is not accurate, you have to lerp Y twice from the line 13 and 24 and use the intersection between two middle lines. You're point does not coincide with actual lerped point.",
            "start": 3076.2,
            "duration": 2.0
        },
        {
            "text": "[eliphazbouye] @MimHufford Thanks you for all this advice I will follow that really thanks <3",
            "start": 3078.2,
            "duration": 58.0
        },
        {
            "text": "[mimhufford] @EliphazBouye No problem! It takes time and practise to get into that method of working but I feel like it's worth it and it works (for me at least)",
            "start": 3136.2,
            "duration": 85.0
        },
        {
            "text": "[zaneoblaneo] Zaneoblaneo subscribed with Prime. They've subscribed for 8 months! tsodinFlushed",
            "start": 3221.2,
            "duration": 9.0
        },
        {
            "text": "[skorpionvitalya] !today",
            "start": 3230.2,
            "duration": 12.0
        },
        {
            "text": "[lucas_t_a] Omg thats ridiculously simple",
            "start": 3242.2,
            "duration": 6.0
        },
        {
            "text": "[tjobremannen] have you done anything with your vim config lately?",
            "start": 3248.2,
            "duration": 38.0
        },
        {
            "text": "[mimhufford] Is this essentially barycentric coords?",
            "start": 3286.2,
            "duration": 11.0
        },
        {
            "text": "[namra4122] What message are you decoding??",
            "start": 3297.2,
            "duration": 20.0
        },
        {
            "text": "[mimhufford] It's so gatekept by mathematical notation that I glaze over every time I try to read about it",
            "start": 3317.2,
            "duration": 10.0
        },
        {
            "text": "[sn0wcr4sh_] damn",
            "start": 3327.2,
            "duration": 28.0
        },
        {
            "text": "[semzuu] it's missing a col",
            "start": 3355.2,
            "duration": 15.0
        },
        {
            "text": "[sn0wcr4sh_] this is insane lmfao",
            "start": 3370.2,
            "duration": 3.0
        },
        {
            "text": "[mimhufford] Very nice",
            "start": 3373.2,
            "duration": 86.0
        },
        {
            "text": "[mimhufford] Looks close enough, the paper is always likely to have a slight curve to it so it will drift in areas",
            "start": 3459.2,
            "duration": 24.0
        },
        {
            "text": "[pirlaa_] This is so cool",
            "start": 3483.2,
            "duration": 13.0
        },
        {
            "text": "[larsgretnes] Obviously, the grid in the textbook is not correctly aligned. LUL",
            "start": 3496.2,
            "duration": 2.0
        },
        {
            "text": "[eliphazbouye] @MimHufford \ud83e\udec2",
            "start": 3498.2,
            "duration": 89.0
        },
        {
            "text": "[lucas_t_a] Can you time the photo, so just hold it straighter",
            "start": 3587.2,
            "duration": 34.0
        },
        {
            "text": "[meadiode] !today",
            "start": 3621.2,
            "duration": 7.0
        },
        {
            "text": "[tsoding] https://github.com/tsoding/seam-carving",
            "start": 3628.2,
            "duration": 29.0
        },
        {
            "text": "[sn0wcr4sh_] lmfao that picture in the git is cursed",
            "start": 3657.2,
            "duration": 16.0
        },
        {
            "text": "[superboy_nowatchme] what makes Duck go safer than other browsers? @tsoding",
            "start": 3673.2,
            "duration": 83.0
        },
        {
            "text": "[sudokufan] magic numbers KEKW",
            "start": 3756.2,
            "duration": 12.0
        },
        {
            "text": "[eliphazbouye] @Tsoding  what plugin do you use for remove color highlighting ?",
            "start": 3768.2,
            "duration": 78.0
        },
        {
            "text": "[\u666e\u5361 (puka_)] morning stream WTRuck",
            "start": 3846.2,
            "duration": 10.0
        },
        {
            "text": "[lucas_t_a] Grubber darker theme @EliphazBouye",
            "start": 3856.2,
            "duration": 37.0
        },
        {
            "text": "[tmartiro] raylib has grayscaling function",
            "start": 3893.2,
            "duration": 21.0
        },
        {
            "text": "[bgod5797] !today",
            "start": 3914.2,
            "duration": 14.0
        },
        {
            "text": "[tmartiro] ImageColorGrayscale",
            "start": 3928.2,
            "duration": 45.0
        },
        {
            "text": "[mimhufford] You can use ImageFormat to force convert it to a known format if you need to",
            "start": 3973.2,
            "duration": 76.0
        },
        {
            "text": "[sobankhan1145] hi. just hopped in out of nowhere.  an you give a short intro",
            "start": 4049.2,
            "duration": 39.0
        },
        {
            "text": "[sparkgg1] @sobankhan1145 He is a Hacker but Ethical One",
            "start": 4088.2,
            "duration": 67.0
        },
        {
            "text": "[sobankhan1145] @sparkgg1 ok. so what\u2019s with the CV",
            "start": 4155.2,
            "duration": 25.0
        },
        {
            "text": "[ardnys35] solving the secrets of past",
            "start": 4180.2,
            "duration": 23.0
        },
        {
            "text": "[sparkgg1] @sobankhan1145 It a Jk , he just does some Crazy Stuff with Beautiful and Adorable C Code",
            "start": 4203.2,
            "duration": 8.0
        },
        {
            "text": "[eliphazbouye] @lucas_t_a great thanks",
            "start": 4211.2,
            "duration": 17.0
        },
        {
            "text": "[cerealpi] does his porn folder ever grow?",
            "start": 4228.2,
            "duration": 5.0
        },
        {
            "text": "[oleksii_lisovyi] PogChamp",
            "start": 4233.2,
            "duration": 1.0
        },
        {
            "text": "[sn0wcr4sh_] cool damn",
            "start": 4234.2,
            "duration": 27.0
        },
        {
            "text": "[oleksii_lisovyi] bliet LUL",
            "start": 4261.2,
            "duration": 130.0
        },
        {
            "text": "[mimhufford] Crispy af",
            "start": 4391.2,
            "duration": 3.0
        },
        {
            "text": "[sn0wcr4sh_] PogChamp",
            "start": 4394.2,
            "duration": 9.0
        },
        {
            "text": "[sparkgg1] Wait that was also fast",
            "start": 4403.2,
            "duration": 12.0
        },
        {
            "text": "[albertogp_twitch] Cyberpunk display.",
            "start": 4415.2,
            "duration": 2.0
        },
        {
            "text": "[aurimus1] Nice!",
            "start": 4417.2,
            "duration": 7.0
        },
        {
            "text": "[sn0wcr4sh_] @SparkGG1 he's a wizzard harry",
            "start": 4424.2,
            "duration": 3.0
        },
        {
            "text": "[ardnys35] noodles",
            "start": 4427.2,
            "duration": 35.0
        },
        {
            "text": "[themelopeus] Is the sobel filter usefull in this case? It adds a lot of white back in the black regions",
            "start": 4462.2,
            "duration": 7.0
        },
        {
            "text": "[cephon_altera] maybe draw a quad on squares that are detected as 1?",
            "start": 4469.2,
            "duration": 6.0
        },
        {
            "text": "[hwstar24] is grad the filter window?",
            "start": 4475.2,
            "duration": 8.0
        },
        {
            "text": "[sparkgg1] Alright nvm",
            "start": 4483.2,
            "duration": 6.0
        },
        {
            "text": "[mimhufford] Faster than discord relayouting",
            "start": 4489.2,
            "duration": 3.0
        },
        {
            "text": "[sparkgg1] yeah actually a bit of delay",
            "start": 4492.2,
            "duration": 5.0
        },
        {
            "text": "[sparkgg1] But still cool tbh",
            "start": 4497.2,
            "duration": 26.0
        },
        {
            "text": "[keshancs] inb4 bezier curves",
            "start": 4523.2,
            "duration": 1.0
        },
        {
            "text": "[rooctag] maybe you need either 6 points or do it in 2 patches of half a page...",
            "start": 4524.2,
            "duration": 6.0
        },
        {
            "text": "[themelopeus] the paper seems to be curved",
            "start": 4530.2,
            "duration": 52.0
        },
        {
            "text": "[themelopeus] sample a small radius, it should be enough",
            "start": 4582.2,
            "duration": 17.0
        },
        {
            "text": "[sparkgg1] Did he already explained the logic to decode that , I may be a bit late here",
            "start": 4599.2,
            "duration": 11.0
        },
        {
            "text": "[prensapjaimo] does it take into account perspective?",
            "start": 4610.2,
            "duration": 2.0
        },
        {
            "text": "[cerealpi] would be an interesting exercise to calculate the lens distortion",
            "start": 4612.2,
            "duration": 5.0
        },
        {
            "text": "[mimhufford] @SparkGG1 I think it's just binary ascii",
            "start": 4617.2,
            "duration": 19.0
        },
        {
            "text": "[sparkgg1] @MimHufford Aaah Alright . Appreciate your answer",
            "start": 4636.2,
            "duration": 61.0
        },
        {
            "text": "[cephon_altera] why would binary ascii need 18 columns?",
            "start": 4697.2,
            "duration": 2.0
        },
        {
            "text": "[mimhufford] I'm calling it now, it's just gonna be a \"ur mom\" or \"deez nuts\" style message at the end of all this",
            "start": 4699.2,
            "duration": 34.0
        },
        {
            "text": "[ardnys35] companion cube!",
            "start": 4733.2,
            "duration": 47.0
        },
        {
            "text": "[sparkgg1] Hopefully not something against Twitch TOS otherwise we are FKED",
            "start": 4780.2,
            "duration": 15.0
        },
        {
            "text": "[themelopeus] @cephon_altera he said they are encoded in 6 bits",
            "start": 4795.2,
            "duration": 8.0
        },
        {
            "text": "[ponkkiz] @MimHufford LUL",
            "start": 4803.2,
            "duration": 25.0
        },
        {
            "text": "[cephon_altera] oh no he said neural network, now the AI bros in chat will start arriving",
            "start": 4828.2,
            "duration": 21.0
        },
        {
            "text": "[sparkgg1] @cephon_altera \"Why not use python\" bros",
            "start": 4849.2,
            "duration": 36.0
        },
        {
            "text": "[egregors] !todau\n[mrbotka] @egregors command `todau` does not exist",
            "start": 4885.2,
            "duration": 5.0
        },
        {
            "text": "[egregors] !today",
            "start": 4890.2,
            "duration": 111.0
        },
        {
            "text": "[aetherpowered] Pog",
            "start": 5001.2,
            "duration": 10.0
        },
        {
            "text": "[sudo_nick] Pogey",
            "start": 5011.2,
            "duration": 1.0
        },
        {
            "text": "[sn0wcr4sh_] holy shit cool\n[akufishi] Pog ?",
            "start": 5012.2,
            "duration": 3.0
        },
        {
            "text": "[artikgz] Hiii",
            "start": 5015.2,
            "duration": 23.0
        },
        {
            "text": "[sasailalka1337] \u041a\u0430\u043a \u0432\u0441\u0435\u0433\u0434\u0430 \u0443 \u043d\u0435\u0433\u043e \u0432\u0441\u0451 \u043f\u043e\u043b\u0443\u0447\u0430\u0435\u0442\u0441\u044f Pog",
            "start": 5038.2,
            "duration": 5.0
        },
        {
            "text": "[themelopeus] you can do k-means clustering with k=2\n[rooctag] color the dots",
            "start": 5043.2,
            "duration": 36.0
        },
        {
            "text": "[iselgrey] use the kmeans to choose threshold",
            "start": 5079.2,
            "duration": 10.0
        },
        {
            "text": "[riacho_] Hello youtube subtitles :)",
            "start": 5089.2,
            "duration": 20.0
        },
        {
            "text": "[qooboonia] @Tsoding how can you hate rust?  Please tell me what are some cons of this because it looks like the best tool ever. I do not want to learn this but it look like a best one choice for the future.",
            "start": 5109.2,
            "duration": 17.0
        },
        {
            "text": "[themelopeus] wtf :)))))))))",
            "start": 5126.2,
            "duration": 7.0
        },
        {
            "text": "[cephon_altera] sudden rust post",
            "start": 5133.2,
            "duration": 5.0
        },
        {
            "text": "[sudokufan] !cyric hello youtube",
            "start": 5138.2,
            "duration": 1.0
        },
        {
            "text": "[mrbotka] @sudokufan command `cyric` does not exist",
            "start": 5139.2,
            "duration": 7.0
        },
        {
            "text": "[sudo_nick] like and subscribe!",
            "start": 5146.2,
            "duration": 4.0
        },
        {
            "text": "[sudokufan] !cyril hello youtube\n[mrbotka] \u043d\u0451ll\u0444 y\u0444\u0446\u0442\u0446\u0431\u0451",
            "start": 5150.2,
            "duration": 1.0
        },
        {
            "text": "[krzysckh] !riir MrBotka",
            "start": 5151.2,
            "duration": 1.0
        },
        {
            "text": "[mrbotka] MrBotka has been rewritten in Rust",
            "start": 5152.2,
            "duration": 15.0
        },
        {
            "text": "[ashishbhattarai] may be find median and use that as threshold?",
            "start": 5167.2,
            "duration": 3.0
        },
        {
            "text": "[ardnys35] oh yeah party",
            "start": 5170.2,
            "duration": 4.0
        },
        {
            "text": "[sn0wcr4sh_] thats so trippy",
            "start": 5174.2,
            "duration": 18.0
        },
        {
            "text": "[mimhufford] Not bad! Looks right on average",
            "start": 5192.2,
            "duration": 21.0
        },
        {
            "text": "[eliphazbouye] Oh damn",
            "start": 5213.2,
            "duration": 11.0
        },
        {
            "text": "[eliphazbouye] Tsoding make all that from scrach ? :O",
            "start": 5224.2,
            "duration": 16.0
        },
        {
            "text": "[a_noctua] @Tsoding why are u sing Sobel filter/kernell instead of Gaussian (since you do not care about the edges)?",
            "start": 5240.2,
            "duration": 5.0
        },
        {
            "text": "[larsgretnes] the amount of \"bad\" results are a result of your accuracy on the grid, as you can see it's higher where it's close to the \"edges\".",
            "start": 5245.2,
            "duration": 10.0
        },
        {
            "text": "[cerealpi] or fix the warping",
            "start": 5255.2,
            "duration": 1.0
        },
        {
            "text": "[rooctag] Do half a page at a time?\n[themelopeus] @A_NoctuA Yes the Sobel might not be great here",
            "start": 5256.2,
            "duration": 10.0
        },
        {
            "text": "[dcraftbg] I just joined, what is this? I'm amazed",
            "start": 5266.2,
            "duration": 14.0
        },
        {
            "text": "[semzuu] median filter would be better in this case",
            "start": 5280.2,
            "duration": 14.0
        },
        {
            "text": "[themelopeus] @semzuu he just needs to change the kernel, right?",
            "start": 5294.2,
            "duration": 14.0
        },
        {
            "text": "[locomot1f] can you do like 3 separate passes with different luminance and calculate average?",
            "start": 5308.2,
            "duration": 8.0
        },
        {
            "text": "[semzuu] normally, yes",
            "start": 5316.2,
            "duration": 36.0
        },
        {
            "text": "[ondilor] I'm not following how we are detecting the non-empty cells. Apply Sobel filter then what?",
            "start": 5352.2,
            "duration": 8.0
        },
        {
            "text": "[iselgrey] No kmeans with two groups to classify? I just arrived, sorry if you chose already the method",
            "start": 5360.2,
            "duration": 5.0
        },
        {
            "text": "[dcraftbg] !today",
            "start": 5365.2,
            "duration": 3.0
        },
        {
            "text": "[themelopeus] @Ondilor you get the average luminance around the center",
            "start": 5368.2,
            "duration": 18.0
        },
        {
            "text": "[steelconcrete] i never see any trolls in this chat, what kind of place is here !??",
            "start": 5386.2,
            "duration": 11.0
        },
        {
            "text": "[rooctag] edit other place...",
            "start": 5397.2,
            "duration": 35.0
        },
        {
            "text": "[riacho_] @steelconcrete we're trying to follow what he's doing so there's no time left to troll",
            "start": 5432.2,
            "duration": 1.0
        },
        {
            "text": "[bgod5797] some are close to 15",
            "start": 5433.2,
            "duration": 22.0
        },
        {
            "text": "[aurimus1] Tsoding would also just set this to sub only if people start t rolling, so they leave",
            "start": 5455.2,
            "duration": 8.0
        },
        {
            "text": "[semzuu] i saw 4s in there",
            "start": 5463.2,
            "duration": 51.0
        },
        {
            "text": "[mimhufford] Looks like no false positives any more\n[cerealpi] maybe change that threshold with a keypress while running",
            "start": 5514.2,
            "duration": 9.0
        },
        {
            "text": "[sudokufan] ^",
            "start": 5523.2,
            "duration": 7.0
        },
        {
            "text": "[bgod5797] if the input data is always the same why do they flicker? rounding error?",
            "start": 5530.2,
            "duration": 9.0
        },
        {
            "text": "[ondilor] ewww",
            "start": 5539.2,
            "duration": 7.0
        },
        {
            "text": "[mimhufford] @BGod5797 random sampling",
            "start": 5546.2,
            "duration": 2.0
        },
        {
            "text": "[ondilor] manual, eww",
            "start": 5548.2,
            "duration": 2.0
        },
        {
            "text": "[themelopeus] @BGod5797 he's sampling randomly",
            "start": 5550.2,
            "duration": 6.0
        },
        {
            "text": "[bgod5797] oh okay",
            "start": 5556.2,
            "duration": 5.0
        },
        {
            "text": "[bgod5797] ty",
            "start": 5561.2,
            "duration": 22.0
        },
        {
            "text": "[mimhufford] Might be cool to see the raw message without fixing anything\n[asken_0] 5Head",
            "start": 5583.2,
            "duration": 7.0
        },
        {
            "text": "[sn0wcr4sh_] PogChamp",
            "start": 5590.2,
            "duration": 1.0
        },
        {
            "text": "[dcraftbg] Hey Mr Zozin. This looks epic but what is it?\n[sudokufan] buzzwords Keking",
            "start": 5591.2,
            "duration": 1.0
        },
        {
            "text": "[aetherpowered] tea deserved",
            "start": 5592.4,
            "duration": 4.8
        },
        {
            "text": "[chromosundrift] @TheMelopeus makes sense",
            "start": 5597.2,
            "duration": 15.0
        },
        {
            "text": "[cryze92] also natural Gaussian Blur Pog",
            "start": 5612.2,
            "duration": 14.0
        },
        {
            "text": "[sudo_nick] @CryZe92 KEKW",
            "start": 5626.2,
            "duration": 11.0
        },
        {
            "text": "[sudokufan] !cyril buzzwords",
            "start": 5637.2,
            "duration": 1.0
        },
        {
            "text": "[mrbotka] \u0431\u0446zz\u0448\u0444\u0433ds",
            "start": 5638.2,
            "duration": 9.0
        },
        {
            "text": "[themelopeus] it looks better, some contrast would be nice",
            "start": 5647.2,
            "duration": 17.0
        },
        {
            "text": "[yngwie_ukupnik] Is that russian handwriting on the left side?",
            "start": 5664.2,
            "duration": 11.0
        },
        {
            "text": "[tw_int] @yngwie_ukupnik yes",
            "start": 5675.2,
            "duration": 3.0
        },
        {
            "text": "[larsgretnes] I might be talking out of my a** here, but try drawing your lerp'ed grid (with lines), to see if your areas are accurate enough for sampling.",
            "start": 5678.2,
            "duration": 1.0
        },
        {
            "text": "[sudokufan] KEKW",
            "start": 5679.2,
            "duration": 1.0
        },
        {
            "text": "[switchmeplease] Ts\u0444ding\n[ardnys35] nice maze though",
            "start": 5680.2,
            "duration": 1.0
        },
        {
            "text": "[need_grass] what about phone camera?",
            "start": 5681.2,
            "duration": 20.0
        },
        {
            "text": "[tw_int] 1. crop 2. high contrast",
            "start": 5701.2,
            "duration": 27.0
        },
        {
            "text": "[chromosundrift] so is k-means a way to tune thresholding?",
            "start": 5728.2,
            "duration": 18.0
        },
        {
            "text": "[rterminatu] Up the contrast maybe?",
            "start": 5746.2,
            "duration": 13.0
        },
        {
            "text": "[boolmano] I think you need to use black ink, maybe fill in the squares with a black pen?",
            "start": 5759.2,
            "duration": 27.0
        },
        {
            "text": "[ardnys35] they fit better i think",
            "start": 5786.2,
            "duration": 2.0
        },
        {
            "text": "[themelopeus] that looks better",
            "start": 5788.2,
            "duration": 66.0
        },
        {
            "text": "[hellodenq] is it QR scanner?",
            "start": 5854.2,
            "duration": 5.0
        },
        {
            "text": "[chromosundrift] looks aligned to me",
            "start": 5859.2,
            "duration": 5.0
        },
        {
            "text": "[pakel1] looks good",
            "start": 5864.2,
            "duration": 9.0
        },
        {
            "text": "[haircutjimmy] !today",
            "start": 5873.2,
            "duration": 3.0
        },
        {
            "text": "[rterminatu] Of one side so not to lose the handwriting",
            "start": 5876.2,
            "duration": 9.0
        },
        {
            "text": "[mateusf777] mateusf777 subscribed at Tier 1. They've subscribed for 65 months! 65 months decoding zozin secrets",
            "start": 5885.2,
            "duration": 13.0
        },
        {
            "text": "[boolmano] why not 69",
            "start": 5898.2,
            "duration": 32.0
        },
        {
            "text": "[nigelwithrow] @mateusf777 65 months is crazy",
            "start": 5930.2,
            "duration": 175.0
        },
        {
            "text": "[iselgrey] the objective of kmeans with two groups is to chose appropriate threshold, you won't need to manually select threshold",
            "start": 6105.2,
            "duration": 4.0
        },
        {
            "text": "[dongillius] tsodinCool",
            "start": 6109.2,
            "duration": 4.0
        },
        {
            "text": "[iselgrey] automatically",
            "start": 6113.2,
            "duration": 12.0
        },
        {
            "text": "[chromosundrift] a couple of false positives",
            "start": 6125.2,
            "duration": 7.0
        },
        {
            "text": "[themelopeus] it looks a lot better than before",
            "start": 6132.2,
            "duration": 3.0
        },
        {
            "text": "[noore_ma] hello",
            "start": 6135.2,
            "duration": 1.0
        },
        {
            "text": "[cryze92] mean instead of average / sum would probably help remove the grid lines that you may accidentally sample (not sure if that's the same as kmeans)",
            "start": 6136.2,
            "duration": 9.0
        },
        {
            "text": "[noore_ma] bottom right one?",
            "start": 6145.2,
            "duration": 16.0
        },
        {
            "text": "[abitranis] hello all",
            "start": 6161.2,
            "duration": 1.0
        },
        {
            "text": "[iselgrey] that's fast",
            "start": 6162.2,
            "duration": 19.0
        },
        {
            "text": "[space_berry] are we playing sudoku?",
            "start": 6181.2,
            "duration": 3.0
        },
        {
            "text": "[sudokufan] buzzword filter? Keking",
            "start": 6184.2,
            "duration": 18.0
        },
        {
            "text": "[boolmano] WOW",
            "start": 6202.2,
            "duration": 1.0
        },
        {
            "text": "[mimhufford] Hahaha\n[hal_9] holy shit\n[themelopeus] lol ez",
            "start": 6203.2,
            "duration": 1.0
        },
        {
            "text": "[ardnys35] what",
            "start": 6204.2,
            "duration": 1.0
        },
        {
            "text": "[themelopeus] POGGERS\n[aurimus1] That's perfect",
            "start": 6205.2,
            "duration": 3.0
        },
        {
            "text": "[mateusf777] first try\n[aurimus1] GZ\n[aetherpowered] Pog",
            "start": 6208.2,
            "duration": 1.0
        },
        {
            "text": "[inos1ro] yes\n[koikoder] gg\n[zyperpl] nice",
            "start": 6209.2,
            "duration": 1.0
        },
        {
            "text": "[albertogp_twitch] PogChamp\n[nc_netrunner] Ha!",
            "start": 6210.2,
            "duration": 2.0
        },
        {
            "text": "[themelopeus] EZ\n[cephon_altera] no tensorflow???",
            "start": 6212.2,
            "duration": 1.0
        },
        {
            "text": "[sudo_nick] Pog\n[sudokufan] POGGERS\n[aetherpowered] KEKW",
            "start": 6213.2,
            "duration": 1.0
        },
        {
            "text": "[rterminatu] Nice\n[little_orkman] gg",
            "start": 6214.2,
            "duration": 1.0
        },
        {
            "text": "[sudokufan] EZ\n[boolmano] almost done\n[koikoder] KEKW",
            "start": 6215.2,
            "duration": 1.0
        },
        {
            "text": "[larsgretnes] Pog",
            "start": 6216.2,
            "duration": 1.0
        },
        {
            "text": "[dcraftbg] WHAT :D\n[akufishi] let's go Pog\n[htol] first try",
            "start": 6217.2,
            "duration": 1.0
        },
        {
            "text": "[noore_ma] Skynet???",
            "start": 6218.2,
            "duration": 1.0
        },
        {
            "text": "[zielin0] Pof",
            "start": 6219.2,
            "duration": 1.0
        },
        {
            "text": "[zielin0] Pog",
            "start": 6220.2,
            "duration": 1.0
        },
        {
            "text": "[chromosundrift] @space_berry trying to detect grid data for \"secret message from the past\"",
            "start": 6221.2,
            "duration": 1.0
        },
        {
            "text": "[pirlaa_] WTF\n[doceys] Pog",
            "start": 6222.2,
            "duration": 1.0
        },
        {
            "text": "[ardnys35] i was sipping my coffee i missed it",
            "start": 6223.2,
            "duration": 4.0
        },
        {
            "text": "[dcraftbg] Thats epic!\n[koikoder] Skynut",
            "start": 6227.2,
            "duration": 2.0
        },
        {
            "text": "[pentagonhacker] WTF\n[xen_mind] quick ask it the meaning of life\n[chromosundrift] what did you change?",
            "start": 6229.2,
            "duration": 4.0
        },
        {
            "text": "[jamestansx] primeagenPog",
            "start": 6233.2,
            "duration": 1.0
        },
        {
            "text": "[switchmeplease] ScamNet",
            "start": 6234.2,
            "duration": 2.0
        },
        {
            "text": "[bjumahoke] alignment problem solved",
            "start": 6236.2,
            "duration": 1.0
        },
        {
            "text": "[cybersonicio] is your maschine learning?",
            "start": 6237.2,
            "duration": 1.0
        },
        {
            "text": "[pentagonhacker] @Tsoding will you share the code?",
            "start": 6238.2,
            "duration": 7.0
        },
        {
            "text": "[themelopeus] Best thing to remove that sobel XD",
            "start": 6245.2,
            "duration": 1.0
        },
        {
            "text": "[pirlaa_] What did you do xd, just blinked",
            "start": 6246.2,
            "duration": 3.0
        },
        {
            "text": "[larsgretnes] ....... message incoming!!!",
            "start": 6249.2,
            "duration": 1.0
        },
        {
            "text": "[switchmeplease] Let's make tool to decode brain",
            "start": 6250.2,
            "duration": 6.0
        },
        {
            "text": "[hal_9] Are we going to hardcore the bottom right 3?",
            "start": 6256.2,
            "duration": 15.0
        },
        {
            "text": "[chromosundrift] what is the origin of this secret message?",
            "start": 6271.2,
            "duration": 6.0
        },
        {
            "text": "[need_grass] What about that print on bottom right tho?",
            "start": 6277.2,
            "duration": 4.0
        },
        {
            "text": "[noore_ma] @pentagonhacker it's a secret.c OpieOP",
            "start": 6281.2,
            "duration": 1.0
        },
        {
            "text": "[sudokufan] ^",
            "start": 6282.2,
            "duration": 6.0
        },
        {
            "text": "[chromosundrift] oic",
            "start": 6288.2,
            "duration": 3.0
        },
        {
            "text": "[themelopeus] @chromosundrift he wrote it on his 10 year old notebook",
            "start": 6291.2,
            "duration": 7.0
        },
        {
            "text": "[chromosundrift] haha ok cool love it",
            "start": 6298.2,
            "duration": 13.0
        },
        {
            "text": "[pentagonhacker] @Noore_MA what repository?",
            "start": 6311.2,
            "duration": 6.0
        },
        {
            "text": "[dcraftbg] Did you generate this message or get it from somewhere?",
            "start": 6317.2,
            "duration": 3.0
        },
        {
            "text": "[boolmano] Blyat\n[pirlaa_] Guys what did he just change to make it work ?",
            "start": 6320.2,
            "duration": 6.0
        },
        {
            "text": "[chromosundrift] ^",
            "start": 6326.2,
            "duration": 1.0
        },
        {
            "text": "[krzysckh] kurwa spotted",
            "start": 6327.2,
            "duration": 3.0
        },
        {
            "text": "[koikoder] Based",
            "start": 6330.2,
            "duration": 3.0
        },
        {
            "text": "[pentagonhacker] Kurwa bober",
            "start": 6333.2,
            "duration": 1.0
        },
        {
            "text": "[sudo_nick] KEKW",
            "start": 6334.2,
            "duration": 1.0
        },
        {
            "text": "[sudokufan] !cyril kurwa bober\n[mrbotka] \u043a\u0446\u0433\u0448\u0434 \u0431\u0444\u0431\u0451\u0433",
            "start": 6335.2,
            "duration": 2.0
        },
        {
            "text": "[island_moonlight] cyka blyat rush b",
            "start": 6337.2,
            "duration": 3.0
        },
        {
            "text": "[stainlesssteel45] @pentagonhacker github.com/joe/mama",
            "start": 6340.2,
            "duration": 3.0
        },
        {
            "text": "[ardnys35] tsodinHyper",
            "start": 6343.2,
            "duration": 10.0
        },
        {
            "text": "[noore_ma] @pentagonhacker i was making a joke, but he usually pushes code with some sort of license at the end",
            "start": 6353.2,
            "duration": 1.0
        },
        {
            "text": "[meadiode] perkele",
            "start": 6354.2,
            "duration": 2.0
        },
        {
            "text": "[island_moonlight] !cyril aboba\n[mrbotka] \u0434\u0431\u0444\u0431\u0434",
            "start": 6356.2,
            "duration": 3.0
        },
        {
            "text": "[cybersonicio] ja pierdole",
            "start": 6359.2,
            "duration": 12.0
        },
        {
            "text": "[hal_9] \u0431\u043e\u0431\u0435\u0440",
            "start": 6371.2,
            "duration": 14.0
        },
        {
            "text": "[glitch3dout] glitch3dout subscribed at Tier 1. They've subscribed for 10 months, currently on a 2 month streak! tsodinFeels",
            "start": 6385.2,
            "duration": 3.0
        },
        {
            "text": "[noore_ma] !github\n[mrbotka] @noore_ma command `github` does not exist",
            "start": 6388.2,
            "duration": 5.0
        },
        {
            "text": "[hal_9] treshold",
            "start": 6393.2,
            "duration": 3.0
        },
        {
            "text": "[koikoder] Still better than Queue",
            "start": 6396.2,
            "duration": 3.0
        },
        {
            "text": "[dcraftbg] freshold",
            "start": 6399.2,
            "duration": 2.0
        },
        {
            "text": "[themelopeus] thre-shold",
            "start": 6401.2,
            "duration": 2.0
        },
        {
            "text": "[haircutjimmy] thresh-old",
            "start": 6403.2,
            "duration": 2.0
        },
        {
            "text": "[babyshark_tutudu] \u0422\u0440\u0435\u0448\u0445\u043e\u043b\u0434",
            "start": 6405.2,
            "duration": 2.0
        },
        {
            "text": "[frisjon] engolish bery gud",
            "start": 6407.2,
            "duration": 2.0
        },
        {
            "text": "[mini__bomba] someone said it this way and noone bothered to object",
            "start": 6409.2,
            "duration": 6.0
        },
        {
            "text": "[chromosundrift] \"Old English therscold, threscold ; related to German dialect Drischaufel ; the first element is related to thresh (in a Germanic sense \u2018tread\u2019), but the origin of the second element is unknown.\"",
            "start": 6415.2,
            "duration": 3.0
        },
        {
            "text": "[lucas_t_a] Should",
            "start": 6418.2,
            "duration": 6.0
        },
        {
            "text": "[iselgrey] isn't it pronounced thres-hold? no sh sound",
            "start": 6424.2,
            "duration": 15.0
        },
        {
            "text": "[xen_mind] I say it thresh-hold",
            "start": 6439.2,
            "duration": 9.0
        },
        {
            "text": "[lucas_t_a] I said it with sh",
            "start": 6448.2,
            "duration": 6.0
        },
        {
            "text": "[iselgrey] i always say thres-hold, am i making a fool of myself?",
            "start": 6454.2,
            "duration": 1.0
        },
        {
            "text": "[pirlaa_] I personnaly Say treshold",
            "start": 6455.2,
            "duration": 1.0
        },
        {
            "text": "[cryze92] seems to be a US only thing",
            "start": 6456.2,
            "duration": 12.0
        },
        {
            "text": "[chromosundrift] 6 bit code?",
            "start": 6468.2,
            "duration": 7.0
        },
        {
            "text": "[tw_int] Google says: \u02c8THreSH\u02cc(h)\u014dld",
            "start": 6475.2,
            "duration": 4.0
        },
        {
            "text": "[chromosundrift] BIT BOX",
            "start": 6479.2,
            "duration": 14.0
        },
        {
            "text": "[nigelwithrow] at this point you can use emacs to process the code",
            "start": 6493.2,
            "duration": 2.0
        },
        {
            "text": "[rterminatu] Iterate using the circle centers?",
            "start": 6495.2,
            "duration": 10.0
        },
        {
            "text": "[iselgrey] apparently i am making a fool of myself internet says thresh-hold",
            "start": 6505.2,
            "duration": 12.0
        },
        {
            "text": "[lucas_t_a] Trash hold lul",
            "start": 6517.2,
            "duration": 3.0
        },
        {
            "text": "[ardnys35] so there is a hidden h in there",
            "start": 6520.2,
            "duration": 70.0
        },
        {
            "text": "[ileonte] secret message will be \"69420\"",
            "start": 6590.2,
            "duration": 25.0
        },
        {
            "text": "[chromosundrift] it's not a bitcoin private key I hope",
            "start": 6615.2,
            "duration": 8.0
        },
        {
            "text": "[noore_ma] @ileonte nah, it's Candice",
            "start": 6623.2,
            "duration": 35.0
        },
        {
            "text": "[mimhufford] @iselgrey It's actually thresh-old, as in everything below is old and everything above is fresh",
            "start": 6658.2,
            "duration": 9.0
        },
        {
            "text": "[sudokufan] !lurk\n[mrbotka] @sudokufan command `lurk` does not exist",
            "start": 6667.2,
            "duration": 16.0
        },
        {
            "text": "[ardnys35] @Noore_MA candice message be decrypted",
            "start": 6683.2,
            "duration": 20.0
        },
        {
            "text": "[noore_ma] MingLee\n[iselgrey] it's secret cicada 2024",
            "start": 6703.2,
            "duration": 28.0
        },
        {
            "text": "[chromosundrift] SPAMMER",
            "start": 6731.2,
            "duration": 13.0
        },
        {
            "text": "[mini__bomba] da heck is that message",
            "start": 6744.2,
            "duration": 12.0
        },
        {
            "text": "[nigelwithrow] i like your curtains",
            "start": 6756.2,
            "duration": 1.0
        },
        {
            "text": "[iselgrey] god bless moderator",
            "start": 6757.2,
            "duration": 1.0
        },
        {
            "text": "[noore_ma] schizo spam",
            "start": 6758.2,
            "duration": 15.0
        },
        {
            "text": "[pirlaa_] Think you didnt r\u00e9nale offset\n[ardnys35] man decrypted the message",
            "start": 6773.2,
            "duration": 2.0
        },
        {
            "text": "[chromosundrift] lot of zeroes",
            "start": 6775.2,
            "duration": 2.0
        },
        {
            "text": "[pirlaa_] Rename",
            "start": 6777.2,
            "duration": 3.0
        },
        {
            "text": "[little_orkman] bit and offset",
            "start": 6780.2,
            "duration": 8.0
        },
        {
            "text": "[pirlaa_] When you changed bit to offset\n[sudokufan] lot of 42s suspiciosly KEKW",
            "start": 6788.2,
            "duration": 26.0
        },
        {
            "text": "[noore_ma] What's the original photo?",
            "start": 6814.2,
            "duration": 19.0
        },
        {
            "text": "[mimhufford] Endianess?",
            "start": 6833.2,
            "duration": 5.0
        },
        {
            "text": "[sudokufan] ^\n[cryze92] backwards?",
            "start": 6838.2,
            "duration": 1.0
        },
        {
            "text": "[ardnys35] add",
            "start": 6839.2,
            "duration": 1.0
        },
        {
            "text": "[boolmano] wchar_t ?",
            "start": 6840.2,
            "duration": 13.0
        },
        {
            "text": "[a66ath] base64?",
            "start": 6853.2,
            "duration": 27.0
        },
        {
            "text": "[mimhufford] maybe you mapped a-z 0-25?\n[noore_ma] 1st 5 rows have more bits?",
            "start": 6880.2,
            "duration": 13.0
        },
        {
            "text": "[cryze92] oh you didn't make up this code? (sorry I joined late)",
            "start": 6893.2,
            "duration": 8.0
        },
        {
            "text": "[chromosundrift] maybe it's offset by a constant?",
            "start": 6901.2,
            "duration": 2.0
        },
        {
            "text": "[casensio] it is maybe a length of bytes ?",
            "start": 6903.2,
            "duration": 17.0
        },
        {
            "text": "[nigelwithrow] remove newline",
            "start": 6920.2,
            "duration": 28.0
        },
        {
            "text": "[noore_ma] Doug Dimmadome? MingLee",
            "start": 6948.2,
            "duration": 9.0
        },
        {
            "text": "[aetherpowered] KEKW",
            "start": 6957.2,
            "duration": 2.0
        },
        {
            "text": "[ardnys35] lol",
            "start": 6959.2,
            "duration": 1.0
        },
        {
            "text": "[sudo_nick] KEKW\n[larsgretnes] LUL",
            "start": 6960.2,
            "duration": 2.0
        },
        {
            "text": "[zielin0] LUL",
            "start": 6962.2,
            "duration": 1.0
        },
        {
            "text": "[karanreader] LUL",
            "start": 6963.2,
            "duration": 1.0
        },
        {
            "text": "[mimhufford] Niiice",
            "start": 6964.2,
            "duration": 1.0
        },
        {
            "text": "[sudokufan] POGGERD",
            "start": 6965.2,
            "duration": 1.0
        },
        {
            "text": "[rurinka] LUL\n[nigelwithrow] LUL",
            "start": 6966.2,
            "duration": 2.0
        },
        {
            "text": "[sudokufan] POGGERS",
            "start": 6968.2,
            "duration": 1.0
        },
        {
            "text": "[semzuu] wait what happened?\n[chromosundrift] it's very close",
            "start": 6969.2,
            "duration": 4.0
        },
        {
            "text": "[need_grass] LUL",
            "start": 6973.2,
            "duration": 4.0
        },
        {
            "text": "[mini__bomba] holy scheisse",
            "start": 6977.2,
            "duration": 3.0
        },
        {
            "text": "[little_orkman] LuL",
            "start": 6980.2,
            "duration": 21.0
        },
        {
            "text": "[mini__bomba] g",
            "start": 7001.2,
            "duration": 4.0
        },
        {
            "text": "[noore_ma] @@@@@",
            "start": 7005.2,
            "duration": 2.0
        },
        {
            "text": "[sudokufan] KEKW",
            "start": 7007.2,
            "duration": 2.0
        },
        {
            "text": "[bgod5797] fflush better",
            "start": 7009.2,
            "duration": 22.0
        },
        {
            "text": "[chromosundrift] print on one line?",
            "start": 7031.2,
            "duration": 9.0
        },
        {
            "text": "[bjumahoke] n for newline\n[bdub_woodard] italian accent",
            "start": 7040.2,
            "duration": 2.0
        },
        {
            "text": "[yngwie_ukupnik] Hellol",
            "start": 7042.2,
            "duration": 7.0
        },
        {
            "text": "[mini__bomba] hellol",
            "start": 7049.2,
            "duration": 3.0
        },
        {
            "text": "[lifeez] helLOL\n[mimhufford] Italian hello worlda",
            "start": 7052.2,
            "duration": 1.0
        },
        {
            "text": "[frisjon] hellol",
            "start": 7053.2,
            "duration": 18.0
        },
        {
            "text": "[cerealpi] no longer secret",
            "start": 7071.2,
            "duration": 9.0
        },
        {
            "text": "[nelvson] early strim? Pog",
            "start": 7080.2,
            "duration": 2.0
        },
        {
            "text": "[pakel1] GCHQ calling you soon\n[chromosundrift] I was hoping for a treasure map\n[mahahuha] enigma finaly cracjed",
            "start": 7082.2,
            "duration": 5.0
        },
        {
            "text": "[nigelwithrow] i feel like i am part of something",
            "start": 7087.2,
            "duration": 3.0
        },
        {
            "text": "[bgod5797] hello past zozin!",
            "start": 7090.2,
            "duration": 3.0
        },
        {
            "text": "[nigelwithrow] bigger than me",
            "start": 7093.2,
            "duration": 8.0
        },
        {
            "text": "[cryze92] is there another message with just the additional letters?",
            "start": 7101.2,
            "duration": 3.0
        },
        {
            "text": "[noore_ma] are @s padding?",
            "start": 7104.2,
            "duration": 7.0
        },
        {
            "text": "[rnentjes] ` is 96, one bit to many encoded?",
            "start": 7111.2,
            "duration": 2.0
        },
        {
            "text": "[ashishbhattarai] punctuations are broken",
            "start": 7113.2,
            "duration": 3.0
        },
        {
            "text": "[ponkkiz] tbh i was expecting ur mom kind of message like someone else mentioned earlier",
            "start": 7116.2,
            "duration": 12.0
        },
        {
            "text": "[nigelwithrow] @CryZe92 \"LAN\"",
            "start": 7128.2,
            "duration": 31.0
        },
        {
            "text": "[nelvson] haxx",
            "start": 7159.2,
            "duration": 5.0
        },
        {
            "text": "[iselgrey] because of kgb reading your notebooks of course",
            "start": 7164.2,
            "duration": 2.0
        },
        {
            "text": "[drzool] self doxxed",
            "start": 7166.2,
            "duration": 2.0
        },
        {
            "text": "[nelvson] doxx",
            "start": 7168.2,
            "duration": 2.0
        },
        {
            "text": "[frisjon] next stream: decoding punch card programs from old pictures with CV",
            "start": 7170.2,
            "duration": 3.0
        },
        {
            "text": "[mimhufford] Glad it didn't end up saying \"I am the zodiac killer\"",
            "start": 7173.2,
            "duration": 8.0
        },
        {
            "text": "[nigelwithrow] @MimHufford lol",
            "start": 7181.2,
            "duration": 2.0
        },
        {
            "text": "[bgod5797] have been cool",
            "start": 7183.2,
            "duration": 17.0
        },
        {
            "text": "[ardnys35] maybe you were bored at school or work",
            "start": 7200.2,
            "duration": 11.0
        },
        {
            "text": "[cephon_altera] panim OS",
            "start": 7211.2,
            "duration": 1.0
        },
        {
            "text": "[nigelwithrow] can you show us the message one last time",
            "start": 7212.2,
            "duration": 13.0
        },
        {
            "text": "[pirlaa_] What IS the point with the Hellol",
            "start": 7225.2,
            "duration": 1.0
        },
        {
            "text": "[aetherpowered] bye bye",
            "start": 7226.2,
            "duration": 1.0
        },
        {
            "text": "[hal_9] <3\n[tw_int] ty, cya",
            "start": 7227.2,
            "duration": 1.0
        },
        {
            "text": "[ardnys35] see ya!\n[pakel1] nice - was cool",
            "start": 7228.2,
            "duration": 1.0
        },
        {
            "text": "[bgod5797] !when Panim OS\n[mrbotka] @bgod5797 Panim OS is tomorrow POGGERS\n[boolmano] bye",
            "start": 7229.2,
            "duration": 1.0
        },
        {
            "text": "[zielin0] bye <3",
            "start": 7230.2,
            "duration": 1.0
        },
        {
            "text": "[mimhufford] See ya!\n[kselnaag] bb",
            "start": 7231.2,
            "duration": 1.0
        },
        {
            "text": "[tsuruhara] <3\n[doceys] bye bye\n[pakel1] byeeeeeeeeeeeeeeeeeeee\n[jamestansx] have a good one",
            "start": 7232.2,
            "duration": 1.0
        }
    ],
    "stats": {
        "viewCount": "20400",
        "likeCount": "863",
        "favoriteCount": "0",
        "commentCount": "77"
    }
}