{
    "id": "tH-1GiqdHx0",
    "title": "I dramatically sped up my code",
    "publishedAt": "2024-04-10T15:09:08Z",
    "captions": [
        {
            "text": "[linuxseller] Hi",
            "start": 3.5,
            "duration": 12.0
        },
        {
            "text": "[andre_herman] Hello all",
            "start": 15.5,
            "duration": 13.0
        },
        {
            "text": "[linuxseller] hello everyone tsodinWeeb  /",
            "start": 28.5,
            "duration": 10.0
        },
        {
            "text": "[nitrix_dev] Fast shit hype! syadouWow",
            "start": 38.5,
            "duration": 13.0
        },
        {
            "text": "[fjlj_whotookmyname] No notification from twitch today... Happy for your pings!",
            "start": 51.5,
            "duration": 11.0
        },
        {
            "text": "[hicaro____] In which project are we going to have fun today?",
            "start": 62.5,
            "duration": 1.0
        },
        {
            "text": "[butterscotchtoffee] Looks like we're live Pog",
            "start": 63.5,
            "duration": 17.0
        },
        {
            "text": "[butterscotchtoffee] !today\n[mrbotka] @butterscotchtoffee Speeding up the Seam Carving Algorithm I implemented on the previous stream https://github.com/tsoding/seam-carving",
            "start": 80.5,
            "duration": 1.0
        },
        {
            "text": "[netfri66] !today\n[mrbotka] @netfri66 Speeding up the Seam Carving Algorithm I implemented on the previous stream https://github.com/tsoding/seam-carving",
            "start": 81.5,
            "duration": 9.0
        },
        {
            "text": "[markosth09] hi tsoding",
            "start": 90.5,
            "duration": 2.0
        },
        {
            "text": "[tymscar] Tymscar subscribed with Prime. They've subscribed for 8 months, currently on a 6 month streak! Hi mister Zoz. Im going to use my sub to suggest a stream idea.Using uiua lang with Raylib. Why? Because it would give the same deep insights as APL, while being plain old unicode that gets formatted by the compiler into symbols.It has an FFI, so raylib is in the picture, and it can do things like threads, file system access, networking.One interesting insight for example would be that any output array can be \"magically\" recognised as sound, pictures or gifs.Just a suggestion thats all.",
            "start": 92.5,
            "duration": 2.0
        },
        {
            "text": "[fabiohbf] hello AYAYA /",
            "start": 94.5,
            "duration": 8.0
        },
        {
            "text": "[pawntheory] happy need for code speed day",
            "start": 102.5,
            "duration": 1.0
        },
        {
            "text": "[romantoxx] yo whazzup",
            "start": 103.5,
            "duration": 10.0
        },
        {
            "text": "[mini__bomba] how much faster would it be if you removed the prints?",
            "start": 113.5,
            "duration": 16.0
        },
        {
            "text": "[brooklyndev] brooklyndev subscribed with Prime. They've subscribed for 19 months! Keep up the awesome streams, thanks man!",
            "start": 129.5,
            "duration": 3.0
        },
        {
            "text": "[heyyouhere] hey, everyone!",
            "start": 132.5,
            "duration": 14.0
        },
        {
            "text": "[butterscotchtoffee] Pog",
            "start": 146.5,
            "duration": 12.0
        },
        {
            "text": "[pawntheory] the effect there reminds me of lemmings or noita",
            "start": 158.5,
            "duration": 2.0
        },
        {
            "text": "[heyyouhere] !today",
            "start": 160.5,
            "duration": 1.0
        },
        {
            "text": "[mrbotka] @heyyouhere Speeding up the Seam Carving Algorithm I implemented on the previous stream https://github.com/tsoding/seam-carving",
            "start": 161.5,
            "duration": 12.0
        },
        {
            "text": "[tsoding] https://dl.acm.org/doi/10.1145/1275808.1276390",
            "start": 173.5,
            "duration": 6.0
        },
        {
            "text": "[tmartiro] \u0431\u0440\u044e\u043a\u0438 \u043f\u0440\u0435\u0432\u0440\u0430\u0449\u0430\u044e\u0442\u0441\u044f ...",
            "start": 179.5,
            "duration": 24.0
        },
        {
            "text": "[adaxiik] Hiiii",
            "start": 203.5,
            "duration": 38.0
        },
        {
            "text": "[valenii] valenii subscribed at Tier 1. They've subscribed for 34 months! Speeding up some schei\u00dfe",
            "start": 241.5,
            "duration": 24.0
        },
        {
            "text": "[jasonrothfuss] jasonrothfuss subscribed at Tier 1. They've subscribed for 4 months, currently on a 4 month streak! love these topics!",
            "start": 265.5,
            "duration": 3.0
        },
        {
            "text": "[sandyx] sandyX subscribed at Tier 1. They've subscribed for 5 months! speeding up some shit omg omg hes gonna SIMD the algorithm tsodinD",
            "start": 268.5,
            "duration": 2.0
        },
        {
            "text": "[markosth09] I think uiua was pronounced we-wa",
            "start": 270.5,
            "duration": 4.0
        },
        {
            "text": "[cheesebugles] oh f he's real !! I only watching him while sleeping on yt!",
            "start": 274.5,
            "duration": 28.0
        },
        {
            "text": "[pawntheory] best pronunciation",
            "start": 302.5,
            "duration": 15.0
        },
        {
            "text": "[temperthetadelta] oh moons array programming",
            "start": 317.5,
            "duration": 1.0
        },
        {
            "text": "[delofon] is this a language for code golf?",
            "start": 318.5,
            "duration": 7.0
        },
        {
            "text": "[badalov4] hi tsoding! when I code for several hours, my eyes start getting dry, I start having some trouble at focusing from close to far. my question is whether you have ever experienced the same things. do you have any tips? like turning brightness down or anything else? thanks in advance",
            "start": 325.5,
            "duration": 1.0
        },
        {
            "text": "[netfri66] cool af",
            "start": 326.5,
            "duration": 60.0
        },
        {
            "text": "[temperthetadelta] also would make it less cross platform",
            "start": 386.5,
            "duration": 10.0
        },
        {
            "text": "[markosth09] @Delofon It is an array and stack based language at the same time. Array languages have very terse unicode syntax.",
            "start": 396.5,
            "duration": 43.0
        },
        {
            "text": "[sandyx] code with eyes closed",
            "start": 439.5,
            "duration": 3.0
        },
        {
            "text": "[bluealienbird] haha",
            "start": 442.5,
            "duration": 1.0
        },
        {
            "text": "[bezsovesty] Kappa",
            "start": 443.5,
            "duration": 1.0
        },
        {
            "text": "[fjlj_whotookmyname] What is this cmd acronym",
            "start": 444.5,
            "duration": 1.0
        },
        {
            "text": "[icefire_gaming] hahahaha",
            "start": 445.5,
            "duration": 2.0
        },
        {
            "text": "[fabiohbf] KEKW",
            "start": 447.5,
            "duration": 3.0
        },
        {
            "text": "[butterscotchtoffee] LUL\n[temperthetadelta] what if there's no issues\n[andre_herman] haaha",
            "start": 450.5,
            "duration": 4.0
        },
        {
            "text": "[iamvikasgola] LUL",
            "start": 454.5,
            "duration": 3.0
        },
        {
            "text": "[mowemax] :(",
            "start": 457.5,
            "duration": 6.0
        },
        {
            "text": "[azuradara] @badalov4 you can try using sodium chloride eyedrops",
            "start": 463.5,
            "duration": 11.0
        },
        {
            "text": "[shpirtman] lgtm",
            "start": 474.5,
            "duration": 15.0
        },
        {
            "text": "[bluealienbird] @badalov4 wear glasses if you need them, have proper lighting in the room. looking at a screen in a dark room can cause issues",
            "start": 489.5,
            "duration": 15.0
        },
        {
            "text": "[badalov4] ya guys, thank you.  it mostly happens at night",
            "start": 504.5,
            "duration": 11.0
        },
        {
            "text": "[tymscar] oh, its the stream down?",
            "start": 515.5,
            "duration": 4.0
        },
        {
            "text": "[zh4nchii] F",
            "start": 519.5,
            "duration": 2.0
        },
        {
            "text": "[sandyx] F\n[netfri66] f\n[newlastaccount] f",
            "start": 521.5,
            "duration": 1.0
        },
        {
            "text": "[fjlj_whotookmyname] No refresh",
            "start": 522.5,
            "duration": 1.0
        },
        {
            "text": "[temperthetadelta] kgb found him",
            "start": 523.5,
            "duration": 6.0
        },
        {
            "text": "[mini__bomba] the kgb is throttling the strem",
            "start": 529.5,
            "duration": 5.0
        },
        {
            "text": "[fjlj_whotookmyname] It's fine here...",
            "start": 534.5,
            "duration": 4.0
        },
        {
            "text": "[tymscar] loading...",
            "start": 538.5,
            "duration": 8.0
        },
        {
            "text": "[tymscar] The video is frozen and audio choppy",
            "start": 546.5,
            "duration": 1.0
        },
        {
            "text": "[heyyouhere] refreshing helped!",
            "start": 547.5,
            "duration": 5.0
        },
        {
            "text": "[tw_int] it's OK now",
            "start": 552.5,
            "duration": 5.0
        },
        {
            "text": "[sandyx] fbi trying to steal the algorithm",
            "start": 557.5,
            "duration": 1.0
        },
        {
            "text": "[temperthetadelta] fixed itself",
            "start": 558.5,
            "duration": 2.0
        },
        {
            "text": "[tymscar] its ok now",
            "start": 560.5,
            "duration": 6.0
        },
        {
            "text": "[fjlj_whotookmyname] It's you bro haha. It's all fine here",
            "start": 566.5,
            "duration": 12.0
        },
        {
            "text": "[gittimki] my firefox crashed tsodinPog",
            "start": 578.5,
            "duration": 8.0
        },
        {
            "text": "[fjlj_whotookmyname] Lawl hacked",
            "start": 586.5,
            "duration": 11.0
        },
        {
            "text": "[cheesebugles] @badalov4 Try to install dark mode extension over everything you are using browser, editor, ...",
            "start": 597.5,
            "duration": 14.0
        },
        {
            "text": "[badalov4] @cheesebugles already have, thx",
            "start": 611.5,
            "duration": 30.0
        },
        {
            "text": "[badalov4] it just seems to only happen at night",
            "start": 641.5,
            "duration": 5.0
        },
        {
            "text": "[papagebu] @badalov4 Try to work in well lit area",
            "start": 646.5,
            "duration": 3.0
        },
        {
            "text": "[marcelclay] I got on a stream, again.\n[badalov4] especially that my eyes get lazy at focusing",
            "start": 649.5,
            "duration": 10.0
        },
        {
            "text": "[sudo_nick] khello zozin",
            "start": 659.5,
            "duration": 24.0
        },
        {
            "text": "[badalov4] @papagebu although the room is quite well lit, that might be the issue. thanks man",
            "start": 683.5,
            "duration": 1.0
        },
        {
            "text": "[yenxsal] !today\n[mrbotka] @yenxsal Speeding up the Seam Carving Algorithm I implemented on the previous stream https://github.com/tsoding/seam-carving",
            "start": 684.5,
            "duration": 6.0
        },
        {
            "text": "[llamexis] Is this Rust for normal people?",
            "start": 690.5,
            "duration": 8.0
        },
        {
            "text": "[sudo_nick] not a gatekeeper anymore guys",
            "start": 698.5,
            "duration": 15.0
        },
        {
            "text": "[temperthetadelta] sometimes",
            "start": 713.5,
            "duration": 2.0
        },
        {
            "text": "[zennmystic] !today\n[mrbotka] @zennmystic Speeding up the Seam Carving Algorithm I implemented on the previous stream https://github.com/tsoding/seam-carving",
            "start": 715.5,
            "duration": 17.0
        },
        {
            "text": "[shpirtman] Avoided backdoors",
            "start": 732.5,
            "duration": 3.0
        },
        {
            "text": "[mini__bomba] should've asked chatgpt to ask a wall of rejection text",
            "start": 735.5,
            "duration": 32.0
        },
        {
            "text": "[sudo_nick] LuL",
            "start": 767.5,
            "duration": 20.0
        },
        {
            "text": "[sandyx] i think original_seam is a tcp connection directly to the fbi that sends your entire hard drive",
            "start": 787.5,
            "duration": 21.0
        },
        {
            "text": "[heyyouhere] F?",
            "start": 808.5,
            "duration": 1.0
        },
        {
            "text": "[netfri66] f?",
            "start": 809.5,
            "duration": 4.0
        },
        {
            "text": "[rekasawak] \u0424",
            "start": 813.5,
            "duration": 3.0
        },
        {
            "text": "[tymscar] stream dead again",
            "start": 816.5,
            "duration": 2.0
        },
        {
            "text": "[hicaro____] The bug of the building was there even when the person was far\n[netfri66] phi\n[nitrix_dev] f",
            "start": 818.5,
            "duration": 1.0
        },
        {
            "text": "[tymscar] whats happening today",
            "start": 819.5,
            "duration": 2.0
        },
        {
            "text": "[nsgorge] yeah f",
            "start": 821.5,
            "duration": 1.0
        },
        {
            "text": "[mini__bomba] kgb's cutting the cables again",
            "start": 822.5,
            "duration": 1.0
        },
        {
            "text": "[windoze345] f",
            "start": 823.5,
            "duration": 1.0
        },
        {
            "text": "[tw_int] F again",
            "start": 825.5,
            "duration": 6.0
        },
        {
            "text": "[heyyouhere] refresh my dudes!",
            "start": 831.5,
            "duration": 2.0
        },
        {
            "text": "[mowemax] \ud83c\udf89",
            "start": 833.5,
            "duration": 10.0
        },
        {
            "text": "[temperthetadelta] oh we back",
            "start": 843.5,
            "duration": 19.0
        },
        {
            "text": "[xayzan] you back",
            "start": 862.5,
            "duration": 4.0
        },
        {
            "text": "[xayzan] Pog",
            "start": 866.5,
            "duration": 1.0
        },
        {
            "text": "[cocicocyn] nyoooom",
            "start": 867.5,
            "duration": 8.0
        },
        {
            "text": "[zennmystic] shortest video I ever see him make",
            "start": 875.5,
            "duration": 5.0
        },
        {
            "text": "[marcelclay] Bro's back!",
            "start": 880.5,
            "duration": 28.0
        },
        {
            "text": "[netfri66] why don't just run it with \"time\"",
            "start": 908.5,
            "duration": 1.0
        },
        {
            "text": "[markosth09] tsoding is back",
            "start": 909.5,
            "duration": 10.0
        },
        {
            "text": "[linuxseller] @ZennMystic nah, da_append was shorter",
            "start": 919.5,
            "duration": 6.0
        },
        {
            "text": "[mini__bomba] who needs that niche operating system for video games support anyway",
            "start": 925.5,
            "duration": 2.0
        },
        {
            "text": "[temperthetadelta] @NetFri66 because time is bad",
            "start": 927.5,
            "duration": 59.0
        },
        {
            "text": "[i_simian] !today\n[mrbotka] @i_simian Speeding up the Seam Carving Algorithm I implemented on the previous stream https://github.com/tsoding/seam-carving",
            "start": 986.5,
            "duration": 1.0
        },
        {
            "text": "[netfri66] @temperthetadelta I mean the command time, not the time function in c",
            "start": 987.5,
            "duration": 1.0
        },
        {
            "text": "[mini__bomba] in timespec(3)",
            "start": 988.5,
            "duration": 17.0
        },
        {
            "text": "[temperthetadelta] @NetFri66 my point still stands",
            "start": 1005.5,
            "duration": 56.0
        },
        {
            "text": "[angelcaru] Hey, Tsoding! Any plans to start streaming on YT as well as on Twitch?",
            "start": 1061.5,
            "duration": 11.0
        },
        {
            "text": "[butterscotchtoffee] Pog",
            "start": 1072.5,
            "duration": 21.0
        },
        {
            "text": "[x_egoist] speeding up some shit, I believe that's called laxatives.",
            "start": 1093.5,
            "duration": 16.0
        },
        {
            "text": "[angelcaru] why not use `time` command?",
            "start": 1109.5,
            "duration": 13.0
        },
        {
            "text": "[surge666] Not dumpting every iteration to stdout should also speed things up a bit.",
            "start": 1122.5,
            "duration": 7.0
        },
        {
            "text": "[i_simian] We weissman scoring up in here",
            "start": 1129.5,
            "duration": 7.0
        },
        {
            "text": "[angelcaru] but couldnt you run just `main` under tim",
            "start": 1136.5,
            "duration": 14.0
        },
        {
            "text": "[angelcaru] doesnt really matter i suppose",
            "start": 1150.5,
            "duration": 2.0
        },
        {
            "text": "[tw_int] @x_Egoist pun",
            "start": 1152.5,
            "duration": 2.0
        },
        {
            "text": "[heyyouhere] but can you do cmd.Append(\"time\") in nob.c?",
            "start": 1154.5,
            "duration": 3.0
        },
        {
            "text": "[temperthetadelta] this isn't 1980, IO is fast",
            "start": 1157.5,
            "duration": 17.0
        },
        {
            "text": "[linuxseller] @TemperThetaDelta no",
            "start": 1174.5,
            "duration": 4.0
        },
        {
            "text": "[adaxiik] Are we going for parallelization? its literally my school task kekw",
            "start": 1178.5,
            "duration": 4.0
        },
        {
            "text": "[linuxseller] not fast enough at least",
            "start": 1182.5,
            "duration": 2.0
        },
        {
            "text": "[angelcaru] @TemperThetaDelta not in emacs",
            "start": 1184.5,
            "duration": 7.0
        },
        {
            "text": "[temperthetadelta] fast enough for the usecase",
            "start": 1191.5,
            "duration": 17.0
        },
        {
            "text": "[x_egoist] bless you",
            "start": 1208.5,
            "duration": 1.0
        },
        {
            "text": "[katharsiqus] \u0431\u0443\u0434\u044c",
            "start": 1209.5,
            "duration": 6.0
        },
        {
            "text": "[butterscotchtoffee] Kreygasm",
            "start": 1215.5,
            "duration": 3.0
        },
        {
            "text": "[linuxseller] \u043d\u0435 \u0431\u0443\u0434\u044c",
            "start": 1218.5,
            "duration": 137.0
        },
        {
            "text": "[linuxseller] 289 people watching nothing",
            "start": 1355.5,
            "duration": 6.0
        },
        {
            "text": "[linuxseller] interesting",
            "start": 1361.5,
            "duration": 11.0
        },
        {
            "text": "[tymscar] @linuxseller what do you mean",
            "start": 1372.5,
            "duration": 8.0
        },
        {
            "text": "[angelcaru] you have an interesting definition of \"nothing\"",
            "start": 1380.5,
            "duration": 14.0
        },
        {
            "text": "[whoopalla] Why exactly streamer \u043a\u0430\u0440\u0442\u0430\u0432\u0438\u0442 in Russian but not \u043a\u0430\u0440\u0442\u0430\u0432\u0438\u0442 in english?",
            "start": 1394.5,
            "duration": 34.0
        },
        {
            "text": "[linuxseller] because there is no \u0440\u0440\u0440\u0440\u0440 sound in english",
            "start": 1428.5,
            "duration": 4.0
        },
        {
            "text": "[jcoding] !today\n[mrbotka] @jcoding Speeding up the Seam Carving Algorithm I implemented on the previous stream https://github.com/tsoding/seam-carving",
            "start": 1432.5,
            "duration": 12.0
        },
        {
            "text": "[mini__bomba] maybe io is taking the time",
            "start": 1444.5,
            "duration": 3.0
        },
        {
            "text": "[surge666] Last time I was also thinking about exporting as bitmap, instead of jpeg or png. It shouldn't require FFT to export in this format, so that may be faster...",
            "start": 1447.5,
            "duration": 5.0
        },
        {
            "text": "[yashj7] is that tea ?",
            "start": 1452.5,
            "duration": 19.0
        },
        {
            "text": "[supremedeterminant] Hello, excusez moi, where are u from?",
            "start": 1471.5,
            "duration": 5.0
        },
        {
            "text": "[trondsg] !today",
            "start": 1476.5,
            "duration": 1.0
        },
        {
            "text": "[mrbotka] @trondsg Speeding up the Seam Carving Algorithm I implemented on the previous stream https://github.com/tsoding/seam-carving",
            "start": 1482.0,
            "duration": 0.0
        },
        {
            "text": "[mini__bomba] all the bloat",
            "start": 1482.0,
            "duration": 10.0
        },
        {
            "text": "[alonicehello] he is using a VPN ?",
            "start": 1492.0,
            "duration": 36.0
        },
        {
            "text": "[x_egoist] nice",
            "start": 1528.0,
            "duration": 97.0
        },
        {
            "text": "[zennmystic] I think he didn't like the extra prep work for youtube and also does not get anything from it",
            "start": 1625.0,
            "duration": 18.0
        },
        {
            "text": "[surge666] diagonal points also?",
            "start": 1643.0,
            "duration": 5.0
        },
        {
            "text": "[xxkiller_xdxx] hey zozin",
            "start": 1648.0,
            "duration": 6.0
        },
        {
            "text": "[zennmystic] so he only transfer some videos to YT bot all",
            "start": 1654.0,
            "duration": 13.0
        },
        {
            "text": "[jcoding] is valgrind profiling tool helpful for these kinds of  optimizations?",
            "start": 1667.0,
            "duration": 11.0
        },
        {
            "text": "[juli27117] won't that affect all other pixels, because all other pixels will shift?",
            "start": 1678.0,
            "duration": 2.0
        },
        {
            "text": "[fjlj_whotookmyname] Don't have to recompute the pixels that will be removed next iteration of the same seam also.",
            "start": 1680.0,
            "duration": 16.0
        },
        {
            "text": "[angelcaru] @ZennMystic but AFAIK he doesn't get anything from Twitch either?",
            "start": 1696.0,
            "duration": 15.0
        },
        {
            "text": "[fjlj_whotookmyname] Correct",
            "start": 1711.0,
            "duration": 6.0
        },
        {
            "text": "[fjlj_whotookmyname] !donate",
            "start": 1717.0,
            "duration": 1.0
        },
        {
            "text": "[mrbotka] @fjlj_whotookmyname BTC: bc1qj820dmeazpeq5pjn89mlh9lhws7ghs9v34x9v9 | Servers: https://zap-hosting.com/en/shop/donation/2038e94867b5e65cab2e72abf8ad956c/",
            "start": 1718.0,
            "duration": 3.0
        },
        {
            "text": "[fjlj_whotookmyname] Is all",
            "start": 1721.0,
            "duration": 26.0
        },
        {
            "text": "[zennmystic] he is not using GFX card to compute  but that could be option for speed up",
            "start": 1747.0,
            "duration": 3.0
        },
        {
            "text": "[hightowerlowpower] \u2026 what about just doing a bounding box?",
            "start": 1750.0,
            "duration": 14.0
        },
        {
            "text": "[markosth09] @jcoding profiling in general is helpful to determine what you need to optimize",
            "start": 1764.0,
            "duration": 18.0
        },
        {
            "text": "[ananonymousgifter] An anonymous user gifted a Tier 1 sub to pleasefondlemedaddy!  ",
            "start": 1782.0,
            "duration": 11.0
        },
        {
            "text": "[surge666] Some positions also need to be removed, because some pixels are removed.",
            "start": 1793.0,
            "duration": 34.0
        },
        {
            "text": "[yuyiin] Does the gradient need to be normalized on [0, 1] if not outputting it's image representation?",
            "start": 1827.0,
            "duration": 28.0
        },
        {
            "text": "[zennmystic] I wonder what happen? either battery died or KGB visit?",
            "start": 1855.0,
            "duration": 42.0
        },
        {
            "text": "[zennmystic] maybe ask for top secret ever lasting battery?",
            "start": 1897.0,
            "duration": 70.0
        },
        {
            "text": "[jasonrothfuss] You can use the `inline` keyword in C, no?",
            "start": 1967.0,
            "duration": 21.0
        },
        {
            "text": "[surge666] @jasonrothfuss Yes, but it's more of a hint than a directive in C...",
            "start": 1988.0,
            "duration": 1.0
        },
        {
            "text": "[temperthetadelta] `static inline` go brrr",
            "start": 1989.0,
            "duration": 2.0
        },
        {
            "text": "[sinkevich] !today\n[mrbotka] @sinkevich Speeding up the Seam Carving Algorithm I implemented on the previous stream https://github.com/tsoding/seam-carving",
            "start": 1991.0,
            "duration": 17.0
        },
        {
            "text": "[jasonrothfuss] @Surge666 ah, thx!",
            "start": 2008.0,
            "duration": 40.0
        },
        {
            "text": "[surge666] @jasonrothfuss If you want to force it, there are some compiler specific directives. But it's not portable code anymore.",
            "start": 2048.0,
            "duration": 9.0
        },
        {
            "text": "[petar321] Hey mr Tsoding! First message here, I just saw your tweet about AI revolution, loved it, was it AI generated or a conscious thought?",
            "start": 2057.0,
            "duration": 85.0
        },
        {
            "text": "[fjlj_whotookmyname] Shoot... Just telling compiler to use SSE2/AVX should give a pretty good increase in speed.",
            "start": 2142.0,
            "duration": 10.0
        },
        {
            "text": "[zennmystic] plus I do not think inline is the way to go in this case..",
            "start": 2152.0,
            "duration": 38.0
        },
        {
            "text": "[yuyiin] @fjlj_WhoTookMyName I would think that -O3 kinda does this",
            "start": 2190.0,
            "duration": 2.0
        },
        {
            "text": "[krzysckh] !today\n[mrbotka] @krzysckh Speeding up the Seam Carving Algorithm I implemented on the previous stream https://github.com/tsoding/seam-carving",
            "start": 2192.0,
            "duration": 3.0
        },
        {
            "text": "[mrsilvermatch] you could calculate 2 left and 2 right of the seam, not tehe most optimised but it avoids calculating if it's 1 or 2 each side",
            "start": 2195.0,
            "duration": 28.0
        },
        {
            "text": "[zennmystic] @fjlj_WhoTookMyName  Thats the word I was looking for yet I was thinking imm and am like no that not it",
            "start": 2223.0,
            "duration": 38.0
        },
        {
            "text": "[terry3442] tsoding i remember when u used to be chunky",
            "start": 2261.0,
            "duration": 31.0
        },
        {
            "text": "[jfmelo__] !today\n[mrbotka] @jfmelo__ Speeding up the Seam Carving Algorithm I implemented on the previous stream https://github.com/tsoding/seam-carving",
            "start": 2292.0,
            "duration": 1.0
        },
        {
            "text": "[cptchika] hello",
            "start": 2293.0,
            "duration": 11.0
        },
        {
            "text": "[zennmystic] SSE2 .. .. is way to go",
            "start": 2304.0,
            "duration": 5.0
        },
        {
            "text": "[sudo_nick] also i think he should remove the printf inside that loop",
            "start": 2309.0,
            "duration": 36.0
        },
        {
            "text": "[surge666] You can hold grad and dp in an array of pairs, and you can compute them at the same time...",
            "start": 2345.0,
            "duration": 8.0
        },
        {
            "text": "[hbobenicio] lol\n[zennmystic] I think is more for debug",
            "start": 2353.0,
            "duration": 6.0
        },
        {
            "text": "[sudo_nick] LUL\n[xxkiller_xdxx] LUL",
            "start": 2359.0,
            "duration": 2.0
        },
        {
            "text": "[akufishi] KEKW",
            "start": 2361.0,
            "duration": 4.0
        },
        {
            "text": "[hightowerlowpower] I think you are fighting the emacs terminal output speed",
            "start": 2365.0,
            "duration": 2.0
        },
        {
            "text": "[mini__bomba] this is much better",
            "start": 2367.0,
            "duration": 15.0
        },
        {
            "text": "[shpirtman] tsodinIsntThatPog",
            "start": 2382.0,
            "duration": 12.0
        },
        {
            "text": "[butterscotchtoffee] Kreygasm OSFrog lolipCRAWLINGINMYSKIN",
            "start": 2394.0,
            "duration": 15.0
        },
        {
            "text": "[mrsilvermatch] also, is he saving each image to the file system each loop ?",
            "start": 2409.0,
            "duration": 2.0
        },
        {
            "text": "[hightowerlowpower] you are smarter thank me later;)",
            "start": 2411.0,
            "duration": 23.0
        },
        {
            "text": "[hdr88] it save half a second",
            "start": 2434.0,
            "duration": 3.0
        },
        {
            "text": "[tymscar] half a second is more than I expected",
            "start": 2437.0,
            "duration": 19.0
        },
        {
            "text": "[mrsilvermatch] yeah",
            "start": 2456.0,
            "duration": 8.0
        },
        {
            "text": "[verilysavetheadverb] just remove io for speed bruh 4Head",
            "start": 2464.0,
            "duration": 10.0
        },
        {
            "text": "[fr3sh4nt1m8] what do you think about benchmarking using perf to find bottle necks?",
            "start": 2474.0,
            "duration": 3.0
        },
        {
            "text": "[adaxiik] is dumping mat enabled? you are calling it on each frame?",
            "start": 2477.0,
            "duration": 1.0
        },
        {
            "text": "[markosth09] you should examine the assembly to see if it is using simd",
            "start": 2478.0,
            "duration": 9.0
        },
        {
            "text": "[surge666] @terry3442 flushing the output is the issue",
            "start": 2487.0,
            "duration": 4.0
        },
        {
            "text": "[valenii] tsodinPogging AYAYAHop KappaTea",
            "start": 2491.0,
            "duration": 6.0
        },
        {
            "text": "[nulligor] hey zozi hey chat",
            "start": 2497.0,
            "duration": 5.0
        },
        {
            "text": "[nulligor] have a good one AYAYA",
            "start": 2502.0,
            "duration": 2.0
        },
        {
            "text": "[hightowerlowpower] \u2026. maybe using a bounding box?",
            "start": 2504.0,
            "duration": 19.0
        },
        {
            "text": "[andre_herman] it does not matter what terminal is used for output, as long as it is used always the same one for time comparison.",
            "start": 2523.0,
            "duration": 3.0
        },
        {
            "text": "[surge666] You have two matrices in Sobel, which can be convoluted independently.",
            "start": 2554.5,
            "duration": 7.0
        },
        {
            "text": "[tmartiro] you need to sleep",
            "start": 2561.5,
            "duration": 5.0
        },
        {
            "text": "[yuyiin] @vladevolps link twitch and discord accounts",
            "start": 2566.5,
            "duration": 17.0
        },
        {
            "text": "[nulligor] seam buffa?",
            "start": 2583.5,
            "duration": 12.0
        },
        {
            "text": "[developland] @yuyiin thanks",
            "start": 2595.5,
            "duration": 71.0
        },
        {
            "text": "[casensio] casensio subscribed with Prime. They've subscribed for 12 months! always a pleasure listen your thoughts",
            "start": 2666.5,
            "duration": 148.0
        },
        {
            "text": "[surge666] time to draw it",
            "start": 2814.5,
            "duration": 10.0
        },
        {
            "text": "[barnii_77] !today",
            "start": 2824.5,
            "duration": 1.0
        },
        {
            "text": "[mrbotka] @barnii_77 Speeding up the Seam Carving Algorithm I implemented on the previous stream https://github.com/tsoding/seam-carving",
            "start": 2825.5,
            "duration": 40.0
        },
        {
            "text": "[verilysavetheadverb] seams*",
            "start": 2865.5,
            "duration": 14.0
        },
        {
            "text": "[andre_herman] for me, one of the most enjoyable things in this stream is to follow zozing thoughts",
            "start": 2879.5,
            "duration": 25.0
        },
        {
            "text": "[surge666] @andre_herman I didn't know programmers had simps :D",
            "start": 2904.5,
            "duration": 51.0
        },
        {
            "text": "[andre_herman] @Surge666 I am just being honest =)",
            "start": 2955.5,
            "duration": 44.0
        },
        {
            "text": "[surge666] it can be educational honestly; jk of course",
            "start": 2999.5,
            "duration": 6.0
        },
        {
            "text": "[developland] @vladevolps all worked, thanks again",
            "start": 3005.5,
            "duration": 103.0
        },
        {
            "text": "[dinobuffy] @tw_int now currently after every seam it computes luminance and sobel for whole image  etc so if you save last Seam x position in most cases you would iterate only around 10 - 20% of the whole image",
            "start": 3108.5,
            "duration": 13.0
        },
        {
            "text": "[casensio] not all programming streams are enjoyable, this one is so good for 2 things imho  1) small projects  2) good explanations",
            "start": 3121.5,
            "duration": 12.0
        },
        {
            "text": "[yuyiin] Does normalizing both dp and grad necessary if not outputting theirs image representation?",
            "start": 3133.5,
            "duration": 24.0
        },
        {
            "text": "[surge666] @casensio Yeah. I tried to follow Handmade hero, and that was painful. Honestly",
            "start": 3157.5,
            "duration": 11.0
        },
        {
            "text": "[surge666] Although Casey is a great programmer",
            "start": 3168.5,
            "duration": 23.0
        },
        {
            "text": "[tw_int] @dinobuffy hm. why not remove the seam from lum and sobel?",
            "start": 3191.5,
            "duration": 14.0
        },
        {
            "text": "[andre_herman] @Surge666 same, too long and \"verbose\" But still an amazing thing to do and to have at our disposal",
            "start": 3205.5,
            "duration": 33.0
        },
        {
            "text": "[dinobuffy] @tw_int new sobel values might be different there",
            "start": 3238.5,
            "duration": 34.0
        },
        {
            "text": "[mimhufford] Recomputing sobel for 2 pixels either side of the seam would always cover everything, a little bit wasteful, but very simple",
            "start": 3272.5,
            "duration": 19.0
        },
        {
            "text": "[invisibl3cat] Maybe it's time to profile the individual steps?",
            "start": 3291.5,
            "duration": 4.0
        },
        {
            "text": "[popescualexandrucristian] Use a separate bit map",
            "start": 3295.5,
            "duration": 2.0
        },
        {
            "text": "[tw_int] @dinobuffy yeah",
            "start": 3297.5,
            "duration": 22.0
        },
        {
            "text": "[surge666] float nan?",
            "start": 3319.5,
            "duration": 10.0
        },
        {
            "text": "[tymscar] why not use maxint ?",
            "start": 3329.5,
            "duration": 10.0
        },
        {
            "text": "[mimhufford] floating business nan emoji hitting 2025",
            "start": 3339.5,
            "duration": 5.0
        },
        {
            "text": "[rifukkawa] why do you need sqrtf btw?",
            "start": 3344.5,
            "duration": 6.0
        },
        {
            "text": "[vinibreda] how does it feel getting back to C?\n[pralkarz] Hello Amr. Azozin.",
            "start": 3350.5,
            "duration": 28.0
        },
        {
            "text": "[nulligor] cock tractor 1 Pog",
            "start": 3378.5,
            "duration": 4.0
        },
        {
            "text": "[nulligor] !vanish",
            "start": 3382.5,
            "duration": 15.0
        },
        {
            "text": "[markosth09] isn't there a NAN macro?",
            "start": 3397.5,
            "duration": 19.0
        },
        {
            "text": "[surge666] s111 1111 1xxx xxxx xxxx xxxx xxxx xxxx",
            "start": 3416.5,
            "duration": 5.0
        },
        {
            "text": "[surge666] that's nan with sign s",
            "start": 3421.5,
            "duration": 3.0
        },
        {
            "text": "[rifukkawa] through union maybe",
            "start": 3424.5,
            "duration": 75.0
        },
        {
            "text": "[realtigercz] or you can just use NAN from math.h",
            "start": 3499.5,
            "duration": 3.0
        },
        {
            "text": "[tw_int] Sims Y",
            "start": 3502.5,
            "duration": 24.0
        },
        {
            "text": "[cephon_altera] @Surge666 wouldnt that be infinity?",
            "start": 3526.5,
            "duration": 45.0
        },
        {
            "text": "[cephon_altera] 9 1s would be NaN",
            "start": 3571.5,
            "duration": 69.0
        },
        {
            "text": "[surge666] @cephon_altera https://stackoverflow.com/questions/71979628/how-can-i-output-bit-pattern-of-infinity-and-nan-in-cieee-standard",
            "start": 3640.5,
            "duration": 22.0
        },
        {
            "text": "[surge666] So you are also right ... :D",
            "start": 3662.5,
            "duration": 15.0
        },
        {
            "text": "[cephon_altera] @Surge666 ah by xxxx you meant \"not everything is 0\"",
            "start": 3677.5,
            "duration": 6.0
        },
        {
            "text": "[cephon_altera] true true",
            "start": 3683.5,
            "duration": 79.0
        },
        {
            "text": "[andre_herman] just remembered the sqrt algorithm of John Carmack",
            "start": 3762.5,
            "duration": 21.0
        },
        {
            "text": "[cephon_altera] C-eem",
            "start": 3783.5,
            "duration": 15.0
        },
        {
            "text": "[surge666] I think the diagonal element does not affect the central element...",
            "start": 3798.5,
            "duration": 34.0
        },
        {
            "text": "[hessenar] \u041e\u043f\u044f\u0442\u044c \u0441\u0438\u0448\u0435\u0447\u043a\u0430",
            "start": 3832.5,
            "duration": 52.0
        },
        {
            "text": "[hbobenicio] nice",
            "start": 3884.5,
            "duration": 4.0
        },
        {
            "text": "[butterscotchtoffee] Pog\n[mimhufford] Very nice",
            "start": 3888.5,
            "duration": 3.0
        },
        {
            "text": "[akufishi] Pog",
            "start": 3891.5,
            "duration": 5.0
        },
        {
            "text": "[mimhufford] Basically realtime\n[icefire_gaming] Pog",
            "start": 3896.5,
            "duration": 2.0
        },
        {
            "text": "[brooklyndev] Pog",
            "start": 3898.5,
            "duration": 4.0
        },
        {
            "text": "[casensio] Pog\n[nuke4fun] nice 60,000% speed up, good job",
            "start": 3902.5,
            "duration": 6.0
        },
        {
            "text": "[andre_herman] tsodinPogging",
            "start": 3908.5,
            "duration": 6.0
        },
        {
            "text": "[rifukkawa] But do you need sqrtf here?",
            "start": 3914.5,
            "duration": 1.0
        },
        {
            "text": "[realtigercz] 3.5X speedup nice",
            "start": 3915.5,
            "duration": 16.0
        },
        {
            "text": "[realtigercz] btw there is NAN value in math.h",
            "start": 3931.5,
            "duration": 39.0
        },
        {
            "text": "[surge666] `hyperref` is a nice command line tool for profiling. It tries the application a few times and gives you some error ranges.",
            "start": 3970.5,
            "duration": 20.0
        },
        {
            "text": "[casensio] anyone can write the name from who is talking ?",
            "start": 3990.5,
            "duration": 14.0
        },
        {
            "text": "[surge666] sorry, `hyperfine`",
            "start": 4004.5,
            "duration": 3.0
        },
        {
            "text": "[invisibl3cat] j_blow @casensio",
            "start": 4007.5,
            "duration": 5.0
        },
        {
            "text": "[casensio] thanks",
            "start": 4012.5,
            "duration": 18.0
        },
        {
            "text": "[andre_herman] @casensio jonathan blow",
            "start": 4030.5,
            "duration": 5.0
        },
        {
            "text": "[realtigercz] 1 minute",
            "start": 4035.5,
            "duration": 17.0
        },
        {
            "text": "[iwas_official] holy Pog",
            "start": 4052.5,
            "duration": 79.0
        },
        {
            "text": "[lcolonq] haha lol haha\n[icefire_gaming] LUL",
            "start": 4131.5,
            "duration": 5.0
        },
        {
            "text": "[casensio] correct!! :D",
            "start": 4136.5,
            "duration": 3.0
        },
        {
            "text": "[butterscotchtoffee] NotLikeThis OSFrog",
            "start": 4139.5,
            "duration": 2.0
        },
        {
            "text": "[mimhufford] Do the 2 hardest problems and off by one errors joke next please",
            "start": 4141.5,
            "duration": 6.0
        },
        {
            "text": "[broeman] semantics is half the work",
            "start": 4147.5,
            "duration": 1.0
        },
        {
            "text": "[lcolonq] yo",
            "start": 4148.5,
            "duration": 11.0
        },
        {
            "text": "[yuyiin] 6sec->1.7sec, but people swear the problem is emacs IO LUL",
            "start": 4159.5,
            "duration": 2.0
        },
        {
            "text": "[daddydepression96] Thats the number 1 joke in programming. Sorry I mean the number 0.\n[renerick] yes i I m a programmer just like you",
            "start": 4161.5,
            "duration": 5.0
        },
        {
            "text": "[realtigercz] or they just made hello world in python",
            "start": 4166.5,
            "duration": 2.0
        },
        {
            "text": "[nitrix_dev] MemeGPT\n[surge666] students basically memeing",
            "start": 4168.5,
            "duration": 26.0
        },
        {
            "text": "[mimhufford] IO probably will start to be significant now it's getting faster though tbh",
            "start": 4194.5,
            "duration": 2.0
        },
        {
            "text": "[nulligor] @LCOLONQ yooooooooooo",
            "start": 4196.5,
            "duration": 3.0
        },
        {
            "text": "[nulligor] hello computer",
            "start": 4199.5,
            "duration": 5.0
        },
        {
            "text": "[nulligor] lcolonHi",
            "start": 4204.5,
            "duration": 1.0
        },
        {
            "text": "[lcolonq] most internet discussion seems meme-directed \ud83d\ude06",
            "start": 4205.5,
            "duration": 14.0
        },
        {
            "text": "[boonsboos] i'm just here to hear funny man develop software for 2 hours while i do other stuff tsodinSleep",
            "start": 4219.5,
            "duration": 8.0
        },
        {
            "text": "[iwas_official] \ud83e\udd13 eeewww",
            "start": 4227.5,
            "duration": 5.0
        },
        {
            "text": "[nulligor] everyone wanna be a brogrammer these days",
            "start": 4232.5,
            "duration": 3.0
        },
        {
            "text": "[nulligor] it's different",
            "start": 4235.5,
            "duration": 16.0
        },
        {
            "text": "[surge666] or endless discussion about setting up your environment and text editor",
            "start": 4251.5,
            "duration": 5.0
        },
        {
            "text": "[gheedo] i guess the \"coolness\" of a profession is strictly related to the public perception of the average salary",
            "start": 4256.5,
            "duration": 2.0
        },
        {
            "text": "[lcolonq] programming discussion would probably be nicer if there was less money to be made NODDERS",
            "start": 4258.5,
            "duration": 19.0
        },
        {
            "text": "[theuglydev] @nulligor LUL LUL",
            "start": 4277.5,
            "duration": 2.0
        },
        {
            "text": "[hakkology] I can't feel bad for wanting to be a programmer with a civil engineering degree, considering my passion for working with game development :/",
            "start": 4279.5,
            "duration": 2.0
        },
        {
            "text": "[cephon_altera] i think people are too addicted to \"meme funny\" instead of posting something real",
            "start": 4281.5,
            "duration": 12.0
        },
        {
            "text": "[lcolonq] of course of course",
            "start": 4293.5,
            "duration": 1.0
        },
        {
            "text": "[nulligor] people like me PepeHands",
            "start": 4294.5,
            "duration": 5.0
        },
        {
            "text": "[realtigercz] I like money",
            "start": 4299.5,
            "duration": 1.0
        },
        {
            "text": "[lcolonq] i also love money lcolonGreen",
            "start": 4300.5,
            "duration": 13.0
        },
        {
            "text": "[rennradl3r] that reference",
            "start": 4313.5,
            "duration": 2.0
        },
        {
            "text": "[surge666] your mom loves money yes",
            "start": 4315.5,
            "duration": 27.0
        },
        {
            "text": "[boonsboos] urmom loves deeznuts (bombs)",
            "start": 4342.5,
            "duration": 51.0
        },
        {
            "text": "[rennradl3r] no you're the first one",
            "start": 4393.5,
            "duration": 5.0
        },
        {
            "text": "[casensio] :D",
            "start": 4398.5,
            "duration": 5.0
        },
        {
            "text": "[th3ep1cunkn0wn] If it compiles = idea good LUL",
            "start": 4403.5,
            "duration": 3.0
        },
        {
            "text": "[casensio] MaxLOL",
            "start": 4406.5,
            "duration": 9.0
        },
        {
            "text": "[darth_copium] pull a M$ and patent that idea",
            "start": 4415.5,
            "duration": 7.0
        },
        {
            "text": "[surge666] Not a weird idea. I think using NULL for pointers is a similar idea.",
            "start": 4422.5,
            "duration": 2.0
        },
        {
            "text": "[markosth09] probably should replace that with NAN and isnan from ",
            "start": 4424.5,
            "duration": 5.0
        },
        {
            "text": "[surge666] NULL meaning something off, not a real  pointer.",
            "start": 4429.5,
            "duration": 6.0
        },
        {
            "text": "[popescualexandrucristian] No, float-int perf bad",
            "start": 4435.5,
            "duration": 10.0
        },
        {
            "text": "[realtigercz] You can use NAN (from math.h) and maybe (double) 0xFF... would also work",
            "start": 4445.5,
            "duration": 2.0
        },
        {
            "text": "[dinobuffy] i would save vec2 for this",
            "start": 4447.5,
            "duration": 9.0
        },
        {
            "text": "[broeman] isnt this like memoization",
            "start": 4456.5,
            "duration": 29.0
        },
        {
            "text": "[nulligor] men boxing? yea",
            "start": 4485.5,
            "duration": 8.0
        },
        {
            "text": "[mimhufford] I've seen than on the dark web",
            "start": 4493.5,
            "duration": 1.0
        },
        {
            "text": "[tcpstream] Boxing grandmas?",
            "start": 4494.5,
            "duration": 6.0
        },
        {
            "text": "[tcpstream] nan boxing?\n[thefallaway] Kappa",
            "start": 4500.5,
            "duration": 1.0
        },
        {
            "text": "[cephon_altera] is nanboxing an activity involving punching grandmas?",
            "start": 4501.5,
            "duration": 2.0
        },
        {
            "text": "[lcolonq] KEKW",
            "start": 4503.5,
            "duration": 9.0
        },
        {
            "text": "[rennradl3r] it's illegal",
            "start": 4512.5,
            "duration": 14.0
        },
        {
            "text": "[broeman] sneaky",
            "start": 4526.5,
            "duration": 7.0
        },
        {
            "text": "[neumond8] pointer arithmetic gone wild",
            "start": 4533.5,
            "duration": 32.0
        },
        {
            "text": "[nulligor] thats very cool",
            "start": 4565.5,
            "duration": 8.0
        },
        {
            "text": "[nulligor] lcolonNoted",
            "start": 4573.5,
            "duration": 20.0
        },
        {
            "text": "[th3ep1cunkn0wn] so, using a float (number) to box a NaN?",
            "start": 4593.5,
            "duration": 8.0
        },
        {
            "text": "[carthoris2227] or pointers.",
            "start": 4601.5,
            "duration": 40.0
        },
        {
            "text": "[rennradl3r] 64 - 16 i believe",
            "start": 4641.5,
            "duration": 3.0
        },
        {
            "text": "[popescualexandrucristian] The reason we can't have 64bit wasm",
            "start": 4644.5,
            "duration": 12.0
        },
        {
            "text": "[bah4ie] 48bit left maybe",
            "start": 4656.5,
            "duration": 3.0
        },
        {
            "text": "[surge666] to write a nan, you need 1 + 11 bits at least",
            "start": 4659.5,
            "duration": 8.0
        },
        {
            "text": "[surge666] so you have 52, but one has to be non-zero",
            "start": 4667.5,
            "duration": 9.0
        },
        {
            "text": "[realtigercz] modern CPUs do not address whole ram with 64 bits",
            "start": 4676.5,
            "duration": 28.0
        },
        {
            "text": "[markosth09] 52 bits for a 64 bit float but one has to be non-zero",
            "start": 4704.5,
            "duration": 17.0
        },
        {
            "text": "[cephon_altera] if its all 0s its a null pointer anyway",
            "start": 4721.5,
            "duration": 88.0
        },
        {
            "text": "[markosth09] yeah",
            "start": 4809.5,
            "duration": 8.0
        },
        {
            "text": "[nulligor] looks faster",
            "start": 4817.5,
            "duration": 31.0
        },
        {
            "text": "[darth_copium] like pr0n -> I know it when I see it!",
            "start": 4848.5,
            "duration": 8.0
        },
        {
            "text": "[markosth09] speedy seam carving",
            "start": 4856.5,
            "duration": 2.0
        },
        {
            "text": "[butterscotchtoffee] Pog",
            "start": 4858.5,
            "duration": 9.0
        },
        {
            "text": "[nulligor] Pog",
            "start": 4867.5,
            "duration": 1.0
        },
        {
            "text": "[hightowerlowpower] I told you  ;)",
            "start": 4868.5,
            "duration": 1.0
        },
        {
            "text": "[akufishi] Pog so fast",
            "start": 4869.5,
            "duration": 27.0
        },
        {
            "text": "[nulligor] if your product manager is happy with 14 seconds id say lets ship it!",
            "start": 4896.5,
            "duration": 1.0
        },
        {
            "text": "[surge666] try dumping images as bitmaps. It should be way faster",
            "start": 4897.5,
            "duration": 3.0
        },
        {
            "text": "[nulligor] alWink",
            "start": 4900.5,
            "duration": 2.0
        },
        {
            "text": "[secret_val99] !today",
            "start": 4902.5,
            "duration": 1.0
        },
        {
            "text": "[mrbotka] @secret_val99 Speeding up the Seam Carving Algorithm I implemented on the previous stream https://github.com/tsoding/seam-carving",
            "start": 4903.5,
            "duration": 5.0
        },
        {
            "text": "[rennradl3r] simd next",
            "start": 4908.5,
            "duration": 33.0
        },
        {
            "text": "[casensio] can you delete many seams at once ?",
            "start": 4941.5,
            "duration": 6.0
        },
        {
            "text": "[hightowerlowpower] @rennradl3r dont you expect the compiler to do some simd if you are doing the array scand properly?",
            "start": 4947.5,
            "duration": 6.0
        },
        {
            "text": "[yuyiin] Remove the writing the dp image. Usually png takes a lot to compress before writing",
            "start": 4953.5,
            "duration": 25.0
        },
        {
            "text": "[cephon_altera] outputting PNG happens only at the end though",
            "start": 4978.5,
            "duration": 1.0
        },
        {
            "text": "[th3ep1cunkn0wn] ~30% faster, if I am correct",
            "start": 4979.5,
            "duration": 5.0
        },
        {
            "text": "[surge666] Yeah, so bitmap would be faster.",
            "start": 4984.5,
            "duration": 4.0
        },
        {
            "text": "[yuyiin] Oh, sorry, didn't notice",
            "start": 4988.5,
            "duration": 8.0
        },
        {
            "text": "[surge666] at the end",
            "start": 4996.5,
            "duration": 57.0
        },
        {
            "text": "[nulligor] literal gatekeeper from academia",
            "start": 5053.5,
            "duration": 7.0
        },
        {
            "text": "[patrikomg] include raylo",
            "start": 5060.5,
            "duration": 2.0
        },
        {
            "text": "[mimhufford] Sounds like a witches curse to me",
            "start": 5062.5,
            "duration": 2.0
        },
        {
            "text": "[nulligor] sobel flippin patches",
            "start": 5064.5,
            "duration": 25.0
        },
        {
            "text": "[patrikomg] include raylib and write to screen",
            "start": 5089.5,
            "duration": 24.0
        },
        {
            "text": "[nulligor] @Patrikomg include j-lo",
            "start": 5113.5,
            "duration": 24.0
        },
        {
            "text": "[markosth09] encoding a png during the intermediate steps probably also takes time",
            "start": 5137.5,
            "duration": 9.0
        },
        {
            "text": "[space_berry] hiya @Tsoding",
            "start": 5146.5,
            "duration": 14.0
        },
        {
            "text": "[rennradl3r] rip",
            "start": 5160.5,
            "duration": 3.0
        },
        {
            "text": "[nulligor] me irl",
            "start": 5163.5,
            "duration": 15.0
        },
        {
            "text": "[surge666] The sky was more important than that child in the greedy solution.",
            "start": 5178.5,
            "duration": 9.0
        },
        {
            "text": "[nulligor] smol lena",
            "start": 5187.5,
            "duration": 5.0
        },
        {
            "text": "[brambasiel] kawaii",
            "start": 5192.5,
            "duration": 2.0
        },
        {
            "text": "[cephon_altera] get it under 16ms",
            "start": 5194.5,
            "duration": 6.0
        },
        {
            "text": "[yuyiin] tsodinFlushed",
            "start": 5200.5,
            "duration": 14.0
        },
        {
            "text": "[butterscotchtoffee] OSFrog",
            "start": 5214.5,
            "duration": 2.0
        },
        {
            "text": "[th3ep1cunkn0wn] but do you need to dump the dp to file?",
            "start": 5216.5,
            "duration": 6.0
        },
        {
            "text": "[space_berry] chad lena",
            "start": 5222.5,
            "duration": 9.0
        },
        {
            "text": "[tcpstream] tsodinIsntThatPog_SQ",
            "start": 5231.5,
            "duration": 1.0
        },
        {
            "text": "[th3ep1cunkn0wn] or is that no performance impact=",
            "start": 5232.5,
            "duration": 2.0
        },
        {
            "text": "[th3ep1cunkn0wn] ?",
            "start": 5234.5,
            "duration": 17.0
        },
        {
            "text": "[adaxiik] live resizing in raylib soon? pog",
            "start": 5251.5,
            "duration": 4.0
        },
        {
            "text": "[surge666] #pragma omp parallel for",
            "start": 5255.5,
            "duration": 1.0
        },
        {
            "text": "[tmartiro] SIMD",
            "start": 5256.5,
            "duration": 1.0
        },
        {
            "text": "[surge666] :D",
            "start": 5257.5,
            "duration": 4.0
        },
        {
            "text": "[realtigercz] maybe with graphic card",
            "start": 5261.5,
            "duration": 9.0
        },
        {
            "text": "[cephon_altera] openmp stream yooo",
            "start": 5270.5,
            "duration": 9.0
        },
        {
            "text": "[nulligor] dude this project is packed with interesting stuff",
            "start": 5279.5,
            "duration": 10.0
        },
        {
            "text": "[nulligor] I will legit need to rewatch vods with calm",
            "start": 5289.5,
            "duration": 13.0
        },
        {
            "text": "[andre_herman] I didn't know",
            "start": 5302.5,
            "duration": 1.0
        },
        {
            "text": "[space_berry] without an external lib?",
            "start": 5303.5,
            "duration": 12.0
        },
        {
            "text": "[realtigercz] @tmartiro I think compiler uses SIMDs when using -O3",
            "start": 5315.5,
            "duration": 1.0
        },
        {
            "text": "[brambasiel] wow\n[andre_herman] really cool",
            "start": 5316.5,
            "duration": 3.0
        },
        {
            "text": "[nulligor] I just googled it's crazy\n[cephon_altera] without tokio???\n[surge666] also #include ",
            "start": 5319.5,
            "duration": 5.0
        },
        {
            "text": "[brambasiel] linux only?",
            "start": 5324.5,
            "duration": 12.0
        },
        {
            "text": "[surge666] and link with -lomp\n[yuyiin] @brambasiel cross platform",
            "start": 5336.5,
            "duration": 4.0
        },
        {
            "text": "[tcpstream] @cephon_altera wouldn't it be rayon?",
            "start": 5340.5,
            "duration": 1.0
        },
        {
            "text": "[nulligor] this is so cool holy flip",
            "start": 5341.5,
            "duration": 4.0
        },
        {
            "text": "[space_berry] fork makes sense to run on different cores",
            "start": 5345.5,
            "duration": 9.0
        },
        {
            "text": "[yuyiin] -fopenmp flag\n[rennradl3r] divide the image into several parts and start threads to compute with that tiles",
            "start": 5354.5,
            "duration": 2.0
        },
        {
            "text": "[vinibreda] loop unrolling can help, too, cant it?",
            "start": 5356.5,
            "duration": 1.0
        },
        {
            "text": "[surge666] -fopenmp\n[markosth09] -fopenmp",
            "start": 5357.5,
            "duration": 34.0
        },
        {
            "text": "[rennradl3r] loop unrolling will help compiler as well",
            "start": 5391.5,
            "duration": 1.0
        },
        {
            "text": "[nulligor] no support for Ada PepeHands",
            "start": 5392.5,
            "duration": 22.0
        },
        {
            "text": "[vinibreda] how does it feel getting back to C after 20 days of ADA? Do you feel clean already?",
            "start": 5414.5,
            "duration": 1.0
        },
        {
            "text": "[surge666] include needed, and flag",
            "start": 5415.5,
            "duration": 20.0
        },
        {
            "text": "[surge666] ##include ",
            "start": 5435.5,
            "duration": 1.0
        },
        {
            "text": "[markosth09] -fopenmp",
            "start": 5436.5,
            "duration": 4.0
        },
        {
            "text": "[surge666] and -fomenmp",
            "start": 5440.5,
            "duration": 3.0
        },
        {
            "text": "[surge666] and -lomp",
            "start": 5443.5,
            "duration": 9.0
        },
        {
            "text": "[verilysavetheadverb] icpc Pog",
            "start": 5452.5,
            "duration": 24.0
        },
        {
            "text": "[nulligor] what\n[cephon_altera] thread creation overhead",
            "start": 5476.5,
            "duration": 2.0
        },
        {
            "text": "[nulligor] D:",
            "start": 5478.5,
            "duration": 3.0
        },
        {
            "text": "[akufishi] thread management is a hell of a thing",
            "start": 5481.5,
            "duration": 10.0
        },
        {
            "text": "[brambasiel] thread expensive tsodinFeels",
            "start": 5491.5,
            "duration": 3.0
        },
        {
            "text": "[yuyiin] @Surge666 isn't required",
            "start": 5494.5,
            "duration": 7.0
        },
        {
            "text": "[shpirtman] Are we porting to compute shaders yet? Kappa Kappa",
            "start": 5501.5,
            "duration": 6.0
        },
        {
            "text": "[tcpstream] can't we just have threads at compile time?",
            "start": 5507.5,
            "duration": 2.0
        },
        {
            "text": "[dinobuffy] #pragma omp parallel for num_threads(X)",
            "start": 5509.5,
            "duration": 10.0
        },
        {
            "text": "[nulligor] PepeHands",
            "start": 5519.5,
            "duration": 1.0
        },
        {
            "text": "[markosth09] maybe try  #pragma omp vectorize instead",
            "start": 5520.5,
            "duration": 3.0
        },
        {
            "text": "[nulligor] my dreams got destroyed",
            "start": 5523.5,
            "duration": 9.0
        },
        {
            "text": "[andre_herman] it was nice to know about it",
            "start": 5532.5,
            "duration": 1.0
        },
        {
            "text": "[surge666] you can tune out the number of threads with num_threads()",
            "start": 5533.5,
            "duration": 4.0
        },
        {
            "text": "[surge666] so you can try 2",
            "start": 5537.5,
            "duration": 9.0
        },
        {
            "text": "[brambasiel] seemed to good to be true ;D",
            "start": 5546.5,
            "duration": 11.0
        },
        {
            "text": "[surge666] #pragma omp parallel num_threads(N_thread)",
            "start": 5557.5,
            "duration": 9.0
        },
        {
            "text": "[nulligor] you came up with the concept of sobel patches and that's powerful",
            "start": 5566.5,
            "duration": 7.0
        },
        {
            "text": "[mimhufford] Are we still on the greedy approach?",
            "start": 5573.5,
            "duration": 2.0
        },
        {
            "text": "[nulligor] academically speaking :exquisite:",
            "start": 5575.5,
            "duration": 14.0
        },
        {
            "text": "[tmartiro] what about SIMD intrinsics",
            "start": 5589.5,
            "duration": 2.0
        },
        {
            "text": "[markosth09] @MimHufford no",
            "start": 5591.5,
            "duration": 2.0
        },
        {
            "text": "[vinibreda] does -o3 force simd?",
            "start": 5593.5,
            "duration": 1.0
        },
        {
            "text": "[dinobuffy] instead of marking with nan prealocate vec2 ? and fill with X,Y coordinates ?",
            "start": 5594.5,
            "duration": 38.0
        },
        {
            "text": "[surge666] *clap*",
            "start": 5632.5,
            "duration": 3.0
        },
        {
            "text": "[markosth09] @ViniBreda -O3 enables the auto vectorizer which will apply simd if it can",
            "start": 5635.5,
            "duration": 5.0
        },
        {
            "text": "[sailazaray] <3\n[adaxiik] <3\n[nulligor] have a good one zozi <3",
            "start": 5640.5,
            "duration": 1.0
        },
        {
            "text": "[akufishi] <3\n[marcelclay] Thanks too",
            "start": 5641.5,
            "duration": 1.0
        },
        {
            "text": "[brooklyndev] peace\n[mimhufford] Good work!",
            "start": 5642.5,
            "duration": 4.0
        },
        {
            "text": "[deadass_chillin] o7",
            "start": 5646.5,
            "duration": 2.0
        }
    ],
    "stats": {
        "viewCount": "26057",
        "likeCount": "651",
        "favoriteCount": "0",
        "commentCount": "105"
    }
}