absl-py==2.1.0
astunparse==1.6.3
awscli==1.32.81
backports.tarfile==1.0.0
beautifulsoup4==4.12.3
blinker==1.8.1
boto3==1.34.81
botocore==1.34.81
cachetools==5.3.3
certifi==2024.6.2
chardet==4.0.0
charset-normalizer==3.3.2
click==8.1.7
colorama==0.4.4
contourpy==1.2.1
cycler==0.12.1
debugpy==1.8.1
deepface==0.0.91
docker==3.4.0
docker-pycreds==0.4.0
docutils==0.16
filelock==3.14.0
fire==0.6.0
Flask==3.0.3
flatbuffers==24.3.25
fonttools==4.53.0
fsspec==2024.6.0
gast==0.5.4
gdown==5.1.0
gitdb==4.0.11
GitPython==3.1.43
google-api-core==2.19.0
google-api-python-client==2.132.0
google-auth==2.30.0
google-auth-httplib2==0.2.0
google-auth-oauthlib==1.2.0
google-pasta==0.2.0
googleapis-common-protos==1.63.1
greenlet==3.0.3
grpcio==1.64.1
gunicorn==22.0.0
h5py==3.11.0
httplib2==0.22.0
huggingface-hub==0.23.3
idna==3.7
itsdangerous==2.2.0
jaraco.classes==3.4.0
jaraco.context==5.3.0
Jinja2==3.1.3
jmespath==1.0.1
joblib==1.4.2
keras==3.3.3
keyring==8.7
keyrings.alt==5.0.1
kiwisolver==1.4.5
libclang==18.1.1
Markdown==3.6
markdown-it-py==3.0.0
MarkupSafe==2.1.5
matplotlib==3.9.0
matplotlib-stubs==0.2.0
mdurl==0.1.2
ml-dtypes==0.3.2
mlxtend==0.23.1
more-itertools==10.2.0
mpmath==1.3.0
msgpack==1.0.8
mtcnn==0.1.1
namex==0.0.8
neovim==0.3.1
networkx==3.3
nltk==3.8.1
numpy==1.26.4
nvidia-cublas-cu12==12.3.4.1
nvidia-cuda-cupti-cu12==12.3.101
nvidia-cuda-nvcc-cu12==12.3.107
nvidia-cuda-nvrtc-cu12==12.3.107
nvidia-cuda-runtime-cu12==12.3.101
nvidia-cudnn-cu12==8.9.7.29
nvidia-cufft-cu12==11.0.12.1
nvidia-curand-cu12==10.3.4.107
nvidia-cusolver-cu12==11.5.4.101
nvidia-cusparse-cu12==12.2.0.103
nvidia-nccl-cu12==2.19.3
nvidia-nvjitlink-cu12==12.3.101
nvidia-nvtx-cu12==12.1.105
oauthlib==3.2.2
opencv-python==4.7.0.72
opencv-python-headless==4.8.0.74
opt-einsum==3.3.0
optree==0.11.0
packaging==24.1
pandas==2.2.1
pandas-stubs==2.2.0.240218
pillow==10.3.0
proto-plus==1.23.0
protobuf==4.25.3
psutil==5.9.8
py-cpuinfo==9.0.0
pyasn1==0.6.0
pyasn1_modules==0.4.0
pybboxes==0.1.6
pydot==2.0.0
Pygments==2.18.0
pynvim==0.5.0
pyparsing==3.1.2
PyQt5==5.15.10
PyQt5-Qt5==5.15.2
PyQt5-sip==12.13.0
PySocks==1.7.1
python-dateutil==2.9.0.post0
python-dotenv==1.0.1
python-magic==0.4.27
pytz==2024.1
PyYAML==6.0.1
redis==5.0.4
regex==2024.5.15
requests==2.32.3
requests-oauthlib==2.0.0
requests-toolbelt==1.0.0
retina-face==0.0.17
rich==13.7.1
roboflow==1.1.26
rsa==4.9
ruamel.yaml==0.18.6
ruamel.yaml.clib==0.2.8
s3transfer==0.10.1
safetensors==0.4.3
sahi==0.11.15
scikit-learn==1.4.1.post1
scipy==1.12.0
seaborn==0.13.2
shapely==2.0.3
six==1.16.0
smmap==5.0.1
soupsieve==2.5
spotipy==2.23.0
statistics==1.0.3.5
sympy==1.12
tabulate==0.9.0
tensorboard==2.16.2
tensorboard-data-server==0.7.2
tensorflow==2.16.1
tensorflow-io-gcs-filesystem==0.37.0
termcolor==2.4.0
terminaltables==3.1.10
tf_keras==2.16.0
thop==0.1.1.post2209072238
threadpoolctl==3.3.0
tokenizers==0.19.1
torch==2.2.2
torchvision==0.17.2
tqdm==4.66.4
transformers==4.41.2
triton==2.2.0
types-pytz==2024.1.0.20240203
typing_extensions==4.12.2
tzdata==2024.1
ultralytics==8.1.45
uritemplate==4.1.1
urllib3==2.2.1
voluptuous==0.14.2
websocket-client==1.7.0
Werkzeug==3.0.3
wordcloud==1.9.3
wrapt==1.16.0
yolo==0.3.2
yolo5==0.0.1
yolov5==7.0.13
youtube-transcript-api==0.6.2
