{
    "id": "-IGWoNggblY",
    "title": "10 javascript Changes You Missed in 2023 | Prime Reacts",
    "publishedAt": "2023-12-08T14:00:00Z",
    "captions": [
        {
            "text": "so I haven't seen this one I saw him",
            "start": 0.08,
            "duration": 3.28
        },
        {
            "text": "just release this I'm happy that",
            "start": 1.719,
            "duration": 4.04
        },
        {
            "text": "fireship is back let's get this thing",
            "start": 3.36,
            "duration": 5.52
        },
        {
            "text": "going 2023 has been a wild Year my bank",
            "start": 5.759,
            "duration": 5.081
        },
        {
            "text": "collapsed Elon bought Twitter almost all",
            "start": 8.88,
            "duration": 4.24
        },
        {
            "text": "my friends got laid off all my favorite",
            "start": 10.84,
            "duration": 4.2
        },
        {
            "text": "crypto Bros are going to jail Tesla",
            "start": 13.12,
            "duration": 3.56
        },
        {
            "text": "successfully made it the DeLorean with a",
            "start": 15.04,
            "duration": 3.52
        },
        {
            "text": "Pontiac Aztec bringing us the Cyber",
            "start": 16.68,
            "duration": 4.359
        },
        {
            "text": "truck and chat GPT made me obsolete but",
            "start": 18.56,
            "duration": 4.12
        },
        {
            "text": "all this good news pales in comparison",
            "start": 21.039,
            "duration": 3.761
        },
        {
            "text": "to the changes web developers those are",
            "start": 22.68,
            "duration": 4.08
        },
        {
            "text": "all things that happened like like that",
            "start": 24.8,
            "duration": 5.319
        },
        {
            "text": "perfectly does sum up 2023 you know",
            "start": 26.76,
            "duration": 5.679
        },
        {
            "text": "they're all going to jail all the crypto",
            "start": 30.119,
            "duration": 5.12
        },
        {
            "text": "the rug the official rug pole rug pole",
            "start": 32.439,
            "duration": 4.921
        },
        {
            "text": "has been pulled and now look at us this",
            "start": 35.239,
            "duration": 4.64
        },
        {
            "text": "beautiful this is beautiful I would say",
            "start": 37.36,
            "duration": 6.56
        },
        {
            "text": "that the s that the Sam B freed bankman",
            "start": 39.879,
            "duration": 6.961
        },
        {
            "text": "situation SB sfb or s i I can never say",
            "start": 43.92,
            "duration": 4.24
        },
        {
            "text": "his name correct there's a dash and",
            "start": 46.84,
            "duration": 3.239
        },
        {
            "text": "there's like a lot of them um there's",
            "start": 48.16,
            "duration": 4.879
        },
        {
            "text": "too many names for one human to have uh",
            "start": 50.079,
            "duration": 5.401
        },
        {
            "text": "Sam my favorite part about that entire",
            "start": 53.039,
            "duration": 7.48
        },
        {
            "text": "Saga was the fact that they had",
            "start": 55.48,
            "duration": 8.639
        },
        {
            "text": "Wang write a back door back door Wang in",
            "start": 60.519,
            "duration": 5.96
        },
        {
            "text": "the code and then not only did he do",
            "start": 64.119,
            "duration": 4.121
        },
        {
            "text": "that not only did he write it he like",
            "start": 66.479,
            "duration": 3.801
        },
        {
            "text": "put nice commit commit messages like",
            "start": 68.24,
            "duration": 4.0
        },
        {
            "text": "backdoor Wang coming in with a good",
            "start": 70.28,
            "duration": 4.08
        },
        {
            "text": "oldfashioned back door and you're just",
            "start": 72.24,
            "duration": 4.199
        },
        {
            "text": "like damn why you got to put that in the",
            "start": 74.36,
            "duration": 4.6
        },
        {
            "text": "commit messages Sam Sam why you why you",
            "start": 76.439,
            "duration": 5.32
        },
        {
            "text": "letting backdoor Wang do that to you",
            "start": 78.96,
            "duration": 5.799
        },
        {
            "text": "like he just like just just just",
            "start": 81.759,
            "duration": 6.241
        },
        {
            "text": "straight up documented backdooring it",
            "start": 84.759,
            "duration": 5.561
        },
        {
            "text": "was beautiful it was beautiful all right",
            "start": 88.0,
            "duration": 4.079
        },
        {
            "text": "let's keep on going seen in JavaScript",
            "start": 90.32,
            "duration": 3.4
        },
        {
            "text": "land over the last year where almost",
            "start": 92.079,
            "duration": 3.36
        },
        {
            "text": "every framework decided to reinvent",
            "start": 93.72,
            "duration": 3.96
        },
        {
            "text": "itself in 2023 in today's video we'll",
            "start": 95.439,
            "duration": 4.36
        },
        {
            "text": "look yes 2023 was the year that",
            "start": 97.68,
            "duration": 5.479
        },
        {
            "text": "everybody became a nextjs framework what",
            "start": 99.799,
            "duration": 5.64
        },
        {
            "text": "do you spelt how about spelt kit hey",
            "start": 103.159,
            "duration": 4.56
        },
        {
            "text": "what do you solid solid starter whatever",
            "start": 105.439,
            "duration": 4.081
        },
        {
            "text": "it's called hey what what are you view I",
            "start": 107.719,
            "duration": 3.0
        },
        {
            "text": "don't know what views is but I'm sure",
            "start": 109.52,
            "duration": 3.68
        },
        {
            "text": "Vue has one what are you angular you",
            "start": 110.719,
            "duration": 5.281
        },
        {
            "text": "have signals now you know like I don't",
            "start": 113.2,
            "duration": 4.32
        },
        {
            "text": "know what it all was but there's there's",
            "start": 116.0,
            "duration": 2.799
        },
        {
            "text": "been a lot of them that are all doing",
            "start": 117.52,
            "duration": 3.599
        },
        {
            "text": "the same thing no what are you view you",
            "start": 118.799,
            "duration": 5.441
        },
        {
            "text": "noon okay we're nting out here look at",
            "start": 121.119,
            "duration": 4.64
        },
        {
            "text": "10 recent changes I don't know why I",
            "start": 124.24,
            "duration": 4.439
        },
        {
            "text": "turn it into like an old",
            "start": 125.759,
            "duration": 5.881
        },
        {
            "text": "Hollywood Italiano mobster what are you",
            "start": 128.679,
            "duration": 5.601
        },
        {
            "text": "what's going on have you talked to Fat",
            "start": 131.64,
            "duration": 4.36
        },
        {
            "text": "Tony about that like I don't know why",
            "start": 134.28,
            "duration": 3.239
        },
        {
            "text": "what's going on here but all of a sudden",
            "start": 136.0,
            "duration": 2.68
        },
        {
            "text": "it's just like the moment I start",
            "start": 137.519,
            "duration": 3.401
        },
        {
            "text": "talking about JavaScript Frameworks I I",
            "start": 138.68,
            "duration": 6.559
        },
        {
            "text": "turn into a stereotypical",
            "start": 140.92,
            "duration": 4.319
        },
        {
            "text": "mobster is to JavaScript that you may",
            "start": 147.519,
            "duration": 4.281
        },
        {
            "text": "have missed every year new language",
            "start": 150.12,
            "duration": 3.72
        },
        {
            "text": "features get standardized in ecmascript",
            "start": 151.8,
            "duration": 3.36
        },
        {
            "text": "at which point they're implemented in",
            "start": 153.84,
            "duration": 3.28
        },
        {
            "text": "browsers one of my favorite new features",
            "start": 155.16,
            "duration": 4.24
        },
        {
            "text": "this year is object Group by imagine you",
            "start": 157.12,
            "duration": 4.08
        },
        {
            "text": "have an array of objects where the",
            "start": 159.4,
            "duration": 3.64
        },
        {
            "text": "objects share a similar schema these",
            "start": 161.2,
            "duration": 3.6
        },
        {
            "text": "might be records from a database where",
            "start": 163.04,
            "duration": 3.64
        },
        {
            "text": "every object has a field of age you can",
            "start": 164.8,
            "duration": 3.92
        },
        {
            "text": "use groupy to separate the children from",
            "start": 166.68,
            "duration": 4.24
        },
        {
            "text": "the adults by defining a function that",
            "start": 168.72,
            "duration": 4.84
        },
        {
            "text": "groups anyone under 21 into children and",
            "start": 170.92,
            "duration": 4.48
        },
        {
            "text": "anyone over that into adult the end",
            "start": 173.56,
            "duration": 3.64
        },
        {
            "text": "result is an object organized into",
            "start": 175.4,
            "duration": 3.6
        },
        {
            "text": "groups that's a nice little utility but",
            "start": 177.2,
            "duration": 4.0
        },
        {
            "text": "when I find myself",
            "start": 179.0,
            "duration": 4.879
        },
        {
            "text": "using I don't know how I feel about that",
            "start": 181.2,
            "duration": 4.319
        },
        {
            "text": "one I I'm still trying to figure out",
            "start": 183.879,
            "duration": 3.961
        },
        {
            "text": "like",
            "start": 185.519,
            "duration": 2.321
        },
        {
            "text": "why you",
            "start": 190.0,
            "duration": 6.68
        },
        {
            "text": "know you know there's",
            "start": 192.84,
            "duration": 3.84
        },
        {
            "text": "like there's like see there's squeal",
            "start": 196.72,
            "duration": 4.76
        },
        {
            "text": "you've heard of squeal right and you can",
            "start": 199.4,
            "duration": 4.6
        },
        {
            "text": "do like group eyes and and stuff in your",
            "start": 201.48,
            "duration": 6.24
        },
        {
            "text": "database which is written in in in in a",
            "start": 204.0,
            "duration": 4.68
        },
        {
            "text": "fast",
            "start": 207.72,
            "duration": 3.96
        },
        {
            "text": "language",
            "start": 208.68,
            "duration": 3.0
        },
        {
            "text": "and so when I see this it's like M more",
            "start": 211.76,
            "duration": 5.36
        },
        {
            "text": "data",
            "start": 215.76,
            "duration": 4.28
        },
        {
            "text": "processing doesn't sound better than",
            "start": 217.12,
            "duration": 6.199
        },
        {
            "text": "less data processing in",
            "start": 220.04,
            "duration": 3.279
        },
        {
            "text": "JavaScript that's useful for no JS and",
            "start": 223.92,
            "duration": 7.16
        },
        {
            "text": "no squeal yeah no squeal was largely a",
            "start": 226.56,
            "duration": 4.52
        },
        {
            "text": "mistake just saying over that into",
            "start": 232.04,
            "duration": 4.16
        },
        {
            "text": "adults the end result is an object",
            "start": 234.36,
            "duration": 3.439
        },
        {
            "text": "organized into groups that's a nice",
            "start": 236.2,
            "duration": 3.44
        },
        {
            "text": "little utility but when I find myself",
            "start": 237.799,
            "duration": 4.0
        },
        {
            "text": "using even more often is array two",
            "start": 239.64,
            "duration": 4.439
        },
        {
            "text": "sorted along with two spliced and two",
            "start": 241.799,
            "duration": 5.44
        },
        {
            "text": "reversed this is hilarious I love the",
            "start": 244.079,
            "duration": 4.921
        },
        {
            "text": "fact that because JavaScript is a",
            "start": 247.239,
            "duration": 3.481
        },
        {
            "text": "language in which you don't know if a",
            "start": 249.0,
            "duration": 5.079
        },
        {
            "text": "function mutates you now have reverse",
            "start": 250.72,
            "duration": 5.96
        },
        {
            "text": "and two reversed",
            "start": 254.079,
            "duration": 5.201
        },
        {
            "text": "ah beautiful JavaScript already had",
            "start": 256.68,
            "duration": 4.72
        },
        {
            "text": "methods for sort and reversed but the",
            "start": 259.28,
            "duration": 3.8
        },
        {
            "text": "problem is that they mutate the original",
            "start": 261.4,
            "duration": 3.519
        },
        {
            "text": "array in place and that's confusing",
            "start": 263.08,
            "duration": 3.399
        },
        {
            "text": "because other methods like map and",
            "start": 264.919,
            "duration": 3.441
        },
        {
            "text": "filter don't do that instead they copy",
            "start": 266.479,
            "duration": 3.521
        },
        {
            "text": "the array and return a new one with",
            "start": 268.36,
            "duration": 3.36
        },
        {
            "text": "these methods you can now sort reverse",
            "start": 270.0,
            "duration": 4.919
        },
        {
            "text": "and SP did we not get like a oh my",
            "start": 271.72,
            "duration": 5.24
        },
        {
            "text": "goodness they should do two map that",
            "start": 274.919,
            "duration": 3.961
        },
        {
            "text": "does mutating like I feel like that",
            "start": 276.96,
            "duration": 5.36
        },
        {
            "text": "would be the only way that JavaScript",
            "start": 278.88,
            "duration": 6.159
        },
        {
            "text": "could remain so consistently",
            "start": 282.32,
            "duration": 4.92
        },
        {
            "text": "inconsistent that the only way to do",
            "start": 285.039,
            "duration": 5.16
        },
        {
            "text": "this is to make mutating ones called two",
            "start": 287.24,
            "duration": 5.799
        },
        {
            "text": "map and two filter like to me that",
            "start": 290.199,
            "duration": 5.121
        },
        {
            "text": "that's the way that's the way if they're",
            "start": 293.039,
            "duration": 4.361
        },
        {
            "text": "going to commit to this consistently",
            "start": 295.32,
            "duration": 4.48
        },
        {
            "text": "inconsistent Behavior that's the way",
            "start": 297.4,
            "duration": 5.519
        },
        {
            "text": "that is the way treating the original as",
            "start": 299.8,
            "duration": 5.04
        },
        {
            "text": "an immutable value which tends to be the",
            "start": 302.919,
            "duration": 3.601
        },
        {
            "text": "more sane way to write your code web",
            "start": 304.84,
            "duration": 3.96
        },
        {
            "text": "developers also got some cool updates I",
            "start": 306.52,
            "duration": 4.8
        },
        {
            "text": "don't know if it's more sayane I love I",
            "start": 308.8,
            "duration": 4.64
        },
        {
            "text": "you know I immutability is definitely a",
            "start": 311.32,
            "duration": 4.96
        },
        {
            "text": "Hot Topic among you young you young JS",
            "start": 313.44,
            "duration": 4.68
        },
        {
            "text": "devs it's just that maybe a better",
            "start": 316.28,
            "duration": 3.8
        },
        {
            "text": "language for it would be would be nicer",
            "start": 318.12,
            "duration": 3.079
        },
        {
            "text": "you guys just want to be a bunch of",
            "start": 320.08,
            "duration": 3.88
        },
        {
            "text": "hascal nerds without being virgins and",
            "start": 321.199,
            "duration": 4.921
        },
        {
            "text": "so I think there's like a problem here",
            "start": 323.96,
            "duration": 4.519
        },
        {
            "text": "it's like you want all the",
            "start": 326.12,
            "duration": 4.16
        },
        {
            "text": "benefits",
            "start": 328.479,
            "duration": 6.16
        },
        {
            "text": "of hll without the best benefit The",
            "start": 330.28,
            "duration": 7.24
        },
        {
            "text": "Virginity part in the form of brand new",
            "start": 334.639,
            "duration": 4.84
        },
        {
            "text": "HTML Elements by the way that is going",
            "start": 337.52,
            "duration": 4.16
        },
        {
            "text": "to make the entire hasal Community all",
            "start": 339.479,
            "duration": 5.601
        },
        {
            "text": "21 of them super upset I'm I'm pretty",
            "start": 341.68,
            "duration": 5.2
        },
        {
            "text": "sure I'm going to appear in a white",
            "start": 345.08,
            "duration": 5.44
        },
        {
            "text": "paper the proximity of virginity and hll",
            "start": 346.88,
            "duration": 6.319
        },
        {
            "text": "where they disprove my theory there's",
            "start": 350.52,
            "duration": 4.16
        },
        {
            "text": "going to be graphs there's going to be",
            "start": 353.199,
            "duration": 4.601
        },
        {
            "text": "an abstract it's going to be so",
            "start": 354.68,
            "duration": 5.56
        },
        {
            "text": "amazing dude",
            "start": 357.8,
            "duration": 4.119
        },
        {
            "text": "if you if you actually look at it it's",
            "start": 360.24,
            "duration": 3.56
        },
        {
            "text": "actually two standard",
            "start": 361.919,
            "duration": 4.601
        },
        {
            "text": "deviations more likely for virginity but",
            "start": 363.8,
            "duration": 5.64
        },
        {
            "text": "if you think about it the this isn't a",
            "start": 366.52,
            "duration": 4.76
        },
        {
            "text": "normal distribution It's actually an AB",
            "start": 369.44,
            "duration": 3.8
        },
        {
            "text": "distribution of virginity okay it's",
            "start": 371.28,
            "duration": 3.8
        },
        {
            "text": "different they actually go into two",
            "start": 373.24,
            "duration": 3.959
        },
        {
            "text": "different categories it's post virgin",
            "start": 375.08,
            "duration": 5.16
        },
        {
            "text": "Hess or prever virgin Hess okay you",
            "start": 377.199,
            "duration": 5.56
        },
        {
            "text": "really need to understand the difference",
            "start": 380.24,
            "duration": 4.16
        },
        {
            "text": "dude it's going to be so good it's going",
            "start": 382.759,
            "duration": 4.0
        },
        {
            "text": "to be so good the search tag is a more",
            "start": 384.4,
            "duration": 4.519
        },
        {
            "text": "semantic way to define a search box on a",
            "start": 386.759,
            "duration": 3.72
        },
        {
            "text": "website which can replace the more",
            "start": 388.919,
            "duration": 3.441
        },
        {
            "text": "generic form tag that's nice but the",
            "start": 390.479,
            "duration": 3.84
        },
        {
            "text": "dialogue element is way more powerful",
            "start": 392.36,
            "duration": 3.88
        },
        {
            "text": "which allows you to create actual modal",
            "start": 394.319,
            "duration": 3.72
        },
        {
            "text": "dialogues and then control them with",
            "start": 396.24,
            "duration": 3.72
        },
        {
            "text": "JavaScript using built-in methods like",
            "start": 398.039,
            "duration": 4.28
        },
        {
            "text": "show modal and close another",
            "start": 399.96,
            "duration": 5.519
        },
        {
            "text": "nice that okay finally thank you for",
            "start": 402.319,
            "duration": 7.401
        },
        {
            "text": "just I really would like more leaning",
            "start": 405.479,
            "duration": 7.961
        },
        {
            "text": "into like the first off Modells are a",
            "start": 409.72,
            "duration": 6.599
        },
        {
            "text": "modals models uh however you say it uh I",
            "start": 413.44,
            "duration": 4.28
        },
        {
            "text": "feel like they're a mistake to begin",
            "start": 416.319,
            "duration": 4.041
        },
        {
            "text": "with almost exclusively you create a",
            "start": 417.72,
            "duration": 4.68
        },
        {
            "text": "website in which you cannot replicate",
            "start": 420.36,
            "duration": 4.399
        },
        {
            "text": "that state I've largely thought them to",
            "start": 422.4,
            "duration": 6.359
        },
        {
            "text": "be bad uh I'm happy that you now have",
            "start": 424.759,
            "duration": 6.201
        },
        {
            "text": "like specific HTML around it at least",
            "start": 428.759,
            "duration": 4.361
        },
        {
            "text": "that does put some sanity back into",
            "start": 430.96,
            "duration": 5.28
        },
        {
            "text": "things that this this really crazy odd",
            "start": 433.12,
            "duration": 5.88
        },
        {
            "text": "behavior can be specified in a more nice",
            "start": 436.24,
            "duration": 5.519
        },
        {
            "text": "way I'm happy about that I'm curious",
            "start": 439.0,
            "duration": 5.36
        },
        {
            "text": "about how this",
            "start": 441.759,
            "duration": 2.601
        },
        {
            "text": "works it's quite old I don't know about",
            "start": 445.919,
            "duration": 4.68
        },
        {
            "text": "it sorry I don't keep up with the HTML",
            "start": 448.08,
            "duration": 4.32
        },
        {
            "text": "you know like obviously we read that one",
            "start": 450.599,
            "duration": 3.44
        },
        {
            "text": "where it showed how stupid we all were",
            "start": 452.4,
            "duration": 4.16
        },
        {
            "text": "with HTML like I just don't keep track",
            "start": 454.039,
            "duration": 6.241
        },
        {
            "text": "of HTML stuff a mistake uh we have",
            "start": 456.56,
            "duration": 5.479
        },
        {
            "text": "Marquee but not dialogue I just just",
            "start": 460.28,
            "duration": 4.08
        },
        {
            "text": "saying utility but that brings us to",
            "start": 462.039,
            "duration": 4.241
        },
        {
            "text": "index 3 after years of begging and",
            "start": 464.36,
            "duration": 4.08
        },
        {
            "text": "pleading with Apple iOS finally allows",
            "start": 466.28,
            "duration": 4.199
        },
        {
            "text": "push notifications to come from web apps",
            "start": 468.44,
            "duration": 3.92
        },
        {
            "text": "and that's a huge win for the",
            "start": 470.479,
            "duration": 4.44
        },
        {
            "text": "0.00001% of website users who actually",
            "start": 472.36,
            "duration": 4.04
        },
        {
            "text": "allow websites to send them push",
            "start": 474.919,
            "duration": 3.84
        },
        {
            "text": "notifications which yep that's me I do",
            "start": 476.4,
            "duration": 5.96
        },
        {
            "text": "it every time this thing shows up I'm",
            "start": 478.759,
            "duration": 3.601
        },
        {
            "text": "like",
            "start": 483.319,
            "duration": 3.761
        },
        {
            "text": "no thank",
            "start": 485.08,
            "duration": 4.519
        },
        {
            "text": "you is most likely your grandpa who",
            "start": 487.08,
            "duration": 4.0
        },
        {
            "text": "accidentally clicked the allow button",
            "start": 489.599,
            "duration": 3.401
        },
        {
            "text": "and now has no idea how to turn it off",
            "start": 491.08,
            "duration": 3.36
        },
        {
            "text": "but now it's time to talk about the fun",
            "start": 493.0,
            "duration": 3.199
        },
        {
            "text": "stuff Frameworks the world's most",
            "start": 494.44,
            "duration": 3.96
        },
        {
            "text": "popular JavaScript framework nextjs is",
            "start": 496.199,
            "duration": 3.72
        },
        {
            "text": "an entirely different framework than it",
            "start": 498.4,
            "duration": 3.04
        },
        {
            "text": "was last year thanks to the app",
            "start": 499.919,
            "duration": 3.441
        },
        {
            "text": "directory which became stable in May",
            "start": 501.44,
            "duration": 4.319
        },
        {
            "text": "with version 13.4 the most notable",
            "start": 503.36,
            "duration": 3.88
        },
        {
            "text": "difference is that you can now fetch",
            "start": 505.759,
            "duration": 3.681
        },
        {
            "text": "data directly inside react components",
            "start": 507.24,
            "duration": 4.44
        },
        {
            "text": "thanks to Ser I'm very happy that at",
            "start": 509.44,
            "duration": 4.719
        },
        {
            "text": "least it's trying to encourage you to",
            "start": 511.68,
            "duration": 6.039
        },
        {
            "text": "write squeal this is good I do love that",
            "start": 514.159,
            "duration": 5.88
        },
        {
            "text": "people like I think template strings are",
            "start": 517.719,
            "duration": 5.24
        },
        {
            "text": "interesting it's kind of a cool way to",
            "start": 520.039,
            "duration": 5.841
        },
        {
            "text": "allow Behavior inside of a template uh",
            "start": 522.959,
            "duration": 4.56
        },
        {
            "text": "data I like that I think we can all",
            "start": 525.88,
            "duration": 4.2
        },
        {
            "text": "agree that that's pretty nice um I'm",
            "start": 527.519,
            "duration": 4.0
        },
        {
            "text": "curious what this actually looks like",
            "start": 530.08,
            "duration": 2.879
        },
        {
            "text": "how does a I've never implemented a",
            "start": 531.519,
            "duration": 2.76
        },
        {
            "text": "template string so you must get the",
            "start": 532.959,
            "duration": 3.88
        },
        {
            "text": "chance to to like do a mutation on this",
            "start": 534.279,
            "duration": 4.601
        },
        {
            "text": "data before it gets put into the actual",
            "start": 536.839,
            "duration": 6.041
        },
        {
            "text": "template litting so neat",
            "start": 538.88,
            "duration": 7.0
        },
        {
            "text": "neat but about that squeal injection no",
            "start": 542.88,
            "duration": 4.84
        },
        {
            "text": "see no no no no no stop saying that if",
            "start": 545.88,
            "duration": 3.399
        },
        {
            "text": "you if you say the word squeal injection",
            "start": 547.72,
            "duration": 4.119
        },
        {
            "text": "you're just being a dumb dumb okay",
            "start": 549.279,
            "duration": 5.881
        },
        {
            "text": "always ask a question before you just",
            "start": 551.839,
            "duration": 4.761
        },
        {
            "text": "claim an",
            "start": 555.16,
            "duration": 3.359
        },
        {
            "text": "outcome right that's that's what you",
            "start": 556.6,
            "duration": 4.72
        },
        {
            "text": "need to do always ask a question before",
            "start": 558.519,
            "duration": 4.88
        },
        {
            "text": "you claim an outcome just once maybe",
            "start": 561.32,
            "duration": 4.88
        },
        {
            "text": "twice maybe three",
            "start": 563.399,
            "duration": 2.801
        },
        {
            "text": "times components which react components",
            "start": 567.32,
            "duration": 4.24
        },
        {
            "text": "that can run on the server the reception",
            "start": 570.04,
            "duration": 2.96
        },
        {
            "text": "to the app directory has been somewhat",
            "start": 571.56,
            "duration": 2.959
        },
        {
            "text": "mixed on one hand it has a lot of",
            "start": 573.0,
            "duration": 3.279
        },
        {
            "text": "awesome new features and can simplify",
            "start": 574.519,
            "duration": 3.44
        },
        {
            "text": "your code but many have complained about",
            "start": 576.279,
            "duration": 3.521
        },
        {
            "text": "it feeling rushed and Half Baked kind of",
            "start": 577.959,
            "duration": 3.12
        },
        {
            "text": "like the way they launch video games",
            "start": 579.8,
            "duration": 2.479
        },
        {
            "text": "nowadays where they just get something",
            "start": 581.079,
            "duration": 2.88
        },
        {
            "text": "out the door then patch it up over the",
            "start": 582.279,
            "duration": 4.601
        },
        {
            "text": "next few years wh why is this Western",
            "start": 583.959,
            "duration": 5.841
        },
        {
            "text": "man twerking on this guy's",
            "start": 586.88,
            "duration": 5.199
        },
        {
            "text": "boot what is",
            "start": 589.8,
            "duration": 5.599
        },
        {
            "text": "this I don't want boot twerk video game",
            "start": 592.079,
            "duration": 5.241
        },
        {
            "text": "okay that's not what I want I don't want",
            "start": 595.399,
            "duration": 3.44
        },
        {
            "text": "this it's not even twerking I don't even",
            "start": 597.32,
            "duration": 2.84
        },
        {
            "text": "know what this is grinding we're",
            "start": 598.839,
            "duration": 4.801
        },
        {
            "text": "grinding we're we're shoe grinding we're",
            "start": 600.16,
            "duration": 5.84
        },
        {
            "text": "shoe",
            "start": 603.64,
            "duration": 2.36
        },
        {
            "text": "shining did I just did I just make up a",
            "start": 606.8,
            "duration": 5.039
        },
        {
            "text": "new dance move the shoe shine I think I",
            "start": 609.519,
            "duration": 3.721
        },
        {
            "text": "might have we're going to call that the",
            "start": 611.839,
            "duration": 4.0
        },
        {
            "text": "shoe shine babies uh let's go on people",
            "start": 613.24,
            "duration": 3.96
        },
        {
            "text": "have complained about having to use the",
            "start": 615.839,
            "duration": 3.281
        },
        {
            "text": "used client directive everywhere due to",
            "start": 617.2,
            "duration": 4.0
        },
        {
            "text": "Breaking existing react libraries people",
            "start": 619.12,
            "duration": 3.36
        },
        {
            "text": "have complained about the slow Dev",
            "start": 621.2,
            "duration": 3.04
        },
        {
            "text": "server which is powered by rust which is",
            "start": 622.48,
            "duration": 3.359
        },
        {
            "text": "weird because anything powered by rust",
            "start": 624.24,
            "duration": 3.08
        },
        {
            "text": "is supposed to be fast and people have",
            "start": 625.839,
            "duration": 3.041
        },
        {
            "text": "compared its new server actions feature",
            "start": 627.32,
            "duration": 3.44
        },
        {
            "text": "to to PHP one of the most offensive",
            "start": 628.88,
            "duration": 3.56
        },
        {
            "text": "slurs you can make against a JavaScript",
            "start": 630.76,
            "duration": 3.48
        },
        {
            "text": "framework but the biggest issue is that",
            "start": 632.44,
            "duration": 3.8
        },
        {
            "text": "running nextjs is fairly hard to do",
            "start": 634.24,
            "duration": 4.039
        },
        {
            "text": "correctly outside of versel and I I've",
            "start": 636.24,
            "duration": 3.92
        },
        {
            "text": "heard this is this has been a bit",
            "start": 638.279,
            "duration": 4.0
        },
        {
            "text": "exaggerated uh like the thing that makes",
            "start": 640.16,
            "duration": 4.479
        },
        {
            "text": "versel really useful is that they they",
            "start": 642.279,
            "duration": 4.24
        },
        {
            "text": "they spawn up all the edging you get to",
            "start": 644.639,
            "duration": 3.961
        },
        {
            "text": "be a public Edge Lord like you get to do",
            "start": 646.519,
            "duration": 4.32
        },
        {
            "text": "all the stuff that you need and they",
            "start": 648.6,
            "duration": 4.08
        },
        {
            "text": "they handle all the infrastructure",
            "start": 650.839,
            "duration": 2.921
        },
        {
            "text": "whereas",
            "start": 652.68,
            "duration": 3.8
        },
        {
            "text": "running nextjs I heard it's pretty easy",
            "start": 653.76,
            "duration": 5.04
        },
        {
            "text": "a throat in a Docker image and blah blah",
            "start": 656.48,
            "duration": 5.0
        },
        {
            "text": "blah blah like I hear it's it's been",
            "start": 658.8,
            "duration": 4.4
        },
        {
            "text": "pretty",
            "start": 661.48,
            "duration": 5.359
        },
        {
            "text": "exaggerated uh the thing is is that",
            "start": 663.2,
            "duration": 7.6
        },
        {
            "text": "running nextjs and having versel are",
            "start": 666.839,
            "duration": 5.521
        },
        {
            "text": "very different things and so I think the",
            "start": 670.8,
            "duration": 3.08
        },
        {
            "text": "pro it's it's Express right yeah it's",
            "start": 672.36,
            "duration": 4.96
        },
        {
            "text": "like it's not like something wildly out",
            "start": 673.88,
            "duration": 5.759
        },
        {
            "text": "of control it they just read your",
            "start": 677.32,
            "duration": 4.92
        },
        {
            "text": "directory and write an Express server",
            "start": 679.639,
            "duration": 4.841
        },
        {
            "text": "that maps to your directory like is it",
            "start": 682.24,
            "duration": 4.719
        },
        {
            "text": "really that wild there's some other",
            "start": 684.48,
            "duration": 4.24
        },
        {
            "text": "things obviously uh but I'm just saying",
            "start": 686.959,
            "duration": 4.56
        },
        {
            "text": "like is it really that",
            "start": 688.72,
            "duration": 5.359
        },
        {
            "text": "crazy that's led to projects like open",
            "start": 691.519,
            "duration": 4.241
        },
        {
            "text": "next that take on the tedious job of",
            "start": 694.079,
            "duration": 3.841
        },
        {
            "text": "getting it to run anywhere next is no no",
            "start": 695.76,
            "duration": 4.199
        },
        {
            "text": "that's that yeah it's it's more that",
            "start": 697.92,
            "duration": 3.0
        },
        {
            "text": "it's it's doing the whole like",
            "start": 699.959,
            "duration": 3.961
        },
        {
            "text": "serverless part I could I bet you in an",
            "start": 700.92,
            "duration": 5.039
        },
        {
            "text": "afternoon I could make an nextjs Docker",
            "start": 703.92,
            "duration": 5.68
        },
        {
            "text": "niess or in five minutes",
            "start": 705.959,
            "duration": 6.241
        },
        {
            "text": "finding the docker image that exists",
            "start": 709.6,
            "duration": 4.64
        },
        {
            "text": "that you just run right but that's then",
            "start": 712.2,
            "duration": 3.68
        },
        {
            "text": "you then you're you're manually running",
            "start": 714.24,
            "duration": 3.32
        },
        {
            "text": "the server and people don't want to do",
            "start": 715.88,
            "duration": 3.44
        },
        {
            "text": "that in this day and age they want",
            "start": 717.56,
            "duration": 3.839
        },
        {
            "text": "someone else to they want to pay more",
            "start": 719.32,
            "duration": 4.24
        },
        {
            "text": "money for somebody else to do it the",
            "start": 721.399,
            "duration": 4.281
        },
        {
            "text": "dominant meta framework but nujs and the",
            "start": 723.56,
            "duration": 4.079
        },
        {
            "text": "view ecosystem also had a lot of cool",
            "start": 725.68,
            "duration": 4.959
        },
        {
            "text": "updates in like it's Dev tools these",
            "start": 727.639,
            "duration": 4.32
        },
        {
            "text": "press one in the chat if you think view",
            "start": 730.639,
            "duration": 3.721
        },
        {
            "text": "is amazing people seem to love view",
            "start": 731.959,
            "duration": 4.88
        },
        {
            "text": "every time I hear anyone talk about view",
            "start": 734.36,
            "duration": 5.039
        },
        {
            "text": "they seem to just love",
            "start": 736.839,
            "duration": 5.161
        },
        {
            "text": "it lot of ones okay yeah yeah yeah yeah",
            "start": 739.399,
            "duration": 3.68
        },
        {
            "text": "yeah yeah yeah it just seems so",
            "start": 742.0,
            "duration": 4.839
        },
        {
            "text": "surprising people seem to love view",
            "start": 743.079,
            "duration": 5.521
        },
        {
            "text": "tools run directly in the browser and",
            "start": 746.839,
            "duration": 3.36
        },
        {
            "text": "make it much easier to understand the",
            "start": 748.6,
            "duration": 4.799
        },
        {
            "text": "structure of a complex",
            "start": 750.199,
            "duration": 3.2
        },
        {
            "text": "application if this is your application",
            "start": 753.92,
            "duration": 5.88
        },
        {
            "text": "and you don't immediately think I done",
            "start": 757.16,
            "duration": 6.64
        },
        {
            "text": "[\u00a0__\u00a0] up I don't know what you I I like",
            "start": 759.8,
            "duration": 6.32
        },
        {
            "text": "I don't know what's going through your",
            "start": 763.8,
            "duration": 4.399
        },
        {
            "text": "head",
            "start": 766.12,
            "duration": 4.64
        },
        {
            "text": "right yeah this is this is just how you",
            "start": 768.199,
            "duration": 5.361
        },
        {
            "text": "write client side applications this is",
            "start": 770.76,
            "duration": 5.72
        },
        {
            "text": "there's no other possible way there's no",
            "start": 773.56,
            "duration": 5.12
        },
        {
            "text": "other possible way to write them it does",
            "start": 776.48,
            "duration": 4.039
        },
        {
            "text": "this this looks like obsidian but it's",
            "start": 778.68,
            "duration": 4.36
        },
        {
            "text": "not it does actually look like it's not",
            "start": 780.519,
            "duration": 4.361
        },
        {
            "text": "obsidian but one thing you may not know",
            "start": 783.04,
            "duration": 3.64
        },
        {
            "text": "about n is that many of its components",
            "start": 784.88,
            "duration": 3.56
        },
        {
            "text": "are available through the unified",
            "start": 786.68,
            "duration": 3.76
        },
        {
            "text": "JavaScript tools ecosystem like if you",
            "start": 788.44,
            "duration": 3.92
        },
        {
            "text": "don't care about VJs and just want a web",
            "start": 790.44,
            "duration": 3.8
        },
        {
            "text": "server you can use Nitro to build a fast",
            "start": 792.36,
            "duration": 3.52
        },
        {
            "text": "server with plain JavaScript what's",
            "start": 794.24,
            "duration": 3.56
        },
        {
            "text": "funny is I think the VJs ecosystem has",
            "start": 795.88,
            "duration": 4.24
        },
        {
            "text": "changed the least in 2023 and as a",
            "start": 797.8,
            "duration": 3.719
        },
        {
            "text": "consequence it feels like the most",
            "start": 800.12,
            "duration": 3.56
        },
        {
            "text": "stable and predictable ecosystem spelt",
            "start": 801.519,
            "duration": 4.68
        },
        {
            "text": "on the other hand got rued in 2023 in a",
            "start": 803.68,
            "duration": 3.839
        },
        {
            "text": "shocking announcement a couple months",
            "start": 806.199,
            "duration": 3.2
        },
        {
            "text": "ago spelt announced a new feature called",
            "start": 807.519,
            "duration": 3.521
        },
        {
            "text": "runes that will dramatically change the",
            "start": 809.399,
            "duration": 3.56
        },
        {
            "text": "developer experience in version 5",
            "start": 811.04,
            "duration": 3.599
        },
        {
            "text": "instead of defining reactive variables",
            "start": 812.959,
            "duration": 3.281
        },
        {
            "text": "with let there's now this thing called a",
            "start": 814.639,
            "duration": 3.521
        },
        {
            "text": "rune which is essentially a compiler",
            "start": 816.24,
            "duration": 4.08
        },
        {
            "text": "macro that tells the spelt compiler this",
            "start": 818.16,
            "duration": 4.28
        },
        {
            "text": "value is reactive spelt is also getting",
            "start": 820.32,
            "duration": 4.199
        },
        {
            "text": "rid of the dollar sign [\u00a0__\u00a0] syntax and",
            "start": 822.44,
            "duration": 4.16
        },
        {
            "text": "stores with runes like derived and",
            "start": 824.519,
            "duration": 3.68
        },
        {
            "text": "effect the initial probably just makes",
            "start": 826.6,
            "duration": 4.159
        },
        {
            "text": "it a lot easier to honestly the compiler",
            "start": 828.199,
            "duration": 3.961
        },
        {
            "text": "and what you can do is probably just a",
            "start": 830.759,
            "duration": 3.88
        },
        {
            "text": "lot easier than having this whole like",
            "start": 832.16,
            "duration": 4.599
        },
        {
            "text": "using labels and running blocks and",
            "start": 834.639,
            "duration": 4.721
        },
        {
            "text": "stuff like that like I I think that it",
            "start": 836.759,
            "duration": 3.961
        },
        {
            "text": "it does make things easier because you",
            "start": 839.36,
            "duration": 4.32
        },
        {
            "text": "need less of a compiler now like this",
            "start": 840.72,
            "duration": 4.96
        },
        {
            "text": "this exists now this is just JavaScript",
            "start": 843.68,
            "duration": 5.519
        },
        {
            "text": "as opposed to conf like translating a",
            "start": 845.68,
            "duration": 8.599
        },
        {
            "text": "scope block plus a label into well an",
            "start": 849.199,
            "duration": 9.041
        },
        {
            "text": "effect right I I like Chang were some",
            "start": 854.279,
            "duration": 5.201
        },
        {
            "text": "with some users feeling like these",
            "start": 858.24,
            "duration": 2.92
        },
        {
            "text": "changes Mak spel look a lot more like",
            "start": 859.48,
            "duration": 3.479
        },
        {
            "text": "react which is the type of developer",
            "start": 861.16,
            "duration": 3.0
        },
        {
            "text": "experience they're trying to get away",
            "start": 862.959,
            "duration": 2.56
        },
        {
            "text": "from but on the other hand a lot of",
            "start": 864.16,
            "duration": 3.119
        },
        {
            "text": "people love these changes and see them",
            "start": 865.519,
            "duration": 3.44
        },
        {
            "text": "as necessary to evolve the framewor in",
            "start": 867.279,
            "duration": 3.401
        },
        {
            "text": "the right direction as a hardcore user",
            "start": 868.959,
            "duration": 3.281
        },
        {
            "text": "of spell myself I'm waiting for the",
            "start": 870.68,
            "duration": 3.399
        },
        {
            "text": "final release of version 5 before I form",
            "start": 872.24,
            "duration": 3.599
        },
        {
            "text": "an opinion the award for the most Chang",
            "start": 874.079,
            "duration": 4.401
        },
        {
            "text": "framework in 2023 though goes to angular",
            "start": 875.839,
            "duration": 5.201
        },
        {
            "text": "signals baby let's go it has a long list",
            "start": 878.48,
            "duration": 4.56
        },
        {
            "text": "of new features but the most notable by",
            "start": 881.04,
            "duration": 4.239
        },
        {
            "text": "the way uh up to 90% faster runtime",
            "start": 883.04,
            "duration": 4.2
        },
        {
            "text": "built with in control flops I don't",
            "start": 885.279,
            "duration": 4.48
        },
        {
            "text": "whenever someone says something's faster",
            "start": 887.24,
            "duration": 4.32
        },
        {
            "text": "I just don't believe it until you till",
            "start": 889.759,
            "duration": 4.44
        },
        {
            "text": "you measure it changes for angular",
            "start": 891.56,
            "duration": 4.04
        },
        {
            "text": "haters out there would be the new",
            "start": 894.199,
            "duration": 3.681
        },
        {
            "text": "template syntax which provides a cleaner",
            "start": 895.6,
            "duration": 4.2
        },
        {
            "text": "way to handle conditionals and Loops",
            "start": 897.88,
            "duration": 4.519
        },
        {
            "text": "replacing things like ngf and ng4 in",
            "start": 899.8,
            "duration": 4.279
        },
        {
            "text": "addition angular has also adopted",
            "start": 902.399,
            "duration": 3.081
        },
        {
            "text": "signals much like all the other",
            "start": 904.079,
            "duration": 3.2
        },
        {
            "text": "Frameworks out there and brings a new",
            "start": 905.48,
            "duration": 3.84
        },
        {
            "text": "feature called defer views which enables",
            "start": 907.279,
            "duration": 3.92
        },
        {
            "text": "decare lazy loading directly in a",
            "start": 909.32,
            "duration": 3.759
        },
        {
            "text": "template but most importantly angular",
            "start": 911.199,
            "duration": 3.44
        },
        {
            "text": "has a brand new logo which was really",
            "start": 913.079,
            "duration": 2.721
        },
        {
            "text": "the only thing holding it back from",
            "start": 914.639,
            "duration": 2.721
        },
        {
            "text": "being the world's most popular framework",
            "start": 915.8,
            "duration": 3.08
        },
        {
            "text": "in the past a lot of crazy changes on",
            "start": 917.36,
            "duration": 3.36
        },
        {
            "text": "the front end but on the back end no. JS",
            "start": 918.88,
            "duration": 3.399
        },
        {
            "text": "has been quietly getting better with no.",
            "start": 920.72,
            "duration": 3.2
        },
        {
            "text": "JS version 20 it released a new",
            "start": 922.279,
            "duration": 3.161
        },
        {
            "text": "permissions model which improves",
            "start": 923.92,
            "duration": 3.4
        },
        {
            "text": "security by controlling which features a",
            "start": 925.44,
            "duration": 4.28
        },
        {
            "text": "script has access to much similar to",
            "start": 927.32,
            "duration": 3.48
        },
        {
            "text": "yeah I was about to say that sounds like",
            "start": 929.72,
            "duration": 3.799
        },
        {
            "text": "Dino Dino has like kind of built-in",
            "start": 930.8,
            "duration": 5.159
        },
        {
            "text": "permissions and all that so okay cool",
            "start": 933.519,
            "duration": 6.201
        },
        {
            "text": "cool dino changing the uh ecosystem good",
            "start": 935.959,
            "duration": 5.88
        },
        {
            "text": "job Dino released a few years ago and",
            "start": 939.72,
            "duration": 3.72
        },
        {
            "text": "then with the release of note 21 it",
            "start": 941.839,
            "duration": 3.521
        },
        {
            "text": "introduced its own websocket client",
            "start": 943.44,
            "duration": 3.759
        },
        {
            "text": "which is based on the websocket API in",
            "start": 945.36,
            "duration": 3.56
        },
        {
            "text": "the browser the biggest disruptor with",
            "start": 947.199,
            "duration": 4.601
        },
        {
            "text": "backend JavaScript in 2023 though is BU",
            "start": 948.92,
            "duration": 4.2
        },
        {
            "text": "it's a new javascri interesting that",
            "start": 951.8,
            "duration": 3.519
        },
        {
            "text": "they did that because uh",
            "start": 953.12,
            "duration": 5.719
        },
        {
            "text": "micro cuz microweb sockets are already",
            "start": 955.319,
            "duration": 6.601
        },
        {
            "text": "exists U web sockets and they're that's",
            "start": 958.839,
            "duration": 4.841
        },
        {
            "text": "what bun uses and they're really well",
            "start": 961.92,
            "duration": 5.0
        },
        {
            "text": "written and they're fast right I like",
            "start": 963.68,
            "duration": 5.599
        },
        {
            "text": "that like I I I think we should try to",
            "start": 966.92,
            "duration": 3.88
        },
        {
            "text": "go towards something that's that's good",
            "start": 969.279,
            "duration": 3.24
        },
        {
            "text": "you know one time written in Zig that",
            "start": 970.8,
            "duration": 3.12
        },
        {
            "text": "came out with an awesome developer",
            "start": 972.519,
            "duration": 3.24
        },
        {
            "text": "experience and some wild claims about",
            "start": 973.92,
            "duration": 3.479
        },
        {
            "text": "performance and quite a few bugs were",
            "start": 975.759,
            "duration": 3.241
        },
        {
            "text": "discovered after the initial release but",
            "start": 977.399,
            "duration": 3.321
        },
        {
            "text": "it still remains a promising new way to",
            "start": 979.0,
            "duration": 3.8
        },
        {
            "text": "do backend JavaScript in the future and",
            "start": 980.72,
            "duration": 3.28
        },
        {
            "text": "with that we've looked at 10 different",
            "start": 982.8,
            "duration": 3.519
        },
        {
            "text": "ways JavaScript changed in 2023 but I",
            "start": 984.0,
            "duration": 3.88
        },
        {
            "text": "almost forgot the biggest one of all",
            "start": 986.319,
            "duration": 3.721
        },
        {
            "text": "htms the framework that showed us that",
            "start": 987.88,
            "duration": 3.759
        },
        {
            "text": "anyone can capture the imagination of",
            "start": 990.04,
            "duration": 3.56
        },
        {
            "text": "the JavaScript ecosystem if you [\u00a0__\u00a0]",
            "start": 991.639,
            "duration": 3.841
        },
        {
            "text": "post and meme hard enough on Twitter but",
            "start": 993.6,
            "duration": 3.44
        },
        {
            "text": "most importantly as I've shown here with",
            "start": 995.48,
            "duration": 3.76
        },
        {
            "text": "science HTM X can actually eliminate a",
            "start": 997.04,
            "duration": 3.919
        },
        {
            "text": "ton of JavaScript compared to the status",
            "start": 999.24,
            "duration": 3.24
        },
        {
            "text": "quo approach taken by all the major",
            "start": 1000.959,
            "duration": 3.281
        },
        {
            "text": "Frameworks it's the ideal JavaScript",
            "start": 1002.48,
            "duration": 3.56
        },
        {
            "text": "framework for the JavaScript haters and",
            "start": 1004.24,
            "duration": 3.2
        },
        {
            "text": "that's why today I'm thrilled and",
            "start": 1006.04,
            "duration": 3.64
        },
        {
            "text": "honored to present the HTM X team with",
            "start": 1007.44,
            "duration": 3.68
        },
        {
            "text": "the JavaScript framework of the Year",
            "start": 1009.68,
            "duration": 3.12
        },
        {
            "text": "award which is basically the Nobel Prize",
            "start": 1011.12,
            "duration": 3.519
        },
        {
            "text": "of JavaScript thanks for watching and I",
            "start": 1012.8,
            "duration": 4.68
        },
        {
            "text": "will see you in the next one that is so",
            "start": 1014.639,
            "duration": 5.961
        },
        {
            "text": "good I think h MX deserves it HTM X",
            "start": 1017.48,
            "duration": 7.719
        },
        {
            "text": "deserves it absolutely loved it the name",
            "start": 1020.6,
            "duration": 8.16
        },
        {
            "text": "is the HTM X agent",
            "start": 1025.199,
            "duration": 3.561
        }
    ],
    "stats": {
        "viewCount": "62773",
        "likeCount": "2274",
        "favoriteCount": "0",
        "commentCount": "190"
    }
}