{
    "id": "-jlYeQ3hOhY",
    "title": "HTTP3 Is Eating The World | Prime Reacts",
    "publishedAt": "2023-10-08T16:00:00Z",
    "captions": [
        {
            "text": "why is HTTP 3 eating the world let's",
            "start": 0.52,
            "duration": 4.48
        },
        {
            "text": "find out uh the hypertext transfer",
            "start": 3.24,
            "duration": 4.119
        },
        {
            "text": "protocol uh is a Cornerstone of the",
            "start": 5.0,
            "duration": 4.2
        },
        {
            "text": "Internet it's Cornerstone of HDMX too",
            "start": 7.359,
            "duration": 3.841
        },
        {
            "text": "HDMX mentioned it put a check mark in",
            "start": 9.2,
            "duration": 4.04
        },
        {
            "text": "the mention already helping to load web",
            "start": 11.2,
            "duration": 3.88
        },
        {
            "text": "pages stream videos and fetch data to",
            "start": 13.24,
            "duration": 4.16
        },
        {
            "text": "your favorite apps last year a new",
            "start": 15.08,
            "duration": 5.0
        },
        {
            "text": "version of the protocol H tip3 was",
            "start": 17.4,
            "duration": 5.52
        },
        {
            "text": "standardized by the internet engineering",
            "start": 20.08,
            "duration": 5.439
        },
        {
            "text": "task force imagine if you you were a",
            "start": 22.92,
            "duration": 4.199
        },
        {
            "text": "part of this task force I want to be a",
            "start": 25.519,
            "duration": 3.68
        },
        {
            "text": "part of that task force okay it sounds",
            "start": 27.119,
            "duration": 3.881
        },
        {
            "text": "exciting I want to be on any kind of",
            "start": 29.199,
            "duration": 3.801
        },
        {
            "text": "task force the organization in charge of",
            "start": 31.0,
            "duration": 3.76
        },
        {
            "text": "defining internet technology since then",
            "start": 33.0,
            "duration": 5.2
        },
        {
            "text": "HTTP 3 uh and the related quick protocol",
            "start": 34.76,
            "duration": 5.639
        },
        {
            "text": "have seen rapid uptake on the public web",
            "start": 38.2,
            "duration": 3.48
        },
        {
            "text": "the exact numbers depend on the source",
            "start": 40.399,
            "duration": 3.441
        },
        {
            "text": "and measurement methodology with HTTP 3",
            "start": 41.68,
            "duration": 4.719
        },
        {
            "text": "support ranging from 19 to 50 plus% of",
            "start": 43.84,
            "duration": 5.399
        },
        {
            "text": "web servers uh worldwide that's insane",
            "start": 46.399,
            "duration": 4.201
        },
        {
            "text": "so the big difference is for those that",
            "start": 49.239,
            "duration": 3.361
        },
        {
            "text": "don't know uh the big difference is",
            "start": 50.6,
            "duration": 7.639
        },
        {
            "text": "between HTTP 3 and http2 HTTP 3 exists",
            "start": 52.6,
            "duration": 8.0
        },
        {
            "text": "kind of in both in two different layers",
            "start": 58.239,
            "duration": 3.96
        },
        {
            "text": "right so it that's what makes it so",
            "start": 60.6,
            "duration": 3.519
        },
        {
            "text": "confusing and hard to implement is that",
            "start": 62.199,
            "duration": 4.801
        },
        {
            "text": "you you have uh the TLs side of things",
            "start": 64.119,
            "duration": 4.68
        },
        {
            "text": "like in the protocol itself which is",
            "start": 67.0,
            "duration": 3.4
        },
        {
            "text": "usually a little bit different so for",
            "start": 68.799,
            "duration": 4.161
        },
        {
            "text": "something like TCP it just transfers",
            "start": 70.4,
            "duration": 4.48
        },
        {
            "text": "structured data right so it transfers",
            "start": 72.96,
            "duration": 3.56
        },
        {
            "text": "structured data then you'd have some",
            "start": 74.88,
            "duration": 4.239
        },
        {
            "text": "sort of Tsing whatever layer and then",
            "start": 76.52,
            "duration": 5.32
        },
        {
            "text": "you have some sort of HTTP layer which",
            "start": 79.119,
            "duration": 4.36
        },
        {
            "text": "then chunks it into the appropriate",
            "start": 81.84,
            "duration": 3.52
        },
        {
            "text": "thing and goes here you go whereas with",
            "start": 83.479,
            "duration": 4.68
        },
        {
            "text": "quick it now runs over UDP which means",
            "start": 85.36,
            "duration": 4.04
        },
        {
            "text": "that you have to do like this kind of",
            "start": 88.159,
            "duration": 3.081
        },
        {
            "text": "weird around it's just a little",
            "start": 89.4,
            "duration": 3.16
        },
        {
            "text": "different it's kind of exciting because",
            "start": 91.24,
            "duration": 4.199
        },
        {
            "text": "you do a chunk on the outside then send",
            "start": 92.56,
            "duration": 4.919
        },
        {
            "text": "it to potentially the tlsc side and then",
            "start": 95.439,
            "duration": 4.281
        },
        {
            "text": "back up into the HTTP side just as a",
            "start": 97.479,
            "duration": 4.121
        },
        {
            "text": "little bit different it's UDP it's kind",
            "start": 99.72,
            "duration": 5.24
        },
        {
            "text": "of exciting UDP no UDP okay here he goes",
            "start": 101.6,
            "duration": 5.44
        },
        {
            "text": "H3 adoption grows rapidly all right look",
            "start": 104.96,
            "duration": 4.479
        },
        {
            "text": "at that thing just just just launch Holy",
            "start": 107.04,
            "duration": 5.039
        },
        {
            "text": "Cow it's only been a year or two years",
            "start": 109.439,
            "duration": 4.241
        },
        {
            "text": "and this thing is just flying up that's",
            "start": 112.079,
            "duration": 4.0
        },
        {
            "text": "pretty cool hb1 it's shocking how much",
            "start": 113.68,
            "duration": 5.799
        },
        {
            "text": "HTT uh http1 is still going on that is a",
            "start": 116.079,
            "duration": 6.04
        },
        {
            "text": "lot of H tit1 what is this one version",
            "start": 119.479,
            "duration": 5.041
        },
        {
            "text": "two version two is kind of annoying it's",
            "start": 122.119,
            "duration": 3.92
        },
        {
            "text": "really that server priority that really",
            "start": 124.52,
            "duration": 3.36
        },
        {
            "text": "just makes me upset H pack is the",
            "start": 126.039,
            "duration": 3.121
        },
        {
            "text": "greatest it's the killer feature it's",
            "start": 127.88,
            "duration": 4.16
        },
        {
            "text": "the best feature of http2 is hpack it",
            "start": 129.16,
            "duration": 5.12
        },
        {
            "text": "truly is uh because these new Pro",
            "start": 132.04,
            "duration": 3.8
        },
        {
            "text": "Protocols are heavily used by large",
            "start": 134.28,
            "duration": 3.0
        },
        {
            "text": "companies such as Google and meta we can",
            "start": 135.84,
            "duration": 2.8
        },
        {
            "text": "safely say that a large chunk of the",
            "start": 137.28,
            "duration": 3.16
        },
        {
            "text": "current internet traffic already being",
            "start": 138.64,
            "duration": 5.599
        },
        {
            "text": "used are uses hp3 today in fact the blog",
            "start": 140.44,
            "duration": 5.12
        },
        {
            "text": "post you are reading right now was",
            "start": 144.239,
            "duration": 4.401
        },
        {
            "text": "probably loaded over HTTP 3 okay nice in",
            "start": 145.56,
            "duration": 4.92
        },
        {
            "text": "this series we'll provide some context",
            "start": 148.64,
            "duration": 4.56
        },
        {
            "text": "on what problems HTTP 3 solves and how",
            "start": 150.48,
            "duration": 5.88
        },
        {
            "text": "it performs why it's seen such Swift",
            "start": 153.2,
            "duration": 5.8
        },
        {
            "text": "adoption and what limitations it is",
            "start": 156.36,
            "duration": 5.879
        },
        {
            "text": "still working to overcome HTTP 3 equals",
            "start": 159.0,
            "duration": 6.8
        },
        {
            "text": "the web 3 no no no no it's just",
            "start": 162.239,
            "duration": 5.121
        },
        {
            "text": "unfortunate that that they name they're",
            "start": 165.8,
            "duration": 5.32
        },
        {
            "text": "named very similar you know don't don't",
            "start": 167.36,
            "duration": 6.04
        },
        {
            "text": "put them don't put them together H titty",
            "start": 171.12,
            "duration": 4.039
        },
        {
            "text": "P yeah I don't know how saying the",
            "start": 173.4,
            "duration": 4.52
        },
        {
            "text": "phrase HTTP is so hard but HTTP just",
            "start": 175.159,
            "duration": 4.681
        },
        {
            "text": "sounds so much easier to say so why do",
            "start": 177.92,
            "duration": 4.56
        },
        {
            "text": "we need HTTP 3 well a network protocol",
            "start": 179.84,
            "duration": 3.959
        },
        {
            "text": "describes how data is communicated",
            "start": 182.48,
            "duration": 3.399
        },
        {
            "text": "between two entities on the network",
            "start": 183.799,
            "duration": 3.681
        },
        {
            "text": "typically the user's device and a web",
            "start": 185.879,
            "duration": 3.44
        },
        {
            "text": "server as there are many different",
            "start": 187.48,
            "duration": 3.92
        },
        {
            "text": "companies building software for the web",
            "start": 189.319,
            "duration": 3.601
        },
        {
            "text": "the protocol needs to be standardized so",
            "start": 191.4,
            "duration": 3.399
        },
        {
            "text": "that the software can be interoperable",
            "start": 192.92,
            "duration": 3.56
        },
        {
            "text": "that is they can all understand each",
            "start": 194.799,
            "duration": 3.601
        },
        {
            "text": "other because they follow the same rules",
            "start": 196.48,
            "duration": 2.92
        },
        {
            "text": "yeah hopefully they're going to show a",
            "start": 198.4,
            "duration": 3.199
        },
        {
            "text": "big difference between uh TCP and UDP",
            "start": 199.4,
            "duration": 3.8
        },
        {
            "text": "because that's where a huge amount of",
            "start": 201.599,
            "duration": 3.401
        },
        {
            "text": "awesome here's me talking about that",
            "start": 203.2,
            "duration": 4.48
        },
        {
            "text": "whole like TLS problem right see it goes",
            "start": 205.0,
            "duration": 6.36
        },
        {
            "text": "from TCP TLS http2 whereas this one's",
            "start": 207.68,
            "duration": 5.8
        },
        {
            "text": "like you go UDP you do this whole quick",
            "start": 211.36,
            "duration": 3.56
        },
        {
            "text": "thing but then you have like this like",
            "start": 213.48,
            "duration": 3.679
        },
        {
            "text": "you have to do alpine blah blah whatever",
            "start": 214.92,
            "duration": 3.72
        },
        {
            "text": "negotiation goes on here and then it",
            "start": 217.159,
            "duration": 3.041
        },
        {
            "text": "goes up here which is just kind of wild",
            "start": 218.64,
            "duration": 3.12
        },
        {
            "text": "it's just a different experience right",
            "start": 220.2,
            "duration": 3.0
        },
        {
            "text": "it's just a different experience anyways",
            "start": 221.76,
            "duration": 3.119
        },
        {
            "text": "so this is good in practice we don't use",
            "start": 223.2,
            "duration": 3.2
        },
        {
            "text": "a single protocol but a combination of",
            "start": 224.879,
            "duration": 3.201
        },
        {
            "text": "several at the same time each with its",
            "start": 226.4,
            "duration": 3.96
        },
        {
            "text": "own responsibilities and rules this uh",
            "start": 228.08,
            "duration": 3.92
        },
        {
            "text": "is to make things flexible and reusable",
            "start": 230.36,
            "duration": 3.959
        },
        {
            "text": "you can still use the exact same HTP",
            "start": 232.0,
            "duration": 4.48
        },
        {
            "text": "logic regardless if you're using Wi-Fi",
            "start": 234.319,
            "duration": 4.361
        },
        {
            "text": "cable 4G or 5G that which makes sense",
            "start": 236.48,
            "duration": 4.759
        },
        {
            "text": "right that's the physical layer um all",
            "start": 238.68,
            "duration": 4.199
        },
        {
            "text": "right and many of the original protocols",
            "start": 241.239,
            "duration": 2.801
        },
        {
            "text": "for the internet were standardized in",
            "start": 242.879,
            "duration": 2.521
        },
        {
            "text": "the ' 80s and 90s meaning that they were",
            "start": 244.04,
            "duration": 2.919
        },
        {
            "text": "built with the goals and restrictions of",
            "start": 245.4,
            "duration": 3.36
        },
        {
            "text": "those decades in mind while some of",
            "start": 246.959,
            "duration": 3.161
        },
        {
            "text": "these protocols have stood the test of",
            "start": 248.76,
            "duration": 2.72
        },
        {
            "text": "time others have started to show their",
            "start": 250.12,
            "duration": 3.399
        },
        {
            "text": "age most problems have been solved by",
            "start": 251.48,
            "duration": 3.72
        },
        {
            "text": "workarounds and clever tricks however it",
            "start": 253.519,
            "duration": 4.081
        },
        {
            "text": "is clear something would have to change",
            "start": 255.2,
            "duration": 4.039
        },
        {
            "text": "this is especially true for the",
            "start": 257.6,
            "duration": 4.08
        },
        {
            "text": "transport control protocol which ensures",
            "start": 259.239,
            "duration": 4.641
        },
        {
            "text": "your data is reliable reliably gets",
            "start": 261.68,
            "duration": 4.32
        },
        {
            "text": "across the internet yeah you don't do",
            "start": 263.88,
            "duration": 6.28
        },
        {
            "text": "TCP you do TCP in UDP think about that",
            "start": 266.0,
            "duration": 7.08
        },
        {
            "text": "for a second okay I I think the general",
            "start": 270.16,
            "duration": 5.36
        },
        {
            "text": "rule of thumb is that most packets make",
            "start": 273.08,
            "duration": 5.44
        },
        {
            "text": "it so why act everything like that's",
            "start": 275.52,
            "duration": 5.36
        },
        {
            "text": "probably the simplest way to explain why",
            "start": 278.52,
            "duration": 4.239
        },
        {
            "text": "it makes such a big difference from UDP",
            "start": 280.88,
            "duration": 3.879
        },
        {
            "text": "to TCP because UDP is just like a fire",
            "start": 282.759,
            "duration": 5.641
        },
        {
            "text": "forget right you just send information",
            "start": 284.759,
            "duration": 6.041
        },
        {
            "text": "and that's it whereas TCP requires you",
            "start": 288.4,
            "duration": 4.88
        },
        {
            "text": "to act all the things and all that uh a",
            "start": 290.8,
            "duration": 4.16
        },
        {
            "text": "drop packet can be a bad though well of",
            "start": 293.28,
            "duration": 3.04
        },
        {
            "text": "course a drop packet can be bad but",
            "start": 294.96,
            "duration": 4.2
        },
        {
            "text": "that's what the TCP in UDP does is that",
            "start": 296.32,
            "duration": 5.56
        },
        {
            "text": "when there is uh when there is a dropped",
            "start": 299.16,
            "duration": 5.039
        },
        {
            "text": "packet you Knack you Knack the packet a",
            "start": 301.88,
            "duration": 4.599
        },
        {
            "text": "negative acknowledgement I did not get",
            "start": 304.199,
            "duration": 4.201
        },
        {
            "text": "this one can you please resend that so",
            "start": 306.479,
            "duration": 3.321
        },
        {
            "text": "it's like an inversion so instead of",
            "start": 308.4,
            "duration": 3.84
        },
        {
            "text": "being like an act like I did receive one",
            "start": 309.8,
            "duration": 4.76
        },
        {
            "text": "I did receive two I did receive three",
            "start": 312.24,
            "duration": 4.28
        },
        {
            "text": "instead it's like I didn't receive three",
            "start": 314.56,
            "duration": 4.24
        },
        {
            "text": "can you please resend that one that's",
            "start": 316.52,
            "duration": 4.239
        },
        {
            "text": "pretty much one of the big wins right",
            "start": 318.8,
            "duration": 3.839
        },
        {
            "text": "it's the same thing with for R",
            "start": 320.759,
            "duration": 4.16
        },
        {
            "text": "rtmp that's TCP though there's a lot",
            "start": 322.639,
            "duration": 4.0
        },
        {
            "text": "more axe though you get AXS as opposed",
            "start": 324.919,
            "duration": 5.481
        },
        {
            "text": "to ax uh HP 1 and two rely on TCP to",
            "start": 326.639,
            "duration": 5.28
        },
        {
            "text": "successfully do their job before a",
            "start": 330.4,
            "duration": 3.32
        },
        {
            "text": "client and server can exchange HTP",
            "start": 331.919,
            "duration": 3.441
        },
        {
            "text": "response and request request and",
            "start": 333.72,
            "duration": 3.52
        },
        {
            "text": "response anyways uh they must",
            "start": 335.36,
            "duration": 3.52
        },
        {
            "text": "established a TCP connection over time",
            "start": 337.24,
            "duration": 2.88
        },
        {
            "text": "there has been many efforts to update",
            "start": 338.88,
            "duration": 2.599
        },
        {
            "text": "the TCP and resolve some of its",
            "start": 340.12,
            "duration": 3.519
        },
        {
            "text": "inefficiencies TCP still loads web pages",
            "start": 341.479,
            "duration": 3.601
        },
        {
            "text": "as if they are single files instead of a",
            "start": 343.639,
            "duration": 2.721
        },
        {
            "text": "collection of hundreds of individual",
            "start": 345.08,
            "duration": 3.119
        },
        {
            "text": "files some of these updates have been",
            "start": 346.36,
            "duration": 4.04
        },
        {
            "text": "successful but most of the more",
            "start": 348.199,
            "duration": 4.56
        },
        {
            "text": "impactful ones for example TCP multipath",
            "start": 350.4,
            "duration": 5.239
        },
        {
            "text": "and TCP fast open took nearly a decade",
            "start": 352.759,
            "duration": 4.681
        },
        {
            "text": "to be practical practically usable on",
            "start": 355.639,
            "duration": 3.881
        },
        {
            "text": "the public uh internet I don't know what",
            "start": 357.44,
            "duration": 4.28
        },
        {
            "text": "fast open and multipath is is fast open",
            "start": 359.52,
            "duration": 4.239
        },
        {
            "text": "just reestablishing or reusing uh",
            "start": 361.72,
            "duration": 3.919
        },
        {
            "text": "connections cuz I know there's like a",
            "start": 363.759,
            "duration": 5.201
        },
        {
            "text": "there's like a a single trip SSL type",
            "start": 365.639,
            "duration": 6.361
        },
        {
            "text": "stuff where they can kind of fast P fast",
            "start": 368.96,
            "duration": 4.92
        },
        {
            "text": "fast path some of it uh the main",
            "start": 372.0,
            "duration": 3.319
        },
        {
            "text": "challenge with implementing changes to",
            "start": 373.88,
            "duration": 3.2
        },
        {
            "text": "TCP is thousands of devices on the",
            "start": 375.319,
            "duration": 2.801
        },
        {
            "text": "internet all have their own",
            "start": 377.08,
            "duration": 3.08
        },
        {
            "text": "implementation of the TCP protocol these",
            "start": 378.12,
            "duration": 3.84
        },
        {
            "text": "include phones laptops and servers as",
            "start": 380.16,
            "duration": 3.64
        },
        {
            "text": "well as routers firewalls load balancers",
            "start": 381.96,
            "duration": 4.359
        },
        {
            "text": "and other types of middle boxes as such",
            "start": 383.8,
            "duration": 4.519
        },
        {
            "text": "if we want to update TCP we have to wait",
            "start": 386.319,
            "duration": 3.961
        },
        {
            "text": "for a significant portion of all these",
            "start": 388.319,
            "duration": 3.921
        },
        {
            "text": "devices to update their implementation",
            "start": 390.28,
            "duration": 3.96
        },
        {
            "text": "which in practice can take years yeah",
            "start": 392.24,
            "duration": 3.28
        },
        {
            "text": "you pretty much are waiting for those",
            "start": 394.24,
            "duration": 4.679
        },
        {
            "text": "devices to get replaced with newer ones",
            "start": 395.52,
            "duration": 7.92
        },
        {
            "text": "so HTTP 3 is bun yes bun recently said",
            "start": 398.919,
            "duration": 6.361
        },
        {
            "text": "something which was kind of silly which",
            "start": 403.44,
            "duration": 4.12
        },
        {
            "text": "they said uh because Twitter wanted to",
            "start": 405.28,
            "duration": 5.12
        },
        {
            "text": "improve their performance and so bun",
            "start": 407.56,
            "duration": 4.28
        },
        {
            "text": "suggested that the easiest way to",
            "start": 410.4,
            "duration": 3.519
        },
        {
            "text": "improve their performance is to use bun",
            "start": 411.84,
            "duration": 3.96
        },
        {
            "text": "which a I don't even think if I'm not",
            "start": 413.919,
            "duration": 4.72
        },
        {
            "text": "mistaken it's written in a jvm uh",
            "start": 415.8,
            "duration": 5.28
        },
        {
            "text": "technology and and jvm is currently much",
            "start": 418.639,
            "duration": 5.641
        },
        {
            "text": "faster than bun you would You' actually",
            "start": 421.08,
            "duration": 5.72
        },
        {
            "text": "you'd actually have to un you'd have to",
            "start": 424.28,
            "duration": 4.4
        },
        {
            "text": "lose some of the performance to get down",
            "start": 426.8,
            "duration": 4.2
        },
        {
            "text": "into the bun category I mean I'm not",
            "start": 428.68,
            "duration": 5.239
        },
        {
            "text": "saying right in Scala is like a w okay",
            "start": 431.0,
            "duration": 4.919
        },
        {
            "text": "I'm not saying Scala W time okay I'm",
            "start": 433.919,
            "duration": 5.161
        },
        {
            "text": "just saying jvm is typically known to be",
            "start": 435.919,
            "duration": 5.361
        },
        {
            "text": "a touch faster anyways the the problem",
            "start": 439.08,
            "duration": 3.72
        },
        {
            "text": "let's see this became a problem to the",
            "start": 441.28,
            "duration": 3.08
        },
        {
            "text": "point that most practical Way Forward",
            "start": 442.8,
            "duration": 3.0
        },
        {
            "text": "was to replace TCP with something",
            "start": 444.36,
            "duration": 3.239
        },
        {
            "text": "entirely new this replacement is the",
            "start": 445.8,
            "duration": 4.079
        },
        {
            "text": "quick protocol uh though",
            "start": 447.599,
            "duration": 4.761
        },
        {
            "text": "many still jokingly refer to it as TCP",
            "start": 449.879,
            "duration": 4.44
        },
        {
            "text": "2.0 this nickname is appropriate because",
            "start": 452.36,
            "duration": 3.279
        },
        {
            "text": "quick includes many of the same",
            "start": 454.319,
            "duration": 3.72
        },
        {
            "text": "highlevel features of TCP but with a",
            "start": 455.639,
            "duration": 4.601
        },
        {
            "text": "couple crucial changes all right all",
            "start": 458.039,
            "duration": 4.56
        },
        {
            "text": "right Scola mentioned let's go uh the",
            "start": 460.24,
            "duration": 3.72
        },
        {
            "text": "main change is that quick heavily",
            "start": 462.599,
            "duration": 2.921
        },
        {
            "text": "integrates with the transport layer",
            "start": 463.96,
            "duration": 3.919
        },
        {
            "text": "security protocol TLS is responsible for",
            "start": 465.52,
            "duration": 4.2
        },
        {
            "text": "encrypting sensitive data on the web",
            "start": 467.879,
            "duration": 4.361
        },
        {
            "text": "it's the thing that provides the S",
            "start": 469.72,
            "duration": 6.8
        },
        {
            "text": "secure in htps HTTPS with TCP TLS only",
            "start": 472.24,
            "duration": 7.12
        },
        {
            "text": "encrypts the actual HTTP data this is",
            "start": 476.52,
            "duration": 5.519
        },
        {
            "text": "true uh with quick TLS also encrypts",
            "start": 479.36,
            "duration": 5.279
        },
        {
            "text": "large parts of the quick protocol itself",
            "start": 482.039,
            "duration": 4.44
        },
        {
            "text": "this means that metadata such as packet",
            "start": 484.639,
            "duration": 4.361
        },
        {
            "text": "number and connection uh close signals",
            "start": 486.479,
            "duration": 5.28
        },
        {
            "text": "which were visible too and changeable by",
            "start": 489.0,
            "duration": 5.12
        },
        {
            "text": "all middle boxes in TCP are now only",
            "start": 491.759,
            "duration": 4.081
        },
        {
            "text": "available to the client and server and",
            "start": 494.12,
            "duration": 4.24
        },
        {
            "text": "quick this is super cool by the way this",
            "start": 495.84,
            "duration": 4.12
        },
        {
            "text": "is kind of like a really cool feature of",
            "start": 498.36,
            "duration": 3.6
        },
        {
            "text": "being a part of your own little uh stack",
            "start": 499.96,
            "duration": 4.44
        },
        {
            "text": "in the TCP area right and this makes",
            "start": 501.96,
            "duration": 3.56
        },
        {
            "text": "sense so here you go here's like a",
            "start": 504.4,
            "duration": 3.28
        },
        {
            "text": "really good example of it all right so",
            "start": 505.52,
            "duration": 4.119
        },
        {
            "text": "you still get the UDP payload stuff",
            "start": 507.68,
            "duration": 3.079
        },
        {
            "text": "which I forget how many bites are",
            "start": 509.639,
            "duration": 2.84
        },
        {
            "text": "associated with the UDP header how many",
            "start": 510.759,
            "duration": 3.2
        },
        {
            "text": "are does anyone know off the top of",
            "start": 512.479,
            "duration": 4.24
        },
        {
            "text": "their head good reading Prime I'm trying",
            "start": 513.959,
            "duration": 4.281
        },
        {
            "text": "I'm like practicing my reading skills",
            "start": 516.719,
            "duration": 3.281
        },
        {
            "text": "like I'm up to like a sixth grade I",
            "start": 518.24,
            "duration": 4.4
        },
        {
            "text": "assume it's 20 but I think that's TCP",
            "start": 520.0,
            "duration": 5.959
        },
        {
            "text": "the same thing uh TCP needs a quick dick",
            "start": 522.64,
            "duration": 5.36
        },
        {
            "text": "Dickens A cider no one's drinking apple",
            "start": 525.959,
            "duration": 4.041
        },
        {
            "text": "cider right now I can't remember",
            "start": 528.0,
            "duration": 3.64
        },
        {
            "text": "like that okay that's fair so this this",
            "start": 530.0,
            "duration": 3.24
        },
        {
            "text": "is a perfect example right because you",
            "start": 531.64,
            "duration": 4.04
        },
        {
            "text": "still need the the TCP payload right the",
            "start": 533.24,
            "duration": 4.599
        },
        {
            "text": "thing that controls the headers and then",
            "start": 535.68,
            "duration": 3.92
        },
        {
            "text": "you have all the other stuff with HP",
            "start": 537.839,
            "duration": 3.56
        },
        {
            "text": "data and all that in there which has the",
            "start": 539.6,
            "duration": 4.08
        },
        {
            "text": "source Port destination sequence act",
            "start": 541.399,
            "duration": 4.44
        },
        {
            "text": "blah blah blah blah options this one",
            "start": 543.68,
            "duration": 5.279
        },
        {
            "text": "just has the sorts uh Source destination",
            "start": 545.839,
            "duration": 5.481
        },
        {
            "text": "check some I don't know what this is and",
            "start": 548.959,
            "duration": 5.12
        },
        {
            "text": "then all of this is beautifully my guess",
            "start": 551.32,
            "duration": 5.16
        },
        {
            "text": "is mostly encrypted yeah oh cool this",
            "start": 554.079,
            "duration": 4.161
        },
        {
            "text": "part's encrypted and this part's",
            "start": 556.48,
            "duration": 3.88
        },
        {
            "text": "encrypted but you don't have the mac and",
            "start": 558.24,
            "duration": 4.44
        },
        {
            "text": "part of the connection ID okay that's",
            "start": 560.36,
            "duration": 4.8
        },
        {
            "text": "kind of cool though I wonder what why",
            "start": 562.68,
            "duration": 4.36
        },
        {
            "text": "only some of the flags I wonder these",
            "start": 565.16,
            "duration": 3.119
        },
        {
            "text": "flags must be some sort of public",
            "start": 567.04,
            "duration": 4.12
        },
        {
            "text": "flagging like hey this is Ben TLS that",
            "start": 568.279,
            "duration": 5.841
        },
        {
            "text": "way you know it's TLS I think maybe I",
            "start": 571.16,
            "duration": 4.72
        },
        {
            "text": "don't know interesting though no we're",
            "start": 574.12,
            "duration": 3.04
        },
        {
            "text": "not going straight to the Asal thing",
            "start": 575.88,
            "duration": 2.48
        },
        {
            "text": "furthermore because quick is more",
            "start": 577.16,
            "duration": 3.52
        },
        {
            "text": "extensively encrypted uh it will be much",
            "start": 578.36,
            "duration": 4.479
        },
        {
            "text": "easier than it was for TCP to change it",
            "start": 580.68,
            "duration": 4.24
        },
        {
            "text": "or to add new features we only need to",
            "start": 582.839,
            "duration": 4.041
        },
        {
            "text": "update the clients and the servers as",
            "start": 584.92,
            "duration": 3.359
        },
        {
            "text": "the middle boxes can't decrypt the",
            "start": 586.88,
            "duration": 3.56
        },
        {
            "text": "metadata anyways this is this is a big",
            "start": 588.279,
            "duration": 3.921
        },
        {
            "text": "feature right here you don't need that",
            "start": 590.44,
            "duration": 3.519
        },
        {
            "text": "because UDP is going to be the same so",
            "start": 592.2,
            "duration": 3.4
        },
        {
            "text": "you're now actually doing a protocol on",
            "start": 593.959,
            "duration": 4.88
        },
        {
            "text": "UDP so the middle boxes don't really",
            "start": 595.6,
            "duration": 4.239
        },
        {
            "text": "they don't don't really care cuz the",
            "start": 598.839,
            "duration": 2.801
        },
        {
            "text": "server is the one that has to Knack back",
            "start": 599.839,
            "duration": 3.481
        },
        {
            "text": "and get the data so they don't really",
            "start": 601.64,
            "duration": 3.56
        },
        {
            "text": "you know it makes it so it's way easier",
            "start": 603.32,
            "duration": 3.92
        },
        {
            "text": "to update yeah this makes quick a future",
            "start": 605.2,
            "duration": 4.04
        },
        {
            "text": "proof protocol that will allow us to",
            "start": 607.24,
            "duration": 3.88
        },
        {
            "text": "more quickly solve new challenges of",
            "start": 609.24,
            "duration": 3.48
        },
        {
            "text": "course this extra encryption is good for",
            "start": 611.12,
            "duration": 3.24
        },
        {
            "text": "General security and privacy of the new",
            "start": 612.72,
            "duration": 4.119
        },
        {
            "text": "protocol too while TCP plus TLs are",
            "start": 614.36,
            "duration": 4.2
        },
        {
            "text": "perfect for securing sensitive personal",
            "start": 616.839,
            "duration": 3.68
        },
        {
            "text": "data such as credit cards or email",
            "start": 618.56,
            "duration": 3.68
        },
        {
            "text": "content they can still be vulnerable to",
            "start": 620.519,
            "duration": 3.56
        },
        {
            "text": "complex privacy attacks which have",
            "start": 622.24,
            "duration": 4.0
        },
        {
            "text": "become ever more practical to execute",
            "start": 624.079,
            "duration": 5.401
        },
        {
            "text": "due to recent advancements in AI by",
            "start": 626.24,
            "duration": 5.24
        },
        {
            "text": "further encrypting this type of metadata",
            "start": 629.48,
            "duration": 3.72
        },
        {
            "text": "quick is more resilient to sophisticated",
            "start": 631.48,
            "duration": 5.28
        },
        {
            "text": "threat actors okay that's a positive o",
            "start": 633.2,
            "duration": 5.439
        },
        {
            "text": "look at this thing this is exciting I I",
            "start": 636.76,
            "duration": 2.96
        },
        {
            "text": "want to look at this one because that's",
            "start": 638.639,
            "duration": 2.32
        },
        {
            "text": "more of what I'm curious about quick",
            "start": 639.72,
            "duration": 2.559
        },
        {
            "text": "also has many other security related",
            "start": 640.959,
            "duration": 2.921
        },
        {
            "text": "features including defense against",
            "start": 642.279,
            "duration": 3.601
        },
        {
            "text": "distributed denial of service attacks",
            "start": 643.88,
            "duration": 3.56
        },
        {
            "text": "with features such as amplification",
            "start": 645.88,
            "duration": 3.68
        },
        {
            "text": "prevention and retry packets finally",
            "start": 647.44,
            "duration": 4.48
        },
        {
            "text": "quick is uh also includes a large amount",
            "start": 649.56,
            "duration": 3.56
        },
        {
            "text": "of efficiency and performance",
            "start": 651.92,
            "duration": 2.8
        },
        {
            "text": "improvements compared to TCP including a",
            "start": 653.12,
            "duration": 3.44
        },
        {
            "text": "faster connection handshake the removal",
            "start": 654.72,
            "duration": 3.84
        },
        {
            "text": "of head Aline blocking problem better",
            "start": 656.56,
            "duration": 3.76
        },
        {
            "text": "packet loss C detection recovery and a",
            "start": 658.56,
            "duration": 3.079
        },
        {
            "text": "way to deal with users switching",
            "start": 660.32,
            "duration": 5.16
        },
        {
            "text": "networks oh nice okay let's look at this",
            "start": 661.639,
            "duration": 6.081
        },
        {
            "text": "guy all right hold on so we got the",
            "start": 665.48,
            "duration": 4.799
        },
        {
            "text": "client talks to the server server sends",
            "start": 667.72,
            "duration": 4.359
        },
        {
            "text": "back to the client we do two black lines",
            "start": 670.279,
            "duration": 3.601
        },
        {
            "text": "and then we do a red line yeah okay",
            "start": 672.079,
            "duration": 3.32
        },
        {
            "text": "there's two connection I forget I forget",
            "start": 673.88,
            "duration": 3.68
        },
        {
            "text": "what these two were that are required",
            "start": 675.399,
            "duration": 4.56
        },
        {
            "text": "this is an Alpine request I know that I",
            "start": 677.56,
            "duration": 3.519
        },
        {
            "text": "think you can actually I think you can",
            "start": 679.959,
            "duration": 3.041
        },
        {
            "text": "reduce this into a single round trip I",
            "start": 681.079,
            "duration": 3.361
        },
        {
            "text": "know there's some techniques to reduce",
            "start": 683.0,
            "duration": 3.88
        },
        {
            "text": "this into some roundtrip territory Let's",
            "start": 684.44,
            "duration": 4.92
        },
        {
            "text": "see we didn't need htb3 what we needed",
            "start": 686.88,
            "duration": 5.639
        },
        {
            "text": "was quick okay okay TLS 13 allows for",
            "start": 689.36,
            "duration": 6.2
        },
        {
            "text": "zero rtt I don't know about single uh",
            "start": 692.519,
            "duration": 5.641
        },
        {
            "text": "the oh okay yeah I I've never I've never",
            "start": 695.56,
            "duration": 4.959
        },
        {
            "text": "programmed or like I've never worked on",
            "start": 698.16,
            "duration": 5.359
        },
        {
            "text": "the TLs layer itself uh I've done a",
            "start": 700.519,
            "duration": 4.56
        },
        {
            "text": "little bit with it but not enough to",
            "start": 703.519,
            "duration": 3.961
        },
        {
            "text": "really like I did like a fake Alpine",
            "start": 705.079,
            "duration": 5.121
        },
        {
            "text": "thing for something at one point or I I",
            "start": 707.48,
            "duration": 4.68
        },
        {
            "text": "had an if condition for Alpine and then",
            "start": 710.2,
            "duration": 3.92
        },
        {
            "text": "ignored it for hp2 I've never actually",
            "start": 712.16,
            "duration": 4.08
        },
        {
            "text": "done any of those things uh who needs",
            "start": 714.12,
            "duration": 3.92
        },
        {
            "text": "security anyways nobody does initially",
            "start": 716.24,
            "duration": 3.8
        },
        {
            "text": "they uh there were attempts to keep",
            "start": 718.04,
            "duration": 4.44
        },
        {
            "text": "http2 and make minimal adjustments so we",
            "start": 720.04,
            "duration": 4.44
        },
        {
            "text": "could also ensure quick in the lower",
            "start": 722.48,
            "duration": 3.84
        },
        {
            "text": "layers after all that's the whole point",
            "start": 724.48,
            "duration": 3.64
        },
        {
            "text": "of uh having those different cooperating",
            "start": 726.32,
            "duration": 3.6
        },
        {
            "text": "and reusable protocols however it became",
            "start": 728.12,
            "duration": 3.2
        },
        {
            "text": "clear that quick was just different",
            "start": 729.92,
            "duration": 4.039
        },
        {
            "text": "enough from TCP to make HTTP 2",
            "start": 731.32,
            "duration": 4.759
        },
        {
            "text": "incompatible as such the decision was to",
            "start": 733.959,
            "duration": 4.361
        },
        {
            "text": "make a new version of HTTP just for",
            "start": 736.079,
            "duration": 4.961
        },
        {
            "text": "quick which eventually became HTP 3 I",
            "start": 738.32,
            "duration": 3.8
        },
        {
            "text": "wish they would have talked a little bit",
            "start": 741.04,
            "duration": 3.76
        },
        {
            "text": "about hpack qack because that's where",
            "start": 742.12,
            "duration": 4.48
        },
        {
            "text": "the that's so the big reason why are",
            "start": 744.8,
            "duration": 3.2
        },
        {
            "text": "those things cool you're probably asking",
            "start": 746.6,
            "duration": 3.4
        },
        {
            "text": "what does it why why is that neat here",
            "start": 748.0,
            "duration": 3.32
        },
        {
            "text": "I'll I'll tell you why those things are",
            "start": 750.0,
            "duration": 3.0
        },
        {
            "text": "kind of cool I'm going to go from memory",
            "start": 751.32,
            "duration": 3.04
        },
        {
            "text": "and I haven't thought about it in a long",
            "start": 753.0,
            "duration": 3.399
        },
        {
            "text": "time so if I have some details slightly",
            "start": 754.36,
            "duration": 4.159
        },
        {
            "text": "wrong I'm sorry it's just a part of",
            "start": 756.399,
            "duration": 3.68
        },
        {
            "text": "things like you know that if you send",
            "start": 758.519,
            "duration": 3.241
        },
        {
            "text": "your cookies up right now what ends up",
            "start": 760.079,
            "duration": 2.921
        },
        {
            "text": "happening is that you're going to have",
            "start": 761.76,
            "duration": 3.12
        },
        {
            "text": "you know cookie or uh you know you know",
            "start": 763.0,
            "duration": 4.24
        },
        {
            "text": "field one right like header header one",
            "start": 764.88,
            "duration": 4.16
        },
        {
            "text": "right header one it's going to be a",
            "start": 767.24,
            "duration": 2.959
        },
        {
            "text": "bunch of data you're going to have",
            "start": 769.04,
            "duration": 2.72
        },
        {
            "text": "header two it's going to be a bunch of",
            "start": 770.199,
            "duration": 3.241
        },
        {
            "text": "data you're going to have header three",
            "start": 771.76,
            "duration": 4.319
        },
        {
            "text": "it's going to be a bunch of data and so",
            "start": 773.44,
            "duration": 5.399
        },
        {
            "text": "how qack or how uh how what's it called",
            "start": 776.079,
            "duration": 4.961
        },
        {
            "text": "called how hpac Works which I don't know",
            "start": 778.839,
            "duration": 6.081
        },
        {
            "text": "uh qac but effectively once you send up",
            "start": 781.04,
            "duration": 5.96
        },
        {
            "text": "a header it takes that Header",
            "start": 784.92,
            "duration": 4.719
        },
        {
            "text": "information and goes okay I've seen this",
            "start": 787.0,
            "duration": 4.16
        },
        {
            "text": "since we've seen this once before what",
            "start": 789.639,
            "duration": 2.721
        },
        {
            "text": "we're going to do is we're actually",
            "start": 791.16,
            "duration": 3.4
        },
        {
            "text": "going to take this and I'm going to go",
            "start": 792.36,
            "duration": 5.36
        },
        {
            "text": "all right call this one number one right",
            "start": 794.56,
            "duration": 4.8
        },
        {
            "text": "and so it's going to call it number one",
            "start": 797.72,
            "duration": 3.4
        },
        {
            "text": "and then it's going to go hey this one",
            "start": 799.36,
            "duration": 3.36
        },
        {
            "text": "I'm going to call this one number",
            "start": 801.12,
            "duration": 3.959
        },
        {
            "text": "two and then I want you to send this one",
            "start": 802.72,
            "duration": 4.32
        },
        {
            "text": "up as number three so that means the",
            "start": 805.079,
            "duration": 4.401
        },
        {
            "text": "next time I make a uh a request",
            "start": 807.04,
            "duration": 4.64
        },
        {
            "text": "what I'm going to effectively send up",
            "start": 809.48,
            "duration": 4.24
        },
        {
            "text": "will look like something like this right",
            "start": 811.68,
            "duration": 7.399
        },
        {
            "text": "I'll have uh header one one header 2 two",
            "start": 813.72,
            "duration": 7.52
        },
        {
            "text": "header 3 three and so you just send up",
            "start": 819.079,
            "duration": 4.921
        },
        {
            "text": "like a bite or however much information",
            "start": 821.24,
            "duration": 4.08
        },
        {
            "text": "so you know like think about how big",
            "start": 824.0,
            "duration": 3.12
        },
        {
            "text": "your cookie is right your cookie can be",
            "start": 825.32,
            "duration": 3.24
        },
        {
            "text": "really big it could be lots of",
            "start": 827.12,
            "duration": 4.04
        },
        {
            "text": "information so every single HTTP one",
            "start": 828.56,
            "duration": 5.399
        },
        {
            "text": "request is a lot of information whereas",
            "start": 831.16,
            "duration": 4.96
        },
        {
            "text": "this one keeps a keeps the server and",
            "start": 833.959,
            "duration": 4.081
        },
        {
            "text": "the client in sync on what these numbers",
            "start": 836.12,
            "duration": 4.639
        },
        {
            "text": "mean and so then if the client drops",
            "start": 838.04,
            "duration": 4.28
        },
        {
            "text": "something it has to let people know you",
            "start": 840.759,
            "duration": 3.281
        },
        {
            "text": "have to set the same size of cash on",
            "start": 842.32,
            "duration": 3.759
        },
        {
            "text": "both sides so as new ones come in and",
            "start": 844.04,
            "duration": 3.76
        },
        {
            "text": "old ones get pushed out that's what",
            "start": 846.079,
            "duration": 3.281
        },
        {
            "text": "happened so think of like effectively",
            "start": 847.8,
            "duration": 4.24
        },
        {
            "text": "think of an lru my cookie is bigger than",
            "start": 849.36,
            "duration": 4.32
        },
        {
            "text": "yours okay you don't need to flex your",
            "start": 852.04,
            "duration": 4.479
        },
        {
            "text": "cookie side cookie size okay you don't",
            "start": 853.68,
            "duration": 5.2
        },
        {
            "text": "need to do that all right hp3 is almost",
            "start": 856.519,
            "duration": 4.361
        },
        {
            "text": "identical to hp2 they mainly differ in",
            "start": 858.88,
            "duration": 3.24
        },
        {
            "text": "the technical implementations of the",
            "start": 860.88,
            "duration": 3.8
        },
        {
            "text": "feature on top of quick or TCP also uh",
            "start": 862.12,
            "duration": 5.959
        },
        {
            "text": "quick just requires tons of programming",
            "start": 864.68,
            "duration": 5.8
        },
        {
            "text": "hp2 is stateful yes so I assume quick is",
            "start": 868.079,
            "duration": 4.88
        },
        {
            "text": "also stateful yeah I wonder I wonder",
            "start": 870.48,
            "duration": 4.32
        },
        {
            "text": "what the what what Q Pack's like uh",
            "start": 872.959,
            "duration": 3.641
        },
        {
            "text": "let's see however because hp3 can also",
            "start": 874.8,
            "duration": 4.159
        },
        {
            "text": "use all of uh Quick's new features uh it",
            "start": 876.6,
            "duration": 3.76
        },
        {
            "text": "is expected to become more performant",
            "start": 878.959,
            "duration": 2.721
        },
        {
            "text": "when loading web pages and streaming",
            "start": 880.36,
            "duration": 3.96
        },
        {
            "text": "videos in practice it's es uh it's",
            "start": 881.68,
            "duration": 4.2
        },
        {
            "text": "especially this aspect that has led to",
            "start": 884.32,
            "duration": 4.0
        },
        {
            "text": "h3's Rapid adoption in my next post I'll",
            "start": 885.88,
            "duration": 4.079
        },
        {
            "text": "go over let's see more detail on the",
            "start": 888.32,
            "duration": 3.04
        },
        {
            "text": "common connectivity problems you'll",
            "start": 889.959,
            "duration": 3.201
        },
        {
            "text": "likely experience and how quick can",
            "start": 891.36,
            "duration": 4.2
        },
        {
            "text": "reduce calls and videos from cutting out",
            "start": 893.16,
            "duration": 4.28
        },
        {
            "text": "when your mobile devices changes uh from",
            "start": 895.56,
            "duration": 5.36
        },
        {
            "text": "using Wi-Fi to cellular connectivity",
            "start": 897.44,
            "duration": 7.399
        },
        {
            "text": "okay nice nice UDP uh let's see in UDP",
            "start": 900.92,
            "duration": 5.0
        },
        {
            "text": "connections don't exist yes they're",
            "start": 904.839,
            "duration": 3.281
        },
        {
            "text": "stateless yeah maybe quick protocol has",
            "start": 905.92,
            "duration": 5.039
        },
        {
            "text": "connections it well well it it has the",
            "start": 908.12,
            "duration": 4.48
        },
        {
            "text": "same like it's no different than rtmp",
            "start": 910.959,
            "duration": 4.481
        },
        {
            "text": "right rtmp RTP all those ones run also",
            "start": 912.6,
            "duration": 5.28
        },
        {
            "text": "over UDP so it's the exact same concept",
            "start": 915.44,
            "duration": 4.12
        },
        {
            "text": "right you effectively have a stateless",
            "start": 917.88,
            "duration": 3.319
        },
        {
            "text": "connection to it and then usually you",
            "start": 919.56,
            "duration": 3.36
        },
        {
            "text": "also have something like a control plane",
            "start": 921.199,
            "duration": 2.841
        },
        {
            "text": "a control plane would be like a",
            "start": 922.92,
            "duration": 3.359
        },
        {
            "text": "websocket connection as well and you do",
            "start": 924.04,
            "duration": 4.279
        },
        {
            "text": "some like basic talking to the control",
            "start": 926.279,
            "duration": 5.0
        },
        {
            "text": "plane to ensure that you also have uh",
            "start": 928.319,
            "duration": 5.281
        },
        {
            "text": "your UDP side of things your your uh",
            "start": 931.279,
            "duration": 4.081
        },
        {
            "text": "video and audio and all that crap that",
            "start": 933.6,
            "duration": 3.679
        },
        {
            "text": "goes with it it it does have a",
            "start": 935.36,
            "duration": 3.36
        },
        {
            "text": "connection field but that's the",
            "start": 937.279,
            "duration": 3.321
        },
        {
            "text": "connection number so the connection",
            "start": 938.72,
            "duration": 3.599
        },
        {
            "text": "number has various ways so that way you",
            "start": 940.6,
            "duration": 3.599
        },
        {
            "text": "can send down a bunch of different uh",
            "start": 942.319,
            "duration": 3.52
        },
        {
            "text": "stuff all at the same time so you have",
            "start": 944.199,
            "duration": 3.401
        },
        {
            "text": "connection one sending down this file",
            "start": 945.839,
            "duration": 3.081
        },
        {
            "text": "connection two sending down that one",
            "start": 947.6,
            "duration": 3.4
        },
        {
            "text": "it's just multiplexing on top of it that",
            "start": 948.92,
            "duration": 3.839
        },
        {
            "text": "sounds like a girthy connection it is a",
            "start": 951.0,
            "duration": 3.36
        },
        {
            "text": "girthy connection if you've never done",
            "start": 952.759,
            "duration": 3.64
        },
        {
            "text": "you should uh you should at some point",
            "start": 954.36,
            "duration": 4.56
        },
        {
            "text": "in your life try doing a multiplex of",
            "start": 956.399,
            "duration": 4.321
        },
        {
            "text": "something it's a lot of fun it's",
            "start": 958.92,
            "duration": 3.2
        },
        {
            "text": "actually a ton of fun that's why uh",
            "start": 960.72,
            "duration": 3.359
        },
        {
            "text": "websockets you know they in some sense",
            "start": 962.12,
            "duration": 3.48
        },
        {
            "text": "they kind of suck you're not really",
            "start": 964.079,
            "duration": 3.641
        },
        {
            "text": "multiplexing anything it's just not as",
            "start": 965.6,
            "duration": 5.08
        },
        {
            "text": "fun like a good Multiplex is great like",
            "start": 967.72,
            "duration": 5.64
        },
        {
            "text": "uh you know all the control frames web",
            "start": 970.68,
            "duration": 4.44
        },
        {
            "text": "web sock on all the all the control",
            "start": 973.36,
            "duration": 4.479
        },
        {
            "text": "frames cannot be at all multiplexed it's",
            "start": 975.12,
            "duration": 5.04
        },
        {
            "text": "it's a lot of fun see Netflix does not",
            "start": 977.839,
            "duration": 5.44
        },
        {
            "text": "use mqtt anywhere what is mqtt I don't",
            "start": 980.16,
            "duration": 5.32
        },
        {
            "text": "know that let's see as someone whose job",
            "start": 983.279,
            "duration": 3.68
        },
        {
            "text": "is to design and build platforms where",
            "start": 985.48,
            "duration": 4.08
        },
        {
            "text": "web services you all love and use run uh",
            "start": 986.959,
            "duration": 4.161
        },
        {
            "text": "while hp3 and quick have been nice",
            "start": 989.56,
            "duration": 3.36
        },
        {
            "text": "features to the uh to look good on paper",
            "start": 991.12,
            "duration": 4.48
        },
        {
            "text": "there are many uh hurdles currently dos",
            "start": 992.92,
            "duration": 4.719
        },
        {
            "text": "mitigation is getting harder classic",
            "start": 995.6,
            "duration": 4.159
        },
        {
            "text": "State Fall firewalls do not work anymore",
            "start": 997.639,
            "duration": 4.68
        },
        {
            "text": "qos and more let's see and more need",
            "start": 999.759,
            "duration": 4.64
        },
        {
            "text": "major rework and overall the UDP",
            "start": 1002.319,
            "duration": 3.64
        },
        {
            "text": "infrastructure in Linux and windows",
            "start": 1004.399,
            "duration": 3.721
        },
        {
            "text": "kernels lack behind there are many more",
            "start": 1005.959,
            "duration": 3.481
        },
        {
            "text": "issues but these are the most important",
            "start": 1008.12,
            "duration": 3.639
        },
        {
            "text": "ones oh nice yeah I could imagine",
            "start": 1009.44,
            "duration": 4.079
        },
        {
            "text": "there's some definitely some some some",
            "start": 1011.759,
            "duration": 3.64
        },
        {
            "text": "firewall issues that that makes sense",
            "start": 1013.519,
            "duration": 3.161
        },
        {
            "text": "especially as more and more of the data",
            "start": 1015.399,
            "duration": 4.12
        },
        {
            "text": "is hidden it's getting harder",
            "start": 1016.68,
            "duration": 4.92
        },
        {
            "text": "that's also going on my gravestone he",
            "start": 1019.519,
            "duration": 2.76
        },
        {
            "text": "had",
            "start": 1021.6,
            "duration": 4.64
        },
        {
            "text": "ADHD it's getting harder the name is",
            "start": 1022.279,
            "duration": 7.241
        },
        {
            "text": "it's getting harder aen",
            "start": 1026.24,
            "duration": 3.28
        }
    ],
    "stats": {
        "viewCount": "103125",
        "likeCount": "2607",
        "favoriteCount": "0",
        "commentCount": "172"
    }
}