{
    "id": "-mrPgGDsan0",
    "title": "Google Phases Out Cookies",
    "publishedAt": "2024-01-17T14:00:00Z",
    "captions": [
        {
            "text": "Google Chrome's cookies phase out what",
            "start": 0.16,
            "duration": 5.4
        },
        {
            "text": "you need to know sites will no longer",
            "start": 3.56,
            "duration": 3.92
        },
        {
            "text": "have access to third-party cookies for",
            "start": 5.56,
            "duration": 5.88
        },
        {
            "text": "1% of chrome users January 4th okay okay",
            "start": 7.48,
            "duration": 5.64
        },
        {
            "text": "full deprecation by the end of the year",
            "start": 11.44,
            "duration": 3.92
        },
        {
            "text": "still depends on UK's competition and",
            "start": 13.12,
            "duration": 4.079
        },
        {
            "text": "markets Authority I have a lot of",
            "start": 15.36,
            "duration": 4.919
        },
        {
            "text": "opinions about this but let's let him",
            "start": 17.199,
            "duration": 5.08
        },
        {
            "text": "cook let's let Tim Cook and then we'll",
            "start": 20.279,
            "duration": 3.76
        },
        {
            "text": "come back okay one of the most critical",
            "start": 22.279,
            "duration": 4.08
        },
        {
            "text": "topics of 2024 how Google Chrome plans",
            "start": 24.039,
            "duration": 4.041
        },
        {
            "text": "to rewrite digital advertising in the",
            "start": 26.359,
            "duration": 4.08
        },
        {
            "text": "browser with privacy sandbox proposal",
            "start": 28.08,
            "duration": 4.08
        },
        {
            "text": "and how companies adopt the Technologies",
            "start": 30.439,
            "duration": 3.8
        },
        {
            "text": "or don't is finally ramping up on",
            "start": 32.16,
            "duration": 3.76
        },
        {
            "text": "January 4th Google is releasing a new",
            "start": 34.239,
            "duration": 3.401
        },
        {
            "text": "browser feature called tracking",
            "start": 35.92,
            "duration": 4.24
        },
        {
            "text": "protection which when activated will cut",
            "start": 37.64,
            "duration": 4.36
        },
        {
            "text": "off s's access to thirdparty cookies",
            "start": 40.16,
            "duration": 3.52
        },
        {
            "text": "tracking protection will be activated",
            "start": 42.0,
            "duration": 3.64
        },
        {
            "text": "for 1% of randomly selected groups of",
            "start": 43.68,
            "duration": 4.6
        },
        {
            "text": "chrome users globally marking the year's",
            "start": 45.64,
            "duration": 4.399
        },
        {
            "text": "first notable step towards third-party",
            "start": 48.28,
            "duration": 4.959
        },
        {
            "text": "cookie deprecation ah look at that isn't",
            "start": 50.039,
            "duration": 5.081
        },
        {
            "text": "that crazy Google's looking out for",
            "start": 53.239,
            "duration": 5.041
        },
        {
            "text": "people look at that this is Fant I'm so",
            "start": 55.12,
            "duration": 6.04
        },
        {
            "text": "happy that Google's concern Ed about me",
            "start": 58.28,
            "duration": 5.36
        },
        {
            "text": "being tracked by third party cookies I",
            "start": 61.16,
            "duration": 4.48
        },
        {
            "text": "mean I'm so happy that Google would most",
            "start": 63.64,
            "duration": 3.519
        },
        {
            "text": "certainly never use this to their",
            "start": 65.64,
            "duration": 3.68
        },
        {
            "text": "advantage by being the only people that",
            "start": 67.159,
            "duration": 3.96
        },
        {
            "text": "can track you across sites and thus",
            "start": 69.32,
            "duration": 4.52
        },
        {
            "text": "using your data to be able to sell more",
            "start": 71.119,
            "duration": 5.161
        },
        {
            "text": "targeted advertisement while stripping",
            "start": 73.84,
            "duration": 4.04
        },
        {
            "text": "out the competition completely and",
            "start": 76.28,
            "duration": 4.159
        },
        {
            "text": "making it into a monopoly I certain",
            "start": 77.88,
            "duration": 5.279
        },
        {
            "text": "would I certainly wouldn't think that",
            "start": 80.439,
            "duration": 5.04
        },
        {
            "text": "would ever happen it's not like Google",
            "start": 83.159,
            "duration": 5.721
        },
        {
            "text": "ever doesn't be evil Google I",
            "start": 85.479,
            "duration": 6.6
        },
        {
            "text": "swear the level of awful Google is is",
            "start": 88.88,
            "duration": 4.8
        },
        {
            "text": "outstanding I'm not saying I like third",
            "start": 92.079,
            "duration": 3.36
        },
        {
            "text": "party cookies okay I'm sick of being",
            "start": 93.68,
            "duration": 4.2
        },
        {
            "text": "tracked I am sick of being tracked and",
            "start": 95.439,
            "duration": 5.96
        },
        {
            "text": "all that yes like I don't care that",
            "start": 97.88,
            "duration": 7.279
        },
        {
            "text": "Twitter monetizes my usage of their site",
            "start": 101.399,
            "duration": 6.281
        },
        {
            "text": "I use a free site in which I give it",
            "start": 105.159,
            "duration": 4.481
        },
        {
            "text": "data and it should be able to sell me",
            "start": 107.68,
            "duration": 7.52
        },
        {
            "text": "ads fine not upset but this Google thing",
            "start": 109.64,
            "duration": 6.88
        },
        {
            "text": "those who are part of the test will see",
            "start": 115.2,
            "duration": 3.64
        },
        {
            "text": "an option to browse with more",
            "start": 116.52,
            "duration": 3.879
        },
        {
            "text": "privacy",
            "start": 118.84,
            "duration": 3.599
        },
        {
            "text": "yet ads still work on Google crazy when",
            "start": 120.399,
            "duration": 4.161
        },
        {
            "text": "they open Chrome on desktop or Android",
            "start": 122.439,
            "duration": 4.401
        },
        {
            "text": "the roll out beyond the 1% will happen",
            "start": 124.56,
            "duration": 4.28
        },
        {
            "text": "gradually in the second half of the year",
            "start": 126.84,
            "duration": 4.28
        },
        {
            "text": "if a site in a test can't function",
            "start": 128.84,
            "duration": 3.72
        },
        {
            "text": "Chrome will surface the option to",
            "start": 131.12,
            "duration": 3.479
        },
        {
            "text": "disable tracking protection and revert",
            "start": 132.56,
            "duration": 4.6
        },
        {
            "text": "to using thirdparty cookies naturally",
            "start": 134.599,
            "duration": 4.161
        },
        {
            "text": "there are a lot of unknowns especially",
            "start": 137.16,
            "duration": 3.24
        },
        {
            "text": "since full deprecation by the end of the",
            "start": 138.76,
            "duration": 3.64
        },
        {
            "text": "year will depend on these tests and",
            "start": 140.4,
            "duration": 3.88
        },
        {
            "text": "whether the UK's competition and markets",
            "start": 142.4,
            "duration": 3.96
        },
        {
            "text": "Authority agrees here's what we know a",
            "start": 144.28,
            "duration": 3.8
        },
        {
            "text": "sense of urgency hampered by lack of",
            "start": 146.36,
            "duration": 3.72
        },
        {
            "text": "resource okay while the adoption has",
            "start": 148.08,
            "duration": 4.36
        },
        {
            "text": "been very slow on the buy side there has",
            "start": 150.08,
            "duration": 5.36
        },
        {
            "text": "been a step change in urgency Paul",
            "start": 152.44,
            "duration": 5.36
        },
        {
            "text": "bannister in Chief strategy officer at",
            "start": 155.44,
            "duration": 4.56
        },
        {
            "text": "publish management platform rapv which",
            "start": 157.8,
            "duration": 4.439
        },
        {
            "text": "has been running the protection audience",
            "start": 160.0,
            "duration": 5.44
        },
        {
            "text": "API renamed from fledge in April in add",
            "start": 162.239,
            "duration": 5.201
        },
        {
            "text": "auction since September when Google made",
            "start": 165.44,
            "duration": 3.799
        },
        {
            "text": "privacy sandbox application programming",
            "start": 167.44,
            "duration": 3.68
        },
        {
            "text": "interfaces publicly available he said",
            "start": 169.239,
            "duration": 3.64
        },
        {
            "text": "that since the beginning of December",
            "start": 171.12,
            "duration": 4.28
        },
        {
            "text": "more marketers have been Keen to start",
            "start": 172.879,
            "duration": 4.72
        },
        {
            "text": "testing over the next three months but",
            "start": 175.4,
            "duration": 3.839
        },
        {
            "text": "there's a gulf between the desire to",
            "start": 177.599,
            "duration": 3.681
        },
        {
            "text": "test and the resources available to",
            "start": 179.239,
            "duration": 3.64
        },
        {
            "text": "invest in new product development in",
            "start": 181.28,
            "duration": 3.879
        },
        {
            "text": "order to execute a full shift to privacy",
            "start": 182.879,
            "duration": 4.08
        },
        {
            "text": "preserving Technologies can someone",
            "start": 185.159,
            "duration": 4.0
        },
        {
            "text": "explain whatever I just read better I",
            "start": 186.959,
            "duration": 3.64
        },
        {
            "text": "don't see how this is anything but",
            "start": 189.159,
            "duration": 3.08
        },
        {
            "text": "Google locking down competition",
            "start": 190.599,
            "duration": 2.801
        },
        {
            "text": "absolutely let's break it down Paul",
            "start": 192.239,
            "duration": 3.36
        },
        {
            "text": "Bannister and Company Paul Bannister is",
            "start": 193.4,
            "duration": 3.64
        },
        {
            "text": "Chief strategy officer at a company",
            "start": 195.599,
            "duration": 3.081
        },
        {
            "text": "named rapes rapv is a publisher",
            "start": 197.04,
            "duration": 4.24
        },
        {
            "text": "management platform which uh means it is",
            "start": 198.68,
            "duration": 7.16
        },
        {
            "text": "do okay yo yo dog I like I don't need",
            "start": 201.28,
            "duration": 6.519
        },
        {
            "text": "that much explanation can can we calm",
            "start": 205.84,
            "duration": 7.039
        },
        {
            "text": "down could you be more tur I ain't got",
            "start": 207.799,
            "duration": 8.16
        },
        {
            "text": "time to read all of that Paul Bannister",
            "start": 212.879,
            "duration": 4.92
        },
        {
            "text": "from rapb is using Google's new privacy",
            "start": 215.959,
            "duration": 3.681
        },
        {
            "text": "sandbox API for add auction set",
            "start": 217.799,
            "duration": 4.08
        },
        {
            "text": "September more marketers are interested",
            "start": 219.64,
            "duration": 4.319
        },
        {
            "text": "in testing these privacy Focus tools",
            "start": 221.879,
            "duration": 3.64
        },
        {
            "text": "however there's a challenge they want to",
            "start": 223.959,
            "duration": 3.56
        },
        {
            "text": "test but developing new products for",
            "start": 225.519,
            "duration": 3.561
        },
        {
            "text": "this requires more resources than",
            "start": 227.519,
            "duration": 3.44
        },
        {
            "text": "currently available I literally still",
            "start": 229.08,
            "duration": 3.239
        },
        {
            "text": "don't know what that means and I don't",
            "start": 230.959,
            "duration": 2.801
        },
        {
            "text": "think Google does either there are those",
            "start": 232.319,
            "duration": 3.401
        },
        {
            "text": "who's still in denial and",
            "start": 233.76,
            "duration": 4.08
        },
        {
            "text": "unfortunately I don't think 2024 is",
            "start": 235.72,
            "duration": 4.2
        },
        {
            "text": "going to be an easy year for them said",
            "start": 237.84,
            "duration": 5.239
        },
        {
            "text": "an mil milisic co-founder of consultant",
            "start": 239.92,
            "duration": 5.239
        },
        {
            "text": "Sparrow advisers why do all these",
            "start": 243.079,
            "duration": 3.641
        },
        {
            "text": "companies sound like there's some sort",
            "start": 245.159,
            "duration": 3.961
        },
        {
            "text": "of weird Shadow form of just Google Jack",
            "start": 246.72,
            "duration": 4.079
        },
        {
            "text": "Sparrow it's not Jack Sparrow what are",
            "start": 249.12,
            "duration": 4.28
        },
        {
            "text": "all these advisor companies they're just",
            "start": 250.799,
            "duration": 4.921
        },
        {
            "text": "different names for Mafia it's Captain",
            "start": 253.4,
            "duration": 4.119
        },
        {
            "text": "Jack Sparrow data launderers it sounds",
            "start": 255.72,
            "duration": 3.759
        },
        {
            "text": "like data launders I'm just curious what",
            "start": 257.519,
            "duration": 3.201
        },
        {
            "text": "is the point of all this as Tech",
            "start": 259.479,
            "duration": 2.921
        },
        {
            "text": "adoption before it it's a chicken and",
            "start": 260.72,
            "duration": 3.4
        },
        {
            "text": "egg situation tech companies need demand",
            "start": 262.4,
            "duration": 3.2
        },
        {
            "text": "before building the tech and the",
            "start": 264.12,
            "duration": 3.24
        },
        {
            "text": "business imperative to shift buying away",
            "start": 265.6,
            "duration": 4.0
        },
        {
            "text": "from cookies have been lacking but",
            "start": 267.36,
            "duration": 4.08
        },
        {
            "text": "Chrome's deadlines finally solidifies",
            "start": 269.6,
            "duration": 4.439
        },
        {
            "text": "that she added still 1% is still too",
            "start": 271.44,
            "duration": 4.599
        },
        {
            "text": "minor for many beginning with just 1% of",
            "start": 274.039,
            "duration": 4.281
        },
        {
            "text": "browsing being impacted there will be",
            "start": 276.039,
            "duration": 4.321
        },
        {
            "text": "little to no immediate impact on things",
            "start": 278.32,
            "duration": 4.0
        },
        {
            "text": "like tracking targeting or measuring in",
            "start": 280.36,
            "duration": 4.24
        },
        {
            "text": "the short term said Paul Bland head of",
            "start": 282.32,
            "duration": 4.64
        },
        {
            "text": "strategy again head of biddable oh this",
            "start": 284.6,
            "duration": 4.039
        },
        {
            "text": "is a different Paul sorry wrong Paul",
            "start": 286.96,
            "duration": 4.12
        },
        {
            "text": "head of biddable at Havis media Network",
            "start": 288.639,
            "duration": 4.4
        },
        {
            "text": "UK we need more insight around the",
            "start": 291.08,
            "duration": 3.48
        },
        {
            "text": "effectiveness of the new solution and",
            "start": 293.039,
            "duration": 3.0
        },
        {
            "text": "the breadth of the adoption across the",
            "start": 294.56,
            "duration": 3.079
        },
        {
            "text": "adtech landscape before we draw",
            "start": 296.039,
            "duration": 3.281
        },
        {
            "text": "conclusions my only curious question is",
            "start": 297.639,
            "duration": 3.601
        },
        {
            "text": "how does does this not give Google",
            "start": 299.32,
            "duration": 3.599
        },
        {
            "text": "Ultimate Authority rap of has been",
            "start": 301.24,
            "duration": 3.239
        },
        {
            "text": "scaling up the numbers of protective",
            "start": 302.919,
            "duration": 3.761
        },
        {
            "text": "audience apis running in auction since",
            "start": 304.479,
            "duration": 3.72
        },
        {
            "text": "September but the findings are too",
            "start": 306.68,
            "duration": 3.04
        },
        {
            "text": "narrow for now while targeting is",
            "start": 308.199,
            "duration": 3.0
        },
        {
            "text": "working the next conversation is getting",
            "start": 309.72,
            "duration": 3.919
        },
        {
            "text": "data on Effectiveness our agency buyer",
            "start": 311.199,
            "duration": 4.041
        },
        {
            "text": "who isn't currently testing said they",
            "start": 313.639,
            "duration": 3.12
        },
        {
            "text": "wouldn't expect to see any impact until",
            "start": 315.24,
            "duration": 3.32
        },
        {
            "text": "at least 30% of cookies were deprecated",
            "start": 316.759,
            "duration": 3.201
        },
        {
            "text": "can I just throw something out there",
            "start": 318.56,
            "duration": 4.28
        },
        {
            "text": "here is the reality Google will never",
            "start": 319.96,
            "duration": 5.519
        },
        {
            "text": "create something that's going to hurt",
            "start": 322.84,
            "duration": 5.4
        },
        {
            "text": "them Consulting agencies will never",
            "start": 325.479,
            "duration": 5.201
        },
        {
            "text": "create something to hurt them",
            "start": 328.24,
            "duration": 5.36
        },
        {
            "text": "governments will never create something",
            "start": 330.68,
            "duration": 6.04
        },
        {
            "text": "they understand that's kind of my three",
            "start": 333.6,
            "duration": 5.879
        },
        {
            "text": "general rules of thumb is companies",
            "start": 336.72,
            "duration": 5.52
        },
        {
            "text": "don't hurt themselves governments don't",
            "start": 339.479,
            "duration": 5.041
        },
        {
            "text": "know what they're doing consultancies",
            "start": 342.24,
            "duration": 4.88
        },
        {
            "text": "are the devil that's kind of like how I",
            "start": 344.52,
            "duration": 4.6
        },
        {
            "text": "position my thought process and so when",
            "start": 347.12,
            "duration": 3.96
        },
        {
            "text": "I'm reading all of this and Google's",
            "start": 349.12,
            "duration": 3.96
        },
        {
            "text": "like we're making privacy better there's",
            "start": 351.08,
            "duration": 4.679
        },
        {
            "text": "an angle that I'm just I don't quite",
            "start": 353.08,
            "duration": 4.64
        },
        {
            "text": "understand yet there's something there",
            "start": 355.759,
            "duration": 3.201
        },
        {
            "text": "government don't know what they're doing",
            "start": 357.72,
            "duration": 3.0
        },
        {
            "text": "is the only W take in this the",
            "start": 358.96,
            "duration": 3.44
        },
        {
            "text": "government's like oh we're not even sure",
            "start": 360.72,
            "duration": 3.96
        },
        {
            "text": "here I'm definitely a bit curious you",
            "start": 362.4,
            "duration": 3.84
        },
        {
            "text": "know that there's there's strategy to",
            "start": 364.68,
            "duration": 3.12
        },
        {
            "text": "this you know that somebody is playing",
            "start": 366.24,
            "duration": 3.44
        },
        {
            "text": "this to make a lot of money and so it",
            "start": 367.8,
            "duration": 3.839
        },
        {
            "text": "has to be reducing some sort of",
            "start": 369.68,
            "duration": 3.6
        },
        {
            "text": "competition you preemptively hurt",
            "start": 371.639,
            "duration": 4.28
        },
        {
            "text": "yourself EG supermarkets asking for ID",
            "start": 373.28,
            "duration": 4.359
        },
        {
            "text": "for energy drinks before expected",
            "start": 375.919,
            "duration": 3.441
        },
        {
            "text": "government regulations even though it",
            "start": 377.639,
            "duration": 3.641
        },
        {
            "text": "didn't exist or charging for plastic",
            "start": 379.36,
            "duration": 4.36
        },
        {
            "text": "bags well charging for plastic bags has",
            "start": 381.28,
            "duration": 4.44
        },
        {
            "text": "I mean the crazier one was was when the",
            "start": 383.72,
            "duration": 3.759
        },
        {
            "text": "governments banned plastic bags and then",
            "start": 385.72,
            "duration": 4.0
        },
        {
            "text": "it ended up using more plastic like was",
            "start": 387.479,
            "duration": 4.961
        },
        {
            "text": "funny and then California was like man",
            "start": 389.72,
            "duration": 5.319
        },
        {
            "text": "we got that wrong and so California",
            "start": 392.44,
            "duration": 4.28
        },
        {
            "text": "actually went back on the plastic bag",
            "start": 395.039,
            "duration": 3.121
        },
        {
            "text": "business and now you can get it but you",
            "start": 396.72,
            "duration": 3.4
        },
        {
            "text": "just have to get charged for it okay",
            "start": 398.16,
            "duration": 4.319
        },
        {
            "text": "stupid but whatever it worked but then",
            "start": 400.12,
            "duration": 4.96
        },
        {
            "text": "the better part is that Colorado is now",
            "start": 402.479,
            "duration": 5.0
        },
        {
            "text": "officially passing the plastic bag thing",
            "start": 405.08,
            "duration": 4.239
        },
        {
            "text": "like how funny is that is that the",
            "start": 407.479,
            "duration": 3.921
        },
        {
            "text": "government did something didn't do the",
            "start": 409.319,
            "duration": 3.72
        },
        {
            "text": "research it turned out it was wrong",
            "start": 411.4,
            "duration": 3.519
        },
        {
            "text": "California went back on hey plus one for",
            "start": 413.039,
            "duration": 3.201
        },
        {
            "text": "government for going back and actually",
            "start": 414.919,
            "duration": 2.601
        },
        {
            "text": "doing some research and doing a good",
            "start": 416.24,
            "duration": 2.639
        },
        {
            "text": "thing I was personally impressed that",
            "start": 417.52,
            "duration": 3.519
        },
        {
            "text": "California did did anything at all that",
            "start": 418.879,
            "duration": 4.481
        },
        {
            "text": "was based on facts or logic",
            "start": 421.039,
            "duration": 4.801
        },
        {
            "text": "like good job that was a good job I was",
            "start": 423.36,
            "duration": 4.44
        },
        {
            "text": "very shocked by that but they did it but",
            "start": 425.84,
            "duration": 4.479
        },
        {
            "text": "then somehow Colorado and everybody else",
            "start": 427.8,
            "duration": 4.44
        },
        {
            "text": "like hell yeah hold my beer we're doing",
            "start": 430.319,
            "duration": 3.16
        },
        {
            "text": "this you know it's just like where did",
            "start": 432.24,
            "duration": 3.2
        },
        {
            "text": "you get where did you get dude the",
            "start": 433.479,
            "duration": 3.84
        },
        {
            "text": "government sucks okay I don't know what",
            "start": 435.44,
            "duration": 3.8
        },
        {
            "text": "people are expecting is going to happen",
            "start": 437.319,
            "duration": 4.44
        },
        {
            "text": "we only use reusable and paper here in",
            "start": 439.24,
            "duration": 5.12
        },
        {
            "text": "VT haven't seen plastic in years wild I",
            "start": 441.759,
            "duration": 3.84
        },
        {
            "text": "just complimented California and I'm",
            "start": 444.36,
            "duration": 3.76
        },
        {
            "text": "from Montana see I'm I'm based okay I",
            "start": 445.599,
            "duration": 4.201
        },
        {
            "text": "can recognize a good decision when I see",
            "start": 448.12,
            "duration": 3.28
        },
        {
            "text": "it figuring out how to reinvent the",
            "start": 449.8,
            "duration": 3.76
        },
        {
            "text": "digital and AD ecosystem in the browser",
            "start": 451.4,
            "duration": 3.84
        },
        {
            "text": "all at once encompasses a raft of",
            "start": 453.56,
            "duration": 3.639
        },
        {
            "text": "features like targeting ad frequency and",
            "start": 455.24,
            "duration": 4.04
        },
        {
            "text": "measurement for now targeting is the",
            "start": 457.199,
            "duration": 4.0
        },
        {
            "text": "most solid banister estimates that",
            "start": 459.28,
            "duration": 4.16
        },
        {
            "text": "Google is about 75% there in terms of",
            "start": 461.199,
            "duration": 4.641
        },
        {
            "text": "what they need to supply to the industry",
            "start": 463.44,
            "duration": 4.199
        },
        {
            "text": "oh okay so Google will supply to the",
            "start": 465.84,
            "duration": 4.12
        },
        {
            "text": "industry okay great including better",
            "start": 467.639,
            "duration": 3.721
        },
        {
            "text": "documentation and improved features",
            "start": 469.96,
            "duration": 3.16
        },
        {
            "text": "measurement will break said Eric wheeler",
            "start": 471.36,
            "duration": 4.2
        },
        {
            "text": "CEO at publisher adtech platform 33",
            "start": 473.12,
            "duration": 4.32
        },
        {
            "text": "across programmatic measurement was",
            "start": 475.56,
            "duration": 3.8
        },
        {
            "text": "founded on a third-party cookie so we",
            "start": 477.44,
            "duration": 3.599
        },
        {
            "text": "can expect to see many data errors",
            "start": 479.36,
            "duration": 3.279
        },
        {
            "text": "Google analytics will be able to track",
            "start": 481.039,
            "duration": 4.401
        },
        {
            "text": "what occurs in its Walled Garden which",
            "start": 482.639,
            "duration": 5.081
        },
        {
            "text": "will cause a big Upstream challenges the",
            "start": 485.44,
            "duration": 3.96
        },
        {
            "text": "agency buyer added that the industry",
            "start": 487.72,
            "duration": 2.919
        },
        {
            "text": "might need to rethink historical",
            "start": 489.4,
            "duration": 3.4
        },
        {
            "text": "benchmarks since many marketers use",
            "start": 490.639,
            "duration": 4.201
        },
        {
            "text": "pixel Solutions across platforms like a",
            "start": 492.8,
            "duration": 4.44
        },
        {
            "text": "meta as Google increases the 1% of users",
            "start": 494.84,
            "duration": 3.96
        },
        {
            "text": "who have access to tracking protection",
            "start": 497.24,
            "duration": 3.48
        },
        {
            "text": "in the second half of 2024 there will be",
            "start": 498.8,
            "duration": 3.799
        },
        {
            "text": "shifts in auction Dynamics with a",
            "start": 500.72,
            "duration": 3.479
        },
        {
            "text": "shrinking pool of third- party cookie",
            "start": 502.599,
            "duration": 3.6
        },
        {
            "text": "inventory available we can also expect",
            "start": 504.199,
            "duration": 6.041
        },
        {
            "text": "to see Rising cpms oh really crazy see",
            "start": 506.199,
            "duration": 5.12
        },
        {
            "text": "really for those that don't know what",
            "start": 510.24,
            "duration": 3.84
        },
        {
            "text": "CPM it stands for cost per mile so cost",
            "start": 511.319,
            "duration": 4.881
        },
        {
            "text": "per mile here's a here's a good example",
            "start": 514.08,
            "duration": 4.8
        },
        {
            "text": "on YouTube how I get paid by YouTube is",
            "start": 516.2,
            "duration": 5.0
        },
        {
            "text": "when I release a video they sell out ads",
            "start": 518.88,
            "duration": 5.639
        },
        {
            "text": "for say $112 to $18 cost per mile",
            "start": 521.2,
            "duration": 4.759
        },
        {
            "text": "they'll pay me somewhere between like",
            "start": 524.519,
            "duration": 5.44
        },
        {
            "text": "a125 to $2 RPM rate per mile mile equals",
            "start": 525.959,
            "duration": 6.0
        },
        {
            "text": "1,000 views obviously because miles are",
            "start": 529.959,
            "duration": 4.0
        },
        {
            "text": "1,000 ft per mile and so it was a",
            "start": 531.959,
            "duration": 3.921
        },
        {
            "text": "natural transition to go from 1,000 feet",
            "start": 533.959,
            "duration": 4.241
        },
        {
            "text": "per mile to 1,000 views per mile what",
            "start": 535.88,
            "duration": 5.0
        },
        {
            "text": "the f is a mile a mile is how how far",
            "start": 538.2,
            "duration": 5.759
        },
        {
            "text": "you can throw a stone in 25 throws 57",
            "start": 540.88,
            "duration": 5.079
        },
        {
            "text": "throws it's a 57 throw measurement it's",
            "start": 543.959,
            "duration": 3.641
        },
        {
            "text": "one of the most based measurements out",
            "start": 545.959,
            "duration": 3.041
        },
        {
            "text": "there the fact that this is what is",
            "start": 547.6,
            "duration": 3.0
        },
        {
            "text": "going to happen this just means Google",
            "start": 549.0,
            "duration": 3.36
        },
        {
            "text": "makes more money that's all that means",
            "start": 550.6,
            "duration": 3.679
        },
        {
            "text": "YouTube okay so there's this there's",
            "start": 552.36,
            "duration": 3.159
        },
        {
            "text": "this thing that happens for those that",
            "start": 554.279,
            "duration": 3.201
        },
        {
            "text": "don't know there's this one problem that",
            "start": 555.519,
            "duration": 4.361
        },
        {
            "text": "exists which is a company like YouTube",
            "start": 557.48,
            "duration": 4.479
        },
        {
            "text": "has two levers in which they can make",
            "start": 559.88,
            "duration": 5.32
        },
        {
            "text": "money on more ads more expensive ads now",
            "start": 561.959,
            "duration": 5.041
        },
        {
            "text": "they're adding a third level lever",
            "start": 565.2,
            "duration": 3.28
        },
        {
            "text": "obviously which is membership so the",
            "start": 567.0,
            "duration": 3.399
        },
        {
            "text": "more membership they can sell the more",
            "start": 568.48,
            "duration": 3.84
        },
        {
            "text": "kind of defined money they'll make so",
            "start": 570.399,
            "duration": 5.281
        },
        {
            "text": "they have more ads more cost to ads and",
            "start": 572.32,
            "duration": 5.28
        },
        {
            "text": "so they can't really raise this lever",
            "start": 575.68,
            "duration": 3.64
        },
        {
            "text": "cuz this lever is based on an auction",
            "start": 577.6,
            "duration": 4.359
        },
        {
            "text": "system so December it costs a lot that",
            "start": 579.32,
            "duration": 4.639
        },
        {
            "text": "lever just goes up January that lever",
            "start": 581.959,
            "duration": 3.44
        },
        {
            "text": "goes way down because people aren't",
            "start": 583.959,
            "duration": 4.201
        },
        {
            "text": "buying ads so if you can artificially",
            "start": 585.399,
            "duration": 5.521
        },
        {
            "text": "constrain the supply meaning you make",
            "start": 588.16,
            "duration": 5.359
        },
        {
            "text": "that lever go up they automatically win",
            "start": 590.92,
            "duration": 4.0
        },
        {
            "text": "show us the third lever again third",
            "start": 593.519,
            "duration": 3.201
        },
        {
            "text": "lever is YouTube membership don't forget",
            "start": 594.92,
            "duration": 3.52
        },
        {
            "text": "that the lever that lowers creators",
            "start": 596.72,
            "duration": 3.32
        },
        {
            "text": "share in Revenue oh yeah then there's",
            "start": 598.44,
            "duration": 3.28
        },
        {
            "text": "also the fourth lever which is just",
            "start": 600.04,
            "duration": 3.4
        },
        {
            "text": "lower the amount you pay creators that",
            "start": 601.72,
            "duration": 3.08
        },
        {
            "text": "one's a little bit harder because you",
            "start": 603.44,
            "duration": 3.16
        },
        {
            "text": "have to be somewhat concerned about",
            "start": 604.8,
            "duration": 3.36
        },
        {
            "text": "competition I mean I'm not saying that",
            "start": 606.6,
            "duration": 3.44
        },
        {
            "text": "Twitter's great competition for video Mr",
            "start": 608.16,
            "duration": 3.6
        },
        {
            "text": "B said he wouldn't do it I'm not saying",
            "start": 610.04,
            "duration": 3.4
        },
        {
            "text": "that Rumble is great competition I've",
            "start": 611.76,
            "duration": 3.44
        },
        {
            "text": "never even been on Rumble I just know",
            "start": 613.44,
            "duration": 3.36
        },
        {
            "text": "the name because I get emails about",
            "start": 615.2,
            "duration": 3.48
        },
        {
            "text": "converting all my videos to rumble like",
            "start": 616.8,
            "duration": 3.599
        },
        {
            "text": "I don't know a lot about the other",
            "start": 618.68,
            "duration": 4.0
        },
        {
            "text": "platforms but I do know they exist and",
            "start": 620.399,
            "duration": 4.161
        },
        {
            "text": "whenever you keep putting pressure on",
            "start": 622.68,
            "duration": 3.399
        },
        {
            "text": "the creators you'll eventually cause",
            "start": 624.56,
            "duration": 3.44
        },
        {
            "text": "migrations that lever is really hard to",
            "start": 626.079,
            "duration": 4.0
        },
        {
            "text": "move so they typically don't move that",
            "start": 628.0,
            "duration": 4.16
        },
        {
            "text": "lever Tik Tok CPM is awful it's not that",
            "start": 630.079,
            "duration": 3.76
        },
        {
            "text": "bad it's like all shorts in the industry",
            "start": 632.16,
            "duration": 3.44
        },
        {
            "text": "the problem with shorts is that a short",
            "start": 633.839,
            "duration": 4.0
        },
        {
            "text": "is like 30 seconds of view time so you",
            "start": 635.6,
            "duration": 4.08
        },
        {
            "text": "can't show an ad every short it wouldn't",
            "start": 637.839,
            "duration": 4.081
        },
        {
            "text": "make any sense so you show like one ad",
            "start": 639.68,
            "duration": 5.76
        },
        {
            "text": "for every 50 shorts so that's like 150th",
            "start": 641.92,
            "duration": 5.96
        },
        {
            "text": "you should expect like 150th 12th the",
            "start": 645.44,
            "duration": 4.0
        },
        {
            "text": "amount of money from a from a short",
            "start": 647.88,
            "duration": 3.56
        },
        {
            "text": "versus a a long as I like to call it",
            "start": 649.44,
            "duration": 3.16
        },
        {
            "text": "that's just the way it works cuz you",
            "start": 651.44,
            "duration": 2.639
        },
        {
            "text": "watch a ton of shorts and then you get",
            "start": 652.6,
            "duration": 2.96
        },
        {
            "text": "one app so they have to split unless you",
            "start": 654.079,
            "duration": 3.601
        },
        {
            "text": "get 10x to viewership uh too you get a",
            "start": 655.56,
            "duration": 4.2
        },
        {
            "text": "lot more viewership on shorts sort of",
            "start": 657.68,
            "duration": 3.44
        },
        {
            "text": "the problem about shorts is either you",
            "start": 659.76,
            "duration": 3.6
        },
        {
            "text": "get a lot of viewership or you get none",
            "start": 661.12,
            "duration": 3.719
        },
        {
            "text": "I don't understand shorts terrible at",
            "start": 663.36,
            "duration": 3.0
        },
        {
            "text": "them okay anyways I don't really need to",
            "start": 664.839,
            "duration": 3.12
        },
        {
            "text": "know anything of more about adtech and",
            "start": 666.36,
            "duration": 3.56
        },
        {
            "text": "all this it just seems like whatever is",
            "start": 667.959,
            "duration": 4.401
        },
        {
            "text": "going to happen Google wins Consulting",
            "start": 669.92,
            "duration": 4.4
        },
        {
            "text": "companies win the government will say",
            "start": 672.36,
            "duration": 4.279
        },
        {
            "text": "they won and the only loser at the end",
            "start": 674.32,
            "duration": 4.8
        },
        {
            "text": "of the day will be you I hope that",
            "start": 676.639,
            "duration": 4.601
        },
        {
            "text": "there's less ads second thing I might do",
            "start": 679.12,
            "duration": 4.2
        },
        {
            "text": "is buy some Google stock if they're",
            "start": 681.24,
            "duration": 3.92
        },
        {
            "text": "successful they just raised the amount",
            "start": 683.32,
            "duration": 4.639
        },
        {
            "text": "of money they're going to make by 20 to",
            "start": 685.16,
            "duration": 4.6
        },
        {
            "text": "30%",
            "start": 687.959,
            "duration": 5.761
        },
        {
            "text": "this is not Financial advice aen",
            "start": 689.76,
            "duration": 3.96
        }
    ],
    "stats": {
        "viewCount": "122554",
        "likeCount": "3575",
        "favoriteCount": "0",
        "commentCount": "412"
    }
}