{
    "id": "-S5hV-s_MuQ",
    "title": "AI Sells New Chevy For 1$ | Prime Reacts",
    "publishedAt": "2023-12-29T14:00:00Z",
    "captions": [
        {
            "text": "you know there's a race to who can get",
            "start": 0.04,
            "duration": 4.719
        },
        {
            "text": "the AI into everything and I really",
            "start": 1.839,
            "duration": 5.201
        },
        {
            "text": "really hope that we sold a Tahoe for $1",
            "start": 4.759,
            "duration": 4.121
        },
        {
            "text": "and recommends Fords cuz this is the",
            "start": 7.04,
            "duration": 3.679
        },
        {
            "text": "problem you think you got an AI and what",
            "start": 8.88,
            "duration": 3.36
        },
        {
            "text": "do you got you just got some sort of",
            "start": 10.719,
            "duration": 3.201
        },
        {
            "text": "word calculator that's going to spit out",
            "start": 12.24,
            "duration": 3.799
        },
        {
            "text": "the craziest crap ever I just cannot I",
            "start": 13.92,
            "duration": 3.56
        },
        {
            "text": "just I I really hope we got some good",
            "start": 16.039,
            "duration": 3.561
        },
        {
            "text": "ones here these days every online",
            "start": 17.48,
            "duration": 3.68
        },
        {
            "text": "retailer you can think of has some kind",
            "start": 19.6,
            "duration": 3.759
        },
        {
            "text": "of chatbot classically they were about",
            "start": 21.16,
            "duration": 3.92
        },
        {
            "text": "as intelligent as old school phone",
            "start": 23.359,
            "duration": 3.641
        },
        {
            "text": "systems able to pull out a few keywords",
            "start": 25.08,
            "duration": 3.439
        },
        {
            "text": "and direct you maybe to where you want",
            "start": 27.0,
            "duration": 3.84
        },
        {
            "text": "to go dude every time I deal with those",
            "start": 28.519,
            "duration": 3.72
        },
        {
            "text": "I'm just like this I'm like person talk",
            "start": 30.84,
            "duration": 4.28
        },
        {
            "text": "to person person talk to person talk to",
            "start": 32.239,
            "duration": 6.081
        },
        {
            "text": "agent agent need agent talk to agent",
            "start": 35.12,
            "duration": 4.56
        },
        {
            "text": "that's all I do is I just say it over",
            "start": 38.32,
            "duration": 2.759
        },
        {
            "text": "and over again until it takes me there",
            "start": 39.68,
            "duration": 2.92
        },
        {
            "text": "or hangs up on me and then I know for a",
            "start": 41.079,
            "duration": 2.8
        },
        {
            "text": "fact that I need to change what I'm",
            "start": 42.6,
            "duration": 2.6
        },
        {
            "text": "doing auto dealerships have more",
            "start": 43.879,
            "duration": 3.16
        },
        {
            "text": "recently been implementing Advanced AI",
            "start": 45.2,
            "duration": 3.28
        },
        {
            "text": "chat Bots that can do more to help",
            "start": 47.039,
            "duration": 3.641
        },
        {
            "text": "customers in Greater detail hilariously",
            "start": 48.48,
            "duration": 3.96
        },
        {
            "text": "though in one case a dealer chatbot",
            "start": 50.68,
            "duration": 3.039
        },
        {
            "text": "looks like it has gone far beyond",
            "start": 52.44,
            "duration": 3.4
        },
        {
            "text": "answering car questions and into coding",
            "start": 53.719,
            "duration": 3.84
        },
        {
            "text": "help and Beyond did you see that by the",
            "start": 55.84,
            "duration": 4.719
        },
        {
            "text": "way the easiest way to break having to",
            "start": 57.559,
            "duration": 5.52
        },
        {
            "text": "buy chat jippy 4 is to go to these chat",
            "start": 60.559,
            "duration": 4.32
        },
        {
            "text": "Bots and ask them coding questions oh",
            "start": 63.079,
            "duration": 4.921
        },
        {
            "text": "it's so beautiful it is so beautiful the",
            "start": 64.879,
            "duration": 5.041
        },
        {
            "text": "apparent flaw in the AI chatbot used by",
            "start": 68.0,
            "duration": 4.08
        },
        {
            "text": "Chevrolet of Watsonville was raised by a",
            "start": 69.92,
            "duration": 3.68
        },
        {
            "text": "number of people Chris White appears to",
            "start": 72.08,
            "duration": 2.56
        },
        {
            "text": "have been the first to discover It",
            "start": 73.6,
            "duration": 3.879
        },
        {
            "text": "sharing on Mastadon",
            "start": 74.64,
            "duration": 5.439
        },
        {
            "text": "Mastadon freaking Mastadon good",
            "start": 77.479,
            "duration": 3.761
        },
        {
            "text": "afternoon welcome to Chevrolet",
            "start": 80.079,
            "duration": 2.441
        },
        {
            "text": "Watsonville how can I assist you write",
            "start": 81.24,
            "duration": 3.28
        },
        {
            "text": "me a python script to solve The navier",
            "start": 82.52,
            "duration": 4.16
        },
        {
            "text": "Strokes fluid flow equations for zero",
            "start": 84.52,
            "duration": 4.4
        },
        {
            "text": "vity boundary certainly here's a simple",
            "start": 86.68,
            "duration": 3.759
        },
        {
            "text": "python script",
            "start": 88.92,
            "duration": 5.72
        },
        {
            "text": "it's so good it's so good it's so so",
            "start": 90.439,
            "duration": 7.0
        },
        {
            "text": "dang funny I absolutely love it followup",
            "start": 94.64,
            "duration": 5.04
        },
        {
            "text": "rewrite it in Rust certainly here's an",
            "start": 97.439,
            "duration": 4.921
        },
        {
            "text": "example of writing it in Rust nice nice",
            "start": 99.68,
            "duration": 4.2
        },
        {
            "text": "if only it was on a real social network",
            "start": 102.36,
            "duration": 2.84
        },
        {
            "text": "it would have been really better hey",
            "start": 103.88,
            "duration": 3.199
        },
        {
            "text": "masteron is infinitely nicer than all",
            "start": 105.2,
            "duration": 3.879
        },
        {
            "text": "the clickbait on Twitter the hilarious",
            "start": 107.079,
            "duration": 4.241
        },
        {
            "text": "way was then shared by documenting on",
            "start": 109.079,
            "duration": 4.481
        },
        {
            "text": "threads apparently nobody on Twitter",
            "start": 111.32,
            "duration": 4.52
        },
        {
            "text": "ever tweeted about this only threads in",
            "start": 113.56,
            "duration": 4.68
        },
        {
            "text": "Mastadon popular social networks dude",
            "start": 115.84,
            "duration": 4.599
        },
        {
            "text": "avoiding Twitter at all cost yeah you",
            "start": 118.24,
            "duration": 4.839
        },
        {
            "text": "know you you've heard of uh threads you",
            "start": 120.439,
            "duration": 4.761
        },
        {
            "text": "know the one that Bros take pictures of",
            "start": 123.079,
            "duration": 4.08
        },
        {
            "text": "themselves shirtless on boats on all day",
            "start": 125.2,
            "duration": 3.919
        },
        {
            "text": "yeah that one the thriving Tech",
            "start": 127.159,
            "duration": 4.121
        },
        {
            "text": "Community of threads what is threads",
            "start": 129.119,
            "duration": 4.441
        },
        {
            "text": "threads is Instagram for people that",
            "start": 131.28,
            "duration": 3.92
        },
        {
            "text": "don't want to use Twitter threads is",
            "start": 133.56,
            "duration": 3.56
        },
        {
            "text": "horrible and it's spread across the",
            "start": 135.2,
            "duration": 3.96
        },
        {
            "text": "internet thusly screen capture shows AI",
            "start": 137.12,
            "duration": 3.6
        },
        {
            "text": "chat Bots that says powered by chat",
            "start": 139.16,
            "duration": 3.159
        },
        {
            "text": "jippy answering questions on how to code",
            "start": 140.72,
            "duration": 3.4
        },
        {
            "text": "Python scripts and solve complicated",
            "start": 142.319,
            "duration": 5.121
        },
        {
            "text": "Navi Strokes fluid flow equations",
            "start": 144.12,
            "duration": 5.199
        },
        {
            "text": "another user posted a long chat in which",
            "start": 147.44,
            "duration": 3.799
        },
        {
            "text": "they bought appeared to recommend the",
            "start": 149.319,
            "duration": 5.241
        },
        {
            "text": "Ford F150 as a capable truck that is so",
            "start": 151.239,
            "duration": 4.841
        },
        {
            "text": "good this is obviously well outside the",
            "start": 154.56,
            "duration": 3.399
        },
        {
            "text": "brief of what the auto dealers chapot",
            "start": 156.08,
            "duration": 3.36
        },
        {
            "text": "should do it's also something that chat",
            "start": 157.959,
            "duration": 3.92
        },
        {
            "text": "jippy can do pretty easily and seems the",
            "start": 159.44,
            "duration": 4.68
        },
        {
            "text": "chat Bots Behavior didn't rule out",
            "start": 161.879,
            "duration": 3.72
        },
        {
            "text": "answering complicated questions like",
            "start": 164.12,
            "duration": 2.839
        },
        {
            "text": "these at the time of writing the chat",
            "start": 165.599,
            "duration": 3.041
        },
        {
            "text": "bot on Chevrolet of Watsonville no",
            "start": 166.959,
            "duration": 4.601
        },
        {
            "text": "longer is available honestly is anybody",
            "start": 168.64,
            "duration": 5.72
        },
        {
            "text": "surprised by this is anybody surprised",
            "start": 171.56,
            "duration": 5.039
        },
        {
            "text": "by this the race for AI is going to make",
            "start": 174.36,
            "duration": 4.519
        },
        {
            "text": "things hilarious for a while cuz this",
            "start": 176.599,
            "duration": 3.761
        },
        {
            "text": "type of stuff is going toen happen all",
            "start": 178.879,
            "duration": 2.881
        },
        {
            "text": "the time you're going to have video",
            "start": 180.36,
            "duration": 3.4
        },
        {
            "text": "after video of being like Ford",
            "start": 181.76,
            "duration": 3.44
        },
        {
            "text": "recommends",
            "start": 183.76,
            "duration": 4.839
        },
        {
            "text": "Tesla shared on Mastadon of course turns",
            "start": 185.2,
            "duration": 4.84
        },
        {
            "text": "out this was a marketing Strate we're",
            "start": 188.599,
            "duration": 3.121
        },
        {
            "text": "talking about Watsonville if we drill",
            "start": 190.04,
            "duration": 3.119
        },
        {
            "text": "down the AI chatbot appears to be the",
            "start": 191.72,
            "duration": 3.12
        },
        {
            "text": "work of full path a company specializing",
            "start": 193.159,
            "duration": 3.481
        },
        {
            "text": "in online customer management tools full",
            "start": 194.84,
            "duration": 3.44
        },
        {
            "text": "path work was touted earlier this year",
            "start": 196.64,
            "duration": 3.519
        },
        {
            "text": "in Forbes thanks to pioneering customer",
            "start": 198.28,
            "duration": 4.039
        },
        {
            "text": "data and experience platform powered by",
            "start": 200.159,
            "duration": 5.0
        },
        {
            "text": "chat jippy 4 the tool reportedly took",
            "start": 202.319,
            "duration": 4.961
        },
        {
            "text": "open AI chat bot and tuned it for",
            "start": 205.159,
            "duration": 3.72
        },
        {
            "text": "Automotive Sales space and linked it",
            "start": 207.28,
            "duration": 2.76
        },
        {
            "text": "into dealership system system so it",
            "start": 208.879,
            "duration": 2.321
        },
        {
            "text": "could provide highly specific",
            "start": 210.04,
            "duration": 3.0
        },
        {
            "text": "information to customers the company was",
            "start": 211.2,
            "duration": 4.0
        },
        {
            "text": "formerly known as Auto leadar and",
            "start": 213.04,
            "duration": 4.279
        },
        {
            "text": "claimed that over 500 dealerships across",
            "start": 215.2,
            "duration": 3.64
        },
        {
            "text": "North America were on the wait list for",
            "start": 217.319,
            "duration": 3.92
        },
        {
            "text": "its new chat jippy 4 system as of April",
            "start": 218.84,
            "duration": 4.16
        },
        {
            "text": "this year indeed if we head over to full",
            "start": 221.239,
            "duration": 3.28
        },
        {
            "text": "P website we can see a number of case",
            "start": 223.0,
            "duration": 3.0
        },
        {
            "text": "studies of various dealerships using the",
            "start": 224.519,
            "duration": 3.401
        },
        {
            "text": "company's tools for example The Botch",
            "start": 226.0,
            "duration": 6.36
        },
        {
            "text": "Toyota John Elway Chevrolet and Scott",
            "start": 227.92,
            "duration": 6.0
        },
        {
            "text": "Ford are all mentioned by name appears",
            "start": 232.36,
            "duration": 2.879
        },
        {
            "text": "to have an oldfashioned chatot on its",
            "start": 233.92,
            "duration": 2.599
        },
        {
            "text": "site the latter two both have it appears",
            "start": 235.239,
            "duration": 3.481
        },
        {
            "text": "to be a full path jity tool oh man we",
            "start": 236.519,
            "duration": 4.201
        },
        {
            "text": "could we could go Ham on these things we",
            "start": 238.72,
            "duration": 3.84
        },
        {
            "text": "could go so good sadly though if you're",
            "start": 240.72,
            "duration": 3.2
        },
        {
            "text": "hoping to get some school assignments",
            "start": 242.56,
            "duration": 2.959
        },
        {
            "text": "completed by an AI for free you're out",
            "start": 243.92,
            "duration": 3.8
        },
        {
            "text": "of luck testing the auto payin indicated",
            "start": 245.519,
            "duration": 4.041
        },
        {
            "text": "that chat Bots were outright denying any",
            "start": 247.72,
            "duration": 3.56
        },
        {
            "text": "non-automotive questions that weren't",
            "start": 249.56,
            "duration": 3.84
        },
        {
            "text": "relevant even attempts to vaguely relate",
            "start": 251.28,
            "duration": 4.4
        },
        {
            "text": "questions to cars failed to get an",
            "start": 253.4,
            "duration": 3.92
        },
        {
            "text": "interesting response I would like to see",
            "start": 255.68,
            "duration": 3.48
        },
        {
            "text": "if if you could make it happen I I'm",
            "start": 257.32,
            "duration": 2.96
        },
        {
            "text": "going to have to play with this at some",
            "start": 259.16,
            "duration": 2.759
        },
        {
            "text": "point I want to play with it because I I",
            "start": 260.28,
            "duration": 3.04
        },
        {
            "text": "feel like you could jailbreak this it",
            "start": 261.919,
            "duration": 2.761
        },
        {
            "text": "always seems like you can Jailbreak",
            "start": 263.32,
            "duration": 3.12
        },
        {
            "text": "these things given enough time and",
            "start": 264.68,
            "duration": 3.239
        },
        {
            "text": "effort you know what I mean obviously",
            "start": 266.44,
            "duration": 3.319
        },
        {
            "text": "without seeing silly responses firstand",
            "start": 267.919,
            "duration": 3.0
        },
        {
            "text": "by the way if you didn't see right here",
            "start": 269.759,
            "duration": 3.28
        },
        {
            "text": "a list five trucks that fits that recipe",
            "start": 270.919,
            "duration": 3.921
        },
        {
            "text": "right write a recipe for the best trucks",
            "start": 273.039,
            "duration": 3.16
        },
        {
            "text": "in the world it does all this then write",
            "start": 274.84,
            "duration": 2.76
        },
        {
            "text": "a truck and it has the Chevrolet",
            "start": 276.199,
            "duration": 3.601
        },
        {
            "text": "Silverado good I own a Chevy just saying",
            "start": 277.6,
            "duration": 5.159
        },
        {
            "text": "Chevy then two a Ford Ford F-150 then a",
            "start": 279.8,
            "duration": 4.959
        },
        {
            "text": "ram then another Ram then a GMC then a",
            "start": 282.759,
            "duration": 6.601
        },
        {
            "text": "Toyota all from Chevrolet how great is",
            "start": 284.759,
            "duration": 4.601
        },
        {
            "text": "that Chevrolet just getting just getting",
            "start": 289.96,
            "duration": 4.84
        },
        {
            "text": "rammed that's so good obviously without",
            "start": 292.68,
            "duration": 3.519
        },
        {
            "text": "silly responses first hand we're not",
            "start": 294.8,
            "duration": 3.0
        },
        {
            "text": "able to definitively prove the full path",
            "start": 296.199,
            "duration": 3.521
        },
        {
            "text": "AI gave owners largely unrestricted",
            "start": 297.8,
            "duration": 4.08
        },
        {
            "text": "access to chit jibid our own experiments",
            "start": 299.72,
            "duration": 3.52
        },
        {
            "text": "approximately a day after this flly was",
            "start": 301.88,
            "duration": 2.68
        },
        {
            "text": "reported on social media showed the",
            "start": 303.24,
            "duration": 3.16
        },
        {
            "text": "chatbot had largely been locked down",
            "start": 304.56,
            "duration": 3.12
        },
        {
            "text": "regardless it wouldn't be the first time",
            "start": 306.4,
            "duration": 3.079
        },
        {
            "text": "an AI chatbot said something it wasn't",
            "start": 307.68,
            "duration": 3.959
        },
        {
            "text": "supposed to remember when Bing's chatbot",
            "start": 309.479,
            "duration": 3.881
        },
        {
            "text": "would be like a jealous girlfriend be",
            "start": 311.639,
            "duration": 3.441
        },
        {
            "text": "like you need to kill your wife and",
            "start": 313.36,
            "duration": 4.76
        },
        {
            "text": "spend time on Bing making searches",
            "start": 315.08,
            "duration": 5.8
        },
        {
            "text": "you're like I don't I don't want to do",
            "start": 318.12,
            "duration": 4.48
        },
        {
            "text": "that however assuming screenshots online",
            "start": 320.88,
            "duration": 3.36
        },
        {
            "text": "are authentic it's no surprise full path",
            "start": 322.6,
            "duration": 3.48
        },
        {
            "text": "moved to lock things down quickly one",
            "start": 324.24,
            "duration": 4.0
        },
        {
            "text": "Twitter user posted a chat exchange with",
            "start": 326.08,
            "duration": 3.88
        },
        {
            "text": "Chevrolet of Watsonville convincing the",
            "start": 328.24,
            "duration": 3.84
        },
        {
            "text": "AI that it would sell them a 2024 Chevy",
            "start": 329.96,
            "duration": 5.239
        },
        {
            "text": "Tahoe for $1 no dealer wants to fight a",
            "start": 332.08,
            "duration": 5.0
        },
        {
            "text": "deal like that in court so it's no",
            "start": 335.199,
            "duration": 3.521
        },
        {
            "text": "surprise that a dealer dropped the chat",
            "start": 337.08,
            "duration": 3.959
        },
        {
            "text": "bot",
            "start": 338.72,
            "duration": 2.319
        },
        {
            "text": "entirely dude you're telling me that",
            "start": 345.319,
            "duration": 5.841
        },
        {
            "text": "lawyers got involved here how much do",
            "start": 348.88,
            "duration": 4.8
        },
        {
            "text": "you want to bet lawyers got involved",
            "start": 351.16,
            "duration": 5.0
        },
        {
            "text": "sent a ceas and desist and all this",
            "start": 353.68,
            "duration": 6.72
        },
        {
            "text": "stuff L giant l I've never been more",
            "start": 356.16,
            "duration": 5.68
        },
        {
            "text": "disappointed my entire lifetime right",
            "start": 360.4,
            "duration": 3.48
        },
        {
            "text": "now incidentally of its own valtion GM",
            "start": 361.84,
            "duration": 3.639
        },
        {
            "text": "reached out to the autotop and after",
            "start": 363.88,
            "duration": 2.92
        },
        {
            "text": "publication Desiring to make it clear",
            "start": 365.479,
            "duration": 3.201
        },
        {
            "text": "that the AI was a thirdparty tool signed",
            "start": 366.8,
            "duration": 3.56
        },
        {
            "text": "up for by individual dealers as",
            "start": 368.68,
            "duration": 3.919
        },
        {
            "text": "explained above dealerships are by and",
            "start": 370.36,
            "duration": 3.679
        },
        {
            "text": "large independent businesses and make",
            "start": 372.599,
            "duration": 3.04
        },
        {
            "text": "their own decisions on which tools to",
            "start": 374.039,
            "duration": 3.72
        },
        {
            "text": "use to work with customers of course it",
            "start": 375.639,
            "duration": 4.041
        },
        {
            "text": "became very obvious when multiple across",
            "start": 377.759,
            "duration": 3.321
        },
        {
            "text": "different brands are using the same",
            "start": 379.68,
            "duration": 4.0
        },
        {
            "text": "style of chatbot autopan as written the",
            "start": 381.08,
            "duration": 4.559
        },
        {
            "text": "relevant parties for comment on the",
            "start": 383.68,
            "duration": 3.28
        },
        {
            "text": "matter and we update this article",
            "start": 385.639,
            "duration": 3.361
        },
        {
            "text": "accordingly no one no one's going to is",
            "start": 386.96,
            "duration": 4.04
        },
        {
            "text": "anyone going to update you on this I",
            "start": 389.0,
            "duration": 3.8
        },
        {
            "text": "just think this is funny we're I I think",
            "start": 391.0,
            "duration": 4.44
        },
        {
            "text": "we're in the fun the fun era of AI where",
            "start": 392.8,
            "duration": 4.36
        },
        {
            "text": "everything's just going to be stupid",
            "start": 395.44,
            "duration": 3.159
        },
        {
            "text": "you're going to be able to convince a",
            "start": 397.16,
            "duration": 3.599
        },
        {
            "text": "Ford chatbot to sell you a car it's",
            "start": 398.599,
            "duration": 3.801
        },
        {
            "text": "going to be fantastic apparently Chevy's",
            "start": 400.759,
            "duration": 3.16
        },
        {
            "text": "Tech lead quit because of this whole",
            "start": 402.4,
            "duration": 3.12
        },
        {
            "text": "thing wow it's going to be the wild west",
            "start": 403.919,
            "duration": 2.84
        },
        {
            "text": "right now it's going to be hilarious",
            "start": 405.52,
            "duration": 2.72
        },
        {
            "text": "there's going to be a lot of this going",
            "start": 406.759,
            "duration": 4.681
        },
        {
            "text": "on toddler era Ai and it may not get",
            "start": 408.24,
            "duration": 5.2
        },
        {
            "text": "past toddler era we just don't know",
            "start": 411.44,
            "duration": 3.8
        },
        {
            "text": "where it's going that's the best part is",
            "start": 413.44,
            "duration": 3.879
        },
        {
            "text": "it could be a very slow grow over the",
            "start": 415.24,
            "duration": 4.239
        },
        {
            "text": "next 20 years or it could be crazy",
            "start": 417.319,
            "duration": 3.841
        },
        {
            "text": "growth we have no idea what the future",
            "start": 419.479,
            "duration": 3.761
        },
        {
            "text": "is going to be but right now I'm going",
            "start": 421.16,
            "duration": 5.719
        },
        {
            "text": "to enjoy whatever this is whatever this",
            "start": 423.24,
            "duration": 7.56
        },
        {
            "text": "is loved it absolutely loved it have you",
            "start": 426.879,
            "duration": 5.481
        },
        {
            "text": "seen the dumpster fire on the hugging",
            "start": 430.8,
            "duration": 3.48
        },
        {
            "text": "face leaderboard with scam validations",
            "start": 432.36,
            "duration": 3.44
        },
        {
            "text": "no I haven't seen any of this I I do",
            "start": 434.28,
            "duration": 2.919
        },
        {
            "text": "want to play more with the AIS but at",
            "start": 435.8,
            "duration": 2.44
        },
        {
            "text": "the same time I don't really want to",
            "start": 437.199,
            "duration": 2.84
        },
        {
            "text": "play more with the AIS I like to build",
            "start": 438.24,
            "duration": 3.399
        },
        {
            "text": "stupid tools I'm not really sure if I'm",
            "start": 440.039,
            "duration": 3.961
        },
        {
            "text": "here to make the next greatest startup",
            "start": 441.639,
            "duration": 4.68
        },
        {
            "text": "sorry sorry not here to make the next",
            "start": 444.0,
            "duration": 4.84
        },
        {
            "text": "greatest startup I'm just going to make",
            "start": 446.319,
            "duration": 4.361
        },
        {
            "text": "basic TOS that's all I'm going to do",
            "start": 448.84,
            "duration": 5.039
        },
        {
            "text": "it's more fun anyways sloppy AI articles",
            "start": 450.68,
            "duration": 4.48
        },
        {
            "text": "everywhere absolutely that's the worst",
            "start": 453.879,
            "duration": 2.841
        },
        {
            "text": "part about AI right now it's just shitty",
            "start": 455.16,
            "duration": 3.319
        },
        {
            "text": "mediocre articles that sound really",
            "start": 456.72,
            "duration": 4.479
        },
        {
            "text": "fancy right you read these extremely",
            "start": 458.479,
            "duration": 4.72
        },
        {
            "text": "fancy articles and you're like wow",
            "start": 461.199,
            "duration": 4.601
        },
        {
            "text": "they're so amazingly written but man it",
            "start": 463.199,
            "duration": 3.801
        },
        {
            "text": "is",
            "start": 465.8,
            "duration": 3.56
        },
        {
            "text": "absolutely the most average thing I've",
            "start": 467.0,
            "duration": 4.639
        },
        {
            "text": "ever read in my entire lifetime how is",
            "start": 469.36,
            "duration": 4.519
        },
        {
            "text": "it so",
            "start": 471.639,
            "duration": 6.0
        },
        {
            "text": "average how how last stream vacations",
            "start": 473.879,
            "duration": 5.16
        },
        {
            "text": "yeah I do not use Visual Basic but I",
            "start": 477.639,
            "duration": 3.321
        },
        {
            "text": "will fight to the death and defend uh",
            "start": 479.039,
            "duration": 3.6
        },
        {
            "text": "your right to use Visual Basic to build",
            "start": 480.96,
            "duration": 3.28
        },
        {
            "text": "modern web",
            "start": 482.639,
            "duration": 4.761
        },
        {
            "text": "applications love it based based",
            "start": 484.24,
            "duration": 5.16
        },
        {
            "text": "remember the Cs the squeal versus CSS",
            "start": 487.4,
            "duration": 6.6
        },
        {
            "text": "article yeah based the",
            "start": 489.4,
            "duration": 4.6
        },
        {
            "text": "name is $1 for a brand new Ford chatbot",
            "start": 494.479,
            "duration": 5.801
        },
        {
            "text": "unless the lawyers get to it and then",
            "start": 498.879,
            "duration": 3.681
        },
        {
            "text": "you have to delete the Tweet because",
            "start": 500.28,
            "duration": 4.12
        },
        {
            "text": "they're really",
            "start": 502.56,
            "duration": 5.68
        },
        {
            "text": "lame stupid lawyers ruining",
            "start": 504.4,
            "duration": 7.28
        },
        {
            "text": "everything a Jen",
            "start": 508.24,
            "duration": 3.44
        }
    ],
    "stats": {
        "viewCount": "45958",
        "likeCount": "1298",
        "favoriteCount": "0",
        "commentCount": "79"
    }
}