{
    "id": "3JokSCmRp_s",
    "title": "Learn Programming In 10 Years",
    "publishedAt": "2023-06-08T12:37:55Z",
    "captions": [
        {
            "text": "why is everyone in such a rush hey teach",
            "start": 0.0,
            "duration": 7.14
        },
        {
            "text": "yourself programming in 10 years easy",
            "start": 3.72,
            "duration": 5.7
        },
        {
            "text": "simple straight to the point walk into",
            "start": 7.14,
            "duration": 3.66
        },
        {
            "text": "any bookstore and you'll see how to",
            "start": 9.42,
            "duration": 2.94
        },
        {
            "text": "teach yourself Java in 24 hours",
            "start": 10.8,
            "duration": 4.32
        },
        {
            "text": "alongside endless variations offering to",
            "start": 12.36,
            "duration": 5.82
        },
        {
            "text": "teach C squeal Ruby algorithms and so on",
            "start": 15.12,
            "duration": 5.579
        },
        {
            "text": "in a few days or hours the Amazon",
            "start": 18.18,
            "duration": 4.5
        },
        {
            "text": "advanced search for a title teach",
            "start": 20.699,
            "duration": 6.301
        },
        {
            "text": "yourself hours since 2000 I found 500",
            "start": 22.68,
            "duration": 7.74
        },
        {
            "text": "yeah and 12 such books what are the",
            "start": 27.0,
            "duration": 4.859
        },
        {
            "text": "chances we have a bunch of computer",
            "start": 30.42,
            "duration": 3.84
        },
        {
            "text": "books teaching you about computers and",
            "start": 31.859,
            "duration": 4.261
        },
        {
            "text": "there's two two to the nine of them I",
            "start": 34.26,
            "duration": 3.18
        },
        {
            "text": "mean it's like it's meant to be it's",
            "start": 36.12,
            "duration": 3.599
        },
        {
            "text": "meant to be of the top ten and nine are",
            "start": 37.44,
            "duration": 4.2
        },
        {
            "text": "programming books the other is an uh is",
            "start": 39.719,
            "duration": 4.5
        },
        {
            "text": "about bookkeeping oh never mind similar",
            "start": 41.64,
            "duration": 4.02
        },
        {
            "text": "results come from replacing teach",
            "start": 44.219,
            "duration": 3.36
        },
        {
            "text": "yourself with learn or hours or days",
            "start": 45.66,
            "duration": 4.26
        },
        {
            "text": "okay so hey by the way as someone who",
            "start": 47.579,
            "duration": 3.601
        },
        {
            "text": "struggled to learn their first",
            "start": 49.92,
            "duration": 3.119
        },
        {
            "text": "programming language",
            "start": 51.18,
            "duration": 4.199
        },
        {
            "text": "I always felt stupid",
            "start": 53.039,
            "duration": 3.721
        },
        {
            "text": "because",
            "start": 55.379,
            "duration": 3.241
        },
        {
            "text": "it was always just like it's so simple",
            "start": 56.76,
            "duration": 3.959
        },
        {
            "text": "just do this and then I never felt that",
            "start": 58.62,
            "duration": 4.619
        },
        {
            "text": "I just I just felt simple afterwards you",
            "start": 60.719,
            "duration": 4.02
        },
        {
            "text": "know what I mean like I felt like the",
            "start": 63.239,
            "duration": 2.821
        },
        {
            "text": "simple one",
            "start": 64.739,
            "duration": 3.361
        },
        {
            "text": "and it just made me feel horrible about",
            "start": 66.06,
            "duration": 4.14
        },
        {
            "text": "myself you know what I mean I I",
            "start": 68.1,
            "duration": 3.48
        },
        {
            "text": "struggled to learn programming the first",
            "start": 70.2,
            "duration": 4.02
        },
        {
            "text": "time I genuinely struggled to learn",
            "start": 71.58,
            "duration": 4.2
        },
        {
            "text": "programming the first time the",
            "start": 74.22,
            "duration": 3.719
        },
        {
            "text": "conclusion is that either people are in",
            "start": 75.78,
            "duration": 4.14
        },
        {
            "text": "a big rush to learn about programming or",
            "start": 77.939,
            "duration": 3.961
        },
        {
            "text": "that programming is somehow fabulously",
            "start": 79.92,
            "duration": 6.5
        },
        {
            "text": "easier to learn than anything else uh",
            "start": 81.9,
            "duration": 7.5
        },
        {
            "text": "give a nod to this trend in their book",
            "start": 86.42,
            "duration": 5.199
        },
        {
            "text": "how to design programs where they say",
            "start": 89.4,
            "duration": 4.62
        },
        {
            "text": "bad programming is easy idiots can learn",
            "start": 91.619,
            "duration": 4.801
        },
        {
            "text": "uh it in 21 days even if they are",
            "start": 94.02,
            "duration": 4.32
        },
        {
            "text": "dummies",
            "start": 96.42,
            "duration": 4.32
        },
        {
            "text": "well I mean that's what an idiot is it's",
            "start": 98.34,
            "duration": 4.62
        },
        {
            "text": "kind of a redundant statement even",
            "start": 100.74,
            "duration": 6.059
        },
        {
            "text": "idiots can learn it if they're a dummy",
            "start": 102.96,
            "duration": 7.68
        },
        {
            "text": "the OB truce obtrus Goose comic also had",
            "start": 106.799,
            "duration": 5.82
        },
        {
            "text": "their take let's analyze what the title",
            "start": 110.64,
            "duration": 4.019
        },
        {
            "text": "teach yourself C plus in 24 hours could",
            "start": 112.619,
            "duration": 4.5
        },
        {
            "text": "mean teach yourself in 24 hours you",
            "start": 114.659,
            "duration": 4.081
        },
        {
            "text": "won't have time to write several",
            "start": 117.119,
            "duration": 3.601
        },
        {
            "text": "significant programs and learn from your",
            "start": 118.74,
            "duration": 3.78
        },
        {
            "text": "successes and failures with them you",
            "start": 120.72,
            "duration": 3.24
        },
        {
            "text": "won't have time to work with an",
            "start": 122.52,
            "duration": 3.239
        },
        {
            "text": "experienced programmer to unders I",
            "start": 123.96,
            "duration": 4.32
        },
        {
            "text": "forgot that turn off alerts",
            "start": 125.759,
            "duration": 4.741
        },
        {
            "text": "every time",
            "start": 128.28,
            "duration": 4.86
        },
        {
            "text": "uh you won't have time to work with an",
            "start": 130.5,
            "duration": 3.9
        },
        {
            "text": "experienced programmer and understand",
            "start": 133.14,
            "duration": 3.179
        },
        {
            "text": "what it is like to live in a c plus",
            "start": 134.4,
            "duration": 4.5
        },
        {
            "text": "environment oh hell you mean",
            "start": 136.319,
            "duration": 4.621
        },
        {
            "text": "um in short you won't have time to learn",
            "start": 138.9,
            "duration": 3.839
        },
        {
            "text": "much so the book can only be talking",
            "start": 140.94,
            "duration": 3.96
        },
        {
            "text": "about superficial familiarity not deep",
            "start": 142.739,
            "duration": 5.341
        },
        {
            "text": "understanding as Alexander Pope said a",
            "start": 144.9,
            "duration": 6.62
        },
        {
            "text": "little learning is a dangerous thing",
            "start": 148.08,
            "duration": 3.44
        },
        {
            "text": "dummies are like newbies idiots are",
            "start": 151.739,
            "duration": 4.441
        },
        {
            "text": "something else whose meaning evolved",
            "start": 154.319,
            "duration": 4.621
        },
        {
            "text": "over time yes this is true replace h and",
            "start": 156.18,
            "duration": 5.88
        },
        {
            "text": "y I'm not no I don't play that game C",
            "start": 158.94,
            "duration": 5.1
        },
        {
            "text": "plus plus in 24 hours you might be able",
            "start": 162.06,
            "duration": 3.6
        },
        {
            "text": "to learn some of the syntax of C plus",
            "start": 164.04,
            "duration": 2.58
        },
        {
            "text": "plus if you already know another",
            "start": 165.66,
            "duration": 2.579
        },
        {
            "text": "language but you couldn't learn as much",
            "start": 166.62,
            "duration": 3.78
        },
        {
            "text": "about how to use the language in short",
            "start": 168.239,
            "duration": 4.86
        },
        {
            "text": "if you were say a basic programmer you",
            "start": 170.4,
            "duration": 4.199
        },
        {
            "text": "could learn to write such programs in",
            "start": 173.099,
            "duration": 3.661
        },
        {
            "text": "the style of basic using C plus syntax",
            "start": 174.599,
            "duration": 4.5
        },
        {
            "text": "but you couldn't learn what C plus is",
            "start": 176.76,
            "duration": 5.46
        },
        {
            "text": "actually good or and bad for so what's",
            "start": 179.099,
            "duration": 6.241
        },
        {
            "text": "the point Alan Perlis once said a",
            "start": 182.22,
            "duration": 4.86
        },
        {
            "text": "language that doesn't affect the way you",
            "start": 185.34,
            "duration": 3.36
        },
        {
            "text": "think about programming is not worth",
            "start": 187.08,
            "duration": 3.84
        },
        {
            "text": "knowing oh",
            "start": 188.7,
            "duration": 6.179
        },
        {
            "text": "that's a great statement",
            "start": 190.92,
            "duration": 6.179
        },
        {
            "text": "that's a good statement Mark that one in",
            "start": 194.879,
            "duration": 4.561
        },
        {
            "text": "your books boys and girls",
            "start": 197.099,
            "duration": 4.741
        },
        {
            "text": "it's a good one right there it's a good",
            "start": 199.44,
            "duration": 4.98
        },
        {
            "text": "one that is a good take",
            "start": 201.84,
            "duration": 4.5
        },
        {
            "text": "um one possible point is that you have",
            "start": 204.42,
            "duration": 4.2
        },
        {
            "text": "to learn a tiny bit of C plus or more",
            "start": 206.34,
            "duration": 3.96
        },
        {
            "text": "likely something like JavaScript or",
            "start": 208.62,
            "duration": 3.3
        },
        {
            "text": "pre-processing I don't know what that is",
            "start": 210.3,
            "duration": 2.939
        },
        {
            "text": "I don't know what pre-processing is",
            "start": 211.92,
            "duration": 2.94
        },
        {
            "text": "because you need to interface with an",
            "start": 213.239,
            "duration": 3.301
        },
        {
            "text": "existing tool to accomplish a specific",
            "start": 214.86,
            "duration": 4.08
        },
        {
            "text": "task but then you're not learning how to",
            "start": 216.54,
            "duration": 3.6
        },
        {
            "text": "program you're learning how to",
            "start": 218.94,
            "duration": 3.54
        },
        {
            "text": "accomplish that specific task yes in 24",
            "start": 220.14,
            "duration": 4.5
        },
        {
            "text": "hours unfortunately this is not enough",
            "start": 222.48,
            "duration": 4.08
        },
        {
            "text": "as the next section shows okay here we",
            "start": 224.64,
            "duration": 3.959
        },
        {
            "text": "go teach yourself programming 10 years",
            "start": 226.56,
            "duration": 3.66
        },
        {
            "text": "I'm actually kind of I'm actually kind",
            "start": 228.599,
            "duration": 3.181
        },
        {
            "text": "of excited about this and yes JavaScript",
            "start": 230.22,
            "duration": 3.12
        },
        {
            "text": "does destroy your brain because it takes",
            "start": 231.78,
            "duration": 3.12
        },
        {
            "text": "away a lot of basic programming",
            "start": 233.34,
            "duration": 3.959
        },
        {
            "text": "fundamentals and replaces it with ease",
            "start": 234.9,
            "duration": 3.6
        },
        {
            "text": "which is a good thing right there's",
            "start": 237.299,
            "duration": 2.281
        },
        {
            "text": "plenty of good reasons to like",
            "start": 238.5,
            "duration": 2.459
        },
        {
            "text": "JavaScript but there's plenty of bad",
            "start": 239.58,
            "duration": 3.96
        },
        {
            "text": "reasons about JavaScript as well",
            "start": 240.959,
            "duration": 3.78
        },
        {
            "text": "um so this is actually really exciting",
            "start": 243.54,
            "duration": 3.119
        },
        {
            "text": "I'm actually curious what this all means",
            "start": 244.739,
            "duration": 3.92
        },
        {
            "text": "right researchers",
            "start": 246.659,
            "duration": 4.44
        },
        {
            "text": "have shown it takes about 10 years to",
            "start": 248.659,
            "duration": 4.36
        },
        {
            "text": "develop expertise in any of the wide",
            "start": 251.099,
            "duration": 3.72
        },
        {
            "text": "variety of areas including chess playing",
            "start": 253.019,
            "duration": 4.62
        },
        {
            "text": "music composition Telegraph operation",
            "start": 254.819,
            "duration": 5.64
        },
        {
            "text": "painting piano playing swimming tennis",
            "start": 257.639,
            "duration": 5.701
        },
        {
            "text": "and research in near uh neuropsychology",
            "start": 260.459,
            "duration": 5.641
        },
        {
            "text": "and topology the key is deliberative",
            "start": 263.34,
            "duration": 4.139
        },
        {
            "text": "practice",
            "start": 266.1,
            "duration": 3.599
        },
        {
            "text": "yeah not just doing it let's see not",
            "start": 267.479,
            "duration": 3.541
        },
        {
            "text": "just doing it again and again but",
            "start": 269.699,
            "duration": 2.821
        },
        {
            "text": "challenging yourself with the task that",
            "start": 271.02,
            "duration": 2.88
        },
        {
            "text": "is just beyond your current ability",
            "start": 272.52,
            "duration": 3.119
        },
        {
            "text": "trying it analyzing your performance",
            "start": 273.9,
            "duration": 4.2
        },
        {
            "text": "while and after doing it and correcting",
            "start": 275.639,
            "duration": 4.56
        },
        {
            "text": "any mistake then repeat and repeat again",
            "start": 278.1,
            "duration": 4.5
        },
        {
            "text": "and let's see there appears to be no",
            "start": 280.199,
            "duration": 4.681
        },
        {
            "text": "real shortcuts even Mozart who was",
            "start": 282.6,
            "duration": 3.9
        },
        {
            "text": "musically a prodigy at the age of four",
            "start": 284.88,
            "duration": 3.599
        },
        {
            "text": "took 13 more years before he began to",
            "start": 286.5,
            "duration": 3.84
        },
        {
            "text": "produce world-class music in another",
            "start": 288.479,
            "duration": 3.841
        },
        {
            "text": "genre The Beatles seems to burst onto",
            "start": 290.34,
            "duration": 4.079
        },
        {
            "text": "the scene with uh a string of number one",
            "start": 292.32,
            "duration": 4.2
        },
        {
            "text": "hits and appearance on the Ed Sullivan",
            "start": 294.419,
            "duration": 5.101
        },
        {
            "text": "Show in 1964 but they had been a playing",
            "start": 296.52,
            "duration": 4.98
        },
        {
            "text": "small clubs in Liverpool and Hamburg",
            "start": 299.52,
            "duration": 4.619
        },
        {
            "text": "since 1957 and while they had Mass",
            "start": 301.5,
            "duration": 4.259
        },
        {
            "text": "Appeal early on their first great",
            "start": 304.139,
            "duration": 3.241
        },
        {
            "text": "critical success Sergeant Pepper's",
            "start": 305.759,
            "duration": 3.72
        },
        {
            "text": "Lonely Hearts Club Band was released in",
            "start": 307.38,
            "duration": 5.099
        },
        {
            "text": "1967 after everybody got done burning",
            "start": 309.479,
            "duration": 4.981
        },
        {
            "text": "their CDs publicly and they did one of",
            "start": 312.479,
            "duration": 4.44
        },
        {
            "text": "the first musical breakdowns in pop",
            "start": 314.46,
            "duration": 5.22
        },
        {
            "text": "music ever with Lucy in the Sky with",
            "start": 316.919,
            "duration": 6.421
        },
        {
            "text": "Diamonds beautiful beautiful album right",
            "start": 319.68,
            "duration": 4.859
        },
        {
            "text": "there if you haven't listened to it if",
            "start": 323.34,
            "duration": 2.46
        },
        {
            "text": "you haven't taken the time it's a good",
            "start": 324.539,
            "duration": 2.581
        },
        {
            "text": "album it's a good album",
            "start": 325.8,
            "duration": 2.7
        },
        {
            "text": "okay",
            "start": 327.12,
            "duration": 2.94
        },
        {
            "text": "um",
            "start": 328.5,
            "duration": 2.759
        },
        {
            "text": "no but this is actually really",
            "start": 330.06,
            "duration": 3.0
        },
        {
            "text": "interesting because",
            "start": 331.259,
            "duration": 5.301
        },
        {
            "text": "this is just one of those things like",
            "start": 333.06,
            "duration": 3.5
        },
        {
            "text": "I feel like programming is not looked at",
            "start": 337.02,
            "duration": 4.98
        },
        {
            "text": "like any other activity do you know what",
            "start": 339.419,
            "duration": 4.201
        },
        {
            "text": "I mean a lot of people look at",
            "start": 342.0,
            "duration": 3.12
        },
        {
            "text": "programming like it's some sort of job",
            "start": 343.62,
            "duration": 3.96
        },
        {
            "text": "you go in you go out you got to learn",
            "start": 345.12,
            "duration": 4.98
        },
        {
            "text": "some Basics and that's that whereas",
            "start": 347.58,
            "duration": 4.559
        },
        {
            "text": "like if you look at it as more of like",
            "start": 350.1,
            "duration": 3.599
        },
        {
            "text": "an activity like if you're trying to get",
            "start": 352.139,
            "duration": 3.421
        },
        {
            "text": "good at golf if you're trying to get",
            "start": 353.699,
            "duration": 4.381
        },
        {
            "text": "good at something you don't just go and",
            "start": 355.56,
            "duration": 4.44
        },
        {
            "text": "do it right that's how you know you",
            "start": 358.08,
            "duration": 4.32
        },
        {
            "text": "don't get any better right you don't you",
            "start": 360.0,
            "duration": 4.44
        },
        {
            "text": "you have to be intentional about it",
            "start": 362.4,
            "duration": 5.34
        },
        {
            "text": "right you have to actually engage in the",
            "start": 364.44,
            "duration": 5.819
        },
        {
            "text": "theory of it to become better about it",
            "start": 367.74,
            "duration": 4.44
        },
        {
            "text": "and so I think it's really interesting",
            "start": 370.259,
            "duration": 3.361
        },
        {
            "text": "that",
            "start": 372.18,
            "duration": 3.06
        },
        {
            "text": "that this exists this whole 10 years",
            "start": 373.62,
            "duration": 3.24
        },
        {
            "text": "thing I think it's also kind of",
            "start": 375.24,
            "duration": 2.88
        },
        {
            "text": "interesting that you need about 10 years",
            "start": 376.86,
            "duration": 2.82
        },
        {
            "text": "to become an expert in it which is",
            "start": 378.12,
            "duration": 3.359
        },
        {
            "text": "totally buyable but to become very",
            "start": 379.68,
            "duration": 3.42
        },
        {
            "text": "practically good at something you",
            "start": 381.479,
            "duration": 2.94
        },
        {
            "text": "probably need like what four years to",
            "start": 383.1,
            "duration": 3.24
        },
        {
            "text": "become good right and you don't need to",
            "start": 384.419,
            "duration": 4.021
        },
        {
            "text": "be the best right you don't need to be a",
            "start": 386.34,
            "duration": 3.78
        },
        {
            "text": "world-class expert and that's something",
            "start": 388.44,
            "duration": 3.06
        },
        {
            "text": "that you know I've been trying to drive",
            "start": 390.12,
            "duration": 4.74
        },
        {
            "text": "home as well which is you have to choose",
            "start": 391.5,
            "duration": 5.94
        },
        {
            "text": "how good you want to be at something and",
            "start": 394.86,
            "duration": 4.14
        },
        {
            "text": "so",
            "start": 397.44,
            "duration": 4.259
        },
        {
            "text": "there is definitely a a plateau but the",
            "start": 399.0,
            "duration": 4.139
        },
        {
            "text": "but what I see a lot especially with",
            "start": 401.699,
            "duration": 3.421
        },
        {
            "text": "programming is people get good",
            "start": 403.139,
            "duration": 4.021
        },
        {
            "text": "then they hit the plateau they're good",
            "start": 405.12,
            "duration": 4.019
        },
        {
            "text": "and then they just ride their Laurels",
            "start": 407.16,
            "duration": 3.539
        },
        {
            "text": "all the way to the end to where they're",
            "start": 409.139,
            "duration": 2.821
        },
        {
            "text": "no longer good and they're kind of just",
            "start": 410.699,
            "duration": 4.201
        },
        {
            "text": "committing crap right and you see this",
            "start": 411.96,
            "duration": 4.92
        },
        {
            "text": "all the time it's because there's like",
            "start": 414.9,
            "duration": 4.5
        },
        {
            "text": "this weird sense with programming that's",
            "start": 416.88,
            "duration": 4.86
        },
        {
            "text": "just different than other sports because",
            "start": 419.4,
            "duration": 3.9
        },
        {
            "text": "there's not like a direct measurement",
            "start": 421.74,
            "duration": 4.38
        },
        {
            "text": "you can't just look at a singular day's",
            "start": 423.3,
            "duration": 4.86
        },
        {
            "text": "worth of work and be like oh he's a good",
            "start": 426.12,
            "duration": 3.419
        },
        {
            "text": "or bad programmer no instead you'd be",
            "start": 428.16,
            "duration": 3.24
        },
        {
            "text": "like well that's code this is this",
            "start": 429.539,
            "duration": 4.201
        },
        {
            "text": "is great code okay you know how many",
            "start": 431.4,
            "duration": 3.84
        },
        {
            "text": "days do you have code versus how",
            "start": 433.74,
            "duration": 2.94
        },
        {
            "text": "many days do you have good code",
            "start": 435.24,
            "duration": 3.959
        },
        {
            "text": "uh like other sports exactly like other",
            "start": 436.68,
            "duration": 4.68
        },
        {
            "text": "Sports Programming classic sport I I",
            "start": 439.199,
            "duration": 4.44
        },
        {
            "text": "fear to call it a sport but it it does",
            "start": 441.36,
            "duration": 5.399
        },
        {
            "text": "share Akin a lot of uh sports or music",
            "start": 443.639,
            "duration": 5.221
        },
        {
            "text": "like things where it requires consistent",
            "start": 446.759,
            "duration": 4.021
        },
        {
            "text": "practice to become good at it right a",
            "start": 448.86,
            "duration": 2.7
        },
        {
            "text": "skill",
            "start": 450.78,
            "duration": 3.24
        },
        {
            "text": "uh MMR there's an MMR somewhere in there",
            "start": 451.56,
            "duration": 4.5
        },
        {
            "text": "there's some hidden MMR right you have",
            "start": 454.02,
            "duration": 4.079
        },
        {
            "text": "to stay sharp yeah let's see Malcolm",
            "start": 456.06,
            "duration": 3.539
        },
        {
            "text": "Gladwell has popularized the idea",
            "start": 458.099,
            "duration": 3.6
        },
        {
            "text": "although he concentrates on Ten Thousand",
            "start": 459.599,
            "duration": 4.141
        },
        {
            "text": "hours not 10 years I actually prefer 10",
            "start": 461.699,
            "duration": 2.881
        },
        {
            "text": "000 hours",
            "start": 463.74,
            "duration": 3.84
        },
        {
            "text": "because there is a shortcut to 10 years",
            "start": 464.58,
            "duration": 6.119
        },
        {
            "text": "just the shortcuts ten thousand hours",
            "start": 467.58,
            "duration": 4.679
        },
        {
            "text": "that's just full time for five years",
            "start": 470.699,
            "duration": 4.141
        },
        {
            "text": "that's all it is full time five years",
            "start": 472.259,
            "duration": 4.801
        },
        {
            "text": "you got it right",
            "start": 474.84,
            "duration": 3.859
        },
        {
            "text": "um Henry",
            "start": 477.06,
            "duration": 5.16
        },
        {
            "text": "uh 1908 to 2004 had another metric your",
            "start": 478.699,
            "duration": 5.56
        },
        {
            "text": "first 10 000 photographs are your worst",
            "start": 482.22,
            "duration": 4.199
        },
        {
            "text": "he didn't anticipate that with digital",
            "start": 484.259,
            "duration": 3.78
        },
        {
            "text": "cameras some people can reach that Mark",
            "start": 486.419,
            "duration": 4.62
        },
        {
            "text": "in a week true expertise may take a",
            "start": 488.039,
            "duration": 4.921
        },
        {
            "text": "lifetime Samuel Johnson wow he's like",
            "start": 491.039,
            "duration": 3.72
        },
        {
            "text": "citing everything here said excellence",
            "start": 492.96,
            "duration": 3.66
        },
        {
            "text": "in any Department can be obtained only",
            "start": 494.759,
            "duration": 4.56
        },
        {
            "text": "by the labor of a lifetime it is not to",
            "start": 496.62,
            "duration": 5.16
        },
        {
            "text": "be purchased at the Lesser at a lesser",
            "start": 499.319,
            "duration": 3.961
        },
        {
            "text": "price oh",
            "start": 501.78,
            "duration": 5.52
        },
        {
            "text": "oh oh Samuel",
            "start": 503.28,
            "duration": 7.02
        },
        {
            "text": "mule that is such a good quote oh my",
            "start": 507.3,
            "duration": 4.14
        },
        {
            "text": "goodness I don't know how to say this",
            "start": 510.3,
            "duration": 2.9
        },
        {
            "text": "person's name",
            "start": 511.44,
            "duration": 5.519
        },
        {
            "text": "uh complained the life is so short the",
            "start": 513.2,
            "duration": 6.639
        },
        {
            "text": "craft so long to learn this guy reads",
            "start": 516.959,
            "duration": 6.14
        },
        {
            "text": "this guy reads",
            "start": 519.839,
            "duration": 3.26
        },
        {
            "text": "uh let's see uh let's see",
            "start": 523.14,
            "duration": 3.86
        },
        {
            "text": "oh which is part of a longer quotation",
            "start": 528.839,
            "duration": 4.761
        },
        {
            "text": "ours longer invite the bravest Ocasio",
            "start": 530.94,
            "duration": 6.68
        },
        {
            "text": "precepts experimentum pre Colosseum",
            "start": 533.6,
            "duration": 6.9
        },
        {
            "text": "indexium",
            "start": 537.62,
            "duration": 5.62
        },
        {
            "text": "which in English renders life is short",
            "start": 540.5,
            "duration": 5.32
        },
        {
            "text": "the craft is long opportunities fleeting",
            "start": 543.24,
            "duration": 4.44
        },
        {
            "text": "experiment treacherous judgment",
            "start": 545.82,
            "duration": 4.019
        },
        {
            "text": "difficult",
            "start": 547.68,
            "duration": 4.26
        },
        {
            "text": "wow I'm sorry but I love these clothes",
            "start": 549.839,
            "duration": 4.201
        },
        {
            "text": "these are beautiful okay these are",
            "start": 551.94,
            "duration": 3.72
        },
        {
            "text": "beautiful quotes that sound like Harry",
            "start": 554.04,
            "duration": 2.76
        },
        {
            "text": "Potter I just did a little Harry Potter",
            "start": 555.66,
            "duration": 2.94
        },
        {
            "text": "not a big deal what a big not a big deal",
            "start": 556.8,
            "duration": 4.44
        },
        {
            "text": "NBD uh of course no single number can be",
            "start": 558.6,
            "duration": 4.679
        },
        {
            "text": "the final answer it doesn't seem",
            "start": 561.24,
            "duration": 4.26
        },
        {
            "text": "reasonable to assume that all skills IG",
            "start": 563.279,
            "duration": 5.101
        },
        {
            "text": "our EG programming chess playing uh",
            "start": 565.5,
            "duration": 5.04
        },
        {
            "text": "Checkers playing and music playing could",
            "start": 568.38,
            "duration": 4.44
        },
        {
            "text": "all be recorded exact exactly the same",
            "start": 570.54,
            "duration": 4.44
        },
        {
            "text": "amount of time to master nor that all",
            "start": 572.82,
            "duration": 3.6
        },
        {
            "text": "people will take exactly the same amount",
            "start": 574.98,
            "duration": 4.26
        },
        {
            "text": "of time as Professor K Anders Erickson",
            "start": 576.42,
            "duration": 4.919
        },
        {
            "text": "puts it in most domains it's remarkable",
            "start": 579.24,
            "duration": 3.96
        },
        {
            "text": "how much time even the most talented",
            "start": 581.339,
            "duration": 3.601
        },
        {
            "text": "individuals need in order to reach the",
            "start": 583.2,
            "duration": 3.96
        },
        {
            "text": "highest levels of performance the 10 000",
            "start": 584.94,
            "duration": 5.519
        },
        {
            "text": "hour number just gives you a sense that",
            "start": 587.16,
            "duration": 5.88
        },
        {
            "text": "we're taking years of 10 to 20 hours a",
            "start": 590.459,
            "duration": 6.421
        },
        {
            "text": "week which uh which those who uh who",
            "start": 593.04,
            "duration": 5.4
        },
        {
            "text": "some people would argue are the most",
            "start": 596.88,
            "duration": 3.48
        },
        {
            "text": "innately talented individuals still need",
            "start": 598.44,
            "duration": 5.06
        },
        {
            "text": "to get to the highest level",
            "start": 600.36,
            "duration": 3.14
        },
        {
            "text": "this is great this is a great article so",
            "start": 603.8,
            "duration": 5.2
        },
        {
            "text": "far I'm actually loving this article I",
            "start": 607.019,
            "duration": 3.361
        },
        {
            "text": "don't know about you guys but I love",
            "start": 609.0,
            "duration": 2.94
        },
        {
            "text": "reading any article that makes me feel",
            "start": 610.38,
            "duration": 3.66
        },
        {
            "text": "smarter than I am this article is doing",
            "start": 611.94,
            "duration": 3.24
        },
        {
            "text": "it okay",
            "start": 614.04,
            "duration": 3.78
        },
        {
            "text": "loving it uh here's my recipe for",
            "start": 615.18,
            "duration": 4.62
        },
        {
            "text": "programming success get interested in a",
            "start": 617.82,
            "duration": 4.56
        },
        {
            "text": "program in programming to do some uh",
            "start": 619.8,
            "duration": 4.56
        },
        {
            "text": "because it's fun make sure that it keeps",
            "start": 622.38,
            "duration": 3.959
        },
        {
            "text": "being enough fun so that you'll be",
            "start": 624.36,
            "duration": 4.14
        },
        {
            "text": "willing to put in your 10-year slash 10",
            "start": 626.339,
            "duration": 4.401
        },
        {
            "text": "000 hours",
            "start": 628.5,
            "duration": 2.24
        },
        {
            "text": "is this not my mantra",
            "start": 630.779,
            "duration": 5.761
        },
        {
            "text": "is this not my mantra",
            "start": 633.12,
            "duration": 4.98
        },
        {
            "text": "right here",
            "start": 636.54,
            "duration": 3.18
        },
        {
            "text": "is this not it",
            "start": 638.1,
            "duration": 3.84
        },
        {
            "text": "uh program the best kind of learning is",
            "start": 639.72,
            "duration": 4.26
        },
        {
            "text": "learning by doing yes I like to say the",
            "start": 641.94,
            "duration": 3.54
        },
        {
            "text": "phrase learn with your hands now with",
            "start": 643.98,
            "duration": 3.66
        },
        {
            "text": "your eyes uh to put it more technically",
            "start": 645.48,
            "duration": 4.14
        },
        {
            "text": "the maximum level of performance for",
            "start": 647.64,
            "duration": 4.02
        },
        {
            "text": "individuals in a given domain is not",
            "start": 649.62,
            "duration": 4.02
        },
        {
            "text": "attained automatically as a function of",
            "start": 651.66,
            "duration": 3.78
        },
        {
            "text": "extended experience but the level of",
            "start": 653.64,
            "duration": 3.36
        },
        {
            "text": "performance can be increased even by",
            "start": 655.44,
            "duration": 3.06
        },
        {
            "text": "highly experienced individuals as a",
            "start": 657.0,
            "duration": 3.12
        },
        {
            "text": "result of deliberate efforts to improve",
            "start": 658.5,
            "duration": 4.44
        },
        {
            "text": "let's go",
            "start": 660.12,
            "duration": 4.32
        },
        {
            "text": "where can I find that article I'll link",
            "start": 662.94,
            "duration": 3.839
        },
        {
            "text": "it I'll link it uh and the most",
            "start": 664.44,
            "duration": 3.72
        },
        {
            "text": "effective learning requires a",
            "start": 666.779,
            "duration": 3.12
        },
        {
            "text": "well-defined task with an appropriate",
            "start": 668.16,
            "duration": 3.359
        },
        {
            "text": "difficulty level for the particular",
            "start": 669.899,
            "duration": 3.781
        },
        {
            "text": "individual informative feedback and",
            "start": 671.519,
            "duration": 3.721
        },
        {
            "text": "opportunities for repetition and",
            "start": 673.68,
            "duration": 3.36
        },
        {
            "text": "correctness of errors or correction of",
            "start": 675.24,
            "duration": 3.96
        },
        {
            "text": "Errors so when it comes to programming",
            "start": 677.04,
            "duration": 3.479
        },
        {
            "text": "this is actually a really difficult one",
            "start": 679.2,
            "duration": 3.079
        },
        {
            "text": "so like reading this one specifically",
            "start": 680.519,
            "duration": 4.681
        },
        {
            "text": "informative feedback and correction of",
            "start": 682.279,
            "duration": 5.081
        },
        {
            "text": "Errors is really hard in programming",
            "start": 685.2,
            "duration": 3.96
        },
        {
            "text": "because how do you know you're doing the",
            "start": 687.36,
            "duration": 3.659
        },
        {
            "text": "wrong thing how do you know that what",
            "start": 689.16,
            "duration": 5.179
        },
        {
            "text": "you built is bad",
            "start": 691.019,
            "duration": 3.32
        },
        {
            "text": "that that's it's a it's a great it's a",
            "start": 694.92,
            "duration": 4.26
        },
        {
            "text": "great thing to think about one thing",
            "start": 697.44,
            "duration": 3.54
        },
        {
            "text": "that for me how I kind of measure my",
            "start": 699.18,
            "duration": 5.279
        },
        {
            "text": "success in programming",
            "start": 700.98,
            "duration": 6.419
        },
        {
            "text": "is I will build something as fast I can",
            "start": 704.459,
            "duration": 5.161
        },
        {
            "text": "purely on a gut feel right",
            "start": 707.399,
            "duration": 5.041
        },
        {
            "text": "like I purely go on a gut field and I'll",
            "start": 709.62,
            "duration": 5.1
        },
        {
            "text": "build out something and then I will",
            "start": 712.44,
            "duration": 4.56
        },
        {
            "text": "change some of the requirements and see",
            "start": 714.72,
            "duration": 4.679
        },
        {
            "text": "just how well does my program expand did",
            "start": 717.0,
            "duration": 3.899
        },
        {
            "text": "I write things in a sense that just",
            "start": 719.399,
            "duration": 4.021
        },
        {
            "text": "makes it easier to expand or did I write",
            "start": 720.899,
            "duration": 3.841
        },
        {
            "text": "them in some kind of way that's more",
            "start": 723.42,
            "duration": 4.8
        },
        {
            "text": "spaghetti-like right uh and so I find",
            "start": 724.74,
            "duration": 5.76
        },
        {
            "text": "that that's usually where I really know",
            "start": 728.22,
            "duration": 4.02
        },
        {
            "text": "if my ideas were good or bad and",
            "start": 730.5,
            "duration": 4.019
        },
        {
            "text": "sometimes the ideas are mostly good it's",
            "start": 732.24,
            "duration": 4.56
        },
        {
            "text": "just a little bit of bad right how hard",
            "start": 734.519,
            "duration": 4.5
        },
        {
            "text": "is it to refactor exactly so",
            "start": 736.8,
            "duration": 3.599
        },
        {
            "text": "unfortunately a lot of these things when",
            "start": 739.019,
            "duration": 3.361
        },
        {
            "text": "it comes to program their rear view",
            "start": 740.399,
            "duration": 4.921
        },
        {
            "text": "mirror feedback mechanisms so you can",
            "start": 742.38,
            "duration": 4.44
        },
        {
            "text": "only know that you've done something",
            "start": 745.32,
            "duration": 3.959
        },
        {
            "text": "good or bad by coming back to it later",
            "start": 746.82,
            "duration": 4.199
        },
        {
            "text": "on and having to do something different",
            "start": 749.279,
            "duration": 4.8
        },
        {
            "text": "to it right that's like and so that I",
            "start": 751.019,
            "duration": 5.461
        },
        {
            "text": "find that to be very very hard it's a",
            "start": 754.079,
            "duration": 4.561
        },
        {
            "text": "very hard thing to measure uh talk with",
            "start": 756.48,
            "duration": 4.02
        },
        {
            "text": "other programmers read other programs by",
            "start": 758.64,
            "duration": 3.48
        },
        {
            "text": "the way you guys are so smart I want to",
            "start": 760.5,
            "duration": 3.36
        },
        {
            "text": "let everyone know right here Grizzly how",
            "start": 762.12,
            "duration": 4.019
        },
        {
            "text": "you doing but do you have to get uh do",
            "start": 763.86,
            "duration": 3.779
        },
        {
            "text": "you have a good gut you gotta have a",
            "start": 766.139,
            "duration": 3.121
        },
        {
            "text": "good gut you should you should learn how",
            "start": 767.639,
            "duration": 3.901
        },
        {
            "text": "to develop good gut but real talk you",
            "start": 769.26,
            "duration": 4.139
        },
        {
            "text": "people the reason why I don't have much",
            "start": 771.54,
            "duration": 3.599
        },
        {
            "text": "of a problem recommending people from",
            "start": 773.399,
            "duration": 4.44
        },
        {
            "text": "twitch to companies is because you guys",
            "start": 775.139,
            "duration": 5.041
        },
        {
            "text": "are living the culture right you're",
            "start": 777.839,
            "duration": 4.021
        },
        {
            "text": "engaging with it you're actually doing",
            "start": 780.18,
            "duration": 3.659
        },
        {
            "text": "something uh there's so many people that",
            "start": 781.86,
            "duration": 3.24
        },
        {
            "text": "no I don't think you're smart I think",
            "start": 783.839,
            "duration": 2.521
        },
        {
            "text": "you're a bunch of degenerate",
            "start": 785.1,
            "duration": 5.039
        },
        {
            "text": "but here's the deal you guys also uh",
            "start": 786.36,
            "duration": 7.14
        },
        {
            "text": "thank you bash buddy but I I don't bash",
            "start": 790.139,
            "duration": 4.681
        },
        {
            "text": "money you're not an you're great",
            "start": 793.5,
            "duration": 4.74
        },
        {
            "text": "uh everybody else um",
            "start": 794.82,
            "duration": 5.1
        },
        {
            "text": "but it's real talk like you guys are",
            "start": 798.24,
            "duration": 4.26
        },
        {
            "text": "interested in programming at more than a",
            "start": 799.92,
            "duration": 4.08
        },
        {
            "text": "superficial level",
            "start": 802.5,
            "duration": 3.18
        },
        {
            "text": "and I think that's a really really",
            "start": 804.0,
            "duration": 3.899
        },
        {
            "text": "really amazing thing right it's hard to",
            "start": 805.68,
            "duration": 3.48
        },
        {
            "text": "find people that want to engage",
            "start": 807.899,
            "duration": 3.24
        },
        {
            "text": "sometimes I feel fine about my abilities",
            "start": 809.16,
            "duration": 3.419
        },
        {
            "text": "but then today I'm doing something that",
            "start": 811.139,
            "duration": 3.301
        },
        {
            "text": "requires some basic math and I'm like",
            "start": 812.579,
            "duration": 3.601
        },
        {
            "text": "I'll figure it out later off to Twitch",
            "start": 814.44,
            "duration": 3.54
        },
        {
            "text": "with me yeah you know that happens to me",
            "start": 816.18,
            "duration": 5.279
        },
        {
            "text": "too sometimes because I I think one of",
            "start": 817.98,
            "duration": 4.919
        },
        {
            "text": "the big things with that whenever you",
            "start": 821.459,
            "duration": 3.241
        },
        {
            "text": "find yourself becoming super distracted",
            "start": 822.899,
            "duration": 5.341
        },
        {
            "text": "from something it's likely because you",
            "start": 824.7,
            "duration": 4.68
        },
        {
            "text": "aren't",
            "start": 828.24,
            "duration": 3.12
        },
        {
            "text": "you're doing something in which you're",
            "start": 829.38,
            "duration": 4.68
        },
        {
            "text": "genuinely disinterested in and you know",
            "start": 831.36,
            "duration": 4.02
        },
        {
            "text": "there's this phrase that I like to kind",
            "start": 834.06,
            "duration": 3.12
        },
        {
            "text": "of think about which is the most senior",
            "start": 835.38,
            "duration": 5.519
        },
        {
            "text": "engineer can do the most Junior task",
            "start": 837.18,
            "duration": 6.599
        },
        {
            "text": "and what I mean by that is that a really",
            "start": 840.899,
            "duration": 4.861
        },
        {
            "text": "strong senior engineer even when the",
            "start": 843.779,
            "duration": 4.86
        },
        {
            "text": "task is tedious can make Ford progress",
            "start": 845.76,
            "duration": 6.0
        },
        {
            "text": "over and over and over again because",
            "start": 848.639,
            "duration": 5.76
        },
        {
            "text": "they're willing to put in the time and",
            "start": 851.76,
            "duration": 5.28
        },
        {
            "text": "effort to make it good",
            "start": 854.399,
            "duration": 4.981
        },
        {
            "text": "and that is a very hard thing to do",
            "start": 857.04,
            "duration": 4.62
        },
        {
            "text": "because I find that when I was younger I",
            "start": 859.38,
            "duration": 4.139
        },
        {
            "text": "was really only good at doing senior",
            "start": 861.66,
            "duration": 4.2
        },
        {
            "text": "tasks right I was only good at doing",
            "start": 863.519,
            "duration": 4.62
        },
        {
            "text": "tasks that were exciting the moment I",
            "start": 865.86,
            "duration": 3.9
        },
        {
            "text": "had to do something that's not exciting",
            "start": 868.139,
            "duration": 3.841
        },
        {
            "text": "it's like I fell apart right I'd find",
            "start": 869.76,
            "duration": 4.56
        },
        {
            "text": "myself super distracted super incapable",
            "start": 871.98,
            "duration": 3.9
        },
        {
            "text": "of doing things and so I've kind of",
            "start": 874.32,
            "duration": 3.3
        },
        {
            "text": "always held that Mantra inside my head",
            "start": 875.88,
            "duration": 5.16
        },
        {
            "text": "which is I have to be able to be engaged",
            "start": 877.62,
            "duration": 6.779
        },
        {
            "text": "on the little things as much as the big",
            "start": 881.04,
            "duration": 6.0
        },
        {
            "text": "things and that is a very important kind",
            "start": 884.399,
            "duration": 3.601
        },
        {
            "text": "of",
            "start": 887.04,
            "duration": 2.7
        },
        {
            "text": "you know metric at least my head is true",
            "start": 888.0,
            "duration": 3.36
        },
        {
            "text": "it's such a small niche of people who",
            "start": 889.74,
            "duration": 2.88
        },
        {
            "text": "spend their free time hanging out with",
            "start": 891.36,
            "duration": 2.64
        },
        {
            "text": "other coders and talking about code it's",
            "start": 892.62,
            "duration": 3.719
        },
        {
            "text": "really it is and it it really the thing",
            "start": 894.0,
            "duration": 4.74
        },
        {
            "text": "is is that for every year you do this",
            "start": 896.339,
            "duration": 4.321
        },
        {
            "text": "you've effectively made your career go",
            "start": 898.74,
            "duration": 3.539
        },
        {
            "text": "twice as fast",
            "start": 900.66,
            "duration": 3.179
        },
        {
            "text": "um that's kind of how I think about it",
            "start": 902.279,
            "duration": 2.881
        },
        {
            "text": "man this is giving me feels yeah I'm",
            "start": 903.839,
            "duration": 2.281
        },
        {
            "text": "trying to give you some good stuff here",
            "start": 905.16,
            "duration": 2.88
        },
        {
            "text": "okay I'm trying sorry I'm all sudden I'm",
            "start": 906.12,
            "duration": 3.54
        },
        {
            "text": "getting a little bit more philosophical",
            "start": 908.04,
            "duration": 3.06
        },
        {
            "text": "all of a sudden because we're reading",
            "start": 909.66,
            "duration": 5.22
        },
        {
            "text": "such a great article uh",
            "start": 911.1,
            "duration": 3.78
        },
        {
            "text": "um you know what I mean",
            "start": 915.779,
            "duration": 4.021
        },
        {
            "text": "let's see if you want uh put in uh four",
            "start": 917.459,
            "duration": 4.5
        },
        {
            "text": "years at college or more at graduate",
            "start": 919.8,
            "duration": 3.779
        },
        {
            "text": "school this will give you access to some",
            "start": 921.959,
            "duration": 3.12
        },
        {
            "text": "jobs that require credentials and it",
            "start": 923.579,
            "duration": 3.241
        },
        {
            "text": "will give you a deeper understanding of",
            "start": 925.079,
            "duration": 3.421
        },
        {
            "text": "the field but if you don't enjoy school",
            "start": 926.82,
            "duration": 3.36
        },
        {
            "text": "you can let's say you can with some",
            "start": 928.5,
            "duration": 3.24
        },
        {
            "text": "dedication get similar experience on",
            "start": 930.18,
            "duration": 3.839
        },
        {
            "text": "your own or on the job in any case a",
            "start": 931.74,
            "duration": 3.779
        },
        {
            "text": "book learning alone won't be enough",
            "start": 934.019,
            "duration": 3.541
        },
        {
            "text": "Computer Science Education cannot make",
            "start": 935.519,
            "duration": 4.32
        },
        {
            "text": "anybody an expert programmer any more",
            "start": 937.56,
            "duration": 4.44
        },
        {
            "text": "than studying bushes and pigment can",
            "start": 939.839,
            "duration": 5.221
        },
        {
            "text": "make somebody an expert painter love it",
            "start": 942.0,
            "duration": 5.82
        },
        {
            "text": "uh Eric Raymond author of the new uh the",
            "start": 945.06,
            "duration": 4.32
        },
        {
            "text": "new hackers dictionary one of the best",
            "start": 947.82,
            "duration": 4.139
        },
        {
            "text": "programmers I have ever hired had only a",
            "start": 949.38,
            "duration": 4.44
        },
        {
            "text": "high school degree and he's produced a",
            "start": 951.959,
            "duration": 3.901
        },
        {
            "text": "lot of great software has his own News",
            "start": 953.82,
            "duration": 4.079
        },
        {
            "text": "Group and made enough in stocked options",
            "start": 955.86,
            "duration": 3.419
        },
        {
            "text": "to buy his own nightclub okay",
            "start": 957.899,
            "duration": 3.12
        },
        {
            "text": "interesting choice what are you gonna do",
            "start": 959.279,
            "duration": 3.661
        },
        {
            "text": "with that money nightclub",
            "start": 961.019,
            "duration": 3.721
        },
        {
            "text": "um",
            "start": 962.94,
            "duration": 3.98
        },
        {
            "text": "okay okay okay okay okay",
            "start": 964.74,
            "duration": 4.74
        },
        {
            "text": "uh work on let's see work on projects",
            "start": 966.92,
            "duration": 4.599
        },
        {
            "text": "with others programmers this is a huge",
            "start": 969.48,
            "duration": 3.96
        },
        {
            "text": "awesome thing be the best programmer on",
            "start": 971.519,
            "duration": 3.481
        },
        {
            "text": "some project to be the worst on some",
            "start": 973.44,
            "duration": 3.24
        },
        {
            "text": "others when you're the best you get to",
            "start": 975.0,
            "duration": 3.12
        },
        {
            "text": "test your abilities to lead a project",
            "start": 976.68,
            "duration": 2.94
        },
        {
            "text": "and to inspire others with your vision",
            "start": 978.12,
            "duration": 3.42
        },
        {
            "text": "when you are the worst you learn what",
            "start": 979.62,
            "duration": 4.5
        },
        {
            "text": "the Masters do and you learn what they",
            "start": 981.54,
            "duration": 5.099
        },
        {
            "text": "do not don't like to do because they",
            "start": 984.12,
            "duration": 4.92
        },
        {
            "text": "make you do it for them",
            "start": 986.639,
            "duration": 4.741
        },
        {
            "text": "work on projects after other programmers",
            "start": 989.04,
            "duration": 4.2
        },
        {
            "text": "understand a program written by someone",
            "start": 991.38,
            "duration": 3.959
        },
        {
            "text": "else see what it takes to understand and",
            "start": 993.24,
            "duration": 4.26
        },
        {
            "text": "fix it when the original programmers are",
            "start": 995.339,
            "duration": 3.661
        },
        {
            "text": "not around think about how to design",
            "start": 997.5,
            "duration": 3.3
        },
        {
            "text": "your programs to make them easier for",
            "start": 999.0,
            "duration": 4.32
        },
        {
            "text": "you those who will maintain them after",
            "start": 1000.8,
            "duration": 4.8
        },
        {
            "text": "you interesting great advice I love this",
            "start": 1003.32,
            "duration": 4.439
        },
        {
            "text": "advice learn at least a half dozen",
            "start": 1005.6,
            "duration": 3.9
        },
        {
            "text": "programming languages love this advice",
            "start": 1007.759,
            "duration": 3.541
        },
        {
            "text": "include one language that emphasizes",
            "start": 1009.5,
            "duration": 3.48
        },
        {
            "text": "collapse abstractions like Java or C",
            "start": 1011.3,
            "duration": 3.539
        },
        {
            "text": "plus one that emphasizes functional",
            "start": 1012.98,
            "duration": 3.659
        },
        {
            "text": "abstractions like list for ML or Haskell",
            "start": 1014.839,
            "duration": 4.62
        },
        {
            "text": "or ocamel one that supports syntactic",
            "start": 1016.639,
            "duration": 4.981
        },
        {
            "text": "abstraction like lisp I've always wanted",
            "start": 1019.459,
            "duration": 3.721
        },
        {
            "text": "to try that",
            "start": 1021.62,
            "duration": 3.24
        },
        {
            "text": "but I also don't know if I have enough",
            "start": 1023.18,
            "duration": 3.18
        },
        {
            "text": "time to try it one that supports",
            "start": 1024.86,
            "duration": 3.0
        },
        {
            "text": "declarative statements uh or",
            "start": 1026.36,
            "duration": 3.12
        },
        {
            "text": "specifications like prologue or C plus",
            "start": 1027.86,
            "duration": 3.3
        },
        {
            "text": "plus templates and one that emphasize",
            "start": 1029.48,
            "duration": 3.599
        },
        {
            "text": "parallelism like closure or go remember",
            "start": 1031.16,
            "duration": 3.6
        },
        {
            "text": "notice that he didn't say JavaScript no",
            "start": 1033.079,
            "duration": 3.901
        },
        {
            "text": "JavaScript in there get owned get owned",
            "start": 1034.76,
            "duration": 4.559
        },
        {
            "text": "JavaScript remember that uh that there",
            "start": 1036.98,
            "duration": 5.4
        },
        {
            "text": "is a computer in computer science know",
            "start": 1039.319,
            "duration": 4.561
        },
        {
            "text": "how long it takes your computer to",
            "start": 1042.38,
            "duration": 3.36
        },
        {
            "text": "execute an instruction fetch a word from",
            "start": 1043.88,
            "duration": 4.5
        },
        {
            "text": "memory with or without a cache Miss read",
            "start": 1045.74,
            "duration": 5.34
        },
        {
            "text": "consecutive words from a disk and seek a",
            "start": 1048.38,
            "duration": 5.28
        },
        {
            "text": "new location on disk answers here get",
            "start": 1051.08,
            "duration": 3.959
        },
        {
            "text": "involved in language standardization",
            "start": 1053.66,
            "duration": 2.94
        },
        {
            "text": "effort it could be the NCC plus",
            "start": 1055.039,
            "duration": 3.301
        },
        {
            "text": "committee or it could be deciding if",
            "start": 1056.6,
            "duration": 4.079
        },
        {
            "text": "your own uh your local coding style will",
            "start": 1058.34,
            "duration": 4.199
        },
        {
            "text": "have two or four space annotation levels",
            "start": 1060.679,
            "duration": 3.901
        },
        {
            "text": "either way you learn about what other",
            "start": 1062.539,
            "duration": 3.721
        },
        {
            "text": "people like in a language How Deeply",
            "start": 1064.58,
            "duration": 3.18
        },
        {
            "text": "they feel so and perhaps even little",
            "start": 1066.26,
            "duration": 3.96
        },
        {
            "text": "about why they feel so dude this is",
            "start": 1067.76,
            "duration": 5.039
        },
        {
            "text": "actually really hilarious my team still",
            "start": 1070.22,
            "duration": 4.62
        },
        {
            "text": "does not have a c plus style like",
            "start": 1072.799,
            "duration": 4.021
        },
        {
            "text": "there's no clang D4 matter you can't",
            "start": 1074.84,
            "duration": 4.199
        },
        {
            "text": "cling Deez Nuts at all you know why",
            "start": 1076.82,
            "duration": 5.34
        },
        {
            "text": "because nobody is willing to agree",
            "start": 1079.039,
            "duration": 7.02
        },
        {
            "text": "not a single damn person will agree on",
            "start": 1082.16,
            "duration": 5.519
        },
        {
            "text": "what it should be and so we're just",
            "start": 1086.059,
            "duration": 3.721
        },
        {
            "text": "forever stuck with every piece of C plus",
            "start": 1087.679,
            "duration": 5.541
        },
        {
            "text": "code is its own bespoke coding style",
            "start": 1089.78,
            "duration": 6.72
        },
        {
            "text": "it's hilarious okay and they're like",
            "start": 1093.22,
            "duration": 5.079
        },
        {
            "text": "that's real that's what the professional",
            "start": 1096.5,
            "duration": 3.419
        },
        {
            "text": "world looks like it looks nothing like",
            "start": 1098.299,
            "duration": 3.781
        },
        {
            "text": "what you get in these little tiny these",
            "start": 1099.919,
            "duration": 4.38
        },
        {
            "text": "projects the famous uh Netflix uh",
            "start": 1102.08,
            "duration": 4.979
        },
        {
            "text": "autonomy yeah no SP spinning yeah dude",
            "start": 1104.299,
            "duration": 3.661
        },
        {
            "text": "it's crazy",
            "start": 1107.059,
            "duration": 2.581
        },
        {
            "text": "three space indent you could do that",
            "start": 1107.96,
            "duration": 3.36
        },
        {
            "text": "this song is a banger absolutely have",
            "start": 1109.64,
            "duration": 3.18
        },
        {
            "text": "the good sense to get off the language",
            "start": 1111.32,
            "duration": 3.42
        },
        {
            "text": "standardization effort as quickly as",
            "start": 1112.82,
            "duration": 4.8
        },
        {
            "text": "possible love it I love this conflicting",
            "start": 1114.74,
            "duration": 5.22
        },
        {
            "text": "advice because this is so true you gotta",
            "start": 1117.62,
            "duration": 4.5
        },
        {
            "text": "jump in there you gotta you gotta make",
            "start": 1119.96,
            "duration": 3.9
        },
        {
            "text": "some things you know happen but at the",
            "start": 1122.12,
            "duration": 2.939
        },
        {
            "text": "same time",
            "start": 1123.86,
            "duration": 3.24
        },
        {
            "text": "you gotta also know when to get off uh",
            "start": 1125.059,
            "duration": 3.541
        },
        {
            "text": "with all that in mind it's questionable",
            "start": 1127.1,
            "duration": 3.3
        },
        {
            "text": "how far you can get uh just by book",
            "start": 1128.6,
            "duration": 3.54
        },
        {
            "text": "learning before my first child was born",
            "start": 1130.4,
            "duration": 4.32
        },
        {
            "text": "I read all the how-to books and still",
            "start": 1132.14,
            "duration": 5.159
        },
        {
            "text": "felt clueless like a clueless novice 30",
            "start": 1134.72,
            "duration": 4.199
        },
        {
            "text": "months later when my second child was",
            "start": 1137.299,
            "duration": 3.781
        },
        {
            "text": "due did I go back to the books for a",
            "start": 1138.919,
            "duration": 4.321
        },
        {
            "text": "refresher no instead I relied on my",
            "start": 1141.08,
            "duration": 3.599
        },
        {
            "text": "personal experience which turned out to",
            "start": 1143.24,
            "duration": 3.179
        },
        {
            "text": "be far more useful and reassuring to me",
            "start": 1144.679,
            "duration": 3.181
        },
        {
            "text": "than a thousand pages of written by",
            "start": 1146.419,
            "duration": 5.341
        },
        {
            "text": "experts yes yes Fred Brooks in his essay",
            "start": 1147.86,
            "duration": 5.58
        },
        {
            "text": "no Silver Bullet identified three parts",
            "start": 1151.76,
            "duration": 3.0
        },
        {
            "text": "plan for finding great software",
            "start": 1153.44,
            "duration": 4.02
        },
        {
            "text": "designers uh systematically identify top",
            "start": 1154.76,
            "duration": 4.799
        },
        {
            "text": "designers as early as possible assign a",
            "start": 1157.46,
            "duration": 4.079
        },
        {
            "text": "career mentor to be responsible for the",
            "start": 1159.559,
            "duration": 4.021
        },
        {
            "text": "development of the of the Prospect and",
            "start": 1161.539,
            "duration": 4.621
        },
        {
            "text": "carefully keep a career file provide",
            "start": 1163.58,
            "duration": 4.62
        },
        {
            "text": "opportunities for growing designers to",
            "start": 1166.16,
            "duration": 5.519
        },
        {
            "text": "interact and stimulate each other",
            "start": 1168.2,
            "duration": 6.859
        },
        {
            "text": "I don't get that last one",
            "start": 1171.679,
            "duration": 3.38
        },
        {
            "text": "I don't get that last one I think I get",
            "start": 1175.64,
            "duration": 8.0
        },
        {
            "text": "that last one anyways uh",
            "start": 1179.78,
            "duration": 3.86
        },
        {
            "text": "this assumes that some people already",
            "start": 1183.74,
            "duration": 3.78
        },
        {
            "text": "have the qualities necessary for",
            "start": 1185.84,
            "duration": 3.3
        },
        {
            "text": "bringing a great designer the job is",
            "start": 1187.52,
            "duration": 5.34
        },
        {
            "text": "properly uh coax them along uh Alan put",
            "start": 1189.14,
            "duration": 5.1
        },
        {
            "text": "it more succinctly everyone can be",
            "start": 1192.86,
            "duration": 4.02
        },
        {
            "text": "taught to sculpt Michelangelo would uh",
            "start": 1194.24,
            "duration": 4.62
        },
        {
            "text": "he would have had to be taught how not",
            "start": 1196.88,
            "duration": 5.4
        },
        {
            "text": "to so it is with a great so is it with",
            "start": 1198.86,
            "duration": 5.1
        },
        {
            "text": "great programmers interesting I wonder",
            "start": 1202.28,
            "duration": 3.06
        },
        {
            "text": "if that's true I'd have to think about",
            "start": 1203.96,
            "duration": 3.36
        },
        {
            "text": "that for a second",
            "start": 1205.34,
            "duration": 5.16
        },
        {
            "text": "uh perilous is a saying that the greats",
            "start": 1207.32,
            "duration": 4.56
        },
        {
            "text": "have some internal quality that",
            "start": 1210.5,
            "duration": 3.24
        },
        {
            "text": "transcends their training but where does",
            "start": 1211.88,
            "duration": 3.72
        },
        {
            "text": "the quality come from is it innate or do",
            "start": 1213.74,
            "duration": 4.819
        },
        {
            "text": "they develop it through diligence as uh",
            "start": 1215.6,
            "duration": 5.6
        },
        {
            "text": "Augustus",
            "start": 1218.559,
            "duration": 6.161
        },
        {
            "text": "the uh fictional Chef in a Ratatouille I",
            "start": 1221.2,
            "duration": 4.859
        },
        {
            "text": "don't know how to say his name",
            "start": 1224.72,
            "duration": 4.14
        },
        {
            "text": "uh puts it anyone can cook but only the",
            "start": 1226.059,
            "duration": 4.541
        },
        {
            "text": "Fearless can be great",
            "start": 1228.86,
            "duration": 3.54
        },
        {
            "text": "I think of it more like a willingness to",
            "start": 1230.6,
            "duration": 3.36
        },
        {
            "text": "devote a large portion of one's life to",
            "start": 1232.4,
            "duration": 3.84
        },
        {
            "text": "deliberately deliberative practice but",
            "start": 1233.96,
            "duration": 3.9
        },
        {
            "text": "maybe Fearless is a way to summarize",
            "start": 1236.24,
            "duration": 3.08
        },
        {
            "text": "that or as",
            "start": 1237.86,
            "duration": 4.38
        },
        {
            "text": "critic Anton ego says not everyone can",
            "start": 1239.32,
            "duration": 4.78
        },
        {
            "text": "become a great artist but a great artist",
            "start": 1242.24,
            "duration": 4.799
        },
        {
            "text": "can uh can come from anywhere",
            "start": 1244.1,
            "duration": 5.939
        },
        {
            "text": "hmm",
            "start": 1247.039,
            "duration": 3.0
        },
        {
            "text": "Gustavo let's see so go ahead and buy",
            "start": 1250.28,
            "duration": 5.279
        },
        {
            "text": "that Java Ruby JavaScript PHP book",
            "start": 1253.34,
            "duration": 3.9
        },
        {
            "text": "you'll probably get some use out of it",
            "start": 1255.559,
            "duration": 3.36
        },
        {
            "text": "but you won't change your life it's",
            "start": 1257.24,
            "duration": 3.059
        },
        {
            "text": "actually a really good point",
            "start": 1258.919,
            "duration": 3.0
        },
        {
            "text": "it's it's actually a super good point",
            "start": 1260.299,
            "duration": 3.961
        },
        {
            "text": "the reason why this book is good is",
            "start": 1261.919,
            "duration": 4.14
        },
        {
            "text": "because this is a zero zero to",
            "start": 1264.26,
            "duration": 3.419
        },
        {
            "text": "production and rust it gives you a nice",
            "start": 1266.059,
            "duration": 3.181
        },
        {
            "text": "little guideline right it gives you kind",
            "start": 1267.679,
            "duration": 2.941
        },
        {
            "text": "of like some guide rails to get",
            "start": 1269.24,
            "duration": 2.58
        },
        {
            "text": "somewhere",
            "start": 1270.62,
            "duration": 3.24
        },
        {
            "text": "but until you take",
            "start": 1271.82,
            "duration": 5.099
        },
        {
            "text": "until you get until you take that",
            "start": 1273.86,
            "duration": 4.439
        },
        {
            "text": "guideline",
            "start": 1276.919,
            "duration": 3.721
        },
        {
            "text": "and you make your own path",
            "start": 1278.299,
            "duration": 4.201
        },
        {
            "text": "it's not worth a lot",
            "start": 1280.64,
            "duration": 3.18
        },
        {
            "text": "you know what I mean it's not worth a",
            "start": 1282.5,
            "duration": 3.24
        },
        {
            "text": "lot at all and because a lot of this",
            "start": 1283.82,
            "duration": 3.359
        },
        {
            "text": "comes from the fact that when you go",
            "start": 1285.74,
            "duration": 3.66
        },
        {
            "text": "through the book it does all the right",
            "start": 1287.179,
            "duration": 3.541
        },
        {
            "text": "things",
            "start": 1289.4,
            "duration": 5.48
        },
        {
            "text": "and if you're anything like me",
            "start": 1290.72,
            "duration": 4.16
        },
        {
            "text": "you don't do the right things",
            "start": 1295.4,
            "duration": 5.94
        },
        {
            "text": "real talk you don't do the right things",
            "start": 1297.86,
            "duration": 5.52
        },
        {
            "text": "you do the wrong things and you do them",
            "start": 1301.34,
            "duration": 4.92
        },
        {
            "text": "over and over and over again right",
            "start": 1303.38,
            "duration": 4.62
        },
        {
            "text": "and like that's totally normal and",
            "start": 1306.26,
            "duration": 3.299
        },
        {
            "text": "that's totally okay",
            "start": 1308.0,
            "duration": 2.76
        },
        {
            "text": "and so that's why I love the book",
            "start": 1309.559,
            "duration": 3.661
        },
        {
            "text": "because it gives you a basic guide for",
            "start": 1310.76,
            "duration": 4.62
        },
        {
            "text": "how to do something and then you go off",
            "start": 1313.22,
            "duration": 3.54
        },
        {
            "text": "and you do the wrong thing and you learn",
            "start": 1315.38,
            "duration": 3.36
        },
        {
            "text": "from it over and over and over again",
            "start": 1316.76,
            "duration": 4.5
        },
        {
            "text": "great writing love the article Peter",
            "start": 1318.74,
            "duration": 4.02
        },
        {
            "text": "thank you very much right it's Peter",
            "start": 1321.26,
            "duration": 3.779
        },
        {
            "text": "yeah Peter love the article teach",
            "start": 1322.76,
            "duration": 3.84
        },
        {
            "text": "yourself programming 10 years honestly",
            "start": 1325.039,
            "duration": 3.901
        },
        {
            "text": "we need a thousand more articles like",
            "start": 1326.6,
            "duration": 5.34
        },
        {
            "text": "this and we need a thousand less of",
            "start": 1328.94,
            "duration": 5.58
        },
        {
            "text": "those stupid Twitter influencers telling",
            "start": 1331.94,
            "duration": 4.02
        },
        {
            "text": "you how easy things are going to be how",
            "start": 1334.52,
            "duration": 2.82
        },
        {
            "text": "you're gonna get fifty thousand dollars",
            "start": 1335.96,
            "duration": 2.459
        },
        {
            "text": "in a year how you're going to get all",
            "start": 1337.34,
            "duration": 2.819
        },
        {
            "text": "these great things like you're just",
            "start": 1338.419,
            "duration": 3.12
        },
        {
            "text": "gonna learn how to program it and within",
            "start": 1340.159,
            "duration": 2.941
        },
        {
            "text": "no time you're going to be being paid",
            "start": 1341.539,
            "duration": 3.601
        },
        {
            "text": "six figures and it's that easy it's not",
            "start": 1343.1,
            "duration": 5.1
        },
        {
            "text": "easy it is a lifetime",
            "start": 1345.14,
            "duration": 4.8
        },
        {
            "text": "Pursuit",
            "start": 1348.2,
            "duration": 4.32
        },
        {
            "text": "it is it absolutely is and if you're not",
            "start": 1349.94,
            "duration": 4.44
        },
        {
            "text": "willing to put the lifetime in it's",
            "start": 1352.52,
            "duration": 4.019
        },
        {
            "text": "gonna be hard and I think there was a",
            "start": 1354.38,
            "duration": 4.679
        },
        {
            "text": "time period when you didn't have to put",
            "start": 1356.539,
            "duration": 4.801
        },
        {
            "text": "in a lot of time and I think that that",
            "start": 1359.059,
            "duration": 4.5
        },
        {
            "text": "time is dying",
            "start": 1361.34,
            "duration": 5.04
        },
        {
            "text": "and I mean that I think that it is dying",
            "start": 1363.559,
            "duration": 5.761
        },
        {
            "text": "very very fast uh I think that at this",
            "start": 1366.38,
            "duration": 4.919
        },
        {
            "text": "point there is a lot of positions open",
            "start": 1369.32,
            "duration": 4.5
        },
        {
            "text": "but there is a lot more people willing",
            "start": 1371.299,
            "duration": 4.62
        },
        {
            "text": "to put in hard ass work",
            "start": 1373.82,
            "duration": 6.839
        },
        {
            "text": "wow ass work ass Dash work then a lot of",
            "start": 1375.919,
            "duration": 6.0
        },
        {
            "text": "people are",
            "start": 1380.659,
            "duration": 2.461
        },
        {
            "text": "right",
            "start": 1381.919,
            "duration": 3.601
        },
        {
            "text": "so I hope that you guys feel that right",
            "start": 1383.12,
            "duration": 3.299
        },
        {
            "text": "there",
            "start": 1385.52,
            "duration": 3.06
        },
        {
            "text": "all right hey the name",
            "start": 1386.419,
            "duration": 4.88
        },
        {
            "text": "is the primogen",
            "start": 1388.58,
            "duration": 2.719
        }
    ],
    "stats": {
        "viewCount": "177788",
        "likeCount": "5750",
        "favoriteCount": "0",
        "commentCount": "398"
    }
}