{
    "id": "3z2g1MXFQfg",
    "title": "XML Made Me Buy 61,729,433 lbs Of Coal | Prime Reacts",
    "publishedAt": "2024-01-08T14:00:02Z",
    "captions": [
        {
            "text": "all right people special delivery by the",
            "start": 0.04,
            "duration": 5.64
        },
        {
            "text": "way the daily WTF has been my favorite",
            "start": 3.24,
            "duration": 5.0
        },
        {
            "text": "that I hope everybody knows J diesel",
            "start": 5.68,
            "duration": 5.36
        },
        {
            "text": "came from the daily WTF okay this is",
            "start": 8.24,
            "duration": 4.96
        },
        {
            "text": "going to be a good article I just can",
            "start": 11.04,
            "duration": 4.32
        },
        {
            "text": "feel it special delivery Brad's phone",
            "start": 13.2,
            "duration": 4.44
        },
        {
            "text": "rang with The Telltale tone of an inner",
            "start": 15.36,
            "duration": 5.2
        },
        {
            "text": "office call yeah he briskly blurted out",
            "start": 17.64,
            "duration": 5.36
        },
        {
            "text": "as he picked up the phone what you need",
            "start": 20.56,
            "duration": 3.92
        },
        {
            "text": "that was actually his nice way of",
            "start": 23.0,
            "duration": 3.72
        },
        {
            "text": "answering the phone as the senior Trader",
            "start": 24.48,
            "duration": 5.68
        },
        {
            "text": "at ex exore one of the world's Lar",
            "start": 26.72,
            "duration": 5.08
        },
        {
            "text": "energy traded companies Brad didn't need",
            "start": 30.16,
            "duration": 3.48
        },
        {
            "text": "to impress anyone and in his mind",
            "start": 31.8,
            "duration": 3.8
        },
        {
            "text": "displaying anything less than a vicious",
            "start": 33.64,
            "duration": 4.04
        },
        {
            "text": "hubris would be a sign of",
            "start": 35.6,
            "duration": 5.279
        },
        {
            "text": "weakness let's go Brad let's go Brad",
            "start": 37.68,
            "duration": 5.48
        },
        {
            "text": "Brad vicious hubis let's go Tom the",
            "start": 40.879,
            "duration": 4.68
        },
        {
            "text": "genius the receptionist nervously",
            "start": 43.16,
            "duration": 4.399
        },
        {
            "text": "answered there's a a delivery for you",
            "start": 45.559,
            "duration": 6.32
        },
        {
            "text": "sir they Brad scoffed cut her off just",
            "start": 47.559,
            "duration": 6.921
        },
        {
            "text": "go sign for it then is that really that",
            "start": 51.879,
            "duration": 5.441
        },
        {
            "text": "hard to do can you do that can't you",
            "start": 54.48,
            "duration": 4.599
        },
        {
            "text": "well well sir the receptionist winced",
            "start": 57.32,
            "duration": 4.36
        },
        {
            "text": "they're asking for more instructions and",
            "start": 59.079,
            "duration": 5.961
        },
        {
            "text": "we need to pay warfet charges they said",
            "start": 61.68,
            "duration": 5.92
        },
        {
            "text": "youd know I'm at a loss fine Brad",
            "start": 65.04,
            "duration": 4.399
        },
        {
            "text": "scouted I guess I have to do everything",
            "start": 67.6,
            "duration": 3.32
        },
        {
            "text": "around here he slammed down the phone",
            "start": 69.439,
            "duration": 3.36
        },
        {
            "text": "and marched out of his corner office",
            "start": 70.92,
            "duration": 4.96
        },
        {
            "text": "despite excess course location the old",
            "start": 72.799,
            "duration": 5.0
        },
        {
            "text": "docs District their office was one of",
            "start": 75.88,
            "duration": 4.08
        },
        {
            "text": "the most Posh in the city on the end of",
            "start": 77.799,
            "duration": 4.561
        },
        {
            "text": "expensive former Warehouse sat the",
            "start": 79.96,
            "duration": 4.32
        },
        {
            "text": "executive suites which had a tremendous",
            "start": 82.36,
            "duration": 4.04
        },
        {
            "text": "view of the city skyline the other end",
            "start": 84.28,
            "duration": 4.08
        },
        {
            "text": "where Brad was headed towards was the",
            "start": 86.4,
            "duration": 4.2
        },
        {
            "text": "reception which overlooked its own",
            "start": 88.36,
            "duration": 4.92
        },
        {
            "text": "private bay on the river that's pretty",
            "start": 90.6,
            "duration": 4.76
        },
        {
            "text": "Posh okay I'm here he said angrily",
            "start": 93.28,
            "duration": 3.72
        },
        {
            "text": "announced once he stepped foot into the",
            "start": 95.36,
            "duration": 3.6
        },
        {
            "text": "lobby so let's do this what do I need to",
            "start": 97.0,
            "duration": 4.36
        },
        {
            "text": "do Brad stopped mid-sentence his eyes",
            "start": 98.96,
            "duration": 4.08
        },
        {
            "text": "were immediately drawn through the floor",
            "start": 101.36,
            "duration": 3.799
        },
        {
            "text": "to ceiling windows and onto the River",
            "start": 103.04,
            "duration": 5.399
        },
        {
            "text": "Bay that exor's building overlooked",
            "start": 105.159,
            "duration": 5.361
        },
        {
            "text": "there was an absolutely gigantic barge",
            "start": 108.439,
            "duration": 4.401
        },
        {
            "text": "nay an armada of tightly connected",
            "start": 110.52,
            "duration": 4.639
        },
        {
            "text": "barges overfilled with enormous piles of",
            "start": 112.84,
            "duration": 4.68
        },
        {
            "text": "coal that was attempted to dock in front",
            "start": 115.159,
            "duration": 5.64
        },
        {
            "text": "of the building what the f F you must be",
            "start": 117.52,
            "duration": 5.239
        },
        {
            "text": "Brad a cheer voice a cheerful voice",
            "start": 120.799,
            "duration": 3.96
        },
        {
            "text": "jumped in Brad's eyes shifted toward the",
            "start": 122.759,
            "duration": 3.68
        },
        {
            "text": "scruffy fellow wearing some sort of",
            "start": 124.759,
            "duration": 3.601
        },
        {
            "text": "workman's uniform who was sitting in one",
            "start": 126.439,
            "duration": 3.68
        },
        {
            "text": "of the reception chairs now first and",
            "start": 128.36,
            "duration": 3.92
        },
        {
            "text": "foremost how in the Sam Hill are we",
            "start": 130.119,
            "duration": 4.641
        },
        {
            "text": "supposed to Moore this boat I count two",
            "start": 132.28,
            "duration": 5.4
        },
        {
            "text": "cleats but we were sure as heck we can't",
            "start": 134.76,
            "duration": 5.36
        },
        {
            "text": "hitch these and shoot do you even have a",
            "start": 137.68,
            "duration": 4.72
        },
        {
            "text": "bulk birth for once Brad was speechless",
            "start": 140.12,
            "duration": 4.6
        },
        {
            "text": "he had absolutely no idea who that man",
            "start": 142.4,
            "duration": 4.52
        },
        {
            "text": "was and he could hardly understand a",
            "start": 144.72,
            "duration": 4.44
        },
        {
            "text": "word he said plus there was a gargantuan",
            "start": 146.92,
            "duration": 3.679
        },
        {
            "text": "vessel that was slowly moving towards",
            "start": 149.16,
            "duration": 4.84
        },
        {
            "text": "the building uh he stuttered wait Are",
            "start": 150.599,
            "duration": 6.28
        },
        {
            "text": "you delivering coal to us well yeah",
            "start": 154.0,
            "duration": 5.56
        },
        {
            "text": "28,000 tons of good old black gold the",
            "start": 156.879,
            "duration": 5.0
        },
        {
            "text": "Workman sarcastically furrowed his brow",
            "start": 159.56,
            "duration": 4.48
        },
        {
            "text": "adding I mean we did get the right",
            "start": 161.879,
            "duration": 4.961
        },
        {
            "text": "address har har this is exe and this is",
            "start": 164.04,
            "duration": 5.04
        },
        {
            "text": "Pier 53 and are you Brad the fellow who",
            "start": 166.84,
            "duration": 4.039
        },
        {
            "text": "ordered it right it was that moment that",
            "start": 169.08,
            "duration": 3.84
        },
        {
            "text": "Brad's Palm almost immediately made",
            "start": 170.879,
            "duration": 4.36
        },
        {
            "text": "contact with his forehead he realized",
            "start": 172.92,
            "duration": 4.56
        },
        {
            "text": "that something must have gone aai",
            "start": 175.239,
            "duration": 4.761
        },
        {
            "text": "instead of virtually trading 28 tons of",
            "start": 177.48,
            "duration": 5.32
        },
        {
            "text": "coal Brad had somehow ended up with 28",
            "start": 180.0,
            "duration": 6.76
        },
        {
            "text": "tons of real coal Brad flew too close to",
            "start": 182.8,
            "duration": 6.439
        },
        {
            "text": "the sun too close to the sun he flew too",
            "start": 186.76,
            "duration": 5.119
        },
        {
            "text": "close to the Black Gold how much is 28",
            "start": 189.239,
            "duration": 5.761
        },
        {
            "text": "tons of coal I don't know I have never",
            "start": 191.879,
            "duration": 5.561
        },
        {
            "text": "bought coal to tell you the honest truth",
            "start": 195.0,
            "duration": 4.319
        },
        {
            "text": "I don't even know how to buy one ton of",
            "start": 197.44,
            "duration": 5.4
        },
        {
            "text": "coal let alone 28 of them okay 28,000",
            "start": 199.319,
            "duration": 6.881
        },
        {
            "text": "tons two 28 million lbs of coal if",
            "start": 202.84,
            "duration": 4.959
        },
        {
            "text": "you've ever watched Trading Places the",
            "start": 206.2,
            "duration": 3.959
        },
        {
            "text": "1983 classic starring Edie Murphy and",
            "start": 207.799,
            "duration": 4.16
        },
        {
            "text": "Dan akroy by the way Trading Places is",
            "start": 210.159,
            "duration": 4.561
        },
        {
            "text": "one of my favorite videos of all time",
            "start": 211.959,
            "duration": 4.401
        },
        {
            "text": "it's it Eddie Murphy does such a good",
            "start": 214.72,
            "duration": 3.56
        },
        {
            "text": "job and so does Dan akroy uh then you're",
            "start": 216.36,
            "duration": 3.56
        },
        {
            "text": "probably at least familiar with",
            "start": 218.28,
            "duration": 4.12
        },
        {
            "text": "commodities Market at a basic level",
            "start": 219.92,
            "duration": 4.399
        },
        {
            "text": "Commodities such as gold wool and",
            "start": 222.4,
            "duration": 3.96
        },
        {
            "text": "soybeans are sold by producers and",
            "start": 224.319,
            "duration": 3.92
        },
        {
            "text": "eventually delivered to buyers but Billy",
            "start": 226.36,
            "duration": 4.2
        },
        {
            "text": "Ray Valentine didn't strike it rich and",
            "start": 228.239,
            "duration": 4.121
        },
        {
            "text": "bankrupt the Duke Brothers by hauling",
            "start": 230.56,
            "duration": 3.599
        },
        {
            "text": "around Frozen concentrated orange juice",
            "start": 232.36,
            "duration": 3.64
        },
        {
            "text": "he actually did an Insider deal trading",
            "start": 234.159,
            "duration": 4.321
        },
        {
            "text": "and Bamboozled the Duke Brothers instead",
            "start": 236.0,
            "duration": 4.12
        },
        {
            "text": "they worked the commodities Market by",
            "start": 238.48,
            "duration": 5.039
        },
        {
            "text": "buying and selling fcj future contracts",
            "start": 240.12,
            "duration": 5.16
        },
        {
            "text": "actually that's really the only way to",
            "start": 243.519,
            "duration": 3.36
        },
        {
            "text": "trade in Commodities okay that means",
            "start": 245.28,
            "duration": 3.159
        },
        {
            "text": "you're trading the Futures effectively",
            "start": 246.879,
            "duration": 3.521
        },
        {
            "text": "what is the future price of these things",
            "start": 248.439,
            "duration": 3.72
        },
        {
            "text": "will we be able to produce a lot of it",
            "start": 250.4,
            "duration": 3.16
        },
        {
            "text": "or a little of it if you produce a",
            "start": 252.159,
            "duration": 2.681
        },
        {
            "text": "little of it and there's high demand",
            "start": 253.56,
            "duration": 2.639
        },
        {
            "text": "then the value of it goes way up so if",
            "start": 254.84,
            "duration": 3.0
        },
        {
            "text": "you bought future contracts then you're",
            "start": 256.199,
            "duration": 3.28
        },
        {
            "text": "going to do really well if you bought",
            "start": 257.84,
            "duration": 2.84
        },
        {
            "text": "not the right kind you're going to do",
            "start": 259.479,
            "duration": 4.0
        },
        {
            "text": "really bad uh 28 tons cost 4 million",
            "start": 260.68,
            "duration": 4.799
        },
        {
            "text": "dang okay that's a lot a Futures",
            "start": 263.479,
            "duration": 3.601
        },
        {
            "text": "Contract is pretty straightforward you",
            "start": 265.479,
            "duration": 4.521
        },
        {
            "text": "agree to buy X units of commodity at n",
            "start": 267.08,
            "duration": 5.04
        },
        {
            "text": "per unit at some fixed future date while",
            "start": 270.0,
            "duration": 3.52
        },
        {
            "text": "it might seem a bit strange for an",
            "start": 272.12,
            "duration": 3.4
        },
        {
            "text": "individual to agree to buy 20 tons of",
            "start": 273.52,
            "duration": 4.92
        },
        {
            "text": "pork bellies in April for 3$",
            "start": 275.52,
            "duration": 5.84
        },
        {
            "text": "34,42 even if he really loves bacon the",
            "start": 278.44,
            "duration": 5.12
        },
        {
            "text": "idea is to sell the 2 be delivered pork",
            "start": 281.36,
            "duration": 4.64
        },
        {
            "text": "bellies long before April and sell them",
            "start": 283.56,
            "duration": 4.96
        },
        {
            "text": "for more than 34,000 just about every",
            "start": 286.0,
            "duration": 4.24
        },
        {
            "text": "conceivable commodity is bought and sold",
            "start": 288.52,
            "duration": 3.28
        },
        {
            "text": "in this manner long before the commodity",
            "start": 290.24,
            "duration": 3.72
        },
        {
            "text": "is even produced the whole point of all",
            "start": 291.8,
            "duration": 3.839
        },
        {
            "text": "this trading is to shift the risk and",
            "start": 293.96,
            "duration": 3.72
        },
        {
            "text": "rewards of fluctuating commodity prices",
            "start": 295.639,
            "duration": 3.921
        },
        {
            "text": "from producers farmers and miners to the",
            "start": 297.68,
            "duration": 3.64
        },
        {
            "text": "Traders I don't know how that shifts the",
            "start": 299.56,
            "duration": 3.8
        },
        {
            "text": "risks and rewards it doesn't make any",
            "start": 301.32,
            "duration": 3.879
        },
        {
            "text": "sense to me but this does happen this is",
            "start": 303.36,
            "duration": 4.559
        },
        {
            "text": "real okay we legitimately trade the",
            "start": 305.199,
            "duration": 4.801
        },
        {
            "text": "future price of frozen orange juice",
            "start": 307.919,
            "duration": 4.041
        },
        {
            "text": "concentrate it's basically just gambling",
            "start": 310.0,
            "duration": 3.28
        },
        {
            "text": "is it I don't even know yall pay",
            "start": 311.96,
            "duration": 3.2
        },
        {
            "text": "attention to this this uh Commerce",
            "start": 313.28,
            "duration": 4.96
        },
        {
            "text": "happens on the CBOE the Chicago Board of",
            "start": 315.16,
            "duration": 4.599
        },
        {
            "text": "exchange and it's much larger than the",
            "start": 318.24,
            "duration": 3.28
        },
        {
            "text": "stock market I've heard about this that",
            "start": 319.759,
            "duration": 4.0
        },
        {
            "text": "it's I've never done anything with it",
            "start": 321.52,
            "duration": 4.08
        },
        {
            "text": "but I hear people make a lot of money in",
            "start": 323.759,
            "duration": 3.601
        },
        {
            "text": "here and it sounds crazy I don't I don't",
            "start": 325.6,
            "duration": 3.56
        },
        {
            "text": "even have any reason to understand how",
            "start": 327.36,
            "duration": 3.36
        },
        {
            "text": "this stuff works of course because",
            "start": 329.16,
            "duration": 3.159
        },
        {
            "text": "commodity Traders don't actually want to",
            "start": 330.72,
            "duration": 3.08
        },
        {
            "text": "be stuck with tons and tons of pork",
            "start": 332.319,
            "duration": 3.081
        },
        {
            "text": "bellies the whole series of middlemen",
            "start": 333.8,
            "duration": 4.08
        },
        {
            "text": "from the Brokers to the exchanges to the",
            "start": 335.4,
            "duration": 4.44
        },
        {
            "text": "Clearing Houses work hard to ensure that",
            "start": 337.88,
            "duration": 4.8
        },
        {
            "text": "when you say I will buy 300 tons of pork",
            "start": 339.84,
            "duration": 5.919
        },
        {
            "text": "bellies for four or 518,000 in May you",
            "start": 342.68,
            "duration": 4.68
        },
        {
            "text": "don't actually buy 300 tons of pork",
            "start": 345.759,
            "duration": 4.28
        },
        {
            "text": "bellies for 518,000 in May Brokers for",
            "start": 347.36,
            "duration": 4.959
        },
        {
            "text": "example will set up round turn trades so",
            "start": 350.039,
            "duration": 3.921
        },
        {
            "text": "that for each future contract purchase",
            "start": 352.319,
            "duration": 3.801
        },
        {
            "text": "and offsetting contract can be sold to",
            "start": 353.96,
            "duration": 3.799
        },
        {
            "text": "whoever actually wants to buy the goods",
            "start": 356.12,
            "duration": 2.88
        },
        {
            "text": "The Exchange is automated trading",
            "start": 357.759,
            "duration": 3.041
        },
        {
            "text": "systems have all sorts of rule engines",
            "start": 359.0,
            "duration": 3.4
        },
        {
            "text": "to make sure that obvious errors like",
            "start": 360.8,
            "duration": 3.119
        },
        {
            "text": "delivering truckloads of Commodities to",
            "start": 362.4,
            "duration": 3.56
        },
        {
            "text": "a commercial Office Park don't slip",
            "start": 363.919,
            "duration": 4.161
        },
        {
            "text": "through and finally processors at the",
            "start": 365.96,
            "duration": 3.6
        },
        {
            "text": "Clearing House will double check",
            "start": 368.08,
            "duration": 3.119
        },
        {
            "text": "transactions to make sure they weren't",
            "start": 369.56,
            "duration": 3.88
        },
        {
            "text": "sent over in air all that said it's",
            "start": 371.199,
            "duration": 3.801
        },
        {
            "text": "almost impossible for Traders to",
            "start": 373.44,
            "duration": 3.039
        },
        {
            "text": "actually buy Commodities that they're",
            "start": 375.0,
            "duration": 4.16
        },
        {
            "text": "buying well almost impossible and that",
            "start": 376.479,
            "duration": 4.601
        },
        {
            "text": "my friends is where this Story begins",
            "start": 379.16,
            "duration": 5.159
        },
        {
            "text": "The Perfect Storm at exe trading coal on",
            "start": 381.08,
            "duration": 5.48
        },
        {
            "text": "only one exchange the",
            "start": 384.319,
            "duration": 5.201
        },
        {
            "text": "WTF Stock Exchange the WTF stock",
            "start": 386.56,
            "duration": 4.479
        },
        {
            "text": "exchange I like this Stock Exchange and",
            "start": 389.52,
            "duration": 3.6
        },
        {
            "text": "they didn't trade coal very often as",
            "start": 391.039,
            "duration": 4.321
        },
        {
            "text": "such when the WTF Stock Exchange",
            "start": 393.12,
            "duration": 4.0
        },
        {
            "text": "upgraded its public facing web",
            "start": 395.36,
            "duration": 4.36
        },
        {
            "text": "service-based API exor's internal",
            "start": 397.12,
            "duration": 4.079
        },
        {
            "text": "trading system could no longer",
            "start": 399.72,
            "duration": 3.16
        },
        {
            "text": "communicate with it with a couple",
            "start": 401.199,
            "duration": 3.761
        },
        {
            "text": "pending coold trades this presented a",
            "start": 402.88,
            "duration": 4.56
        },
        {
            "text": "bit of a problem oh my goodness this is",
            "start": 404.96,
            "duration": 5.4
        },
        {
            "text": "so good fortunately exe had staff of",
            "start": 407.44,
            "duration": 5.039
        },
        {
            "text": "crack programmers that were able to hack",
            "start": 410.36,
            "duration": 4.2
        },
        {
            "text": "together a solution that worked with the",
            "start": 412.479,
            "duration": 5.12
        },
        {
            "text": "WTF se's new API essentially the coder",
            "start": 414.56,
            "duration": 4.56
        },
        {
            "text": "added a bit of XML to their trading",
            "start": 417.599,
            "duration": 3.761
        },
        {
            "text": "request including the following snippet",
            "start": 419.12,
            "duration": 4.519
        },
        {
            "text": "additional properties physical address",
            "start": 421.36,
            "duration": 4.279
        },
        {
            "text": "value false notice anything off about",
            "start": 423.639,
            "duration": 4.081
        },
        {
            "text": "that XML if you said value should be",
            "start": 425.639,
            "duration": 3.601
        },
        {
            "text": "zero instead of false then you give",
            "start": 427.72,
            "duration": 3.319
        },
        {
            "text": "yourself a pat on the back as it turns",
            "start": 429.24,
            "duration": 4.92
        },
        {
            "text": "out wtfs only recognized ones and zeros",
            "start": 431.039,
            "duration": 5.321
        },
        {
            "text": "to represent true and false and if the",
            "start": 434.16,
            "duration": 4.719
        },
        {
            "text": "value was neither one nor zero it would",
            "start": 436.36,
            "duration": 5.959
        },
        {
            "text": "simply default to one",
            "start": 438.879,
            "duration": 3.44
        },
        {
            "text": "oops what I mean whoops now this",
            "start": 444.0,
            "duration": 6.44
        },
        {
            "text": "normally wouldn't have been that big of",
            "start": 448.52,
            "duration": 4.28
        },
        {
            "text": "a deal to ensure accurate transactions",
            "start": 450.44,
            "duration": 5.12
        },
        {
            "text": "the WTF SE and just about all other",
            "start": 452.8,
            "duration": 4.44
        },
        {
            "text": "exchanges send back a trade confirmation",
            "start": 455.56,
            "duration": 2.84
        },
        {
            "text": "with all the original information",
            "start": 457.24,
            "duration": 3.359
        },
        {
            "text": "encoded their XML that way both parties",
            "start": 458.4,
            "duration": 4.239
        },
        {
            "text": "have to understand each other's data on",
            "start": 460.599,
            "duration": 4.841
        },
        {
            "text": "exor's end everything looked hunky dory",
            "start": 462.639,
            "duration": 4.28
        },
        {
            "text": "especially as a result of the following",
            "start": 465.44,
            "duration": 4.039
        },
        {
            "text": "line bull physical delivery get node",
            "start": 466.919,
            "duration": 4.84
        },
        {
            "text": "value physical delivery to lower equals",
            "start": 469.479,
            "duration": 3.961
        },
        {
            "text": "true kudos to the developer for",
            "start": 471.759,
            "duration": 3.481
        },
        {
            "text": "verifying the correct case yes that's",
            "start": 473.44,
            "duration": 4.24
        },
        {
            "text": "true the two lower well done because",
            "start": 475.24,
            "duration": 4.359
        },
        {
            "text": "some people capital T that true look at",
            "start": 477.68,
            "duration": 4.639
        },
        {
            "text": "you python okay you keep struggling with",
            "start": 479.599,
            "duration": 5.28
        },
        {
            "text": "for loops and capital T and F node",
            "start": 482.319,
            "duration": 4.521
        },
        {
            "text": "values what the hell why why would you",
            "start": 484.879,
            "duration": 5.961
        },
        {
            "text": "do that why is true capital T I hate you",
            "start": 486.84,
            "duration": 5.799
        },
        {
            "text": "why is it a string true because we're",
            "start": 490.84,
            "duration": 4.16
        },
        {
            "text": "talking about XML dog but a string can",
            "start": 492.639,
            "duration": 4.12
        },
        {
            "text": "be infinitely more strings than simply",
            "start": 495.0,
            "duration": 5.44
        },
        {
            "text": "true or false such as one or zero whoops",
            "start": 496.759,
            "duration": 6.521
        },
        {
            "text": "o the problem is becoming so apparent",
            "start": 500.44,
            "duration": 5.24
        },
        {
            "text": "this is why something like Proto Buffs",
            "start": 503.28,
            "duration": 6.0
        },
        {
            "text": "or some required typed format just feels",
            "start": 505.68,
            "duration": 5.359
        },
        {
            "text": "so good when you're playing with third",
            "start": 509.28,
            "duration": 3.92
        },
        {
            "text": "party Services you're getting fand",
            "start": 511.039,
            "duration": 7.48
        },
        {
            "text": "dangled by ones and TRS oof oof you know",
            "start": 513.2,
            "duration": 7.6
        },
        {
            "text": "what I mean even a mistakenly confirmed",
            "start": 518.519,
            "duration": 4.08
        },
        {
            "text": "incorrect trade shouldn't have been that",
            "start": 520.8,
            "duration": 3.44
        },
        {
            "text": "big of a deal since the Clearing House",
            "start": 522.599,
            "duration": 3.001
        },
        {
            "text": "would notice some pretty big problems",
            "start": 524.24,
            "duration": 3.76
        },
        {
            "text": "with the trade you can't just call up",
            "start": 525.6,
            "duration": 3.88
        },
        {
            "text": "FedEx and request a delivery of",
            "start": 528.0,
            "duration": 3.24
        },
        {
            "text": "thousands upon thousands of tons of raw",
            "start": 529.48,
            "duration": 3.799
        },
        {
            "text": "material to some office complex downtown",
            "start": 531.24,
            "duration": 3.8
        },
        {
            "text": "Commodities can only be delivered to a",
            "start": 533.279,
            "duration": 3.521
        },
        {
            "text": "fixed number of delivery points such as",
            "start": 535.04,
            "duration": 3.64
        },
        {
            "text": "warehouses adjacent to train yards or",
            "start": 536.8,
            "duration": 4.44
        },
        {
            "text": "ports oh no it's because it's a posh",
            "start": 538.68,
            "duration": 4.64
        },
        {
            "text": "building in what used to be a delivery",
            "start": 541.24,
            "duration": 4.64
        },
        {
            "text": "area of course since exe's offices were",
            "start": 543.32,
            "duration": 5.28
        },
        {
            "text": "located on Pier 53 a recently",
            "start": 545.88,
            "duration": 4.639
        },
        {
            "text": "redeveloped Warehouse District off the",
            "start": 548.6,
            "duration": 3.679
        },
        {
            "text": "river it would have seemed like a",
            "start": 550.519,
            "duration": 3.641
        },
        {
            "text": "logical place to accept a delivery of a",
            "start": 552.279,
            "duration": 4.761
        },
        {
            "text": "whole ass bunch of coal especially to",
            "start": 554.16,
            "duration": 5.96
        },
        {
            "text": "rules engines",
            "start": 557.04,
            "duration": 3.08
        },
        {
            "text": "oops yes fortunately the commodity",
            "start": 560.68,
            "duration": 4.279
        },
        {
            "text": "Futures Trading Market doesn't rely",
            "start": 563.36,
            "duration": 3.4
        },
        {
            "text": "entirely on software there are back",
            "start": 564.959,
            "duration": 3.401
        },
        {
            "text": "office Personnel on both sides of the",
            "start": 566.76,
            "duration": 3.12
        },
        {
            "text": "transaction and veral places in the",
            "start": 568.36,
            "duration": 3.44
        },
        {
            "text": "middle to make sure that Trader doesn't",
            "start": 569.88,
            "duration": 3.639
        },
        {
            "text": "do something silly like accidentally",
            "start": 571.8,
            "duration": 3.76
        },
        {
            "text": "click the physical delivery check box",
            "start": 573.519,
            "duration": 4.401
        },
        {
            "text": "enter into round turn trades that create",
            "start": 575.56,
            "duration": 4.76
        },
        {
            "text": "an instant net loss and so on so with",
            "start": 577.92,
            "duration": 4.08
        },
        {
            "text": "everyone looking over transactions you",
            "start": 580.32,
            "duration": 3.28
        },
        {
            "text": "think someone along the way would have",
            "start": 582.0,
            "duration": 3.8
        },
        {
            "text": "noticed that trading giant exor asked",
            "start": 583.6,
            "duration": 4.32
        },
        {
            "text": "for a physical delivery of million half",
            "start": 585.8,
            "duration": 4.88
        },
        {
            "text": "dollars worth of coal actually someone",
            "start": 587.92,
            "duration": 4.919
        },
        {
            "text": "probably did but because the trade came",
            "start": 590.68,
            "duration": 5.24
        },
        {
            "text": "from Brad there was just no way it could",
            "start": 592.839,
            "duration": 5.0
        },
        {
            "text": "have been made an error is physical",
            "start": 595.92,
            "duration": 3.68
        },
        {
            "text": "delivery really just a checkbox it must",
            "start": 597.839,
            "duration": 3.601
        },
        {
            "text": "be it's a true or false that sounds like",
            "start": 599.6,
            "duration": 3.84
        },
        {
            "text": "a checkbox to me this is so good the",
            "start": 601.44,
            "duration": 3.56
        },
        {
            "text": "best part about this is the fact that",
            "start": 603.44,
            "duration": 3.76
        },
        {
            "text": "Brad was such an [\u00a0__\u00a0] that people",
            "start": 605.0,
            "duration": 5.32
        },
        {
            "text": "didn't want to correct Brad because he",
            "start": 607.2,
            "duration": 6.4
        },
        {
            "text": "is so correct oh man this is so good as",
            "start": 610.32,
            "duration": 6.04
        },
        {
            "text": "the senior Traer at exeo Brad made it",
            "start": 613.6,
            "duration": 4.72
        },
        {
            "text": "very clear that no one not even his",
            "start": 616.36,
            "duration": 3.84
        },
        {
            "text": "Holiness the pope shall question his",
            "start": 618.32,
            "duration": 3.639
        },
        {
            "text": "trades after all Brad makes complex",
            "start": 620.2,
            "duration": 3.199
        },
        {
            "text": "trading decisions that no one else could",
            "start": 621.959,
            "duration": 3.481
        },
        {
            "text": "possibly comprehend sometimes he buys",
            "start": 623.399,
            "duration": 4.12
        },
        {
            "text": "high and sells low sometimes he holds in",
            "start": 625.44,
            "duration": 3.959
        },
        {
            "text": "a decline sometimes he refuses uses to",
            "start": 627.519,
            "duration": 3.401
        },
        {
            "text": "sell at any price Brad works in",
            "start": 629.399,
            "duration": 4.481
        },
        {
            "text": "mysterious ways and if he said do it",
            "start": 630.92,
            "duration": 6.599
        },
        {
            "text": "then it better get",
            "start": 633.88,
            "duration": 3.639
        },
        {
            "text": "done let's go let's go let's go man just",
            "start": 639.16,
            "duration": 9.44
        },
        {
            "text": "imagine big Brad that you do all of",
            "start": 645.079,
            "duration": 6.44
        },
        {
            "text": "these things just to feel like you're a",
            "start": 648.6,
            "duration": 6.0
        },
        {
            "text": "champion and then what happens you get",
            "start": 651.519,
            "duration": 6.521
        },
        {
            "text": "wrecked Brad's greater than Rick Brad is",
            "start": 654.6,
            "duration": 5.799
        },
        {
            "text": "single-handedly greater than Rick early",
            "start": 658.04,
            "duration": 4.359
        },
        {
            "text": "Christmas present now don't go telling",
            "start": 660.399,
            "duration": 3.921
        },
        {
            "text": "me that this coal ain't yours the",
            "start": 662.399,
            "duration": 3.56
        },
        {
            "text": "Workman said defensively sensing",
            "start": 664.32,
            "duration": 4.4
        },
        {
            "text": "something was ay I mean if you don't",
            "start": 665.959,
            "duration": 4.56
        },
        {
            "text": "want it that's your business but this",
            "start": 668.72,
            "duration": 4.84
        },
        {
            "text": "here is your coal Mr Brad as much as",
            "start": 670.519,
            "duration": 5.0
        },
        {
            "text": "Brad wanted to deny it he knew it was",
            "start": 673.56,
            "duration": 4.76
        },
        {
            "text": "his and not only that but he had hotly",
            "start": 675.519,
            "duration": 5.201
        },
        {
            "text": "confirmed reconfirmed and reconfirmed",
            "start": 678.32,
            "duration": 4.68
        },
        {
            "text": "with exor's own back office processing",
            "start": 680.72,
            "duration": 4.52
        },
        {
            "text": "team he had just assumed like he always",
            "start": 683.0,
            "duration": 4.959
        },
        {
            "text": "did that the mouth breathing paper",
            "start": 685.24,
            "duration": 6.48
        },
        {
            "text": "pushers couldn't read",
            "start": 687.959,
            "duration": 3.761
        },
        {
            "text": "English mouth",
            "start": 693.72,
            "duration": 4.799
        },
        {
            "text": "breathers as he played back the last",
            "start": 695.6,
            "duration": 4.799
        },
        {
            "text": "thing he told one of the pre-processors",
            "start": 698.519,
            "duration": 4.0
        },
        {
            "text": "about the coal order what part of my",
            "start": 700.399,
            "duration": 4.801
        },
        {
            "text": "execute my [\u00a0__\u00a0] trade don't you",
            "start": 702.519,
            "duration": 4.281
        },
        {
            "text": "understand he wondered what he could",
            "start": 705.2,
            "duration": 5.12
        },
        {
            "text": "possibly do with 56 million pounds of",
            "start": 706.8,
            "duration": 5.4
        },
        {
            "text": "real coal I've never been put in that",
            "start": 710.32,
            "duration": 3.92
        },
        {
            "text": "situation try to imagine for a moment",
            "start": 712.2,
            "duration": 4.4
        },
        {
            "text": "how you would unload a mountain of coal",
            "start": 714.24,
            "duration": 4.08
        },
        {
            "text": "worth a million and half dollar",
            "start": 716.6,
            "duration": 4.0
        },
        {
            "text": "Craigslist has its limits after all as",
            "start": 718.32,
            "duration": 3.84
        },
        {
            "text": "it turned out it was more difficult than",
            "start": 720.6,
            "duration": 3.84
        },
        {
            "text": "Brad could ever imagined to sell real",
            "start": 722.16,
            "duration": 4.56
        },
        {
            "text": "coal the Commodities Market really only",
            "start": 724.44,
            "duration": 4.04
        },
        {
            "text": "deals in Futures and everyone who",
            "start": 726.72,
            "duration": 3.96
        },
        {
            "text": "actually needs 28 tons of coal has",
            "start": 728.48,
            "duration": 4.76
        },
        {
            "text": "bought it long in advance and besides",
            "start": 730.68,
            "duration": 4.36
        },
        {
            "text": "who wants to buy coal from some guy",
            "start": 733.24,
            "duration": 4.08
        },
        {
            "text": "named",
            "start": 735.04,
            "duration": 2.28
        },
        {
            "text": "Brad there's Brad again selling coal who",
            "start": 738.68,
            "duration": 5.44
        },
        {
            "text": "wants to buy coal from Brad eventually",
            "start": 741.279,
            "duration": 5.321
        },
        {
            "text": "after paying exorbitant Waring shipping",
            "start": 744.12,
            "duration": 5.159
        },
        {
            "text": "environmental docking unloading loading",
            "start": 746.6,
            "duration": 5.44
        },
        {
            "text": "in multiple fee fees Brad was finally",
            "start": 749.279,
            "duration": 5.321
        },
        {
            "text": "able to unload it for 20 cents on the",
            "start": 752.04,
            "duration": 5.039
        },
        {
            "text": "dollar ever since the big purchase Brad",
            "start": 754.6,
            "duration": 4.4
        },
        {
            "text": "has never been able to live down his",
            "start": 757.079,
            "duration": 4.44
        },
        {
            "text": "mountain of coal every time he passed",
            "start": 759.0,
            "duration": 5.04
        },
        {
            "text": "others in the hallway he knew that they",
            "start": 761.519,
            "duration": 5.041
        },
        {
            "text": "knew about the coal and they knew that",
            "start": 764.04,
            "duration": 4.64
        },
        {
            "text": "he knew that they knew no one really",
            "start": 766.56,
            "duration": 4.0
        },
        {
            "text": "poked fun or laughed at him but it",
            "start": 768.68,
            "duration": 3.719
        },
        {
            "text": "didn't matter Brad was no longer thought",
            "start": 770.56,
            "duration": 5.0
        },
        {
            "text": "of as the senior Trader at exore instead",
            "start": 772.399,
            "duration": 5.521
        },
        {
            "text": "he was the guy who accidentally bought",
            "start": 775.56,
            "duration": 5.279
        },
        {
            "text": "all the coal",
            "start": 777.92,
            "duration": 2.919
        },
        {
            "text": "one time I accidentally broke a",
            "start": 783.44,
            "duration": 4.079
        },
        {
            "text": "production feature on a very specific",
            "start": 785.32,
            "duration": 4.24
        },
        {
            "text": "very exciting release of some content on",
            "start": 787.519,
            "duration": 3.841
        },
        {
            "text": "Netflix sure it only broke for like four",
            "start": 789.56,
            "duration": 3.32
        },
        {
            "text": "people but I still broke it for those",
            "start": 791.36,
            "duration": 3.24
        },
        {
            "text": "four people there was a while there I",
            "start": 792.88,
            "duration": 3.319
        },
        {
            "text": "was known as the guy who broke it for",
            "start": 794.6,
            "duration": 3.08
        },
        {
            "text": "the people waiting for the feature and",
            "start": 796.199,
            "duration": 2.44
        },
        {
            "text": "the people that were waiting for the",
            "start": 797.68,
            "duration": 3.279
        },
        {
            "text": "feature was like my boss and a couple",
            "start": 798.639,
            "duration": 3.921
        },
        {
            "text": "other people it was only people who were",
            "start": 800.959,
            "duration": 4.801
        },
        {
            "text": "waiting for it to happen live it broke",
            "start": 802.56,
            "duration": 4.719
        },
        {
            "text": "it was a countdown billboard it was a",
            "start": 805.76,
            "duration": 3.68
        },
        {
            "text": "the countdown billboard on Netflix",
            "start": 807.279,
            "duration": 4.401
        },
        {
            "text": "okay the countdown it counted down to",
            "start": 809.44,
            "duration": 4.56
        },
        {
            "text": "zero and then I accidentally created an",
            "start": 811.68,
            "duration": 4.279
        },
        {
            "text": "infinite Loop they say four Loops are",
            "start": 814.0,
            "duration": 5.199
        },
        {
            "text": "easy you know that's what they say 3 2 1",
            "start": 815.959,
            "duration": 5.961
        },
        {
            "text": "infinity okay sometimes you actually put",
            "start": 819.199,
            "duration": 5.88
        },
        {
            "text": "an Infinity out there you know sometimes",
            "start": 821.92,
            "duration": 5.56
        },
        {
            "text": "when you walk in you go to the penthouse",
            "start": 825.079,
            "duration": 4.601
        },
        {
            "text": "and sometimes when you walk in you go to",
            "start": 827.48,
            "duration": 4.479
        },
        {
            "text": "the ouse just happened to me my day for",
            "start": 829.68,
            "duration": 4.32
        },
        {
            "text": "an ous filled with skill issues and",
            "start": 831.959,
            "duration": 3.68
        },
        {
            "text": "regret and an email that I would",
            "start": 834.0,
            "duration": 4.0
        },
        {
            "text": "eventually say send that would say I am",
            "start": 835.639,
            "duration": 4.88
        },
        {
            "text": "sorry I screwed that one up sometimes",
            "start": 838.0,
            "duration": 4.24
        },
        {
            "text": "you forget not to use sign integers",
            "start": 840.519,
            "duration": 4.521
        },
        {
            "text": "sometimes you forget zero and division",
            "start": 842.24,
            "duration": 4.599
        },
        {
            "text": "causes things that are very large",
            "start": 845.04,
            "duration": 3.52
        },
        {
            "text": "numbers the spec wasn't clear enough it",
            "start": 846.839,
            "duration": 3.401
        },
        {
            "text": "just clearly wasn't clear enough",
            "start": 848.56,
            "duration": 3.76
        },
        {
            "text": "sometimes he index you with a float yeah",
            "start": 850.24,
            "duration": 4.08
        },
        {
            "text": "it's true that's the worst he did oh no",
            "start": 852.32,
            "duration": 3.879
        },
        {
            "text": "I did worse I've done a lot of stupid",
            "start": 854.32,
            "duration": 3.199
        },
        {
            "text": "things at Netflix but that's just the",
            "start": 856.199,
            "duration": 2.921
        },
        {
            "text": "one that reminds me of just the most",
            "start": 857.519,
            "duration": 3.401
        },
        {
            "text": "flak I've received I one time had my",
            "start": 859.12,
            "duration": 3.24
        },
        {
            "text": "boss tell me that I had to step away",
            "start": 860.92,
            "duration": 3.2
        },
        {
            "text": "from the keyboard when I'm feeling upset",
            "start": 862.36,
            "duration": 3.2
        },
        {
            "text": "that was like seven years ago 8 years",
            "start": 864.12,
            "duration": 3.519
        },
        {
            "text": "ago I learned a good lesson that day",
            "start": 865.56,
            "duration": 4.04
        },
        {
            "text": "don't send emails when you're upset okay",
            "start": 867.639,
            "duration": 3.64
        },
        {
            "text": "don't send emails when you're upset",
            "start": 869.6,
            "duration": 2.96
        },
        {
            "text": "you're going to say things that you're",
            "start": 871.279,
            "duration": 3.24
        },
        {
            "text": "not happy about why did you make the",
            "start": 872.56,
            "duration": 3.76
        },
        {
            "text": "autoplay feature okay I'm going to go",
            "start": 874.519,
            "duration": 3.44
        },
        {
            "text": "over this one last time I made the",
            "start": 876.32,
            "duration": 3.16
        },
        {
            "text": "autoplay feature for Netflix when you go",
            "start": 877.959,
            "duration": 3.081
        },
        {
            "text": "to netflix.com you get hit with a",
            "start": 879.48,
            "duration": 3.4
        },
        {
            "text": "trailer and it plays with the volume on",
            "start": 881.04,
            "duration": 4.08
        },
        {
            "text": "now during the process there were nine",
            "start": 882.88,
            "duration": 7.04
        },
        {
            "text": "cells okay nine AB cells nine AB cells",
            "start": 885.12,
            "duration": 8.56
        },
        {
            "text": "nine separate experiences number eight I",
            "start": 889.92,
            "duration": 6.919
        },
        {
            "text": "fought for okay I fought for number",
            "start": 893.68,
            "duration": 5.2
        },
        {
            "text": "eight you know what number eight did",
            "start": 896.839,
            "duration": 5.321
        },
        {
            "text": "number eight muted the trailer and did",
            "start": 898.88,
            "duration": 6.16
        },
        {
            "text": "localized subtitles for you to be able",
            "start": 902.16,
            "duration": 6.239
        },
        {
            "text": "to read the trailer it muted it for you",
            "start": 905.04,
            "duration": 6.84
        },
        {
            "text": "because I like you said hm I don't think",
            "start": 908.399,
            "duration": 6.641
        },
        {
            "text": "people would want volume on well guess",
            "start": 911.88,
            "duration": 7.8
        },
        {
            "text": "what Jackass y'all loved the volume on",
            "start": 915.04,
            "duration": 7.239
        },
        {
            "text": "you guys couldn't stop playing the show",
            "start": 919.68,
            "duration": 4.92
        },
        {
            "text": "when volume was on and guess what it's",
            "start": 922.279,
            "duration": 5.161
        },
        {
            "text": "not my fault that you did that I opened",
            "start": 924.6,
            "duration": 5.719
        },
        {
            "text": "the door I made the door I drew the door",
            "start": 927.44,
            "duration": 5.28
        },
        {
            "text": "and said here you go walk through the",
            "start": 930.319,
            "duration": 4.44
        },
        {
            "text": "door and you guys said nah I'm going to",
            "start": 932.72,
            "duration": 3.32
        },
        {
            "text": "take that other door the one with the",
            "start": 934.759,
            "duration": 2.921
        },
        {
            "text": "volume on because you know what when you",
            "start": 936.04,
            "duration": 3.039
        },
        {
            "text": "actually play the when you play the",
            "start": 937.68,
            "duration": 2.959
        },
        {
            "text": "trailer and then there's actually that",
            "start": 939.079,
            "duration": 3.12
        },
        {
            "text": "funny part I actually kind of like it",
            "start": 940.639,
            "duration": 2.88
        },
        {
            "text": "yeah I'm going to go with that one",
            "start": 942.199,
            "duration": 2.76
        },
        {
            "text": "that's the one I want to go with because",
            "start": 943.519,
            "duration": 3.44
        },
        {
            "text": "really deep down inside of me I actually",
            "start": 944.959,
            "duration": 3.641
        },
        {
            "text": "am the loser that likes the volume on",
            "start": 946.959,
            "duration": 3.201
        },
        {
            "text": "but I'm going to complain about it and",
            "start": 948.6,
            "duration": 2.96
        },
        {
            "text": "then I'm going to see a show that I like",
            "start": 950.16,
            "duration": 3.08
        },
        {
            "text": "and then I'm actually going to watch it",
            "start": 951.56,
            "duration": 3.199
        },
        {
            "text": "and it's going to be great but I'm going",
            "start": 953.24,
            "duration": 4.36
        },
        {
            "text": "to complain about it on Twitter because",
            "start": 954.759,
            "duration": 5.921
        },
        {
            "text": "I am a ke board Warrior get the hell out",
            "start": 957.6,
            "duration": 5.719
        },
        {
            "text": "of the way the name is this video is",
            "start": 960.68,
            "duration": 4.04
        },
        {
            "text": "going to be very difficult to edit there",
            "start": 963.319,
            "duration": 2.841
        },
        {
            "text": "was a lot of stuff that happened during",
            "start": 964.72,
            "duration": 4.08
        },
        {
            "text": "this aent",
            "start": 966.16,
            "duration": 2.64
        }
    ],
    "stats": {
        "viewCount": "65844",
        "likeCount": "2926",
        "favoriteCount": "0",
        "commentCount": "223"
    }
}