{
    "id": "4-FY3hAbtVg",
    "title": "Dear ThePrimeagen, You Are Wrong | Prime Reacts",
    "publishedAt": "2023-05-07T13:26:00Z",
    "captions": [
        {
            "text": "keep calm and just say no the follow-up",
            "start": 0.06,
            "duration": 5.4
        },
        {
            "text": "that's right the follow-up I have been",
            "start": 3.12,
            "duration": 5.7
        },
        {
            "text": "grilled by the primogen the name is the",
            "start": 5.46,
            "duration": 5.4
        },
        {
            "text": "primagen on YouTube look at that it's",
            "start": 8.82,
            "duration": 4.739
        },
        {
            "text": "even a follow-up it's a follow-up to",
            "start": 10.86,
            "duration": 4.439
        },
        {
            "text": "hiring is broken and look at this that's",
            "start": 13.559,
            "duration": 4.921
        },
        {
            "text": "me look at that that's me I made that I",
            "start": 15.299,
            "duration": 5.701
        },
        {
            "text": "made that box art I've received way lots",
            "start": 18.48,
            "duration": 4.62
        },
        {
            "text": "of cool feedback for my article keep",
            "start": 21.0,
            "duration": 3.539
        },
        {
            "text": "calm and just say no to coding",
            "start": 23.1,
            "duration": 3.599
        },
        {
            "text": "challenges but none was as fun",
            "start": 24.539,
            "duration": 4.801
        },
        {
            "text": "as being live grilled by the prime",
            "start": 26.699,
            "duration": 5.041
        },
        {
            "text": "engine on his YouTube channel yeah hey",
            "start": 29.34,
            "duration": 4.399
        },
        {
            "text": "subscribe baby",
            "start": 31.74,
            "duration": 5.339
        },
        {
            "text": "let's keep on going uh I was alerted",
            "start": 33.739,
            "duration": 4.66
        },
        {
            "text": "about this video by three different",
            "start": 37.079,
            "duration": 3.48
        },
        {
            "text": "friends one presenting me the primage in",
            "start": 38.399,
            "duration": 4.081
        },
        {
            "text": "this way primogen is an engineer doing",
            "start": 40.559,
            "duration": 3.721
        },
        {
            "text": "impressive stuff at Netflix he is very",
            "start": 42.48,
            "duration": 3.78
        },
        {
            "text": "active in the rust Community which jokes",
            "start": 44.28,
            "duration": 4.38
        },
        {
            "text": "on them uh as you see in this video he",
            "start": 46.26,
            "duration": 4.38
        },
        {
            "text": "has a style that some peeps love and",
            "start": 48.66,
            "duration": 4.2
        },
        {
            "text": "some people hate primagen grills better",
            "start": 50.64,
            "duration": 4.919
        },
        {
            "text": "than Bear Grylls absolutely absolutely",
            "start": 52.86,
            "duration": 4.8
        },
        {
            "text": "yeah I I would say that this is probably",
            "start": 55.559,
            "duration": 4.261
        },
        {
            "text": "true I do get I do get the hate messages",
            "start": 57.66,
            "duration": 4.68
        },
        {
            "text": "not none worst of all the hate messages",
            "start": 59.82,
            "duration": 4.979
        },
        {
            "text": "than when uh the rust core Community",
            "start": 62.34,
            "duration": 4.74
        },
        {
            "text": "calls you a racist that was the worst",
            "start": 64.799,
            "duration": 4.5
        },
        {
            "text": "one but then after that it's less bad",
            "start": 67.08,
            "duration": 4.2
        },
        {
            "text": "you know what I mean it's just the rust",
            "start": 69.299,
            "duration": 4.381
        },
        {
            "text": "core people uh those are the ones that",
            "start": 71.28,
            "duration": 4.8
        },
        {
            "text": "really I feel like are not very nice uh",
            "start": 73.68,
            "duration": 4.799
        },
        {
            "text": "but they don't like me but the rest seem",
            "start": 76.08,
            "duration": 4.5
        },
        {
            "text": "to be very delightful so fair enough but",
            "start": 78.479,
            "duration": 3.601
        },
        {
            "text": "for my part I found this video",
            "start": 80.58,
            "duration": 3.719
        },
        {
            "text": "absolutely delightful interesting okay",
            "start": 82.08,
            "duration": 5.1
        },
        {
            "text": "some people told me uh to try to let's",
            "start": 84.299,
            "duration": 5.041
        },
        {
            "text": "see okay hold on some people told me to",
            "start": 87.18,
            "duration": 4.2
        },
        {
            "text": "try out making videos but I declined I",
            "start": 89.34,
            "duration": 4.5
        },
        {
            "text": "think it'd be pretty lame YouTuber I'm",
            "start": 91.38,
            "duration": 4.62
        },
        {
            "text": "just a dude who writes words about stuff",
            "start": 93.84,
            "duration": 3.9
        },
        {
            "text": "I'm pretty much the same guy I just say",
            "start": 96.0,
            "duration": 3.42
        },
        {
            "text": "words about stuff",
            "start": 97.74,
            "duration": 3.18
        },
        {
            "text": "um all right so let's see what what's",
            "start": 99.42,
            "duration": 3.059
        },
        {
            "text": "gonna go on here so this is the part",
            "start": 100.92,
            "duration": 3.059
        },
        {
            "text": "where I think he's gonna try to correct",
            "start": 102.479,
            "duration": 4.32
        },
        {
            "text": "the record and try to tell me this is",
            "start": 103.979,
            "duration": 5.28
        },
        {
            "text": "where you goofed up okay this is where",
            "start": 106.799,
            "duration": 4.081
        },
        {
            "text": "you goofed up and I do think this I do",
            "start": 109.259,
            "duration": 3.301
        },
        {
            "text": "think this is important okay",
            "start": 110.88,
            "duration": 4.379
        },
        {
            "text": "after such an uh Artful build up I was",
            "start": 112.56,
            "duration": 4.199
        },
        {
            "text": "hoping he would just not only agree with",
            "start": 115.259,
            "duration": 4.621
        },
        {
            "text": "me and indeed all right so this looks",
            "start": 116.759,
            "duration": 5.281
        },
        {
            "text": "like Okay so this looks like a quote",
            "start": 119.88,
            "duration": 4.14
        },
        {
            "text": "generated by the subtitle so this might",
            "start": 122.04,
            "duration": 4.74
        },
        {
            "text": "be a little bit goofy okay just so you",
            "start": 124.02,
            "duration": 4.62
        },
        {
            "text": "know hey guess what everybody this",
            "start": 126.78,
            "duration": 3.479
        },
        {
            "text": "person just gave you the best way to get",
            "start": 128.64,
            "duration": 3.599
        },
        {
            "text": "rejected from many job interviews this",
            "start": 130.259,
            "duration": 3.901
        },
        {
            "text": "is true you will get rejected from many",
            "start": 132.239,
            "duration": 3.421
        },
        {
            "text": "job interviews and I believe he agreed",
            "start": 134.16,
            "duration": 3.0
        },
        {
            "text": "with that in previous if you just say no",
            "start": 135.66,
            "duration": 3.0
        },
        {
            "text": "to an interviewing process it's",
            "start": 137.16,
            "duration": 3.96
        },
        {
            "text": "extremely hard",
            "start": 138.66,
            "duration": 4.079
        },
        {
            "text": "you know what I mean",
            "start": 141.12,
            "duration": 3.42
        },
        {
            "text": "it's just extremely hard you can't just",
            "start": 142.739,
            "duration": 4.921
        },
        {
            "text": "undo you can't just say hey no coding",
            "start": 144.54,
            "duration": 4.8
        },
        {
            "text": "interview and then boom it just works",
            "start": 147.66,
            "duration": 3.299
        },
        {
            "text": "out you know what I mean uh perhaps this",
            "start": 149.34,
            "duration": 3.18
        },
        {
            "text": "person doesn't need a job that much true",
            "start": 150.959,
            "duration": 3.181
        },
        {
            "text": "uh and therefore can go like this what",
            "start": 152.52,
            "duration": 3.359
        },
        {
            "text": "do you do oh you're like 93 of tech",
            "start": 154.14,
            "duration": 2.7
        },
        {
            "text": "companies and you have a coding",
            "start": 155.879,
            "duration": 3.061
        },
        {
            "text": "challenges LOL sorry uh I don't accept",
            "start": 156.84,
            "duration": 5.16
        },
        {
            "text": "them it leaves uh it leaves a hash tray",
            "start": 158.94,
            "duration": 5.879
        },
        {
            "text": "in my mind I wonder what I said there it",
            "start": 162.0,
            "duration": 4.379
        },
        {
            "text": "leaves a hash tray in my mind I don't",
            "start": 164.819,
            "duration": 3.181
        },
        {
            "text": "even know what that means so no thank",
            "start": 166.379,
            "duration": 3.181
        },
        {
            "text": "you uh both to your job and your",
            "start": 168.0,
            "duration": 3.0
        },
        {
            "text": "interview process yeah I mean when you",
            "start": 169.56,
            "duration": 2.88
        },
        {
            "text": "say no to part of someone's interview",
            "start": 171.0,
            "duration": 3.84
        },
        {
            "text": "process you are saying that uh that",
            "start": 172.44,
            "duration": 4.68
        },
        {
            "text": "started well uh alas that's mostly a",
            "start": 174.84,
            "duration": 4.32
        },
        {
            "text": "misunderstanding okay good here we go",
            "start": 177.12,
            "duration": 3.24
        },
        {
            "text": "we're getting into the disagreement",
            "start": 179.16,
            "duration": 3.359
        },
        {
            "text": "let's go let's go all right so it looks",
            "start": 180.36,
            "duration": 4.2
        },
        {
            "text": "like he's gonna do uh",
            "start": 182.519,
            "duration": 4.261
        },
        {
            "text": "looks like he's going to do",
            "start": 184.56,
            "duration": 4.259
        },
        {
            "text": "another quote from me from YouTube so",
            "start": 186.78,
            "duration": 3.9
        },
        {
            "text": "maybe a bit broken English here so far",
            "start": 188.819,
            "duration": 3.541
        },
        {
            "text": "without reading anything else my current",
            "start": 190.68,
            "duration": 3.779
        },
        {
            "text": "take is that it's some kind of let's see",
            "start": 192.36,
            "duration": 3.36
        },
        {
            "text": "this is some kind of worse advice I've",
            "start": 194.459,
            "duration": 2.7
        },
        {
            "text": "ever heard real talk you literally have",
            "start": 195.72,
            "duration": 2.82
        },
        {
            "text": "been told by companies that there's a",
            "start": 197.159,
            "duration": 2.701
        },
        {
            "text": "secret handshake it involves knowing",
            "start": 198.54,
            "duration": 2.76
        },
        {
            "text": "basic data structures how to apply them",
            "start": 199.86,
            "duration": 3.36
        },
        {
            "text": "so you can go and study for eight hours",
            "start": 201.3,
            "duration": 4.14
        },
        {
            "text": "uh get good at that walk in do the",
            "start": 203.22,
            "duration": 3.78
        },
        {
            "text": "secret handshake and go right inside the",
            "start": 205.44,
            "duration": 3.299
        },
        {
            "text": "door yeah I still agree with that",
            "start": 207.0,
            "duration": 3.48
        },
        {
            "text": "literally the company companies are",
            "start": 208.739,
            "duration": 5.061
        },
        {
            "text": "telling you right now exactly",
            "start": 210.48,
            "duration": 6.66
        },
        {
            "text": "what their secret handshake is know your",
            "start": 213.8,
            "duration": 5.439
        },
        {
            "text": "data structures know how to use them",
            "start": 217.14,
            "duration": 4.5
        },
        {
            "text": "tell me the running time understand how",
            "start": 219.239,
            "duration": 5.28
        },
        {
            "text": "for loops work boom right it's like that",
            "start": 221.64,
            "duration": 4.8
        },
        {
            "text": "simple you know those things you can get",
            "start": 224.519,
            "duration": 5.101
        },
        {
            "text": "into the door of most companies",
            "start": 226.44,
            "duration": 5.46
        },
        {
            "text": "just facts so I must have I must have",
            "start": 229.62,
            "duration": 3.42
        },
        {
            "text": "been wrong here I must have",
            "start": 231.9,
            "duration": 3.3
        },
        {
            "text": "misinterpreted his stuff my answer will",
            "start": 233.04,
            "duration": 4.32
        },
        {
            "text": "be boring I agree with all that we have",
            "start": 235.2,
            "duration": 3.72
        },
        {
            "text": "a basic misunderstanding of what a",
            "start": 237.36,
            "duration": 3.36
        },
        {
            "text": "coding challenge is meant uh in the",
            "start": 238.92,
            "duration": 3.78
        },
        {
            "text": "context of my article I didn't mean an",
            "start": 240.72,
            "duration": 4.379
        },
        {
            "text": "algorithmic interview and the confusion",
            "start": 242.7,
            "duration": 3.899
        },
        {
            "text": "is my fault I assumed that it was",
            "start": 245.099,
            "duration": 2.821
        },
        {
            "text": "obvious when I meant coding challenge",
            "start": 246.599,
            "duration": 2.881
        },
        {
            "text": "yeah see when I hear coding challenge I",
            "start": 247.92,
            "duration": 3.48
        },
        {
            "text": "think algorithmic interview type one in",
            "start": 249.48,
            "duration": 3.06
        },
        {
            "text": "the chat if you think algorithmic",
            "start": 251.4,
            "duration": 2.58
        },
        {
            "text": "interview when you hear the term coding",
            "start": 252.54,
            "duration": 4.58
        },
        {
            "text": "challenge hello ping",
            "start": 253.98,
            "duration": 3.14
        },
        {
            "text": "you are the Pink Guy pink",
            "start": 257.94,
            "duration": 4.74
        },
        {
            "text": "pink Okay so",
            "start": 260.04,
            "duration": 5.58
        },
        {
            "text": "all right press 69 in the chat when you",
            "start": 262.68,
            "duration": 5.12
        },
        {
            "text": "hear coding challenge you don't think",
            "start": 265.62,
            "duration": 6.62
        },
        {
            "text": "algorithmic interview 69 in the chat",
            "start": 267.8,
            "duration": 4.44
        },
        {
            "text": "interesting what do you think can",
            "start": 276.02,
            "duration": 3.7
        },
        {
            "text": "someone just type what you think when",
            "start": 278.1,
            "duration": 3.3
        },
        {
            "text": "you hear the term coding challenge what",
            "start": 279.72,
            "duration": 3.36
        },
        {
            "text": "do you think",
            "start": 281.4,
            "duration": 4.76
        },
        {
            "text": "I'm super curious",
            "start": 283.08,
            "duration": 3.08
        },
        {
            "text": "foreign",
            "start": 286.259,
            "duration": 2.541
        },
        {
            "text": "it's about a two-thirds one-third okay",
            "start": 288.86,
            "duration": 4.48
        },
        {
            "text": "60 uh take home take home people think",
            "start": 291.479,
            "duration": 4.861
        },
        {
            "text": "take home really Capture the Flag okay",
            "start": 293.34,
            "duration": 5.7
        },
        {
            "text": "that seems fun to take home four to",
            "start": 296.34,
            "duration": 4.44
        },
        {
            "text": "eight hours Lee code well lead code",
            "start": 299.04,
            "duration": 4.56
        },
        {
            "text": "would be coding challenge",
            "start": 300.78,
            "duration": 4.8
        },
        {
            "text": "people are voting for both uh yeah I",
            "start": 303.6,
            "duration": 4.02
        },
        {
            "text": "know people always vote algorithms take",
            "start": 305.58,
            "duration": 3.66
        },
        {
            "text": "home okay so a lot of people think uh",
            "start": 307.62,
            "duration": 2.82
        },
        {
            "text": "take home",
            "start": 309.24,
            "duration": 5.1
        },
        {
            "text": "pack the Mainframe classic overdose okay",
            "start": 310.44,
            "duration": 6.96
        },
        {
            "text": "that seems a little strange but clearly",
            "start": 314.34,
            "duration": 5.639
        },
        {
            "text": "uh it happened let's see it often",
            "start": 317.4,
            "duration": 4.2
        },
        {
            "text": "happens what was obvious to the writer",
            "start": 319.979,
            "duration": 2.881
        },
        {
            "text": "is not in fact obvious to the readers",
            "start": 321.6,
            "duration": 2.64
        },
        {
            "text": "this is like the greatest piece of",
            "start": 322.86,
            "duration": 3.54
        },
        {
            "text": "advice I've ever heard in my lifetime if",
            "start": 324.24,
            "duration": 3.899
        },
        {
            "text": "there's anything we can take from any of",
            "start": 326.4,
            "duration": 3.42
        },
        {
            "text": "these articles This truly is the best",
            "start": 328.139,
            "duration": 3.601
        },
        {
            "text": "thing you can take if you can Master",
            "start": 329.82,
            "duration": 4.92
        },
        {
            "text": "this one skill you're going to just go",
            "start": 331.74,
            "duration": 4.44
        },
        {
            "text": "farther",
            "start": 334.74,
            "duration": 3.48
        },
        {
            "text": "so much further if you can figure out",
            "start": 336.18,
            "duration": 3.84
        },
        {
            "text": "how to deliver the minimal amount of",
            "start": 338.22,
            "duration": 3.66
        },
        {
            "text": "context to get the most people on the",
            "start": 340.02,
            "duration": 4.38
        },
        {
            "text": "same track it is this like it's a magic",
            "start": 341.88,
            "duration": 4.86
        },
        {
            "text": "skill in which I have no idea how it",
            "start": 344.4,
            "duration": 4.739
        },
        {
            "text": "works uh what happened uh is that I",
            "start": 346.74,
            "duration": 3.66
        },
        {
            "text": "wrote the article after seeing a friend",
            "start": 349.139,
            "duration": 4.62
        },
        {
            "text": "waste uh way too many times and uh and",
            "start": 350.4,
            "duration": 5.639
        },
        {
            "text": "morale with a coding challenge that sort",
            "start": 353.759,
            "duration": 5.761
        },
        {
            "text": "of let's see that's sort of that sort",
            "start": 356.039,
            "duration": 5.821
        },
        {
            "text": "okay we are a music player app company",
            "start": 359.52,
            "duration": 4.08
        },
        {
            "text": "so we challenge you to do a simplified",
            "start": 361.86,
            "duration": 4.74
        },
        {
            "text": "music app player uh with a lying time",
            "start": 363.6,
            "duration": 5.34
        },
        {
            "text": "estimate of four hours and then we'll",
            "start": 366.6,
            "duration": 3.96
        },
        {
            "text": "evaluate evaluate the code quality",
            "start": 368.94,
            "duration": 4.94
        },
        {
            "text": "according to unknown criteria",
            "start": 370.56,
            "duration": 3.32
        },
        {
            "text": "hmm interesting",
            "start": 375.419,
            "duration": 3.141
        },
        {
            "text": "I think they put in I think he I think",
            "start": 379.38,
            "duration": 3.72
        },
        {
            "text": "he embellished this part a lying time",
            "start": 381.12,
            "duration": 3.9
        },
        {
            "text": "estimate okay this is this is",
            "start": 383.1,
            "duration": 3.24
        },
        {
            "text": "interesting so so what he's talking",
            "start": 385.02,
            "duration": 5.36
        },
        {
            "text": "about is actually these large take-homes",
            "start": 386.34,
            "duration": 4.04
        },
        {
            "text": "let me think about this so",
            "start": 394.8,
            "duration": 5.88
        },
        {
            "text": "I have done two take-homes in my life",
            "start": 398.58,
            "duration": 4.2
        },
        {
            "text": "one I was rejected for the other one I",
            "start": 400.68,
            "duration": 3.48
        },
        {
            "text": "got the job the other one I got the job",
            "start": 402.78,
            "duration": 3.96
        },
        {
            "text": "for of course was Netflix",
            "start": 404.16,
            "duration": 4.259
        },
        {
            "text": "right the one I didn't get the job for",
            "start": 406.74,
            "duration": 3.12
        },
        {
            "text": "was coinbase",
            "start": 408.419,
            "duration": 3.12
        },
        {
            "text": "I didn't pass the coding interview I did",
            "start": 409.86,
            "duration": 3.059
        },
        {
            "text": "you know they gave me a really nebulous",
            "start": 411.539,
            "duration": 2.88
        },
        {
            "text": "requirement so I just kind of made up",
            "start": 412.919,
            "duration": 4.021
        },
        {
            "text": "stuff and uh apparently they judge you",
            "start": 414.419,
            "duration": 4.321
        },
        {
            "text": "on how well you can suss out people's",
            "start": 416.94,
            "duration": 3.18
        },
        {
            "text": "imaginations",
            "start": 418.74,
            "duration": 3.179
        },
        {
            "text": "you know what I mean I I always hate",
            "start": 420.12,
            "duration": 4.26
        },
        {
            "text": "that this obviously is really this is a",
            "start": 421.919,
            "duration": 6.241
        },
        {
            "text": "lot this is a lot of work",
            "start": 424.38,
            "duration": 6.48
        },
        {
            "text": "maybe if you do it on the web",
            "start": 428.16,
            "duration": 4.68
        },
        {
            "text": "I don't know how long it would take but",
            "start": 430.86,
            "duration": 3.3
        },
        {
            "text": "I mean there's pretty simplified",
            "start": 432.84,
            "duration": 3.0
        },
        {
            "text": "controls on the web do you know what I",
            "start": 434.16,
            "duration": 3.659
        },
        {
            "text": "mean like there's only a few things you",
            "start": 435.84,
            "duration": 3.96
        },
        {
            "text": "have to know how to do the hard part is",
            "start": 437.819,
            "duration": 3.72
        },
        {
            "text": "what I don't know is if it does the",
            "start": 439.8,
            "duration": 4.44
        },
        {
            "text": "audio class give you time estimates so",
            "start": 441.539,
            "duration": 3.961
        },
        {
            "text": "the hardest part would be like the",
            "start": 444.24,
            "duration": 3.6
        },
        {
            "text": "slider you know what I mean",
            "start": 445.5,
            "duration": 6.44
        },
        {
            "text": "slider would probably be very hard",
            "start": 447.84,
            "duration": 4.1
        },
        {
            "text": "hey fellow technologists well hey uh",
            "start": 452.66,
            "duration": 4.3
        },
        {
            "text": "besides for that I think everything else",
            "start": 455.699,
            "duration": 4.861
        },
        {
            "text": "would be pretty straightforward",
            "start": 456.96,
            "duration": 6.42
        },
        {
            "text": "you know what I mean",
            "start": 460.56,
            "duration": 5.46
        },
        {
            "text": "time to present yeah I mean well there's",
            "start": 463.38,
            "duration": 4.02
        },
        {
            "text": "that you know you gotta make sure you",
            "start": 466.02,
            "duration": 3.119
        },
        {
            "text": "jump I'm not sure what controls are but",
            "start": 467.4,
            "duration": 3.48
        },
        {
            "text": "I mean if you can do that I mean I don't",
            "start": 469.139,
            "duration": 4.321
        },
        {
            "text": "think this is a terribly hard problem I",
            "start": 470.88,
            "duration": 3.96
        },
        {
            "text": "think I could whip out a pretty basic",
            "start": 473.46,
            "duration": 3.299
        },
        {
            "text": "one in four hours",
            "start": 474.84,
            "duration": 4.859
        },
        {
            "text": "maybe even sooner maybe two hours",
            "start": 476.759,
            "duration": 4.56
        },
        {
            "text": "I'd probably spend an hour and a half",
            "start": 479.699,
            "duration": 2.94
        },
        {
            "text": "trying to get typescript to work",
            "start": 481.319,
            "duration": 2.82
        },
        {
            "text": "properly and then after getting",
            "start": 482.639,
            "duration": 3.9
        },
        {
            "text": "typescript to work properly uh with a",
            "start": 484.139,
            "duration": 4.261
        },
        {
            "text": "nice build system and everything I would",
            "start": 486.539,
            "duration": 3.361
        },
        {
            "text": "then probably have to code that up in",
            "start": 488.4,
            "duration": 3.06
        },
        {
            "text": "probably like 20 minutes with Tailwind",
            "start": 489.9,
            "duration": 4.699
        },
        {
            "text": "you know I mean",
            "start": 491.46,
            "duration": 3.139
        },
        {
            "text": "that would take about 20 minutes",
            "start": 496.139,
            "duration": 3.441
        },
        {
            "text": "and then I'd go and deployed on",
            "start": 499.62,
            "duration": 3.18
        },
        {
            "text": "something wild like Google app engine",
            "start": 501.18,
            "duration": 4.38
        },
        {
            "text": "just to like throw it somewhere weird",
            "start": 502.8,
            "duration": 4.739
        },
        {
            "text": "you know what I mean",
            "start": 505.56,
            "duration": 3.9
        },
        {
            "text": "and then they'll be like what and then",
            "start": 507.539,
            "duration": 4.021
        },
        {
            "text": "I'll be like yeah Google app engine baby",
            "start": 509.46,
            "duration": 4.499
        },
        {
            "text": "and I'll toss them a wink you know super",
            "start": 511.56,
            "duration": 4.74
        },
        {
            "text": "strange uh how about the trying",
            "start": 513.959,
            "duration": 3.901
        },
        {
            "text": "feasibility I don't know anyways let's",
            "start": 516.3,
            "duration": 3.119
        },
        {
            "text": "keep on going so what's good hiring",
            "start": 517.86,
            "duration": 2.88
        },
        {
            "text": "criteria in the comments of the previous",
            "start": 519.419,
            "duration": 2.881
        },
        {
            "text": "article I have lazily described all",
            "start": 520.74,
            "duration": 3.599
        },
        {
            "text": "kinds of challenges as good and bad wait",
            "start": 522.3,
            "duration": 3.96
        },
        {
            "text": "uh what does that mean there is actually",
            "start": 524.339,
            "duration": 3.601
        },
        {
            "text": "a real definition of good hiring",
            "start": 526.26,
            "duration": 3.48
        },
        {
            "text": "criteria in the literature which I would",
            "start": 527.94,
            "duration": 3.42
        },
        {
            "text": "assume uh summarize this way a good",
            "start": 529.74,
            "duration": 4.2
        },
        {
            "text": "hiring criteria must be relevant stable",
            "start": 531.36,
            "duration": 4.56
        },
        {
            "text": "and realistic and okay there's there's",
            "start": 533.94,
            "duration": 3.959
        },
        {
            "text": "missing comma somewhere in here a good",
            "start": 535.92,
            "duration": 4.44
        },
        {
            "text": "hiring criteria must be relevant stable",
            "start": 537.899,
            "duration": 5.281
        },
        {
            "text": "realistic and very clear okay I do like",
            "start": 540.36,
            "duration": 4.86
        },
        {
            "text": "that I do like reproducible hiring I",
            "start": 543.18,
            "duration": 2.94
        },
        {
            "text": "think that that's really good for",
            "start": 545.22,
            "duration": 2.76
        },
        {
            "text": "example algebraic challenge at Netflix",
            "start": 546.12,
            "duration": 3.6
        },
        {
            "text": "is relevant because Netflix does a lot",
            "start": 547.98,
            "duration": 3.18
        },
        {
            "text": "of coding stuff so we do very little of",
            "start": 549.72,
            "duration": 2.88
        },
        {
            "text": "it uh stable because if you ask",
            "start": 551.16,
            "duration": 2.82
        },
        {
            "text": "different people whether a candidate",
            "start": 552.6,
            "duration": 2.94
        },
        {
            "text": "succeeded at an algorithm challenge they",
            "start": 553.98,
            "duration": 3.6
        },
        {
            "text": "uh they would mostly agree",
            "start": 555.54,
            "duration": 4.38
        },
        {
            "text": "yeah that's fine uh realistic because it",
            "start": 557.58,
            "duration": 3.9
        },
        {
            "text": "takes time let's see it takes a limited",
            "start": 559.92,
            "duration": 3.12
        },
        {
            "text": "amount of time and the same for the",
            "start": 561.48,
            "duration": 3.12
        },
        {
            "text": "company and the candidate learning a",
            "start": 563.04,
            "duration": 3.06
        },
        {
            "text": "data structured algorithms is a doable",
            "start": 564.6,
            "duration": 2.94
        },
        {
            "text": "task okay I agree with all these ones",
            "start": 566.1,
            "duration": 3.66
        },
        {
            "text": "very clear yeah because it's almost like",
            "start": 567.54,
            "duration": 4.44
        },
        {
            "text": "a math problem uh sort of but yeah I see",
            "start": 569.76,
            "duration": 4.139
        },
        {
            "text": "what you're saying a simple whiteboard",
            "start": 571.98,
            "duration": 4.68
        },
        {
            "text": "encoding challenge that is not dependent",
            "start": 573.899,
            "duration": 5.221
        },
        {
            "text": "on some really stupid algorithm that a",
            "start": 576.66,
            "duration": 4.26
        },
        {
            "text": "PhD person got that you're expected to",
            "start": 579.12,
            "duration": 3.42
        },
        {
            "text": "know in an instance right like I I",
            "start": 580.92,
            "duration": 2.88
        },
        {
            "text": "always hate those kind of coding",
            "start": 582.54,
            "duration": 3.18
        },
        {
            "text": "challenges right the ones that are you",
            "start": 583.8,
            "duration": 3.719
        },
        {
            "text": "know find a cycle in a singly linked",
            "start": 585.72,
            "duration": 4.5
        },
        {
            "text": "list if you've never done that",
            "start": 587.519,
            "duration": 4.44
        },
        {
            "text": "and they just want you to discover that",
            "start": 590.22,
            "duration": 3.179
        },
        {
            "text": "for the first time and you've never read",
            "start": 591.959,
            "duration": 3.541
        },
        {
            "text": "that it's like it there is definitely",
            "start": 593.399,
            "duration": 4.261
        },
        {
            "text": "like there's definitely an aha moment",
            "start": 595.5,
            "duration": 4.26
        },
        {
            "text": "that has to happen in your life that's",
            "start": 597.66,
            "duration": 4.56
        },
        {
            "text": "really hard do you know what I mean like",
            "start": 599.76,
            "duration": 4.74
        },
        {
            "text": "it is most certainly not a very",
            "start": 602.22,
            "duration": 4.5
        },
        {
            "text": "emotionally easy first time going over",
            "start": 604.5,
            "duration": 3.839
        },
        {
            "text": "that problem I hate those kind of things",
            "start": 606.72,
            "duration": 3.119
        },
        {
            "text": "I think those ones are such boring",
            "start": 608.339,
            "duration": 4.081
        },
        {
            "text": "take-homes well or not take homes but",
            "start": 609.839,
            "duration": 4.021
        },
        {
            "text": "coding challenges whiteboarding",
            "start": 612.42,
            "duration": 2.94
        },
        {
            "text": "challenges let's see why a coding",
            "start": 613.86,
            "duration": 2.64
        },
        {
            "text": "challenge is the ones I had in mind",
            "start": 615.36,
            "duration": 3.06
        },
        {
            "text": "coding challenges are relevant in the",
            "start": 616.5,
            "duration": 3.54
        },
        {
            "text": "sense that they uh that the simplified",
            "start": 618.42,
            "duration": 3.539
        },
        {
            "text": "music app has clear link to a real music",
            "start": 620.04,
            "duration": 3.9
        },
        {
            "text": "yeah okay coding challenges are not",
            "start": 621.959,
            "duration": 3.301
        },
        {
            "text": "stable meaning that if you present the",
            "start": 623.94,
            "duration": 2.339
        },
        {
            "text": "same coding challenge to different",
            "start": 625.26,
            "duration": 2.519
        },
        {
            "text": "companies or even different people",
            "start": 626.279,
            "duration": 3.18
        },
        {
            "text": "inside the companies you'll get a looks",
            "start": 627.779,
            "duration": 3.601
        },
        {
            "text": "good to me not our level of quality",
            "start": 629.459,
            "duration": 4.44
        },
        {
            "text": "trademark and okay so that's actually a",
            "start": 631.38,
            "duration": 5.22
        },
        {
            "text": "reasonable takeaway",
            "start": 633.899,
            "duration": 5.761
        },
        {
            "text": "which is when someone reviews code",
            "start": 636.6,
            "duration": 5.76
        },
        {
            "text": "versus you review pseudocode in a",
            "start": 639.66,
            "duration": 4.08
        },
        {
            "text": "whiteboarding idea these are very",
            "start": 642.36,
            "duration": 3.479
        },
        {
            "text": "different do you know what I mean I can",
            "start": 643.74,
            "duration": 4.14
        },
        {
            "text": "buy this this makes a lot of sense to me",
            "start": 645.839,
            "duration": 4.74
        },
        {
            "text": "at least is that you can't perfectly",
            "start": 647.88,
            "duration": 4.98
        },
        {
            "text": "gauge it right because everyone has a",
            "start": 650.579,
            "duration": 4.44
        },
        {
            "text": "different feel some people knit hard",
            "start": 652.86,
            "duration": 3.84
        },
        {
            "text": "like code reviews you get the right",
            "start": 655.019,
            "duration": 3.661
        },
        {
            "text": "person on and it's just knit after knit",
            "start": 656.7,
            "duration": 3.84
        },
        {
            "text": "and they're so annoying and then if you",
            "start": 658.68,
            "duration": 3.779
        },
        {
            "text": "go the inverse hey lithium you go in the",
            "start": 660.54,
            "duration": 3.6
        },
        {
            "text": "inverse some people just don't care and",
            "start": 662.459,
            "duration": 4.741
        },
        {
            "text": "so it's totally like a",
            "start": 664.14,
            "duration": 5.42
        },
        {
            "text": "you know",
            "start": 667.2,
            "duration": 4.86
        },
        {
            "text": "uh coding challenges are not realistic",
            "start": 669.56,
            "duration": 4.54
        },
        {
            "text": "for someone outside the team uh that's",
            "start": 672.06,
            "duration": 4.14
        },
        {
            "text": "uh what the term means people inside the",
            "start": 674.1,
            "duration": 3.359
        },
        {
            "text": "team who know everything about building",
            "start": 676.2,
            "duration": 2.52
        },
        {
            "text": "a music player who designed the",
            "start": 677.459,
            "duration": 3.12
        },
        {
            "text": "challenge can create uh can criticize",
            "start": 678.72,
            "duration": 3.84
        },
        {
            "text": "your work in 42 different ways now see I",
            "start": 680.579,
            "duration": 3.601
        },
        {
            "text": "see I don't I don't agree with this I",
            "start": 682.56,
            "duration": 3.54
        },
        {
            "text": "don't agree with this at all like if",
            "start": 684.18,
            "duration": 4.38
        },
        {
            "text": "you're just doing a web music player and",
            "start": 686.1,
            "duration": 4.14
        },
        {
            "text": "you use the audio interface and you put",
            "start": 688.56,
            "duration": 3.3
        },
        {
            "text": "up a couple things pause right you have",
            "start": 690.24,
            "duration": 3.779
        },
        {
            "text": "a very simplified acceptance criteria",
            "start": 691.86,
            "duration": 5.28
        },
        {
            "text": "you know pause and play and make a video",
            "start": 694.019,
            "duration": 5.041
        },
        {
            "text": "thing and then how would you extend this",
            "start": 697.14,
            "duration": 3.6
        },
        {
            "text": "like keep in mind how to extend this to",
            "start": 699.06,
            "duration": 3.06
        },
        {
            "text": "other controls I think that that's",
            "start": 700.74,
            "duration": 3.0
        },
        {
            "text": "actually a pretty reasonable coding",
            "start": 702.12,
            "duration": 3.659
        },
        {
            "text": "Challenge and that even if you don't",
            "start": 703.74,
            "duration": 4.2
        },
        {
            "text": "like their coding style as long as you",
            "start": 705.779,
            "duration": 4.141
        },
        {
            "text": "have good interviewers you will go okay",
            "start": 707.94,
            "duration": 3.899
        },
        {
            "text": "this is good this is bad this is why",
            "start": 709.92,
            "duration": 3.3
        },
        {
            "text": "it's good this is why it's bad I don't",
            "start": 711.839,
            "duration": 2.94
        },
        {
            "text": "know I kind of just disagree with this",
            "start": 713.22,
            "duration": 3.6
        },
        {
            "text": "in general uh coding challenges are not",
            "start": 714.779,
            "duration": 3.721
        },
        {
            "text": "very clear now that on the other hand",
            "start": 716.82,
            "duration": 3.24
        },
        {
            "text": "that's just like a pure mistake some",
            "start": 718.5,
            "duration": 3.12
        },
        {
            "text": "coding challenges on whiteboards aren't",
            "start": 720.06,
            "duration": 3.06
        },
        {
            "text": "very clear",
            "start": 721.62,
            "duration": 3.36
        },
        {
            "text": "had coding challenges where they they",
            "start": 723.12,
            "duration": 4.5
        },
        {
            "text": "expect you to suss out what you're",
            "start": 724.98,
            "duration": 4.62
        },
        {
            "text": "supposed to do",
            "start": 727.62,
            "duration": 4.74
        },
        {
            "text": "anyone's ever had one of those those are",
            "start": 729.6,
            "duration": 5.6
        },
        {
            "text": "the worst",
            "start": 732.36,
            "duration": 2.84
        },
        {
            "text": "do you know what I mean those are just",
            "start": 736.32,
            "duration": 5.72
        },
        {
            "text": "the worst coding challenges",
            "start": 738.66,
            "duration": 3.38
        },
        {
            "text": "I've never done a tech interview oh",
            "start": 742.26,
            "duration": 4.8
        },
        {
            "text": "really okay I I hate those things I like",
            "start": 744.48,
            "duration": 5.82
        },
        {
            "text": "clear concise ideas in in an interview",
            "start": 747.06,
            "duration": 5.519
        },
        {
            "text": "but you got the best candidate you don't",
            "start": 750.3,
            "duration": 4.26
        },
        {
            "text": "have the best candidate you truly don't",
            "start": 752.579,
            "duration": 4.561
        },
        {
            "text": "have the best candidate",
            "start": 754.56,
            "duration": 4.74
        },
        {
            "text": "a best candidate is not chosen by how",
            "start": 757.14,
            "duration": 3.72
        },
        {
            "text": "well they can take your really shitty",
            "start": 759.3,
            "duration": 3.599
        },
        {
            "text": "instructions and make them clear if",
            "start": 760.86,
            "duration": 4.08
        },
        {
            "text": "that's how your job Works you're working",
            "start": 762.899,
            "duration": 5.221
        },
        {
            "text": "with horrible people okay I like I get",
            "start": 764.94,
            "duration": 5.22
        },
        {
            "text": "that when you're working in a group the",
            "start": 768.12,
            "duration": 4.019
        },
        {
            "text": "goal is to get what is inside your head",
            "start": 770.16,
            "duration": 3.96
        },
        {
            "text": "out there so everyone can try to build",
            "start": 772.139,
            "duration": 4.5
        },
        {
            "text": "the same you know stuff but if you have",
            "start": 774.12,
            "duration": 5.159
        },
        {
            "text": "a designer that's like yeah I need some",
            "start": 776.639,
            "duration": 4.561
        },
        {
            "text": "boxes",
            "start": 779.279,
            "duration": 3.781
        },
        {
            "text": "and then you're like okay well what's",
            "start": 781.2,
            "duration": 3.54
        },
        {
            "text": "the boxes why don't you ask some",
            "start": 783.06,
            "duration": 3.959
        },
        {
            "text": "questions to let me to to get me to tell",
            "start": 784.74,
            "duration": 3.899
        },
        {
            "text": "you you're like dude [\u00a0__\u00a0] you go just",
            "start": 787.019,
            "duration": 3.481
        },
        {
            "text": "give me a design stop this this is",
            "start": 788.639,
            "duration": 4.981
        },
        {
            "text": "stupid don't do no don't do that that's",
            "start": 790.5,
            "duration": 4.74
        },
        {
            "text": "the worst form of communication I'm not",
            "start": 793.62,
            "duration": 3.659
        },
        {
            "text": "gonna ask you to get it out of me show",
            "start": 795.24,
            "duration": 6.06
        },
        {
            "text": "me okay that's your job my job is to",
            "start": 797.279,
            "duration": 7.021
        },
        {
            "text": "build what you think is best and then we",
            "start": 801.3,
            "duration": 5.099
        },
        {
            "text": "can have dialogue okay",
            "start": 804.3,
            "duration": 4.14
        },
        {
            "text": "there's always ambiguity but you work",
            "start": 806.399,
            "duration": 4.74
        },
        {
            "text": "that out there's not planned ambiguity",
            "start": 808.44,
            "duration": 4.86
        },
        {
            "text": "ask zoltar",
            "start": 811.139,
            "duration": 4.621
        },
        {
            "text": "like right a real talk that's I hate",
            "start": 813.3,
            "duration": 3.659
        },
        {
            "text": "those interviews those are just the",
            "start": 815.76,
            "duration": 4.379
        },
        {
            "text": "worst uh so this I feel like is just BS",
            "start": 816.959,
            "duration": 5.101
        },
        {
            "text": "this is a BS thing because this is not a",
            "start": 820.139,
            "duration": 3.301
        },
        {
            "text": "problem of coding challenges this is a",
            "start": 822.06,
            "duration": 3.839
        },
        {
            "text": "problem of any kind of engineering",
            "start": 823.44,
            "duration": 5.459
        },
        {
            "text": "uh people that intentionally make things",
            "start": 825.899,
            "duration": 4.981
        },
        {
            "text": "vague I don't like I think that if",
            "start": 828.899,
            "duration": 3.901
        },
        {
            "text": "you're gauging someone on being able to",
            "start": 830.88,
            "duration": 3.18
        },
        {
            "text": "solve a problem you need to give them",
            "start": 832.8,
            "duration": 3.06
        },
        {
            "text": "the most precise definition of said",
            "start": 834.06,
            "duration": 4.74
        },
        {
            "text": "problem uh in my humble opinion is it",
            "start": 835.86,
            "duration": 5.34
        },
        {
            "text": "humble or is it horny I don't know what",
            "start": 838.8,
            "duration": 4.44
        },
        {
            "text": "the H stands for uh companies can do",
            "start": 841.2,
            "duration": 3.54
        },
        {
            "text": "better than cargo called someone else's",
            "start": 843.24,
            "duration": 3.98
        },
        {
            "text": "bad idea",
            "start": 844.74,
            "duration": 2.48
        },
        {
            "text": "wasting your uh wasting both your time",
            "start": 847.68,
            "duration": 4.86
        },
        {
            "text": "and Company's time uh when you say no to",
            "start": 850.019,
            "duration": 4.801
        },
        {
            "text": "something important uh to you always say",
            "start": 852.54,
            "duration": 4.32
        },
        {
            "text": "yes to something else you protect your",
            "start": 854.82,
            "duration": 4.019
        },
        {
            "text": "time you protect your morale you protect",
            "start": 856.86,
            "duration": 3.9
        },
        {
            "text": "your self-respect one thing I didn't",
            "start": 858.839,
            "duration": 3.3
        },
        {
            "text": "mention because I was writing from a",
            "start": 860.76,
            "duration": 2.699
        },
        {
            "text": "candidate point of view is that they",
            "start": 862.139,
            "duration": 2.461
        },
        {
            "text": "also waste the time of the company",
            "start": 863.459,
            "duration": 4.021
        },
        {
            "text": "that's true uh that's here not relevant",
            "start": 864.6,
            "duration": 4.26
        },
        {
            "text": "for Netflix because I guess that's",
            "start": 867.48,
            "duration": 3.06
        },
        {
            "text": "shitloads of talent candidates apply",
            "start": 868.86,
            "duration": 4.08
        },
        {
            "text": "there so this is not true I do think",
            "start": 870.54,
            "duration": 3.96
        },
        {
            "text": "that",
            "start": 872.94,
            "duration": 3.36
        },
        {
            "text": "again I think me and this guy have like",
            "start": 874.5,
            "duration": 4.139
        },
        {
            "text": "a fundamental impasse on what we both",
            "start": 876.3,
            "duration": 4.38
        },
        {
            "text": "think uh I think coding Channel Good",
            "start": 878.639,
            "duration": 4.14
        },
        {
            "text": "take homes are great good take homes",
            "start": 880.68,
            "duration": 4.68
        },
        {
            "text": "give a chance for a candidate to show a",
            "start": 882.779,
            "duration": 3.601
        },
        {
            "text": "different side of them that's not",
            "start": 885.36,
            "duration": 3.719
        },
        {
            "text": "present in a uh",
            "start": 886.38,
            "duration": 4.98
        },
        {
            "text": "present in a 50-minute interview right",
            "start": 889.079,
            "duration": 4.56
        },
        {
            "text": "because some people they really shine",
            "start": 891.36,
            "duration": 4.26
        },
        {
            "text": "when they're under pressure so that's",
            "start": 893.639,
            "duration": 3.841
        },
        {
            "text": "just how some people are I'm I'm I",
            "start": 895.62,
            "duration": 3.48
        },
        {
            "text": "definitely feel like I shine under",
            "start": 897.48,
            "duration": 4.32
        },
        {
            "text": "pressure when someone says hey go make",
            "start": 899.1,
            "duration": 4.919
        },
        {
            "text": "this right now I feel like I can do that",
            "start": 901.8,
            "duration": 5.039
        },
        {
            "text": "really well but when someone says hey go",
            "start": 904.019,
            "duration": 4.44
        },
        {
            "text": "make this over you know the next three",
            "start": 906.839,
            "duration": 4.081
        },
        {
            "text": "days I know I can do a great job on that",
            "start": 908.459,
            "duration": 4.261
        },
        {
            "text": "but that's a different set of skills",
            "start": 910.92,
            "duration": 3.479
        },
        {
            "text": "whereas some people they don't feel like",
            "start": 912.72,
            "duration": 3.239
        },
        {
            "text": "they can do good in front of people but",
            "start": 914.399,
            "duration": 4.8
        },
        {
            "text": "they do really well you know sitting",
            "start": 915.959,
            "duration": 5.82
        },
        {
            "text": "back making the right stuff and that's",
            "start": 919.199,
            "duration": 5.221
        },
        {
            "text": "that and so it's like yeah some people",
            "start": 921.779,
            "duration": 4.92
        },
        {
            "text": "prefer one way over the other uh I one",
            "start": 924.42,
            "duration": 3.359
        },
        {
            "text": "thing I think that could be taken away",
            "start": 926.699,
            "duration": 3.601
        },
        {
            "text": "from this I what I think is really good",
            "start": 927.779,
            "duration": 5.221
        },
        {
            "text": "is that companies maybe should devise an",
            "start": 930.3,
            "duration": 4.02
        },
        {
            "text": "interview that can allow for many",
            "start": 933.0,
            "duration": 4.079
        },
        {
            "text": "candidates you know",
            "start": 934.32,
            "duration": 4.68
        },
        {
            "text": "uh spending the day with the team just",
            "start": 937.079,
            "duration": 2.94
        },
        {
            "text": "to get to know the culture so the",
            "start": 939.0,
            "duration": 2.699
        },
        {
            "text": "question is this what's your take on a",
            "start": 940.019,
            "duration": 2.94
        },
        {
            "text": "take home versus spending the day with",
            "start": 941.699,
            "duration": 3.061
        },
        {
            "text": "the uh with the team to get both the",
            "start": 942.959,
            "duration": 3.12
        },
        {
            "text": "culture the team interactions and all",
            "start": 944.76,
            "duration": 4.199
        },
        {
            "text": "that well it's fake it's always fake uh",
            "start": 946.079,
            "duration": 5.281
        },
        {
            "text": "the reason why First Dates",
            "start": 948.959,
            "duration": 4.081
        },
        {
            "text": "you it's the reason why first States",
            "start": 951.36,
            "duration": 3.24
        },
        {
            "text": "sometimes are really really great in a",
            "start": 953.04,
            "duration": 3.0
        },
        {
            "text": "month and it's awful",
            "start": 954.6,
            "duration": 4.02
        },
        {
            "text": "you know what I mean it's because who",
            "start": 956.04,
            "duration": 4.5
        },
        {
            "text": "you are on a first date versus who you",
            "start": 958.62,
            "duration": 4.86
        },
        {
            "text": "are is very very different okay they're",
            "start": 960.54,
            "duration": 4.739
        },
        {
            "text": "just different and so it's like I don't",
            "start": 963.48,
            "duration": 4.2
        },
        {
            "text": "think you can really get to know",
            "start": 965.279,
            "duration": 4.321
        },
        {
            "text": "like that whole culture get to know",
            "start": 967.68,
            "duration": 3.839
        },
        {
            "text": "people the team processes I just don't",
            "start": 969.6,
            "duration": 3.479
        },
        {
            "text": "think it's quite the same and you do",
            "start": 971.519,
            "duration": 3.541
        },
        {
            "text": "waste a lot of time I would much rather",
            "start": 973.079,
            "duration": 3.421
        },
        {
            "text": "have a person I'd much rather have",
            "start": 975.06,
            "duration": 3.66
        },
        {
            "text": "someone say hey here's a simplified",
            "start": 976.5,
            "duration": 4.62
        },
        {
            "text": "coding challenge go do this don't spend",
            "start": 978.72,
            "duration": 5.52
        },
        {
            "text": "any more than four hours on it that's it",
            "start": 981.12,
            "duration": 4.74
        },
        {
            "text": "uh",
            "start": 984.24,
            "duration": 3.0
        },
        {
            "text": "I don't know to me that I like that",
            "start": 985.86,
            "duration": 3.0
        },
        {
            "text": "better I personally rather have that",
            "start": 987.24,
            "duration": 3.779
        },
        {
            "text": "personal opinion though again you indeed",
            "start": 988.86,
            "duration": 3.839
        },
        {
            "text": "have the right to say no absolutely I've",
            "start": 991.019,
            "duration": 3.12
        },
        {
            "text": "talked about companies perspective but I",
            "start": 992.699,
            "duration": 3.301
        },
        {
            "text": "would warn you against doing that in the",
            "start": 994.139,
            "duration": 3.241
        },
        {
            "text": "interview the reason why I didn't",
            "start": 996.0,
            "duration": 3.36
        },
        {
            "text": "propose uh you to say your company's",
            "start": 997.38,
            "duration": 4.259
        },
        {
            "text": "hiring practices leaves a hash tray in",
            "start": 999.36,
            "duration": 5.219
        },
        {
            "text": "my mind okay I didn't say that uh so no",
            "start": 1001.639,
            "duration": 4.5
        },
        {
            "text": "thank you to both your job and your",
            "start": 1004.579,
            "duration": 3.421
        },
        {
            "text": "interview process instead I recommend I",
            "start": 1006.139,
            "duration": 3.301
        },
        {
            "text": "have to be transparent with you I have",
            "start": 1008.0,
            "duration": 2.759
        },
        {
            "text": "bad experiences in the past with coding",
            "start": 1009.44,
            "duration": 2.459
        },
        {
            "text": "challenges and I've decided to stop",
            "start": 1010.759,
            "duration": 3.741
        },
        {
            "text": "accepting them",
            "start": 1011.899,
            "duration": 2.601
        },
        {
            "text": "I mean",
            "start": 1015.259,
            "duration": 4.681
        },
        {
            "text": "the problem is is that when you say this",
            "start": 1017.12,
            "duration": 5.94
        },
        {
            "text": "you only get how the person accepts it",
            "start": 1019.94,
            "duration": 5.399
        },
        {
            "text": "okay so when you're interviewing for a",
            "start": 1023.06,
            "duration": 4.92
        },
        {
            "text": "company and you say sorry I've had bad",
            "start": 1025.339,
            "duration": 4.801
        },
        {
            "text": "I've had bad I've had bad things with",
            "start": 1027.98,
            "duration": 4.74
        },
        {
            "text": "this I no longer accept them if the",
            "start": 1030.14,
            "duration": 4.98
        },
        {
            "text": "person takes that as your company sucks",
            "start": 1032.72,
            "duration": 4.079
        },
        {
            "text": "that's what they're going to take it as",
            "start": 1035.12,
            "duration": 3.839
        },
        {
            "text": "right you only leave it up to the",
            "start": 1036.799,
            "duration": 5.221
        },
        {
            "text": "person's interpretation that's that",
            "start": 1038.959,
            "duration": 5.34
        },
        {
            "text": "you know what I mean",
            "start": 1042.02,
            "duration": 3.899
        },
        {
            "text": "uh the difference here is that you're",
            "start": 1044.299,
            "duration": 2.941
        },
        {
            "text": "not judging them for putting them yet",
            "start": 1045.919,
            "duration": 2.88
        },
        {
            "text": "well that's the problem again you have",
            "start": 1047.24,
            "duration": 3.36
        },
        {
            "text": "no say over how they take it the",
            "start": 1048.799,
            "duration": 3.181
        },
        {
            "text": "companies here uh let's see the",
            "start": 1050.6,
            "duration": 2.64
        },
        {
            "text": "companies that will be mad at you for",
            "start": 1051.98,
            "duration": 3.3
        },
        {
            "text": "stating uh your needs are the minority",
            "start": 1053.24,
            "duration": 4.62
        },
        {
            "text": "bullet dodged I agree it is bullet",
            "start": 1055.28,
            "duration": 5.46
        },
        {
            "text": "dodged sort of uh again I don't know",
            "start": 1057.86,
            "duration": 4.26
        },
        {
            "text": "again this is the hard part is you're",
            "start": 1060.74,
            "duration": 2.88
        },
        {
            "text": "expecting a company to change their",
            "start": 1062.12,
            "duration": 4.64
        },
        {
            "text": "interview process for you",
            "start": 1063.62,
            "duration": 3.14
        },
        {
            "text": "sorry I just don't think that this is a",
            "start": 1068.02,
            "duration": 4.3
        },
        {
            "text": "uh I don't think this is a viable",
            "start": 1070.52,
            "duration": 4.38
        },
        {
            "text": "strategy so I let's see so I completely",
            "start": 1072.32,
            "duration": 4.32
        },
        {
            "text": "stand by my original thesis you have the",
            "start": 1074.9,
            "duration": 2.76
        },
        {
            "text": "right to choose when to say no",
            "start": 1076.64,
            "duration": 2.52
        },
        {
            "text": "absolutely you always have this right",
            "start": 1077.66,
            "duration": 3.6
        },
        {
            "text": "finally I told you that uh see you have",
            "start": 1079.16,
            "duration": 3.899
        },
        {
            "text": "the right to say no I didn't advise you",
            "start": 1081.26,
            "duration": 3.9
        },
        {
            "text": "to say no all the time so if I here's",
            "start": 1083.059,
            "duration": 4.5
        },
        {
            "text": "here's my take on this",
            "start": 1085.16,
            "duration": 4.56
        },
        {
            "text": "if you get the take home and it's",
            "start": 1087.559,
            "duration": 3.901
        },
        {
            "text": "intentionally vague",
            "start": 1089.72,
            "duration": 4.74
        },
        {
            "text": "and it clearly is very very open-ended I",
            "start": 1091.46,
            "duration": 4.68
        },
        {
            "text": "would communicate back and say hey my",
            "start": 1094.46,
            "duration": 4.14
        },
        {
            "text": "time is minimal and this this exercise",
            "start": 1096.14,
            "duration": 5.34
        },
        {
            "text": "is extremely open-ended I I don't want",
            "start": 1098.6,
            "duration": 4.02
        },
        {
            "text": "to proceed with this because I'm going",
            "start": 1101.48,
            "duration": 2.76
        },
        {
            "text": "to waste a bunch of time and I may or",
            "start": 1102.62,
            "duration": 2.939
        },
        {
            "text": "may not even hit the mark of what you",
            "start": 1104.24,
            "duration": 3.42
        },
        {
            "text": "want to me that is a fine thing to do",
            "start": 1105.559,
            "duration": 3.901
        },
        {
            "text": "you're giving them real feedback and",
            "start": 1107.66,
            "duration": 3.3
        },
        {
            "text": "just saying hey this isn't worth it and",
            "start": 1109.46,
            "duration": 2.82
        },
        {
            "text": "you're saying really you're telling them",
            "start": 1110.96,
            "duration": 2.88
        },
        {
            "text": "this interview is due to and that is",
            "start": 1112.28,
            "duration": 3.779
        },
        {
            "text": "okay to say I really do think it's okay",
            "start": 1113.84,
            "duration": 3.959
        },
        {
            "text": "to say your interview process is due to",
            "start": 1116.059,
            "duration": 3.961
        },
        {
            "text": "and I'm not going to do it but you have",
            "start": 1117.799,
            "duration": 5.221
        },
        {
            "text": "to be willing to say no to working at a",
            "start": 1120.02,
            "duration": 4.019
        },
        {
            "text": "company",
            "start": 1123.02,
            "duration": 3.779
        },
        {
            "text": "you know and that's only works if you",
            "start": 1124.039,
            "duration": 4.921
        },
        {
            "text": "are in a place of power already you",
            "start": 1126.799,
            "duration": 4.141
        },
        {
            "text": "already have a job or you're financially",
            "start": 1128.96,
            "duration": 3.839
        },
        {
            "text": "secure do you know what I mean like",
            "start": 1130.94,
            "duration": 3.479
        },
        {
            "text": "that's a very that's not something that",
            "start": 1132.799,
            "duration": 4.321
        },
        {
            "text": "anyone can just do it is definitely like",
            "start": 1134.419,
            "duration": 4.561
        },
        {
            "text": "I understand that is a very",
            "start": 1137.12,
            "duration": 4.2
        },
        {
            "text": "strong position of privilege to be able",
            "start": 1138.98,
            "duration": 4.199
        },
        {
            "text": "to say that",
            "start": 1141.32,
            "duration": 3.239
        },
        {
            "text": "uh if you only have two to three",
            "start": 1143.179,
            "duration": 3.421
        },
        {
            "text": "companies a month that uh interview you",
            "start": 1144.559,
            "duration": 3.841
        },
        {
            "text": "your next step is to generate more leads",
            "start": 1146.6,
            "duration": 3.78
        },
        {
            "text": "you can procrastinate by saying no",
            "start": 1148.4,
            "duration": 4.019
        },
        {
            "text": "on the other hand if you never use your",
            "start": 1150.38,
            "duration": 4.26
        },
        {
            "text": "right to say no then that right is",
            "start": 1152.419,
            "duration": 4.821
        },
        {
            "text": "pretty useless",
            "start": 1154.64,
            "duration": 2.6
        },
        {
            "text": "I don't know I think I think me and this",
            "start": 1158.059,
            "duration": 3.181
        },
        {
            "text": "guy will always fundamentally disagree",
            "start": 1159.74,
            "duration": 2.34
        },
        {
            "text": "here",
            "start": 1161.24,
            "duration": 3.0
        },
        {
            "text": "I think that you're right to say no is",
            "start": 1162.08,
            "duration": 3.479
        },
        {
            "text": "dependent on your personal situation",
            "start": 1164.24,
            "duration": 3.36
        },
        {
            "text": "problem you can secure these nuts",
            "start": 1165.559,
            "duration": 5.161
        },
        {
            "text": "absolutely so that's how I take it uh I",
            "start": 1167.6,
            "duration": 4.92
        },
        {
            "text": "don't say no to take home uh let's see",
            "start": 1170.72,
            "duration": 4.5
        },
        {
            "text": "let's see I say no to take homes all the",
            "start": 1172.52,
            "duration": 5.34
        },
        {
            "text": "time if I already have another job lined",
            "start": 1175.22,
            "duration": 4.079
        },
        {
            "text": "up and I just don't care at that point",
            "start": 1177.86,
            "duration": 3.42
        },
        {
            "text": "yeah that's reasonable again that's like",
            "start": 1179.299,
            "duration": 3.481
        },
        {
            "text": "super reasonable again that's that's",
            "start": 1181.28,
            "duration": 3.3
        },
        {
            "text": "that's an entitled take and that's okay",
            "start": 1182.78,
            "duration": 3.779
        },
        {
            "text": "to have that in title take I'm not gonna",
            "start": 1184.58,
            "duration": 3.479
        },
        {
            "text": "do a take home if someone says hey do",
            "start": 1186.559,
            "duration": 3.36
        },
        {
            "text": "this 10 hour take home I'm gonna say no",
            "start": 1188.059,
            "duration": 4.921
        },
        {
            "text": "right now why because I already have a",
            "start": 1189.919,
            "duration": 6.301
        },
        {
            "text": "great job like your job",
            "start": 1192.98,
            "duration": 5.64
        },
        {
            "text": "as an institution is to pull me away",
            "start": 1196.22,
            "duration": 3.66
        },
        {
            "text": "from my job",
            "start": 1198.62,
            "duration": 3.36
        },
        {
            "text": "to make something even better to somehow",
            "start": 1199.88,
            "duration": 3.659
        },
        {
            "text": "make the grass greener so if you're",
            "start": 1201.98,
            "duration": 3.48
        },
        {
            "text": "going to say hey I want you to spend 10",
            "start": 1203.539,
            "duration": 3.841
        },
        {
            "text": "hours to see if you even like will pass",
            "start": 1205.46,
            "duration": 3.48
        },
        {
            "text": "our bar and then we'll talk if you can",
            "start": 1207.38,
            "duration": 3.419
        },
        {
            "text": "leave your job or not",
            "start": 1208.94,
            "duration": 4.38
        },
        {
            "text": "no thank you right",
            "start": 1210.799,
            "duration": 4.081
        },
        {
            "text": "no thank you I also think you should ask",
            "start": 1213.32,
            "duration": 4.62
        },
        {
            "text": "for uh uh pay upfront too you should say",
            "start": 1214.88,
            "duration": 4.799
        },
        {
            "text": "what what is the cost and if you really",
            "start": 1217.94,
            "duration": 3.3
        },
        {
            "text": "are concerned about your time and you",
            "start": 1219.679,
            "duration": 3.0
        },
        {
            "text": "want to make it worth it for you say",
            "start": 1221.24,
            "duration": 4.14
        },
        {
            "text": "I'll do this but I cost 100 an hour to",
            "start": 1222.679,
            "duration": 4.021
        },
        {
            "text": "program these",
            "start": 1225.38,
            "duration": 3.0
        },
        {
            "text": "I'll give you a bill long as you're okay",
            "start": 1226.7,
            "duration": 3.06
        },
        {
            "text": "with that then I'll definitely do this",
            "start": 1228.38,
            "duration": 3.419
        },
        {
            "text": "right like put some definitions on it if",
            "start": 1229.76,
            "duration": 3.18
        },
        {
            "text": "you really think that there's a problem",
            "start": 1231.799,
            "duration": 3.061
        },
        {
            "text": "right if you don't want it to be a waste",
            "start": 1232.94,
            "duration": 4.02
        },
        {
            "text": "of your time get them to pay it for you",
            "start": 1234.86,
            "duration": 3.48
        },
        {
            "text": "right I don't think that that's bad",
            "start": 1236.96,
            "duration": 4.02
        },
        {
            "text": "either if I I don't know what Netflix",
            "start": 1238.34,
            "duration": 5.339
        },
        {
            "text": "would do if you went to Netflix and said",
            "start": 1240.98,
            "duration": 4.439
        },
        {
            "text": "hey I'll do your take home but you need",
            "start": 1243.679,
            "duration": 3.661
        },
        {
            "text": "to pay me for my time",
            "start": 1245.419,
            "duration": 3.781
        },
        {
            "text": "I don't know they might pay you I have",
            "start": 1247.34,
            "duration": 3.36
        },
        {
            "text": "no idea",
            "start": 1249.2,
            "duration": 3.66
        },
        {
            "text": "I have no idea but it'd be great now the",
            "start": 1250.7,
            "duration": 3.719
        },
        {
            "text": "prime didn't if you read me I genuinely",
            "start": 1252.86,
            "duration": 3.9
        },
        {
            "text": "laughed at your video uh and you gave me",
            "start": 1254.419,
            "duration": 3.901
        },
        {
            "text": "uh the hope to make a second episode",
            "start": 1256.76,
            "duration": 3.299
        },
        {
            "text": "hiring is broken oh man look at this",
            "start": 1258.32,
            "duration": 4.26
        },
        {
            "text": "there are so many good ones yeah",
            "start": 1260.059,
            "duration": 4.441
        },
        {
            "text": "yeah there was some good ones I did say",
            "start": 1262.58,
            "duration": 4.14
        },
        {
            "text": "that I like I like I like the looks of",
            "start": 1264.5,
            "duration": 3.299
        },
        {
            "text": "these things I think there's some good",
            "start": 1266.72,
            "duration": 2.579
        },
        {
            "text": "stuff I really like what's your current",
            "start": 1267.799,
            "duration": 3.541
        },
        {
            "text": "salary is a red flag I think this is",
            "start": 1269.299,
            "duration": 3.361
        },
        {
            "text": "actually a pretty cool take I would",
            "start": 1271.34,
            "duration": 4.32
        },
        {
            "text": "actually like to read this one anyways",
            "start": 1272.66,
            "duration": 4.8
        },
        {
            "text": "so I think me and this guy are both on",
            "start": 1275.66,
            "duration": 3.0
        },
        {
            "text": "the same page",
            "start": 1277.46,
            "duration": 3.24
        },
        {
            "text": "we understand each other but ultimately",
            "start": 1278.66,
            "duration": 3.72
        },
        {
            "text": "at the end I think",
            "start": 1280.7,
            "duration": 5.64
        },
        {
            "text": "rejecting an interview for your",
            "start": 1282.38,
            "duration": 6.0
        },
        {
            "text": "for a hard line stance is silly",
            "start": 1286.34,
            "duration": 4.02
        },
        {
            "text": "rejecting an interview based on your",
            "start": 1288.38,
            "duration": 5.52
        },
        {
            "text": "position is less silly uh",
            "start": 1290.36,
            "duration": 5.22
        },
        {
            "text": "and realizing that getting your first",
            "start": 1293.9,
            "duration": 3.3
        },
        {
            "text": "job so if you're like a first job person",
            "start": 1295.58,
            "duration": 2.94
        },
        {
            "text": "getting your first job is one of the",
            "start": 1297.2,
            "duration": 3.18
        },
        {
            "text": "most important jobs again do what it",
            "start": 1298.52,
            "duration": 4.98
        },
        {
            "text": "takes to get it honestly I",
            "start": 1300.38,
            "duration": 5.4
        },
        {
            "text": "I will you know",
            "start": 1303.5,
            "duration": 3.96
        },
        {
            "text": "I don't see how how else you're supposed",
            "start": 1305.78,
            "duration": 3.24
        },
        {
            "text": "to do that wait Nuance we have to do",
            "start": 1307.46,
            "duration": 4.16
        },
        {
            "text": "Nuance yeah",
            "start": 1309.02,
            "duration": 2.6
        },
        {
            "text": "real talk if there's a company that I",
            "start": 1312.679,
            "duration": 3.12
        },
        {
            "text": "really wanted to work for and they",
            "start": 1314.78,
            "duration": 2.759
        },
        {
            "text": "wanted me to do a take home even if it",
            "start": 1315.799,
            "duration": 3.181
        },
        {
            "text": "is vague and stuff I would email them",
            "start": 1317.539,
            "duration": 2.941
        },
        {
            "text": "and say hey it's super vague this is how",
            "start": 1318.98,
            "duration": 2.819
        },
        {
            "text": "I take it this is what I'm gonna take it",
            "start": 1320.48,
            "duration": 3.059
        },
        {
            "text": "as I would even clarify why I'm",
            "start": 1321.799,
            "duration": 3.541
        },
        {
            "text": "programming it the way I am right like",
            "start": 1323.539,
            "duration": 3.721
        },
        {
            "text": "if I really wanted something I would do",
            "start": 1325.34,
            "duration": 3.24
        },
        {
            "text": "what it takes to get there you know what",
            "start": 1327.26,
            "duration": 2.58
        },
        {
            "text": "I mean",
            "start": 1328.58,
            "duration": 3.24
        },
        {
            "text": "you know what I mean",
            "start": 1329.84,
            "duration": 5.54
        },
        {
            "text": "the name is the prime engine okay",
            "start": 1331.82,
            "duration": 3.56
        }
    ],
    "stats": {
        "viewCount": "89013",
        "likeCount": "2760",
        "favoriteCount": "0",
        "commentCount": "215"
    }
}