{
    "id": "4qJ9lOOYAQg",
    "title": "The Best StackOverflow Question Ever Asked",
    "publishedAt": "2023-04-15T13:15:00Z",
    "captions": [
        {
            "text": "all right so I did need to do something",
            "start": 0.06,
            "duration": 5.46
        },
        {
            "text": "very very very important okay",
            "start": 3.0,
            "duration": 6.179
        },
        {
            "text": "which is I do need to",
            "start": 5.52,
            "duration": 6.48
        },
        {
            "text": "tell you guys something that I asked on",
            "start": 9.179,
            "duration": 6.261
        },
        {
            "text": "stack Overflow okay",
            "start": 12.0,
            "duration": 3.44
        },
        {
            "text": "so are you guys ready for my question",
            "start": 15.54,
            "duration": 6.02
        },
        {
            "text": "that I asked on stack overflow",
            "start": 17.4,
            "duration": 4.16
        },
        {
            "text": "I'm gonna blank the screen for a second",
            "start": 23.64,
            "duration": 4.08
        },
        {
            "text": "because I don't want you to even",
            "start": 25.199,
            "duration": 3.961
        },
        {
            "text": "I don't even want you to see what I'm",
            "start": 27.72,
            "duration": 2.94
        },
        {
            "text": "about to ask",
            "start": 29.16,
            "duration": 3.98
        },
        {
            "text": "okay",
            "start": 30.66,
            "duration": 2.48
        },
        {
            "text": "plus I'm a little scared",
            "start": 35.76,
            "duration": 4.7
        },
        {
            "text": "tweeting it",
            "start": 37.62,
            "duration": 2.84
        },
        {
            "text": "all right hold on",
            "start": 43.14,
            "duration": 2.9
        },
        {
            "text": "hold on hold on okay so I I found the",
            "start": 47.34,
            "duration": 4.26
        },
        {
            "text": "original hold on hold on I gotta find",
            "start": 49.8,
            "duration": 3.48
        },
        {
            "text": "the problem is that the question was",
            "start": 51.6,
            "duration": 3.84
        },
        {
            "text": "deleted and so I do have to like go",
            "start": 53.28,
            "duration": 5.36
        },
        {
            "text": "through and try to okay here we go",
            "start": 55.44,
            "duration": 3.2
        },
        {
            "text": "the title to the question of course was",
            "start": 60.12,
            "duration": 6.96
        },
        {
            "text": "what is the best way",
            "start": 64.32,
            "duration": 7.58
        },
        {
            "text": "to measure your dict in bytes",
            "start": 67.08,
            "duration": 4.82
        },
        {
            "text": "a friend and I were having a boys night",
            "start": 72.5,
            "duration": 3.82
        },
        {
            "text": "out and we got on the topic of",
            "start": 74.939,
            "duration": 4.801
        },
        {
            "text": "compressions and unique ways of measure",
            "start": 76.32,
            "duration": 5.7
        },
        {
            "text": "data structure unique ways to measure",
            "start": 79.74,
            "duration": 4.199
        },
        {
            "text": "data structs one of my problems at work",
            "start": 82.02,
            "duration": 4.62
        },
        {
            "text": "is managing a very large lru we are",
            "start": 83.939,
            "duration": 4.081
        },
        {
            "text": "frequently running out of memory and",
            "start": 86.64,
            "duration": 3.96
        },
        {
            "text": "estimates all seem to be way off I",
            "start": 88.02,
            "duration": 3.9
        },
        {
            "text": "thought it would be straightforward to",
            "start": 90.6,
            "duration": 3.54
        },
        {
            "text": "measure dicks but it's but it's been",
            "start": 91.92,
            "duration": 4.199
        },
        {
            "text": "complicated let me explain the current",
            "start": 94.14,
            "duration": 3.24
        },
        {
            "text": "approaches",
            "start": 96.119,
            "duration": 4.381
        },
        {
            "text": "one Json stringify now I could simply",
            "start": 97.38,
            "duration": 4.98
        },
        {
            "text": "measure my dick by using Json",
            "start": 100.5,
            "duration": 4.02
        },
        {
            "text": "stringification but this has its",
            "start": 102.36,
            "duration": 3.78
        },
        {
            "text": "drawbacks it does not always get the",
            "start": 104.52,
            "duration": 3.419
        },
        {
            "text": "proper length of my dick often under",
            "start": 106.14,
            "duration": 5.04
        },
        {
            "text": "under measured I worried I worry that my",
            "start": 107.939,
            "duration": 6.241
        },
        {
            "text": "lack of measurement is due to utf-8 I",
            "start": 111.18,
            "duration": 4.619
        },
        {
            "text": "also feel like the stringify dick",
            "start": 114.18,
            "duration": 4.32
        },
        {
            "text": "performance would be sub optimal",
            "start": 115.799,
            "duration": 4.801
        },
        {
            "text": "option two pickling",
            "start": 118.5,
            "duration": 3.78
        },
        {
            "text": "the second option would be to pickle",
            "start": 120.6,
            "duration": 3.96
        },
        {
            "text": "addicted to pickle addicted",
            "start": 122.28,
            "duration": 3.9
        },
        {
            "text": "for those unfamiliar with pickling",
            "start": 124.56,
            "duration": 3.96
        },
        {
            "text": "here's a resource pickling I'm",
            "start": 126.18,
            "duration": 3.84
        },
        {
            "text": "unfamiliar with the performance of a",
            "start": 128.52,
            "duration": 4.02
        },
        {
            "text": "pickled the dick but it seems to have a",
            "start": 130.02,
            "duration": 4.02
        },
        {
            "text": "firm base of support",
            "start": 132.54,
            "duration": 4.14
        },
        {
            "text": "the protocol protocol version 4 added in",
            "start": 134.04,
            "duration": 4.74
        },
        {
            "text": "Python 3 4 adds support for very large",
            "start": 136.68,
            "duration": 4.8
        },
        {
            "text": "decks this is this does seem to fix",
            "start": 138.78,
            "duration": 5.4
        },
        {
            "text": "potential utf-8 encoding issues easily",
            "start": 141.48,
            "duration": 4.619
        },
        {
            "text": "by measuring the deck's output directly",
            "start": 144.18,
            "duration": 5.04
        },
        {
            "text": "protocol V5 discusses out of band data",
            "start": 146.099,
            "duration": 5.341
        },
        {
            "text": "so there is a potential here for being",
            "start": 149.22,
            "duration": 4.56
        },
        {
            "text": "able to take the dick as it comes no",
            "start": 151.44,
            "duration": 5.34
        },
        {
            "text": "matter how much there is of it",
            "start": 153.78,
            "duration": 5.22
        },
        {
            "text": "but there is a fundamental problem you",
            "start": 156.78,
            "duration": 4.08
        },
        {
            "text": "can't rely on a first glance memory",
            "start": 159.0,
            "duration": 4.62
        },
        {
            "text": "usage of your dict the nature of memory",
            "start": 160.86,
            "duration": 5.4
        },
        {
            "text": "allocation is a in expansion and",
            "start": 163.62,
            "duration": 4.08
        },
        {
            "text": "contraction means that it can grow",
            "start": 166.26,
            "duration": 3.18
        },
        {
            "text": "substantially when you start messing",
            "start": 167.7,
            "duration": 4.1
        },
        {
            "text": "with it",
            "start": 169.44,
            "duration": 2.36
        },
        {
            "text": "potential measurement ideas I could take",
            "start": 172.92,
            "duration": 3.899
        },
        {
            "text": "the approach of Dick measuring head on",
            "start": 175.319,
            "duration": 3.181
        },
        {
            "text": "by considering the runtime implications",
            "start": 176.819,
            "duration": 5.221
        },
        {
            "text": "of python I also feel this uh to be the",
            "start": 178.5,
            "duration": 5.34
        },
        {
            "text": "most correct I don't want to consider",
            "start": 182.04,
            "duration": 4.02
        },
        {
            "text": "pointers or I don't want to consider",
            "start": 183.84,
            "duration": 3.78
        },
        {
            "text": "pointers and their weights to be zero",
            "start": 186.06,
            "duration": 3.179
        },
        {
            "text": "and the previous two methods really only",
            "start": 187.62,
            "duration": 3.479
        },
        {
            "text": "consider direct dick measurements as",
            "start": 189.239,
            "duration": 4.92
        },
        {
            "text": "opposed to the indirect Heap management",
            "start": 191.099,
            "duration": 5.401
        },
        {
            "text": "helping hand does anyone have any ideas",
            "start": 194.159,
            "duration": 4.621
        },
        {
            "text": "how to measure pointers and put or",
            "start": 196.5,
            "duration": 4.2
        },
        {
            "text": "potential pointer counts within my dict",
            "start": 198.78,
            "duration": 3.9
        },
        {
            "text": "I know dicks are very complex and I",
            "start": 200.7,
            "duration": 4.2
        },
        {
            "text": "don't want to miss a drop of memory I",
            "start": 202.68,
            "duration": 4.32
        },
        {
            "text": "was thinking of simple taking the sub",
            "start": 204.9,
            "duration": 4.86
        },
        {
            "text": "Plus or sub length plus four for each",
            "start": 207.0,
            "duration": 6.2
        },
        {
            "text": "key and value thanks",
            "start": 209.76,
            "duration": 3.44
        },
        {
            "text": "hello we are writing in reference to",
            "start": 218.34,
            "duration": 4.979
        },
        {
            "text": "your stack Overflow account the prime",
            "start": 221.22,
            "duration": 4.379
        },
        {
            "text": "engine your question the best way to",
            "start": 223.319,
            "duration": 4.081
        },
        {
            "text": "measure your dick in bytes was deleted",
            "start": 225.599,
            "duration": 4.56
        },
        {
            "text": "as rude slash abusive because it appears",
            "start": 227.4,
            "duration": 4.559
        },
        {
            "text": "to have deliberately crafted to have",
            "start": 230.159,
            "duration": 4.981
        },
        {
            "text": "multiple sex-based double entantras how",
            "start": 231.959,
            "duration": 5.28
        },
        {
            "text": "thoroughly you wove the double entendras",
            "start": 235.14,
            "duration": 4.319
        },
        {
            "text": "into your question was impressive but it",
            "start": 237.239,
            "duration": 3.901
        },
        {
            "text": "also made it clear that it was doing so",
            "start": 239.459,
            "duration": 3.301
        },
        {
            "text": "intentionally",
            "start": 241.14,
            "duration": 3.3
        },
        {
            "text": "in addition given that it has been",
            "start": 242.76,
            "duration": 3.059
        },
        {
            "text": "closed as a duplicate of a question",
            "start": 244.44,
            "duration": 3.42
        },
        {
            "text": "which already has multiple duplicates it",
            "start": 245.819,
            "duration": 4.021
        },
        {
            "text": "does not appear to offer much benefit to",
            "start": 247.86,
            "duration": 4.26
        },
        {
            "text": "the site for anything other than the",
            "start": 249.84,
            "duration": 4.44
        },
        {
            "text": "existence of double entitrus in other",
            "start": 252.12,
            "duration": 3.78
        },
        {
            "text": "words it seems that the efforts to",
            "start": 254.28,
            "duration": 3.12
        },
        {
            "text": "completely rewrite the question in order",
            "start": 255.9,
            "duration": 3.299
        },
        {
            "text": "to remove the intentional focus on",
            "start": 257.4,
            "duration": 3.78
        },
        {
            "text": "Dick's jokes double entenderes would",
            "start": 259.199,
            "duration": 3.601
        },
        {
            "text": "provide little overall benefit to the",
            "start": 261.18,
            "duration": 3.6
        },
        {
            "text": "site regards",
            "start": 262.8,
            "duration": 6.14
        },
        {
            "text": "stack Overflow moderation team",
            "start": 264.78,
            "duration": 4.16
        },
        {
            "text": "you're welcome",
            "start": 277.86,
            "duration": 3.72
        },
        {
            "text": "you're welcome twitch",
            "start": 279.3,
            "duration": 4.82
        },
        {
            "text": "okay",
            "start": 281.58,
            "duration": 2.54
        },
        {
            "text": "the name",
            "start": 284.4,
            "duration": 3.6
        },
        {
            "text": "is the dictogen",
            "start": 286.32,
            "duration": 3.12
        },
        {
            "text": "I do have one more story for you I",
            "start": 288.0,
            "duration": 2.759
        },
        {
            "text": "actually I do actually have one more",
            "start": 289.44,
            "duration": 3.96
        },
        {
            "text": "story for you I I kid you not I kid you",
            "start": 290.759,
            "duration": 6.0
        },
        {
            "text": "not uh I went to uh versel okay the",
            "start": 293.4,
            "duration": 5.76
        },
        {
            "text": "versel conference I know it was a dick",
            "start": 296.759,
            "duration": 4.44
        },
        {
            "text": "move but it was a bold addict move but",
            "start": 299.16,
            "duration": 4.92
        },
        {
            "text": "it paid off uh they really grabbed that",
            "start": 301.199,
            "duration": 4.981
        },
        {
            "text": "question with both hands and just just",
            "start": 304.08,
            "duration": 3.66
        },
        {
            "text": "got it out of there you know what I mean",
            "start": 306.18,
            "duration": 4.2
        },
        {
            "text": "uh so I went to the versel conference",
            "start": 307.74,
            "duration": 5.58
        },
        {
            "text": "and I was I was standing around a table",
            "start": 310.38,
            "duration": 5.46
        },
        {
            "text": "and there were multiple people at the",
            "start": 313.32,
            "duration": 3.96
        },
        {
            "text": "table of course",
            "start": 315.84,
            "duration": 4.139
        },
        {
            "text": "um and I was going through looking at",
            "start": 317.28,
            "duration": 4.56
        },
        {
            "text": "each person and I looked at one of the",
            "start": 319.979,
            "duration": 4.021
        },
        {
            "text": "one of the the tags instead stack",
            "start": 321.84,
            "duration": 3.6
        },
        {
            "text": "overflow",
            "start": 324.0,
            "duration": 3.6
        },
        {
            "text": "and I would like this this is all I said",
            "start": 325.44,
            "duration": 5.099
        },
        {
            "text": "this is it I didn't say anything else",
            "start": 327.6,
            "duration": 5.52
        },
        {
            "text": "I said you work at stack Overflow and",
            "start": 330.539,
            "duration": 5.821
        },
        {
            "text": "he's like yeah and I was like dude one",
            "start": 333.12,
            "duration": 5.48
        },
        {
            "text": "time I asked a question that got deleted",
            "start": 336.36,
            "duration": 6.179
        },
        {
            "text": "and his response was this",
            "start": 338.6,
            "duration": 8.379
        },
        {
            "text": "you're the dick guy and I was like I am",
            "start": 342.539,
            "duration": 7.741
        },
        {
            "text": "the dick guy I'm the dick guy everybody",
            "start": 346.979,
            "duration": 5.821
        },
        {
            "text": "I have the dick guy like I gave him no",
            "start": 350.28,
            "duration": 5.58
        },
        {
            "text": "indication into what I actually did",
            "start": 352.8,
            "duration": 5.64
        },
        {
            "text": "he knew he could smell it he could see",
            "start": 355.86,
            "duration": 5.88
        },
        {
            "text": "it he could feel that I was the dick guy",
            "start": 358.44,
            "duration": 6.66
        },
        {
            "text": "not all heroes wear capes okay",
            "start": 361.74,
            "duration": 5.76
        },
        {
            "text": "some of us just exposed dick to",
            "start": 365.1,
            "duration": 4.379
        },
        {
            "text": "questions that's it",
            "start": 367.5,
            "duration": 4.32
        },
        {
            "text": "and I'm that guy okay",
            "start": 369.479,
            "duration": 5.181
        },
        {
            "text": "I'm that guy",
            "start": 371.82,
            "duration": 2.84
        },
        {
            "text": "there's some big big dick energy going",
            "start": 376.8,
            "duration": 6.0
        },
        {
            "text": "on there okay all right the name is the",
            "start": 379.139,
            "duration": 6.261
        },
        {
            "text": "primogen I",
            "start": 382.8,
            "duration": 2.6
        }
    ],
    "stats": {
        "viewCount": "78607",
        "likeCount": "5064",
        "favoriteCount": "0",
        "commentCount": "231"
    }
}