{
    "id": "5G9NhRQULBk",
    "title": "Your Editor Sucks",
    "publishedAt": "2023-12-27T14:00:07Z",
    "captions": [
        {
            "text": "I honestly don't think you guys are",
            "start": 0.12,
            "duration": 3.12
        },
        {
            "text": "ready for this I don't think you're",
            "start": 1.88,
            "duration": 3.479
        },
        {
            "text": "ready for this we're going to slander",
            "start": 3.24,
            "duration": 4.48
        },
        {
            "text": "some code",
            "start": 5.359,
            "duration": 2.361
        },
        {
            "text": "[Music]",
            "start": 12.23,
            "duration": 3.24
        },
        {
            "text": "editors I didn't quite get the last one",
            "start": 19.64,
            "duration": 3.639
        },
        {
            "text": "I'm going to have to like relook at this",
            "start": 21.96,
            "duration": 2.76
        },
        {
            "text": "one it's saying that emx users don't",
            "start": 23.279,
            "duration": 4.041
        },
        {
            "text": "know what a woman",
            "start": 24.72,
            "duration": 2.6
        },
        {
            "text": "is wait is woman for man manual entry I",
            "start": 27.72,
            "duration": 4.96
        },
        {
            "text": "don't get it do do I not get this one so",
            "start": 30.599,
            "duration": 3.64
        },
        {
            "text": "woman's for manual entry I don't use I",
            "start": 32.68,
            "duration": 3.36
        },
        {
            "text": "don't use emac skill issue I don't get",
            "start": 34.239,
            "duration": 3.521
        },
        {
            "text": "it at all Man pages I know about Man",
            "start": 36.04,
            "duration": 3.44
        },
        {
            "text": "pages manual pages I've heard about",
            "start": 37.76,
            "duration": 3.44
        },
        {
            "text": "manual pages oh no match for you and a",
            "start": 39.48,
            "duration": 3.2
        },
        {
            "text": "woman I don't this is not it's not even",
            "start": 41.2,
            "duration": 2.839
        },
        {
            "text": "a good",
            "start": 42.68,
            "duration": 4.399
        },
        {
            "text": "joke this is a good joke though the",
            "start": 44.039,
            "duration": 5.2
        },
        {
            "text": "amount of times I've seen somebody when",
            "start": 47.079,
            "duration": 4.241
        },
        {
            "text": "I'm like hey man how many times does",
            "start": 49.239,
            "duration": 4.96
        },
        {
            "text": "this appear in some downloaded Json or",
            "start": 51.32,
            "duration": 4.48
        },
        {
            "text": "something like that and someone's like",
            "start": 54.199,
            "duration": 3.88
        },
        {
            "text": "oh how many times does it appear in",
            "start": 55.8,
            "duration": 4.239
        },
        {
            "text": "let's pretend it's like uh the the let's",
            "start": 58.079,
            "duration": 3.601
        },
        {
            "text": "see do I got anything in here do I got",
            "start": 60.039,
            "duration": 4.76
        },
        {
            "text": "any Jason in here I don't uh npm manette",
            "start": 61.68,
            "duration": 4.479
        },
        {
            "text": "all right there we go they're like how",
            "start": 64.799,
            "duration": 4.281
        },
        {
            "text": "many times does this appear hold",
            "start": 66.159,
            "duration": 2.921
        },
        {
            "text": "on what are we looking for I'm just like",
            "start": 69.92,
            "duration": 5.8
        },
        {
            "text": "yo yo dog that's a yikes do I have a do",
            "start": 72.799,
            "duration": 4.561
        },
        {
            "text": "I have vs code yeah I have vs code cuz I",
            "start": 75.72,
            "duration": 3.48
        },
        {
            "text": "tried it for a week straight I did VSS",
            "start": 77.36,
            "duration": 3.079
        },
        {
            "text": "code for a week straight just like a",
            "start": 79.2,
            "duration": 3.2
        },
        {
            "text": "couple months ago I understand that's V",
            "start": 80.439,
            "duration": 3.241
        },
        {
            "text": "dude I understand the difference between",
            "start": 82.4,
            "duration": 3.039
        },
        {
            "text": "VSS code and visual studio I'm just",
            "start": 83.68,
            "duration": 3.399
        },
        {
            "text": "saying the fact that people will open up",
            "start": 85.439,
            "duration": 3.72
        },
        {
            "text": "an Editor to search inside of a file",
            "start": 87.079,
            "duration": 5.841
        },
        {
            "text": "crazy okay that's the crazy thing okay",
            "start": 89.159,
            "duration": 5.121
        },
        {
            "text": "that's what this is like to edit a",
            "start": 92.92,
            "duration": 4.28
        },
        {
            "text": "config file and you use that it's",
            "start": 94.28,
            "duration": 5.92
        },
        {
            "text": "crazy",
            "start": 97.2,
            "duration": 3.0
        },
        {
            "text": "crazy I did all my uh Graphics",
            "start": 102.759,
            "duration": 4.561
        },
        {
            "text": "programming in Visual Studio Express it",
            "start": 105.28,
            "duration": 4.04
        },
        {
            "text": "was Express so it was it was faster and",
            "start": 107.32,
            "duration": 3.759
        },
        {
            "text": "this is much I think intellig waiting",
            "start": 109.32,
            "duration": 3.72
        },
        {
            "text": "for intell indexing this is intellig",
            "start": 111.079,
            "duration": 3.881
        },
        {
            "text": "indexing okay the amount of time I've",
            "start": 113.04,
            "duration": 4.24
        },
        {
            "text": "spent waiting for intellig to index only",
            "start": 114.96,
            "duration": 4.439
        },
        {
            "text": "for you to reinstall node modules and",
            "start": 117.28,
            "duration": 5.31
        },
        {
            "text": "then re wait for intellig",
            "start": 119.399,
            "duration": 10.92
        },
        {
            "text": "[Music]",
            "start": 122.59,
            "duration": 11.53
        },
        {
            "text": "indexing do you really use",
            "start": 130.319,
            "duration": 3.801
        },
        {
            "text": "[Music]",
            "start": 134.55,
            "duration": 3.979
        },
        {
            "text": "[Music]",
            "start": 140.74,
            "duration": 3.259
        },
        {
            "text": "Vim skill this is like the greatest",
            "start": 144.0,
            "duration": 3.68
        },
        {
            "text": "skill issue I've ever seen in my",
            "start": 146.44,
            "duration": 2.799
        },
        {
            "text": "lifetime what do you mean it's really",
            "start": 147.68,
            "duration": 5.04
        },
        {
            "text": "really simp Le okay",
            "start": 149.239,
            "duration": 3.481
        },
        {
            "text": "it's",
            "start": 153.0,
            "duration": 6.76
        },
        {
            "text": "command motion command then you can also",
            "start": 155.4,
            "duration": 8.199
        },
        {
            "text": "have count before the command and count",
            "start": 159.76,
            "duration": 5.72
        },
        {
            "text": "before the",
            "start": 163.599,
            "duration": 4.681
        },
        {
            "text": "motion and if you do a count before the",
            "start": 165.48,
            "duration": 5.92
        },
        {
            "text": "motion it could execute the command",
            "start": 168.28,
            "duration": 5.2
        },
        {
            "text": "again so",
            "start": 171.4,
            "duration": 5.16
        },
        {
            "text": "like okay hold on I said that wrong so",
            "start": 173.48,
            "duration": 6.32
        },
        {
            "text": "if you do it's command command to like",
            "start": 176.56,
            "duration": 6.319
        },
        {
            "text": "do DD but then if you do number command",
            "start": 179.8,
            "duration": 4.88
        },
        {
            "text": "command it still does that but you can",
            "start": 182.879,
            "duration": 5.0
        },
        {
            "text": "also do command number command but if",
            "start": 184.68,
            "duration": 6.16
        },
        {
            "text": "you do command number motion then it",
            "start": 187.879,
            "duration": 4.761
        },
        {
            "text": "applies the previous",
            "start": 190.84,
            "duration": 4.24
        },
        {
            "text": "command it's like that simple like",
            "start": 192.64,
            "duration": 4.48
        },
        {
            "text": "here's a good example let's just say you",
            "start": 195.08,
            "duration": 3.64
        },
        {
            "text": "want to highlight this paragraph you do",
            "start": 197.12,
            "duration": 5.0
        },
        {
            "text": "V for visual your command then you do",
            "start": 198.72,
            "duration": 8.0
        },
        {
            "text": "around paragraph see it's like that easy",
            "start": 202.12,
            "duration": 8.199
        },
        {
            "text": "you can do uh you can do like d d to",
            "start": 206.72,
            "duration": 6.719
        },
        {
            "text": "delete or you can do like D2D to delete",
            "start": 210.319,
            "duration": 7.081
        },
        {
            "text": "two or you can do D1 J to delete two",
            "start": 213.439,
            "duration": 6.241
        },
        {
            "text": "like it's that easy it's that simple",
            "start": 217.4,
            "duration": 4.759
        },
        {
            "text": "it's that easy say you want to yank it",
            "start": 219.68,
            "duration": 6.08
        },
        {
            "text": "you can Yap you can Dap You can undo you",
            "start": 222.159,
            "duration": 6.401
        },
        {
            "text": "can you can",
            "start": 225.76,
            "duration": 2.8
        },
        {
            "text": "redo you can cut and start typing you",
            "start": 229.319,
            "duration": 6.28
        },
        {
            "text": "can delete you're not typing how do you",
            "start": 233.4,
            "duration": 4.08
        },
        {
            "text": "guys not know this you can VI squirly",
            "start": 235.599,
            "duration": 3.521
        },
        {
            "text": "brace to highlight within the squirly",
            "start": 237.48,
            "duration": 5.679
        },
        {
            "text": "brace you can V you can v v oh my",
            "start": 239.12,
            "duration": 6.44
        },
        {
            "text": "goodness VA squirly brace to highlight",
            "start": 243.159,
            "duration": 3.881
        },
        {
            "text": "that plus the squirrly brace then hit it",
            "start": 245.56,
            "duration": 3.12
        },
        {
            "text": "with the shift V to go into visual line",
            "start": 247.04,
            "duration": 3.0
        },
        {
            "text": "mode now you have the whole thing and",
            "start": 248.68,
            "duration": 3.08
        },
        {
            "text": "then you can yank it I could have done",
            "start": 250.04,
            "duration": 3.8
        },
        {
            "text": "something different I could have done uh",
            "start": 251.76,
            "duration": 4.52
        },
        {
            "text": "let's see GV I could have done uh ad D",
            "start": 253.84,
            "duration": 4.399
        },
        {
            "text": "notice that what I did is I did GV to",
            "start": 256.28,
            "duration": 3.72
        },
        {
            "text": "actually highlight my previous highlight",
            "start": 258.239,
            "duration": 3.041
        },
        {
            "text": "in case I wanted to do something",
            "start": 260.0,
            "duration": 4.6
        },
        {
            "text": "different GV stands for previous",
            "start": 261.28,
            "duration": 4.919
        },
        {
            "text": "highlight how do you guys not know these",
            "start": 264.6,
            "duration": 3.84
        },
        {
            "text": "things they're like super simple and",
            "start": 266.199,
            "duration": 3.961
        },
        {
            "text": "straightforward okay",
            "start": 268.44,
            "duration": 3.599
        },
        {
            "text": "I goes into insert mode at the current",
            "start": 270.16,
            "duration": 5.24
        },
        {
            "text": "cursor a goes forward one capital I goes",
            "start": 272.039,
            "duration": 6.0
        },
        {
            "text": "to the beginning capital A goes to the",
            "start": 275.4,
            "duration": 4.88
        },
        {
            "text": "end skill issues why you guys have so",
            "start": 278.039,
            "duration": 4.641
        },
        {
            "text": "many skill issues okay you can shift and",
            "start": 280.28,
            "duration": 4.68
        },
        {
            "text": "you can G question you can G question",
            "start": 282.68,
            "duration": 4.56
        },
        {
            "text": "mark to do a little rot 13 like have you",
            "start": 284.96,
            "duration": 4.679
        },
        {
            "text": "guys ever needed to do rot 13 well there",
            "start": 287.24,
            "duration": 4.799
        },
        {
            "text": "you go you just rot 13 okay sometimes",
            "start": 289.639,
            "duration": 4.081
        },
        {
            "text": "you want to do a little rot 13 sometimes",
            "start": 292.039,
            "duration": 3.401
        },
        {
            "text": "you just want to rotate some characters",
            "start": 293.72,
            "duration": 3.52
        },
        {
            "text": "I just rotated some quick characters you",
            "start": 295.44,
            "duration": 2.88
        },
        {
            "text": "know what I mean just a little quick",
            "start": 297.24,
            "duration": 2.44
        },
        {
            "text": "character rotation not a big deal",
            "start": 298.32,
            "duration": 2.8
        },
        {
            "text": "whatever you wouldn't understand you",
            "start": 299.68,
            "duration": 2.76
        },
        {
            "text": "wouldn't understand you probably even",
            "start": 301.12,
            "duration": 4.4
        },
        {
            "text": "have a girlfriend",
            "start": 302.44,
            "duration": 3.08
        },
        {
            "text": "[Music]",
            "start": 306.35,
            "duration": 3.979
        },
        {
            "text": "ridiculous oh no oh no oh no real talk",
            "start": 314.88,
            "duration": 7.48
        },
        {
            "text": "press one in the chat if you paid for",
            "start": 321.0,
            "duration": 2.96
        },
        {
            "text": "Sublime one in the chat if you paid for",
            "start": 322.36,
            "duration": 4.16
        },
        {
            "text": "Sublime type 69 in the chat if you saw",
            "start": 323.96,
            "duration": 5.32
        },
        {
            "text": "that box pop up 1 million times 69 in",
            "start": 326.52,
            "duration": 4.799
        },
        {
            "text": "the chat if you saw that box pop up 1",
            "start": 329.28,
            "duration": 4.96
        },
        {
            "text": "million times o",
            "start": 331.319,
            "duration": 6.6
        },
        {
            "text": "exposed oh the exposure is so painful",
            "start": 334.24,
            "duration": 5.2
        },
        {
            "text": "isn't it if You' use it on Windows youd",
            "start": 337.919,
            "duration": 2.961
        },
        {
            "text": "get the window sound too so if you're",
            "start": 339.44,
            "duration": 3.319
        },
        {
            "text": "listening to music it'd be just",
            "start": 340.88,
            "duration": 4.8
        },
        {
            "text": "like and it just like blow your ears out",
            "start": 342.759,
            "duration": 4.761
        },
        {
            "text": "just the",
            "start": 345.68,
            "duration": 6.32
        },
        {
            "text": "worst gedit users notepad++",
            "start": 347.52,
            "duration": 4.48
        },
        {
            "text": "users twitch has really relaxed their",
            "start": 353.24,
            "duration": 4.36
        },
        {
            "text": "policy on nudity recently okay this is",
            "start": 355.72,
            "duration": 5.759
        },
        {
            "text": "Artistic sausages okay this is Artistic",
            "start": 357.6,
            "duration": 6.319
        },
        {
            "text": "sages right",
            "start": 361.479,
            "duration": 6.56
        },
        {
            "text": "now FIB user out learning for",
            "start": 363.919,
            "duration": 7.641
        },
        {
            "text": "FIB was that me was that just me I have",
            "start": 368.039,
            "duration": 6.88
        },
        {
            "text": "a really good idea for a",
            "start": 371.56,
            "duration": 3.359
        },
        {
            "text": "short chilling",
            "start": 376.8,
            "duration": 3.56
        },
        {
            "text": "bro Visual Studio is actually a good ID",
            "start": 381.24,
            "duration": 7.04
        },
        {
            "text": "he uses visual or vs",
            "start": 384.479,
            "duration": 3.801
        },
        {
            "text": "code",
            "start": 388.4,
            "duration": 6.32
        },
        {
            "text": "screw Adam D I still remember using Adam",
            "start": 391.4,
            "duration": 5.079
        },
        {
            "text": "and I'm like oh man they're saying",
            "start": 394.72,
            "duration": 3.4
        },
        {
            "text": "they're the most the first hackable",
            "start": 396.479,
            "duration": 3.361
        },
        {
            "text": "editor meanwhile Vim has been around",
            "start": 398.12,
            "duration": 3.88
        },
        {
            "text": "forever but I was like okay I would love",
            "start": 399.84,
            "duration": 4.68
        },
        {
            "text": "to learn how to program using JavaScript",
            "start": 402.0,
            "duration": 4.199
        },
        {
            "text": "okay this was during my JavaScript Max",
            "start": 404.52,
            "duration": 3.6
        },
        {
            "text": "Max maximal days okay right when it came",
            "start": 406.199,
            "duration": 3.321
        },
        {
            "text": "out okay just don't blame me okay I",
            "start": 408.12,
            "duration": 2.44
        },
        {
            "text": "didn't know I didn't know what I was",
            "start": 409.52,
            "duration": 2.799
        },
        {
            "text": "doing I was still still young I had too",
            "start": 410.56,
            "duration": 4.72
        },
        {
            "text": "much hope all right and I open up Adam",
            "start": 412.319,
            "duration": 5.521
        },
        {
            "text": "and I look at my first plugin and it was",
            "start": 415.28,
            "duration": 4.12
        },
        {
            "text": "coffee script and I was like oh what",
            "start": 417.84,
            "duration": 4.0
        },
        {
            "text": "what are the chances I saw coffee script",
            "start": 419.4,
            "duration": 4.639
        },
        {
            "text": "haven't seen that in a decade that's",
            "start": 421.84,
            "duration": 4.44
        },
        {
            "text": "funny I close down that one and I go to",
            "start": 424.039,
            "duration": 4.121
        },
        {
            "text": "the next one coffee script again what",
            "start": 426.28,
            "duration": 4.199
        },
        {
            "text": "are the chances that can't be right I go",
            "start": 428.16,
            "duration": 3.96
        },
        {
            "text": "look at some official documentation",
            "start": 430.479,
            "duration": 4.321
        },
        {
            "text": "coffee script what Adam went with coffee",
            "start": 432.12,
            "duration": 4.199
        },
        {
            "text": "script",
            "start": 434.8,
            "duration": 3.04
        },
        {
            "text": "what",
            "start": 436.319,
            "duration": 4.521
        },
        {
            "text": "what that's like getting a Yahoo mailing",
            "start": 437.84,
            "duration": 4.68
        },
        {
            "text": "address today Yahoo mailing address",
            "start": 440.84,
            "duration": 4.199
        },
        {
            "text": "Yahoo email today you know when someone",
            "start": 442.52,
            "duration": 4.48
        },
        {
            "text": "hands you their contact and it's yahoo",
            "start": 445.039,
            "duration": 3.921
        },
        {
            "text": "mail and you're just like ain't no way",
            "start": 447.0,
            "duration": 3.759
        },
        {
            "text": "man what are you doing you got a hot",
            "start": 448.96,
            "duration": 3.44
        },
        {
            "text": "mail too you got you want to hand me",
            "start": 450.759,
            "duration": 4.321
        },
        {
            "text": "your hot mail right afterwards buddy so",
            "start": 452.4,
            "duration": 6.04
        },
        {
            "text": "lame it's just so",
            "start": 455.08,
            "duration": 3.36
        },
        {
            "text": "lame I don't I feel like jet brain's",
            "start": 465.72,
            "duration": 5.28
        },
        {
            "text": "ID it should have been the loading one",
            "start": 468.759,
            "duration": 5.051
        },
        {
            "text": "coding without autocomplete be like",
            "start": 471.0,
            "duration": 5.319
        },
        {
            "text": "[Music]",
            "start": 473.81,
            "duration": 5.71
        },
        {
            "text": "this is it I'm pretty sure most of y'all",
            "start": 476.319,
            "duration": 5.241
        },
        {
            "text": "could not code without autocomplete I'm",
            "start": 479.52,
            "duration": 4.84
        },
        {
            "text": "like 95% sure that everybody in this",
            "start": 481.56,
            "duration": 4.639
        },
        {
            "text": "chat coding without autocomplete would",
            "start": 484.36,
            "duration": 4.239
        },
        {
            "text": "look like",
            "start": 486.199,
            "duration": 2.4
        },
        {
            "text": "this why don't come auto",
            "start": 490.28,
            "duration": 5.4
        },
        {
            "text": "complete you know for a fact that's you",
            "start": 493.12,
            "duration": 5.199
        },
        {
            "text": "don't lie it's okay hey you don't hey",
            "start": 495.68,
            "duration": 4.359
        },
        {
            "text": "you you don't have to be hurt by that",
            "start": 498.319,
            "duration": 4.6
        },
        {
            "text": "just be seen",
            "start": 500.039,
            "duration": 2.88
        },
        {
            "text": "okay this is good I like this well",
            "start": 507.96,
            "duration": 8.24
        },
        {
            "text": "done well done verox that was good I'm",
            "start": 513.0,
            "duration": 4.479
        },
        {
            "text": "already subscribed to you that was",
            "start": 516.2,
            "duration": 2.639
        },
        {
            "text": "fantastic where's that thumbs up where",
            "start": 517.479,
            "duration": 5.081
        },
        {
            "text": "are you that was beautiful that was",
            "start": 518.839,
            "duration": 7.081
        },
        {
            "text": "absolutely beautiful by the way smash",
            "start": 522.56,
            "duration": 5.32
        },
        {
            "text": "that like button people smash it look at",
            "start": 525.92,
            "duration": 4.24
        },
        {
            "text": "YouTube chat look at YouTube chat just",
            "start": 527.88,
            "duration": 3.959
        },
        {
            "text": "look at you guys just like you're you're",
            "start": 530.16,
            "duration": 3.6
        },
        {
            "text": "you're like slow you're unathletic",
            "start": 531.839,
            "duration": 3.521
        },
        {
            "text": "what's going on over there what are you",
            "start": 533.76,
            "duration": 3.639
        },
        {
            "text": "guys even doing over there okay look",
            "start": 535.36,
            "duration": 3.479
        },
        {
            "text": "look look at over here things are",
            "start": 537.399,
            "duration": 3.68
        },
        {
            "text": "happening",
            "start": 538.839,
            "duration": 4.881
        },
        {
            "text": "okay places to be crack the smoke going",
            "start": 541.079,
            "duration": 4.521
        },
        {
            "text": "on over here okay all that's happened",
            "start": 543.72,
            "duration": 3.96
        },
        {
            "text": "since I've said that is the word no and",
            "start": 545.6,
            "duration": 4.32
        },
        {
            "text": "you've abandoned",
            "start": 547.68,
            "duration": 4.279
        },
        {
            "text": "us they're actually they're they're",
            "start": 549.92,
            "duration": 4.4
        },
        {
            "text": "doing well actually oh my goodness it's",
            "start": 551.959,
            "duration": 4.361
        },
        {
            "text": "just too funny oh my go that was such a",
            "start": 554.32,
            "duration": 4.759
        },
        {
            "text": "great video thank you verox I loved that",
            "start": 556.32,
            "duration": 5.92
        },
        {
            "text": "video by the way loved that video so",
            "start": 559.079,
            "duration": 5.161
        },
        {
            "text": "dang much the",
            "start": 562.24,
            "duration": 5.8
        },
        {
            "text": "name is the primagen",
            "start": 564.24,
            "duration": 3.8
        }
    ],
    "stats": {
        "viewCount": "85069",
        "likeCount": "3100",
        "favoriteCount": "0",
        "commentCount": "200"
    }
}