{
    "id": "5kUUJVn5IKM",
    "title": "WHAT KIND OF MAP IS THIS??!",
    "publishedAt": "2023-02-14T20:44:03Z",
    "captions": [
        {
            "text": "to the airport and got on a flight to so",
            "start": 0.0,
            "duration": 5.279
        },
        {
            "text": "it's mostly lesbians a couple stepmoms I",
            "start": 2.82,
            "duration": 4.499
        },
        {
            "text": "live in Stepmom land I mean I grew up in",
            "start": 5.279,
            "duration": 4.081
        },
        {
            "text": "step sister moved to stepmom I've never",
            "start": 7.319,
            "duration": 3.721
        },
        {
            "text": "been to cartoon though they're supposed",
            "start": 9.36,
            "duration": 3.48
        },
        {
            "text": "to be oh that's a PornHub man I didn't",
            "start": 11.04,
            "duration": 3.96
        },
        {
            "text": "get any the thought of the fight was oh",
            "start": 12.84,
            "duration": 5.16
        },
        {
            "text": "gross",
            "start": 15.0,
            "duration": 3.0
        }
    ],
    "stats": {
        "viewCount": "61396",
        "likeCount": "2040",
        "favoriteCount": "0",
        "commentCount": "49"
    }
}