{
    "id": "7nper8nC_88",
    "title": "The Zip Domain Disaster",
    "publishedAt": "2023-05-31T12:37:41Z",
    "captions": [
        {
            "text": "hello world today in hacking news Google",
            "start": 0.12,
            "duration": 4.92
        },
        {
            "text": "has a gift for cyber criminals a brand",
            "start": 2.58,
            "duration": 4.739
        },
        {
            "text": "new top level domain called dot zip okay",
            "start": 5.04,
            "duration": 5.099
        },
        {
            "text": "just like.com dot net or dot Pizza yes",
            "start": 7.319,
            "duration": 4.921
        },
        {
            "text": "that's a thing you can register a dot",
            "start": 10.139,
            "duration": 3.901
        },
        {
            "text": "zip domain today for just a few dollars",
            "start": 12.24,
            "duration": 3.599
        },
        {
            "text": "a year by the way I haven't got rid of",
            "start": 14.04,
            "duration": 3.84
        },
        {
            "text": "my screen tearing so you know what you",
            "start": 15.839,
            "duration": 5.421
        },
        {
            "text": "guys can all go yourself",
            "start": 17.88,
            "duration": 5.88
        },
        {
            "text": "uh I'll trust me I'll get this way at",
            "start": 21.26,
            "duration": 4.24
        },
        {
            "text": "some point okay at some point I'll get",
            "start": 23.76,
            "duration": 2.939
        },
        {
            "text": "this way",
            "start": 25.5,
            "duration": 3.84
        },
        {
            "text": "one obvious use case for dot zip is a",
            "start": 26.699,
            "duration": 3.961
        },
        {
            "text": "link shortener and someone's already",
            "start": 29.34,
            "duration": 3.3
        },
        {
            "text": "done it this comes with a bit of irony",
            "start": 30.66,
            "duration": 3.84
        },
        {
            "text": "of course thanks to the file type with",
            "start": 32.64,
            "duration": 4.02
        },
        {
            "text": "exactly the same extension you have zip",
            "start": 34.5,
            "duration": 4.079
        },
        {
            "text": "files which expand and now you have zip",
            "start": 36.66,
            "duration": 4.739
        },
        {
            "text": "links which also expand however is that",
            "start": 38.579,
            "duration": 4.861
        },
        {
            "text": "is that irony or is that Serendipity",
            "start": 41.399,
            "duration": 5.101
        },
        {
            "text": "that's not irony it's a disaster",
            "start": 43.44,
            "duration": 4.92
        },
        {
            "text": "no I'm pretty sure that's not I iron it",
            "start": 46.5,
            "duration": 3.42
        },
        {
            "text": "is neither yeah I guess it's not neither",
            "start": 48.36,
            "duration": 2.879
        },
        {
            "text": "because it's not Serendipity because",
            "start": 49.92,
            "duration": 3.299
        },
        {
            "text": "it's not a coincidence so it's it's it's",
            "start": 51.239,
            "duration": 3.781
        },
        {
            "text": "not even dramatic irony it's not irony",
            "start": 53.219,
            "duration": 4.081
        },
        {
            "text": "at all right like I I'd say the only",
            "start": 55.02,
            "duration": 3.96
        },
        {
            "text": "irony would have to happen is that if",
            "start": 57.3,
            "duration": 3.779
        },
        {
            "text": "you got a zip URL",
            "start": 58.98,
            "duration": 5.1
        },
        {
            "text": "the only irony that would exist is that",
            "start": 61.079,
            "duration": 7.08
        },
        {
            "text": "a dop zip IRL URL is longer than all",
            "start": 64.08,
            "duration": 6.24
        },
        {
            "text": "other URL shorteners so it is actually",
            "start": 68.159,
            "duration": 4.261
        },
        {
            "text": "the least shortening of all URL",
            "start": 70.32,
            "duration": 3.42
        },
        {
            "text": "shortening so the thing in which is",
            "start": 72.42,
            "duration": 3.12
        },
        {
            "text": "supposed to make it short and sounds",
            "start": 73.74,
            "duration": 3.239
        },
        {
            "text": "like it's supposed to be the fastest and",
            "start": 75.54,
            "duration": 2.7
        },
        {
            "text": "shortest one",
            "start": 76.979,
            "duration": 4.021
        },
        {
            "text": "is actually the longest and least good",
            "start": 78.24,
            "duration": 5.04
        },
        {
            "text": "one that would be irony but this is just",
            "start": 81.0,
            "duration": 4.56
        },
        {
            "text": "yeah this is just a pun there is a price",
            "start": 83.28,
            "duration": 4.86
        },
        {
            "text": "to pay for this minor amusement and",
            "start": 85.56,
            "duration": 4.44
        },
        {
            "text": "that's because cyber criminals are going",
            "start": 88.14,
            "duration": 3.72
        },
        {
            "text": "to love dot zip Dimensions okay why for",
            "start": 90.0,
            "duration": 4.259
        },
        {
            "text": "example and this is wild let's say you",
            "start": 91.86,
            "duration": 4.32
        },
        {
            "text": "receive a perfectly innocent email from",
            "start": 94.259,
            "duration": 3.661
        },
        {
            "text": "a family member containing some photos",
            "start": 96.18,
            "duration": 4.259
        },
        {
            "text": "but importantly with the file name in",
            "start": 97.92,
            "duration": 4.92
        },
        {
            "text": "the email because dot zip domains are",
            "start": 100.439,
            "duration": 4.86
        },
        {
            "text": "now a thing that's file name becomes a",
            "start": 102.84,
            "duration": 4.919
        },
        {
            "text": "link a bad actor could register a bunch",
            "start": 105.299,
            "duration": 4.621
        },
        {
            "text": "of common file names so that if you",
            "start": 107.759,
            "duration": 3.9
        },
        {
            "text": "mistakenly click the link thinking",
            "start": 109.92,
            "duration": 3.3
        },
        {
            "text": "you're just downloading the attachment",
            "start": 111.659,
            "duration": 3.561
        },
        {
            "text": "you're sent to the website",
            "start": 113.22,
            "duration": 4.5
        },
        {
            "text": "familyphotos.zip which Auto downloads a",
            "start": 115.22,
            "duration": 4.84
        },
        {
            "text": "file of the same name within which there",
            "start": 117.72,
            "duration": 5.1
        },
        {
            "text": "are no family photos just malware by",
            "start": 120.06,
            "duration": 5.879
        },
        {
            "text": "Google introducing this new TLD",
            "start": 122.82,
            "duration": 6.359
        },
        {
            "text": "damn you know between that and the fact",
            "start": 125.939,
            "duration": 5.341
        },
        {
            "text": "that AI can now do voice mimicking",
            "start": 129.179,
            "duration": 3.901
        },
        {
            "text": "really really good",
            "start": 131.28,
            "duration": 3.959
        },
        {
            "text": "like old people are getting screwed",
            "start": 133.08,
            "duration": 4.62
        },
        {
            "text": "right not only are they not going to be",
            "start": 135.239,
            "duration": 4.381
        },
        {
            "text": "able to get their family photos their",
            "start": 137.7,
            "duration": 3.539
        },
        {
            "text": "precious granddaughter is going to call",
            "start": 139.62,
            "duration": 2.58
        },
        {
            "text": "them",
            "start": 141.239,
            "duration": 3.72
        },
        {
            "text": "who's apparently been adopt abducted and",
            "start": 142.2,
            "duration": 4.5
        },
        {
            "text": "is crying for help but it's actually",
            "start": 144.959,
            "duration": 3.541
        },
        {
            "text": "just AI they're gonna get double had in",
            "start": 146.7,
            "duration": 3.72
        },
        {
            "text": "the same day they're gonna get dot",
            "start": 148.5,
            "duration": 4.2
        },
        {
            "text": "zipped these nuts and then dot Ransom to",
            "start": 150.42,
            "duration": 5.959
        },
        {
            "text": "Deez Nuts all at the exact same time",
            "start": 152.7,
            "duration": 3.679
        },
        {
            "text": "foreign",
            "start": 156.959,
            "duration": 2.181
        },
        {
            "text": "honestly if I ever I think that if if",
            "start": 159.56,
            "duration": 6.34
        },
        {
            "text": "you get caught using AI to scam people",
            "start": 162.18,
            "duration": 5.94
        },
        {
            "text": "by by making it sound like their",
            "start": 165.9,
            "duration": 4.68
        },
        {
            "text": "daughter or their granddaughter",
            "start": 168.12,
            "duration": 5.04
        },
        {
            "text": "is ransomed and you're caught with that",
            "start": 170.58,
            "duration": 4.439
        },
        {
            "text": "I think you should just you deserve to",
            "start": 173.16,
            "duration": 5.18
        },
        {
            "text": "be hung that is just so awful yeah",
            "start": 175.019,
            "duration": 6.241
        },
        {
            "text": "people simply stating get them out have",
            "start": 178.34,
            "duration": 4.66
        },
        {
            "text": "potentially been weaponized overnight",
            "start": 181.26,
            "duration": 4.08
        },
        {
            "text": "and it won't surprise you to learn that",
            "start": 183.0,
            "duration": 4.26
        },
        {
            "text": "bad actors are already jumping on the",
            "start": 185.34,
            "duration": 4.08
        },
        {
            "text": "bandwagon there's a GitHub repo which",
            "start": 187.26,
            "duration": 3.839
        },
        {
            "text": "has been tracking newly created zip",
            "start": 189.42,
            "duration": 4.22
        },
        {
            "text": "domains this includes backup.zip",
            "start": 191.099,
            "duration": 4.981
        },
        {
            "text": "archive.zip homework dot zip and",
            "start": 193.64,
            "duration": 4.72
        },
        {
            "text": "thousands of others however some of",
            "start": 196.08,
            "duration": 5.579
        },
        {
            "text": "these you deserve that dude you deserve",
            "start": 198.36,
            "duration": 5.879
        },
        {
            "text": "that if you are a college student or a",
            "start": 201.659,
            "duration": 4.321
        },
        {
            "text": "high school student someone's like hey",
            "start": 204.239,
            "duration": 4.08
        },
        {
            "text": "you want to cheat on the homework",
            "start": 205.98,
            "duration": 5.399
        },
        {
            "text": "homework dot zip and you fall for",
            "start": 208.319,
            "duration": 5.64
        },
        {
            "text": "homework dot zip oh",
            "start": 211.379,
            "duration": 4.86
        },
        {
            "text": "man I hope it gives you the ligma",
            "start": 213.959,
            "duration": 4.64
        },
        {
            "text": "malware",
            "start": 216.239,
            "duration": 2.36
        },
        {
            "text": "deservingly",
            "start": 218.959,
            "duration": 3.881
        },
        {
            "text": "just to buy white hats in order to take",
            "start": 220.56,
            "duration": 4.259
        },
        {
            "text": "them off the market so to speak denying",
            "start": 222.84,
            "duration": 4.38
        },
        {
            "text": "cyber criminals access to them some have",
            "start": 224.819,
            "duration": 3.721
        },
        {
            "text": "been turned into landing pages",
            "start": 227.22,
            "duration": 3.599
        },
        {
            "text": "lambasting Google for introducing the",
            "start": 228.54,
            "duration": 5.04
        },
        {
            "text": "dot zip TLD but there are malicious dot",
            "start": 230.819,
            "duration": 5.161
        },
        {
            "text": "zip domains I've been to Microsoft",
            "start": 233.58,
            "duration": 3.84
        },
        {
            "text": "office.zip",
            "start": 235.98,
            "duration": 3.96
        },
        {
            "text": "I've been to this one I just can't wait",
            "start": 237.42,
            "duration": 3.899
        },
        {
            "text": "to put my credentials in there because",
            "start": 239.94,
            "duration": 3.9
        },
        {
            "text": "it is like it's so exciting you could",
            "start": 241.319,
            "duration": 4.321
        },
        {
            "text": "put credentials in here",
            "start": 243.84,
            "duration": 3.959
        },
        {
            "text": "I almost feel like what would be the",
            "start": 245.64,
            "duration": 4.98
        },
        {
            "text": "truest thing you should do is we should",
            "start": 247.799,
            "duration": 4.741
        },
        {
            "text": "get some sort of distributed Puppeteer",
            "start": 250.62,
            "duration": 4.44
        },
        {
            "text": "to visit this site over and over again",
            "start": 252.54,
            "duration": 5.4
        },
        {
            "text": "and give it Millions",
            "start": 255.06,
            "duration": 5.1
        },
        {
            "text": "of bad credentials",
            "start": 257.94,
            "duration": 4.86
        },
        {
            "text": "to the point where we DDOS these dumb",
            "start": 260.16,
            "duration": 4.5
        },
        {
            "text": "people that'd be great huh be in use",
            "start": 262.8,
            "duration": 4.44
        },
        {
            "text": "such as this one Microsoft Office Dorset",
            "start": 264.66,
            "duration": 4.259
        },
        {
            "text": "which hosts a lovely phishing page",
            "start": 267.24,
            "duration": 3.959
        },
        {
            "text": "however there are other malicious uses",
            "start": 268.919,
            "duration": 4.441
        },
        {
            "text": "of dot zip domains that's already more",
            "start": 271.199,
            "duration": 3.841
        },
        {
            "text": "sophisticated than just waiting for",
            "start": 273.36,
            "duration": 4.74
        },
        {
            "text": "Passive traffic to roll by I found a",
            "start": 275.04,
            "duration": 5.099
        },
        {
            "text": "sneaky method in a medium article which",
            "start": 278.1,
            "duration": 3.9
        },
        {
            "text": "I'll link below there's a bit of an",
            "start": 280.139,
            "duration": 3.601
        },
        {
            "text": "explanation to this one but stick with",
            "start": 282.0,
            "duration": 3.54
        },
        {
            "text": "me because you absolutely have to know",
            "start": 283.74,
            "duration": 3.42
        },
        {
            "text": "about this and I doubt you've seen it",
            "start": 285.54,
            "duration": 4.02
        },
        {
            "text": "before take a look at this URL it links",
            "start": 287.16,
            "duration": 4.2
        },
        {
            "text": "to GitHub and downloads a kubernetes",
            "start": 289.56,
            "duration": 3.66
        },
        {
            "text": "repository in the form of a zip file",
            "start": 291.36,
            "duration": 5.1
        },
        {
            "text": "right well no click the link and you'll",
            "start": 293.22,
            "duration": 4.88
        },
        {
            "text": "be taken to",
            "start": 296.46,
            "duration": 4.26
        },
        {
            "text": "v1271.zip which could be configured by a",
            "start": 298.1,
            "duration": 4.84
        },
        {
            "text": "bad actor to do anything like serve you",
            "start": 300.72,
            "duration": 5.34
        },
        {
            "text": "an infected copy of the tip you work",
            "start": 302.94,
            "duration": 5.46
        },
        {
            "text": "what",
            "start": 306.06,
            "duration": 6.359
        },
        {
            "text": "hold on okay hold on here hold on I got",
            "start": 308.4,
            "duration": 6.26
        },
        {
            "text": "I",
            "start": 312.419,
            "duration": 2.241
        },
        {
            "text": "I got",
            "start": 315.479,
            "duration": 2.821
        },
        {
            "text": "a GitHub so how does that work so we're",
            "start": 316.74,
            "duration": 3.6
        },
        {
            "text": "gonna go to get or GitHub archive refs",
            "start": 318.3,
            "duration": 5.88
        },
        {
            "text": "tags that okay so uh github.com the",
            "start": 320.34,
            "duration": 9.06
        },
        {
            "text": "primogen uh TS zigdy's nuts uh archive",
            "start": 324.18,
            "duration": 8.34
        },
        {
            "text": "tags is that what it is archives tags",
            "start": 329.4,
            "duration": 4.739
        },
        {
            "text": "hold on hold on I gotta see this uh",
            "start": 332.52,
            "duration": 4.92
        },
        {
            "text": "archive or refs tags archive ref tags",
            "start": 334.139,
            "duration": 9.361
        },
        {
            "text": "archive refs tags at yourmom.zip",
            "start": 337.44,
            "duration": 6.06
        },
        {
            "text": "at used to be a credential login it's",
            "start": 347.4,
            "duration": 4.94
        },
        {
            "text": "it's an at",
            "start": 349.62,
            "duration": 2.72
        },
        {
            "text": "anything before the ad is basically wait",
            "start": 353.1,
            "duration": 3.78
        },
        {
            "text": "hold on hold on hold on hold on what am",
            "start": 355.259,
            "duration": 3.981
        },
        {
            "text": "I missing",
            "start": 356.88,
            "duration": 2.36
        },
        {
            "text": "it's fake slashes oh it's fake slashes",
            "start": 361.259,
            "duration": 6.241
        },
        {
            "text": "oh",
            "start": 364.5,
            "duration": 6.91
        },
        {
            "text": "[Music]",
            "start": 367.5,
            "duration": 3.91
        },
        {
            "text": "yeah okay keep watching yeah I'm dumb",
            "start": 372.86,
            "duration": 5.08
        },
        {
            "text": "okay I see what happened here click the",
            "start": 375.66,
            "duration": 4.28
        },
        {
            "text": "link and you'll be talking",
            "start": 377.94,
            "duration": 5.52
        },
        {
            "text": "yeah be configured by a bad actor to do",
            "start": 379.94,
            "duration": 5.8
        },
        {
            "text": "anything like serve you an infected copy",
            "start": 383.46,
            "duration": 4.56
        },
        {
            "text": "of the tip you were expecting but what's",
            "start": 385.74,
            "duration": 4.079
        },
        {
            "text": "going on here clearly The Domain in the",
            "start": 388.02,
            "duration": 4.44
        },
        {
            "text": "URL is github.com yeah let's not touch",
            "start": 389.819,
            "duration": 5.281
        },
        {
            "text": "this you'll see an app in the URL just",
            "start": 392.46,
            "duration": 4.38
        },
        {
            "text": "before the domain now you get the whole",
            "start": 395.1,
            "duration": 3.659
        },
        {
            "text": "oh yeah there's a big red flag and is a",
            "start": 396.84,
            "duration": 3.54
        },
        {
            "text": "sign that the link is taking advantage",
            "start": 398.759,
            "duration": 3.841
        },
        {
            "text": "of a little-known feature of URLs called",
            "start": 400.38,
            "duration": 5.039
        },
        {
            "text": "user info this parameter can be used to",
            "start": 402.6,
            "duration": 5.34
        },
        {
            "text": "specify login credentials for",
            "start": 405.419,
            "duration": 4.5
        },
        {
            "text": "damn",
            "start": 407.94,
            "duration": 4.379
        },
        {
            "text": "you know just looking at that it still",
            "start": 409.919,
            "duration": 4.5
        },
        {
            "text": "blows me away",
            "start": 412.319,
            "duration": 5.041
        },
        {
            "text": "like this is legitimately little known I",
            "start": 414.419,
            "duration": 4.861
        },
        {
            "text": "mean it is a fairly I mean when when",
            "start": 417.36,
            "duration": 3.36
        },
        {
            "text": "people say little don't you got to",
            "start": 419.28,
            "duration": 4.08
        },
        {
            "text": "understand that this individual chat has",
            "start": 420.72,
            "duration": 6.3
        },
        {
            "text": "probably sshed more like statistically",
            "start": 423.36,
            "duration": 7.7
        },
        {
            "text": "type one in the chat if you've used SSH",
            "start": 427.02,
            "duration": 4.04
        },
        {
            "text": "go ahead type one if you use SSH",
            "start": 432.84,
            "duration": 6.359
        },
        {
            "text": "yeah uh that looks nothing like the real",
            "start": 436.44,
            "duration": 4.319
        },
        {
            "text": "world I want you to know my mom doesn't",
            "start": 439.199,
            "duration": 3.361
        },
        {
            "text": "even know what SSH is",
            "start": 440.759,
            "duration": 5.34
        },
        {
            "text": "okay I'd have to go put my SSH keys on",
            "start": 442.56,
            "duration": 6.06
        },
        {
            "text": "your mom's computer if she wishes to SSH",
            "start": 446.099,
            "duration": 5.401
        },
        {
            "text": "into anything okay",
            "start": 448.62,
            "duration": 4.799
        },
        {
            "text": "feel me",
            "start": 451.5,
            "duration": 4.62
        },
        {
            "text": "you feel me",
            "start": 453.419,
            "duration": 4.34
        },
        {
            "text": "okay",
            "start": 456.12,
            "duration": 6.0
        },
        {
            "text": "calm down now okay calm down now we're a",
            "start": 457.759,
            "duration": 6.101
        },
        {
            "text": "web application coding with Lewis I",
            "start": 462.12,
            "duration": 3.24
        },
        {
            "text": "agree this this editing is incredible",
            "start": 463.86,
            "duration": 4.08
        },
        {
            "text": "this is what I yearn for but at the same",
            "start": 465.36,
            "duration": 3.779
        },
        {
            "text": "time",
            "start": 467.94,
            "duration": 3.3
        },
        {
            "text": "I don't yearn for it so you'll",
            "start": 469.139,
            "duration": 3.78
        },
        {
            "text": "automatically authenticated when you're",
            "start": 471.24,
            "duration": 3.66
        },
        {
            "text": "sent to whatever comes after the act",
            "start": 472.919,
            "duration": 4.201
        },
        {
            "text": "however this feature of including login",
            "start": 474.9,
            "duration": 4.799
        },
        {
            "text": "credentials and URLs is more of a legacy",
            "start": 477.12,
            "duration": 4.139
        },
        {
            "text": "feature and doesn't really use much",
            "start": 479.699,
            "duration": 3.84
        },
        {
            "text": "nowadays because people quickly realized",
            "start": 481.259,
            "duration": 4.201
        },
        {
            "text": "that including plain text credentials",
            "start": 483.539,
            "duration": 4.041
        },
        {
            "text": "within a URL is pretty bad for security",
            "start": 485.46,
            "duration": 4.32
        },
        {
            "text": "nevertheless the future lingers in",
            "start": 487.58,
            "duration": 4.54
        },
        {
            "text": "modern browsers yeah so in our malicious",
            "start": 489.78,
            "duration": 4.74
        },
        {
            "text": "URL everything before the at is treated",
            "start": 492.12,
            "duration": 4.5
        },
        {
            "text": "as a user info parameter and you're",
            "start": 494.52,
            "duration": 3.679
        },
        {
            "text": "really sent to",
            "start": 496.62,
            "duration": 3.799
        },
        {
            "text": "v1271.zip instead",
            "start": 498.199,
            "duration": 4.78
        },
        {
            "text": "that's a great hack I mean the link to",
            "start": 500.419,
            "duration": 4.9
        },
        {
            "text": "this very medium article includes an at",
            "start": 502.979,
            "duration": 4.801
        },
        {
            "text": "to specify the author of this article so",
            "start": 505.319,
            "duration": 3.681
        },
        {
            "text": "why doesn't this",
            "start": 507.78,
            "duration": 3.08
        },
        {
            "text": "invalidate.com",
            "start": 509.0,
            "duration": 4.839
        },
        {
            "text": "this is because when the browser sees a",
            "start": 510.86,
            "duration": 5.14
        },
        {
            "text": "slash character in the URL it treats",
            "start": 513.839,
            "duration": 4.801
        },
        {
            "text": "whatever comes after it as a path so you",
            "start": 516.0,
            "duration": 5.039
        },
        {
            "text": "can't really just take any URL and Tack",
            "start": 518.64,
            "duration": 5.22
        },
        {
            "text": "on at arbitrarydomain.zip and expect to",
            "start": 521.039,
            "duration": 4.86
        },
        {
            "text": "be sent there our malicious link however",
            "start": 523.86,
            "duration": 4.44
        },
        {
            "text": "accomplishes this through the use of a",
            "start": 525.899,
            "duration": 3.961
        },
        {
            "text": "certain Unicode card character that",
            "start": 528.3,
            "duration": 3.84
        },
        {
            "text": "looks very similar to a slash but dude",
            "start": 529.86,
            "duration": 5.22
        },
        {
            "text": "Unicode was a mistake okay the fact that",
            "start": 532.14,
            "duration": 4.5
        },
        {
            "text": "there's like that whole Greek question",
            "start": 535.08,
            "duration": 5.28
        },
        {
            "text": "mark That's a semicolon",
            "start": 536.64,
            "duration": 6.48
        },
        {
            "text": "and now slashes that aren't slashes okay",
            "start": 540.36,
            "duration": 5.479
        },
        {
            "text": "I don't I",
            "start": 543.12,
            "duration": 2.719
        },
        {
            "text": "okay I don't get this okay it feels like",
            "start": 546.54,
            "duration": 4.14
        },
        {
            "text": "my world is falling apart constantly",
            "start": 549.06,
            "duration": 3.36
        },
        {
            "text": "without with Unicode okay if we could",
            "start": 550.68,
            "duration": 3.98
        },
        {
            "text": "just go back to just",
            "start": 552.42,
            "duration": 4.74
        },
        {
            "text": "non-unicode days okay ASCII is beautiful",
            "start": 554.66,
            "duration": 4.96
        },
        {
            "text": "okay it has all the characters we ever",
            "start": 557.16,
            "duration": 5.22
        },
        {
            "text": "need including decimal 30 record",
            "start": 559.62,
            "duration": 3.96
        },
        {
            "text": "breaking",
            "start": 562.38,
            "duration": 4.079
        },
        {
            "text": "space okay that's all you need it isn't",
            "start": 563.58,
            "duration": 5.1
        },
        {
            "text": "compare the slashes in our malicious URL",
            "start": 566.459,
            "duration": 4.621
        },
        {
            "text": "to the slashes in an innocent URL there",
            "start": 568.68,
            "duration": 4.44
        },
        {
            "text": "are slightly more of an angle but it's",
            "start": 571.08,
            "duration": 3.72
        },
        {
            "text": "not enough of a difference to set off",
            "start": 573.12,
            "duration": 3.659
        },
        {
            "text": "alarm Bells this all makes possible",
            "start": 574.8,
            "duration": 4.38
        },
        {
            "text": "hyper convincing fishing links that only",
            "start": 576.779,
            "duration": 3.961
        },
        {
            "text": "give away that something just isn't",
            "start": 579.18,
            "duration": 3.9
        },
        {
            "text": "right the true domain appearing in the",
            "start": 580.74,
            "duration": 4.2
        },
        {
            "text": "bottom left when you it's not just that",
            "start": 583.08,
            "duration": 3.36
        },
        {
            "text": "the kerning is all off did you see the",
            "start": 584.94,
            "duration": 3.54
        },
        {
            "text": "look at that look how bad the kerning is",
            "start": 586.44,
            "duration": 4.019
        },
        {
            "text": "that okay well at least you can kind of",
            "start": 588.48,
            "duration": 5.1
        },
        {
            "text": "visually tell that something's effed up",
            "start": 590.459,
            "duration": 5.221
        },
        {
            "text": "turning is a really hard thing you know",
            "start": 593.58,
            "duration": 4.5
        },
        {
            "text": "that we had production issues at workiva",
            "start": 595.68,
            "duration": 4.08
        },
        {
            "text": "who used to be known as web filings",
            "start": 598.08,
            "duration": 3.96
        },
        {
            "text": "because of the enterobang the enterobang",
            "start": 599.76,
            "duration": 4.5
        },
        {
            "text": "okay Kern Deez Nuts is what I have to",
            "start": 602.04,
            "duration": 3.84
        },
        {
            "text": "say to kerning okay the way that",
            "start": 604.26,
            "duration": 3.42
        },
        {
            "text": "something just isn't right here is the",
            "start": 605.88,
            "duration": 3.42
        },
        {
            "text": "true domain appearing in the bottom left",
            "start": 607.68,
            "duration": 3.659
        },
        {
            "text": "when you hover over the link and the",
            "start": 609.3,
            "duration": 4.02
        },
        {
            "text": "fact that some fonts do make the fake",
            "start": 611.339,
            "duration": 4.741
        },
        {
            "text": "slashes look slightly odd but other than",
            "start": 613.32,
            "duration": 4.86
        },
        {
            "text": "that there isn't even an opportunity to",
            "start": 616.08,
            "duration": 3.78
        },
        {
            "text": "realize you're being sent to a malicious",
            "start": 618.18,
            "duration": 3.9
        },
        {
            "text": "domain because as per normal download",
            "start": 619.86,
            "duration": 4.44
        },
        {
            "text": "link Behavior the time if someone ever",
            "start": 622.08,
            "duration": 4.74
        },
        {
            "text": "sends me the email download kubernetes",
            "start": 624.3,
            "duration": 4.979
        },
        {
            "text": "I'll know I'll know right away that",
            "start": 626.82,
            "duration": 4.38
        },
        {
            "text": "whether or not the link is malicious the",
            "start": 629.279,
            "duration": 5.101
        },
        {
            "text": "intent is clearly malicious okay someone",
            "start": 631.2,
            "duration": 5.4
        },
        {
            "text": "trying to get me to learn kubernetes via",
            "start": 634.38,
            "duration": 5.34
        },
        {
            "text": "email I don't think so okay suspicious",
            "start": 636.6,
            "duration": 7.62
        },
        {
            "text": "sus sus okay you should just know by now",
            "start": 639.72,
            "duration": 6.84
        },
        {
            "text": "that nobody is going to be sending you",
            "start": 644.22,
            "duration": 5.66
        },
        {
            "text": "kubernetes links via email",
            "start": 646.56,
            "duration": 3.32
        },
        {
            "text": "until the download starts oh and if",
            "start": 650.36,
            "duration": 4.479
        },
        {
            "text": "you're holding on to hope that this will",
            "start": 653.399,
            "duration": 4.141
        },
        {
            "text": "be fixed by browsers don't a chromium",
            "start": 654.839,
            "duration": 4.74
        },
        {
            "text": "bug report seven years ago raised the",
            "start": 657.54,
            "duration": 4.5
        },
        {
            "text": "issue of Unicode lookalikes and it was",
            "start": 659.579,
            "duration": 5.221
        },
        {
            "text": "decided that nothing would be done this",
            "start": 662.04,
            "duration": 5.22
        },
        {
            "text": "fishing method isn't new per se but it's",
            "start": 664.8,
            "duration": 4.44
        },
        {
            "text": "made a whole lot more useful thanks to",
            "start": 667.26,
            "duration": 4.079
        },
        {
            "text": "Bad actors now being able to serve the",
            "start": 669.24,
            "duration": 4.92
        },
        {
            "text": "exact foul type the victim expects I",
            "start": 671.339,
            "duration": 4.62
        },
        {
            "text": "feel like it wouldn't wouldn't the",
            "start": 674.16,
            "duration": 3.48
        },
        {
            "text": "proper fix quote unquote the proper fix",
            "start": 675.959,
            "duration": 5.461
        },
        {
            "text": "is that any URL with the slash in it",
            "start": 677.64,
            "duration": 7.199
        },
        {
            "text": "should just get Auto URL",
            "start": 681.42,
            "duration": 6.12
        },
        {
            "text": "component encoded",
            "start": 684.839,
            "duration": 4.62
        },
        {
            "text": "and this just make sure that those type",
            "start": 687.54,
            "duration": 3.72
        },
        {
            "text": "of Unicode characters get Unicode",
            "start": 689.459,
            "duration": 4.44
        },
        {
            "text": "encoded they get so you have to",
            "start": 691.26,
            "duration": 4.199
        },
        {
            "text": "do that right so that way you'd",
            "start": 693.899,
            "duration": 3.301
        },
        {
            "text": "automatically see your url all screwed",
            "start": 695.459,
            "duration": 2.521
        },
        {
            "text": "up",
            "start": 697.2,
            "duration": 3.68
        },
        {
            "text": "yeah percent whatever",
            "start": 697.98,
            "duration": 2.9
        },
        {
            "text": "codes yeah whatever they're called",
            "start": 701.64,
            "duration": 3.36
        },
        {
            "text": "so yeah that happens a lot it does",
            "start": 703.8,
            "duration": 2.76
        },
        {
            "text": "happen a lot when I tried even when I",
            "start": 705.0,
            "duration": 3.12
        },
        {
            "text": "tried to do that at sign if you didn't",
            "start": 706.56,
            "duration": 2.94
        },
        {
            "text": "notice that when I tried to do that at",
            "start": 708.12,
            "duration": 3.06
        },
        {
            "text": "sign wherever it was where did I go",
            "start": 709.5,
            "duration": 3.6
        },
        {
            "text": "you'll notice that it did it did it gave",
            "start": 711.18,
            "duration": 3.48
        },
        {
            "text": "me a little percent 40. like it did it",
            "start": 713.1,
            "duration": 3.919
        },
        {
            "text": "for me",
            "start": 714.66,
            "duration": 2.359
        },
        {
            "text": "I don't know",
            "start": 718.8,
            "duration": 4.74
        },
        {
            "text": "uh it would need to encode before you",
            "start": 721.44,
            "duration": 4.019
        },
        {
            "text": "click the URL well I mean it kind of I",
            "start": 723.54,
            "duration": 3.12
        },
        {
            "text": "think I'm not yeah I guess that's true",
            "start": 725.459,
            "duration": 3.181
        },
        {
            "text": "yeah whatever I don't know it sucks it's",
            "start": 726.66,
            "duration": 3.359
        },
        {
            "text": "just it just feels like something this",
            "start": 728.64,
            "duration": 2.699
        },
        {
            "text": "is something that Chrome should like",
            "start": 730.019,
            "duration": 3.661
        },
        {
            "text": "warn you about",
            "start": 731.339,
            "duration": 4.921
        },
        {
            "text": "you know like anyone that's putting",
            "start": 733.68,
            "duration": 5.159
        },
        {
            "text": "their you their username and password",
            "start": 736.26,
            "duration": 5.1
        },
        {
            "text": "this just feels crazy this just feels",
            "start": 738.839,
            "duration": 4.021
        },
        {
            "text": "crazy that we've opened up this huge",
            "start": 741.36,
            "duration": 2.94
        },
        {
            "text": "domain I didn't even know that how bad",
            "start": 742.86,
            "duration": 4.08
        },
        {
            "text": "this was this feels crazy Google has",
            "start": 744.3,
            "duration": 4.68
        },
        {
            "text": "published Hard Times defending venue zip",
            "start": 746.94,
            "duration": 4.2
        },
        {
            "text": "domains in which they said the risk of",
            "start": 748.98,
            "duration": 4.08
        },
        {
            "text": "confusion between domain names and file",
            "start": 751.14,
            "duration": 4.199
        },
        {
            "text": "names is not a new one they give the",
            "start": 753.06,
            "duration": 4.86
        },
        {
            "text": "example of the.com TLD which actually",
            "start": 755.339,
            "duration": 4.44
        },
        {
            "text": "used to be a file extension in the early",
            "start": 757.92,
            "duration": 3.72
        },
        {
            "text": "days of Windows it was similar in",
            "start": 759.779,
            "duration": 4.68
        },
        {
            "text": "function to dot exe however that's a bit",
            "start": 761.64,
            "duration": 4.56
        },
        {
            "text": "of an absurd comparison because you'd",
            "start": 764.459,
            "duration": 3.541
        },
        {
            "text": "have to go back to the first half of the",
            "start": 766.2,
            "duration": 4.079
        },
        {
            "text": "90s to find Stockholm files being used",
            "start": 768.0,
            "duration": 4.62
        },
        {
            "text": "regularly to imply that just because it",
            "start": 770.279,
            "duration": 4.081
        },
        {
            "text": "didn't pose a problem then that it won't",
            "start": 772.62,
            "duration": 5.04
        },
        {
            "text": "now that is an incredible Windows logo",
            "start": 774.36,
            "duration": 7.44
        },
        {
            "text": "if 3.5 really get I never did",
            "start": 777.66,
            "duration": 6.299
        },
        {
            "text": "how beautiful that is",
            "start": 781.8,
            "duration": 3.659
        },
        {
            "text": "you guys remember the old days of",
            "start": 783.959,
            "duration": 5.06
        },
        {
            "text": "booting up starting in DOS",
            "start": 785.459,
            "duration": 3.56
        },
        {
            "text": "and then you'd actually have to type in",
            "start": 789.42,
            "duration": 5.0
        },
        {
            "text": "win and go into windows",
            "start": 790.74,
            "duration": 3.68
        },
        {
            "text": "so good I installed Doom",
            "start": 794.76,
            "duration": 5.879
        },
        {
            "text": "Doom took five separate",
            "start": 797.04,
            "duration": 6.479
        },
        {
            "text": "five separate uh floppies to get it",
            "start": 800.639,
            "duration": 7.981
        },
        {
            "text": "installed five okay five it was so good",
            "start": 803.519,
            "duration": 7.861
        },
        {
            "text": "it was so good Windows 2K is the best no",
            "start": 808.62,
            "duration": 3.839
        },
        {
            "text": "it's not",
            "start": 811.38,
            "duration": 3.66
        },
        {
            "text": "so good okay I loved it I was installing",
            "start": 812.459,
            "duration": 5.281
        },
        {
            "text": "Doom I was eight years old put or not",
            "start": 815.04,
            "duration": 4.02
        },
        {
            "text": "even eight I was like six years old",
            "start": 817.74,
            "duration": 3.779
        },
        {
            "text": "putting doom on my computer",
            "start": 819.06,
            "duration": 4.74
        },
        {
            "text": "blasting bad guys",
            "start": 821.519,
            "duration": 5.461
        },
        {
            "text": "beautiful time oh it's ridiculous the",
            "start": 823.8,
            "duration": 4.5
        },
        {
            "text": "number of people connected to the",
            "start": 826.98,
            "duration": 3.659
        },
        {
            "text": "internet back then was Tiny it barely",
            "start": 828.3,
            "duration": 4.38
        },
        {
            "text": "registers on a graph and cybercrime",
            "start": 830.639,
            "duration": 3.541
        },
        {
            "text": "wasn't the multi-trillion dollar",
            "start": 832.68,
            "duration": 3.839
        },
        {
            "text": "industry that it is today the rest of",
            "start": 834.18,
            "duration": 3.899
        },
        {
            "text": "Google's statements I only played Duke",
            "start": 836.519,
            "duration": 3.0
        },
        {
            "text": "Nukem because I thought I could see some",
            "start": 838.079,
            "duration": 6.06
        },
        {
            "text": "titties okay Real Talk Doom was fun Duke",
            "start": 839.519,
            "duration": 6.901
        },
        {
            "text": "Nukem was for the hope of seeing titties",
            "start": 844.139,
            "duration": 4.5
        },
        {
            "text": "okay when I was a little kid",
            "start": 846.42,
            "duration": 4.859
        },
        {
            "text": "I was exposed I was exposed to porn at a",
            "start": 848.639,
            "duration": 4.44
        },
        {
            "text": "very young age",
            "start": 851.279,
            "duration": 3.901
        },
        {
            "text": "and I truly",
            "start": 853.079,
            "duration": 4.021
        },
        {
            "text": "just wanted to see more titties that's",
            "start": 855.18,
            "duration": 4.2
        },
        {
            "text": "all I wanted as a young kid and so",
            "start": 857.1,
            "duration": 4.38
        },
        {
            "text": "that's why I played Duke Nukem we all",
            "start": 859.38,
            "duration": 4.44
        },
        {
            "text": "know it okay we all know it to be true",
            "start": 861.48,
            "duration": 5.76
        },
        {
            "text": "okay we all know it",
            "start": 863.82,
            "duration": 5.34
        },
        {
            "text": "don't even try with me",
            "start": 867.24,
            "duration": 3.3
        },
        {
            "text": "doom on the other hand you played",
            "start": 869.16,
            "duration": 2.7
        },
        {
            "text": "because you want to kick some caca",
            "start": 870.54,
            "duration": 5.039
        },
        {
            "text": "Demon's ass okay little Kaka demons",
            "start": 871.86,
            "duration": 4.95
        },
        {
            "text": "or whatever sound they make",
            "start": 875.579,
            "duration": 3.661
        },
        {
            "text": "[Music]",
            "start": 876.81,
            "duration": 4.829
        },
        {
            "text": "they make that stupid sound you just",
            "start": 879.24,
            "duration": 3.899
        },
        {
            "text": "make you just want to shoot him with the",
            "start": 881.639,
            "duration": 3.961
        },
        {
            "text": "rocket launcher constantly",
            "start": 883.139,
            "duration": 4.2
        },
        {
            "text": "what's that dumb sound they make oh my",
            "start": 885.6,
            "duration": 3.479
        },
        {
            "text": "goodness I just hate it here I'll manly",
            "start": 887.339,
            "duration": 3.321
        },
        {
            "text": "up my voice a little bit",
            "start": 889.079,
            "duration": 5.761
        },
        {
            "text": "[Music]",
            "start": 890.66,
            "duration": 4.18
        },
        {
            "text": "so stupid it's just waffle really",
            "start": 895.5,
            "duration": 5.16
        },
        {
            "text": "thought zip isn't the only newly created",
            "start": 898.26,
            "duration": 4.92
        },
        {
            "text": "TLD there's also.mov which has also",
            "start": 900.66,
            "duration": 4.76
        },
        {
            "text": "proved PhD",
            "start": 903.18,
            "duration": 5.339
        },
        {
            "text": "sharing the same extension now did you",
            "start": 905.42,
            "duration": 6.94
        },
        {
            "text": "see that what dude",
            "start": 908.519,
            "duration": 6.901
        },
        {
            "text": "if someone showed me their dot PhD",
            "start": 912.36,
            "duration": 5.7
        },
        {
            "text": "website because they have a doctorate I",
            "start": 915.42,
            "duration": 5.159
        },
        {
            "text": "would unfriend them on Facebook if I had",
            "start": 918.06,
            "duration": 4.519
        },
        {
            "text": "a Facebook account got a marks",
            "start": 920.579,
            "duration": 4.081
        },
        {
            "text": "Zuckerberg please don't practice your",
            "start": 922.579,
            "duration": 4.181
        },
        {
            "text": "Brazilian Jiu Jitsu on me though",
            "start": 924.66,
            "duration": 4.44
        },
        {
            "text": "controversial again thanks to a file",
            "start": 926.76,
            "duration": 4.98
        },
        {
            "text": "type sharing the same extension now I",
            "start": 929.1,
            "duration": 4.14
        },
        {
            "text": "want to hear your guys's thoughts on all",
            "start": 931.74,
            "duration": 3.959
        },
        {
            "text": "of this is the existence of dot zip a",
            "start": 933.24,
            "duration": 5.039
        },
        {
            "text": "dumb idea I mean there's already 1500",
            "start": 935.699,
            "duration": 4.981
        },
        {
            "text": "tlds do we really need any more in",
            "start": 938.279,
            "duration": 4.56
        },
        {
            "text": "particular confusing ones or is the",
            "start": 940.68,
            "duration": 3.959
        },
        {
            "text": "drama just hype and so long as",
            "start": 942.839,
            "duration": 3.901
        },
        {
            "text": "developers Implement some basic changes",
            "start": 944.639,
            "duration": 4.981
        },
        {
            "text": "like not Auto hyperlinking.zip domains",
            "start": 946.74,
            "duration": 4.86
        },
        {
            "text": "we'll all just be fine let me know your",
            "start": 949.62,
            "duration": 4.079
        },
        {
            "text": "thoughts down in those comments",
            "start": 951.6,
            "duration": 5.239
        },
        {
            "text": "this video is sponsored by PCB way",
            "start": 953.699,
            "duration": 4.981
        },
        {
            "text": "I'm gonna I'm gonna give him some",
            "start": 956.839,
            "duration": 3.701
        },
        {
            "text": "thoughts and then I I will we'll watch",
            "start": 958.68,
            "duration": 3.12
        },
        {
            "text": "his sponsorship because you know that's",
            "start": 960.54,
            "duration": 2.76
        },
        {
            "text": "the nice thing to do here but I do want",
            "start": 961.8,
            "duration": 2.339
        },
        {
            "text": "to give some thoughts here really",
            "start": 963.3,
            "duration": 3.36
        },
        {
            "text": "quickly on this do I think it's bad I",
            "start": 964.139,
            "duration": 4.5
        },
        {
            "text": "think the thing is is that Google should",
            "start": 966.66,
            "duration": 3.78
        },
        {
            "text": "put in some protections",
            "start": 968.639,
            "duration": 3.361
        },
        {
            "text": "the browser should put in some",
            "start": 970.44,
            "duration": 5.12
        },
        {
            "text": "protections if you follow a link",
            "start": 972.0,
            "duration": 3.56
        },
        {
            "text": "that is a dot zip",
            "start": 976.38,
            "duration": 3.66
        },
        {
            "text": "like there's an entire class of people",
            "start": 978.18,
            "duration": 3.599
        },
        {
            "text": "that will just be had by it every time",
            "start": 980.04,
            "duration": 4.919
        },
        {
            "text": "it does not matter you are had 100 of",
            "start": 981.779,
            "duration": 5.041
        },
        {
            "text": "the time and I think taking the time to",
            "start": 984.959,
            "duration": 3.12
        },
        {
            "text": "protect people against that would be a",
            "start": 986.82,
            "duration": 3.06
        },
        {
            "text": "good idea right like if you go to a",
            "start": 988.079,
            "duration": 4.081
        },
        {
            "text": "non-secure place or a place that has bad",
            "start": 989.88,
            "duration": 4.44
        },
        {
            "text": "https credentials they're like",
            "start": 992.16,
            "duration": 4.14
        },
        {
            "text": "absolutely it's terrible proceed with",
            "start": 994.32,
            "duration": 4.199
        },
        {
            "text": "caution this is this is dangerous right",
            "start": 996.3,
            "duration": 4.8
        },
        {
            "text": "so you would think that hey you know",
            "start": 998.519,
            "duration": 4.68
        },
        {
            "text": "maybe if if you go to a dot zip that",
            "start": 1001.1,
            "duration": 4.5
        },
        {
            "text": "downloads something right away maybe you",
            "start": 1003.199,
            "duration": 3.901
        },
        {
            "text": "should consider",
            "start": 1005.6,
            "duration": 4.02
        },
        {
            "text": "just maybe like putting up a little bit",
            "start": 1007.1,
            "duration": 4.32
        },
        {
            "text": "of a warning for somebody that could be",
            "start": 1009.62,
            "duration": 4.079
        },
        {
            "text": "nice for them right uh I think this that",
            "start": 1011.42,
            "duration": 4.02
        },
        {
            "text": "you could save you could save a lot of",
            "start": 1013.699,
            "duration": 3.181
        },
        {
            "text": "people that aren't tech savvy obviously",
            "start": 1015.44,
            "duration": 3.54
        },
        {
            "text": "everyone in here very very tech savvy",
            "start": 1016.88,
            "duration": 3.84
        },
        {
            "text": "they're probably gonna get had by this",
            "start": 1018.98,
            "duration": 4.14
        },
        {
            "text": "anyways go because you go want to go",
            "start": 1020.72,
            "duration": 4.8
        },
        {
            "text": "watch Family photos.zip Classic maneuver",
            "start": 1023.12,
            "duration": 3.24
        },
        {
            "text": "really",
            "start": 1025.52,
            "duration": 3.24
        },
        {
            "text": "solution for particular PCB fabrication",
            "start": 1026.36,
            "duration": 4.5
        },
        {
            "text": "and on-demand 3D printing needs from",
            "start": 1028.76,
            "duration": 5.419
        },
        {
            "text": "standard pcbs to more advanced varieties",
            "start": 1030.86,
            "duration": 3.319
        },
        {
            "text": "the 3D printing and injection molding",
            "start": 1039.04,
            "duration": 3.879
        },
        {
            "text": "there's an array of materials super fast",
            "start": 1041.059,
            "duration": 3.12
        },
        {
            "text": "turnaround times sign up now using the",
            "start": 1042.919,
            "duration": 2.76
        },
        {
            "text": "link in the description which can be",
            "start": 1044.179,
            "duration": 3.0
        },
        {
            "text": "used site-wide as always thanks for",
            "start": 1045.679,
            "duration": 2.341
        },
        {
            "text": "watching I'll see you in the next video",
            "start": 1047.179,
            "duration": 2.701
        },
        {
            "text": "all right people you know what to do",
            "start": 1048.02,
            "duration": 3.0
        },
        {
            "text": "what I want you to do is I want you to",
            "start": 1049.88,
            "duration": 2.22
        },
        {
            "text": "go here and I want you to press the like",
            "start": 1051.02,
            "duration": 2.52
        },
        {
            "text": "button and I want you to press the",
            "start": 1052.1,
            "duration": 2.76
        },
        {
            "text": "Subscribe button okay because that's who",
            "start": 1053.54,
            "duration": 3.66
        },
        {
            "text": "we are we're good people around here the",
            "start": 1054.86,
            "duration": 4.5
        },
        {
            "text": "name",
            "start": 1057.2,
            "duration": 5.0
        },
        {
            "text": "is the prime machine",
            "start": 1059.36,
            "duration": 2.84
        }
    ],
    "stats": {
        "viewCount": "57999",
        "likeCount": "2246",
        "favoriteCount": "0",
        "commentCount": "257"
    }
}