{
    "id": "7VYP_2t4CJw",
    "title": "More Open Sourcing For Mojo",
    "publishedAt": "2024-03-31T12:47:15Z",
    "captions": [
        {
            "text": "all right we're going to do a new thing",
            "start": 0.08,
            "duration": 2.68
        },
        {
            "text": "Mojo if you haven't been keeping up with",
            "start": 1.28,
            "duration": 3.039
        },
        {
            "text": "Mojo and you don't know what Mojo is by",
            "start": 2.76,
            "duration": 3.32
        },
        {
            "text": "the way no it's not what Austin Powers",
            "start": 4.319,
            "duration": 4.961
        },
        {
            "text": "lost in Austin Powers 3 but it is this",
            "start": 6.08,
            "duration": 5.16
        },
        {
            "text": "new language in which is supposed to be",
            "start": 9.28,
            "duration": 5.2
        },
        {
            "text": "like python or or pythonesque or python",
            "start": 11.24,
            "duration": 5.2
        },
        {
            "text": "makes pythonistas happy but gives you",
            "start": 14.48,
            "duration": 3.879
        },
        {
            "text": "all the speed of all the good stuff",
            "start": 16.44,
            "duration": 4.36
        },
        {
            "text": "right it get it has types it allows for",
            "start": 18.359,
            "duration": 5.24
        },
        {
            "text": "Sim D's Nuts it has all it will even do",
            "start": 20.8,
            "duration": 4.52
        },
        {
            "text": "like variations on it to find the",
            "start": 23.599,
            "duration": 3.721
        },
        {
            "text": "fastest amount of paralyzation you",
            "start": 25.32,
            "duration": 4.119
        },
        {
            "text": "should be using per problem it has all",
            "start": 27.32,
            "duration": 4.799
        },
        {
            "text": "these PR that are huge and Chris lner I",
            "start": 29.439,
            "duration": 5.241
        },
        {
            "text": "believe is the lead of this and he just",
            "start": 32.119,
            "duration": 4.001
        },
        {
            "text": "open sourced it is that what we're",
            "start": 34.68,
            "duration": 3.6
        },
        {
            "text": "seeing right here at modular open source",
            "start": 36.12,
            "duration": 4.919
        },
        {
            "text": "is ingrained in our DNA we firmly",
            "start": 38.28,
            "duration": 5.2
        },
        {
            "text": "believe for Mojo to reach its full",
            "start": 41.039,
            "duration": 3.961
        },
        {
            "text": "potential must be open source I do agree",
            "start": 43.48,
            "duration": 3.2
        },
        {
            "text": "with that any programming language needs",
            "start": 45.0,
            "duration": 2.92
        },
        {
            "text": "there's just a couple things that are",
            "start": 46.68,
            "duration": 3.32
        },
        {
            "text": "just required to make an OP a language",
            "start": 47.92,
            "duration": 4.439
        },
        {
            "text": "super successful one it has to be open",
            "start": 50.0,
            "duration": 4.64
        },
        {
            "text": "source two you have to deliver on the",
            "start": 52.359,
            "duration": 4.241
        },
        {
            "text": "Promises you make so like V is a great",
            "start": 54.64,
            "duration": 3.68
        },
        {
            "text": "example of this where they made a bunch",
            "start": 56.6,
            "duration": 4.84
        },
        {
            "text": "of promises and people have felt like",
            "start": 58.32,
            "duration": 5.039
        },
        {
            "text": "they have delivered therefore there's",
            "start": 61.44,
            "duration": 3.6
        },
        {
            "text": "this like there's there's a huge amount",
            "start": 63.359,
            "duration": 4.12
        },
        {
            "text": "of distrust there uh three tools tools",
            "start": 65.04,
            "duration": 4.84
        },
        {
            "text": "tools tools and tools you got to have",
            "start": 67.479,
            "duration": 4.0
        },
        {
            "text": "tools these days if you try if you're",
            "start": 69.88,
            "duration": 3.84
        },
        {
            "text": "even remotely attempting creating a new",
            "start": 71.479,
            "duration": 4.401
        },
        {
            "text": "language if this thing doesn't come with",
            "start": 73.72,
            "duration": 3.68
        },
        {
            "text": "uh if this thing doesn't come with a",
            "start": 75.88,
            "duration": 4.48
        },
        {
            "text": "package manager a build system an LSP a",
            "start": 77.4,
            "duration": 6.2
        },
        {
            "text": "linter and a formatter like like it",
            "start": 80.36,
            "duration": 5.68
        },
        {
            "text": "ain't happening hey Prime how can VI",
            "start": 83.6,
            "duration": 4.8
        },
        {
            "text": "motions help me in my daytoday life I",
            "start": 86.04,
            "duration": 4.039
        },
        {
            "text": "will tell you later you just hold hold",
            "start": 88.4,
            "duration": 3.64
        },
        {
            "text": "on we have been progressively open",
            "start": 90.079,
            "duration": 4.0
        },
        {
            "text": "sourcing more of Mojo in parts of the",
            "start": 92.04,
            "duration": 4.359
        },
        {
            "text": "max platform and today we're thrilled to",
            "start": 94.079,
            "duration": 4.801
        },
        {
            "text": "announce the release of the core modules",
            "start": 96.399,
            "duration": 4.841
        },
        {
            "text": "from the Mojo standard Library under the",
            "start": 98.88,
            "duration": 4.68
        },
        {
            "text": "Apache 2 license we have always believed",
            "start": 101.24,
            "duration": 3.919
        },
        {
            "text": "that building Mojo in the open will lead",
            "start": 103.56,
            "duration": 4.0
        },
        {
            "text": "to a better result because it allows its",
            "start": 105.159,
            "duration": 4.721
        },
        {
            "text": "design to be shaped by the feedback from",
            "start": 107.56,
            "duration": 4.12
        },
        {
            "text": "the broader Community we released Mojo",
            "start": 109.88,
            "duration": 3.48
        },
        {
            "text": "very early and have been driving steady",
            "start": 111.68,
            "duration": 3.68
        },
        {
            "text": "improvements since May 2023 see the",
            "start": 113.36,
            "duration": 4.119
        },
        {
            "text": "change log building a language and its",
            "start": 115.36,
            "duration": 3.64
        },
        {
            "text": "infrastructure is hard work and takes",
            "start": 117.479,
            "duration": 3.441
        },
        {
            "text": "time and we're excited to move our uh",
            "start": 119.0,
            "duration": 3.56
        },
        {
            "text": "from sharing our work to collaborating",
            "start": 120.92,
            "duration": 4.76
        },
        {
            "text": "with Mojo developers worldwide okay okay",
            "start": 122.56,
            "duration": 5.64
        },
        {
            "text": "so does that mean Mojo itself Ste self",
            "start": 125.68,
            "duration": 5.04
        },
        {
            "text": "is still not open source is that is that",
            "start": 128.2,
            "duration": 4.36
        },
        {
            "text": "what I'm reading here correctly we've",
            "start": 130.72,
            "duration": 3.68
        },
        {
            "text": "been progressing open sourcing more more",
            "start": 132.56,
            "duration": 4.08
        },
        {
            "text": "of Mojo and parts of Max release of the",
            "start": 134.4,
            "duration": 4.36
        },
        {
            "text": "core modules what are core modules is",
            "start": 136.64,
            "duration": 3.2
        },
        {
            "text": "that is that how they're saying the",
            "start": 138.76,
            "duration": 3.559
        },
        {
            "text": "standard library is that the same thing",
            "start": 139.84,
            "duration": 5.36
        },
        {
            "text": "Mojo's like a super set of of of python",
            "start": 142.319,
            "duration": 4.321
        },
        {
            "text": "I believe it has some extra requirements",
            "start": 145.2,
            "duration": 2.679
        },
        {
            "text": "it sounds like it not entirely but",
            "start": 146.64,
            "duration": 2.879
        },
        {
            "text": "that's their intention yes the standard",
            "start": 147.879,
            "duration": 3.601
        },
        {
            "text": "okay I'm I'm curious what's stopping",
            "start": 149.519,
            "duration": 3.481
        },
        {
            "text": "them from open sourcing so for those",
            "start": 151.48,
            "duration": 3.2
        },
        {
            "text": "that don't realize why it could be",
            "start": 153.0,
            "duration": 3.4
        },
        {
            "text": "difficult to open source if you've never",
            "start": 154.68,
            "duration": 4.16
        },
        {
            "text": "ran a large open source project it takes",
            "start": 156.4,
            "duration": 5.6
        },
        {
            "text": "like literally multiple people to just",
            "start": 158.84,
            "duration": 6.679
        },
        {
            "text": "deal with open source it's it's not easy",
            "start": 162.0,
            "duration": 5.959
        },
        {
            "text": "to just open- Source a big project with",
            "start": 165.519,
            "duration": 6.121
        },
        {
            "text": "a lot of eyes um it can be very very um",
            "start": 167.959,
            "duration": 5.961
        },
        {
            "text": "it can be very difficult uh I will tell",
            "start": 171.64,
            "duration": 4.04
        },
        {
            "text": "you this much that when I did some open",
            "start": 173.92,
            "duration": 4.239
        },
        {
            "text": "source work for Netflix it was like 50%",
            "start": 175.68,
            "duration": 5.36
        },
        {
            "text": "of my job was just like closing",
            "start": 178.159,
            "duration": 5.041
        },
        {
            "text": "just tickets that you can spend five",
            "start": 181.04,
            "duration": 4.4
        },
        {
            "text": "hours asking questions in in issues or",
            "start": 183.2,
            "duration": 4.119
        },
        {
            "text": "you could spend 10 five minutes reading",
            "start": 185.44,
            "duration": 4.2
        },
        {
            "text": "the docs falor mentioned yeah falor",
            "start": 187.319,
            "duration": 3.881
        },
        {
            "text": "mentioned there are many ways to open",
            "start": 189.64,
            "duration": 3.04
        },
        {
            "text": "source codes some projects make source",
            "start": 191.2,
            "duration": 2.759
        },
        {
            "text": "code available but do not accept",
            "start": 192.68,
            "duration": 2.919
        },
        {
            "text": "contributions some provide opaque",
            "start": 193.959,
            "duration": 3.28
        },
        {
            "text": "contribution process without visibility",
            "start": 195.599,
            "duration": 3.841
        },
        {
            "text": "into goals and road maps some open",
            "start": 197.239,
            "duration": 4.0
        },
        {
            "text": "source and they don't actively maintain",
            "start": 199.44,
            "duration": 5.079
        },
        {
            "text": "it shots fired uh at module at modular",
            "start": 201.239,
            "duration": 5.321
        },
        {
            "text": "our team has either built contributed to",
            "start": 204.519,
            "duration": 3.601
        },
        {
            "text": "or driven incredible open source",
            "start": 206.56,
            "duration": 4.599
        },
        {
            "text": "projects like llvm Swift tensor flow and",
            "start": 208.12,
            "duration": 4.759
        },
        {
            "text": "Pie torch and we want to make sure we do",
            "start": 211.159,
            "duration": 3.16
        },
        {
            "text": "things right so that's some good street",
            "start": 212.879,
            "duration": 3.601
        },
        {
            "text": "cred right there I would say that that's",
            "start": 214.319,
            "duration": 4.64
        },
        {
            "text": "some decent street cred for some open",
            "start": 216.48,
            "duration": 5.64
        },
        {
            "text": "source credibility right there okay what",
            "start": 218.959,
            "duration": 4.761
        },
        {
            "text": "if you guys thought I don't know just",
            "start": 222.12,
            "duration": 4.479
        },
        {
            "text": "like a little llvm Swift tensor flow pie",
            "start": 223.72,
            "duration": 4.239
        },
        {
            "text": "torch not a big deal you wouldn't get it",
            "start": 226.599,
            "duration": 3.041
        },
        {
            "text": "you wouldn't understand this means not",
            "start": 227.959,
            "duration": 4.041
        },
        {
            "text": "just making source code available but",
            "start": 229.64,
            "duration": 4.319
        },
        {
            "text": "fostering and cultivating a vibrant and",
            "start": 232.0,
            "duration": 3.84
        },
        {
            "text": "engaged open development Community",
            "start": 233.959,
            "duration": 4.521
        },
        {
            "text": "around Mojo fire pie torch codebase",
            "start": 235.84,
            "duration": 5.08
        },
        {
            "text": "sucks though you know what I got one for",
            "start": 238.48,
            "duration": 5.28
        },
        {
            "text": "you I want you to go create a better pie",
            "start": 240.92,
            "duration": 5.039
        },
        {
            "text": "torch right now okay I want you to do",
            "start": 243.76,
            "duration": 4.24
        },
        {
            "text": "that I want you to go engage a community",
            "start": 245.959,
            "duration": 3.92
        },
        {
            "text": "I want you to get people excited I want",
            "start": 248.0,
            "duration": 3.799
        },
        {
            "text": "you to get thousands of people using it",
            "start": 249.879,
            "duration": 3.601
        },
        {
            "text": "and then I want you to make a better a",
            "start": 251.799,
            "duration": 3.201
        },
        {
            "text": "better code base I actually did a",
            "start": 253.48,
            "duration": 3.759
        },
        {
            "text": "startup and then it failed yeah well",
            "start": 255.0,
            "duration": 3.479
        },
        {
            "text": "guess what it doesn't sound like it",
            "start": 257.239,
            "duration": 2.801
        },
        {
            "text": "doesn't sound like you have as much",
            "start": 258.479,
            "duration": 3.641
        },
        {
            "text": "street cred buddy um all right Beyond",
            "start": 260.04,
            "duration": 3.48
        },
        {
            "text": "just providing a source we're opening up",
            "start": 262.12,
            "duration": 3.2
        },
        {
            "text": "revision history for uh see for the",
            "start": 263.52,
            "duration": 3.52
        },
        {
            "text": "standard library at releasing nightly",
            "start": 265.32,
            "duration": 3.599
        },
        {
            "text": "builds of the Mojo compiler providing",
            "start": 267.04,
            "duration": 3.96
        },
        {
            "text": "public CI and allowing external",
            "start": 268.919,
            "duration": 3.681
        },
        {
            "text": "contributions through GitHub poll",
            "start": 271.0,
            "duration": 3.36
        },
        {
            "text": "requests this is expensive and",
            "start": 272.6,
            "duration": 4.0
        },
        {
            "text": "non-trivial uh to set up yes it is",
            "start": 274.36,
            "duration": 4.2
        },
        {
            "text": "extremely expensive you like I mean they",
            "start": 276.6,
            "duration": 4.92
        },
        {
            "text": "literally have to pay multiple engineer",
            "start": 278.56,
            "duration": 5.12
        },
        {
            "text": "out uh like yearly salaries just to",
            "start": 281.52,
            "duration": 4.84
        },
        {
            "text": "maintain something publicly uh but in",
            "start": 283.68,
            "duration": 4.16
        },
        {
            "text": "our experience it's critically important",
            "start": 286.36,
            "duration": 2.96
        },
        {
            "text": "to allow the community to scale",
            "start": 287.84,
            "duration": 3.68
        },
        {
            "text": "absolutely so why Apache 2 we chose the",
            "start": 289.32,
            "duration": 4.96
        },
        {
            "text": "Apache License version 2 it contains a",
            "start": 291.52,
            "duration": 4.6
        },
        {
            "text": "patent Grant provision which provides",
            "start": 294.28,
            "duration": 4.199
        },
        {
            "text": "legal protection to users and uh",
            "start": 296.12,
            "duration": 4.44
        },
        {
            "text": "contributors of the soft the Apache 2",
            "start": 298.479,
            "duration": 3.921
        },
        {
            "text": "license is a widely used and proven",
            "start": 300.56,
            "duration": 3.44
        },
        {
            "text": "license and is familiar to many",
            "start": 302.4,
            "duration": 2.84
        },
        {
            "text": "individuals and companies across the",
            "start": 304.0,
            "duration": 3.08
        },
        {
            "text": "industry I actually have no idea",
            "start": 305.24,
            "duration": 4.44
        },
        {
            "text": "anything about licensing okay I I I",
            "start": 307.08,
            "duration": 5.72
        },
        {
            "text": "genuinely have no idea about anything",
            "start": 309.68,
            "duration": 5.0
        },
        {
            "text": "about licensing uh one in the chat if",
            "start": 312.8,
            "duration": 4.239
        },
        {
            "text": "you know anything about licensing not a",
            "start": 314.68,
            "duration": 3.92
        },
        {
            "text": "lot of ones coming in right now for how",
            "start": 317.039,
            "duration": 3.481
        },
        {
            "text": "many people we have now watch this one",
            "start": 318.6,
            "duration": 4.24
        },
        {
            "text": "type 420 in the chat if you know nothing",
            "start": 320.52,
            "duration": 4.28
        },
        {
            "text": "about licenses this is more reasonable",
            "start": 322.84,
            "duration": 3.52
        },
        {
            "text": "here you know why cuz that's how this",
            "start": 324.8,
            "duration": 3.64
        },
        {
            "text": "thing works okay uh I don't know if you",
            "start": 326.36,
            "duration": 4.48
        },
        {
            "text": "know this but if you go to Vim APM which",
            "start": 328.44,
            "duration": 4.72
        },
        {
            "text": "is or not Vim AP yeah Vim APM I believe",
            "start": 330.84,
            "duration": 4.24
        },
        {
            "text": "also has it let's go like this Vim with",
            "start": 333.16,
            "duration": 3.72
        },
        {
            "text": "me I think I updated its license just",
            "start": 335.08,
            "duration": 4.0
        },
        {
            "text": "recently right now I have the good luck",
            "start": 336.88,
            "duration": 5.4
        },
        {
            "text": "with that [\u00a0__\u00a0] no llms public license",
            "start": 339.08,
            "duration": 4.6
        },
        {
            "text": "okay so if you don't know the good luck",
            "start": 342.28,
            "duration": 3.759
        },
        {
            "text": "with that [\u00a0__\u00a0] license it's pretty good",
            "start": 343.68,
            "duration": 4.799
        },
        {
            "text": "okay that means you you're the one",
            "start": 346.039,
            "duration": 5.361
        },
        {
            "text": "putting it on your computer like that's",
            "start": 348.479,
            "duration": 5.041
        },
        {
            "text": "your fault that's not my fault that's",
            "start": 351.4,
            "duration": 4.76
        },
        {
            "text": "your fault okay you're putting what I",
            "start": 353.52,
            "duration": 4.84
        },
        {
            "text": "wrote on your computer that's kind of a",
            "start": 356.16,
            "duration": 4.319
        },
        {
            "text": "stupid idea good luck with that [\u00a0__\u00a0]",
            "start": 358.36,
            "duration": 6.6
        },
        {
            "text": "public license okay zero you do whatever",
            "start": 360.479,
            "duration": 5.961
        },
        {
            "text": "the [\u00a0__\u00a0] you want as long as you never",
            "start": 364.96,
            "duration": 3.76
        },
        {
            "text": "leave a [\u00a0__\u00a0] Trace to to track the",
            "start": 366.44,
            "duration": 4.039
        },
        {
            "text": "author of the original product or held",
            "start": 368.72,
            "duration": 4.64
        },
        {
            "text": "responsible that's it you just hide that",
            "start": 370.479,
            "duration": 5.641
        },
        {
            "text": "okay don't you dare try to tell people I",
            "start": 373.36,
            "duration": 4.52
        },
        {
            "text": "did it don't you",
            "start": 376.12,
            "duration": 4.24
        },
        {
            "text": "dare that's all I that's all I request",
            "start": 377.88,
            "duration": 5.28
        },
        {
            "text": "we're keeping it simple the Apache 2",
            "start": 380.36,
            "duration": 4.839
        },
        {
            "text": "license is a great start but our",
            "start": 383.16,
            "duration": 3.96
        },
        {
            "text": "experience with licensing in the llvm",
            "start": 385.199,
            "duration": 3.72
        },
        {
            "text": "project taught us that there are two",
            "start": 387.12,
            "duration": 3.68
        },
        {
            "text": "small issues with it some people are",
            "start": 388.919,
            "duration": 3.761
        },
        {
            "text": "concerned that the Apache 2 license may",
            "start": 390.8,
            "duration": 4.56
        },
        {
            "text": "not mix well with gpl2 code the Linux",
            "start": 392.68,
            "duration": 4.76
        },
        {
            "text": "kernel and the Apache 2 license requires",
            "start": 395.36,
            "duration": 4.04
        },
        {
            "text": "that you acknowledge use of the code in",
            "start": 397.44,
            "duration": 4.52
        },
        {
            "text": "derived projects we want you to be able",
            "start": 399.4,
            "duration": 4.56
        },
        {
            "text": "to use Mojo without requiring you to",
            "start": 401.96,
            "duration": 4.239
        },
        {
            "text": "acknowledge modular or Mojo though of",
            "start": 403.96,
            "duration": 4.519
        },
        {
            "text": "course you are welcome to do so and make",
            "start": 406.199,
            "duration": 5.361
        },
        {
            "text": "it clear that it's fine to mix with gpl2",
            "start": 408.479,
            "duration": 6.0
        },
        {
            "text": "code as such we're including the llvm",
            "start": 411.56,
            "duration": 4.96
        },
        {
            "text": "exceptions which were specifically",
            "start": 414.479,
            "duration": 4.361
        },
        {
            "text": "designed to address these concerns oh",
            "start": 416.52,
            "duration": 5.079
        },
        {
            "text": "hey that's pretty neat I like that I",
            "start": 418.84,
            "duration": 4.72
        },
        {
            "text": "like that good job hey good good guy",
            "start": 421.599,
            "duration": 3.961
        },
        {
            "text": "Mojo right there you don't even have to",
            "start": 423.56,
            "duration": 4.319
        },
        {
            "text": "site us you could if you want to but you",
            "start": 425.56,
            "duration": 4.199
        },
        {
            "text": "don't even have to thank you I like that",
            "start": 427.879,
            "duration": 4.16
        },
        {
            "text": "I love I like I love using projects that",
            "start": 429.759,
            "duration": 4.521
        },
        {
            "text": "are more LAX on their licenses cuz I",
            "start": 432.039,
            "duration": 4.361
        },
        {
            "text": "don't again I don't understand licenses",
            "start": 434.28,
            "duration": 3.199
        },
        {
            "text": "and I don't understand how I'm going to",
            "start": 436.4,
            "duration": 2.28
        },
        {
            "text": "get screwed by it at some point in the",
            "start": 437.479,
            "duration": 3.72
        },
        {
            "text": "future right I don't I I you know I have",
            "start": 438.68,
            "duration": 4.04
        },
        {
            "text": "no idea I heard you were talking [\u00a0__\u00a0]",
            "start": 441.199,
            "duration": 3.161
        },
        {
            "text": "about Docker and development and I love",
            "start": 442.72,
            "duration": 2.96
        },
        {
            "text": "you though oh yeah I think Docker and",
            "start": 444.36,
            "duration": 3.16
        },
        {
            "text": "development is crazy okay can we just",
            "start": 445.68,
            "duration": 5.04
        },
        {
            "text": "take one second here I don't see I have",
            "start": 447.52,
            "duration": 5.32
        },
        {
            "text": "absolutely no idea how this is a",
            "start": 450.72,
            "duration": 4.96
        },
        {
            "text": "controversial take but people get their",
            "start": 452.84,
            "duration": 5.28
        },
        {
            "text": "their feathers are ruffled heavily from",
            "start": 455.68,
            "duration": 4.519
        },
        {
            "text": "this okay if I had the developers",
            "start": 458.12,
            "duration": 4.639
        },
        {
            "text": "hierarchy of awesome it would literally",
            "start": 460.199,
            "duration": 5.28
        },
        {
            "text": "be all local right everything you",
            "start": 462.759,
            "duration": 5.041
        },
        {
            "text": "develop is local it just works it's easy",
            "start": 465.479,
            "duration": 4.68
        },
        {
            "text": "to run that's that next would be like",
            "start": 467.8,
            "duration": 4.56
        },
        {
            "text": "you can do it local but there's like Dev",
            "start": 470.159,
            "duration": 3.801
        },
        {
            "text": "containers in here right there's some",
            "start": 472.36,
            "duration": 2.839
        },
        {
            "text": "there's a little bit of Docker you got",
            "start": 473.96,
            "duration": 2.84
        },
        {
            "text": "to do a little bit of doing a little bit",
            "start": 475.199,
            "duration": 3.481
        },
        {
            "text": "of Docker through it and then of course",
            "start": 476.8,
            "duration": 3.32
        },
        {
            "text": "the worst part of the triangle which is",
            "start": 478.68,
            "duration": 2.799
        },
        {
            "text": "the bottom part of the triangle which is",
            "start": 480.12,
            "duration": 3.32
        },
        {
            "text": "for a few people which is you actually",
            "start": 481.479,
            "duration": 4.041
        },
        {
            "text": "just Dev on a a prod machine I've done",
            "start": 483.44,
            "duration": 4.879
        },
        {
            "text": "this Devon prod I've done this okay",
            "start": 485.52,
            "duration": 4.639
        },
        {
            "text": "we've all done this you know you've done",
            "start": 488.319,
            "duration": 4.16
        },
        {
            "text": "this I've done this you've done this",
            "start": 490.159,
            "duration": 5.081
        },
        {
            "text": "it's the worst okay don't do this who",
            "start": 492.479,
            "duration": 4.921
        },
        {
            "text": "here has not edited some code in",
            "start": 495.24,
            "duration": 4.079
        },
        {
            "text": "production at least once in your life",
            "start": 497.4,
            "duration": 6.12
        },
        {
            "text": "okay come on we've all done it we've all",
            "start": 499.319,
            "duration": 6.481
        },
        {
            "text": "done it Devon mentioned let's go come on",
            "start": 503.52,
            "duration": 3.88
        },
        {
            "text": "don't even try to be like oh I would",
            "start": 505.8,
            "duration": 3.32
        },
        {
            "text": "never do such a thing yes you would and",
            "start": 507.4,
            "duration": 2.639
        },
        {
            "text": "you have",
            "start": 509.12,
            "duration": 2.52
        },
        {
            "text": "don't you're not better than anybody",
            "start": 510.039,
            "duration": 4.081
        },
        {
            "text": "else okay but local like if you can be",
            "start": 511.64,
            "duration": 5.56
        },
        {
            "text": "purely local Dev it's just nicer you",
            "start": 514.12,
            "duration": 5.56
        },
        {
            "text": "know what I mean it just is it will",
            "start": 517.2,
            "duration": 4.639
        },
        {
            "text": "always be nicer Docker is pretty nice",
            "start": 519.68,
            "duration": 3.76
        },
        {
            "text": "too right like if you can throw up like",
            "start": 521.839,
            "duration": 4.12
        },
        {
            "text": "a just like your database in Docker or a",
            "start": 523.44,
            "duration": 4.04
        },
        {
            "text": "couple items in Docker that's kind of",
            "start": 525.959,
            "duration": 3.361
        },
        {
            "text": "nice but we all know that eventually",
            "start": 527.48,
            "duration": 4.84
        },
        {
            "text": "that it gets shitty okay like developing",
            "start": 529.32,
            "duration": 5.519
        },
        {
            "text": "only in",
            "start": 532.32,
            "duration": 2.519
        },
        {
            "text": "Docker we believe this represents the",
            "start": 536.72,
            "duration": 3.76
        },
        {
            "text": "state-of-the-art open source licensing",
            "start": 538.88,
            "duration": 3.199
        },
        {
            "text": "for language and Tool projects and",
            "start": 540.48,
            "duration": 3.52
        },
        {
            "text": "recommend other Mo Mojo open source",
            "start": 542.079,
            "duration": 3.481
        },
        {
            "text": "projects to follow the same approach",
            "start": 544.0,
            "duration": 2.959
        },
        {
            "text": "we've been using this approach for our",
            "start": 545.56,
            "duration": 2.719
        },
        {
            "text": "existing open source code and we",
            "start": 546.959,
            "duration": 3.281
        },
        {
            "text": "continue to release more code with the",
            "start": 548.279,
            "duration": 3.761
        },
        {
            "text": "same approach all right all right all",
            "start": 550.24,
            "duration": 3.279
        },
        {
            "text": "right I like it early stages of our open",
            "start": 552.04,
            "duration": 2.96
        },
        {
            "text": "source Journey the Mojo standard library",
            "start": 553.519,
            "duration": 3.201
        },
        {
            "text": "is under heavy development and changing",
            "start": 555.0,
            "duration": 3.88
        },
        {
            "text": "rapidly so we've started by open",
            "start": 556.72,
            "duration": 4.52
        },
        {
            "text": "sourcing its core modules let's see as",
            "start": 558.88,
            "duration": 3.8
        },
        {
            "text": "such we consider this to be an important",
            "start": 561.24,
            "duration": 3.839
        },
        {
            "text": "starting point not an end at our open",
            "start": 562.68,
            "duration": 4.279
        },
        {
            "text": "source journey we'll Sim let's see we'll",
            "start": 565.079,
            "duration": 4.561
        },
        {
            "text": "similarly similarly evolve and our",
            "start": 566.959,
            "duration": 4.201
        },
        {
            "text": "development and contribution process as",
            "start": 569.64,
            "duration": 2.96
        },
        {
            "text": "we learn together with the community",
            "start": 571.16,
            "duration": 3.32
        },
        {
            "text": "we'll be opening up a lot more code over",
            "start": 572.6,
            "duration": 4.479
        },
        {
            "text": "time including more of Mojo parts and",
            "start": 574.48,
            "duration": 4.68
        },
        {
            "text": "the broader Max platform okay so what I",
            "start": 577.079,
            "duration": 4.721
        },
        {
            "text": "would I really am curious if they could",
            "start": 579.16,
            "duration": 4.119
        },
        {
            "text": "give us like a statement of things that",
            "start": 581.8,
            "duration": 2.96
        },
        {
            "text": "they're not going to open source I think",
            "start": 583.279,
            "duration": 3.24
        },
        {
            "text": "would be really nice can we all agree to",
            "start": 584.76,
            "duration": 3.36
        },
        {
            "text": "that like what aren't you open sourcing",
            "start": 586.519,
            "duration": 3.32
        },
        {
            "text": "if you could just be like hey here's the",
            "start": 588.12,
            "duration": 3.32
        },
        {
            "text": "parts we'll never open source and here's",
            "start": 589.839,
            "duration": 3.041
        },
        {
            "text": "the reasons why I'll never open source",
            "start": 591.44,
            "duration": 3.24
        },
        {
            "text": "it if it's some sort of like way for",
            "start": 592.88,
            "duration": 3.639
        },
        {
            "text": "them to be able to make money be able to",
            "start": 594.68,
            "duration": 3.56
        },
        {
            "text": "do this that and the other like I",
            "start": 596.519,
            "duration": 3.76
        },
        {
            "text": "totally get that I'm not you know I'm",
            "start": 598.24,
            "duration": 4.88
        },
        {
            "text": "not against several Engineers making",
            "start": 600.279,
            "duration": 4.401
        },
        {
            "text": "something awesome and then making money",
            "start": 603.12,
            "duration": 2.959
        },
        {
            "text": "off of it I just want to know what they",
            "start": 604.68,
            "duration": 3.44
        },
        {
            "text": "aren't planning on doing you know what I",
            "start": 606.079,
            "duration": 5.361
        },
        {
            "text": "mean uh all right we'll skip over the",
            "start": 608.12,
            "duration": 5.12
        },
        {
            "text": "contributions I assume you can just read",
            "start": 611.44,
            "duration": 4.0
        },
        {
            "text": "you can just read that right nightly",
            "start": 613.24,
            "duration": 3.719
        },
        {
            "text": "builds for fast iteration nightly builds",
            "start": 615.44,
            "duration": 3.44
        },
        {
            "text": "of Mojo compiler are also now available",
            "start": 616.959,
            "duration": 3.681
        },
        {
            "text": "awesome uh this allows you to test your",
            "start": 618.88,
            "duration": 3.079
        },
        {
            "text": "contributions to the standard Library",
            "start": 620.64,
            "duration": 2.52
        },
        {
            "text": "against the latest version of Mojo",
            "start": 621.959,
            "duration": 2.961
        },
        {
            "text": "compiler that corresponds to the library",
            "start": 623.16,
            "duration": 4.08
        },
        {
            "text": "Source this is a massive step uh towards",
            "start": 624.92,
            "duration": 4.52
        },
        {
            "text": "opening development of Mojo compiler and",
            "start": 627.24,
            "duration": 3.279
        },
        {
            "text": "allows",
            "start": 629.44,
            "duration": 5.28
        },
        {
            "text": "magicians python with types",
            "start": 630.519,
            "duration": 4.201
        },
        {
            "text": "magicians what is more cringe magicians",
            "start": 635.519,
            "duration": 3.281
        },
        {
            "text": "or",
            "start": 638.079,
            "duration": 2.601
        },
        {
            "text": "pythonistas what do you call what do you",
            "start": 638.8,
            "duration": 3.88
        },
        {
            "text": "call a rust person do you call them like",
            "start": 640.68,
            "duration": 3.68
        },
        {
            "text": "cuck Lords like what do you call them oh",
            "start": 642.68,
            "duration": 3.839
        },
        {
            "text": "rust station oh okay that's way",
            "start": 644.36,
            "duration": 5.4
        },
        {
            "text": "off I was I was way off I didn't realize",
            "start": 646.519,
            "duration": 5.241
        },
        {
            "text": "that",
            "start": 649.76,
            "duration": 5.0
        },
        {
            "text": "one",
            "start": 651.76,
            "duration": 3.0
        },
        {
            "text": "acoustic they're acousticians okay you",
            "start": 655.48,
            "duration": 5.24
        },
        {
            "text": "wouldn't understand you wouldn't",
            "start": 658.16,
            "duration": 4.96
        },
        {
            "text": "understand okay I'm trying not to get",
            "start": 660.72,
            "duration": 4.28
        },
        {
            "text": "like I remember we're considering this",
            "start": 663.12,
            "duration": 4.88
        },
        {
            "text": "like as a full a full-time yob here okay",
            "start": 665.0,
            "duration": 4.92
        },
        {
            "text": "trying not to get banned this fast after",
            "start": 668.0,
            "duration": 3.56
        },
        {
            "text": "watching Casey's performance video I do",
            "start": 669.92,
            "duration": 3.24
        },
        {
            "text": "think maybe increasing python speed by",
            "start": 671.56,
            "duration": 3.36
        },
        {
            "text": "35,000 is actually",
            "start": 673.16,
            "duration": 4.32
        },
        {
            "text": "Possible full time full-time cancel",
            "start": 674.92,
            "duration": 4.84
        },
        {
            "text": "let's go Bri's on Hing day am I let's",
            "start": 677.48,
            "duration": 4.28
        },
        {
            "text": "see to live in the bleeding edge of",
            "start": 679.76,
            "duration": 3.4
        },
        {
            "text": "development if they choose and test",
            "start": 681.76,
            "duration": 2.92
        },
        {
            "text": "against the current tree over time we'll",
            "start": 683.16,
            "duration": 3.56
        },
        {
            "text": "expand the this nightly build to include",
            "start": 684.68,
            "duration": 4.12
        },
        {
            "text": "the entire Max platform make sure to",
            "start": 686.72,
            "duration": 3.2
        },
        {
            "text": "check out the standard Library",
            "start": 688.8,
            "duration": 2.599
        },
        {
            "text": "development guide for details on how to",
            "start": 689.92,
            "duration": 2.84
        },
        {
            "text": "get nightly builds all right version",
            "start": 691.399,
            "duration": 3.721
        },
        {
            "text": "control history uh I assume we're",
            "start": 692.76,
            "duration": 3.96
        },
        {
            "text": "releasing not only the code but also our",
            "start": 695.12,
            "duration": 4.08
        },
        {
            "text": "commit history for the standard",
            "start": 696.72,
            "duration": 4.44
        },
        {
            "text": "Library how much cleanup do you think",
            "start": 699.2,
            "duration": 4.16
        },
        {
            "text": "happened Real Talk how much cleanup do",
            "start": 701.16,
            "duration": 5.799
        },
        {
            "text": "you think happened how many [\u00a0__\u00a0]",
            "start": 703.36,
            "duration": 8.039
        },
        {
            "text": "[\u00a0__\u00a0] why doesn't this work squash me",
            "start": 706.959,
            "duration": 8.601
        },
        {
            "text": "later just like you you know there's",
            "start": 711.399,
            "duration": 6.921
        },
        {
            "text": "like an entire there's like an entire",
            "start": 715.56,
            "duration": 5.36
        },
        {
            "text": "set of points there just was",
            "start": 718.32,
            "duration": 5.8
        },
        {
            "text": "like um anyways Prime I'm uh the",
            "start": 720.92,
            "duration": 6.68
        },
        {
            "text": "Amazonian dad with questions the other",
            "start": 724.12,
            "duration": 6.0
        },
        {
            "text": "day you're the Amazonian",
            "start": 727.6,
            "duration": 5.72
        },
        {
            "text": "dad what does that even mean get commit",
            "start": 730.12,
            "duration": 4.44
        },
        {
            "text": "this time",
            "start": 733.32,
            "duration": 4.4
        },
        {
            "text": "maybe yeah squash Me Harder daddy yep",
            "start": 734.56,
            "duration": 4.639
        },
        {
            "text": "that's a good one all right we're very",
            "start": 737.72,
            "duration": 2.88
        },
        {
            "text": "excited about the future of Mojo and all",
            "start": 739.199,
            "duration": 2.961
        },
        {
            "text": "the applications that people are already",
            "start": 740.6,
            "duration": 3.479
        },
        {
            "text": "using it for we think this is a big step",
            "start": 742.16,
            "duration": 4.479
        },
        {
            "text": "forward in openness and transparency Yes",
            "start": 744.079,
            "duration": 4.681
        },
        {
            "text": "again I would just love to hear what are",
            "start": 746.639,
            "duration": 3.921
        },
        {
            "text": "you what are you going to open source",
            "start": 748.76,
            "duration": 3.319
        },
        {
            "text": "what aren't you going to open source",
            "start": 750.56,
            "duration": 4.839
        },
        {
            "text": "what are you iffy on open sourcing um",
            "start": 752.079,
            "duration": 5.281
        },
        {
            "text": "yeah cuz I think everybody if if if if",
            "start": 755.399,
            "duration": 3.601
        },
        {
            "text": "you don't understand why it's difficult",
            "start": 757.36,
            "duration": 3.64
        },
        {
            "text": "to open source that's okay I don't think",
            "start": 759.0,
            "duration": 3.279
        },
        {
            "text": "you need to explain why it's so",
            "start": 761.0,
            "duration": 2.44
        },
        {
            "text": "difficult I think you pretty much say it",
            "start": 762.279,
            "duration": 2.56
        },
        {
            "text": "right there it takes a lot of money and",
            "start": 763.44,
            "duration": 3.24
        },
        {
            "text": "time to open source anything that's that",
            "start": 764.839,
            "duration": 3.601
        },
        {
            "text": "has a large amount of people and they",
            "start": 766.68,
            "duration": 3.76
        },
        {
            "text": "want to be able to do it well totally",
            "start": 768.44,
            "duration": 4.28
        },
        {
            "text": "totally get that it does it is an",
            "start": 770.44,
            "duration": 4.6
        },
        {
            "text": "expensive and non-trivial to set up not",
            "start": 772.72,
            "duration": 3.76
        },
        {
            "text": "even expensive and non-trivial to set up",
            "start": 775.04,
            "duration": 3.52
        },
        {
            "text": "it's expensive and non-trivial to set up",
            "start": 776.48,
            "duration": 4.68
        },
        {
            "text": "and to doing well open source is",
            "start": 778.56,
            "duration": 4.2
        },
        {
            "text": "extremely",
            "start": 781.16,
            "duration": 3.88
        },
        {
            "text": "expensive it is that's why you should",
            "start": 782.76,
            "duration": 4.92
        },
        {
            "text": "you should give to neovin people open",
            "start": 785.04,
            "duration": 6.96
        },
        {
            "text": "Collective neovim go do it the name is I",
            "start": 787.68,
            "duration": 5.12
        },
        {
            "text": "think I",
            "start": 792.0,
            "duration": 3.32
        },
        {
            "text": "could I think there does exist a world",
            "start": 792.8,
            "duration": 3.8
        },
        {
            "text": "where I like",
            "start": 795.32,
            "duration": 3.44
        },
        {
            "text": "Mojo you know what I mean there does",
            "start": 796.6,
            "duration": 3.799
        },
        {
            "text": "exist a world where I could be a a",
            "start": 798.76,
            "duration": 3.4
        },
        {
            "text": "mician I",
            "start": 800.399,
            "duration": 4.041
        },
        {
            "text": "think open source does not equal",
            "start": 802.16,
            "duration": 4.479
        },
        {
            "text": "communism don't even try that with me",
            "start": 804.44,
            "duration": 5.72
        },
        {
            "text": "okay okay okay open source is opt in",
            "start": 806.639,
            "duration": 5.0
        },
        {
            "text": "okay so don't even try that with me",
            "start": 810.16,
            "duration": 4.2
        },
        {
            "text": "don't even try that with me the name is",
            "start": 811.639,
            "duration": 4.76
        },
        {
            "text": "open source is not communism and I'm not",
            "start": 814.36,
            "duration": 5.039
        },
        {
            "text": "getting baited into having a communism",
            "start": 816.399,
            "duration": 5.68
        },
        {
            "text": "debate today okay this is not how we're",
            "start": 819.399,
            "duration": 4.841
        },
        {
            "text": "doing it open source is much closer to",
            "start": 822.079,
            "duration": 4.521
        },
        {
            "text": "charity than it is to Communism okay so",
            "start": 824.24,
            "duration": 4.12
        },
        {
            "text": "we're not doing this I'm not getting",
            "start": 826.6,
            "duration": 5.599
        },
        {
            "text": "triggered why the hell would you say",
            "start": 828.36,
            "duration": 7.36
        },
        {
            "text": "that a Jin",
            "start": 832.199,
            "duration": 3.521
        }
    ],
    "stats": {
        "viewCount": "69278",
        "likeCount": "1930",
        "favoriteCount": "0",
        "commentCount": "180"
    }
}