{
    "id": "8XYDQlQUBnw",
    "title": "The Secret To Become A Great Engineer",
    "publishedAt": "2024-01-01T15:00:04Z",
    "captions": [
        {
            "text": "here is the truest thing about life as a",
            "start": 0.12,
            "duration": 4.719
        },
        {
            "text": "programmer okay you start off right here",
            "start": 2.2,
            "duration": 5.079
        },
        {
            "text": "this is Mount stupid the reality is that",
            "start": 4.839,
            "duration": 4.76
        },
        {
            "text": "if you don't believe that you are a good",
            "start": 7.279,
            "duration": 4.001
        },
        {
            "text": "programmer you're never going to scale",
            "start": 9.599,
            "duration": 3.96
        },
        {
            "text": "this mountain you're never going to take",
            "start": 11.28,
            "duration": 4.0
        },
        {
            "text": "on problems that are probably outside of",
            "start": 13.559,
            "duration": 3.56
        },
        {
            "text": "your skill range you're never going to",
            "start": 15.28,
            "duration": 3.88
        },
        {
            "text": "attempt to do anything big cuz you're",
            "start": 17.119,
            "duration": 3.841
        },
        {
            "text": "constantly second guessing yourself to",
            "start": 19.16,
            "duration": 3.52
        },
        {
            "text": "be able to get into the mountain of",
            "start": 20.96,
            "duration": 3.76
        },
        {
            "text": "being pretty good you have to go through",
            "start": 22.68,
            "duration": 3.88
        },
        {
            "text": "Mount stupid there is no shortcut you",
            "start": 24.72,
            "duration": 3.04
        },
        {
            "text": "can't just sit there and think I'm too",
            "start": 26.56,
            "duration": 2.76
        },
        {
            "text": "stupid to do anything and somehow just",
            "start": 27.76,
            "duration": 3.56
        },
        {
            "text": "walk around the Mountain you got to make",
            "start": 29.32,
            "duration": 4.32
        },
        {
            "text": "mistake after mistake cuz if you don't",
            "start": 31.32,
            "duration": 4.6
        },
        {
            "text": "make a series of really bad decisions",
            "start": 33.64,
            "duration": 4.16
        },
        {
            "text": "and learn from them you never gain the",
            "start": 35.92,
            "duration": 4.36
        },
        {
            "text": "experience to become a decent programmer",
            "start": 37.8,
            "duration": 3.84
        },
        {
            "text": "and if you never become a decent",
            "start": 40.28,
            "duration": 2.56
        },
        {
            "text": "programmer you're never going to make",
            "start": 41.64,
            "duration": 3.439
        },
        {
            "text": "bigger mistakes to become a great",
            "start": 42.84,
            "duration": 4.32
        },
        {
            "text": "programmer learning is just series of",
            "start": 45.079,
            "duration": 4.241
        },
        {
            "text": "making bad decisions and correcting them",
            "start": 47.16,
            "duration": 4.28
        },
        {
            "text": "later on there is no book there is",
            "start": 49.32,
            "duration": 4.32
        },
        {
            "text": "nothing that is going to cure you from",
            "start": 51.44,
            "duration": 4.04
        },
        {
            "text": "making mistakes to learn so climb Mount",
            "start": 53.64,
            "duration": 3.64
        },
        {
            "text": "stupid because behind Mount stupid is",
            "start": 55.48,
            "duration": 5.079
        },
        {
            "text": "becoming a senior engineer",
            "start": 57.28,
            "duration": 3.279
        }
    ],
    "stats": {
        "viewCount": "324075",
        "likeCount": "19192",
        "favoriteCount": "0",
        "commentCount": "262"
    }
}