{
    "id": "9_Ekt1PZBzQ",
    "title": "Why I Fire Programmers | Prime Reacts",
    "publishedAt": "2024-01-26T14:00:06Z",
    "captions": [
        {
            "text": "I've never fired an engineer because",
            "start": 0.12,
            "duration": 4.84
        },
        {
            "text": "their code ran too slow I wonder about",
            "start": 3.04,
            "duration": 3.839
        },
        {
            "text": "that if you chronically programmed",
            "start": 4.96,
            "duration": 3.24
        },
        {
            "text": "really terrible where you just",
            "start": 6.879,
            "duration": 3.001
        },
        {
            "text": "constantly every single project you ever",
            "start": 8.2,
            "duration": 3.64
        },
        {
            "text": "came on though completed just was",
            "start": 9.88,
            "duration": 3.2
        },
        {
            "text": "terrible and people had to clean up",
            "start": 11.84,
            "duration": 3.2
        },
        {
            "text": "after you there's a maybe there there's",
            "start": 13.08,
            "duration": 4.44
        },
        {
            "text": "a maybe you can write really bad code",
            "start": 15.04,
            "duration": 3.8
        },
        {
            "text": "you can make it so other people have to",
            "start": 17.52,
            "duration": 3.04
        },
        {
            "text": "constantly correct you I'm just saying",
            "start": 18.84,
            "duration": 3.08
        },
        {
            "text": "they couldn't Implement bubble sword",
            "start": 20.56,
            "duration": 3.32
        },
        {
            "text": "from memory well I mean I'd be surprised",
            "start": 21.92,
            "duration": 3.32
        },
        {
            "text": "if you can't Implement bubble sword from",
            "start": 23.88,
            "duration": 2.92
        },
        {
            "text": "memory come on people it's literally you",
            "start": 25.24,
            "duration": 4.119
        },
        {
            "text": "just imagine bubbling up to the top it's",
            "start": 26.8,
            "duration": 5.439
        },
        {
            "text": "like the simple thing bubble sort is not",
            "start": 29.359,
            "duration": 6.241
        },
        {
            "text": "effing hard okay it's not hard you",
            "start": 32.239,
            "duration": 5.801
        },
        {
            "text": "should be able to bubble sort just do it",
            "start": 35.6,
            "duration": 4.68
        },
        {
            "text": "their design implementation wasn't Pixel",
            "start": 38.04,
            "duration": 5.199
        },
        {
            "text": "Perfect okay that's fair oh no do it now",
            "start": 40.28,
            "duration": 4.64
        },
        {
            "text": "do it now okay how about this one tough",
            "start": 43.239,
            "duration": 2.881
        },
        {
            "text": "guy how about this one what are you",
            "start": 44.92,
            "duration": 3.08
        },
        {
            "text": "putting on the line tough guy 100 gifted",
            "start": 46.12,
            "duration": 4.52
        },
        {
            "text": "Subs I'll do it right now if you're if",
            "start": 48.0,
            "duration": 5.399
        },
        {
            "text": "if you're if you're G to talk a big talk",
            "start": 50.64,
            "duration": 5.079
        },
        {
            "text": "put your money where your mouth is put",
            "start": 53.399,
            "duration": 5.561
        },
        {
            "text": "your money where your mouth is three",
            "start": 55.719,
            "duration": 4.921
        },
        {
            "text": "Subs take it or leave it you're not even",
            "start": 58.96,
            "duration": 5.839
        },
        {
            "text": "subbed World Series of ghosts do I even",
            "start": 60.64,
            "duration": 6.44
        },
        {
            "text": "believe do I even believe how about 10",
            "start": 64.799,
            "duration": 5.481
        },
        {
            "text": "gifted Subs you're",
            "start": 67.08,
            "duration": 3.2
        },
        {
            "text": "on uh let's not program in",
            "start": 70.479,
            "duration": 6.0
        },
        {
            "text": "Rust uh let's go like this let's do a",
            "start": 81.84,
            "duration": 5.52
        },
        {
            "text": "little um let's do what is it a Pam I'll",
            "start": 84.2,
            "duration": 4.12
        },
        {
            "text": "just make sure we have a nice little",
            "start": 87.36,
            "duration": 2.64
        },
        {
            "text": "numbers numbers there we go so now all",
            "start": 88.32,
            "duration": 3.6
        },
        {
            "text": "we got to do is sort this okay okay hold",
            "start": 90.0,
            "duration": 6.36
        },
        {
            "text": "on co-pilot uh disable there we go not",
            "start": 91.92,
            "duration": 6.76
        },
        {
            "text": "using co-pilot for everybody uh let's go",
            "start": 96.36,
            "duration": 5.759
        },
        {
            "text": "like this for let I equals z i has to be",
            "start": 98.68,
            "duration": 6.759
        },
        {
            "text": "less than numbers. length i++ there we",
            "start": 102.119,
            "duration": 4.841
        },
        {
            "text": "go we start here now we're just simply",
            "start": 105.439,
            "duration": 3.32
        },
        {
            "text": "going to walk through and at this point",
            "start": 106.96,
            "duration": 3.759
        },
        {
            "text": "all we have to do is just",
            "start": 108.759,
            "duration": 5.68
        },
        {
            "text": "walk a cursor up okay over and over",
            "start": 110.719,
            "duration": 6.921
        },
        {
            "text": "again that's it okay that is it all",
            "start": 114.439,
            "duration": 4.921
        },
        {
            "text": "right so now let's make sure that we got",
            "start": 117.64,
            "duration": 3.72
        },
        {
            "text": "this idea so we're going to go like this",
            "start": 119.36,
            "duration": 6.359
        },
        {
            "text": "uh for let J equals 1 J has to be less",
            "start": 121.36,
            "duration": 9.08
        },
        {
            "text": "than numbers. length minus",
            "start": 125.719,
            "duration": 4.721
        },
        {
            "text": "I okay this is the right way to do this",
            "start": 131.68,
            "duration": 5.4
        },
        {
            "text": "okay j+ plus there we go okay look at",
            "start": 134.92,
            "duration": 4.399
        },
        {
            "text": "that I put the J on the wrong side uh",
            "start": 137.08,
            "duration": 4.04
        },
        {
            "text": "for does anyone know what bubble sword",
            "start": 139.319,
            "duration": 3.401
        },
        {
            "text": "goes in there we go so all we got to do",
            "start": 141.12,
            "duration": 4.479
        },
        {
            "text": "is just simply walk up the line over and",
            "start": 142.72,
            "duration": 4.56
        },
        {
            "text": "over again getting smaller and smaller",
            "start": 145.599,
            "duration": 2.961
        },
        {
            "text": "and smaller and smaller and smaller and",
            "start": 147.28,
            "duration": 3.0
        },
        {
            "text": "smaller and smaller yeah yeah yeah yeah",
            "start": 148.56,
            "duration": 3.24
        },
        {
            "text": "yeah yeah do we need to do JD equals",
            "start": 150.28,
            "duration": 3.4
        },
        {
            "text": "this n let's just do that we can do it",
            "start": 151.8,
            "duration": 3.64
        },
        {
            "text": "as zero we can do it as negative 1 you",
            "start": 153.68,
            "duration": 3.839
        },
        {
            "text": "guys want to do it as negative 1 I'm",
            "start": 155.44,
            "duration": 4.519
        },
        {
            "text": "kidding negative one would be",
            "start": 157.519,
            "duration": 4.8
        },
        {
            "text": "terrible we're going to start with zero",
            "start": 159.959,
            "duration": 4.961
        },
        {
            "text": "so now all we do is we just simply go to",
            "start": 162.319,
            "duration": 5.2
        },
        {
            "text": "uh we just simply go all the way to the",
            "start": 164.92,
            "duration": 5.679
        },
        {
            "text": "end and that's it uh o s uh n squ is",
            "start": 167.519,
            "duration": 5.321
        },
        {
            "text": "bubble sword yes n squ is bubble sword",
            "start": 170.599,
            "duration": 5.521
        },
        {
            "text": "well done it's t it's technically uh n *",
            "start": 172.84,
            "duration": 5.16
        },
        {
            "text": "uh nus1 /",
            "start": 176.12,
            "duration": 4.36
        },
        {
            "text": "2 but",
            "start": 178.0,
            "duration": 4.36
        },
        {
            "text": "you know that's just that's just what it",
            "start": 180.48,
            "duration": 4.839
        },
        {
            "text": "is okay that's just what it is and so",
            "start": 182.36,
            "duration": 4.439
        },
        {
            "text": "then I believe we're going to do this",
            "start": 185.319,
            "duration": 2.961
        },
        {
            "text": "and so now all we have to do and we're",
            "start": 186.799,
            "duration": 3.281
        },
        {
            "text": "going to want to go like this plus one",
            "start": 188.28,
            "duration": 3.12
        },
        {
            "text": "by the",
            "start": 190.08,
            "duration": 3.64
        },
        {
            "text": "way you got to get that little plus one",
            "start": 191.4,
            "duration": 3.88
        },
        {
            "text": "in there right because you don't want to",
            "start": 193.72,
            "duration": 3.239
        },
        {
            "text": "go to the end because we're going to be",
            "start": 195.28,
            "duration": 3.679
        },
        {
            "text": "grabbing the next one forward every",
            "start": 196.959,
            "duration": 5.161
        },
        {
            "text": "single time all right let left equals uh",
            "start": 198.959,
            "duration": 7.92
        },
        {
            "text": "numbers uh J uh right equals number J +",
            "start": 202.12,
            "duration": 8.8
        },
        {
            "text": "1 if uh left oh wrong language is",
            "start": 206.879,
            "duration": 9.041
        },
        {
            "text": "greater than right well then uh numbers",
            "start": 210.92,
            "duration": 7.8
        },
        {
            "text": "J uh equals",
            "start": 215.92,
            "duration": 6.679
        },
        {
            "text": "numbers uh J +",
            "start": 218.72,
            "duration": 3.879
        },
        {
            "text": "1 I'm not going to do that I'm going to",
            "start": 224.28,
            "duration": 3.2
        },
        {
            "text": "screw it up we're not going to I'm not",
            "start": 226.159,
            "duration": 3.8
        },
        {
            "text": "going to get clever uh con oh I did",
            "start": 227.48,
            "duration": 4.959
        },
        {
            "text": "bunch of lets wrong language wrong",
            "start": 229.959,
            "duration": 4.961
        },
        {
            "text": "language here people we do con to have",
            "start": 232.439,
            "duration": 5.16
        },
        {
            "text": "non-constant const in in this language I",
            "start": 234.92,
            "duration": 5.92
        },
        {
            "text": "forgot equals left uh um oh I I guess I",
            "start": 237.599,
            "duration": 4.36
        },
        {
            "text": "don't even need to create that huh",
            "start": 240.84,
            "duration": 5.119
        },
        {
            "text": "numbers J equals right uh n plus one I",
            "start": 241.959,
            "duration": 5.041
        },
        {
            "text": "already had",
            "start": 245.959,
            "duration": 4.48
        },
        {
            "text": "these there we go fantastic we just swap",
            "start": 247.0,
            "duration": 6.64
        },
        {
            "text": "them we just walk the highest number all",
            "start": 250.439,
            "duration": 6.48
        },
        {
            "text": "the way up then we walk the next highest",
            "start": 253.64,
            "duration": 6.559
        },
        {
            "text": "number all the way up at the end at the",
            "start": 256.919,
            "duration": 5.921
        },
        {
            "text": "end of this we know that after one",
            "start": 260.199,
            "duration": 4.521
        },
        {
            "text": "iteration we have the highest number in",
            "start": 262.84,
            "duration": 3.88
        },
        {
            "text": "the highest position then we do it again",
            "start": 264.72,
            "duration": 3.479
        },
        {
            "text": "then we do it again then we do it again",
            "start": 266.72,
            "duration": 3.64
        },
        {
            "text": "insertion sorts very very hard insertion",
            "start": 268.199,
            "duration": 5.0
        },
        {
            "text": "sort is extremely difficult all right uh",
            "start": 270.36,
            "duration": 4.839
        },
        {
            "text": "I I'd have to think about it again and",
            "start": 273.199,
            "duration": 3.28
        },
        {
            "text": "by extremely difficult I mean you",
            "start": 275.199,
            "duration": 3.241
        },
        {
            "text": "actually have to like do all the right",
            "start": 276.479,
            "duration": 4.601
        },
        {
            "text": "things insertion sword's super annoying",
            "start": 278.44,
            "duration": 5.039
        },
        {
            "text": "insertion sword is so effing",
            "start": 281.08,
            "duration": 5.08
        },
        {
            "text": "annoying uh anyways here we go so bubble",
            "start": 283.479,
            "duration": 4.28
        },
        {
            "text": "sword did I do all this right yep let's",
            "start": 286.16,
            "duration": 3.44
        },
        {
            "text": "see right equals that left equals that",
            "start": 287.759,
            "duration": 3.561
        },
        {
            "text": "we only swap on this one and we're going",
            "start": 289.6,
            "duration": 2.72
        },
        {
            "text": "to start at zero and we're going to go",
            "start": 291.32,
            "duration": 1.96
        },
        {
            "text": "all the way up to the length we're going",
            "start": 292.32,
            "duration": 3.24
        },
        {
            "text": "to start right here and J as long as J",
            "start": 293.28,
            "duration": 3.56
        },
        {
            "text": "is less than this we're going to keep on",
            "start": 295.56,
            "duration": 5.56
        },
        {
            "text": "going j++ there we go sounds fantastic",
            "start": 296.84,
            "duration": 6.32
        },
        {
            "text": "all right I believe this should be it",
            "start": 301.12,
            "duration": 3.68
        },
        {
            "text": "can anyone give me a nice case they want",
            "start": 303.16,
            "duration": 3.08
        },
        {
            "text": "to see anyone want to give me a nice",
            "start": 304.8,
            "duration": 2.839
        },
        {
            "text": "little case they want to see here I'm",
            "start": 306.24,
            "duration": 3.239
        },
        {
            "text": "going to also return out the numbers",
            "start": 307.639,
            "duration": 3.601
        },
        {
            "text": "just to make it easy on",
            "start": 309.479,
            "duration": 7.56
        },
        {
            "text": "me all right uh 3 2 one all right uh 1 2",
            "start": 311.24,
            "duration": 8.76
        },
        {
            "text": "3 4 5 6 7 all right one",
            "start": 317.039,
            "duration": 5.761
        },
        {
            "text": "two oh my goodness two oh my goodness",
            "start": 320.0,
            "duration": 8.479
        },
        {
            "text": "three four five six 7 anything",
            "start": 322.8,
            "duration": 7.679
        },
        {
            "text": "else",
            "start": 328.479,
            "duration": 3.321
        },
        {
            "text": "uh",
            "start": 330.479,
            "duration": 4.761
        },
        {
            "text": "146 4",
            "start": 331.8,
            "duration": 5.0
        },
        {
            "text": "Okay",
            "start": 335.24,
            "duration": 3.32
        },
        {
            "text": "negative",
            "start": 336.8,
            "duration": 5.08
        },
        {
            "text": "no all right fantastic anything else all",
            "start": 338.56,
            "duration": 8.079
        },
        {
            "text": "right a he fudge off sort o sword an",
            "start": 341.88,
            "duration": 6.759
        },
        {
            "text": "empty one oh that's a that's an exciting",
            "start": 346.639,
            "duration": 4.641
        },
        {
            "text": "one all right all right I like I like",
            "start": 348.639,
            "duration": 4.201
        },
        {
            "text": "what you guys have done now we're going",
            "start": 351.28,
            "duration": 3.479
        },
        {
            "text": "to do an old uh figh in oneeyed Kirby",
            "start": 352.84,
            "duration": 4.359
        },
        {
            "text": "for a quick",
            "start": 354.759,
            "duration": 2.44
        },
        {
            "text": "second we forgot about the old Fighting",
            "start": 358.479,
            "duration": 4.481
        },
        {
            "text": "oneeyed Kirby there all right there we",
            "start": 361.479,
            "duration": 3.72
        },
        {
            "text": "go all right what the hell did I call",
            "start": 362.96,
            "duration": 4.4
        },
        {
            "text": "this",
            "start": 365.199,
            "duration": 2.161
        },
        {
            "text": "file it's like not even [\u00a0__\u00a0] hard",
            "start": 378.4,
            "duration": 6.32
        },
        {
            "text": "it's bubble sword dog thank you thank",
            "start": 381.8,
            "duration": 6.92
        },
        {
            "text": "you let's go we got him boys we got him",
            "start": 384.72,
            "duration": 6.44
        },
        {
            "text": "boys we got got him thank you radius",
            "start": 388.72,
            "duration": 5.72
        },
        {
            "text": "appreciate that also I appreciate the 10",
            "start": 391.16,
            "duration": 6.039
        },
        {
            "text": "gifted Subs now do quick sort uh that",
            "start": 394.44,
            "duration": 4.039
        },
        {
            "text": "one might be a little bit harder I'd",
            "start": 397.199,
            "duration": 2.641
        },
        {
            "text": "have to draw it on I'd have to I'd have",
            "start": 398.479,
            "duration": 2.761
        },
        {
            "text": "to draw it on the Whiteboard first",
            "start": 399.84,
            "duration": 4.44
        },
        {
            "text": "before I could do um uh quick sort quick",
            "start": 401.24,
            "duration": 5.359
        },
        {
            "text": "sorts not hard you just have to",
            "start": 404.28,
            "duration": 4.88
        },
        {
            "text": "partition and shift things around on",
            "start": 406.599,
            "duration": 4.241
        },
        {
            "text": "code quality we had a guy who wrote oh",
            "start": 409.16,
            "duration": 3.08
        },
        {
            "text": "my goodness we had a guy who wrote some",
            "start": 410.84,
            "duration": 3.199
        },
        {
            "text": "bad code and we fired him but it wasn't",
            "start": 412.24,
            "duration": 3.32
        },
        {
            "text": "about the code it was his attitude about",
            "start": 414.039,
            "duration": 2.801
        },
        {
            "text": "the code he thought it was good and it",
            "start": 415.56,
            "duration": 3.359
        },
        {
            "text": "was unwilling to accept criticism that's",
            "start": 416.84,
            "duration": 3.479
        },
        {
            "text": "it's not about the code being bad",
            "start": 418.919,
            "duration": 3.0
        },
        {
            "text": "because you can't you can work on that",
            "start": 420.319,
            "duration": 3.121
        },
        {
            "text": "if you're willing I'd say it's it's a",
            "start": 421.919,
            "duration": 2.84
        },
        {
            "text": "little bit of both right what happened",
            "start": 423.44,
            "duration": 3.68
        },
        {
            "text": "if the guy was really really responding",
            "start": 424.759,
            "duration": 4.361
        },
        {
            "text": "to criticism but just kept writing",
            "start": 427.12,
            "duration": 4.68
        },
        {
            "text": "shitty code like every single time you'd",
            "start": 429.12,
            "duration": 4.359
        },
        {
            "text": "be like okay can we not do that write",
            "start": 431.8,
            "duration": 3.28
        },
        {
            "text": "shitty code okay can we not do that",
            "start": 433.479,
            "duration": 3.241
        },
        {
            "text": "rewrite shitty code okay can we not do",
            "start": 435.08,
            "duration": 3.2
        },
        {
            "text": "that rewrite shitty code over and over",
            "start": 436.72,
            "duration": 2.68
        },
        {
            "text": "and over and over and over and over over",
            "start": 438.28,
            "duration": 2.84
        },
        {
            "text": "over over again right it also means he",
            "start": 439.4,
            "duration": 3.68
        },
        {
            "text": "can't accept criticism and learn I want",
            "start": 441.12,
            "duration": 4.44
        },
        {
            "text": "to see people the the reason why this in",
            "start": 443.08,
            "duration": 4.64
        },
        {
            "text": "some sense I understand why You' never",
            "start": 445.56,
            "duration": 3.639
        },
        {
            "text": "fire somebody oh my goodness thank you",
            "start": 447.72,
            "duration": 4.52
        },
        {
            "text": "again thank you again beautiful wife for",
            "start": 449.199,
            "duration": 5.361
        },
        {
            "text": "this delicious beverage I love you the",
            "start": 452.24,
            "duration": 4.48
        },
        {
            "text": "reason why I would uh not fire someone",
            "start": 454.56,
            "duration": 3.44
        },
        {
            "text": "off obviously you would never fire",
            "start": 456.72,
            "duration": 2.68
        },
        {
            "text": "someone for this but what about the",
            "start": 458.0,
            "duration": 3.4
        },
        {
            "text": "principle the principle being can you",
            "start": 459.4,
            "duration": 4.199
        },
        {
            "text": "take a concept you have in your head and",
            "start": 461.4,
            "duration": 4.4
        },
        {
            "text": "produce it into code reliably that's",
            "start": 463.599,
            "duration": 4.121
        },
        {
            "text": "really what this is bubble sort is just",
            "start": 465.8,
            "duration": 3.799
        },
        {
            "text": "a representation that's how I look at",
            "start": 467.72,
            "duration": 3.72
        },
        {
            "text": "this problem their design implementation",
            "start": 469.599,
            "duration": 3.761
        },
        {
            "text": "wasn't Pixel Perfect yeah absolutely",
            "start": 471.44,
            "duration": 3.52
        },
        {
            "text": "they deployed a bug in production",
            "start": 473.36,
            "duration": 3.399
        },
        {
            "text": "depends on how many times if every",
            "start": 474.96,
            "duration": 3.359
        },
        {
            "text": "single time you put something into",
            "start": 476.759,
            "duration": 3.801
        },
        {
            "text": "production you got a bug and it can",
            "start": 478.319,
            "duration": 5.241
        },
        {
            "text": "depend on the severity of bug too and",
            "start": 480.56,
            "duration": 5.0
        },
        {
            "text": "here in Europe we don't fire people",
            "start": 483.56,
            "duration": 5.44
        },
        {
            "text": "that's your fault uh you guys also have",
            "start": 485.56,
            "duration": 7.039
        },
        {
            "text": "a third of the salary of America so",
            "start": 489.0,
            "duration": 5.759
        },
        {
            "text": "trade-offs trade-offs dude I can't wait",
            "start": 492.599,
            "duration": 4.481
        },
        {
            "text": "for well actually did you know I don't",
            "start": 494.759,
            "duration": 4.081
        },
        {
            "text": "want to hear about it okay just let me",
            "start": 497.08,
            "duration": 3.44
        },
        {
            "text": "just say something and just let me say",
            "start": 498.84,
            "duration": 3.84
        },
        {
            "text": "it and we'll just walk on we'll move on",
            "start": 500.52,
            "duration": 4.88
        },
        {
            "text": "America has 17th the quality of life uh",
            "start": 502.68,
            "duration": 4.919
        },
        {
            "text": "last time I checked I live in a field do",
            "start": 505.4,
            "duration": 3.96
        },
        {
            "text": "you live in a field tough guy no you",
            "start": 507.599,
            "duration": 3.601
        },
        {
            "text": "probably don't you probably live with a",
            "start": 509.36,
            "duration": 4.2
        },
        {
            "text": "Pomeranian okay you probably live with a",
            "start": 511.2,
            "duration": 5.319
        },
        {
            "text": "Pomeranian in an apartment okay that's",
            "start": 513.56,
            "duration": 6.0
        },
        {
            "text": "three stories tall and 17 feet wide",
            "start": 516.519,
            "duration": 7.121
        },
        {
            "text": "Pomeranian dad hashtag hash pom dad pom",
            "start": 519.56,
            "duration": 7.16
        },
        {
            "text": "dad hashtag no one cares about your",
            "start": 523.64,
            "duration": 6.319
        },
        {
            "text": "Pomeranian uh let's see when I fired",
            "start": 526.72,
            "duration": 5.08
        },
        {
            "text": "people something something culture yeah",
            "start": 529.959,
            "duration": 4.601
        },
        {
            "text": "when I fired people uh it's because they",
            "start": 531.8,
            "duration": 4.92
        },
        {
            "text": "were unable to receive understand and",
            "start": 534.56,
            "duration": 4.88
        },
        {
            "text": "grow from feedback okay fair fair they",
            "start": 536.72,
            "duration": 4.48
        },
        {
            "text": "didn't collaborate well with others and",
            "start": 539.44,
            "duration": 3.68
        },
        {
            "text": "were unable to change okay that kind of",
            "start": 541.2,
            "duration": 3.72
        },
        {
            "text": "falls into point one I like this they",
            "start": 543.12,
            "duration": 3.159
        },
        {
            "text": "didn't work on team or company",
            "start": 544.92,
            "duration": 2.68
        },
        {
            "text": "priorities despite feedback and",
            "start": 546.279,
            "duration": 3.161
        },
        {
            "text": "Direction what what do they work on then",
            "start": 547.6,
            "duration": 3.56
        },
        {
            "text": "what does that even mean they've",
            "start": 549.44,
            "duration": 3.519
        },
        {
            "text": "consistently shared rude or passive",
            "start": 551.16,
            "duration": 3.4
        },
        {
            "text": "aggressive comments to peers passive",
            "start": 552.959,
            "duration": 4.201
        },
        {
            "text": "aggressive comments or rude is getting",
            "start": 554.56,
            "duration": 4.92
        },
        {
            "text": "weird in our day and age I one time said",
            "start": 557.16,
            "duration": 4.2
        },
        {
            "text": "that somebody communicated poorly and",
            "start": 559.48,
            "duration": 4.0
        },
        {
            "text": "they said that I tore apart their work",
            "start": 561.36,
            "duration": 3.64
        },
        {
            "text": "so I'm just saying that people take",
            "start": 563.48,
            "duration": 4.16
        },
        {
            "text": "things extremely personal these days and",
            "start": 565.0,
            "duration": 4.2
        },
        {
            "text": "sometimes things that aren't meant to be",
            "start": 567.64,
            "duration": 3.52
        },
        {
            "text": "passive aggressive they just literally",
            "start": 569.2,
            "duration": 3.92
        },
        {
            "text": "feedback can be taken as if they're",
            "start": 571.16,
            "duration": 5.04
        },
        {
            "text": "terrible right skill issues I knew you",
            "start": 573.12,
            "duration": 4.959
        },
        {
            "text": "were evil I know I'm evil PO requests",
            "start": 576.2,
            "duration": 3.8
        },
        {
            "text": "comments aren't insults I know if you",
            "start": 578.079,
            "duration": 4.721
        },
        {
            "text": "say this code is bad is it really like",
            "start": 580.0,
            "duration": 4.6
        },
        {
            "text": "an insult I've had someone recently tell",
            "start": 582.8,
            "duration": 3.8
        },
        {
            "text": "me that I I I uploaded some sloppy code",
            "start": 584.6,
            "duration": 3.4
        },
        {
            "text": "and they were right yeah I could have",
            "start": 586.6,
            "duration": 2.76
        },
        {
            "text": "slowed down a little bit on some things",
            "start": 588.0,
            "duration": 2.959
        },
        {
            "text": "you can't take it personal did you learn",
            "start": 589.36,
            "duration": 3.24
        },
        {
            "text": "anything from that or how you just uh",
            "start": 590.959,
            "duration": 3.801
        },
        {
            "text": "interacted no I think the guy's a dork",
            "start": 592.6,
            "duration": 4.08
        },
        {
            "text": "sometimes sometimes the person is a dork",
            "start": 594.76,
            "duration": 3.44
        },
        {
            "text": "too many Engineers over index on their",
            "start": 596.68,
            "duration": 3.399
        },
        {
            "text": "technical skills and one of the most",
            "start": 598.2,
            "duration": 4.28
        },
        {
            "text": "critical Parts uh of their role their",
            "start": 600.079,
            "duration": 5.0
        },
        {
            "text": "behavior again I think I just said it",
            "start": 602.48,
            "duration": 4.76
        },
        {
            "text": "said it earlier just smile more it",
            "start": 605.079,
            "duration": 5.121
        },
        {
            "text": "almost always helps just be someone who",
            "start": 607.24,
            "duration": 5.36
        },
        {
            "text": "you want to work with and it almost",
            "start": 610.2,
            "duration": 4.96
        },
        {
            "text": "always is a w almost always but I work",
            "start": 612.6,
            "duration": 3.6
        },
        {
            "text": "from home how do I smile more you're",
            "start": 615.16,
            "duration": 2.84
        },
        {
            "text": "going to be on a video camera just be",
            "start": 616.2,
            "duration": 3.52
        },
        {
            "text": "friendly and agreeable when you're on a",
            "start": 618.0,
            "duration": 3.76
        },
        {
            "text": "on a camera you can be you can be",
            "start": 619.72,
            "duration": 4.119
        },
        {
            "text": "difficult and give hard feedback while",
            "start": 621.76,
            "duration": 3.96
        },
        {
            "text": "still being a friendly person a real",
            "start": 623.839,
            "duration": 3.921
        },
        {
            "text": "friend is somebody who when they see",
            "start": 625.72,
            "duration": 4.04
        },
        {
            "text": "somebody doing something wrong takes",
            "start": 627.76,
            "duration": 4.24
        },
        {
            "text": "time and tries to you know help him out",
            "start": 629.76,
            "duration": 4.0
        },
        {
            "text": "a bad friend is someone who does it in",
            "start": 632.0,
            "duration": 3.519
        },
        {
            "text": "all the shitty ways and I I can think of",
            "start": 633.76,
            "duration": 3.12
        },
        {
            "text": "a couple different ways that I've seen",
            "start": 635.519,
            "duration": 4.521
        },
        {
            "text": "it done I had like one person that I had",
            "start": 636.88,
            "duration": 5.399
        },
        {
            "text": "personal talks with very very personal",
            "start": 640.04,
            "duration": 3.239
        },
        {
            "text": "talks with about how they've",
            "start": 642.279,
            "duration": 2.401
        },
        {
            "text": "communicated publicly and that they",
            "start": 643.279,
            "duration": 2.961
        },
        {
            "text": "should take the time to reach out with",
            "start": 644.68,
            "duration": 4.08
        },
        {
            "text": "people individually within one week did",
            "start": 646.24,
            "duration": 4.08
        },
        {
            "text": "it again and so I was just like you're",
            "start": 648.76,
            "duration": 3.519
        },
        {
            "text": "just a really shitty friend that's it I",
            "start": 650.32,
            "duration": 4.12
        },
        {
            "text": "tried to be good and you aren't good I",
            "start": 652.279,
            "duration": 3.881
        },
        {
            "text": "don't want to be your friend any longer",
            "start": 654.44,
            "duration": 3.079
        },
        {
            "text": "I told the person I don't want to be",
            "start": 656.16,
            "duration": 3.04
        },
        {
            "text": "your friend that's that uh if you're",
            "start": 657.519,
            "duration": 2.641
        },
        {
            "text": "actually friendly to people it",
            "start": 659.2,
            "duration": 3.36
        },
        {
            "text": "definitely signals uh in more than just",
            "start": 660.16,
            "duration": 4.04
        },
        {
            "text": "your face you are let's see it's in your",
            "start": 662.56,
            "duration": 3.32
        },
        {
            "text": "wording your pace of response your ideas",
            "start": 664.2,
            "duration": 3.56
        },
        {
            "text": "Etc it's not robotic correction thing",
            "start": 665.88,
            "duration": 3.8
        },
        {
            "text": "exactly don't smile like Mark Zuckerberg",
            "start": 667.76,
            "duration": 3.56
        },
        {
            "text": "it's terrifying you can communicate in",
            "start": 669.68,
            "duration": 3.88
        },
        {
            "text": "Friendly ways you can you really can I I",
            "start": 671.32,
            "duration": 4.199
        },
        {
            "text": "mean I like in general I like this take",
            "start": 673.56,
            "duration": 3.959
        },
        {
            "text": "but the problem is is that this take in",
            "start": 675.519,
            "duration": 4.481
        },
        {
            "text": "its most simplest form is absolutely",
            "start": 677.519,
            "duration": 4.12
        },
        {
            "text": "true but there's that phrase all",
            "start": 680.0,
            "duration": 3.519
        },
        {
            "text": "shallows are clear meaning that if I",
            "start": 681.639,
            "duration": 4.561
        },
        {
            "text": "can't get somebody who can't create",
            "start": 683.519,
            "duration": 5.12
        },
        {
            "text": "ideas from their head into code at any",
            "start": 686.2,
            "duration": 5.04
        },
        {
            "text": "sort of reasonable Pace that's a problem",
            "start": 688.639,
            "duration": 4.121
        },
        {
            "text": "if we can have a talk about it and then",
            "start": 691.24,
            "duration": 3.36
        },
        {
            "text": "they need to ret talk about it or have",
            "start": 692.76,
            "duration": 3.68
        },
        {
            "text": "me re-review it or have many talks about",
            "start": 694.6,
            "duration": 3.16
        },
        {
            "text": "it because they don't have the ability",
            "start": 696.44,
            "duration": 3.88
        },
        {
            "text": "to execute from an idea in their head",
            "start": 697.76,
            "duration": 3.92
        },
        {
            "text": "that's a real problem if they",
            "start": 700.32,
            "duration": 3.519
        },
        {
            "text": "consistently produce lowquality code",
            "start": 701.68,
            "duration": 4.88
        },
        {
            "text": "over and over again especially in uh",
            "start": 703.839,
            "duration": 4.401
        },
        {
            "text": "especially in internal services like",
            "start": 706.56,
            "duration": 3.56
        },
        {
            "text": "highly error prone code code that just",
            "start": 708.24,
            "duration": 4.44
        },
        {
            "text": "Inc decreases overall reliability over",
            "start": 710.12,
            "duration": 4.64
        },
        {
            "text": "and over and over again there's a real",
            "start": 712.68,
            "duration": 4.279
        },
        {
            "text": "problem here this one probably less I",
            "start": 714.76,
            "duration": 3.639
        },
        {
            "text": "mean again even in this one you could",
            "start": 716.959,
            "duration": 3.241
        },
        {
            "text": "read something deep into this one their",
            "start": 718.399,
            "duration": 3.44
        },
        {
            "text": "design implementation wasn't Pixel",
            "start": 720.2,
            "duration": 3.079
        },
        {
            "text": "Perfect Fair what happen if they keep",
            "start": 721.839,
            "duration": 3.401
        },
        {
            "text": "doing that again if they can never seem",
            "start": 723.279,
            "duration": 3.641
        },
        {
            "text": "to do what the person asked them to do",
            "start": 725.24,
            "duration": 3.68
        },
        {
            "text": "there's a problem there these are all",
            "start": 726.92,
            "duration": 3.719
        },
        {
            "text": "non-f fireable offenses until they're",
            "start": 728.92,
            "duration": 3.8
        },
        {
            "text": "fireable offenses I changed uh design",
            "start": 730.639,
            "duration": 3.481
        },
        {
            "text": "because people don't verify them yeah",
            "start": 732.72,
            "duration": 2.84
        },
        {
            "text": "the problem is that the guy is talking",
            "start": 734.12,
            "duration": 3.32
        },
        {
            "text": "in absolutes and absolutes are [\u00a0__\u00a0]",
            "start": 735.56,
            "duration": 4.2
        },
        {
            "text": "yeah exactly absolutes are bullshits",
            "start": 737.44,
            "duration": 3.6
        },
        {
            "text": "I've worked with people that don't",
            "start": 739.76,
            "duration": 3.319
        },
        {
            "text": "communicate very well and aren't always",
            "start": 741.04,
            "duration": 3.56
        },
        {
            "text": "great to work with but they produce",
            "start": 743.079,
            "duration": 3.481
        },
        {
            "text": "really really good code at a really",
            "start": 744.6,
            "duration": 4.44
        },
        {
            "text": "great rate that's kind of okay with it I",
            "start": 746.56,
            "duration": 4.04
        },
        {
            "text": "didn't like how they talked but I lived",
            "start": 749.04,
            "duration": 4.32
        },
        {
            "text": "with it cuz the usefulness was really",
            "start": 750.6,
            "duration": 4.799
        },
        {
            "text": "high you know the inverse the inverse",
            "start": 753.36,
            "duration": 5.56
        },
        {
            "text": "can uh can exist too the work speaks for",
            "start": 755.399,
            "duration": 4.8
        },
        {
            "text": "itself but you know there's there's",
            "start": 758.92,
            "duration": 2.8
        },
        {
            "text": "definitely a Tipping Point right there's",
            "start": 760.199,
            "duration": 3.0
        },
        {
            "text": "definitely a Tipping Point because what",
            "start": 761.72,
            "duration": 3.32
        },
        {
            "text": "happen if someone is really great at all",
            "start": 763.199,
            "duration": 4.121
        },
        {
            "text": "these things but produces [\u00a0__\u00a0] code all",
            "start": 765.04,
            "duration": 4.239
        },
        {
            "text": "the time there's like also a problem",
            "start": 767.32,
            "duration": 3.44
        },
        {
            "text": "there it just is what was lacking about",
            "start": 769.279,
            "duration": 2.961
        },
        {
            "text": "the communication it was just HST and",
            "start": 770.76,
            "duration": 3.48
        },
        {
            "text": "often come off like offputting I've had",
            "start": 772.24,
            "duration": 3.68
        },
        {
            "text": "people that also that are just like",
            "start": 774.24,
            "duration": 3.839
        },
        {
            "text": "highly pedantic bike sheds and that's",
            "start": 775.92,
            "duration": 3.719
        },
        {
            "text": "hard it's just a emotionally hard to",
            "start": 778.079,
            "duration": 2.88
        },
        {
            "text": "work with people that are really that",
            "start": 779.639,
            "duration": 2.88
        },
        {
            "text": "bike shed too hard like there's a",
            "start": 780.959,
            "duration": 2.68
        },
        {
            "text": "certain level of bike shedding you",
            "start": 782.519,
            "duration": 2.68
        },
        {
            "text": "should do to protect the quality of your",
            "start": 783.639,
            "duration": 2.88
        },
        {
            "text": "work but there's a point where you have",
            "start": 785.199,
            "duration": 3.801
        },
        {
            "text": "to say I don't care and I don't what's a",
            "start": 786.519,
            "duration": 4.361
        },
        {
            "text": "bike shed uh Google has a really good",
            "start": 789.0,
            "duration": 4.12
        },
        {
            "text": "definition of bike shedding that they",
            "start": 790.88,
            "duration": 4.72
        },
        {
            "text": "took from Wiki def I believe which is a",
            "start": 793.12,
            "duration": 4.279
        },
        {
            "text": "futile expenditure of time and energy",
            "start": 795.6,
            "duration": 3.76
        },
        {
            "text": "discussing discussion of marginal",
            "start": 797.399,
            "duration": 3.961
        },
        {
            "text": "technical issues pretty good",
            "start": 799.36,
            "duration": 4.2
        },
        {
            "text": "terminology bike shedding commonly",
            "start": 801.36,
            "duration": 4.2
        },
        {
            "text": "referred to as being acoustic yes you",
            "start": 803.56,
            "duration": 4.719
        },
        {
            "text": "got it the name hey I I I I liked this",
            "start": 805.56,
            "duration": 4.839
        },
        {
            "text": "but I also didn't like this it feels",
            "start": 808.279,
            "duration": 3.761
        },
        {
            "text": "very VP of engineering you know what I",
            "start": 810.399,
            "duration": 4.8
        },
        {
            "text": "mean it's very VP inspirational LinkedIn",
            "start": 812.04,
            "duration": 5.039
        },
        {
            "text": "of",
            "start": 815.199,
            "duration": 4.601
        },
        {
            "text": "engineering a gen value both your",
            "start": 817.079,
            "duration": 6.961
        },
        {
            "text": "Technical and your personal skills",
            "start": 819.8,
            "duration": 4.24
        }
    ],
    "stats": {
        "viewCount": "190610",
        "likeCount": "4878",
        "favoriteCount": "0",
        "commentCount": "422"
    }
}