{
    "id": "9L4F-NdZ0g0",
    "title": "JS in 30 seconds",
    "publishedAt": "2023-12-20T17:08:42Z",
    "captions": [
        {
            "text": "JavaScript is the language that is",
            "start": 0.199,
            "duration": 5.041
        },
        {
            "text": "around and find out like that is what",
            "start": 3.04,
            "duration": 4.0
        },
        {
            "text": "JavaScript is you don't know what's",
            "start": 5.24,
            "duration": 3.6
        },
        {
            "text": "going to throw you don't know what",
            "start": 7.04,
            "duration": 3.479
        },
        {
            "text": "you're going to get like it's going to",
            "start": 8.84,
            "duration": 4.0
        },
        {
            "text": "happen maybe you'll like it maybe you'll",
            "start": 10.519,
            "duration": 4.36
        },
        {
            "text": "hate it we don't even know you'll",
            "start": 12.84,
            "duration": 3.56
        },
        {
            "text": "probably write a service in it though",
            "start": 14.879,
            "duration": 3.16
        },
        {
            "text": "then you'll have versell host it in",
            "start": 16.4,
            "duration": 3.76
        },
        {
            "text": "which your service will go down 3% of",
            "start": 18.039,
            "duration": 3.881
        },
        {
            "text": "the time but that's okay because someone",
            "start": 20.16,
            "duration": 3.6
        },
        {
            "text": "else handles restarting your service for",
            "start": 21.92,
            "duration": 3.76
        },
        {
            "text": "you it's fantastic it is one of the most",
            "start": 23.76,
            "duration": 3.519
        },
        {
            "text": "lovely things in the universe the fact",
            "start": 25.68,
            "duration": 4.4
        },
        {
            "text": "that we created services such that your",
            "start": 27.279,
            "duration": 4.721
        },
        {
            "text": "cityy programming can continue to just",
            "start": 30.08,
            "duration": 3.68
        },
        {
            "text": "keep on being successful because they",
            "start": 32.0,
            "duration": 6.12
        },
        {
            "text": "just restarted for you servess",
            "start": 33.76,
            "duration": 4.36
        }
    ],
    "stats": {
        "viewCount": "131922",
        "likeCount": "5638",
        "favoriteCount": "0",
        "commentCount": "82"
    }
}