{
    "id": "_iibFgkIo_Q",
    "title": "TDD",
    "publishedAt": "2023-11-15T21:21:33Z",
    "captions": [
        {
            "text": "tdd works for property based testing you",
            "start": 0.08,
            "duration": 4.88
        },
        {
            "text": "are an ignorant tdd works one thing",
            "start": 1.92,
            "duration": 5.24
        },
        {
            "text": "and one thing only which is when you",
            "start": 4.96,
            "duration": 4.32
        },
        {
            "text": "totally understand the problem and the",
            "start": 7.16,
            "duration": 5.76
        },
        {
            "text": "interface before you ever even start",
            "start": 9.28,
            "duration": 6.96
        },
        {
            "text": "disagree hit me why right now tdd allows",
            "start": 12.92,
            "duration": 5.6
        },
        {
            "text": "me to explore the interface that I want",
            "start": 16.24,
            "duration": 3.92
        },
        {
            "text": "without worrying about implementation",
            "start": 18.52,
            "duration": 4.24
        },
        {
            "text": "details I totally get what you're saying",
            "start": 20.16,
            "duration": 4.279
        },
        {
            "text": "but the problem is this is that how you",
            "start": 22.76,
            "duration": 3.96
        },
        {
            "text": "use it in a test versus how you use it",
            "start": 24.439,
            "duration": 6.041
        },
        {
            "text": "in actual work is extremely different if",
            "start": 26.72,
            "duration": 5.48
        },
        {
            "text": "you don't have a perfect understanding",
            "start": 30.48,
            "duration": 3.599
        },
        {
            "text": "of how this thing should be integrated",
            "start": 32.2,
            "duration": 3.44
        },
        {
            "text": "you're going to design an interface that",
            "start": 34.079,
            "duration": 4.601
        },
        {
            "text": "feels good for a test but feels awful",
            "start": 35.64,
            "duration": 5.759
        },
        {
            "text": "for actual implementation that's always",
            "start": 38.68,
            "duration": 4.719
        },
        {
            "text": "been my problem with tdd is if the",
            "start": 41.399,
            "duration": 5.281
        },
        {
            "text": "interface is unknown tdd is often not a",
            "start": 43.399,
            "duration": 5.68
        },
        {
            "text": "good way to explore it building the",
            "start": 46.68,
            "duration": 6.399
        },
        {
            "text": "thing is a good way to explore it",
            "start": 49.079,
            "duration": 4.0
        }
    ],
    "stats": {
        "viewCount": "94994",
        "likeCount": "3599",
        "favoriteCount": "0",
        "commentCount": "104"
    }
}