{
    "id": "_w6uJXhJdbs",
    "title": "RTFTJ",
    "publishedAt": "2024-01-07T14:30:09Z",
    "captions": [
        {
            "text": "here's the problem let's just say you",
            "start": 0.04,
            "duration": 4.56
        },
        {
            "text": "want to build a roller coaster okay and",
            "start": 2.04,
            "duration": 4.04
        },
        {
            "text": "then someone says well let's use the",
            "start": 4.6,
            "duration": 5.999
        },
        {
            "text": "right tool for the job right RT",
            "start": 6.08,
            "duration": 7.679
        },
        {
            "text": "FJ classic phrase we all say well then",
            "start": 10.599,
            "duration": 5.0
        },
        {
            "text": "someone says well hey I can do that in",
            "start": 13.759,
            "duration": 4.641
        },
        {
            "text": "Excel pretty easily is that the right",
            "start": 15.599,
            "duration": 5.281
        },
        {
            "text": "tool for the job they can still do it",
            "start": 18.4,
            "duration": 4.44
        },
        {
            "text": "what happen if they're the only person",
            "start": 20.88,
            "duration": 4.96
        },
        {
            "text": "at that company then yes it's the right",
            "start": 22.84,
            "duration": 5.32
        },
        {
            "text": "tool for the job I'm just saying that",
            "start": 25.84,
            "duration": 4.279
        },
        {
            "text": "sentence makes no sense because people",
            "start": 28.16,
            "duration": 3.8
        },
        {
            "text": "what they do is they don't think about",
            "start": 30.119,
            "duration": 3.321
        },
        {
            "text": "the perspective of the tool they think",
            "start": 31.96,
            "duration": 3.32
        },
        {
            "text": "about the perspective of the person the",
            "start": 33.44,
            "duration": 3.799
        },
        {
            "text": "person is familiar with say JavaScript",
            "start": 35.28,
            "duration": 4.0
        },
        {
            "text": "and react what are you building oh",
            "start": 37.239,
            "duration": 3.84
        },
        {
            "text": "you're going to build a simple marketing",
            "start": 39.28,
            "duration": 3.48
        },
        {
            "text": "site that wants to sell a singular",
            "start": 41.079,
            "duration": 5.201
        },
        {
            "text": "product react no just go use WordPress",
            "start": 42.76,
            "duration": 5.119
        },
        {
            "text": "or some crap and just get it done with",
            "start": 46.28,
            "duration": 3.56
        },
        {
            "text": "like why are you stop hand rolling",
            "start": 47.879,
            "duration": 4.2
        },
        {
            "text": "artial sites with react for something",
            "start": 49.84,
            "duration": 6.44
        },
        {
            "text": "that's so dang simple just use anything",
            "start": 52.079,
            "duration": 4.201
        }
    ],
    "stats": {
        "viewCount": "116708",
        "likeCount": "5299",
        "favoriteCount": "0",
        "commentCount": "128"
    }
}