{
    "id": "am_KewuUeTY",
    "title": "The Only Possible Future",
    "publishedAt": "2024-05-24T14:30:00Z",
    "captions": [
        {
            "text": "my guess and I've said this quite a few",
            "start": 0.16,
            "duration": 3.68
        },
        {
            "text": "times and people say I'm cray cray is",
            "start": 1.8,
            "duration": 4.959
        },
        {
            "text": "that we are nearing a future where your",
            "start": 3.84,
            "duration": 5.4
        },
        {
            "text": "device is a thin device it contains a",
            "start": 6.759,
            "duration": 4.641
        },
        {
            "text": "battery and a very small operating",
            "start": 9.24,
            "duration": 4.519
        },
        {
            "text": "system for displaying video and your",
            "start": 11.4,
            "duration": 5.24
        },
        {
            "text": "entire device will exist in the cloud",
            "start": 13.759,
            "duration": 5.561
        },
        {
            "text": "you will have 10day battery life devices",
            "start": 16.64,
            "duration": 3.719
        },
        {
            "text": "but that's because they don't do",
            "start": 19.32,
            "duration": 2.799
        },
        {
            "text": "anything other than real-time processing",
            "start": 20.359,
            "duration": 4.16
        },
        {
            "text": "I I know you want this to not be true I",
            "start": 22.119,
            "duration": 4.281
        },
        {
            "text": "want this not to be true either but it",
            "start": 24.519,
            "duration": 3.321
        },
        {
            "text": "will be the cloud is someone else's",
            "start": 26.4,
            "duration": 2.799
        },
        {
            "text": "computer but it's going to be",
            "start": 27.84,
            "duration": 2.88
        },
        {
            "text": "Microsoft's computer computer I made a",
            "start": 29.199,
            "duration": 3.04
        },
        {
            "text": "bet with somebody that within 5 years",
            "start": 30.72,
            "duration": 2.679
        },
        {
            "text": "we're going to start seeing this like",
            "start": 32.239,
            "duration": 2.521
        },
        {
            "text": "it's going to be everywhere this thing",
            "start": 33.399,
            "duration": 3.201
        },
        {
            "text": "is going to become a thin device I think",
            "start": 34.76,
            "duration": 4.119
        },
        {
            "text": "within the next probably 20 years you",
            "start": 36.6,
            "duration": 3.92
        },
        {
            "text": "will be considered a strange person for",
            "start": 38.879,
            "duration": 2.84
        },
        {
            "text": "living through the period of time where",
            "start": 40.52,
            "duration": 3.039
        },
        {
            "text": "you had to reach into your pocket for",
            "start": 41.719,
            "duration": 3.641
        },
        {
            "text": "your device right like that's weird oh",
            "start": 43.559,
            "duration": 3.921
        },
        {
            "text": "you reached into your pocket to re to",
            "start": 45.36,
            "duration": 3.56
        },
        {
            "text": "pull out your device it's going to be a",
            "start": 47.48,
            "duration": 2.36
        },
        {
            "text": "weird world we're going to live in a",
            "start": 48.92,
            "duration": 3.56
        },
        {
            "text": "weird world",
            "start": 49.84,
            "duration": 2.64
        }
    ],
    "stats": {
        "viewCount": "142197",
        "likeCount": "5825",
        "favoriteCount": "0",
        "commentCount": "383"
    }
}