{
    "id": "aRpvNU3_qj8",
    "title": "Introducing the CHADstack",
    "publishedAt": "2023-03-03T13:00:44Z",
    "captions": [
        {
            "text": "all right so if you're not joining us on",
            "start": 0.659,
            "duration": 4.261
        },
        {
            "text": "you know twitch you've probably missed",
            "start": 3.12,
            "duration": 3.6
        },
        {
            "text": "out on something pretty amazing going on",
            "start": 4.92,
            "duration": 4.62
        },
        {
            "text": "Chad stack is in full swing last night",
            "start": 6.72,
            "duration": 4.74
        },
        {
            "text": "making a breakthrough we're actually",
            "start": 9.54,
            "duration": 4.679
        },
        {
            "text": "like it's possibly viable at this point",
            "start": 11.46,
            "duration": 4.5
        },
        {
            "text": "I think that we could make a pretty",
            "start": 14.219,
            "duration": 3.841
        },
        {
            "text": "simple multi-page application with",
            "start": 15.96,
            "duration": 5.1
        },
        {
            "text": "interactivity using the Chad stack of",
            "start": 18.06,
            "duration": 4.44
        },
        {
            "text": "course the Chad stack the greatest stack",
            "start": 21.06,
            "duration": 3.479
        },
        {
            "text": "that has ever been created Cobalt",
            "start": 22.5,
            "duration": 5.039
        },
        {
            "text": "Haskell alpine.js and Docker yeah the",
            "start": 24.539,
            "duration": 5.16
        },
        {
            "text": "D's a little weak in Chad stack but you",
            "start": 27.539,
            "duration": 5.04
        },
        {
            "text": "know every Chad you know sometimes has a",
            "start": 29.699,
            "duration": 4.621
        },
        {
            "text": "hard time you know with with the D",
            "start": 32.579,
            "duration": 4.621
        },
        {
            "text": "anyways so the first thing we were",
            "start": 34.32,
            "duration": 4.02
        },
        {
            "text": "working on is this thing right here",
            "start": 37.2,
            "duration": 2.82
        },
        {
            "text": "Cobalt and wheelchair it's a beautiful",
            "start": 38.34,
            "duration": 3.719
        },
        {
            "text": "product okay some of these commits are",
            "start": 40.02,
            "duration": 4.32
        },
        {
            "text": "from 10 years ago okay 10 years ago",
            "start": 42.059,
            "duration": 3.901
        },
        {
            "text": "they've been really working on this",
            "start": 44.34,
            "duration": 3.78
        },
        {
            "text": "thing for quite some time and it allows",
            "start": 45.96,
            "duration": 4.56
        },
        {
            "text": "for this like CGI interaction with",
            "start": 48.12,
            "duration": 4.32
        },
        {
            "text": "Cobalt so I'm like okay I could use that",
            "start": 50.52,
            "duration": 4.32
        },
        {
            "text": "and then number two I could drop the",
            "start": 52.44,
            "duration": 4.5
        },
        {
            "text": "Apache requirement and just use Haskell",
            "start": 54.84,
            "duration": 4.379
        },
        {
            "text": "to do my CGI well there was a problem",
            "start": 56.94,
            "duration": 5.58
        },
        {
            "text": "with it hey flashbang warning uh and",
            "start": 59.219,
            "duration": 5.281
        },
        {
            "text": "this is my testing browser so suck it so",
            "start": 62.52,
            "duration": 3.419
        },
        {
            "text": "this thing kept happening with Haskell",
            "start": 64.5,
            "duration": 3.0
        },
        {
            "text": "where the first item in the path that",
            "start": 65.939,
            "duration": 3.54
        },
        {
            "text": "I'm you know highlighting up there would",
            "start": 67.5,
            "duration": 4.619
        },
        {
            "text": "be dropped from the path and used as the",
            "start": 69.479,
            "duration": 4.081
        },
        {
            "text": "script name and then the rest of the",
            "start": 72.119,
            "duration": 2.881
        },
        {
            "text": "path would be the path you can see right",
            "start": 73.56,
            "duration": 4.14
        },
        {
            "text": "here I am not in the index file my path",
            "start": 75.0,
            "duration": 6.54
        },
        {
            "text": "is slash 22 11. I'm not in in the index",
            "start": 77.7,
            "duration": 6.48
        },
        {
            "text": "my new path is this so how did I",
            "start": 81.54,
            "duration": 4.32
        },
        {
            "text": "accomplish that well in Haskell there",
            "start": 84.18,
            "duration": 3.06
        },
        {
            "text": "was no way I could there's no editing",
            "start": 85.86,
            "duration": 2.579
        },
        {
            "text": "right here I couldn't do anything about",
            "start": 87.24,
            "duration": 3.18
        },
        {
            "text": "this this is just how the CGI stuff",
            "start": 88.439,
            "duration": 4.021
        },
        {
            "text": "works I couldn't figure it out I'm",
            "start": 90.42,
            "duration": 3.239
        },
        {
            "text": "terrible at Haskell I've never really",
            "start": 92.46,
            "duration": 3.6
        },
        {
            "text": "done any Haskell so I figured I could",
            "start": 93.659,
            "duration": 5.46
        },
        {
            "text": "probably do it in Cobalt and that's",
            "start": 96.06,
            "duration": 5.04
        },
        {
            "text": "exactly right so one of the first things",
            "start": 99.119,
            "duration": 5.04
        },
        {
            "text": "I found in the old Cobalt was this this",
            "start": 101.1,
            "duration": 5.46
        },
        {
            "text": "is all the CGI environment variables",
            "start": 104.159,
            "duration": 4.441
        },
        {
            "text": "this little X here that means it's a",
            "start": 106.56,
            "duration": 4.739
        },
        {
            "text": "it's a new like byte array of size 20.",
            "start": 108.6,
            "duration": 6.12
        },
        {
            "text": "very shocking uh I was not prepared I",
            "start": 111.299,
            "duration": 4.5
        },
        {
            "text": "think that's what it means I actually",
            "start": 114.72,
            "duration": 2.7
        },
        {
            "text": "don't even know what that really means",
            "start": 115.799,
            "duration": 4.32
        },
        {
            "text": "anyways so I upgraded this script that",
            "start": 117.42,
            "duration": 4.379
        },
        {
            "text": "was the code Mobile on wheelchair to",
            "start": 120.119,
            "duration": 4.32
        },
        {
            "text": "start taking out the script name along",
            "start": 121.799,
            "duration": 4.381
        },
        {
            "text": "with the path info because I figured if",
            "start": 124.439,
            "duration": 4.141
        },
        {
            "text": "I can keep track of the script name as",
            "start": 126.18,
            "duration": 4.2
        },
        {
            "text": "well maybe I could put the strings",
            "start": 128.58,
            "duration": 4.08
        },
        {
            "text": "together and you know what putting two",
            "start": 130.38,
            "duration": 5.1
        },
        {
            "text": "strings together is a non-trivial amount",
            "start": 132.66,
            "duration": 5.4
        },
        {
            "text": "of effort to figure out",
            "start": 135.48,
            "duration": 5.399
        },
        {
            "text": "in Cobalt I was I was completely I I",
            "start": 138.06,
            "duration": 4.98
        },
        {
            "text": "can't even believe this is real so I",
            "start": 140.879,
            "duration": 3.421
        },
        {
            "text": "found this okay so I figured out how to",
            "start": 143.04,
            "duration": 3.6
        },
        {
            "text": "do an if statement if analyze script is",
            "start": 144.3,
            "duration": 5.48
        },
        {
            "text": "equal to the index.cgi which by the way",
            "start": 146.64,
            "duration": 5.52
        },
        {
            "text": "index.cgi right here that is just what",
            "start": 149.78,
            "duration": 4.06
        },
        {
            "text": "happens this is the default spec right",
            "start": 152.16,
            "duration": 3.6
        },
        {
            "text": "here this default classic app spec makes",
            "start": 153.84,
            "duration": 4.44
        },
        {
            "text": "the very first CGI called index.cgi",
            "start": 155.76,
            "duration": 4.68
        },
        {
            "text": "whatever we just made it happen so we",
            "start": 158.28,
            "duration": 3.72
        },
        {
            "text": "have this analyze script if it's equal",
            "start": 160.44,
            "duration": 3.24
        },
        {
            "text": "to that I'm the index I don't need to do",
            "start": 162.0,
            "duration": 4.26
        },
        {
            "text": "any sort of fancy moving around of",
            "start": 163.68,
            "duration": 5.16
        },
        {
            "text": "anything but if we're not what I need to",
            "start": 166.26,
            "duration": 4.32
        },
        {
            "text": "do is I need to take the analyze script",
            "start": 168.84,
            "duration": 3.899
        },
        {
            "text": "name I need to I don't even know what",
            "start": 170.58,
            "duration": 4.5
        },
        {
            "text": "that means take the analyzed query I",
            "start": 172.739,
            "duration": 3.72
        },
        {
            "text": "still don't know what that means and",
            "start": 175.08,
            "duration": 3.56
        },
        {
            "text": "then I can put both of them into temp",
            "start": 176.459,
            "duration": 4.86
        },
        {
            "text": "Yaya and then end the string this",
            "start": 178.64,
            "duration": 4.72
        },
        {
            "text": "actually creates a concatenated string",
            "start": 181.319,
            "duration": 3.841
        },
        {
            "text": "out of two strings I had to make sure",
            "start": 183.36,
            "duration": 3.18
        },
        {
            "text": "that temp query was big enough to be",
            "start": 185.16,
            "duration": 3.12
        },
        {
            "text": "able to house both of these and then I",
            "start": 186.54,
            "duration": 4.26
        },
        {
            "text": "can move my temp query into my analyzed",
            "start": 188.28,
            "duration": 4.92
        },
        {
            "text": "query and then from there I can go",
            "start": 190.8,
            "duration": 4.26
        },
        {
            "text": "through all my routes and try to find",
            "start": 193.2,
            "duration": 4.8
        },
        {
            "text": "where to put it in baby the Chad stack",
            "start": 195.06,
            "duration": 5.22
        },
        {
            "text": "is alive so how does it actually work",
            "start": 198.0,
            "duration": 3.84
        },
        {
            "text": "how does this actually work so there's",
            "start": 200.28,
            "duration": 3.3
        },
        {
            "text": "this weird little word called an arouse",
            "start": 201.84,
            "duration": 3.539
        },
        {
            "text": "which of course we ended up finding up",
            "start": 203.58,
            "duration": 3.54
        },
        {
            "text": "here which is just pretty absurd hold on",
            "start": 205.379,
            "duration": 3.301
        },
        {
            "text": "where where are you I don't even know",
            "start": 207.12,
            "duration": 3.119
        },
        {
            "text": "where to look there we go so there's",
            "start": 208.68,
            "duration": 3.9
        },
        {
            "text": "this file this file is like the Crux of",
            "start": 210.239,
            "duration": 5.161
        },
        {
            "text": "it all you define all your routes in",
            "start": 212.58,
            "duration": 5.22
        },
        {
            "text": "this file and then the other one Cycles",
            "start": 215.4,
            "duration": 4.32
        },
        {
            "text": "through them one at a time so you do",
            "start": 217.8,
            "duration": 3.359
        },
        {
            "text": "have to do something like this you have",
            "start": 219.72,
            "duration": 3.48
        },
        {
            "text": "to Define how many routes you have and",
            "start": 221.159,
            "duration": 3.66
        },
        {
            "text": "then that that Loop will figure out how",
            "start": 223.2,
            "duration": 3.539
        },
        {
            "text": "to go through each one of them now this",
            "start": 224.819,
            "duration": 3.541
        },
        {
            "text": "is where it gets fantastic",
            "start": 226.739,
            "duration": 3.42
        },
        {
            "text": "so how does that work there's this",
            "start": 228.36,
            "duration": 4.019
        },
        {
            "text": "controllers file this right here is show",
            "start": 230.159,
            "duration": 4.86
        },
        {
            "text": "sum show some I could probably just",
            "start": 232.379,
            "duration": 4.44
        },
        {
            "text": "generate this because this based on the",
            "start": 235.019,
            "duration": 4.741
        },
        {
            "text": "URL which will show some like a some",
            "start": 236.819,
            "duration": 4.681
        },
        {
            "text": "sort of argument some sort of argument",
            "start": 239.76,
            "duration": 4.74
        },
        {
            "text": "value one value two what I could do is I",
            "start": 241.5,
            "duration": 4.5
        },
        {
            "text": "could generate all that because you'll",
            "start": 244.5,
            "duration": 4.14
        },
        {
            "text": "see right here that we have uh it calls",
            "start": 246.0,
            "duration": 5.4
        },
        {
            "text": "this cow template show some.cal so when",
            "start": 248.64,
            "duration": 4.5
        },
        {
            "text": "we do that and we go down to where is it",
            "start": 251.4,
            "duration": 4.44
        },
        {
            "text": "views show some you'll notice that I was",
            "start": 253.14,
            "duration": 5.219
        },
        {
            "text": "able to call and even produce JavaScript",
            "start": 255.84,
            "duration": 4.92
        },
        {
            "text": "with number one and number two which is",
            "start": 258.359,
            "duration": 4.321
        },
        {
            "text": "the variables that we had",
            "start": 260.76,
            "duration": 4.32
        },
        {
            "text": "up in the URL and there you go this",
            "start": 262.68,
            "duration": 4.26
        },
        {
            "text": "actually gets templated in and if you go",
            "start": 265.08,
            "duration": 3.54
        },
        {
            "text": "over here and look because I'm really",
            "start": 266.94,
            "duration": 3.78
        },
        {
            "text": "stupid and this obviously is a problem",
            "start": 268.62,
            "duration": 3.6
        },
        {
            "text": "right here the query selector that can't",
            "start": 270.72,
            "duration": 3.479
        },
        {
            "text": "be happening but nonetheless there's 22",
            "start": 272.22,
            "duration": 4.74
        },
        {
            "text": "there's 11. there's 22 there's 11. we",
            "start": 274.199,
            "duration": 4.681
        },
        {
            "text": "got it working we can make this work but",
            "start": 276.96,
            "duration": 3.48
        },
        {
            "text": "that's not good enough okay I need to",
            "start": 278.88,
            "duration": 3.84
        },
        {
            "text": "make this pay or file based routing",
            "start": 280.44,
            "duration": 3.84
        },
        {
            "text": "right that's what all the cool kids love",
            "start": 282.72,
            "duration": 3.24
        },
        {
            "text": "is file based routing so this is what",
            "start": 284.28,
            "duration": 3.419
        },
        {
            "text": "I'm thinking if we had a folder called",
            "start": 285.96,
            "duration": 4.26
        },
        {
            "text": "Pages inside Pages we had show some",
            "start": 287.699,
            "duration": 5.22
        },
        {
            "text": "inside show sum we had value like a",
            "start": 290.22,
            "duration": 4.8
        },
        {
            "text": "colon value one that'd be the name of it",
            "start": 292.919,
            "duration": 3.78
        },
        {
            "text": "colon value two that would be the name",
            "start": 295.02,
            "duration": 4.14
        },
        {
            "text": "of it then we have this index.html where",
            "start": 296.699,
            "duration": 4.861
        },
        {
            "text": "you can just write your HTML what's",
            "start": 299.16,
            "duration": 4.02
        },
        {
            "text": "going to happen is that it's going to",
            "start": 301.56,
            "duration": 4.5
        },
        {
            "text": "use that whole file based routing to",
            "start": 303.18,
            "duration": 6.36
        },
        {
            "text": "actually produce the required uh",
            "start": 306.06,
            "duration": 5.639
        },
        {
            "text": "controller that then passes in the",
            "start": 309.54,
            "duration": 4.26
        },
        {
            "text": "variables and then use this as your",
            "start": 311.699,
            "duration": 4.741
        },
        {
            "text": "template create the template compile the",
            "start": 313.8,
            "duration": 5.1
        },
        {
            "text": "Cobalt program and boom we have",
            "start": 316.44,
            "duration": 4.08
        },
        {
            "text": "something running that means our little",
            "start": 318.9,
            "duration": 3.66
        },
        {
            "text": "file right here we execute downhill to",
            "start": 320.52,
            "duration": 4.619
        },
        {
            "text": "get sweet sweet uh Cobalt and then we",
            "start": 322.56,
            "duration": 4.44
        },
        {
            "text": "can run our Haskell server but the best",
            "start": 325.139,
            "duration": 4.62
        },
        {
            "text": "part is is right before we do that when",
            "start": 327.0,
            "duration": 4.08
        },
        {
            "text": "we're up in here we actually have to go",
            "start": 329.759,
            "duration": 4.44
        },
        {
            "text": "to the CGI bin and every single route is",
            "start": 331.08,
            "duration": 5.399
        },
        {
            "text": "the biggest sibling over so I'm going to",
            "start": 334.199,
            "duration": 4.261
        },
        {
            "text": "create this just amalgamation of just",
            "start": 336.479,
            "duration": 3.361
        },
        {
            "text": "terribleness",
            "start": 338.46,
            "duration": 2.48
        },
        {
            "text": "foreign",
            "start": 339.84,
            "duration": 3.96
        },
        {
            "text": "it's just so ugly I can't believe it's",
            "start": 340.94,
            "duration": 5.02
        },
        {
            "text": "actually gonna work dude the best part",
            "start": 343.8,
            "duration": 4.14
        },
        {
            "text": "about this is that you can actually",
            "start": 345.96,
            "duration": 4.5
        },
        {
            "text": "create something with this it's actually",
            "start": 347.94,
            "duration": 4.68
        },
        {
            "text": "gonna work we're gonna be able to have",
            "start": 350.46,
            "duration": 5.299
        },
        {
            "text": "interactivity multi-page application",
            "start": 352.62,
            "duration": 6.419
        },
        {
            "text": "Docker okay everything you've ever",
            "start": 355.759,
            "duration": 5.801
        },
        {
            "text": "wanted in a single application and that",
            "start": 359.039,
            "duration": 4.44
        },
        {
            "text": "my friends is",
            "start": 361.56,
            "duration": 4.079
        },
        {
            "text": "the Chad stack okay so I hope you're",
            "start": 363.479,
            "duration": 4.141
        },
        {
            "text": "excited as excited at least as I am",
            "start": 365.639,
            "duration": 3.601
        },
        {
            "text": "because we're gonna successfully create",
            "start": 367.62,
            "duration": 3.84
        },
        {
            "text": "the greatest multi-plage application",
            "start": 369.24,
            "duration": 4.44
        },
        {
            "text": "ever to exist the chat sack you know",
            "start": 371.46,
            "duration": 3.66
        },
        {
            "text": "what's gonna happen after that we're",
            "start": 373.68,
            "duration": 3.18
        },
        {
            "text": "gonna do a little performance test I",
            "start": 375.12,
            "duration": 2.94
        },
        {
            "text": "don't think node is going to be able to",
            "start": 376.86,
            "duration": 4.32
        },
        {
            "text": "keep up with Chad no I don't think so I",
            "start": 378.06,
            "duration": 5.1
        },
        {
            "text": "don't think so I even think I could raw",
            "start": 381.18,
            "duration": 4.859
        },
        {
            "text": "dog node and it will be five times",
            "start": 383.16,
            "duration": 5.819
        },
        {
            "text": "slower at producing HTML",
            "start": 386.039,
            "duration": 5.821
        },
        {
            "text": "than the Chad stack I'm putting money on",
            "start": 388.979,
            "duration": 3.541
        },
        {
            "text": "it",
            "start": 391.86,
            "duration": 3.98
        },
        {
            "text": "hey the name",
            "start": 392.52,
            "duration": 3.32
        },
        {
            "text": "is the primogen I gotta press stop",
            "start": 397.259,
            "duration": 5.121
        },
        {
            "text": "record now",
            "start": 399.9,
            "duration": 2.48
        }
    ],
    "stats": {
        "viewCount": "68196",
        "likeCount": "2925",
        "favoriteCount": "0",
        "commentCount": "246"
    }
}