{
    "id": "AVnJB7xN-MU",
    "title": "What I Do At Netflix",
    "publishedAt": "2023-09-26T16:00:16Z",
    "captions": [
        {
            "text": "all right so what I worked on for the",
            "start": 0.179,
            "duration": 5.041
        },
        {
            "text": "last few months at Netflix goes a little",
            "start": 3.12,
            "duration": 3.48
        },
        {
            "text": "something like this let's first go like",
            "start": 5.22,
            "duration": 3.18
        },
        {
            "text": "this uh let's let's bring up some",
            "start": 6.6,
            "duration": 3.36
        },
        {
            "text": "excally draw trying to explain to people",
            "start": 8.4,
            "duration": 3.08
        },
        {
            "text": "how garbage collection works over there",
            "start": 9.96,
            "duration": 3.78
        },
        {
            "text": "uh let's jump in here let's hit them",
            "start": 11.48,
            "duration": 4.0
        },
        {
            "text": "with the grid mode Let's go back into",
            "start": 13.74,
            "duration": 4.2
        },
        {
            "text": "dark mode sorry dark mode screws up the",
            "start": 15.48,
            "duration": 3.719
        },
        {
            "text": "colors that's why I don't like to use it",
            "start": 17.94,
            "duration": 2.999
        },
        {
            "text": "okay so if you don't know anything about",
            "start": 19.199,
            "duration": 3.961
        },
        {
            "text": "how streaming works like say on Twitch",
            "start": 20.939,
            "duration": 3.84
        },
        {
            "text": "or anywhere else what you're going to do",
            "start": 23.16,
            "duration": 2.58
        },
        {
            "text": "is you're gonna have a bunch of these",
            "start": 24.779,
            "duration": 3.42
        },
        {
            "text": "little UDP packets okay",
            "start": 25.74,
            "duration": 4.02
        },
        {
            "text": "and then not only are you gonna have a",
            "start": 28.199,
            "duration": 3.961
        },
        {
            "text": "bunch of little UDP packets but you're",
            "start": 29.76,
            "duration": 3.72
        },
        {
            "text": "also going to have what is referred to",
            "start": 32.16,
            "duration": 3.6
        },
        {
            "text": "as effect packets packets Ford air",
            "start": 33.48,
            "duration": 4.259
        },
        {
            "text": "correction now this may be read Solomon",
            "start": 35.76,
            "duration": 5.16
        },
        {
            "text": "this may be something else uh but you",
            "start": 37.739,
            "duration": 5.101
        },
        {
            "text": "get the idea no I don't get a free sub",
            "start": 40.92,
            "duration": 5.1
        },
        {
            "text": "shut up okay so here we go so this would",
            "start": 42.84,
            "duration": 4.68
        },
        {
            "text": "be like video right here right this",
            "start": 46.02,
            "duration": 3.059
        },
        {
            "text": "would be video hey it's green I guess",
            "start": 47.52,
            "duration": 3.84
        },
        {
            "text": "we're going with green today uh this one",
            "start": 49.079,
            "duration": 4.32
        },
        {
            "text": "right here will be audio typically audio",
            "start": 51.36,
            "duration": 4.56
        },
        {
            "text": "is going to be a singular UDP packet no",
            "start": 53.399,
            "duration": 4.261
        },
        {
            "text": "Ford error correction all that kind of",
            "start": 55.92,
            "duration": 4.5
        },
        {
            "text": "stuff there we go so this happens uh",
            "start": 57.66,
            "duration": 5.16
        },
        {
            "text": "this will happen every effectively one",
            "start": 60.42,
            "duration": 4.08
        },
        {
            "text": "out of 30 seconds",
            "start": 62.82,
            "duration": 3.6
        },
        {
            "text": "we'll send a whole bunch of UDP packets",
            "start": 64.5,
            "duration": 4.979
        },
        {
            "text": "this will happen one out of 50 seconds",
            "start": 66.42,
            "duration": 5.28
        },
        {
            "text": "and yeah there you go so that's like the",
            "start": 69.479,
            "duration": 4.021
        },
        {
            "text": "basic of streaming it's going to use UDP",
            "start": 71.7,
            "duration": 3.66
        },
        {
            "text": "it's going to use rtmp it's going to be",
            "start": 73.5,
            "duration": 3.24
        },
        {
            "text": "kind of you know your straightforward",
            "start": 75.36,
            "duration": 2.759
        },
        {
            "text": "stuff that you can go look all over",
            "start": 76.74,
            "duration": 3.239
        },
        {
            "text": "there there's ice there's stun there's",
            "start": 78.119,
            "duration": 4.86
        },
        {
            "text": "there's all the fun stuff now and then",
            "start": 79.979,
            "duration": 4.021
        },
        {
            "text": "of course there's like back Channel",
            "start": 82.979,
            "duration": 2.581
        },
        {
            "text": "communication right you got a",
            "start": 84.0,
            "duration": 3.0
        },
        {
            "text": "communication that goes back to your",
            "start": 85.56,
            "duration": 4.32
        },
        {
            "text": "server this would be like our RT uh RT",
            "start": 87.0,
            "duration": 6.0
        },
        {
            "text": "uh CP rtcp RT what is what the hell is",
            "start": 89.88,
            "duration": 4.32
        },
        {
            "text": "it called I can't remember what it's",
            "start": 93.0,
            "duration": 2.4
        },
        {
            "text": "called I can't remember all these",
            "start": 94.2,
            "duration": 2.58
        },
        {
            "text": "acronyms but you said little packets",
            "start": 95.4,
            "duration": 3.179
        },
        {
            "text": "back to be like hey you know like I got",
            "start": 96.78,
            "duration": 4.26
        },
        {
            "text": "this packet I got this video packets I",
            "start": 98.579,
            "duration": 3.72
        },
        {
            "text": "got all these things so we don't do that",
            "start": 101.04,
            "duration": 3.56
        },
        {
            "text": "there's RTX there's re-requesting",
            "start": 102.299,
            "duration": 4.981
        },
        {
            "text": "re-transmission RTX so like say this one",
            "start": 104.6,
            "duration": 5.68
        },
        {
            "text": "you didn't get and or you you missed two",
            "start": 107.28,
            "duration": 5.159
        },
        {
            "text": "so therefore you technically need one",
            "start": 110.28,
            "duration": 4.199
        },
        {
            "text": "more packet and if you get one more",
            "start": 112.439,
            "duration": 4.081
        },
        {
            "text": "packet you are then able to use effect",
            "start": 114.479,
            "duration": 4.381
        },
        {
            "text": "encoding to thus get the last packet",
            "start": 116.52,
            "duration": 3.779
        },
        {
            "text": "inside there [\u00a0__\u00a0] coding is really",
            "start": 118.86,
            "duration": 4.5
        },
        {
            "text": "simple just plain old ulp in fact uneven",
            "start": 120.299,
            "duration": 5.341
        },
        {
            "text": "level protection Ford air correcting is",
            "start": 123.36,
            "duration": 3.539
        },
        {
            "text": "really really simple it's just literally",
            "start": 125.64,
            "duration": 4.56
        },
        {
            "text": "the xor of all the packets together into",
            "start": 126.899,
            "duration": 5.641
        },
        {
            "text": "this one and so if you miss one you can",
            "start": 130.2,
            "duration": 5.1
        },
        {
            "text": "just be like okay well just xor some",
            "start": 132.54,
            "duration": 4.14
        },
        {
            "text": "things together and boom you got that",
            "start": 135.3,
            "duration": 2.82
        },
        {
            "text": "guy back out it's pretty it's pretty",
            "start": 136.68,
            "duration": 3.36
        },
        {
            "text": "neat it's pretty neat stuff right",
            "start": 138.12,
            "duration": 3.42
        },
        {
            "text": "you get the idea of X or if you haven't",
            "start": 140.04,
            "duration": 3.36
        },
        {
            "text": "played with XR it's pretty cool and so",
            "start": 141.54,
            "duration": 4.26
        },
        {
            "text": "that would literally be uh getting out",
            "start": 143.4,
            "duration": 3.9
        },
        {
            "text": "that thing there's different versions of",
            "start": 145.8,
            "duration": 3.24
        },
        {
            "text": "it like I said read Solomon blah blah",
            "start": 147.3,
            "duration": 3.36
        },
        {
            "text": "blah blah anyway so we have all this",
            "start": 149.04,
            "duration": 3.3
        },
        {
            "text": "data we're sending it all over the place",
            "start": 150.66,
            "duration": 4.32
        },
        {
            "text": "and so one thing I built was a program",
            "start": 152.34,
            "duration": 4.92
        },
        {
            "text": "that we called Reggie which by the way",
            "start": 154.98,
            "duration": 4.5
        },
        {
            "text": "Reggie was awesome Reggie was one of my",
            "start": 157.26,
            "duration": 4.559
        },
        {
            "text": "favorite projects I've ever done uh I",
            "start": 159.48,
            "duration": 3.96
        },
        {
            "text": "really really enjoyed making Reggie",
            "start": 161.819,
            "duration": 3.961
        },
        {
            "text": "which what Reggie did",
            "start": 163.44,
            "duration": 5.7
        },
        {
            "text": "is Reggie it's named after a very nice",
            "start": 165.78,
            "duration": 4.739
        },
        {
            "text": "character you may have heard of him a",
            "start": 169.14,
            "duration": 4.02
        },
        {
            "text": "very outstanding upstanding citizen uh",
            "start": 170.519,
            "duration": 5.521
        },
        {
            "text": "Reggie Miller it's uh we we nicknamed it",
            "start": 173.16,
            "duration": 4.02
        },
        {
            "text": "the most",
            "start": 176.04,
            "duration": 5.16
        },
        {
            "text": "reliable Pacer and so all it did was it",
            "start": 177.18,
            "duration": 6.18
        },
        {
            "text": "followed this thing right here and I",
            "start": 181.2,
            "duration": 4.319
        },
        {
            "text": "would actually just create all this data",
            "start": 183.36,
            "duration": 4.8
        },
        {
            "text": "based on a 30 second clip and feed it in",
            "start": 185.519,
            "duration": 5.401
        },
        {
            "text": "as fast as I possibly can and then you",
            "start": 188.16,
            "duration": 4.68
        },
        {
            "text": "know what I'd do this is the this is the",
            "start": 190.92,
            "duration": 4.2
        },
        {
            "text": "good part is that I would actually uh",
            "start": 192.84,
            "duration": 4.44
        },
        {
            "text": "bypass all like the playing and",
            "start": 195.12,
            "duration": 4.259
        },
        {
            "text": "everything and I had I'd have a sync",
            "start": 197.28,
            "duration": 3.36
        },
        {
            "text": "component I written on the other side",
            "start": 199.379,
            "duration": 3.36
        },
        {
            "text": "and see that would receive all this",
            "start": 200.64,
            "duration": 3.48
        },
        {
            "text": "information and have a huge like",
            "start": 202.739,
            "duration": 3.72
        },
        {
            "text": "calculation and tell tell us like how",
            "start": 204.12,
            "duration": 4.8
        },
        {
            "text": "much uh loss we're having how much we're",
            "start": 206.459,
            "duration": 4.2
        },
        {
            "text": "dropping and all that except for I'd",
            "start": 208.92,
            "duration": 3.66
        },
        {
            "text": "play it faster than time faster as",
            "start": 210.659,
            "duration": 4.141
        },
        {
            "text": "possible right so I'd I'd be shoving in",
            "start": 212.58,
            "duration": 4.56
        },
        {
            "text": "these packets as fast as possible and",
            "start": 214.8,
            "duration": 3.9
        },
        {
            "text": "how Reggie effectively worked which I",
            "start": 217.14,
            "duration": 3.84
        },
        {
            "text": "thought was pretty clever is that you",
            "start": 218.7,
            "duration": 3.599
        },
        {
            "text": "know if you don't know anything about a",
            "start": 220.98,
            "duration": 3.479
        },
        {
            "text": "TV this is effectively what would happen",
            "start": 222.299,
            "duration": 4.621
        },
        {
            "text": "or at least Netflix TV right",
            "start": 224.459,
            "duration": 5.581
        },
        {
            "text": "uh is that you have uh you have like the",
            "start": 226.92,
            "duration": 5.459
        },
        {
            "text": "the JavaScript layer right so we have",
            "start": 230.04,
            "duration": 3.66
        },
        {
            "text": "this nice little JavaScript layer then",
            "start": 232.379,
            "duration": 3.061
        },
        {
            "text": "we have this uh we have the C plus plus",
            "start": 233.7,
            "duration": 4.2
        },
        {
            "text": "layer right and then we have what would",
            "start": 235.44,
            "duration": 5.7
        },
        {
            "text": "be like uh the partner layer right and",
            "start": 237.9,
            "duration": 5.22
        },
        {
            "text": "so the partner layer is you know like",
            "start": 241.14,
            "duration": 4.2
        },
        {
            "text": "this is where the TV actually does the",
            "start": 243.12,
            "duration": 4.979
        },
        {
            "text": "TV things right so this part this guy",
            "start": 245.34,
            "duration": 5.099
        },
        {
            "text": "right here is like us taking in all the",
            "start": 248.099,
            "duration": 4.14
        },
        {
            "text": "video and making a video and then going",
            "start": 250.439,
            "duration": 3.421
        },
        {
            "text": "and handing it off to the partner then",
            "start": 252.239,
            "duration": 3.36
        },
        {
            "text": "the partner actually puts it on the TV",
            "start": 253.86,
            "duration": 4.559
        },
        {
            "text": "right and so we have like some basic",
            "start": 255.599,
            "duration": 4.621
        },
        {
            "text": "what we call like interfaces that we",
            "start": 258.419,
            "duration": 3.241
        },
        {
            "text": "kind of communicate through and that's",
            "start": 260.22,
            "duration": 3.72
        },
        {
            "text": "just what happens and so Reggie was",
            "start": 261.66,
            "duration": 4.5
        },
        {
            "text": "written in JavaScript to create all this",
            "start": 263.94,
            "duration": 4.68
        },
        {
            "text": "stuff and then what I did is I created a",
            "start": 266.16,
            "duration": 4.5
        },
        {
            "text": "fake partner I created me I was my own",
            "start": 268.62,
            "duration": 4.44
        },
        {
            "text": "partner right and so I had another one",
            "start": 270.66,
            "duration": 3.96
        },
        {
            "text": "the regisync",
            "start": 273.06,
            "duration": 4.199
        },
        {
            "text": "and the registync ooVoo and what it",
            "start": 274.62,
            "duration": 4.139
        },
        {
            "text": "would do is it would receive all these",
            "start": 277.259,
            "duration": 3.061
        },
        {
            "text": "packets and keep a bunch of math",
            "start": 278.759,
            "duration": 4.321
        },
        {
            "text": "statistics around effectively it's just",
            "start": 280.32,
            "duration": 4.92
        },
        {
            "text": "a big giant running dynamic programming",
            "start": 283.08,
            "duration": 4.44
        },
        {
            "text": "where the JavaScript would emit one",
            "start": 285.24,
            "duration": 3.42
        },
        {
            "text": "frame",
            "start": 287.52,
            "duration": 3.959
        },
        {
            "text": "right so I would emit one frame",
            "start": 288.66,
            "duration": 4.86
        },
        {
            "text": "uh oh it says one framework of data of",
            "start": 291.479,
            "duration": 3.901
        },
        {
            "text": "both audio and video and we could put",
            "start": 293.52,
            "duration": 3.72
        },
        {
            "text": "like I could make it so that it comes in",
            "start": 295.38,
            "duration": 3.9
        },
        {
            "text": "varying amounts how much uh effect was",
            "start": 297.24,
            "duration": 4.2
        },
        {
            "text": "going to be happening all sorts of fun",
            "start": 299.28,
            "duration": 4.02
        },
        {
            "text": "stuff would happen it would get this one",
            "start": 301.44,
            "duration": 3.78
        },
        {
            "text": "frame the one frame would then be passed",
            "start": 303.3,
            "duration": 3.959
        },
        {
            "text": "over to Reggie Reggie would take this",
            "start": 305.22,
            "duration": 5.64
        },
        {
            "text": "one frame and be like okay I'm at id1",
            "start": 307.259,
            "duration": 7.201
        },
        {
            "text": "uh I have uh it came at the time stamp",
            "start": 310.86,
            "duration": 6.3
        },
        {
            "text": "of X that means and I have this much",
            "start": 314.46,
            "duration": 4.799
        },
        {
            "text": "video buffer right I have this much",
            "start": 317.16,
            "duration": 4.38
        },
        {
            "text": "video buffer right why I have this much",
            "start": 319.259,
            "duration": 4.021
        },
        {
            "text": "audio buffer",
            "start": 321.54,
            "duration": 3.96
        },
        {
            "text": "uh right so I'd have all these stats",
            "start": 323.28,
            "duration": 5.34
        },
        {
            "text": "kind of there and then what I would do",
            "start": 325.5,
            "duration": 5.82
        },
        {
            "text": "is that I would then query from",
            "start": 328.62,
            "duration": 5.16
        },
        {
            "text": "JavaScript and be like hey",
            "start": 331.32,
            "duration": 5.04
        },
        {
            "text": "does Reggie Reggie do you have here how",
            "start": 333.78,
            "duration": 3.72
        },
        {
            "text": "do I do a little break I don't know how",
            "start": 336.36,
            "duration": 2.88
        },
        {
            "text": "to do this little break thing there we",
            "start": 337.5,
            "duration": 2.58
        },
        {
            "text": "go",
            "start": 339.24,
            "duration": 3.84
        },
        {
            "text": "I I would query here and say hey what id",
            "start": 340.08,
            "duration": 6.54
        },
        {
            "text": "are you what id are you and the moment",
            "start": 343.08,
            "duration": 8.24
        },
        {
            "text": "it got one which is the one I just sent",
            "start": 346.62,
            "duration": 4.7
        },
        {
            "text": "I send another frame",
            "start": 351.78,
            "duration": 3.96
        },
        {
            "text": "and",
            "start": 354.18,
            "duration": 4.56
        },
        {
            "text": "I also update the time of the system I",
            "start": 355.74,
            "duration": 4.44
        },
        {
            "text": "send another message where I update the",
            "start": 358.74,
            "duration": 4.019
        },
        {
            "text": "time of the system and I just say hey",
            "start": 360.18,
            "duration": 6.12
        },
        {
            "text": "let's pretend that we're currently at",
            "start": 362.759,
            "duration": 6.741
        },
        {
            "text": "time uh we're we're at time plus X Plus",
            "start": 366.3,
            "duration": 6.119
        },
        {
            "text": "16.66 or whatever our our thing is right",
            "start": 369.5,
            "duration": 4.96
        },
        {
            "text": "whatever the speed is and so I'd up",
            "start": 372.419,
            "duration": 4.261
        },
        {
            "text": "update the time virtually then I'd send",
            "start": 374.46,
            "duration": 4.44
        },
        {
            "text": "a new frame update update the time",
            "start": 376.68,
            "duration": 3.959
        },
        {
            "text": "virtually send a new frame and we'd",
            "start": 378.9,
            "duration": 3.419
        },
        {
            "text": "accumulate all the stats here and I just",
            "start": 380.639,
            "duration": 3.661
        },
        {
            "text": "run as fast as I possibly can through",
            "start": 382.319,
            "duration": 3.66
        },
        {
            "text": "this which means I was running as much",
            "start": 384.3,
            "duration": 3.3
        },
        {
            "text": "data as possible as fast we could to",
            "start": 385.979,
            "duration": 3.78
        },
        {
            "text": "like test out our c plus layer and not",
            "start": 387.6,
            "duration": 4.319
        },
        {
            "text": "only that but I could create situations",
            "start": 389.759,
            "duration": 4.201
        },
        {
            "text": "right let's say the internet dipped out",
            "start": 391.919,
            "duration": 4.261
        },
        {
            "text": "for a second what would happen what",
            "start": 393.96,
            "duration": 3.72
        },
        {
            "text": "would what would this layer do right",
            "start": 396.18,
            "duration": 3.0
        },
        {
            "text": "here would this layer do all the correct",
            "start": 397.68,
            "duration": 4.44
        },
        {
            "text": "things we do all the required stuff and",
            "start": 399.18,
            "duration": 4.5
        },
        {
            "text": "it was very very fun and so this is kind",
            "start": 402.12,
            "duration": 2.94
        },
        {
            "text": "of like my project right there this was",
            "start": 403.68,
            "duration": 4.079
        },
        {
            "text": "Reggie the most reliable Pacer very very",
            "start": 405.06,
            "duration": 4.859
        },
        {
            "text": "fun a lot of science went into this one",
            "start": 407.759,
            "duration": 3.841
        },
        {
            "text": "and so this one what I could do is I",
            "start": 409.919,
            "duration": 3.78
        },
        {
            "text": "could take the client and just Ram rot",
            "start": 411.6,
            "duration": 3.599
        },
        {
            "text": "it as fast as I can see how much memory",
            "start": 413.699,
            "duration": 3.0
        },
        {
            "text": "is produced and how much stuff is used",
            "start": 415.199,
            "duration": 5.101
        },
        {
            "text": "and are we overflowing uh audio is audio",
            "start": 416.699,
            "duration": 6.0
        },
        {
            "text": "being handed off properly or are we not",
            "start": 420.3,
            "duration": 4.26
        },
        {
            "text": "not doing the right thing if audio dips",
            "start": 422.699,
            "duration": 4.141
        },
        {
            "text": "below and we accidentally go to zero",
            "start": 424.56,
            "duration": 4.38
        },
        {
            "text": "what does the C plus plus layer do does",
            "start": 426.84,
            "duration": 4.5
        },
        {
            "text": "the does the C plus plus layer properly",
            "start": 428.94,
            "duration": 4.56
        },
        {
            "text": "cue up enough audio to send it again",
            "start": 431.34,
            "duration": 3.359
        },
        {
            "text": "because also if you don't know about",
            "start": 433.5,
            "duration": 2.94
        },
        {
            "text": "also or a lot of these things like they",
            "start": 434.699,
            "duration": 3.961
        },
        {
            "text": "require 20 millisecond chunks you can't",
            "start": 436.44,
            "duration": 3.96
        },
        {
            "text": "just send 10 milliseconds and you have",
            "start": 438.66,
            "duration": 3.3
        },
        {
            "text": "to do 20 milliseconds and each one of",
            "start": 440.4,
            "duration": 3.359
        },
        {
            "text": "these packets are 20 milliseconds by the",
            "start": 441.96,
            "duration": 4.32
        },
        {
            "text": "way writing your own oh like uh Opus",
            "start": 443.759,
            "duration": 5.16
        },
        {
            "text": "encoding for silence or just like a beep",
            "start": 446.28,
            "duration": 4.38
        },
        {
            "text": "beep beep beep beep beep it's really",
            "start": 448.919,
            "duration": 3.301
        },
        {
            "text": "annoying you know what I mean it's not a",
            "start": 450.66,
            "duration": 3.18
        },
        {
            "text": "fun task to do you have to go figure it",
            "start": 452.22,
            "duration": 3.36
        },
        {
            "text": "out and get stuff sent in and make audio",
            "start": 453.84,
            "duration": 3.66
        },
        {
            "text": "actually be audio and all that fun stuff",
            "start": 455.58,
            "duration": 4.26
        },
        {
            "text": "because Reggie would also work",
            "start": 457.5,
            "duration": 4.56
        },
        {
            "text": "in real time as well meaning that I",
            "start": 459.84,
            "duration": 4.259
        },
        {
            "text": "could just send audio and video as fast",
            "start": 462.06,
            "duration": 5.16
        },
        {
            "text": "as I can into it into a ffmpeg player",
            "start": 464.099,
            "duration": 7.1
        },
        {
            "text": "that's really really fast a lot of fun",
            "start": 467.22,
            "duration": 3.979
        },
        {
            "text": "uh",
            "start": 471.419,
            "duration": 3.84
        },
        {
            "text": "it's very very fantastic uh someone's",
            "start": 472.86,
            "duration": 4.02
        },
        {
            "text": "asked you why not send real time why not",
            "start": 475.259,
            "duration": 3.541
        },
        {
            "text": "do real time blah blah blah blah and all",
            "start": 476.88,
            "duration": 3.599
        },
        {
            "text": "this kind of stuff the reason why it",
            "start": 478.8,
            "duration": 2.94
        },
        {
            "text": "would suck to do anything that's not",
            "start": 480.479,
            "duration": 3.301
        },
        {
            "text": "real time is that you can't test stuff",
            "start": 481.74,
            "duration": 4.26
        },
        {
            "text": "fast enough right I want to be able to",
            "start": 483.78,
            "duration": 4.44
        },
        {
            "text": "test every situation and I want to be",
            "start": 486.0,
            "duration": 4.86
        },
        {
            "text": "able to run CI in under 20 seconds",
            "start": 488.22,
            "duration": 4.86
        },
        {
            "text": "right I want to be able to play an hour",
            "start": 490.86,
            "duration": 4.44
        },
        {
            "text": "of video I want to be able to do that",
            "start": 493.08,
            "duration": 4.14
        },
        {
            "text": "one time where I drop audio I want to do",
            "start": 495.3,
            "duration": 3.66
        },
        {
            "text": "that one time where I drop video I want",
            "start": 497.22,
            "duration": 3.419
        },
        {
            "text": "to do that one time where I drop audio a",
            "start": 498.96,
            "duration": 3.0
        },
        {
            "text": "bunch of times I want to be able to do a",
            "start": 500.639,
            "duration": 2.46
        },
        {
            "text": "whole bunch of different things really",
            "start": 501.96,
            "duration": 2.82
        },
        {
            "text": "really really really really fast and it",
            "start": 503.099,
            "duration": 3.54
        },
        {
            "text": "has to work with our system I don't care",
            "start": 504.78,
            "duration": 3.419
        },
        {
            "text": "about DDS because it doesn't work with",
            "start": 506.639,
            "duration": 3.721
        },
        {
            "text": "our system you know I have to make it go",
            "start": 508.199,
            "duration": 3.601
        },
        {
            "text": "through TV and all this fun stuff you",
            "start": 510.36,
            "duration": 3.0
        },
        {
            "text": "know what I mean so I have to hack time",
            "start": 511.8,
            "duration": 4.08
        },
        {
            "text": "and make it work within our bounds I",
            "start": 513.36,
            "duration": 4.32
        },
        {
            "text": "can't make it I can't just why would I",
            "start": 515.88,
            "duration": 2.94
        },
        {
            "text": "use something else you know what I mean",
            "start": 517.68,
            "duration": 3.299
        },
        {
            "text": "I have to have direct ties into the C",
            "start": 518.82,
            "duration": 5.76
        },
        {
            "text": "plus layer it has to run directly in",
            "start": 520.979,
            "duration": 6.601
        },
        {
            "text": "JavaScript right and so it's a lot of",
            "start": 524.58,
            "duration": 4.8
        },
        {
            "text": "fun",
            "start": 527.58,
            "duration": 4.86
        },
        {
            "text": "um any backstory and lore yeah the most",
            "start": 529.38,
            "duration": 7.56
        },
        {
            "text": "reliable Pacer that is it I was watching",
            "start": 532.44,
            "duration": 6.3
        },
        {
            "text": "a documentary that featured Reggie",
            "start": 536.94,
            "duration": 2.64
        },
        {
            "text": "Miller",
            "start": 538.74,
            "duration": 2.94
        },
        {
            "text": "and Reggie Miller was just a really cool",
            "start": 539.58,
            "duration": 4.02
        },
        {
            "text": "guy he was like a really nice guy I",
            "start": 541.68,
            "duration": 3.26
        },
        {
            "text": "liked him I thought it was pretty cool",
            "start": 543.6,
            "duration": 4.739
        },
        {
            "text": "and so watching Reggie Miller and all of",
            "start": 544.94,
            "duration": 4.66
        },
        {
            "text": "a sudden I have to build something that",
            "start": 548.339,
            "duration": 3.961
        },
        {
            "text": "Paces packets in it was just natural to",
            "start": 549.6,
            "duration": 6.48
        },
        {
            "text": "have Reggie Miller Reggie right",
            "start": 552.3,
            "duration": 5.46
        },
        {
            "text": "it was a lot of fun so that's the first",
            "start": 556.08,
            "duration": 2.879
        },
        {
            "text": "thing we built",
            "start": 557.76,
            "duration": 3.48
        },
        {
            "text": "um the next thing the next thing I did",
            "start": 558.959,
            "duration": 3.961
        },
        {
            "text": "was a whole bunch of stuff that involved",
            "start": 561.24,
            "duration": 4.68
        },
        {
            "text": "uh all of this data that's happening",
            "start": 562.92,
            "duration": 5.94
        },
        {
            "text": "how do we know like is how do we know",
            "start": 565.92,
            "duration": 5.7
        },
        {
            "text": "Forward Air correction is working in the",
            "start": 568.86,
            "duration": 5.28
        },
        {
            "text": "field not theoretically in a made-up",
            "start": 571.62,
            "duration": 4.86
        },
        {
            "text": "situation but how do we validate that",
            "start": 574.14,
            "duration": 4.92
        },
        {
            "text": "it's working in real time in real life",
            "start": 576.48,
            "duration": 5.82
        },
        {
            "text": "on people's computers right are we",
            "start": 579.06,
            "duration": 5.219
        },
        {
            "text": "actually error correcting are we",
            "start": 582.3,
            "duration": 4.74
        },
        {
            "text": "actually doing anything correct or are",
            "start": 584.279,
            "duration": 4.861
        },
        {
            "text": "we just like completely driving blind",
            "start": 587.04,
            "duration": 4.2
        },
        {
            "text": "and so my next goal was to effectively",
            "start": 589.14,
            "duration": 4.92
        },
        {
            "text": "drive a lot of this this area of just",
            "start": 591.24,
            "duration": 4.8
        },
        {
            "text": "like okay how do we know what we're",
            "start": 594.06,
            "duration": 3.3
        },
        {
            "text": "doing right and how do we know what",
            "start": 596.04,
            "duration": 3.419
        },
        {
            "text": "we're doing wrong [\u00a0__\u00a0] uh Forward Air",
            "start": 597.36,
            "duration": 3.36
        },
        {
            "text": "correction you can just look it up it's",
            "start": 599.459,
            "duration": 3.781
        },
        {
            "text": "pretty easy ulp Ford air correcting",
            "start": 600.72,
            "duration": 5.119
        },
        {
            "text": "right",
            "start": 603.24,
            "duration": 2.599
        },
        {
            "text": "there's a whole bunch on this kind of",
            "start": 606.06,
            "duration": 3.12
        },
        {
            "text": "stuff right they're very very simple",
            "start": 607.74,
            "duration": 2.94
        },
        {
            "text": "there's also Reid Solomon there's all",
            "start": 609.18,
            "duration": 3.0
        },
        {
            "text": "these other ones you know",
            "start": 610.68,
            "duration": 3.24
        },
        {
            "text": "uh and then by the way if someone",
            "start": 612.18,
            "duration": 3.0
        },
        {
            "text": "doesn't like the name Reggie and they",
            "start": 613.92,
            "duration": 2.64
        },
        {
            "text": "don't like basketball I just tell them",
            "start": 615.18,
            "duration": 2.7
        },
        {
            "text": "that it's named after Reginald",
            "start": 616.56,
            "duration": 4.44
        },
        {
            "text": "Hargreaves Hargreaves of the worst show",
            "start": 617.88,
            "duration": 6.54
        },
        {
            "text": "ever the Umbrella Academy",
            "start": 621.0,
            "duration": 5.16
        },
        {
            "text": "uh it's just a blueprint or is to have",
            "start": 624.42,
            "duration": 2.88
        },
        {
            "text": "some implementation oh it has",
            "start": 626.16,
            "duration": 2.58
        },
        {
            "text": "implementation and it was mostly a",
            "start": 627.3,
            "duration": 2.94
        },
        {
            "text": "blueprint I didn't Implement any of the",
            "start": 628.74,
            "duration": 4.14
        },
        {
            "text": "the stat stuff I just simply used the",
            "start": 630.24,
            "duration": 4.5
        },
        {
            "text": "stat stuff build Tools around it and",
            "start": 632.88,
            "duration": 3.899
        },
        {
            "text": "kind of draw and drove people to do the",
            "start": 634.74,
            "duration": 3.9
        },
        {
            "text": "right stuff like I defined a lot of the",
            "start": 636.779,
            "duration": 3.18
        },
        {
            "text": "status events that are going to be",
            "start": 638.64,
            "duration": 3.78
        },
        {
            "text": "coming off the ocgas that's the open",
            "start": 639.959,
            "duration": 4.741
        },
        {
            "text": "connect gaming machines right so our",
            "start": 642.42,
            "duration": 4.62
        },
        {
            "text": "gaming machines you know since we're",
            "start": 644.7,
            "duration": 4.62
        },
        {
            "text": "doing uh RTP they receive basic",
            "start": 647.04,
            "duration": 4.14
        },
        {
            "text": "statistical things about like what's",
            "start": 649.32,
            "duration": 3.72
        },
        {
            "text": "happening how good is our Network how",
            "start": 651.18,
            "duration": 3.719
        },
        {
            "text": "often is it dropping how often are we",
            "start": 653.04,
            "duration": 3.299
        },
        {
            "text": "doing this how often are we doing that",
            "start": 654.899,
            "duration": 3.901
        },
        {
            "text": "all the kind of just basic stuff I took",
            "start": 656.339,
            "duration": 3.721
        },
        {
            "text": "all of that",
            "start": 658.8,
            "duration": 3.539
        },
        {
            "text": "and was just like okay here's the stats",
            "start": 660.06,
            "duration": 3.719
        },
        {
            "text": "that I really think are useful here's",
            "start": 662.339,
            "duration": 3.18
        },
        {
            "text": "the stats I really think are useful I",
            "start": 663.779,
            "duration": 3.481
        },
        {
            "text": "like the idea of the Umbrella Academy it",
            "start": 665.519,
            "duration": 3.841
        },
        {
            "text": "just it just kept it just",
            "start": 667.26,
            "duration": 3.84
        },
        {
            "text": "it was a show that could have been made",
            "start": 669.36,
            "duration": 4.76
        },
        {
            "text": "in half the amount of episodes",
            "start": 671.1,
            "duration": 3.02
        },
        {
            "text": "how do you learn all these things you",
            "start": 674.16,
            "duration": 3.619
        },
        {
            "text": "just do it",
            "start": 675.3,
            "duration": 2.479
        },
        {
            "text": "Umbrella Academy",
            "start": 678.3,
            "duration": 2.58
        },
        {
            "text": "could have been made in half the",
            "start": 679.5,
            "duration": 3.62
        },
        {
            "text": "episodes",
            "start": 680.88,
            "duration": 2.24
        },
        {
            "text": "um that's pretty much it",
            "start": 683.16,
            "duration": 3.56
        },
        {
            "text": "and I think I can't even remember but",
            "start": 687.0,
            "duration": 2.399
        },
        {
            "text": "five",
            "start": 688.44,
            "duration": 3.54
        },
        {
            "text": "five the the little kid he was the only",
            "start": 689.399,
            "duration": 4.921
        },
        {
            "text": "he was the only likable character the",
            "start": 691.98,
            "duration": 4.68
        },
        {
            "text": "rest I just found so unlikable I love",
            "start": 694.32,
            "duration": 4.199
        },
        {
            "text": "your content rekindled my love for hobby",
            "start": 696.66,
            "duration": 4.02
        },
        {
            "text": "programming nice okay cool",
            "start": 698.519,
            "duration": 3.961
        },
        {
            "text": "uh how do you prioritize packets on",
            "start": 700.68,
            "duration": 3.48
        },
        {
            "text": "network failure hiccups so that's what",
            "start": 702.48,
            "duration": 2.82
        },
        {
            "text": "we're going to be doing things with like",
            "start": 704.16,
            "duration": 3.359
        },
        {
            "text": "FEC FEC should hopefully do it you also",
            "start": 705.3,
            "duration": 4.26
        },
        {
            "text": "have RTX RTX does that but if none of",
            "start": 707.519,
            "duration": 4.981
        },
        {
            "text": "this works if you're delivering video at",
            "start": 709.56,
            "duration": 4.26
        },
        {
            "text": "some point if things aren't working you",
            "start": 712.5,
            "duration": 3.12
        },
        {
            "text": "just redeliver what is referred to as an",
            "start": 713.82,
            "duration": 4.92
        },
        {
            "text": "IDR frame uh and an IDR frame contains",
            "start": 715.62,
            "duration": 4.86
        },
        {
            "text": "the full video and so then you start",
            "start": 718.74,
            "duration": 3.24
        },
        {
            "text": "doing the relative frames from there",
            "start": 720.48,
            "duration": 2.359
        },
        {
            "text": "right",
            "start": 721.98,
            "duration": 3.539
        },
        {
            "text": "so you just you just need one big frame",
            "start": 722.839,
            "duration": 4.901
        },
        {
            "text": "if things start falling apart you know",
            "start": 725.519,
            "duration": 4.521
        },
        {
            "text": "what I mean",
            "start": 727.74,
            "duration": 2.3
        },
        {
            "text": "we'll be open source absolutely not",
            "start": 730.8,
            "duration": 5.4
        },
        {
            "text": "absolutely absolutely not so anyways",
            "start": 733.56,
            "duration": 5.219
        },
        {
            "text": "that's that and so the the stats part",
            "start": 736.2,
            "duration": 4.02
        },
        {
            "text": "which I've been working on because a big",
            "start": 738.779,
            "duration": 3.961
        },
        {
            "text": "problem we are having next is that every",
            "start": 740.22,
            "duration": 3.72
        },
        {
            "text": "single time",
            "start": 742.74,
            "duration": 3.48
        },
        {
            "text": "we would do anything as we're just",
            "start": 743.94,
            "duration": 5.06
        },
        {
            "text": "starting to test",
            "start": 746.22,
            "duration": 2.78
        },
        {
            "text": "how do we know a game failed how do we",
            "start": 749.7,
            "duration": 3.78
        },
        {
            "text": "know that anything went wrong so I just",
            "start": 751.86,
            "duration": 3.419
        },
        {
            "text": "took all of our data sources and built a",
            "start": 753.48,
            "duration": 4.26
        },
        {
            "text": "rapid triager that would tell us what's",
            "start": 755.279,
            "duration": 3.961
        },
        {
            "text": "failing and where is it failing and",
            "start": 757.74,
            "duration": 4.38
        },
        {
            "text": "who's to blame is it the client is it",
            "start": 759.24,
            "duration": 4.92
        },
        {
            "text": "the server is it the network like what",
            "start": 762.12,
            "duration": 4.5
        },
        {
            "text": "caused the problem and what was the",
            "start": 764.16,
            "duration": 3.78
        },
        {
            "text": "problem because people often would just",
            "start": 766.62,
            "duration": 3.839
        },
        {
            "text": "be like my game was really bad audio was",
            "start": 767.94,
            "duration": 4.92
        },
        {
            "text": "really bad video seemed a little chunky",
            "start": 770.459,
            "duration": 4.5
        },
        {
            "text": "this right they'd give us some verbal",
            "start": 772.86,
            "duration": 3.84
        },
        {
            "text": "description and we'd have to go figure",
            "start": 774.959,
            "duration": 3.241
        },
        {
            "text": "out what the hell happened so I just",
            "start": 776.7,
            "duration": 4.079
        },
        {
            "text": "take all the data every last thing and",
            "start": 778.2,
            "duration": 4.74
        },
        {
            "text": "then just be like oh your audio is bad",
            "start": 780.779,
            "duration": 3.661
        },
        {
            "text": "yeah look at your network like look at",
            "start": 782.94,
            "duration": 2.76
        },
        {
            "text": "these look at these Network times right",
            "start": 784.44,
            "duration": 3.48
        },
        {
            "text": "here you totally just chunked out are",
            "start": 785.7,
            "duration": 4.139
        },
        {
            "text": "you on the VPN oh you're on the VPN",
            "start": 787.92,
            "duration": 4.14
        },
        {
            "text": "you're on the VPN and you're at your",
            "start": 789.839,
            "duration": 4.321
        },
        {
            "text": "house and you have bad internet yeah",
            "start": 792.06,
            "duration": 3.779
        },
        {
            "text": "that's this I mean this makes sense this",
            "start": 794.16,
            "duration": 3.119
        },
        {
            "text": "is why what happened what happened right",
            "start": 795.839,
            "duration": 2.161
        },
        {
            "text": "like",
            "start": 797.279,
            "duration": 3.421
        },
        {
            "text": "you know do that",
            "start": 798.0,
            "duration": 4.62
        },
        {
            "text": "yeah so it was a lot of fun like those",
            "start": 800.7,
            "duration": 3.54
        },
        {
            "text": "kind of things were a lot of fun and so",
            "start": 802.62,
            "duration": 4.019
        },
        {
            "text": "it's all ocga work it's all like what",
            "start": 804.24,
            "duration": 4.74
        },
        {
            "text": "our servers receive and send it was kind",
            "start": 806.639,
            "duration": 4.38
        },
        {
            "text": "of fun you know and then we had a whole",
            "start": 808.98,
            "duration": 3.539
        },
        {
            "text": "bunch of problems like Json we were",
            "start": 811.019,
            "duration": 3.421
        },
        {
            "text": "using the first version was using Json",
            "start": 812.519,
            "duration": 5.281
        },
        {
            "text": "to pass events we literally just",
            "start": 814.44,
            "duration": 5.82
        },
        {
            "text": "caved the game server encoding and",
            "start": 817.8,
            "duration": 4.8
        },
        {
            "text": "decoding or just encoding Json",
            "start": 820.26,
            "duration": 5.28
        },
        {
            "text": "that's it just encoding Json completely",
            "start": 822.6,
            "duration": 5.88
        },
        {
            "text": "cave to the game server so then it went",
            "start": 825.54,
            "duration": 5.16
        },
        {
            "text": "into protobufs and then we got some go",
            "start": 828.48,
            "duration": 5.94
        },
        {
            "text": "uh zero allocation or like zero garbage",
            "start": 830.7,
            "duration": 6.42
        },
        {
            "text": "generating uh Proto Buffs very very cool",
            "start": 834.42,
            "duration": 4.68
        },
        {
            "text": "that really helped the whole servers run",
            "start": 837.12,
            "duration": 4.2
        },
        {
            "text": "nice you know",
            "start": 839.1,
            "duration": 3.419
        },
        {
            "text": "it was fun",
            "start": 841.32,
            "duration": 3.78
        },
        {
            "text": "it was a lot of fun I enjoyed it",
            "start": 842.519,
            "duration": 5.281
        },
        {
            "text": "I worked on all my stuff alone yeah but",
            "start": 845.1,
            "duration": 3.78
        },
        {
            "text": "you know I worked with a lot of people",
            "start": 847.8,
            "duration": 2.88
        },
        {
            "text": "to get things going",
            "start": 848.88,
            "duration": 3.36
        },
        {
            "text": "um to get things out there running not",
            "start": 850.68,
            "duration": 3.48
        },
        {
            "text": "memory Arenas no uh there's there's some",
            "start": 852.24,
            "duration": 3.719
        },
        {
            "text": "cool Go stuff that does these like zero",
            "start": 854.16,
            "duration": 5.22
        },
        {
            "text": "allocation uh protobuf stuff",
            "start": 855.959,
            "duration": 5.101
        },
        {
            "text": "it was fun it was a good time I really",
            "start": 859.38,
            "duration": 3.54
        },
        {
            "text": "enjoyed it and so we were just",
            "start": 861.06,
            "duration": 3.3
        },
        {
            "text": "doing that and I still got a little bit",
            "start": 862.92,
            "duration": 3.419
        },
        {
            "text": "I got one last thing I got to do which",
            "start": 864.36,
            "duration": 3.479
        },
        {
            "text": "is I just got to do one more of these",
            "start": 866.339,
            "duration": 2.761
        },
        {
            "text": "little data things and then I'm pretty",
            "start": 867.839,
            "duration": 2.881
        },
        {
            "text": "much off the project and I'm on to my",
            "start": 869.1,
            "duration": 5.96
        },
        {
            "text": "next project which involves react",
            "start": 870.72,
            "duration": 4.34
        },
        {
            "text": "but it does involve subverting react",
            "start": 878.279,
            "duration": 5.461
        },
        {
            "text": "so that's pretty fun I mean that part's",
            "start": 881.22,
            "duration": 4.08
        },
        {
            "text": "pretty cool",
            "start": 883.74,
            "duration": 3.899
        },
        {
            "text": "so I'm happy about that one you know",
            "start": 885.3,
            "duration": 4.14
        },
        {
            "text": "what I mean you know what I mean it does",
            "start": 887.639,
            "duration": 5.161
        },
        {
            "text": "it does involve making reacts become not",
            "start": 889.44,
            "duration": 5.22
        },
        {
            "text": "react right and so it was pretty",
            "start": 892.8,
            "duration": 3.96
        },
        {
            "text": "exciting I'm pretty excited about that",
            "start": 894.66,
            "duration": 3.539
        },
        {
            "text": "part actually I actually really like the",
            "start": 896.76,
            "duration": 2.699
        },
        {
            "text": "thing and guess what I get to build an",
            "start": 898.199,
            "duration": 2.88
        },
        {
            "text": "LSP for it so I'm going to be building",
            "start": 899.459,
            "duration": 3.781
        },
        {
            "text": "an LSP got a little you have to write a",
            "start": 901.079,
            "duration": 3.361
        },
        {
            "text": "lot of rust you got to write a lot of",
            "start": 903.24,
            "duration": 3.24
        },
        {
            "text": "JavaScript uh",
            "start": 904.44,
            "duration": 4.98
        },
        {
            "text": "yeah it's been fun it's been fun anyways",
            "start": 906.48,
            "duration": 5.58
        },
        {
            "text": "the name hey is I did you know I work at",
            "start": 909.42,
            "duration": 5.18
        },
        {
            "text": "Netflix again",
            "start": 912.06,
            "duration": 2.54
        }
    ],
    "stats": {
        "viewCount": "173577",
        "likeCount": "4685",
        "favoriteCount": "0",
        "commentCount": "242"
    }
}