{
    "id": "AXu80DFt4jU",
    "title": "Recruiter Horror Story | Prime Reacts",
    "publishedAt": "2024-04-05T21:46:35Z",
    "captions": [
        {
            "text": "okay I did see this I think this is very",
            "start": 0.16,
            "duration": 3.239
        },
        {
            "text": "interesting let's just take a quick",
            "start": 2.08,
            "duration": 2.52
        },
        {
            "text": "little looky at this one I just",
            "start": 3.399,
            "duration": 2.521
        },
        {
            "text": "experienced a recruiter Horror Story",
            "start": 4.6,
            "duration": 3.4
        },
        {
            "text": "today he sent one email that included",
            "start": 5.92,
            "duration": 3.759
        },
        {
            "text": "the time and the meeting Outlook made",
            "start": 8.0,
            "duration": 4.4
        },
        {
            "text": "from it it was indeed for five uh he",
            "start": 9.679,
            "duration": 4.16
        },
        {
            "text": "created an entire novel in his head",
            "start": 12.4,
            "duration": 3.04
        },
        {
            "text": "about me uh by the way if you do a",
            "start": 13.839,
            "duration": 2.681
        },
        {
            "text": "picture like this you should also",
            "start": 15.44,
            "duration": 3.44
        },
        {
            "text": "include the email just so people people",
            "start": 16.52,
            "duration": 4.2
        },
        {
            "text": "have the context and second I just have",
            "start": 18.88,
            "duration": 4.239
        },
        {
            "text": "a quick question he created an email did",
            "start": 20.72,
            "duration": 4.0
        },
        {
            "text": "was there not like a meeting was there",
            "start": 23.119,
            "duration": 3.0
        },
        {
            "text": "not like a calendar meeting if there was",
            "start": 24.72,
            "duration": 3.76
        },
        {
            "text": "no calendar meeting such that you have a",
            "start": 26.119,
            "duration": 4.32
        },
        {
            "text": "place to go and join it' be crazy",
            "start": 28.48,
            "duration": 4.599
        },
        {
            "text": "because this is crazy what happens here",
            "start": 30.439,
            "duration": 4.521
        },
        {
            "text": "but right away like if you were like",
            "start": 33.079,
            "duration": 4.521
        },
        {
            "text": "real talk if you got an invite to do an",
            "start": 34.96,
            "duration": 5.36
        },
        {
            "text": "interview and there was no invite like",
            "start": 37.6,
            "duration": 5.0
        },
        {
            "text": "to an okay there was no calendar meeting",
            "start": 40.32,
            "duration": 6.28
        },
        {
            "text": "that's crazy like that's insane to be",
            "start": 42.6,
            "duration": 6.68
        },
        {
            "text": "like yo bro let's have a meeting we're",
            "start": 46.6,
            "duration": 5.599
        },
        {
            "text": "going to meet here at 5: you're like",
            "start": 49.28,
            "duration": 4.2
        },
        {
            "text": "where are we going to meet call this",
            "start": 52.199,
            "duration": 3.04
        },
        {
            "text": "number you're like damn that's kind of",
            "start": 53.48,
            "duration": 3.0
        },
        {
            "text": "strange why don't we just make like a",
            "start": 55.239,
            "duration": 2.64
        },
        {
            "text": "calendar invite where we can work",
            "start": 56.48,
            "duration": 3.16
        },
        {
            "text": "together on this one n dog just call",
            "start": 57.879,
            "duration": 4.0
        },
        {
            "text": "this number 5:00 you're just like my",
            "start": 59.64,
            "duration": 4.879
        },
        {
            "text": "5:00 your 5:00 which 5:00 are we talking",
            "start": 61.879,
            "duration": 5.441
        },
        {
            "text": "about anyways uh the the absence of an",
            "start": 64.519,
            "duration": 4.841
        },
        {
            "text": "invite calendar is crazy right all right",
            "start": 67.32,
            "duration": 4.24
        },
        {
            "text": "Amed why did you no show to your",
            "start": 69.36,
            "duration": 5.079
        },
        {
            "text": "interview with blah today hello did the",
            "start": 71.56,
            "duration": 4.08
        },
        {
            "text": "time get changed I have it on my",
            "start": 74.439,
            "duration": 4.241
        },
        {
            "text": "calendar for 5 Eastern in 30 minutes you",
            "start": 75.64,
            "duration": 5.92
        },
        {
            "text": "are an idiot and super unreliable by the",
            "start": 78.68,
            "duration": 7.36
        },
        {
            "text": "way that's crazy response I had somebody",
            "start": 81.56,
            "duration": 7.4
        },
        {
            "text": "recently tried to give me a contract to",
            "start": 86.04,
            "duration": 5.16
        },
        {
            "text": "work with them that would effectively",
            "start": 88.96,
            "duration": 5.4
        },
        {
            "text": "take all of everything I worked on and",
            "start": 91.2,
            "duration": 5.84
        },
        {
            "text": "make it their property like anything I",
            "start": 94.36,
            "duration": 5.16
        },
        {
            "text": "worked on any tool that I used and that",
            "start": 97.04,
            "duration": 5.439
        },
        {
            "text": "I would have no rights to it now do you",
            "start": 99.52,
            "duration": 4.959
        },
        {
            "text": "want to guess how I responded to that",
            "start": 102.479,
            "duration": 4.6
        },
        {
            "text": "contract well I find that this contract",
            "start": 104.479,
            "duration": 4.401
        },
        {
            "text": "overreaches a little bit on what it",
            "start": 107.079,
            "duration": 3.201
        },
        {
            "text": "allows for you to take and for what me",
            "start": 108.88,
            "duration": 2.8
        },
        {
            "text": "to take I think we need to go back to",
            "start": 110.28,
            "duration": 3.439
        },
        {
            "text": "the drawing board and be able to rehash",
            "start": 111.68,
            "duration": 4.439
        },
        {
            "text": "out what needs to be done here what I",
            "start": 113.719,
            "duration": 5.841
        },
        {
            "text": "didn't do is go yo you guys are [\u00a0__\u00a0]",
            "start": 116.119,
            "duration": 5.68
        },
        {
            "text": "Cor corupt what's wrong with you dumb",
            "start": 119.56,
            "duration": 5.68
        },
        {
            "text": "asses right like nobody does that nobody",
            "start": 121.799,
            "duration": 4.68
        },
        {
            "text": "does that because you got to be you got",
            "start": 125.24,
            "duration": 2.92
        },
        {
            "text": "to think ahead you know there's like a",
            "start": 126.479,
            "duration": 4.2
        },
        {
            "text": "bridge okay it doesn't matter how much",
            "start": 128.16,
            "duration": 6.079
        },
        {
            "text": "you think they're being dumb you always",
            "start": 130.679,
            "duration": 6.56
        },
        {
            "text": "respond nicely right no matter no matter",
            "start": 134.239,
            "duration": 4.841
        },
        {
            "text": "what it is you should always respond",
            "start": 137.239,
            "duration": 4.401
        },
        {
            "text": "nicely I've seen so many people burn",
            "start": 139.08,
            "duration": 5.0
        },
        {
            "text": "Bridges because they didn't just take a",
            "start": 141.64,
            "duration": 4.879
        },
        {
            "text": "moment and realize that everything you",
            "start": 144.08,
            "duration": 5.64
        },
        {
            "text": "say might just fly out into the public",
            "start": 146.519,
            "duration": 4.921
        },
        {
            "text": "right right being polite is the key",
            "start": 149.72,
            "duration": 3.0
        },
        {
            "text": "being polite is very good because",
            "start": 151.44,
            "duration": 3.04
        },
        {
            "text": "sometimes it's a misunderstanding and",
            "start": 152.72,
            "duration": 4.239
        },
        {
            "text": "you could easily overcome a",
            "start": 154.48,
            "duration": 4.759
        },
        {
            "text": "misunderstanding like oh yeah my bad not",
            "start": 156.959,
            "duration": 3.92
        },
        {
            "text": "not if you have Fu money I even think if",
            "start": 159.239,
            "duration": 3.28
        },
        {
            "text": "you have Fu money you should still try",
            "start": 160.879,
            "duration": 3.921
        },
        {
            "text": "to do the like you should still attempt",
            "start": 162.519,
            "duration": 4.881
        },
        {
            "text": "to communicate in a way that makes sense",
            "start": 164.8,
            "duration": 4.12
        },
        {
            "text": "uh what if I'm the [\u00a0__\u00a0] you never",
            "start": 167.4,
            "duration": 3.52
        },
        {
            "text": "know yeah I know you're an idiot and",
            "start": 168.92,
            "duration": 4.0
        },
        {
            "text": "super unreliable it's no wonder you did",
            "start": 170.92,
            "duration": 4.56
        },
        {
            "text": "not finish",
            "start": 172.92,
            "duration": 2.56
        },
        {
            "text": "college man bro Bro went on",
            "start": 177.0,
            "duration": 6.599
        },
        {
            "text": "LinkedIn and is like digging up this",
            "start": 181.44,
            "duration": 5.96
        },
        {
            "text": "guy's past man I have one month left too",
            "start": 183.599,
            "duration": 5.2
        },
        {
            "text": "wait hold on hold on hold on hold on",
            "start": 187.4,
            "duration": 4.0
        },
        {
            "text": "hold on you have one month left so hold",
            "start": 188.799,
            "duration": 5.121
        },
        {
            "text": "on does that mean you literally are",
            "start": 191.4,
            "duration": 4.919
        },
        {
            "text": "finishing College I am finishing College",
            "start": 193.92,
            "duration": 4.92
        },
        {
            "text": "in one month",
            "start": 196.319,
            "duration": 5.321
        },
        {
            "text": "yes oh my goodness dude such a skill",
            "start": 198.84,
            "duration": 4.2
        },
        {
            "text": "issue you should have finished College",
            "start": 201.64,
            "duration": 4.0
        },
        {
            "text": "last year dumbass like come on yo why",
            "start": 203.04,
            "duration": 4.04
        },
        {
            "text": "didn't you just finish college in the",
            "start": 205.64,
            "duration": 3.36
        },
        {
            "text": "past if you were actually good you would",
            "start": 207.08,
            "duration": 3.32
        },
        {
            "text": "have finished it sooner",
            "start": 209.0,
            "duration": 4.64
        },
        {
            "text": "dude come on you're weak that's dude",
            "start": 210.4,
            "duration": 5.24
        },
        {
            "text": "that's crazy you wasted many people's",
            "start": 213.64,
            "duration": 3.959
        },
        {
            "text": "valuable time I won't work with you",
            "start": 215.64,
            "duration": 3.519
        },
        {
            "text": "again and I will do my best to make sure",
            "start": 217.599,
            "duration": 3.2
        },
        {
            "text": "other recruiters and companies know the",
            "start": 219.159,
            "duration": 4.44
        },
        {
            "text": "same I sent you all of this information",
            "start": 220.799,
            "duration": 5.481
        },
        {
            "text": "multiple times text email Etc and you",
            "start": 223.599,
            "duration": 7.121
        },
        {
            "text": "confirmed it shame on you okay okay okay",
            "start": 226.28,
            "duration": 6.64
        },
        {
            "text": "again again I I strongly always",
            "start": 230.72,
            "duration": 4.439
        },
        {
            "text": "recommend you put the you you put the",
            "start": 232.92,
            "duration": 4.28
        },
        {
            "text": "receipts you put the receipts you make",
            "start": 235.159,
            "duration": 3.961
        },
        {
            "text": "sure that you put the emails and and",
            "start": 237.2,
            "duration": 3.8
        },
        {
            "text": "explain those things because here's the",
            "start": 239.12,
            "duration": 5.039
        },
        {
            "text": "deal as an outside reader I may not know",
            "start": 241.0,
            "duration": 4.879
        },
        {
            "text": "I mean I think this guy's communication",
            "start": 244.159,
            "duration": 3.761
        },
        {
            "text": "is really unprofessional but if you",
            "start": 245.879,
            "duration": 3.841
        },
        {
            "text": "don't also include the receipts like how",
            "start": 247.92,
            "duration": 4.239
        },
        {
            "text": "do I know who's the who's who's the one",
            "start": 249.72,
            "duration": 4.799
        },
        {
            "text": "uh saying uh the truth here no shot this",
            "start": 252.159,
            "duration": 4.121
        },
        {
            "text": "is real this is real I agreed fighting",
            "start": 254.519,
            "duration": 3.321
        },
        {
            "text": "words you got yeah so so put put a",
            "start": 256.28,
            "duration": 3.199
        },
        {
            "text": "little put a little extra put a little",
            "start": 257.84,
            "duration": 4.0
        },
        {
            "text": "extra ump on it uh this is incredibly",
            "start": 259.479,
            "duration": 4.561
        },
        {
            "text": "unprofessional response if it's true",
            "start": 261.84,
            "duration": 4.919
        },
        {
            "text": "that the time is incorrect or uh time",
            "start": 264.04,
            "duration": 4.92
        },
        {
            "text": "isn't correct I understand why this may",
            "start": 266.759,
            "duration": 4.041
        },
        {
            "text": "seem unprofessional but to berate",
            "start": 268.96,
            "duration": 4.04
        },
        {
            "text": "someone who insults with insults is",
            "start": 270.8,
            "duration": 3.8
        },
        {
            "text": "incredibly unprofessional I'll be",
            "start": 273.0,
            "duration": 3.56
        },
        {
            "text": "contacting blah blah blah accordingly",
            "start": 274.6,
            "duration": 3.76
        },
        {
            "text": "wait hold on you never picked up or",
            "start": 276.56,
            "duration": 4.68
        },
        {
            "text": "returned calls confirmed with myself and",
            "start": 278.36,
            "duration": 4.96
        },
        {
            "text": "in turn E7 and then no showed for an",
            "start": 281.24,
            "duration": 3.88
        },
        {
            "text": "interview and played dumb after you",
            "start": 283.32,
            "duration": 3.439
        },
        {
            "text": "missed the interview you put me in an",
            "start": 285.12,
            "duration": 3.519
        },
        {
            "text": "uncomfortable situation with my client",
            "start": 286.759,
            "duration": 4.841
        },
        {
            "text": "and their hiring manager by the way okay",
            "start": 288.639,
            "duration": 5.041
        },
        {
            "text": "so okay so I see this person obviously",
            "start": 291.6,
            "duration": 4.72
        },
        {
            "text": "works as like a hired hired Head Hunter",
            "start": 293.68,
            "duration": 3.72
        },
        {
            "text": "by the way I don't see how that's",
            "start": 296.32,
            "duration": 4.0
        },
        {
            "text": "uncomfortable real talk I don't see how",
            "start": 297.4,
            "duration": 4.079
        },
        {
            "text": "that puts you in an uncomfortable",
            "start": 300.32,
            "duration": 3.4
        },
        {
            "text": "situation be like oh man that's that's",
            "start": 301.479,
            "duration": 4.401
        },
        {
            "text": "that's wild that's uh kind of sounds",
            "start": 303.72,
            "duration": 5.6
        },
        {
            "text": "like his job yeah it it it sounds like",
            "start": 305.88,
            "duration": 5.759
        },
        {
            "text": "this guy is having strong performance",
            "start": 309.32,
            "duration": 5.159
        },
        {
            "text": "issues in finding candidates clearly",
            "start": 311.639,
            "duration": 5.041
        },
        {
            "text": "doesn't use basic tools like a calendar",
            "start": 314.479,
            "duration": 4.44
        },
        {
            "text": "invite and then a shook when things",
            "start": 316.68,
            "duration": 4.2
        },
        {
            "text": "don't work out like I'm I'm surprised",
            "start": 318.919,
            "duration": 3.761
        },
        {
            "text": "that there's an E7 that's like yo dog",
            "start": 320.88,
            "duration": 4.08
        },
        {
            "text": "where's the calendar invite right yo",
            "start": 322.68,
            "duration": 4.2
        },
        {
            "text": "where's that calendar invite I mean the",
            "start": 324.96,
            "duration": 4.079
        },
        {
            "text": "whole thing smells of of of oddities",
            "start": 326.88,
            "duration": 3.64
        },
        {
            "text": "here uh put me in uncomfortable",
            "start": 329.039,
            "duration": 2.561
        },
        {
            "text": "situation with my client and their",
            "start": 330.52,
            "duration": 2.48
        },
        {
            "text": "hiring manager and couldn't care less",
            "start": 331.6,
            "duration": 3.08
        },
        {
            "text": "about wasting others times you need to",
            "start": 333.0,
            "duration": 4.28
        },
        {
            "text": "grow up and remove your narcissistic",
            "start": 334.68,
            "duration": 5.239
        },
        {
            "text": "personality from the professional world",
            "start": 337.28,
            "duration": 5.12
        },
        {
            "text": "is that like a commit stop breathing I'm",
            "start": 339.919,
            "duration": 4.241
        },
        {
            "text": "not really sure how to how to take that",
            "start": 342.4,
            "duration": 3.919
        },
        {
            "text": "one is is the man asking him to go take",
            "start": 344.16,
            "duration": 5.08
        },
        {
            "text": "some take a sidoku not really sure here",
            "start": 346.319,
            "duration": 4.841
        },
        {
            "text": "uh take",
            "start": 349.24,
            "duration": 4.16
        },
        {
            "text": "responsibility your actions impacted",
            "start": 351.16,
            "duration": 5.039
        },
        {
            "text": "many people's valuable time good luck",
            "start": 353.4,
            "duration": 4.96
        },
        {
            "text": "exclamation point what's with the good",
            "start": 356.199,
            "duration": 4.961
        },
        {
            "text": "luck at the end good luck though hey yo",
            "start": 358.36,
            "duration": 5.839
        },
        {
            "text": "wish you the best wish you the best I",
            "start": 361.16,
            "duration": 5.56
        },
        {
            "text": "hate you wish you the best baby go out",
            "start": 364.199,
            "duration": 5.201
        },
        {
            "text": "there and get them by removing yourself",
            "start": 366.72,
            "duration": 5.4
        },
        {
            "text": "from this professional world I want you",
            "start": 369.4,
            "duration": 4.4
        },
        {
            "text": "to remove yourself in the most",
            "start": 372.12,
            "duration": 4.519
        },
        {
            "text": "aggressive way from this professional",
            "start": 373.8,
            "duration": 4.76
        },
        {
            "text": "world but good luck out there on your",
            "start": 376.639,
            "duration": 6.321
        },
        {
            "text": "job finds just like what what is this",
            "start": 378.56,
            "duration": 6.68
        },
        {
            "text": "this is not passive aggressive this is",
            "start": 382.96,
            "duration": 4.359
        },
        {
            "text": "not passive aggressive this is just",
            "start": 385.24,
            "duration": 4.76
        },
        {
            "text": "aggressive BR in modernity it's poite to",
            "start": 387.319,
            "duration": 4.921
        },
        {
            "text": "wish people good luck after being uh",
            "start": 390.0,
            "duration": 4.36
        },
        {
            "text": "super passive aggressive I don't know if",
            "start": 392.24,
            "duration": 3.72
        },
        {
            "text": "this is not none of this is passive",
            "start": 394.36,
            "duration": 4.08
        },
        {
            "text": "aggressive this is just aggressive this",
            "start": 395.96,
            "duration": 5.48
        },
        {
            "text": "is just aggressive aggressive best best",
            "start": 398.44,
            "duration": 4.759
        },
        {
            "text": "with love this sounds like a toxic",
            "start": 401.44,
            "duration": 3.96
        },
        {
            "text": "interaction with the valerant lobby yo",
            "start": 403.199,
            "duration": 5.0
        },
        {
            "text": "dog when you say a toxic intera",
            "start": 405.4,
            "duration": 4.6
        },
        {
            "text": "interaction with a valerant Lobby you",
            "start": 408.199,
            "duration": 5.44
        },
        {
            "text": "could have also just said a valerant",
            "start": 410.0,
            "duration": 5.639
        },
        {
            "text": "Lobby like you don't really need to",
            "start": 413.639,
            "duration": 3.96
        },
        {
            "text": "qualify that you know what I mean it's",
            "start": 415.639,
            "duration": 5.321
        },
        {
            "text": "just like the Call of Duty Battle Royale",
            "start": 417.599,
            "duration": 5.961
        },
        {
            "text": "ending credits you don't need to call it",
            "start": 420.96,
            "duration": 4.2
        },
        {
            "text": "a racist",
            "start": 423.56,
            "duration": 4.72
        },
        {
            "text": "experience you just say I made it to the",
            "start": 425.16,
            "duration": 4.8
        },
        {
            "text": "end of a Call of Duty Lobby and",
            "start": 428.28,
            "duration": 4.319
        },
        {
            "text": "everyone's like oh yeah yeah I know I I",
            "start": 429.96,
            "duration": 5.72
        },
        {
            "text": "know what happens then dude that that by",
            "start": 432.599,
            "duration": 6.0
        },
        {
            "text": "the way that stuff is wild that like if",
            "start": 435.68,
            "duration": 4.84
        },
        {
            "text": "you make it to the end if you win a",
            "start": 438.599,
            "duration": 5.0
        },
        {
            "text": "Battle Royale in in any of the modern C",
            "start": 440.52,
            "duration": 5.119
        },
        {
            "text": "Call of Duties it's just like get me out",
            "start": 443.599,
            "duration": 5.561
        },
        {
            "text": "of here but I also want to watch me",
            "start": 445.639,
            "duration": 5.921
        },
        {
            "text": "climbing into the helicopter voice chat",
            "start": 449.16,
            "duration": 4.319
        },
        {
            "text": "is traumatizing voice chat is just hard",
            "start": 451.56,
            "duration": 5.56
        },
        {
            "text": "traumatizing it's Black Ops 2 yeah y'll",
            "start": 453.479,
            "duration": 5.16
        },
        {
            "text": "sof these days you don't know nothing",
            "start": 457.12,
            "duration": 3.68
        },
        {
            "text": "about Black Ops 2",
            "start": 458.639,
            "duration": 5.081
        },
        {
            "text": "lobbies the lobbies were so [\u00a0__\u00a0]",
            "start": 460.8,
            "duration": 7.72
        },
        {
            "text": "up I like I feel bad for anybody that",
            "start": 463.72,
            "duration": 6.64
        },
        {
            "text": "doesn't get to grow up with Black Ops 2",
            "start": 468.52,
            "duration": 4.56
        },
        {
            "text": "lobbies cuz I feel like you had to just",
            "start": 470.36,
            "duration": 5.48
        },
        {
            "text": "you just had to have such the ability to",
            "start": 473.08,
            "duration": 5.239
        },
        {
            "text": "let anything roll off of you like the",
            "start": 475.84,
            "duration": 4.12
        },
        {
            "text": "amount of times my mom has been the",
            "start": 478.319,
            "duration": 3.88
        },
        {
            "text": "center of attention in a Black Ops 2",
            "start": 479.96,
            "duration": 5.6
        },
        {
            "text": "Lobby was insane okay my mother",
            "start": 482.199,
            "duration": 4.96
        },
        {
            "text": "apparently has had sex with a lot of",
            "start": 485.56,
            "duration": 3.56
        },
        {
            "text": "people on the internet okay I don't know",
            "start": 487.159,
            "duration": 4.521
        },
        {
            "text": "what my mom's doing but I'll tell you",
            "start": 489.12,
            "duration": 7.079
        },
        {
            "text": "this much my mom she's gotten around",
            "start": 491.68,
            "duration": 7.359
        },
        {
            "text": "okay shocking I was shocked to find this",
            "start": 496.199,
            "duration": 6.521
        },
        {
            "text": "out shocked shook to the core well there",
            "start": 499.039,
            "duration": 6.761
        },
        {
            "text": "you go this just happened um by the way",
            "start": 502.72,
            "duration": 4.68
        },
        {
            "text": "you know it's always good to remember",
            "start": 505.8,
            "duration": 4.119
        },
        {
            "text": "that everything you say mayor may not",
            "start": 507.4,
            "duration": 4.96
        },
        {
            "text": "make it into public domain you know it's",
            "start": 509.919,
            "duration": 4.12
        },
        {
            "text": "why I have this general rule of thumb",
            "start": 512.36,
            "duration": 4.559
        },
        {
            "text": "that if you took any of my DMs almost",
            "start": 514.039,
            "duration": 5.88
        },
        {
            "text": "exclusively none of them would get me in",
            "start": 516.919,
            "duration": 5.36
        },
        {
            "text": "trouble and the reason why is that I",
            "start": 519.919,
            "duration": 4.801
        },
        {
            "text": "I've learned over time that it's a it's",
            "start": 522.279,
            "duration": 5.0
        },
        {
            "text": "it's dangerous or just delete your DMs",
            "start": 524.72,
            "duration": 4.4
        },
        {
            "text": "yeah if someone takes a picture though I",
            "start": 527.279,
            "duration": 3.961
        },
        {
            "text": "always communicate in such a way that I",
            "start": 529.12,
            "duration": 5.279
        },
        {
            "text": "I don't care if all of it came out cuz",
            "start": 531.24,
            "duration": 4.84
        },
        {
            "text": "that that it's much it's just much",
            "start": 534.399,
            "duration": 3.841
        },
        {
            "text": "smarter caught too many times sending",
            "start": 536.08,
            "duration": 4.04
        },
        {
            "text": "dickpics huh yeah yeah yeah because you",
            "start": 538.24,
            "duration": 3.159
        },
        {
            "text": "know what you don't want to be on this",
            "start": 540.12,
            "duration": 3.64
        },
        {
            "text": "end of a tweet this is a bad end of the",
            "start": 541.399,
            "duration": 6.041
        },
        {
            "text": "Tweet to be on okay wild it's a it's it",
            "start": 543.76,
            "duration": 5.199
        },
        {
            "text": "is wild that someone would communicate",
            "start": 547.44,
            "duration": 3.92
        },
        {
            "text": "in such a way especially like this it's",
            "start": 548.959,
            "duration": 3.721
        },
        {
            "text": "no wonder you did not finish college",
            "start": 551.36,
            "duration": 2.719
        },
        {
            "text": "like especially if you're like you're a",
            "start": 552.68,
            "duration": 3.04
        },
        {
            "text": "month away from finishing College like",
            "start": 554.079,
            "duration": 3.961
        },
        {
            "text": "that that that just seems like a that's",
            "start": 555.72,
            "duration": 5.559
        },
        {
            "text": "just like a weak insult also just one",
            "start": 558.04,
            "duration": 5.799
        },
        {
            "text": "more piece of advice here if you're",
            "start": 561.279,
            "duration": 4.041
        },
        {
            "text": "going to go out",
            "start": 563.839,
            "duration": 5.24
        },
        {
            "text": "there and uh say some dumb stuff and",
            "start": 565.32,
            "duration": 7.0
        },
        {
            "text": "then you get um you get called out I",
            "start": 569.079,
            "duration": 4.721
        },
        {
            "text": "would strongly",
            "start": 572.32,
            "duration": 4.199
        },
        {
            "text": "recommend you just own it never",
            "start": 573.8,
            "duration": 4.64
        },
        {
            "text": "apologize never apologize is when people",
            "start": 576.519,
            "duration": 5.041
        },
        {
            "text": "accuse you of dumb stuff right like when",
            "start": 578.44,
            "duration": 5.399
        },
        {
            "text": "I fed milk to Warren buffering and then",
            "start": 581.56,
            "duration": 4.56
        },
        {
            "text": "got accused of racism because we drank",
            "start": 583.839,
            "duration": 4.24
        },
        {
            "text": "from a gallon of milk did I ever",
            "start": 586.12,
            "duration": 5.36
        },
        {
            "text": "apologize no I refuse but if I was just",
            "start": 588.079,
            "duration": 6.88
        },
        {
            "text": "like yo [\u00a0__\u00a0] that guy he's a weak ass",
            "start": 591.48,
            "duration": 5.12
        },
        {
            "text": "hey yo you didn't even finish college",
            "start": 594.959,
            "duration": 3.0
        },
        {
            "text": "and someone's like yo look at how he",
            "start": 596.6,
            "duration": 4.44
        },
        {
            "text": "talked to me I'd go so damn you know",
            "start": 597.959,
            "duration": 7.44
        },
        {
            "text": "what that was pretty shitty of me",
            "start": 601.04,
            "duration": 4.359
        }
    ],
    "stats": {
        "viewCount": "86902",
        "likeCount": "2753",
        "favoriteCount": "0",
        "commentCount": "228"
    }
}