{
    "id": "Ay0oet5PJG8",
    "title": "You Are Addicted To Cloud Computing | Prime Reacts",
    "publishedAt": "2024-03-03T13:00:08Z",
    "captions": [
        {
            "text": "so this is why you're addicted to cloud",
            "start": 0.04,
            "duration": 4.319
        },
        {
            "text": "computing well the good news is is that",
            "start": 2.04,
            "duration": 4.319
        },
        {
            "text": "uh it's not going away so let's find out",
            "start": 4.359,
            "duration": 4.401
        },
        {
            "text": "why why are we addicted pre-at called it",
            "start": 6.359,
            "duration": 5.36
        },
        {
            "text": "you're shut up it's not pre-at you might",
            "start": 8.76,
            "duration": 4.32
        },
        {
            "text": "find this hard to believe but",
            "start": 11.719,
            "duration": 3.84
        },
        {
            "text": "amazon.com's retail business isn't very",
            "start": 13.08,
            "duration": 4.24
        },
        {
            "text": "profitable selling consumers cheap",
            "start": 15.559,
            "duration": 3.841
        },
        {
            "text": "Chinese junk is a highly competitive low",
            "start": 17.32,
            "duration": 4.32
        },
        {
            "text": "margin business is that true I thought",
            "start": 19.4,
            "duration": 4.199
        },
        {
            "text": "it made a lot of money I thought it made",
            "start": 21.64,
            "duration": 5.6
        },
        {
            "text": "like bajillions it's very true Amazon",
            "start": 23.599,
            "duration": 5.641
        },
        {
            "text": "makes almost most of their money out",
            "start": 27.24,
            "duration": 3.56
        },
        {
            "text": "that can't be right sorry we got to look",
            "start": 29.24,
            "duration": 3.359
        },
        {
            "text": "that up we got to look that up I just I",
            "start": 30.8,
            "duration": 4.12
        },
        {
            "text": "just don't I just don't believe this I",
            "start": 32.599,
            "duration": 4.96
        },
        {
            "text": "have to I mean maybe you're right uh",
            "start": 34.92,
            "duration": 7.28
        },
        {
            "text": "Amazon uh Amazon Revenue re re Revenue",
            "start": 37.559,
            "duration": 6.68
        },
        {
            "text": "dude I started with an n and I got all",
            "start": 42.2,
            "duration": 4.199
        },
        {
            "text": "sorts of confused there Amazon Revenue",
            "start": 44.239,
            "duration": 3.561
        },
        {
            "text": "where where does the revenue breakdown",
            "start": 46.399,
            "duration": 2.961
        },
        {
            "text": "uh let's see hold on breakdown where's",
            "start": 47.8,
            "duration": 3.399
        },
        {
            "text": "where you know what the breakdown let's",
            "start": 49.36,
            "duration": 3.4
        },
        {
            "text": "see it I want to see this because I I",
            "start": 51.199,
            "duration": 3.04
        },
        {
            "text": "just because it's just such a bold",
            "start": 52.76,
            "duration": 3.799
        },
        {
            "text": "statement okay so if if this one if this",
            "start": 54.239,
            "duration": 4.601
        },
        {
            "text": "were to be believed this is what we see",
            "start": 56.559,
            "duration": 4.48
        },
        {
            "text": "we see online stores at 40% physical",
            "start": 58.84,
            "duration": 3.64
        },
        {
            "text": "stores at three and well that I didn't",
            "start": 61.039,
            "duration": 3.48
        },
        {
            "text": "see coming third party uh seller",
            "start": 62.48,
            "duration": 3.76
        },
        {
            "text": "Services which is also huge this is",
            "start": 64.519,
            "duration": 3.361
        },
        {
            "text": "online store again remember third party",
            "start": 66.24,
            "duration": 3.199
        },
        {
            "text": "seller Services is a huge portion so",
            "start": 67.88,
            "duration": 4.239
        },
        {
            "text": "right now we are sitting at like 70%",
            "start": 69.439,
            "duration": 6.081
        },
        {
            "text": "subscription Services AWS is 15% that's",
            "start": 72.119,
            "duration": 7.161
        },
        {
            "text": "Revenue okay okay okay okay okay okay",
            "start": 75.52,
            "duration": 6.08
        },
        {
            "text": "okay okay but what okay okay okay fair",
            "start": 79.28,
            "duration": 5.32
        },
        {
            "text": "okay fair fair uh yeah what is the cost",
            "start": 81.6,
            "duration": 4.8
        },
        {
            "text": "of Revenue I guess the the real question",
            "start": 84.6,
            "duration": 3.32
        },
        {
            "text": "is what is the cost of",
            "start": 86.4,
            "duration": 3.719
        },
        {
            "text": "Revenue uh do we have a cost cost of",
            "start": 87.92,
            "duration": 5.28
        },
        {
            "text": "revenue for this uh Amazon Revenue uh",
            "start": 90.119,
            "duration": 6.921
        },
        {
            "text": "Revenue uh breakdown and cost cuz you",
            "start": 93.2,
            "duration": 5.48
        },
        {
            "text": "want that you want that you want that",
            "start": 97.04,
            "duration": 2.399
        },
        {
            "text": "that",
            "start": 98.68,
            "duration": 3.52
        },
        {
            "text": "cost let's see uh let's see online store",
            "start": 99.439,
            "duration": 5.0
        },
        {
            "text": "over 140 billion from this one 7 90",
            "start": 102.2,
            "duration": 5.239
        },
        {
            "text": "billion from this wow dude Amazon's made",
            "start": 104.439,
            "duration": 6.161
        },
        {
            "text": "90 billion from AWS that's so many",
            "start": 107.439,
            "duration": 6.441
        },
        {
            "text": "billions profit breakdown yeah yeah yeah",
            "start": 110.6,
            "duration": 5.879
        },
        {
            "text": "yeah yeah let's see that yeah yeah",
            "start": 113.88,
            "duration": 4.199
        },
        {
            "text": "Amazon no not Revenue let's see that",
            "start": 116.479,
            "duration": 3.6
        },
        {
            "text": "let's see that profit breakdown let's",
            "start": 118.079,
            "duration": 4.521
        },
        {
            "text": "see that profit breakdown how much do",
            "start": 120.079,
            "duration": 3.601
        },
        {
            "text": "you want to bet this is going to be here",
            "start": 122.6,
            "duration": 2.119
        },
        {
            "text": "hold on I think I just saw something",
            "start": 123.68,
            "duration": 3.039
        },
        {
            "text": "that I really wanted to see which is",
            "start": 124.719,
            "duration": 2.921
        },
        {
            "text": "this",
            "start": 126.719,
            "duration": 3.24
        },
        {
            "text": "one this is this is the chart that I was",
            "start": 127.64,
            "duration": 4.28
        },
        {
            "text": "looking for all right let's see online",
            "start": 129.959,
            "duration": 4.121
        },
        {
            "text": "stores physical stores so it shows all",
            "start": 131.92,
            "duration": 4.64
        },
        {
            "text": "these different ones cost of Revenue is",
            "start": 134.08,
            "duration": 4.439
        },
        {
            "text": "about 70 billion then operating",
            "start": 136.56,
            "duration": 4.6
        },
        {
            "text": "experiments fulfillment so 20 billion",
            "start": 138.519,
            "duration": 4.681
        },
        {
            "text": "for fulfillment uh that would be like",
            "start": 141.16,
            "duration": 4.359
        },
        {
            "text": "Personnel I don't know what SNM and G",
            "start": 143.2,
            "duration": 4.36
        },
        {
            "text": "GNA are I don't know what those two are",
            "start": 145.519,
            "duration": 4.0
        },
        {
            "text": "but let's just pretend let's pretend",
            "start": 147.56,
            "duration": 4.36
        },
        {
            "text": "that uh so cost of Revenue versus these",
            "start": 149.519,
            "duration": 4.08
        },
        {
            "text": "ones I'm curious what's I I don't know",
            "start": 151.92,
            "duration": 3.92
        },
        {
            "text": "what the cost of Revenue is versus these",
            "start": 153.599,
            "duration": 3.161
        },
        {
            "text": "ones they don't have a good enough",
            "start": 155.84,
            "duration": 2.88
        },
        {
            "text": "breakdown I was hoping to see this look",
            "start": 156.76,
            "duration": 3.479
        },
        {
            "text": "at that net profit look how thin that",
            "start": 158.72,
            "duration": 3.0
        },
        {
            "text": "gets can we all just take a moment and",
            "start": 160.239,
            "duration": 4.0
        },
        {
            "text": "see that thin Amazon makes a lot of",
            "start": 161.72,
            "duration": 5.599
        },
        {
            "text": "money but doesn't make a lot of money",
            "start": 164.239,
            "duration": 4.521
        },
        {
            "text": "can we just take a can we just take a",
            "start": 167.319,
            "duration": 4.161
        },
        {
            "text": "second here and just pour one out to",
            "start": 168.76,
            "duration": 6.32
        },
        {
            "text": "this that's wild yeah it's actually wild",
            "start": 171.48,
            "duration": 5.679
        },
        {
            "text": "I mean if I'm not mistaken I think",
            "start": 175.08,
            "duration": 4.879
        },
        {
            "text": "Netflix's upcoming projection uh irnet",
            "start": 177.159,
            "duration": 4.601
        },
        {
            "text": "netflix.com if I'm not mistaken",
            "start": 179.959,
            "duration": 3.481
        },
        {
            "text": "Netflix's upcoming projection for this",
            "start": 181.76,
            "duration": 3.52
        },
        {
            "text": "quarter we're going to be making as",
            "start": 183.44,
            "duration": 3.519
        },
        {
            "text": "we're going to be making as much money",
            "start": 185.28,
            "duration": 2.92
        },
        {
            "text": "this is if we make a projection I don't",
            "start": 186.959,
            "duration": 2.36
        },
        {
            "text": "know if we're going to be making our",
            "start": 188.2,
            "duration": 3.84
        },
        {
            "text": "projection is uh what is it uh our net",
            "start": 189.319,
            "duration": 4.681
        },
        {
            "text": "income is two billion we're projecting a",
            "start": 192.04,
            "duration": 4.279
        },
        {
            "text": "two billion income and so therefore",
            "start": 194.0,
            "duration": 4.4
        },
        {
            "text": "therefore we're we're not too far away",
            "start": 196.319,
            "duration": 5.601
        },
        {
            "text": "from Amazon let's go let's",
            "start": 198.4,
            "duration": 7.119
        },
        {
            "text": "go 2.9 billion is still a lot of money",
            "start": 201.92,
            "duration": 5.76
        },
        {
            "text": "proportionately it's kind of L I mean to",
            "start": 205.519,
            "duration": 4.321
        },
        {
            "text": "me this is actually super surprising so",
            "start": 207.68,
            "duration": 4.32
        },
        {
            "text": "I I wish if anyone has a better link you",
            "start": 209.84,
            "duration": 4.319
        },
        {
            "text": "want to provide to me I would be I'd be",
            "start": 212.0,
            "duration": 5.04
        },
        {
            "text": "very very uh happy to to see this right",
            "start": 214.159,
            "duration": 5.561
        },
        {
            "text": "I I'd love to see like what is the cost",
            "start": 217.04,
            "duration": 4.919
        },
        {
            "text": "of this because what I see right here is",
            "start": 219.72,
            "duration": 5.04
        },
        {
            "text": "50 billion for online store 20 billion",
            "start": 221.959,
            "duration": 5.48
        },
        {
            "text": "for fulfillment okay let's also put all",
            "start": 224.76,
            "duration": 4.8
        },
        {
            "text": "technology and content into the online",
            "start": 227.439,
            "duration": 4.08
        },
        {
            "text": "store okay we're at like 40 billion",
            "start": 229.56,
            "duration": 3.84
        },
        {
            "text": "let's also put these other two okay so",
            "start": 231.519,
            "duration": 3.761
        },
        {
            "text": "that's like that's like the online store",
            "start": 233.4,
            "duration": 4.08
        },
        {
            "text": "pays for the entire operating expenses",
            "start": 235.28,
            "duration": 3.319
        },
        {
            "text": "but then you also have third party",
            "start": 237.48,
            "duration": 2.92
        },
        {
            "text": "seller services",
            "start": 238.599,
            "duration": 3.28
        },
        {
            "text": "you also have subscription that people",
            "start": 240.4,
            "duration": 3.28
        },
        {
            "text": "are largely paying for right you're",
            "start": 241.879,
            "duration": 3.401
        },
        {
            "text": "you're not buying Amazon Prime to save",
            "start": 243.68,
            "duration": 4.199
        },
        {
            "text": "on your AWS Bill and so it's like those",
            "start": 245.28,
            "duration": 4.4
        },
        {
            "text": "two alone right here this is this is",
            "start": 247.879,
            "duration": 2.881
        },
        {
            "text": "primarily used for part of their",
            "start": 249.68,
            "duration": 3.96
        },
        {
            "text": "shipping you got yourself another 20",
            "start": 250.76,
            "duration": 6.12
        },
        {
            "text": "billion here which is more than than AWS",
            "start": 253.64,
            "duration": 6.2
        },
        {
            "text": "like all together so I just don't",
            "start": 256.88,
            "duration": 6.039
        },
        {
            "text": "believe that AWS costing nothing right",
            "start": 259.84,
            "duration": 5.52
        },
        {
            "text": "uh all the profit is uh from AWS look at",
            "start": 262.919,
            "duration": 4.401
        },
        {
            "text": "the uh second to last line uh on the",
            "start": 265.36,
            "duration": 3.399
        },
        {
            "text": "green line second to last okay hold on",
            "start": 267.32,
            "duration": 4.2
        },
        {
            "text": "which one which one okay H uh from aw",
            "start": 268.759,
            "duration": 4.361
        },
        {
            "text": "look at the second to last on the green",
            "start": 271.52,
            "duration": 5.0
        },
        {
            "text": "line second to last I'm not sure what",
            "start": 273.12,
            "duration": 5.16
        },
        {
            "text": "that means second to last on the green",
            "start": 276.52,
            "duration": 5.679
        },
        {
            "text": "line oh AWS 5.4 billion other well I",
            "start": 278.28,
            "duration": 6.72
        },
        {
            "text": "know but that's first off Bros that dude",
            "start": 282.199,
            "duration": 4.481
        },
        {
            "text": "that that's a counting there just ain't",
            "start": 285.0,
            "duration": 3.16
        },
        {
            "text": "no way is this just I mean is this just",
            "start": 286.68,
            "duration": 4.959
        },
        {
            "text": "ACC counting tricks I I don't know I I",
            "start": 288.16,
            "duration": 5.44
        },
        {
            "text": "it's hard for me it's hard it's hard for",
            "start": 291.639,
            "duration": 5.241
        },
        {
            "text": "me to be like I don't know yes way okay",
            "start": 293.6,
            "duration": 6.319
        },
        {
            "text": "okay okay I believe you yes way no l",
            "start": 296.88,
            "duration": 4.8
        },
        {
            "text": "okay I believe you I believe you that",
            "start": 299.919,
            "duration": 3.84
        },
        {
            "text": "somehow everything else costs them money",
            "start": 301.68,
            "duration": 4.72
        },
        {
            "text": "and AWS is the only thing that is",
            "start": 303.759,
            "duration": 4.88
        },
        {
            "text": "keeping them afloat I believe you I",
            "start": 306.4,
            "duration": 3.76
        },
        {
            "text": "believe you that somehow they made it",
            "start": 308.639,
            "duration": 3.321
        },
        {
            "text": "all the way up till now and they got",
            "start": 310.16,
            "duration": 3.64
        },
        {
            "text": "they got AWS and that's just how it",
            "start": 311.96,
            "duration": 3.36
        },
        {
            "text": "works I don't know about all this",
            "start": 313.8,
            "duration": 2.72
        },
        {
            "text": "anyways we'll keep on going we'll keep",
            "start": 315.32,
            "duration": 2.76
        },
        {
            "text": "on going we're going to keep on going I",
            "start": 316.52,
            "duration": 3.04
        },
        {
            "text": "learned something today that Amazon does",
            "start": 318.08,
            "duration": 3.32
        },
        {
            "text": "not make a lot of money Amazon Inc",
            "start": 319.56,
            "duration": 4.0
        },
        {
            "text": "becomes profitable after you factor in",
            "start": 321.4,
            "duration": 4.44
        },
        {
            "text": "Amazon web services an insane Cash Cow",
            "start": 323.56,
            "duration": 4.0
        },
        {
            "text": "that recently hit operating margins of",
            "start": 325.84,
            "duration": 4.32
        },
        {
            "text": "30% renting out servers a Ka cloud",
            "start": 327.56,
            "duration": 4.12
        },
        {
            "text": "computing is one of the best business",
            "start": 330.16,
            "duration": 3.4
        },
        {
            "text": "models of the 21st century and nearly",
            "start": 331.68,
            "duration": 3.519
        },
        {
            "text": "every Indie hacker startup and",
            "start": 333.56,
            "duration": 3.44
        },
        {
            "text": "Enterprise is highly addicted to it what",
            "start": 335.199,
            "duration": 3.201
        },
        {
            "text": "they don't tell you is that getting you",
            "start": 337.0,
            "duration": 3.08
        },
        {
            "text": "addicted is essential for the business",
            "start": 338.4,
            "duration": 3.359
        },
        {
            "text": "model to work today you'll learn exactly",
            "start": 340.08,
            "duration": 3.36
        },
        {
            "text": "how Cloud providers lock you in what you",
            "start": 341.759,
            "duration": 2.88
        },
        {
            "text": "can do about it and some new",
            "start": 343.44,
            "duration": 2.64
        },
        {
            "text": "developments that may change things in",
            "start": 344.639,
            "duration": 5.241
        },
        {
            "text": "the future is fireship becoming a dhh",
            "start": 346.08,
            "duration": 5.559
        },
        {
            "text": "fan is that is that what we're is that",
            "start": 349.88,
            "duration": 3.68
        },
        {
            "text": "what I'm hearing right now cuz I'm not",
            "start": 351.639,
            "duration": 2.961
        },
        {
            "text": "going to lie to you this is sounding a",
            "start": 353.56,
            "duration": 4.759
        },
        {
            "text": "little dhh okay uh what what do we do",
            "start": 354.6,
            "duration": 6.8
        },
        {
            "text": "about that I'm I should I be worried on",
            "start": 358.319,
            "duration": 5.44
        },
        {
            "text": "Prem mentioned let's go is February 12th",
            "start": 361.4,
            "duration": 4.799
        },
        {
            "text": "2024 and you're watching the code report",
            "start": 363.759,
            "duration": 4.321
        },
        {
            "text": "Amazon web services was the original",
            "start": 366.199,
            "duration": 3.56
        },
        {
            "text": "innovator of the cloud when it launched",
            "start": 368.08,
            "duration": 4.44
        },
        {
            "text": "S3 and ec2 back by the way this is",
            "start": 369.759,
            "duration": 4.801
        },
        {
            "text": "probably their best UI they've ever had",
            "start": 372.52,
            "duration": 4.32
        },
        {
            "text": "it's only gone it's only gone downhill",
            "start": 374.56,
            "duration": 5.199
        },
        {
            "text": "since back in 2006 AWS still dominates",
            "start": 376.84,
            "duration": 4.68
        },
        {
            "text": "the market share today with Microsoft's",
            "start": 379.759,
            "duration": 3.321
        },
        {
            "text": "Azure in second and Google Cloud",
            "start": 381.52,
            "duration": 3.6
        },
        {
            "text": "platform in third now can we just take a",
            "start": 383.08,
            "duration": 3.92
        },
        {
            "text": "second here and look at this for for a",
            "start": 385.12,
            "duration": 6.519
        },
        {
            "text": "moment how the hell did Azu are how did",
            "start": 387.0,
            "duration": 7.12
        },
        {
            "text": "they grow how did this",
            "start": 391.639,
            "duration": 8.161
        },
        {
            "text": "happen how how azuer on fire Enterprise",
            "start": 394.12,
            "duration": 8.199
        },
        {
            "text": "B2B dude I am confused by this one like",
            "start": 399.8,
            "duration": 5.88
        },
        {
            "text": "out of all like when you say B2B like",
            "start": 402.319,
            "duration": 5.641
        },
        {
            "text": "almost every place I know uses Amazon it",
            "start": 405.68,
            "duration": 5.0
        },
        {
            "text": "has to it simply has to be government",
            "start": 407.96,
            "duration": 6.16
        },
        {
            "text": "and medical right and then Google Google",
            "start": 410.68,
            "duration": 6.84
        },
        {
            "text": "truly dropped the ball Google the App",
            "start": 414.12,
            "duration": 7.68
        },
        {
            "text": "engine was incredibly easy to use in",
            "start": 417.52,
            "duration": 6.88
        },
        {
            "text": "2011 like how did Google how did Google",
            "start": 421.8,
            "duration": 5.56
        },
        {
            "text": "fumble the bag so hard can we all take a",
            "start": 424.4,
            "duration": 5.56
        },
        {
            "text": "moment that that is just shocking uh",
            "start": 427.36,
            "duration": 5.76
        },
        {
            "text": "Azure is actually so bad uh used it at",
            "start": 429.96,
            "duration": 4.56
        },
        {
            "text": "work and it just drops packets and",
            "start": 433.12,
            "duration": 3.479
        },
        {
            "text": "messes up my seat my squeal back uh",
            "start": 434.52,
            "duration": 4.56
        },
        {
            "text": "backups it's horrible I that might be a",
            "start": 436.599,
            "duration": 4.081
        },
        {
            "text": "skill issue I just want to warn you that",
            "start": 439.08,
            "duration": 3.88
        },
        {
            "text": "sounds like it could be a skill issue",
            "start": 440.68,
            "duration": 5.079
        },
        {
            "text": "ASU is big in the EU oh nice you got",
            "start": 442.96,
            "duration": 4.959
        },
        {
            "text": "some what let me guess let me guess you",
            "start": 445.759,
            "duration": 4.12
        },
        {
            "text": "got yourself let me guess you got",
            "start": 447.919,
            "duration": 3.361
        },
        {
            "text": "yourself a little nepotism going on in",
            "start": 449.879,
            "duration": 3.841
        },
        {
            "text": "the EU Cloud platform and third now even",
            "start": 451.28,
            "duration": 4.08
        },
        {
            "text": "if you use a boutique platform like",
            "start": 453.72,
            "duration": 3.64
        },
        {
            "text": "brell or netfi you're still actually",
            "start": 455.36,
            "duration": 3.8
        },
        {
            "text": "just using a big cloud provider because",
            "start": 457.36,
            "duration": 4.119
        },
        {
            "text": "they generally resell AWS services at a",
            "start": 459.16,
            "duration": 4.36
        },
        {
            "text": "higher price in",
            "start": 461.479,
            "duration": 5.12
        },
        {
            "text": "exchange you know that's one thing that",
            "start": 463.52,
            "duration": 5.28
        },
        {
            "text": "AWS should just look I mean can we all",
            "start": 466.599,
            "duration": 3.88
        },
        {
            "text": "just take a moment here and think about",
            "start": 468.8,
            "duration": 3.799
        },
        {
            "text": "this for a second these other platforms",
            "start": 470.479,
            "duration": 4.16
        },
        {
            "text": "that just make it easy to release like",
            "start": 472.599,
            "duration": 3.921
        },
        {
            "text": "this and they do have some large",
            "start": 474.639,
            "duration": 4.761
        },
        {
            "text": "percentage markup why isn't Amazon going",
            "start": 476.52,
            "duration": 4.44
        },
        {
            "text": "you know what we should",
            "start": 479.4,
            "duration": 5.16
        },
        {
            "text": "do we should make our UI a touch better",
            "start": 480.96,
            "duration": 7.799
        },
        {
            "text": "hold on what if we made it easier to use",
            "start": 484.56,
            "duration": 6.56
        },
        {
            "text": "like there's I mean AWS could destroy",
            "start": 488.759,
            "duration": 4.041
        },
        {
            "text": "all these other companies like in a",
            "start": 491.12,
            "duration": 3.639
        },
        {
            "text": "moment have you ever thought about how",
            "start": 492.8,
            "duration": 4.079
        },
        {
            "text": "much on a knife's edge you have to be to",
            "start": 494.759,
            "duration": 3.921
        },
        {
            "text": "be like I mean really versell I mean",
            "start": 496.879,
            "duration": 3.241
        },
        {
            "text": "they they obviously do a great job and",
            "start": 498.68,
            "duration": 3.199
        },
        {
            "text": "they're they're light years ahead right",
            "start": 500.12,
            "duration": 4.639
        },
        {
            "text": "now of AWS but at the end of the day if",
            "start": 501.879,
            "duration": 5.32
        },
        {
            "text": "AWS is like we you know what we could do",
            "start": 504.759,
            "duration": 5.201
        },
        {
            "text": "to really to increase this profit of our",
            "start": 507.199,
            "duration": 4.761
        },
        {
            "text": "only profitable sector of our business",
            "start": 509.96,
            "duration": 3.439
        },
        {
            "text": "based on the financial reports that you",
            "start": 511.96,
            "duration": 3.759
        },
        {
            "text": "guys have provided me we could just",
            "start": 513.399,
            "duration": 6.041
        },
        {
            "text": "simply not make a shitty UI have we",
            "start": 515.719,
            "duration": 6.44
        },
        {
            "text": "thought about this that's it let's hire",
            "start": 519.44,
            "duration": 3.959
        },
        {
            "text": "10",
            "start": 522.159,
            "duration": 4.161
        },
        {
            "text": "people like how how is that not hard AWS",
            "start": 523.399,
            "duration": 4.761
        },
        {
            "text": "services at a higher price in exchange",
            "start": 526.32,
            "duration": 3.8
        },
        {
            "text": "for a fancy UI and better developer",
            "start": 528.16,
            "duration": 3.64
        },
        {
            "text": "experience what's crazy though is that",
            "start": 530.12,
            "duration": 3.08
        },
        {
            "text": "these companies have the means to stand",
            "start": 531.8,
            "duration": 3.12
        },
        {
            "text": "up their own servers but they're just as",
            "start": 533.2,
            "duration": 3.72
        },
        {
            "text": "locked into AWS as we are and you'll",
            "start": 534.92,
            "duration": 3.68
        },
        {
            "text": "find out why in just a minute now the",
            "start": 536.92,
            "duration": 3.12
        },
        {
            "text": "first step to getting someone addicted",
            "start": 538.6,
            "duration": 2.919
        },
        {
            "text": "to something is to start them when",
            "start": 540.04,
            "duration": 3.12
        },
        {
            "text": "they're young this is what Facebook does",
            "start": 541.519,
            "duration": 3.401
        },
        {
            "text": "with social media and it's why smokers",
            "start": 543.16,
            "duration": 3.52
        },
        {
            "text": "almost always start before they're 18 on",
            "start": 544.92,
            "duration": 3.4
        },
        {
            "text": "the cloud they get the addiction started",
            "start": 546.68,
            "duration": 3.24
        },
        {
            "text": "with the free tier any new account that",
            "start": 548.32,
            "duration": 3.04
        },
        {
            "text": "signs up gets a few hundred bucks for",
            "start": 549.92,
            "duration": 2.88
        },
        {
            "text": "free but if you're a startup and have",
            "start": 551.36,
            "duration": 3.2
        },
        {
            "text": "the right VC behind you you can easily",
            "start": 552.8,
            "duration": 5.2
        },
        {
            "text": "get $100,000 in free AWS credit by the",
            "start": 554.56,
            "duration": 6.36
        },
        {
            "text": "way this is like such an incredible fyan",
            "start": 558.0,
            "duration": 5.279
        },
        {
            "text": "bargain this is like this is absolutely",
            "start": 560.92,
            "duration": 4.159
        },
        {
            "text": "one of the best marketing I have ever",
            "start": 563.279,
            "duration": 4.921
        },
        {
            "text": "seen ever like oh you're a startup",
            "start": 565.079,
            "duration": 4.921
        },
        {
            "text": "$100,000 on",
            "start": 568.2,
            "duration": 5.72
        },
        {
            "text": "us come on in we we love",
            "start": 570.0,
            "duration": 5.8
        },
        {
            "text": "startups",
            "start": 573.92,
            "duration": 5.56
        },
        {
            "text": "AWS somehow has figured out a way to be",
            "start": 575.8,
            "duration": 8.0
        },
        {
            "text": "a VC without being a VC they've invested",
            "start": 579.48,
            "duration": 8.0
        },
        {
            "text": "in every startup ever it is absolutely",
            "start": 583.8,
            "duration": 5.039
        },
        {
            "text": "an",
            "start": 587.48,
            "duration": 5.2
        },
        {
            "text": "incredible incredible idea absolutely",
            "start": 588.839,
            "duration": 6.641
        },
        {
            "text": "amazing",
            "start": 592.68,
            "duration": 6.96
        },
        {
            "text": "uh love it I I it's honestly I",
            "start": 595.48,
            "duration": 6.16
        },
        {
            "text": "hats off to them hats off it's an",
            "start": 599.64,
            "duration": 3.8
        },
        {
            "text": "awesome deal for a Founder but Amazon is",
            "start": 601.64,
            "duration": 3.16
        },
        {
            "text": "playing the long game if your startup",
            "start": 603.44,
            "duration": 2.92
        },
        {
            "text": "doesn't fail they're going to make a 100",
            "start": 604.8,
            "duration": 3.2
        },
        {
            "text": "times that amount off you in the future",
            "start": 606.36,
            "duration": 3.32
        },
        {
            "text": "in addition Cloud pricing models are",
            "start": 608.0,
            "duration": 4.079
        },
        {
            "text": "extremely complex by Design the more",
            "start": 609.68,
            "duration": 4.279
        },
        {
            "text": "like I I'm curious how much you know",
            "start": 612.079,
            "duration": 3.44
        },
        {
            "text": "like I have no idea how much Netflix",
            "start": 613.959,
            "duration": 3.241
        },
        {
            "text": "pays I'm sure I could go figure out but",
            "start": 615.519,
            "duration": 3.44
        },
        {
            "text": "I don't know but we you know Netflix",
            "start": 617.2,
            "duration": 4.16
        },
        {
            "text": "uses Amazon and so like what is that",
            "start": 618.959,
            "duration": 4.921
        },
        {
            "text": "bill right what is any of these big",
            "start": 621.36,
            "duration": 4.08
        },
        {
            "text": "bills to these big companies what do you",
            "start": 623.88,
            "duration": 3.12
        },
        {
            "text": "think Uber uses what do you think Lyft",
            "start": 625.44,
            "duration": 3.24
        },
        {
            "text": "uses you think they're all rolling their",
            "start": 627.0,
            "duration": 3.839
        },
        {
            "text": "own River Farms no they're probably all",
            "start": 628.68,
            "duration": 5.76
        },
        {
            "text": "on AWS paying some incredible amount of",
            "start": 630.839,
            "duration": 6.401
        },
        {
            "text": "money Bill and my company's 86,000 a",
            "start": 634.44,
            "duration": 4.079
        },
        {
            "text": "month",
            "start": 637.24,
            "duration": 4.839
        },
        {
            "text": "sh that's crazy slack will I mean to be",
            "start": 638.519,
            "duration": 5.921
        },
        {
            "text": "fair with slack slack is literally a few",
            "start": 642.079,
            "duration": 5.641
        },
        {
            "text": "SNS cues and the inability to reconnect",
            "start": 644.44,
            "duration": 6.04
        },
        {
            "text": "a websocket slack is single-handedly the",
            "start": 647.72,
            "duration": 4.44
        },
        {
            "text": "stupidest company that has ever existed",
            "start": 650.48,
            "duration": 2.359
        },
        {
            "text": "on",
            "start": 652.16,
            "duration": 4.16
        },
        {
            "text": "Earth in fact slack the reason why I've",
            "start": 652.839,
            "duration": 5.521
        },
        {
            "text": "recently decided that dhh might actually",
            "start": 656.32,
            "duration": 4.44
        },
        {
            "text": "be right is the fact that is is slack",
            "start": 658.36,
            "duration": 4.479
        },
        {
            "text": "slack is the reason why I think that dhh",
            "start": 660.76,
            "duration": 5.0
        },
        {
            "text": "could be right okay it is it is the",
            "start": 662.839,
            "duration": 4.841
        },
        {
            "text": "reason I I in fact I even started",
            "start": 665.76,
            "duration": 4.28
        },
        {
            "text": "following the guy after after his",
            "start": 667.68,
            "duration": 4.24
        },
        {
            "text": "campfire stuff he made this campfire",
            "start": 670.04,
            "duration": 4.0
        },
        {
            "text": "stuff wherever it is I once right or",
            "start": 671.92,
            "duration": 5.0
        },
        {
            "text": "whatever it's called Uh anyways dude the",
            "start": 674.04,
            "duration": 5.4
        },
        {
            "text": "guy is like coming in at like",
            "start": 676.92,
            "duration": 5.359
        },
        {
            "text": "0.001% the cost of slack and selling it",
            "start": 679.44,
            "duration": 4.88
        },
        {
            "text": "to companies that thing is going to be a",
            "start": 682.279,
            "duration": 3.401
        },
        {
            "text": "10 that thing is going to be a nine",
            "start": 684.32,
            "duration": 5.56
        },
        {
            "text": "figure product it's going to be so so so",
            "start": 685.68,
            "duration": 6.839
        },
        {
            "text": "good the guy's a genius absolutely",
            "start": 689.88,
            "duration": 4.48
        },
        {
            "text": "awesome great good good on him for",
            "start": 692.519,
            "duration": 2.88
        },
        {
            "text": "making something that's going to be a",
            "start": 694.36,
            "duration": 4.0
        },
        {
            "text": "slack competitor honestly it's Absolut",
            "start": 695.399,
            "duration": 5.481
        },
        {
            "text": "it's absolutely insane that slack makes",
            "start": 698.36,
            "duration": 3.719
        },
        {
            "text": "as much money as they do and they don't",
            "start": 700.88,
            "duration": 3.16
        },
        {
            "text": "even have an effing reconnecting socket",
            "start": 702.079,
            "duration": 3.641
        },
        {
            "text": "yo dog it's like 10 lines of code I",
            "start": 704.04,
            "duration": 4.039
        },
        {
            "text": "wrote it in a tweet once doesn't slack",
            "start": 705.72,
            "duration": 4.44
        },
        {
            "text": "suck yes slack does suck it can't even",
            "start": 708.079,
            "duration": 5.121
        },
        {
            "text": "have just reconnecting socket how hard",
            "start": 710.16,
            "duration": 6.52
        },
        {
            "text": "is a reconnecting socket on error",
            "start": 713.2,
            "duration": 6.72
        },
        {
            "text": "retry get get retry weight amount that",
            "start": 716.68,
            "duration": 7.32
        },
        {
            "text": "can be exponential on close reconnect",
            "start": 719.92,
            "duration": 8.0
        },
        {
            "text": "it's not that hard there's two points",
            "start": 724.0,
            "duration": 7.04
        },
        {
            "text": "pings happen every 30 seconds every 60",
            "start": 727.92,
            "duration": 5.76
        },
        {
            "text": "seconds you will know within 30 seconds",
            "start": 731.04,
            "duration": 5.72
        },
        {
            "text": "to on average if it's a one minute wait",
            "start": 733.68,
            "duration": 5.519
        },
        {
            "text": "that you need to reconnect like this is",
            "start": 736.76,
            "duration": 4.92
        },
        {
            "text": "not even that",
            "start": 739.199,
            "duration": 5.121
        },
        {
            "text": "hard okay sorry let's keep on going",
            "start": 741.68,
            "duration": 4.88
        },
        {
            "text": "sorry slack slack triggers me slack is",
            "start": 744.32,
            "duration": 4.36
        },
        {
            "text": "just the stupidest company ever the",
            "start": 746.56,
            "duration": 3.519
        },
        {
            "text": "price model the harder it is to",
            "start": 748.68,
            "duration": 3.12
        },
        {
            "text": "determine the actual cost implications",
            "start": 750.079,
            "duration": 3.12
        },
        {
            "text": "of switching providers and for",
            "start": 751.8,
            "duration": 2.88
        },
        {
            "text": "Enterprise they offer long-term",
            "start": 753.199,
            "duration": 3.041
        },
        {
            "text": "discounts and additional support which",
            "start": 754.68,
            "duration": 2.92
        },
        {
            "text": "can be worth billions of dollars when",
            "start": 756.24,
            "duration": 2.92
        },
        {
            "text": "you have customers like the Pentagon",
            "start": 757.6,
            "duration": 2.679
        },
        {
            "text": "getting you in the door is pretty",
            "start": 759.16,
            "duration": 2.84
        },
        {
            "text": "obvious but once you're in they also",
            "start": 760.279,
            "duration": 3.201
        },
        {
            "text": "need ways to make it hard for you to",
            "start": 762.0,
            "duration": 3.079
        },
        {
            "text": "leave and one way they do that is by",
            "start": 763.48,
            "duration": 5.08
        },
        {
            "text": "charging out R by the way that old meme",
            "start": 765.079,
            "duration": 7.88
        },
        {
            "text": "old old meme this is real this is like",
            "start": 768.56,
            "duration": 7.2
        },
        {
            "text": "Fire Ship given Boomer energy on memes",
            "start": 772.959,
            "duration": 4.68
        },
        {
            "text": "right now get hard for you to leave and",
            "start": 775.76,
            "duration": 3.36
        },
        {
            "text": "one way they do that is by charging",
            "start": 777.639,
            "duration": 3.601
        },
        {
            "text": "outrageous egress fees egress is when",
            "start": 779.12,
            "duration": 3.68
        },
        {
            "text": "data leaves the network as opposed to",
            "start": 781.24,
            "duration": 3.64
        },
        {
            "text": "Ingress when data comes into the cloud",
            "start": 782.8,
            "duration": 3.599
        },
        {
            "text": "which is generally free that means if",
            "start": 784.88,
            "duration": 3.36
        },
        {
            "text": "you use a cloud storage bucket and",
            "start": 786.399,
            "duration": 4.081
        },
        {
            "text": "upload say a few pedabytes worth of data",
            "start": 788.24,
            "duration": 3.52
        },
        {
            "text": "then decide you want to go to a",
            "start": 790.48,
            "duration": 2.64
        },
        {
            "text": "different Cloud you're going to have a",
            "start": 791.76,
            "duration": 3.24
        },
        {
            "text": "massive Bill to move that data from one",
            "start": 793.12,
            "duration": 3.24
        },
        {
            "text": "Cloud to the other people generally",
            "start": 795.0,
            "duration": 3.12
        },
        {
            "text": "switch clouds to save money but when you",
            "start": 796.36,
            "duration": 3.599
        },
        {
            "text": "factor in that data transfer bill it's",
            "start": 798.12,
            "duration": 4.56
        },
        {
            "text": "usually not worth it like when",
            "start": 799.959,
            "duration": 4.601
        },
        {
            "text": "interesting is this wait hold is this",
            "start": 802.68,
            "duration": 4.44
        },
        {
            "text": "dhh",
            "start": 804.56,
            "duration": 2.56
        },
        {
            "text": "mentioned it's like a can see into the",
            "start": 807.36,
            "duration": 5.56
        },
        {
            "text": "future 37 signals migrated away from the",
            "start": 810.199,
            "duration": 4.08
        },
        {
            "text": "cloud they were looking at A3 to",
            "start": 812.92,
            "duration": 4.24
        },
        {
            "text": "$400,000 S3 bill just to move the data",
            "start": 814.279,
            "duration": 5.601
        },
        {
            "text": "there is some good news though that's so",
            "start": 817.16,
            "duration": 4.799
        },
        {
            "text": "crazy to think about I never once",
            "start": 819.88,
            "duration": 4.56
        },
        {
            "text": "thought about how S3 has this",
            "start": 821.959,
            "duration": 5.281
        },
        {
            "text": "competitive Advantage for not leaving",
            "start": 824.44,
            "duration": 4.519
        },
        {
            "text": "I've never once thought about that that",
            "start": 827.24,
            "duration": 5.2
        },
        {
            "text": "that is like it's you know for for for",
            "start": 828.959,
            "duration": 6.401
        },
        {
            "text": "go the business practices okay for go",
            "start": 832.44,
            "duration": 5.04
        },
        {
            "text": "for go feeling whether or not that is",
            "start": 835.36,
            "duration": 5.64
        },
        {
            "text": "like ethically a good thing um it's an",
            "start": 837.48,
            "duration": 7.0
        },
        {
            "text": "absolutely amazing idea okay like that",
            "start": 841.0,
            "duration": 8.16
        },
        {
            "text": "wow I'm shook I a fantastic fantastic",
            "start": 844.48,
            "duration": 6.32
        },
        {
            "text": "business like slapy on the way out yeah",
            "start": 849.16,
            "duration": 3.56
        },
        {
            "text": "like oh you want to leave yeah the door",
            "start": 850.8,
            "duration": 3.399
        },
        {
            "text": "will hit you on the way out I just want",
            "start": 852.72,
            "duration": 3.4
        },
        {
            "text": "to let you know the door hits you and",
            "start": 854.199,
            "duration": 4.281
        },
        {
            "text": "it's it's it's exceptional it's",
            "start": 856.12,
            "duration": 4.76
        },
        {
            "text": "exceptional right just a few days ago",
            "start": 858.48,
            "duration": 4.279
        },
        {
            "text": "Google Cloud removed transfer fees when",
            "start": 860.88,
            "duration": 3.639
        },
        {
            "text": "migrating away from Google Cloud that's",
            "start": 862.759,
            "duration": 3.32
        },
        {
            "text": "great news for developers because it",
            "start": 864.519,
            "duration": 3.0
        },
        {
            "text": "breaks down the barriers of vendor",
            "start": 866.079,
            "duration": 3.481
        },
        {
            "text": "lockin however some people saw this as a",
            "start": 867.519,
            "duration": 3.641
        },
        {
            "text": "sign that Google Cloud will be killed",
            "start": 869.56,
            "duration": 4.519
        },
        {
            "text": "soon in which also yeah that sounds also",
            "start": 871.16,
            "duration": 4.2
        },
        {
            "text": "honestly that just sounds stupid by",
            "start": 874.079,
            "duration": 4.44
        },
        {
            "text": "Google's behalf um you don't get",
            "start": 875.36,
            "duration": 5.36
        },
        {
            "text": "anything by that right like what are you",
            "start": 878.519,
            "duration": 4.281
        },
        {
            "text": "attempting to win hey people come leave",
            "start": 880.72,
            "duration": 4.239
        },
        {
            "text": "us easier oh that's the reason why I'm",
            "start": 882.8,
            "duration": 4.52
        },
        {
            "text": "coming over to Google Cloud Google app",
            "start": 884.959,
            "duration": 4.32
        },
        {
            "text": "engine right like that's not that's like",
            "start": 887.32,
            "duration": 3.959
        },
        {
            "text": "you there's there's no I don't see how",
            "start": 889.279,
            "duration": 3.761
        },
        {
            "text": "that's a benef like I don't see how you",
            "start": 891.279,
            "duration": 4.24
        },
        {
            "text": "can use that as marketing right what",
            "start": 893.04,
            "duration": 5.12
        },
        {
            "text": "people want from marketing is they want",
            "start": 895.519,
            "duration": 5.041
        },
        {
            "text": "the ability EU regulatories okay it",
            "start": 898.16,
            "duration": 4.119
        },
        {
            "text": "could be EU regulator let's just pretend",
            "start": 900.56,
            "duration": 3.68
        },
        {
            "text": "it's EU regulatories but uh or",
            "start": 902.279,
            "duration": 3.8
        },
        {
            "text": "regulations but like what people want is",
            "start": 904.24,
            "duration": 3.48
        },
        {
            "text": "good developer experience you already",
            "start": 906.079,
            "duration": 4.281
        },
        {
            "text": "know Amazon fumbled that bag so hard",
            "start": 907.72,
            "duration": 4.479
        },
        {
            "text": "that there's there's literal rent",
            "start": 910.36,
            "duration": 5.12
        },
        {
            "text": "Seekers that just make a nice UI around",
            "start": 912.199,
            "duration": 6.56
        },
        {
            "text": "Amazon like that's how bad it is it's a",
            "start": 915.48,
            "duration": 5.76
        },
        {
            "text": "it's like a several billion it's like a",
            "start": 918.759,
            "duration": 5.921
        },
        {
            "text": "10 or 11 figure cottage industry around",
            "start": 921.24,
            "duration": 7.399
        },
        {
            "text": "how bad a UI is and so there's a huge",
            "start": 924.68,
            "duration": 5.92
        },
        {
            "text": "opportunity there so I'm I'm shook that",
            "start": 928.639,
            "duration": 3.281
        },
        {
            "text": "this is the direction they went in case",
            "start": 930.6,
            "duration": 2.679
        },
        {
            "text": "I would lose this highly unfortunate",
            "start": 931.92,
            "duration": 3.0
        },
        {
            "text": "beted I made last year that's why I",
            "start": 933.279,
            "duration": 3.201
        },
        {
            "text": "think this is actually a sign of product",
            "start": 934.92,
            "duration": 2.919
        },
        {
            "text": "strength and will hopefully motivate",
            "start": 936.48,
            "duration": 3.0
        },
        {
            "text": "other clouds to do the same and by the",
            "start": 937.839,
            "duration": 3.68
        },
        {
            "text": "way there's a 0% chance Google Cloud",
            "start": 939.48,
            "duration": 3.839
        },
        {
            "text": "shuts down anytime soon as it just hit",
            "start": 941.519,
            "duration": 3.841
        },
        {
            "text": "profitability in 2023 according to",
            "start": 943.319,
            "duration": 3.76
        },
        {
            "text": "Gemini this move might be related to the",
            "start": 945.36,
            "duration": 3.88
        },
        {
            "text": "eu's data act which is looking to crack",
            "start": 947.079,
            "duration": 3.961
        },
        {
            "text": "down on cloud egress fees take a look at",
            "start": 949.24,
            "duration": 4.12
        },
        {
            "text": "this breakdown on get deo.com platforms",
            "start": 951.04,
            "duration": 4.0
        },
        {
            "text": "like cloudflare are totally free while",
            "start": 953.36,
            "duration": 3.2
        },
        {
            "text": "bare metal providers like lenoe and",
            "start": 955.04,
            "duration": 3.279
        },
        {
            "text": "hetner are very reasonable but as we get",
            "start": 956.56,
            "duration": 3.759
        },
        {
            "text": "up to aw Leno mentioned by the way",
            "start": 958.319,
            "duration": 4.241
        },
        {
            "text": "Leno's a great company I actually have",
            "start": 960.319,
            "duration": 3.76
        },
        {
            "text": "always really appreciated the smaller",
            "start": 962.56,
            "duration": 3.719
        },
        {
            "text": "providers cuz you can like email",
            "start": 964.079,
            "duration": 4.521
        },
        {
            "text": "somebody you know what I mean you can",
            "start": 966.279,
            "duration": 4.8
        },
        {
            "text": "email somebody and it's and you get to",
            "start": 968.6,
            "duration": 4.76
        },
        {
            "text": "talk to them and it's nice like I I was",
            "start": 971.079,
            "duration": 4.481
        },
        {
            "text": "sponsored by lenoe a long time ago uh I",
            "start": 973.36,
            "duration": 3.599
        },
        {
            "text": "actually never took a single dollar from",
            "start": 975.56,
            "duration": 2.88
        },
        {
            "text": "them I just really liked them they just",
            "start": 976.959,
            "duration": 3.401
        },
        {
            "text": "gave me some free hosting and and it was",
            "start": 978.44,
            "duration": 4.04
        },
        {
            "text": "it was really nice they sold out no they",
            "start": 980.36,
            "duration": 5.08
        },
        {
            "text": "I mean dude first off if you were in",
            "start": 982.48,
            "duration": 4.599
        },
        {
            "text": "charge of a company and you could sell",
            "start": 985.44,
            "duration": 4.24
        },
        {
            "text": "to aamai for a billion dollars or",
            "start": 987.079,
            "duration": 4.641
        },
        {
            "text": "whatever it was come on come on don't be",
            "start": 989.68,
            "duration": 4.599
        },
        {
            "text": "stupid you would do it acting like",
            "start": 991.72,
            "duration": 5.2
        },
        {
            "text": "getting the bag is somehow is",
            "start": 994.279,
            "duration": 6.401
        },
        {
            "text": "somehow selling out dude right now if",
            "start": 996.92,
            "duration": 7.159
        },
        {
            "text": "kick the the abhorrent streaming service",
            "start": 1000.68,
            "duration": 5.56
        },
        {
            "text": "came up to me and was like yo yo hey yo",
            "start": 1004.079,
            "duration": 4.801
        },
        {
            "text": "baby Prime you want $2 million to come",
            "start": 1006.24,
            "duration": 5.839
        },
        {
            "text": "stream over on Kick I'd be like hell",
            "start": 1008.88,
            "duration": 6.6
        },
        {
            "text": "yeah hell yeah kick I'm coming on over",
            "start": 1012.079,
            "duration": 4.961
        },
        {
            "text": "tell me what I got to do do I got to",
            "start": 1015.48,
            "duration": 3.719
        },
        {
            "text": "wear make America great again hat hell",
            "start": 1017.04,
            "duration": 4.12
        },
        {
            "text": "yeah give me that $2 million like right",
            "start": 1019.199,
            "duration": 4.721
        },
        {
            "text": "like I'm not I'm not stupid of course",
            "start": 1021.16,
            "duration": 4.36
        },
        {
            "text": "I'm going to take the bag right like",
            "start": 1023.92,
            "duration": 3.36
        },
        {
            "text": "well come on like who wouldn't do that",
            "start": 1025.52,
            "duration": 4.319
        },
        {
            "text": "you guys are crazy and so do I blame",
            "start": 1027.28,
            "duration": 5.399
        },
        {
            "text": "lenoe at all for saying like hey we",
            "start": 1029.839,
            "duration": 4.6
        },
        {
            "text": "don't have to ma we don't have to manage",
            "start": 1032.679,
            "duration": 4.52
        },
        {
            "text": "anything and we get a billion dollars go",
            "start": 1034.439,
            "duration": 6.441
        },
        {
            "text": "get a billion dollars okay come on",
            "start": 1037.199,
            "duration": 7.561
        },
        {
            "text": "stupid stupid it's stupid by the way",
            "start": 1040.88,
            "duration": 5.48
        },
        {
            "text": "this is crazy down here can we just take",
            "start": 1044.76,
            "duration": 3.679
        },
        {
            "text": "a moment and look at this Google Cloud",
            "start": 1046.36,
            "duration": 5.08
        },
        {
            "text": "depends on the service is $111 per uh",
            "start": 1048.439,
            "duration": 6.881
        },
        {
            "text": "some per some amount of gigabyte render",
            "start": 1051.44,
            "duration": 6.479
        },
        {
            "text": "100 gigabytes to one terabyte is $300",
            "start": 1055.32,
            "duration": 7.0
        },
        {
            "text": "for sell 100 gabt to 1 terabyte is $400",
            "start": 1057.919,
            "duration": 8.601
        },
        {
            "text": "netlify 100 gabt to 1 terabyte is",
            "start": 1062.32,
            "duration": 8.239
        },
        {
            "text": "$550 that's a lot of money that's that's",
            "start": 1066.52,
            "duration": 6.039
        },
        {
            "text": "crazy well yeah but that's if you wanted",
            "start": 1070.559,
            "duration": 3.921
        },
        {
            "text": "to leave right like if you wanted to",
            "start": 1072.559,
            "duration": 4.281
        },
        {
            "text": "leave and you contained a lot of memory",
            "start": 1074.48,
            "duration": 4.52
        },
        {
            "text": "that's crazy that's a lot of of money",
            "start": 1076.84,
            "duration": 3.719
        },
        {
            "text": "that's how you rent seek son that's how",
            "start": 1079.0,
            "duration": 4.64
        },
        {
            "text": "you rent seek netlify is like wait a",
            "start": 1080.559,
            "duration": 5.321
        },
        {
            "text": "second if Amazon's making money off of",
            "start": 1083.64,
            "duration": 5.44
        },
        {
            "text": "egress and we're using Amazon we make",
            "start": 1085.88,
            "duration": 5.48
        },
        {
            "text": "money off of",
            "start": 1089.08,
            "duration": 4.52
        },
        {
            "text": "egress you got to pay me while you're",
            "start": 1091.36,
            "duration": 4.439
        },
        {
            "text": "paying them to leave okay you got to pay",
            "start": 1093.6,
            "duration": 3.8
        },
        {
            "text": "like every time you stack one of these",
            "start": 1095.799,
            "duration": 3.601
        },
        {
            "text": "conveniences on you got to pay somebody",
            "start": 1097.4,
            "duration": 3.44
        },
        {
            "text": "on the way out like how does that work",
            "start": 1099.4,
            "duration": 3.56
        },
        {
            "text": "with clerk like really how does that",
            "start": 1100.84,
            "duration": 4.8
        },
        {
            "text": "work with clerk I'm curious because you",
            "start": 1102.96,
            "duration": 4.12
        },
        {
            "text": "know you have these like authentication",
            "start": 1105.64,
            "duration": 2.88
        },
        {
            "text": "Services if you want to switch",
            "start": 1107.08,
            "duration": 3.88
        },
        {
            "text": "authentication Services how much does it",
            "start": 1108.52,
            "duration": 4.159
        },
        {
            "text": "how much does it cost to leave it is",
            "start": 1110.96,
            "duration": 3.079
        },
        {
            "text": "literally techn",
            "start": 1112.679,
            "duration": 4.0
        },
        {
            "text": "feudalism we got feudal Lords now it's",
            "start": 1114.039,
            "duration": 4.241
        },
        {
            "text": "actually very it's very",
            "start": 1116.679,
            "duration": 3.721
        },
        {
            "text": "interesting and Azure we see the free",
            "start": 1118.28,
            "duration": 3.08
        },
        {
            "text": "allowance",
            "start": 1120.4,
            "duration": 3.24
        },
        {
            "text": "decrease incre but then it gets even",
            "start": 1121.36,
            "duration": 3.6
        },
        {
            "text": "worse when we look at platforms like",
            "start": 1123.64,
            "duration": 3.12
        },
        {
            "text": "forcell and NFI they're basically",
            "start": 1124.96,
            "duration": 3.56
        },
        {
            "text": "pricing their bandwidth at five times",
            "start": 1126.76,
            "duration": 3.96
        },
        {
            "text": "what AWS charges them pretty clever but",
            "start": 1128.52,
            "duration": 3.2
        },
        {
            "text": "why don't they just buy their own",
            "start": 1130.72,
            "duration": 2.6
        },
        {
            "text": "servers to reduce these costs even",
            "start": 1131.72,
            "duration": 3.0
        },
        {
            "text": "further well as you can see their",
            "start": 1133.32,
            "duration": 2.92
        },
        {
            "text": "infrastructure is highly dependent on",
            "start": 1134.72,
            "duration": 3.56
        },
        {
            "text": "AWS and their egress fees would be as",
            "start": 1136.24,
            "duration": 3.72
        },
        {
            "text": "astronomical and another thing is that",
            "start": 1138.28,
            "duration": 4.0
        },
        {
            "text": "many database companies like say mongodb",
            "start": 1139.96,
            "duration": 3.92
        },
        {
            "text": "give you the option to choose a cloud",
            "start": 1142.28,
            "duration": 2.84
        },
        {
            "text": "when you create an account well if",
            "start": 1143.88,
            "duration": 2.72
        },
        {
            "text": "you're a customer with a massive data",
            "start": 1145.12,
            "duration": 3.12
        },
        {
            "text": "set it's going to be extremely expensive",
            "start": 1146.6,
            "duration": 3.24
        },
        {
            "text": "to use this service if it's not on the",
            "start": 1148.24,
            "duration": 3.48
        },
        {
            "text": "same cloud and essentially that forces",
            "start": 1149.84,
            "duration": 3.719
        },
        {
            "text": "every Big Data SAS company into the",
            "start": 1151.72,
            "duration": 3.439
        },
        {
            "text": "cloud and that's why Jeff Bezos has a",
            "start": 1153.559,
            "duration": 3.681
        },
        {
            "text": "$500 million yacht with a figure head of",
            "start": 1155.159,
            "duration": 3.841
        },
        {
            "text": "his girlfriend on the bow and you don't",
            "start": 1157.24,
            "duration": 2.799
        },
        {
            "text": "but data",
            "start": 1159.0,
            "duration": 3.32
        },
        {
            "text": "transfer absolutely",
            "start": 1160.039,
            "duration": 7.88
        },
        {
            "text": "real ABS AB dude absolutely real and I",
            "start": 1162.32,
            "duration": 8.08
        },
        {
            "text": "just want let you know that I have never",
            "start": 1167.919,
            "duration": 4.88
        },
        {
            "text": "wanted a yacht and then all of the",
            "start": 1170.4,
            "duration": 4.92
        },
        {
            "text": "sudden I want a yacht with a figure head",
            "start": 1172.799,
            "duration": 5.841
        },
        {
            "text": "of my wife on there just want I want to",
            "start": 1175.32,
            "duration": 6.0
        },
        {
            "text": "kick kick you know I'm just saying if",
            "start": 1178.64,
            "duration": 6.039
        },
        {
            "text": "you want to make a deal you know if you",
            "start": 1181.32,
            "duration": 5.4
        },
        {
            "text": "want to make a deal fees are just one",
            "start": 1184.679,
            "duration": 3.721
        },
        {
            "text": "small way to get locked in another big",
            "start": 1186.72,
            "duration": 3.68
        },
        {
            "text": "issue is proprietary technology all the",
            "start": 1188.4,
            "duration": 3.279
        },
        {
            "text": "big clouds have their own custom",
            "start": 1190.4,
            "duration": 2.96
        },
        {
            "text": "databases which are closed source and",
            "start": 1191.679,
            "duration": 3.681
        },
        {
            "text": "not easy to migrate to other platforms",
            "start": 1193.36,
            "duration": 3.679
        },
        {
            "text": "even if you use an open lib squeal",
            "start": 1195.36,
            "duration": 3.84
        },
        {
            "text": "People Source database like postgress or",
            "start": 1197.039,
            "duration": 4.281
        },
        {
            "text": "MySQL you'll likely use a fully managed",
            "start": 1199.2,
            "duration": 4.0
        },
        {
            "text": "service like RDS in which case you're",
            "start": 1201.32,
            "duration": 3.52
        },
        {
            "text": "reliant on the cloud to scale the",
            "start": 1203.2,
            "duration": 3.32
        },
        {
            "text": "infrastructure and handle things like",
            "start": 1204.84,
            "duration": 4.04
        },
        {
            "text": "security updates and the surround to be",
            "start": 1206.52,
            "duration": 4.84
        },
        {
            "text": "fair the database stuff I have less of a",
            "start": 1208.88,
            "duration": 4.2
        },
        {
            "text": "concern about I mean migrating obviously",
            "start": 1211.36,
            "duration": 3.199
        },
        {
            "text": "migrating from one database service to",
            "start": 1213.08,
            "duration": 3.2
        },
        {
            "text": "another is is most certainly a pain in",
            "start": 1214.559,
            "duration": 3.24
        },
        {
            "text": "the ass and probably requires some level",
            "start": 1216.28,
            "duration": 4.48
        },
        {
            "text": "of downtime uh database management is",
            "start": 1217.799,
            "duration": 5.801
        },
        {
            "text": "extremely hard like if if you if you",
            "start": 1220.76,
            "duration": 4.88
        },
        {
            "text": "cross I mean there's obviously a line in",
            "start": 1223.6,
            "duration": 3.4
        },
        {
            "text": "which it's not hard you know when you",
            "start": 1225.64,
            "duration": 3.0
        },
        {
            "text": "have no customers it's like not hard if",
            "start": 1227.0,
            "duration": 4.0
        },
        {
            "text": "you have 10 customers it's not hard but",
            "start": 1228.64,
            "duration": 4.56
        },
        {
            "text": "but once you cross a certain line it",
            "start": 1231.0,
            "duration": 4.159
        },
        {
            "text": "database database is really hard it's",
            "start": 1233.2,
            "duration": 3.68
        },
        {
            "text": "it's really hard lib squeal is dope lib",
            "start": 1235.159,
            "duration": 3.561
        },
        {
            "text": "squeal is dope that's why I love",
            "start": 1236.88,
            "duration": 5.88
        },
        {
            "text": "turo again the two founders of turo they",
            "start": 1238.72,
            "duration": 6.319
        },
        {
            "text": "they did so much of silid DB they're",
            "start": 1242.76,
            "duration": 4.36
        },
        {
            "text": "extremely smart they're awesome I like",
            "start": 1245.039,
            "duration": 5.201
        },
        {
            "text": "them uh dang need ecosystem I just don't",
            "start": 1247.12,
            "duration": 4.36
        },
        {
            "text": "want I just don't want to do database",
            "start": 1250.24,
            "duration": 2.52
        },
        {
            "text": "management honestly that's like the one",
            "start": 1251.48,
            "duration": 3.04
        },
        {
            "text": "thing I will avoid I would rather pay",
            "start": 1252.76,
            "duration": 4.2
        },
        {
            "text": "more money to avoid that integrated all",
            "start": 1254.52,
            "duration": 3.6
        },
        {
            "text": "the products work great when they're on",
            "start": 1256.96,
            "duration": 2.76
        },
        {
            "text": "on the same Cloud but most things aren't",
            "start": 1258.12,
            "duration": 3.32
        },
        {
            "text": "standardized to work properly outside",
            "start": 1259.72,
            "duration": 3.16
        },
        {
            "text": "that cloud and sometimes that can even",
            "start": 1261.44,
            "duration": 3.16
        },
        {
            "text": "include open source tools when you build",
            "start": 1262.88,
            "duration": 3.56
        },
        {
            "text": "your infrastructure around custom apis",
            "start": 1264.6,
            "duration": 3.6
        },
        {
            "text": "and proprietary Tech it becomes harder",
            "start": 1266.44,
            "duration": 3.2
        },
        {
            "text": "and harder to just transfer things",
            "start": 1268.2,
            "duration": 3.079
        },
        {
            "text": "elsewhere but nobody wants to be a slave",
            "start": 1269.64,
            "duration": 3.68
        },
        {
            "text": "to the cloud so what do we do about it",
            "start": 1271.279,
            "duration": 3.841
        },
        {
            "text": "well we have three main options option",
            "start": 1273.32,
            "duration": 3.599
        },
        {
            "text": "one is to not use the cloud at all",
            "start": 1275.12,
            "duration": 3.48
        },
        {
            "text": "instead you buy your own server and get",
            "start": 1276.919,
            "duration": 3.561
        },
        {
            "text": "some static IP addresses and try to",
            "start": 1278.6,
            "duration": 3.48
        },
        {
            "text": "manage everything by yourself it'll be",
            "start": 1280.48,
            "duration": 3.24
        },
        {
            "text": "way more expensive UPF front way more",
            "start": 1282.08,
            "duration": 3.36
        },
        {
            "text": "labor intensive to maintain it won't be",
            "start": 1283.72,
            "duration": 3.52
        },
        {
            "text": "as fault tolerant or secure but could",
            "start": 1285.44,
            "duration": 3.52
        },
        {
            "text": "pay off in the long this option doesn't",
            "start": 1287.24,
            "duration": 3.48
        },
        {
            "text": "make a lot of sense for hackers but",
            "start": 1288.96,
            "duration": 3.16
        },
        {
            "text": "makes a lot of sense for mediumsized",
            "start": 1290.72,
            "duration": 3.28
        },
        {
            "text": "businesses like base camp which claims",
            "start": 1292.12,
            "duration": 4.52
        },
        {
            "text": "it'll sa it also he he's not even",
            "start": 1294.0,
            "duration": 5.36
        },
        {
            "text": "mentioning uh a",
            "start": 1296.64,
            "duration": 6.68
        },
        {
            "text": "ref uh this one right here how a ref",
            "start": 1299.36,
            "duration": 7.0
        },
        {
            "text": "saved 400 million in three years by not",
            "start": 1303.32,
            "duration": 5.0
        },
        {
            "text": "going to the cloud yeah Cloud can get",
            "start": 1306.36,
            "duration": 5.0
        },
        {
            "text": "pretty expensive people Cloud Uber it",
            "start": 1308.32,
            "duration": 4.76
        },
        {
            "text": "can get Uber expensive there there there",
            "start": 1311.36,
            "duration": 3.919
        },
        {
            "text": "comes a point where you have to think",
            "start": 1313.08,
            "duration": 3.719
        },
        {
            "text": "about what you're doing wasn't that",
            "start": 1315.279,
            "duration": 3.28
        },
        {
            "text": "debunked to be a less impressive number",
            "start": 1316.799,
            "duration": 3.441
        },
        {
            "text": "it was still it was it was like it was",
            "start": 1318.559,
            "duration": 3.561
        },
        {
            "text": "still in the we're talking about I I",
            "start": 1320.24,
            "duration": 3.4
        },
        {
            "text": "think I remember reading something about",
            "start": 1322.12,
            "duration": 4.32
        },
        {
            "text": "that but it was still into the into the",
            "start": 1323.64,
            "duration": 4.76
        },
        {
            "text": "nine figure business it was very very",
            "start": 1326.44,
            "duration": 3.2
        },
        {
            "text": "large I remember someone being like",
            "start": 1328.4,
            "duration": 2.72
        },
        {
            "text": "actually it's like a 100 million it's",
            "start": 1329.64,
            "duration": 3.8
        },
        {
            "text": "just like oh okay that's still that's",
            "start": 1331.12,
            "duration": 4.32
        },
        {
            "text": "still like a lot that's like a lot of",
            "start": 1333.44,
            "duration": 4.479
        },
        {
            "text": "money that's like that's like a crazy",
            "start": 1335.44,
            "duration": 4.76
        },
        {
            "text": "that's like crazy amounts of money $7",
            "start": 1337.919,
            "duration": 4.081
        },
        {
            "text": "million over the next five years by",
            "start": 1340.2,
            "duration": 3.76
        },
        {
            "text": "moving off of the cloud option two is to",
            "start": 1342.0,
            "duration": 3.88
        },
        {
            "text": "use the cloud responsibly and by that I",
            "start": 1343.96,
            "duration": 3.68
        },
        {
            "text": "mean use open source technologies that",
            "start": 1345.88,
            "duration": 3.44
        },
        {
            "text": "are aable which will then allow you to",
            "start": 1347.64,
            "duration": 3.519
        },
        {
            "text": "use a multicloud strategy where you pick",
            "start": 1349.32,
            "duration": 3.4
        },
        {
            "text": "and choose the best services from each",
            "start": 1351.159,
            "duration": 3.841
        },
        {
            "text": "of the major clouds or a hybrid strategy",
            "start": 1352.72,
            "duration": 3.92
        },
        {
            "text": "where you use your own hardware for some",
            "start": 1355.0,
            "duration": 3.4
        },
        {
            "text": "things and the cloud for others then",
            "start": 1356.64,
            "duration": 3.72
        },
        {
            "text": "finally option three is to embrace the",
            "start": 1358.4,
            "duration": 3.759
        },
        {
            "text": "addiction pick a cloud and take the easy",
            "start": 1360.36,
            "duration": 3.559
        },
        {
            "text": "way out with all their proprietary Tech",
            "start": 1362.159,
            "duration": 3.4
        },
        {
            "text": "the cloud is not supposed to be cheaper",
            "start": 1363.919,
            "duration": 3.281
        },
        {
            "text": "what you're paying for is convenience",
            "start": 1365.559,
            "duration": 4.681
        },
        {
            "text": "bare metal minus pain equals AWS AWS",
            "start": 1367.2,
            "duration": 5.12
        },
        {
            "text": "minus pain equals verell the real",
            "start": 1370.24,
            "duration": 3.6
        },
        {
            "text": "question is how much pain are you",
            "start": 1372.32,
            "duration": 2.839
        },
        {
            "text": "willing to tolerate this has been the",
            "start": 1373.84,
            "duration": 3.12
        },
        {
            "text": "code report thanks for watching and I",
            "start": 1375.159,
            "duration": 3.721
        },
        {
            "text": "will see you in the next one",
            "start": 1376.96,
            "duration": 4.68
        },
        {
            "text": "damn damn I still can't believe they",
            "start": 1378.88,
            "duration": 5.0
        },
        {
            "text": "they literally they literally merch me",
            "start": 1381.64,
            "duration": 5.279
        },
        {
            "text": "my own stuff all the time damn that was",
            "start": 1383.88,
            "duration": 5.32
        },
        {
            "text": "Wild Fire Ship is so funny and I can't",
            "start": 1386.919,
            "duration": 3.561
        },
        {
            "text": "stop thinking about that guy doing all",
            "start": 1389.2,
            "duration": 2.92
        },
        {
            "text": "those cartwheels uh that was a great",
            "start": 1390.48,
            "duration": 3.799
        },
        {
            "text": "video um I think he's spot I mean I",
            "start": 1392.12,
            "duration": 4.039
        },
        {
            "text": "honestly I think he's spoton which is",
            "start": 1394.279,
            "duration": 3.081
        },
        {
            "text": "what are what are you going to do what",
            "start": 1396.159,
            "duration": 3.041
        },
        {
            "text": "are what are you g to do yes I do like",
            "start": 1397.36,
            "duration": 4.319
        },
        {
            "text": "asmin gold okay what are you gonna do",
            "start": 1399.2,
            "duration": 4.359
        },
        {
            "text": "you know as a startup it it it literally",
            "start": 1401.679,
            "duration": 4.761
        },
        {
            "text": "makes no sense to try to uh roll your",
            "start": 1403.559,
            "duration": 5.281
        },
        {
            "text": "own cloud right you have to embrace the",
            "start": 1406.44,
            "duration": 5.08
        },
        {
            "text": "all right so okay so like this is so",
            "start": 1408.84,
            "duration": 4.28
        },
        {
            "text": "long I don't know if I want to read read",
            "start": 1411.52,
            "duration": 2.759
        },
        {
            "text": "it all",
            "start": 1413.12,
            "duration": 3.28
        },
        {
            "text": "AWS uh is there anything new let's see",
            "start": 1414.279,
            "duration": 3.76
        },
        {
            "text": "Amazon fourth quarter results uh net",
            "start": 1416.4,
            "duration": 4.6
        },
        {
            "text": "sales increased 14% gosh gosh that's so",
            "start": 1418.039,
            "duration": 6.281
        },
        {
            "text": "much money uh that just so dang much",
            "start": 1421.0,
            "duration": 5.88
        },
        {
            "text": "money uh operating income net income",
            "start": 1424.32,
            "duration": 4.76
        },
        {
            "text": "increase to 10 let's see to 10 billion",
            "start": 1426.88,
            "duration": 4.32
        },
        {
            "text": "uh in the fourth quarter or $1 per",
            "start": 1429.08,
            "duration": 4.199
        },
        {
            "text": "diluted share let's see compare it to",
            "start": 1431.2,
            "duration": 4.56
        },
        {
            "text": "let's see 0.3 billion or in the fourth",
            "start": 1433.279,
            "duration": 4.241
        },
        {
            "text": "quarter 2022 oh wow they've really gone",
            "start": 1435.76,
            "duration": 4.24
        },
        {
            "text": "up in the Moonies they're really doing",
            "start": 1437.52,
            "duration": 3.8
        },
        {
            "text": "okay well I guess now I mean I guess",
            "start": 1440.0,
            "duration": 2.919
        },
        {
            "text": "Netflix's projection now doesn't look",
            "start": 1441.32,
            "duration": 4.32
        },
        {
            "text": "that good uh fourth quarter let's see do",
            "start": 1442.919,
            "duration": 4.521
        },
        {
            "text": "we have anything that says about AWS",
            "start": 1445.64,
            "duration": 4.76
        },
        {
            "text": "that makes more sense AWS AWS uh",
            "start": 1447.44,
            "duration": 5.28
        },
        {
            "text": "operating income was uh 24.6 billion",
            "start": 1450.4,
            "duration": 4.08
        },
        {
            "text": "compared to the operating income of 20",
            "start": 1452.72,
            "duration": 5.199
        },
        {
            "text": "22 so a a moderate a moderate increase",
            "start": 1454.48,
            "duration": 5.52
        },
        {
            "text": "let's see uh for let's see let's see AWS",
            "start": 1457.919,
            "duration": 3.481
        },
        {
            "text": "continued long-term focus of customers",
            "start": 1460.0,
            "duration": 3.44
        },
        {
            "text": "and feature delivery what features are",
            "start": 1461.4,
            "duration": 3.999
        },
        {
            "text": "you delivering coupled with our new gen",
            "start": 1463.44,
            "duration": 5.04
        },
        {
            "text": "capabilities okay yeah see I don't I",
            "start": 1465.399,
            "duration": 4.121
        },
        {
            "text": "don't want to have to read through I",
            "start": 1468.48,
            "duration": 1.919
        },
        {
            "text": "mean honestly I don't want to have to",
            "start": 1469.52,
            "duration": 3.8
        },
        {
            "text": "read through all of this and get it all",
            "start": 1470.399,
            "duration": 6.081
        },
        {
            "text": "a poultry two billion weak right if if",
            "start": 1473.32,
            "duration": 4.479
        },
        {
            "text": "someone can just like teal the Army",
            "start": 1476.48,
            "duration": 3.079
        },
        {
            "text": "because or else I'm just going to say",
            "start": 1477.799,
            "duration": 4.24
        },
        {
            "text": "congratulations or I'm sorry right I",
            "start": 1479.559,
            "duration": 4.401
        },
        {
            "text": "think it's a wrong to propose a hybrid",
            "start": 1482.039,
            "duration": 3.561
        },
        {
            "text": "or multicloud solution I think you're",
            "start": 1483.96,
            "duration": 3.24
        },
        {
            "text": "absolutely right on this one uh",
            "start": 1485.6,
            "duration": 3.559
        },
        {
            "text": "multicloud solution is crazy honestly",
            "start": 1487.2,
            "duration": 3.76
        },
        {
            "text": "it's it's super crazy it's it's",
            "start": 1489.159,
            "duration": 4.88
        },
        {
            "text": "extremely difficult ain't no way you're",
            "start": 1490.96,
            "duration": 4.24
        },
        {
            "text": "going to be able to successfully",
            "start": 1494.039,
            "duration": 3.161
        },
        {
            "text": "multicloud easily you know what I mean",
            "start": 1495.2,
            "duration": 4.04
        },
        {
            "text": "ain't no way you're going to do it",
            "start": 1497.2,
            "duration": 4.44
        },
        {
            "text": "successfully don't do that it's it's",
            "start": 1499.24,
            "duration": 4.08
        },
        {
            "text": "it's silly just do do something better",
            "start": 1501.64,
            "duration": 3.44
        },
        {
            "text": "Goku could do well you're ain't Goku",
            "start": 1503.32,
            "duration": 5.56
        },
        {
            "text": "okay you ain't Goku but the name you",
            "start": 1505.08,
            "duration": 6.0
        },
        {
            "text": "know what the name is say it say it say",
            "start": 1508.88,
            "duration": 4.679
        },
        {
            "text": "it it's the aggress Gen okay everyone",
            "start": 1511.08,
            "duration": 4.839
        },
        {
            "text": "knows that",
            "start": 1513.559,
            "duration": 2.36
        }
    ],
    "stats": {
        "viewCount": "89224",
        "likeCount": "2551",
        "favoriteCount": "0",
        "commentCount": "256"
    }
}