{
    "id": "C39kz155jzo",
    "title": "Rust Wont Save Us",
    "publishedAt": "2024-02-18T17:00:07Z",
    "captions": [
        {
            "text": "hey rust won't save you but its ideas",
            "start": 0.28,
            "duration": 5.36
        },
        {
            "text": "will update after receiving some",
            "start": 3.36,
            "duration": 4.28
        },
        {
            "text": "constructive feedback the example errors",
            "start": 5.64,
            "duration": 4.159
        },
        {
            "text": "were",
            "start": 7.64,
            "duration": 2.159
        },
        {
            "text": "fixed glitch B I know you're in the",
            "start": 10.4,
            "duration": 4.96
        },
        {
            "text": "audience how much of it percentage wise",
            "start": 12.519,
            "duration": 5.241
        },
        {
            "text": "was constructive feedback are we talking",
            "start": 15.36,
            "duration": 4.8
        },
        {
            "text": "like nine out of 10 constructive",
            "start": 17.76,
            "duration": 5.759
        },
        {
            "text": "feedback or we talking like half so much",
            "start": 20.16,
            "duration": 6.6
        },
        {
            "text": "hate I just dude isn't it wild that you",
            "start": 23.519,
            "duration": 5.0
        },
        {
            "text": "you you you took the time you write",
            "start": 26.76,
            "duration": 3.8
        },
        {
            "text": "something you know I haven't read this",
            "start": 28.519,
            "duration": 3.6
        },
        {
            "text": "yet I assume you're going to put out",
            "start": 30.56,
            "duration": 4.679
        },
        {
            "text": "some ideas and you know that everyone",
            "start": 32.119,
            "duration": 4.841
        },
        {
            "text": "makes mistakes right everybody makes a",
            "start": 35.239,
            "duration": 3.84
        },
        {
            "text": "few mistakes along the way and it's just",
            "start": 36.96,
            "duration": 3.64
        },
        {
            "text": "like ain't no way and they're going to",
            "start": 39.079,
            "duration": 4.081
        },
        {
            "text": "come hard in on you it's just the worst",
            "start": 40.6,
            "duration": 4.479
        },
        {
            "text": "and that phrase come hard in on you",
            "start": 43.16,
            "duration": 2.96
        },
        {
            "text": "probably doesn't",
            "start": 45.079,
            "duration": 3.521
        },
        {
            "text": "make my case very well but hey that's",
            "start": 46.12,
            "duration": 3.88
        },
        {
            "text": "the words I chose so deal with it",
            "start": 48.6,
            "duration": 3.0
        },
        {
            "text": "recently I came across this article",
            "start": 50.0,
            "duration": 3.719
        },
        {
            "text": "titled rust won't save us an analysis of",
            "start": 51.6,
            "duration": 4.799
        },
        {
            "text": "223's known exploited vulnerabilities",
            "start": 53.719,
            "duration": 4.84
        },
        {
            "text": "being the clickbait that it is I clicked",
            "start": 56.399,
            "duration": 4.84
        },
        {
            "text": "nice job uh quick background on me I've",
            "start": 58.559,
            "duration": 4.32
        },
        {
            "text": "worked in cyber security for almost 10",
            "start": 61.239,
            "duration": 3.441
        },
        {
            "text": "years I know cyber security way more",
            "start": 62.879,
            "duration": 3.521
        },
        {
            "text": "than I know development my day job is",
            "start": 64.68,
            "duration": 3.52
        },
        {
            "text": "securing infrastructure and code an",
            "start": 66.4,
            "duration": 4.2
        },
        {
            "text": "article like this picks pequs my",
            "start": 68.2,
            "duration": 4.52
        },
        {
            "text": "interest uh I've been writing programs",
            "start": 70.6,
            "duration": 4.0
        },
        {
            "text": "in Rust for a few years now okay so",
            "start": 72.72,
            "duration": 2.96
        },
        {
            "text": "you're",
            "start": 74.6,
            "duration": 4.0
        },
        {
            "text": "experienced by the way glitch just just",
            "start": 75.68,
            "duration": 5.04
        },
        {
            "text": "like to kind of clarify where this is",
            "start": 78.6,
            "duration": 4.8
        },
        {
            "text": "are you uh full-time writing rust or",
            "start": 80.72,
            "duration": 4.24
        },
        {
            "text": "just like hobbiest writing rust for the",
            "start": 83.4,
            "duration": 2.719
        },
        {
            "text": "last few years because I'd be in the",
            "start": 84.96,
            "duration": 2.6
        },
        {
            "text": "hobbiest writing rust for the last few",
            "start": 86.119,
            "duration": 4.081
        },
        {
            "text": "years not really full-time so that means",
            "start": 87.56,
            "duration": 7.04
        },
        {
            "text": "I Arc mutex my hash",
            "start": 90.2,
            "duration": 4.4
        },
        {
            "text": "Maps that's I think you could gauge",
            "start": 95.2,
            "duration": 6.48
        },
        {
            "text": "Yourself by do you use Arch arc mutexes",
            "start": 97.92,
            "duration": 6.04
        },
        {
            "text": "on your hash Maps I ship rust to prod",
            "start": 101.68,
            "duration": 4.28
        },
        {
            "text": "okay whoa you ship rust to prod okay",
            "start": 103.96,
            "duration": 4.159
        },
        {
            "text": "that's",
            "start": 105.96,
            "duration": 2.159
        },
        {
            "text": "unusual you participate in the clickbait",
            "start": 109.52,
            "duration": 3.199
        },
        {
            "text": "I know he did participate in the",
            "start": 111.719,
            "duration": 3.08
        },
        {
            "text": "clickbait but it's awesome tldr rust was",
            "start": 112.719,
            "duration": 3.281
        },
        {
            "text": "made to solve memory related",
            "start": 114.799,
            "duration": 2.68
        },
        {
            "text": "vulnerabilities and issues but that only",
            "start": 116.0,
            "duration": 3.799
        },
        {
            "text": "makes up 19.5% of the most exploited",
            "start": 117.479,
            "duration": 4.6
        },
        {
            "text": "vulnerabilities in 2023 routing and path",
            "start": 119.799,
            "duration": 4.041
        },
        {
            "text": "abuse exploits tied for second place",
            "start": 122.079,
            "duration": 3.36
        },
        {
            "text": "with memory vulnerabilities followed by",
            "start": 123.84,
            "duration": 2.54
        },
        {
            "text": "default",
            "start": 125.439,
            "duration": 5.361
        },
        {
            "text": "[Laughter]",
            "start": 126.38,
            "duration": 6.9
        },
        {
            "text": "Secrets what what was that low-level",
            "start": 130.8,
            "duration": 4.0
        },
        {
            "text": "there was a low there was a low-level",
            "start": 133.28,
            "duration": 3.679
        },
        {
            "text": "learning tweet that was so good about",
            "start": 134.8,
            "duration": 4.519
        },
        {
            "text": "this exact exact same",
            "start": 136.959,
            "duration": 4.761
        },
        {
            "text": "thing let's see if I can find it really",
            "start": 139.319,
            "duration": 5.721
        },
        {
            "text": "quickly oh yeah right here memory and",
            "start": 141.72,
            "duration": 5.96
        },
        {
            "text": "safety will fix computer security also",
            "start": 145.04,
            "duration": 6.4
        },
        {
            "text": "password right right effing there during",
            "start": 147.68,
            "duration": 4.96
        },
        {
            "text": "the Super",
            "start": 151.44,
            "duration": 6.24
        },
        {
            "text": "Bowl this is a shot of the Super",
            "start": 152.64,
            "duration": 8.8
        },
        {
            "text": "Bowl the",
            "start": 157.68,
            "duration": 6.36
        },
        {
            "text": "password it's right",
            "start": 161.44,
            "duration": 6.6
        },
        {
            "text": "there super secret oh bye it's memory",
            "start": 164.04,
            "duration": 6.72
        },
        {
            "text": "issues are the worst uh request",
            "start": 168.04,
            "duration": 5.16
        },
        {
            "text": "smuggling and weak encryption oh really",
            "start": 170.76,
            "duration": 4.32
        },
        {
            "text": "weak encryption I'm curious about this",
            "start": 173.2,
            "duration": 3.36
        },
        {
            "text": "one because I know there's a probably a",
            "start": 175.08,
            "duration": 3.32
        },
        {
            "text": "lot of old services that use like what",
            "start": 176.56,
            "duration": 4.64
        },
        {
            "text": "RSA 2 two something four something8",
            "start": 178.4,
            "duration": 4.52
        },
        {
            "text": "something and they're just like one",
            "start": 181.2,
            "duration": 3.8
        },
        {
            "text": "generation away from quantum computers",
            "start": 182.92,
            "duration": 5.0
        },
        {
            "text": "just destroying them uh the most abused",
            "start": 185.0,
            "duration": 6.239
        },
        {
            "text": "exploit insecure exposed functions EF",
            "start": 187.92,
            "duration": 4.039
        },
        {
            "text": "that sounds like something the",
            "start": 191.239,
            "duration": 2.801
        },
        {
            "text": "government would say at 48.8% I don't",
            "start": 191.959,
            "duration": 4.2
        },
        {
            "text": "know what uh insecure exposed functions",
            "start": 194.04,
            "duration": 4.4
        },
        {
            "text": "let's maybe it'll explain it the Artic",
            "start": 196.159,
            "duration": 3.681
        },
        {
            "text": "goes on to making the most generic",
            "start": 198.44,
            "duration": 3.04
        },
        {
            "text": "recommendations any cyber SEC",
            "start": 199.84,
            "duration": 3.92
        },
        {
            "text": "professional would already know vendors",
            "start": 201.48,
            "duration": 3.839
        },
        {
            "text": "uh vendors one develop the depth of",
            "start": 203.76,
            "duration": 3.32
        },
        {
            "text": "knowledge of your engineers in the",
            "start": 205.319,
            "duration": 3.361
        },
        {
            "text": "framework they use two Harden",
            "start": 207.08,
            "duration": 3.96
        },
        {
            "text": "standardize and audit the use of those",
            "start": 208.68,
            "duration": 4.199
        },
        {
            "text": "Frameworks across products three enable",
            "start": 211.04,
            "duration": 4.36
        },
        {
            "text": "and expose uh verbose logging for your",
            "start": 212.879,
            "duration": 4.28
        },
        {
            "text": "products I mean this is just a really",
            "start": 215.4,
            "duration": 4.559
        },
        {
            "text": "great thing to to debug and be careful",
            "start": 217.159,
            "duration": 4.44
        },
        {
            "text": "of your logger you use you don't want",
            "start": 219.959,
            "duration": 4.241
        },
        {
            "text": "that log for but this is actually really",
            "start": 221.599,
            "duration": 4.241
        },
        {
            "text": "good I mean this is just great piece of",
            "start": 224.2,
            "duration": 3.44
        },
        {
            "text": "advice by the way but this is also the",
            "start": 225.84,
            "duration": 3.479
        },
        {
            "text": "most generic meaningless advice I've",
            "start": 227.64,
            "duration": 4.08
        },
        {
            "text": "ever heard in my entire lifetime",
            "start": 229.319,
            "duration": 6.801
        },
        {
            "text": "one don't have skill issues two make",
            "start": 231.72,
            "duration": 6.239
        },
        {
            "text": "sure everybody else doesn't have skill",
            "start": 236.12,
            "duration": 4.479
        },
        {
            "text": "issues three don't forget to",
            "start": 237.959,
            "duration": 5.84
        },
        {
            "text": "log developer one uh assume all code you",
            "start": 240.599,
            "duration": 4.961
        },
        {
            "text": "write is reachable from an",
            "start": 243.799,
            "duration": 4.481
        },
        {
            "text": "unauthenticated context that's pretty",
            "start": 245.56,
            "duration": 4.16
        },
        {
            "text": "good that's good good thing for uh",
            "start": 248.28,
            "duration": 4.319
        },
        {
            "text": "non-sec people to think about uh",
            "start": 249.72,
            "duration": 5.0
        },
        {
            "text": "practice uh defense in-depth programming",
            "start": 252.599,
            "duration": 3.48
        },
        {
            "text": "and don't make it easy for an attacker",
            "start": 254.72,
            "duration": 3.28
        },
        {
            "text": "to Shell out I one time accidentally",
            "start": 256.079,
            "duration": 2.961
        },
        {
            "text": "created a bug that would take down",
            "start": 258.0,
            "duration": 2.84
        },
        {
            "text": "Netflix with a simple while loop and I'm",
            "start": 259.04,
            "duration": 3.28
        },
        {
            "text": "talking about like would take down",
            "start": 260.84,
            "duration": 4.2
        },
        {
            "text": "Netflix permanently you could not fix it",
            "start": 262.32,
            "duration": 5.12
        },
        {
            "text": "there was no fixing it I did that you",
            "start": 265.04,
            "duration": 4.599
        },
        {
            "text": "couldn't roll back you couldn't yeah I",
            "start": 267.44,
            "duration": 3.759
        },
        {
            "text": "did that it was called they in fact I",
            "start": 269.639,
            "duration": 4.12
        },
        {
            "text": "even got I it even got its own personal",
            "start": 271.199,
            "duration": 4.761
        },
        {
            "text": "name I personally got named and got a",
            "start": 273.759,
            "duration": 5.16
        },
        {
            "text": "logo for the type of attack I AC",
            "start": 275.96,
            "duration": 5.679
        },
        {
            "text": "created okay not many people get this",
            "start": 278.919,
            "duration": 5.401
        },
        {
            "text": "okay not many people get the opportunity",
            "start": 281.639,
            "duration": 5.241
        },
        {
            "text": "to write a service so bad that it",
            "start": 284.32,
            "duration": 4.76
        },
        {
            "text": "literally could destroy all of Netflix",
            "start": 286.88,
            "duration": 4.759
        },
        {
            "text": "but that was my code it was my code it",
            "start": 289.08,
            "duration": 4.8
        },
        {
            "text": "was my code but it to be fair it wasn't",
            "start": 291.639,
            "duration": 5.761
        },
        {
            "text": "my idea to be fair I just made the code",
            "start": 293.88,
            "duration": 4.8
        },
        {
            "text": "and then I discovered that it was a",
            "start": 297.4,
            "duration": 2.44
        },
        {
            "text": "problem and I started sending send out",
            "start": 298.68,
            "duration": 3.4
        },
        {
            "text": "secret emails really long ago and then",
            "start": 299.84,
            "duration": 4.359
        },
        {
            "text": "it caught fire and then it turns out a",
            "start": 302.08,
            "duration": 3.36
        },
        {
            "text": "bunch of people started jumping in and",
            "start": 304.199,
            "duration": 3.521
        },
        {
            "text": "then it it got there I started sending",
            "start": 305.44,
            "duration": 4.52
        },
        {
            "text": "out emails in like 2015 like oh I",
            "start": 307.72,
            "duration": 3.96
        },
        {
            "text": "think something might be wrong here I",
            "start": 309.96,
            "duration": 3.239
        },
        {
            "text": "think I just created I created a while",
            "start": 311.68,
            "duration": 4.04
        },
        {
            "text": "loop and I destroyed all of staging and",
            "start": 313.199,
            "duration": 3.961
        },
        {
            "text": "so I was",
            "start": 315.72,
            "duration": 3.319
        },
        {
            "text": "like boys and",
            "start": 317.16,
            "duration": 4.56
        },
        {
            "text": "girls we got ourselves a problem uh",
            "start": 319.039,
            "duration": 4.761
        },
        {
            "text": "researchers one look for bugs in plac",
            "start": 321.72,
            "duration": 4.199
        },
        {
            "text": "Frameworks come",
            "start": 323.8,
            "duration": 4.92
        },
        {
            "text": "together cool that's a good story",
            "start": 325.919,
            "duration": 4.28
        },
        {
            "text": "therefore rust won't save us there is",
            "start": 328.72,
            "duration": 3.319
        },
        {
            "text": "much truth to that and the advice given",
            "start": 330.199,
            "duration": 3.44
        },
        {
            "text": "by the article is also correct but it",
            "start": 332.039,
            "duration": 3.72
        },
        {
            "text": "doesn't dig into why rust was made in",
            "start": 333.639,
            "duration": 3.601
        },
        {
            "text": "the first place it doesn't ask the",
            "start": 335.759,
            "duration": 4.16
        },
        {
            "text": "question can we reduce eliminate IE",
            "start": 337.24,
            "duration": 5.44
        },
        {
            "text": "abuse similar to how we reduced memory",
            "start": 339.919,
            "duration": 5.201
        },
        {
            "text": "vulnerabilities looking at if what are",
            "start": 342.68,
            "duration": 4.44
        },
        {
            "text": "insecure function uh exposed functions",
            "start": 345.12,
            "duration": 4.48
        },
        {
            "text": "exactly let's take a look at the m",
            "start": 347.12,
            "duration": 4.12
        },
        {
            "text": "definition the product provides an",
            "start": 349.6,
            "duration": 3.92
        },
        {
            "text": "application programming interface API or",
            "start": 351.24,
            "duration": 3.84
        },
        {
            "text": "similar similar interface for",
            "start": 353.52,
            "duration": 3.519
        },
        {
            "text": "interacting with external actors but the",
            "start": 355.08,
            "duration": 3.6
        },
        {
            "text": "interface includes A Dangerous Method or",
            "start": 357.039,
            "duration": 3.641
        },
        {
            "text": "function that is not properly restricted",
            "start": 358.68,
            "duration": 3.88
        },
        {
            "text": "this weakness can lead to a wide variety",
            "start": 360.68,
            "duration": 4.239
        },
        {
            "text": "of resultant weaknesses depending on the",
            "start": 362.56,
            "duration": 4.359
        },
        {
            "text": "behavior of the exposed method it can",
            "start": 364.919,
            "duration": 3.72
        },
        {
            "text": "apply to any number of Technologies and",
            "start": 366.919,
            "duration": 4.12
        },
        {
            "text": "approaches such as ActiveX controls Java",
            "start": 368.639,
            "duration": 5.4
        },
        {
            "text": "functions IO uh inversion of control",
            "start": 371.039,
            "duration": 4.681
        },
        {
            "text": "what is this oh is this IO controls IO",
            "start": 374.039,
            "duration": 3.44
        },
        {
            "text": "controls I read this as ioc and then I",
            "start": 375.72,
            "duration": 3.36
        },
        {
            "text": "was like wait a second ioc timelines",
            "start": 377.479,
            "duration": 4.56
        },
        {
            "text": "that ain't right uh input output",
            "start": 379.08,
            "duration": 5.679
        },
        {
            "text": "controls and so on uh the exposure can",
            "start": 382.039,
            "duration": 4.401
        },
        {
            "text": "occur in a few different ways a function",
            "start": 384.759,
            "duration": 3.521
        },
        {
            "text": "SL me method was never intended to be",
            "start": 386.44,
            "duration": 3.8
        },
        {
            "text": "exposed to outside actors the function",
            "start": 388.28,
            "duration": 3.639
        },
        {
            "text": "SL method was only intended to be",
            "start": 390.24,
            "duration": 3.48
        },
        {
            "text": "accessible to a limited set of actors",
            "start": 391.919,
            "duration": 3.521
        },
        {
            "text": "such as internet based access from a",
            "start": 393.72,
            "duration": 4.8
        },
        {
            "text": "single website if is access to a",
            "start": 395.44,
            "duration": 5.28
        },
        {
            "text": "functions that outside world should",
            "start": 398.52,
            "duration": 6.399
        },
        {
            "text": "never have had access to in the first",
            "start": 400.72,
            "duration": 4.199
        },
        {
            "text": "place IO cuddles is that what people",
            "start": 407.0,
            "duration": 4.319
        },
        {
            "text": "call them IO cuddles I would call them",
            "start": 409.639,
            "duration": 6.24
        },
        {
            "text": "IO controls IO cuddles really weird",
            "start": 411.319,
            "duration": 6.16
        },
        {
            "text": "let's take a look at an example from the",
            "start": 415.879,
            "duration": 4.121
        },
        {
            "text": "Mitre page public remove move database",
            "start": 417.479,
            "duration": 4.521
        },
        {
            "text": "string database name damn that is a this",
            "start": 420.0,
            "duration": 5.319
        },
        {
            "text": "is a this is a this is a hell this is I",
            "start": 422.0,
            "duration": 5.28
        },
        {
            "text": "would never write this this code should",
            "start": 425.319,
            "duration": 5.401
        },
        {
            "text": "just not exist can we all agree that",
            "start": 427.28,
            "duration": 5.599
        },
        {
            "text": "that code seems",
            "start": 430.72,
            "duration": 3.96
        },
        {
            "text": "terrifying",
            "start": 432.879,
            "duration": 4.921
        },
        {
            "text": "um it just seems terrifying I love how",
            "start": 434.68,
            "duration": 5.12
        },
        {
            "text": "it's void yeah it's void let's see",
            "start": 437.8,
            "duration": 4.48
        },
        {
            "text": "statement create statement drop database",
            "start": 439.8,
            "duration": 4.72
        },
        {
            "text": "database name squeal exception all right",
            "start": 442.28,
            "duration": 4.12
        },
        {
            "text": "nice in this example we have a Java",
            "start": 444.52,
            "duration": 3.56
        },
        {
            "text": "method remove database that will delete",
            "start": 446.4,
            "duration": 3.359
        },
        {
            "text": "a database with the name specified in",
            "start": 448.08,
            "duration": 3.0
        },
        {
            "text": "the parameter the problem is this method",
            "start": 449.759,
            "duration": 2.801
        },
        {
            "text": "should never have been public by",
            "start": 451.08,
            "duration": 2.88
        },
        {
            "text": "declaring it public the rest of the",
            "start": 452.56,
            "duration": 3.12
        },
        {
            "text": "application has access to this method",
            "start": 453.96,
            "duration": 3.12
        },
        {
            "text": "even though it should be restricted",
            "start": 455.68,
            "duration": 3.76
        },
        {
            "text": "remove database yeah private okay yes",
            "start": 457.08,
            "duration": 4.2
        },
        {
            "text": "Java has a few key wordss for deciding",
            "start": 459.44,
            "duration": 3.199
        },
        {
            "text": "the level of access to the rest of the",
            "start": 461.28,
            "duration": 3.56
        },
        {
            "text": "code base public protected private yeah",
            "start": 462.639,
            "duration": 4.201
        },
        {
            "text": "I guess having it I mean accidentally",
            "start": 464.84,
            "duration": 4.759
        },
        {
            "text": "exposing all Atomic pieces can can can",
            "start": 466.84,
            "duration": 6.44
        },
        {
            "text": "lead to a a bad",
            "start": 469.599,
            "duration": 6.201
        },
        {
            "text": "situation but again if let's say you're",
            "start": 473.28,
            "duration": 5.039
        },
        {
            "text": "doing a database per user squeal light",
            "start": 475.8,
            "duration": 4.359
        },
        {
            "text": "approach",
            "start": 478.319,
            "duration": 3.641
        },
        {
            "text": "I'm going to literally write this code",
            "start": 480.159,
            "duration": 4.241
        },
        {
            "text": "this week or next week because I'm going",
            "start": 481.96,
            "duration": 3.88
        },
        {
            "text": "to be doing a squeal light",
            "start": 484.4,
            "duration": 3.04
        },
        {
            "text": "implementation of a per user database",
            "start": 485.84,
            "duration": 3.28
        },
        {
            "text": "for Vim APM and guess what I mean this",
            "start": 487.44,
            "duration": 3.0
        },
        {
            "text": "is just like this is the kind of stuff",
            "start": 489.12,
            "duration": 2.44
        },
        {
            "text": "you have to have because if somebody",
            "start": 490.44,
            "duration": 2.319
        },
        {
            "text": "wants their data removed I mean I'm",
            "start": 491.56,
            "duration": 2.599
        },
        {
            "text": "going to have a way to remove your data",
            "start": 492.759,
            "duration": 2.921
        },
        {
            "text": "and that involves drop dropping your",
            "start": 494.159,
            "duration": 4.681
        },
        {
            "text": "personal database you know what I mean",
            "start": 495.68,
            "duration": 4.919
        },
        {
            "text": "uh Java has a few keywords for deciding",
            "start": 498.84,
            "duration": 3.039
        },
        {
            "text": "the level of access oh yeah we already",
            "start": 500.599,
            "duration": 3.0
        },
        {
            "text": "read that now let's take the same",
            "start": 501.879,
            "duration": 3.04
        },
        {
            "text": "example and see what it would be like in",
            "start": 503.599,
            "duration": 3.841
        },
        {
            "text": "Rust public function remove database",
            "start": 504.919,
            "duration": 5.441
        },
        {
            "text": "it's still there rust only has Pub as a",
            "start": 507.44,
            "duration": 4.4
        },
        {
            "text": "keyword for determining whether an item",
            "start": 510.36,
            "duration": 3.039
        },
        {
            "text": "has public or private scope by default",
            "start": 511.84,
            "duration": 4.119
        },
        {
            "text": "all rust code is inherently private in",
            "start": 513.399,
            "duration": 4.56
        },
        {
            "text": "Java if no met modifier is added its",
            "start": 515.959,
            "duration": 4.481
        },
        {
            "text": "scope level uh Java assumes it has",
            "start": 517.959,
            "duration": 4.52
        },
        {
            "text": "package private access which is a",
            "start": 520.44,
            "duration": 4.88
        },
        {
            "text": "package level rather than an item level",
            "start": 522.479,
            "duration": 5.48
        },
        {
            "text": "there similar esque in other words",
            "start": 525.32,
            "duration": 5.04
        },
        {
            "text": "visibility control in Rust is explicit",
            "start": 527.959,
            "duration": 4.361
        },
        {
            "text": "and controlled through the pub modifier",
            "start": 530.36,
            "duration": 4.56
        },
        {
            "text": "Java's visibility control is implicit if",
            "start": 532.32,
            "duration": 5.44
        },
        {
            "text": "no modifier is specified allowing Access",
            "start": 534.92,
            "duration": 4.599
        },
        {
            "text": "Control based on their location within",
            "start": 537.76,
            "duration": 4.36
        },
        {
            "text": "the code base if a modifier is specified",
            "start": 539.519,
            "duration": 4.721
        },
        {
            "text": "then it is",
            "start": 542.12,
            "duration": 4.52
        },
        {
            "text": "explicit interesting okay in order for",
            "start": 544.24,
            "duration": 4.599
        },
        {
            "text": "rust uh function to be public we would",
            "start": 546.64,
            "duration": 3.84
        },
        {
            "text": "have to declare it as this yes with the",
            "start": 548.839,
            "duration": 3.961
        },
        {
            "text": "word Pub okay interesting you can say",
            "start": 550.48,
            "duration": 4.24
        },
        {
            "text": "the same thing about go unless if you",
            "start": 552.8,
            "duration": 3.36
        },
        {
            "text": "capitalize the",
            "start": 554.72,
            "duration": 6.53
        },
        {
            "text": "[Laughter]",
            "start": 556.16,
            "duration": 5.09
        },
        {
            "text": "access this example is simple scoping",
            "start": 561.56,
            "duration": 5.36
        },
        {
            "text": "error or laziness uh it's easy to miss",
            "start": 563.92,
            "duration": 5.28
        },
        {
            "text": "but rust is less likely to make you a",
            "start": 566.92,
            "duration": 4.52
        },
        {
            "text": "make this mistake okay so it's private",
            "start": 569.2,
            "duration": 4.16
        },
        {
            "text": "by default big deal there's other ways",
            "start": 571.44,
            "duration": 3.519
        },
        {
            "text": "of improperly accessing functions and",
            "start": 573.36,
            "duration": 4.28
        },
        {
            "text": "abusing them we're going to look at this",
            "start": 574.959,
            "duration": 4.521
        },
        {
            "text": "atlassian Confluence vulnerability how",
            "start": 577.64,
            "duration": 3.199
        },
        {
            "text": "can we potentially solve it what was the",
            "start": 579.48,
            "duration": 3.88
        },
        {
            "text": "problem the application insecurely",
            "start": 580.839,
            "duration": 5.0
        },
        {
            "text": "exposed an endpoint server info action",
            "start": 583.36,
            "duration": 4.2
        },
        {
            "text": "bootstrap status provider application",
            "start": 585.839,
            "duration": 4.0
        },
        {
            "text": "config setup config false or setup",
            "start": 587.56,
            "duration": 4.08
        },
        {
            "text": "complete equals false that allows",
            "start": 589.839,
            "duration": 2.961
        },
        {
            "text": "modification to the server's",
            "start": 591.64,
            "duration": 3.24
        },
        {
            "text": "configuration State setting this state",
            "start": 592.8,
            "duration": 3.92
        },
        {
            "text": "to false allows an attacker to re-enter",
            "start": 594.88,
            "duration": 4.399
        },
        {
            "text": "an application setup uh and add an",
            "start": 596.72,
            "duration": 6.08
        },
        {
            "text": "administrative user dang we must note",
            "start": 599.279,
            "duration": 5.881
        },
        {
            "text": "that the class Comm atlassian Confluence",
            "start": 602.8,
            "duration": 4.56
        },
        {
            "text": "core actions server info actions extend",
            "start": 605.16,
            "duration": 5.28
        },
        {
            "text": "Class C atlassian Confluence core action",
            "start": 607.36,
            "duration": 5.44
        },
        {
            "text": "uh Confluence action support this will",
            "start": 610.44,
            "duration": 5.88
        },
        {
            "text": "be important during the exploit",
            "start": 612.8,
            "duration": 3.52
        },
        {
            "text": "exploitation so it's it's Java's fault",
            "start": 617.04,
            "duration": 4.2
        },
        {
            "text": "really Russ doesn't have inheritance",
            "start": 619.36,
            "duration": 2.96
        },
        {
            "text": "which makes it less likely to",
            "start": 621.24,
            "duration": 2.68
        },
        {
            "text": "accidentally inherit unintended behavior",
            "start": 622.32,
            "duration": 4.16
        },
        {
            "text": "from parent class instead rust offers",
            "start": 623.92,
            "duration": 4.28
        },
        {
            "text": "other mechanisms for code reuse and",
            "start": 626.48,
            "duration": 4.12
        },
        {
            "text": "polymorphism the decision to admit",
            "start": 628.2,
            "duration": 4.44
        },
        {
            "text": "inheritance from rust by its designers",
            "start": 630.6,
            "duration": 3.72
        },
        {
            "text": "simplifies the language reducing a",
            "start": 632.64,
            "duration": 4.04
        },
        {
            "text": "potential",
            "start": 634.32,
            "duration": 2.36
        },
        {
            "text": "for I mean this is just a funny phrase",
            "start": 636.959,
            "duration": 4.601
        },
        {
            "text": "to say can we just take a moment and",
            "start": 639.839,
            "duration": 5.081
        },
        {
            "text": "laugh at least a little",
            "start": 641.56,
            "duration": 3.36
        },
        {
            "text": "bit that the phrase simplifies rust it's",
            "start": 646.76,
            "duration": 8.24
        },
        {
            "text": "funny I mean it's funny okay it's funny",
            "start": 650.8,
            "duration": 5.8
        },
        {
            "text": "uh reducing the potential for",
            "start": 655.0,
            "duration": 3.519
        },
        {
            "text": "inheritance related issues such as the",
            "start": 656.6,
            "duration": 3.96
        },
        {
            "text": "diamond problem problem or fragile Base",
            "start": 658.519,
            "duration": 5.041
        },
        {
            "text": "Class problem fragile Bas this is this",
            "start": 660.56,
            "duration": 4.92
        },
        {
            "text": "is all my base classes I've ever written",
            "start": 663.56,
            "duration": 3.32
        },
        {
            "text": "every time I write a base class it",
            "start": 665.48,
            "duration": 3.32
        },
        {
            "text": "becomes fragile I swear encourages",
            "start": 666.88,
            "duration": 3.36
        },
        {
            "text": "composition over an inheritance provide",
            "start": 668.8,
            "duration": 3.08
        },
        {
            "text": "trait-based polymorphism as an",
            "start": 670.24,
            "duration": 3.56
        },
        {
            "text": "alternative allowing you to define a",
            "start": 671.88,
            "duration": 3.92
        },
        {
            "text": "behavior that types can",
            "start": 673.8,
            "duration": 5.52
        },
        {
            "text": "Implement dude fragile bass class dude I",
            "start": 675.8,
            "duration": 6.479
        },
        {
            "text": "got way too many ribbons for not winning",
            "start": 679.32,
            "duration": 4.48
        },
        {
            "text": "and now look my bass classes suck",
            "start": 682.279,
            "duration": 2.961
        },
        {
            "text": "inheritance can be useful in certain",
            "start": 683.8,
            "duration": 3.4
        },
        {
            "text": "context but rust design philosophy",
            "start": 685.24,
            "duration": 3.32
        },
        {
            "text": "prioritizes Simplicity safety and",
            "start": 687.2,
            "duration": 2.92
        },
        {
            "text": "expressive leaning in favor of",
            "start": 688.56,
            "duration": 2.959
        },
        {
            "text": "composition traits and other language",
            "start": 690.12,
            "duration": 3.12
        },
        {
            "text": "features we know that we can Leverage",
            "start": 691.519,
            "duration": 4.641
        },
        {
            "text": "The xw Works 2 feature of supplying HTTP",
            "start": 693.24,
            "duration": 5.0
        },
        {
            "text": "parameter to call Setter methods on",
            "start": 696.16,
            "duration": 4.4
        },
        {
            "text": "objects we need to identify an",
            "start": 698.24,
            "duration": 4.52
        },
        {
            "text": "unauthenticated endpoint whose action",
            "start": 700.56,
            "duration": 4.12
        },
        {
            "text": "object also exposes a suitable get",
            "start": 702.76,
            "duration": 4.36
        },
        {
            "text": "method that will allow us to access the",
            "start": 704.68,
            "duration": 4.56
        },
        {
            "text": "application configuration remember the",
            "start": 707.12,
            "duration": 5.519
        },
        {
            "text": "class this thing seen uh during diffing",
            "start": 709.24,
            "duration": 5.24
        },
        {
            "text": "we explore the base class it inherits",
            "start": 712.639,
            "duration": 4.0
        },
        {
            "text": "from this one if bootstrap status",
            "start": 714.48,
            "duration": 3.68
        },
        {
            "text": "provider equals null then we create a",
            "start": 716.639,
            "duration": 4.841
        },
        {
            "text": "new instance we returned the",
            "start": 718.16,
            "duration": 5.4
        },
        {
            "text": "provider",
            "start": 721.48,
            "duration": 4.76
        },
        {
            "text": "nice nice we can see this class has a",
            "start": 723.56,
            "duration": 4.6
        },
        {
            "text": "getter method this which returns this",
            "start": 726.24,
            "duration": 4.36
        },
        {
            "text": "instance uh we're looking for uh in turn",
            "start": 728.16,
            "duration": 3.88
        },
        {
            "text": "as a getter method get application",
            "start": 730.6,
            "duration": 2.799
        },
        {
            "text": "config which returns applications",
            "start": 732.04,
            "duration": 3.479
        },
        {
            "text": "configuration okay yeah get the app",
            "start": 733.399,
            "duration": 4.081
        },
        {
            "text": "there we go isn't this code just",
            "start": 735.519,
            "duration": 3.76
        },
        {
            "text": "beautiful by the way can we all just",
            "start": 737.48,
            "duration": 3.88
        },
        {
            "text": "take a moment and just look don't you",
            "start": 739.279,
            "duration": 4.521
        },
        {
            "text": "love tracing through delegates like aren",
            "start": 741.36,
            "duration": 5.08
        },
        {
            "text": "delegates one of your most favorite",
            "start": 743.8,
            "duration": 3.92
        },
        {
            "text": "things",
            "start": 746.44,
            "duration": 3.16
        },
        {
            "text": "ever like",
            "start": 747.72,
            "duration": 5.64
        },
        {
            "text": "who doesn't love a good runtime",
            "start": 749.6,
            "duration": 3.76
        },
        {
            "text": "decision finally we can see the class uh",
            "start": 756.6,
            "duration": 6.2
        },
        {
            "text": "implements the setter method no I",
            "start": 759.519,
            "duration": 5.601
        },
        {
            "text": "don't public synchronized void setup",
            "start": 762.8,
            "duration": 3.839
        },
        {
            "text": "complete all right we get this set Russ",
            "start": 765.12,
            "duration": 3.2
        },
        {
            "text": "approach to mutability would have helped",
            "start": 766.639,
            "duration": 3.601
        },
        {
            "text": "here if you want Setters to be mutable",
            "start": 768.32,
            "duration": 3.639
        },
        {
            "text": "then you need to make that explicit yes",
            "start": 770.24,
            "duration": 3.76
        },
        {
            "text": "I do love this I do think one of Russ",
            "start": 771.959,
            "duration": 3.88
        },
        {
            "text": "best decisions ever and I think this is",
            "start": 774.0,
            "duration": 3.519
        },
        {
            "text": "any programming language's best decision",
            "start": 775.839,
            "duration": 4.0
        },
        {
            "text": "ever is all variabl",
            "start": 777.519,
            "duration": 4.641
        },
        {
            "text": "the default action of any variable or",
            "start": 779.839,
            "duration": 5.68
        },
        {
            "text": "any method is non- mutating you have to",
            "start": 782.16,
            "duration": 9.239
        },
        {
            "text": "opt in to mutating I like that I do like",
            "start": 785.519,
            "duration": 8.961
        },
        {
            "text": "it uh why opt into mutating uh because",
            "start": 791.399,
            "duration": 4.88
        },
        {
            "text": "you have to be extremely explicit in how",
            "start": 794.48,
            "duration": 4.08
        },
        {
            "text": "you use something you do I think that",
            "start": 796.279,
            "duration": 4.68
        },
        {
            "text": "that I think it's a much better opt in",
            "start": 798.56,
            "duration": 4.719
        },
        {
            "text": "and that also gives you a key idea to",
            "start": 800.959,
            "duration": 4.521
        },
        {
            "text": "all places that will change by looking",
            "start": 803.279,
            "duration": 4.161
        },
        {
            "text": "at your code right that's it's one of",
            "start": 805.48,
            "duration": 3.599
        },
        {
            "text": "the weaknesses I consider in go is that",
            "start": 807.44,
            "duration": 3.48
        },
        {
            "text": "if you have any variable declared you",
            "start": 809.079,
            "duration": 3.481
        },
        {
            "text": "don't know which ones are mutated and",
            "start": 810.92,
            "duration": 5.0
        },
        {
            "text": "which ones aren't just by looking at",
            "start": 812.56,
            "duration": 3.36
        },
        {
            "text": "it I think there's just something that",
            "start": 816.04,
            "duration": 5.44
        },
        {
            "text": "it it kind of you default immutability",
            "start": 818.32,
            "duration": 4.24
        },
        {
            "text": "is the best default I think it's a",
            "start": 821.48,
            "duration": 3.52
        },
        {
            "text": "pretty good default I do like it uh",
            "start": 822.56,
            "duration": 4.399
        },
        {
            "text": "progress released a security advisory uh",
            "start": 825.0,
            "duration": 4.24
        },
        {
            "text": "for their uh moveit transfer application",
            "start": 826.959,
            "duration": 3.88
        },
        {
            "text": "which detailed a squeal injection",
            "start": 829.24,
            "duration": 3.2
        },
        {
            "text": "leading to a remote code execution and",
            "start": 830.839,
            "duration": 3.321
        },
        {
            "text": "urg customers to update the latest",
            "start": 832.44,
            "duration": 4.28
        },
        {
            "text": "version the vulnerability this at the",
            "start": 834.16,
            "duration": 4.119
        },
        {
            "text": "time of release was believed to have",
            "start": 836.72,
            "duration": 3.799
        },
        {
            "text": "exploited in the wild as a zero day",
            "start": 838.279,
            "duration": 4.12
        },
        {
            "text": "dating back at least 30 days the",
            "start": 840.519,
            "duration": 4.56
        },
        {
            "text": "function that extracts X seock",
            "start": 842.399,
            "duration": 4.44
        },
        {
            "text": "transaction headers to compare its value",
            "start": 845.079,
            "duration": 4.56
        },
        {
            "text": "to the folded ad by folder ad by path",
            "start": 846.839,
            "duration": 4.36
        },
        {
            "text": "nice job calling it a folder Windows",
            "start": 849.639,
            "duration": 4.64
        },
        {
            "text": "user here has a bug it yeah Windows user",
            "start": 851.199,
            "duration": 4.44
        },
        {
            "text": "wrote it that's why will incorrectly",
            "start": 854.279,
            "duration": 4.961
        },
        {
            "text": "extract headers that end in x clock",
            "start": 855.639,
            "duration": 5.32
        },
        {
            "text": "transaction so an attacker can trick the",
            "start": 859.24,
            "duration": 4.0
        },
        {
            "text": "function by passing the request uh into",
            "start": 860.959,
            "duration": 4.841
        },
        {
            "text": "the machine to aspx oh yeah definitely",
            "start": 863.24,
            "duration": 3.76
        },
        {
            "text": "definitely Windows look at that Windows",
            "start": 865.8,
            "duration": 4.56
        },
        {
            "text": "go by providing a header such say",
            "start": 867.0,
            "duration": 5.839
        },
        {
            "text": "XX lock oh",
            "start": 870.36,
            "duration": 4.56
        },
        {
            "text": "interesting and additionally provide the",
            "start": 872.839,
            "duration": 3.881
        },
        {
            "text": "correctly formatted header with our own",
            "start": 874.92,
            "duration": 3.96
        },
        {
            "text": "arbitrary transaction to be executed uh",
            "start": 876.72,
            "duration": 5.72
        },
        {
            "text": "by the Machine 2 aspx endpoint nice you",
            "start": 878.88,
            "duration": 5.68
        },
        {
            "text": "know remote execution that's defined by",
            "start": 882.44,
            "duration": 4.24
        },
        {
            "text": "header seems like a crazy",
            "start": 884.56,
            "duration": 5.56
        },
        {
            "text": "idea can we just take a moment here and",
            "start": 886.68,
            "duration": 5.719
        },
        {
            "text": "just just pour one out to somebody",
            "start": 890.12,
            "duration": 4.639
        },
        {
            "text": "that's like the only way forward you can",
            "start": 892.399,
            "duration": 4.88
        },
        {
            "text": "just say what function you want to call",
            "start": 894.759,
            "duration": 4.44
        },
        {
            "text": "using Russ HP header header name would",
            "start": 897.279,
            "duration": 3.201
        },
        {
            "text": "have caught this error since the",
            "start": 899.199,
            "duration": 3.241
        },
        {
            "text": "header's past uh would not have been",
            "start": 900.48,
            "duration": 4.2
        },
        {
            "text": "treated as a string but a but a known",
            "start": 902.44,
            "duration": 5.0
        },
        {
            "text": "type header this HTP lib is used in",
            "start": 904.68,
            "duration": 4.36
        },
        {
            "text": "almost every rust web framework for",
            "start": 907.44,
            "duration": 3.319
        },
        {
            "text": "header parsing the right way to do",
            "start": 909.04,
            "duration": 3.4
        },
        {
            "text": "header parsing in Rust requires creating",
            "start": 910.759,
            "duration": 3.561
        },
        {
            "text": "a header name and using that to get a",
            "start": 912.44,
            "duration": 3.48
        },
        {
            "text": "header rather than treating the header",
            "start": 914.32,
            "duration": 3.519
        },
        {
            "text": "names as strings this one advantage of",
            "start": 915.92,
            "duration": 3.919
        },
        {
            "text": "rust type system it's designed to be",
            "start": 917.839,
            "duration": 3.401
        },
        {
            "text": "expressive allowing developers to",
            "start": 919.839,
            "duration": 3.321
        },
        {
            "text": "express complex ideas and patterns into",
            "start": 921.24,
            "duration": 3.76
        },
        {
            "text": "concise and readable manner I don't know",
            "start": 923.16,
            "duration": 3.119
        },
        {
            "text": "much about this one this header name",
            "start": 925.0,
            "duration": 2.279
        },
        {
            "text": "thing I thought header name was just",
            "start": 926.279,
            "duration": 2.48
        },
        {
            "text": "from string I always just thought it was",
            "start": 927.279,
            "duration": 2.56
        },
        {
            "text": "a pain in the ass more than anything",
            "start": 928.759,
            "duration": 4.121
        },
        {
            "text": "else uh rust memory safety it's worth uh",
            "start": 929.839,
            "duration": 4.761
        },
        {
            "text": "noting that rust eliminates most memory",
            "start": 932.88,
            "duration": 3.28
        },
        {
            "text": "corruption issues which would take care",
            "start": 934.6,
            "duration": 3.239
        },
        {
            "text": "of 20% of vulnerabilities exploded in",
            "start": 936.16,
            "duration": 3.799
        },
        {
            "text": "2023 this is a pretty huge when you",
            "start": 937.839,
            "duration": 3.521
        },
        {
            "text": "think about the reports Microsoft and",
            "start": 939.959,
            "duration": 3.161
        },
        {
            "text": "Google have dropped stating 70% of their",
            "start": 941.36,
            "duration": 4.08
        },
        {
            "text": "vulnerabilities were memory safety",
            "start": 943.12,
            "duration": 4.8
        },
        {
            "text": "related Russ doesn't even have null I do",
            "start": 945.44,
            "duration": 4.399
        },
        {
            "text": "love this I do love the idea of not",
            "start": 947.92,
            "duration": 3.64
        },
        {
            "text": "having null I that's one thing I really",
            "start": 949.839,
            "duration": 5.041
        },
        {
            "text": "do wish we had more",
            "start": 951.56,
            "duration": 5.399
        },
        {
            "text": "of you know what I mean I wish we had",
            "start": 954.88,
            "duration": 4.28
        },
        {
            "text": "more of this",
            "start": 956.959,
            "duration": 4.641
        },
        {
            "text": "and go uh we won't uh be having null",
            "start": 959.16,
            "duration": 4.119
        },
        {
            "text": "pointer exceptions issues in Rust",
            "start": 961.6,
            "duration": 3.88
        },
        {
            "text": "anytime soon sorry Java well unless you",
            "start": 963.279,
            "duration": 4.92
        },
        {
            "text": "un RP I",
            "start": 965.48,
            "duration": 2.719
        },
        {
            "text": "mean I mean if",
            "start": 969.199,
            "duration": 6.0
        },
        {
            "text": "you if you unwrap the hero we need the",
            "start": 971.319,
            "duration": 5.721
        },
        {
            "text": "the only problem I have to say about",
            "start": 975.199,
            "duration": 4.401
        },
        {
            "text": "this is that it's really convenient not",
            "start": 977.04,
            "duration": 4.159
        },
        {
            "text": "to have to worry about",
            "start": 979.6,
            "duration": 4.96
        },
        {
            "text": "null your code just looks more",
            "start": 981.199,
            "duration": 5.281
        },
        {
            "text": "simple",
            "start": 984.56,
            "duration": 5.0
        },
        {
            "text": "but the inverse",
            "start": 986.48,
            "duration": 7.2
        },
        {
            "text": "is that if you do have options around",
            "start": 989.56,
            "duration": 6.16
        },
        {
            "text": "everything that could be null you also",
            "start": 993.68,
            "duration": 4.44
        },
        {
            "text": "have to lift it out constantly and then",
            "start": 995.72,
            "duration": 3.679
        },
        {
            "text": "you have this whole problem with lifting",
            "start": 998.12,
            "duration": 2.8
        },
        {
            "text": "out and not coping or getting a",
            "start": 999.399,
            "duration": 3.281
        },
        {
            "text": "reference to it and lifetimes and this",
            "start": 1000.92,
            "duration": 3.159
        },
        {
            "text": "and that there's like a lot of things",
            "start": 1002.68,
            "duration": 2.76
        },
        {
            "text": "you do have to think about it's it's",
            "start": 1004.079,
            "duration": 4.641
        },
        {
            "text": "definitely not like a free",
            "start": 1005.44,
            "duration": 3.28
        },
        {
            "text": "tradeoff right it really is not a free",
            "start": 1009.8,
            "duration": 5.12
        },
        {
            "text": "trade-off at all and like this right",
            "start": 1012.72,
            "duration": 4.599
        },
        {
            "text": "here expect this should not be none I",
            "start": 1014.92,
            "duration": 4.52
        },
        {
            "text": "mean that's great and all except for if",
            "start": 1017.319,
            "duration": 4.841
        },
        {
            "text": "your expect is incorrect that thread",
            "start": 1019.44,
            "duration": 5.759
        },
        {
            "text": "crashes it's gone",
            "start": 1022.16,
            "duration": 4.96
        },
        {
            "text": "forever the here what we need the",
            "start": 1025.199,
            "duration": 3.281
        },
        {
            "text": "average developer is more concerned with",
            "start": 1027.12,
            "duration": 2.76
        },
        {
            "text": "shipping the product now and worrying",
            "start": 1028.48,
            "duration": 3.24
        },
        {
            "text": "about fixing bugs later than how",
            "start": 1029.88,
            "duration": 3.319
        },
        {
            "text": "security can be designed from the uh",
            "start": 1031.72,
            "duration": 3.4
        },
        {
            "text": "from the start security is an",
            "start": 1033.199,
            "duration": 3.84
        },
        {
            "text": "afterthought in many processes uh",
            "start": 1035.12,
            "duration": 3.48
        },
        {
            "text": "something that gets bolted on for",
            "start": 1037.039,
            "duration": 3.121
        },
        {
            "text": "security to work it has to be there from",
            "start": 1038.6,
            "duration": 4.0
        },
        {
            "text": "the start you can't add the egg onto the",
            "start": 1040.16,
            "duration": 4.679
        },
        {
            "text": "C onto your cake once it's baked you",
            "start": 1042.6,
            "duration": 4.8
        },
        {
            "text": "need to add it to the",
            "start": 1044.839,
            "duration": 5.001
        },
        {
            "text": "mixture pretty decent analogy I like",
            "start": 1047.4,
            "duration": 3.84
        },
        {
            "text": "that I like that security is a process",
            "start": 1049.84,
            "duration": 3.28
        },
        {
            "text": "of layering many defensive techniques on",
            "start": 1051.24,
            "duration": 3.52
        },
        {
            "text": "top of each other in an effort to thwart",
            "start": 1053.12,
            "duration": 4.16
        },
        {
            "text": "attackers it's a constant cat and mouse",
            "start": 1054.76,
            "duration": 5.36
        },
        {
            "text": "game the hero we need isn't rust rust",
            "start": 1057.28,
            "duration": 4.399
        },
        {
            "text": "won't address all vulnerabilities and",
            "start": 1060.12,
            "duration": 3.36
        },
        {
            "text": "magically fix them however rust has",
            "start": 1061.679,
            "duration": 3.561
        },
        {
            "text": "inherent qualities from its design",
            "start": 1063.48,
            "duration": 3.76
        },
        {
            "text": "philosophy to make it safer to use in",
            "start": 1065.24,
            "duration": 3.72
        },
        {
            "text": "the average language that is our hero",
            "start": 1067.24,
            "duration": 3.6
        },
        {
            "text": "rust may not save us but the ideas it",
            "start": 1068.96,
            "duration": 3.92
        },
        {
            "text": "embodies will private by default",
            "start": 1070.84,
            "duration": 3.839
        },
        {
            "text": "immutability by default type safety",
            "start": 1072.88,
            "duration": 4.52
        },
        {
            "text": "check at compile",
            "start": 1074.679,
            "duration": 5.721
        },
        {
            "text": "time",
            "start": 1077.4,
            "duration": 3.0
        },
        {
            "text": "static typing is what I would say",
            "start": 1081.559,
            "duration": 3.201
        },
        {
            "text": "because people argue that typescript is",
            "start": 1083.12,
            "duration": 2.559
        },
        {
            "text": "type",
            "start": 1084.76,
            "duration": 3.52
        },
        {
            "text": "safe it's D I mean it's not complet it's",
            "start": 1085.679,
            "duration": 6.281
        },
        {
            "text": "not completely type safe a type A a",
            "start": 1088.28,
            "duration": 5.32
        },
        {
            "text": "static typed",
            "start": 1091.96,
            "duration": 3.92
        },
        {
            "text": "language truly is where you get the",
            "start": 1093.6,
            "duration": 3.959
        },
        {
            "text": "safety from borrow Checker and ownership",
            "start": 1095.88,
            "duration": 3.36
        },
        {
            "text": "model reducing memory corruption yeah",
            "start": 1097.559,
            "duration": 3.24
        },
        {
            "text": "this I mean this is really interesting",
            "start": 1099.24,
            "duration": 3.319
        },
        {
            "text": "uh safe abstractions and idiomatic",
            "start": 1100.799,
            "duration": 3.12
        },
        {
            "text": "patterns that prevent common security",
            "start": 1102.559,
            "duration": 4.081
        },
        {
            "text": "vulnerabilities agreed you still have",
            "start": 1103.919,
            "duration": 3.921
        },
        {
            "text": "like a whole scho of vulnerabilities",
            "start": 1106.64,
            "duration": 3.96
        },
        {
            "text": "that just do exist though uh sound type",
            "start": 1107.84,
            "duration": 4.959
        },
        {
            "text": "system yeah agreed on strong static",
            "start": 1110.6,
            "duration": 4.079
        },
        {
            "text": "typing yeah yeah yeah yeah yeah yeah uh",
            "start": 1112.799,
            "duration": 3.441
        },
        {
            "text": "rust design philosophy is a step in the",
            "start": 1114.679,
            "duration": 3.401
        },
        {
            "text": "right direction I pretty much agree with",
            "start": 1116.24,
            "duration": 4.12
        },
        {
            "text": "almost everything here uh the borrow",
            "start": 1118.08,
            "duration": 4.64
        },
        {
            "text": "Checker I'm I'm still out I'm still out",
            "start": 1120.36,
            "duration": 4.559
        },
        {
            "text": "the door on I really think o camel in",
            "start": 1122.72,
            "duration": 3.8
        },
        {
            "text": "the in the world of borrow checking has",
            "start": 1124.919,
            "duration": 3.64
        },
        {
            "text": "it right which is the default is you",
            "start": 1126.52,
            "duration": 5.68
        },
        {
            "text": "just use it like a a a garbage collected",
            "start": 1128.559,
            "duration": 7.36
        },
        {
            "text": "language but if you wish to have these",
            "start": 1132.2,
            "duration": 5.92
        },
        {
            "text": "axes of certain ways to kind of model",
            "start": 1135.919,
            "duration": 5.481
        },
        {
            "text": "how you're using something the reference",
            "start": 1138.12,
            "duration": 5.76
        },
        {
            "text": "or the mutability isn't a part of its",
            "start": 1141.4,
            "duration": 4.24
        },
        {
            "text": "type it's a part of the function",
            "start": 1143.88,
            "duration": 3.64
        },
        {
            "text": "signature so it's like orthogonal to the",
            "start": 1145.64,
            "duration": 3.72
        },
        {
            "text": "desire of it which means that you can",
            "start": 1147.52,
            "duration": 3.92
        },
        {
            "text": "opt into almost all the borrow Checker",
            "start": 1149.36,
            "duration": 4.4
        },
        {
            "text": "and own ownership models like",
            "start": 1151.44,
            "duration": 5.32
        },
        {
            "text": "goodnesses without having to have all",
            "start": 1153.76,
            "duration": 4.84
        },
        {
            "text": "the pain in the ass when you don't need",
            "start": 1156.76,
            "duration": 4.399
        },
        {
            "text": "it and that's what I I think that's one",
            "start": 1158.6,
            "duration": 7.199
        },
        {
            "text": "thing I think o camel did just so much",
            "start": 1161.159,
            "duration": 4.64
        },
        {
            "text": "better right",
            "start": 1166.88,
            "duration": 5.039
        },
        {
            "text": "it's so much better that way a Russ",
            "start": 1169.039,
            "duration": 4.201
        },
        {
            "text": "design philosophy is a step in the right",
            "start": 1171.919,
            "duration": 2.88
        },
        {
            "text": "direction Russ doesn't rely on the",
            "start": 1173.24,
            "duration": 4.04
        },
        {
            "text": "developer to put the uh in the place uh",
            "start": 1174.799,
            "duration": 4.36
        },
        {
            "text": "all the details it lifts responsibility",
            "start": 1177.28,
            "duration": 3.44
        },
        {
            "text": "from the developer so they can worry",
            "start": 1179.159,
            "duration": 3.161
        },
        {
            "text": "more on developing and less on safety",
            "start": 1180.72,
            "duration": 3.68
        },
        {
            "text": "and correctness imagine using a language",
            "start": 1182.32,
            "duration": 3.08
        },
        {
            "text": "that prevents all these kinds of",
            "start": 1184.4,
            "duration": 3.48
        },
        {
            "text": "vulnerabilities why do we talk around or",
            "start": 1185.4,
            "duration": 4.48
        },
        {
            "text": "about around programming languages as if",
            "start": 1187.88,
            "duration": 3.56
        },
        {
            "text": "there isn't a way to improve their",
            "start": 1189.88,
            "duration": 3.48
        },
        {
            "text": "inherent security by Design as well",
            "start": 1191.44,
            "duration": 4.92
        },
        {
            "text": "besides all the recommendations horizon",
            "start": 1193.36,
            "duration": 5.72
        },
        {
            "text": "horizon horizon oh my I can't believe",
            "start": 1196.36,
            "duration": 5.319
        },
        {
            "text": "how bad I just read that flip take that",
            "start": 1199.08,
            "duration": 3.88
        },
        {
            "text": "take that out don't make me look like an",
            "start": 1201.679,
            "duration": 2.761
        },
        {
            "text": "idiot flip besides all the",
            "start": 1202.96,
            "duration": 3.8
        },
        {
            "text": "recommendations Horizon made programming",
            "start": 1204.44,
            "duration": 4.4
        },
        {
            "text": "languages should also be among them we",
            "start": 1206.76,
            "duration": 4.88
        },
        {
            "text": "should expect all of our languages to be",
            "start": 1208.84,
            "duration": 5.52
        },
        {
            "text": "safer flip keep it in dude I can't my",
            "start": 1211.64,
            "duration": 6.12
        },
        {
            "text": "brain just like totally just flip zoom",
            "start": 1214.36,
            "duration": 7.12
        },
        {
            "text": "in flip make it a short do a Barr roll",
            "start": 1217.76,
            "duration": 6.399
        },
        {
            "text": "flip",
            "start": 1221.48,
            "duration": 2.679
        },
        {
            "text": "um I mean I think there's a lot of",
            "start": 1227.159,
            "duration": 5.281
        },
        {
            "text": "things that rust does",
            "start": 1229.44,
            "duration": 3.0
        },
        {
            "text": "well the memory stuff is really",
            "start": 1233.08,
            "duration": 4.76
        },
        {
            "text": "interesting and if you're an operating",
            "start": 1235.919,
            "duration": 4.161
        },
        {
            "text": "system and obviously that like that that",
            "start": 1237.84,
            "duration": 5.319
        },
        {
            "text": "class of memory bugs is really",
            "start": 1240.08,
            "duration": 5.28
        },
        {
            "text": "important I think the problem with all",
            "start": 1243.159,
            "duration": 4.52
        },
        {
            "text": "of this and I'm just going to be",
            "start": 1245.36,
            "duration": 4.76
        },
        {
            "text": "completely real here is that the average",
            "start": 1247.679,
            "duration": 4.721
        },
        {
            "text": "user is taking clerk",
            "start": 1250.12,
            "duration": 5.6
        },
        {
            "text": "Dev and having a",
            "start": 1252.4,
            "duration": 6.68
        },
        {
            "text": "login they're saving their data",
            "start": 1255.72,
            "duration": 6.16
        },
        {
            "text": "to something like turo some offbox data",
            "start": 1259.08,
            "duration": 4.959
        },
        {
            "text": "place they're writing their front end",
            "start": 1261.88,
            "duration": 6.48
        },
        {
            "text": "and back end in the same",
            "start": 1264.039,
            "duration": 4.321
        },
        {
            "text": "language and all they're caring about is",
            "start": 1268.96,
            "duration": 5.48
        },
        {
            "text": "showing some rectangles on the",
            "start": 1271.52,
            "duration": 5.519
        },
        {
            "text": "screen and so a lot of this just feels",
            "start": 1274.44,
            "duration": 7.08
        },
        {
            "text": "so abstract and away from",
            "start": 1277.039,
            "duration": 7.481
        },
        {
            "text": "them that they're like login problems no",
            "start": 1281.52,
            "duration": 6.2
        },
        {
            "text": "I just use clerk. that's not my problem",
            "start": 1284.52,
            "duration": 5.6
        },
        {
            "text": "oh like don't do this well I just use",
            "start": 1287.72,
            "duration": 4.079
        },
        {
            "text": "these function I just use like like a",
            "start": 1290.12,
            "duration": 3.679
        },
        {
            "text": "templated string so I don't have",
            "start": 1291.799,
            "duration": 3.681
        },
        {
            "text": "injection",
            "start": 1293.799,
            "duration": 4.561
        },
        {
            "text": "problems and they and they're just so",
            "start": 1295.48,
            "duration": 5.24
        },
        {
            "text": "far away from these security problems",
            "start": 1298.36,
            "duration": 4.12
        },
        {
            "text": "they just don't think they really exist",
            "start": 1300.72,
            "duration": 3.959
        },
        {
            "text": "for",
            "start": 1302.48,
            "duration": 2.199
        },
        {
            "text": "them and so that's where I kind of",
            "start": 1308.279,
            "duration": 5.121
        },
        {
            "text": "learned that a lot of this just doesn't",
            "start": 1311.159,
            "duration": 3.241
        },
        {
            "text": "matter it's it's actually one of the",
            "start": 1313.4,
            "duration": 4.24
        },
        {
            "text": "reasons why I'm doing go over rust is",
            "start": 1314.4,
            "duration": 6.639
        },
        {
            "text": "that I love love really good",
            "start": 1317.64,
            "duration": 3.399
        },
        {
            "text": "performance I love really correct",
            "start": 1322.559,
            "duration": 7.521
        },
        {
            "text": "programs but people don't",
            "start": 1326.6,
            "duration": 6.679
        },
        {
            "text": "care they're not going to make a switch",
            "start": 1330.08,
            "duration": 6.479
        },
        {
            "text": "because the investment cost is really",
            "start": 1333.279,
            "duration": 6.921
        },
        {
            "text": "high but go is really",
            "start": 1336.559,
            "duration": 8.041
        },
        {
            "text": "easy the investment cost is really",
            "start": 1340.2,
            "duration": 4.4
        },
        {
            "text": "low you can probably on average bring",
            "start": 1345.279,
            "duration": 5.801
        },
        {
            "text": "more developers from JavaScript is the",
            "start": 1349.0,
            "duration": 3.96
        },
        {
            "text": "only thing that should ever exist into",
            "start": 1351.08,
            "duration": 4.4
        },
        {
            "text": "okay I understand why we have static",
            "start": 1352.96,
            "duration": 4.68
        },
        {
            "text": "typed language is using something like",
            "start": 1355.48,
            "duration": 6.12
        },
        {
            "text": "go than using something like",
            "start": 1357.64,
            "duration": 3.96
        },
        {
            "text": "rust if that makes",
            "start": 1365.08,
            "duration": 3.56
        },
        {
            "text": "sense now there's obviously things that",
            "start": 1371.48,
            "duration": 4.6
        },
        {
            "text": "we should use R for like I I don't want",
            "start": 1373.96,
            "duration": 5.199
        },
        {
            "text": "to use embedded devices that",
            "start": 1376.08,
            "duration": 6.68
        },
        {
            "text": "aren't that aren't like safe right I I",
            "start": 1379.159,
            "duration": 4.961
        },
        {
            "text": "would prefer to use rust cuz I don't",
            "start": 1382.76,
            "duration": 3.519
        },
        {
            "text": "want some something that's supposed to",
            "start": 1384.12,
            "duration": 3.679
        },
        {
            "text": "stop when my finger touches it like a",
            "start": 1386.279,
            "duration": 4.161
        },
        {
            "text": "saw blade get hit with",
            "start": 1387.799,
            "duration": 6.561
        },
        {
            "text": "some undoing of Gull and explode and",
            "start": 1390.44,
            "duration": 6.8
        },
        {
            "text": "continue to chop off my finger right so",
            "start": 1394.36,
            "duration": 4.16
        },
        {
            "text": "I I would prefer rust in those",
            "start": 1397.24,
            "duration": 3.799
        },
        {
            "text": "situations right like I I think we all",
            "start": 1398.52,
            "duration": 3.96
        },
        {
            "text": "know that there's there's certain things",
            "start": 1401.039,
            "duration": 2.281
        },
        {
            "text": "we",
            "start": 1402.48,
            "duration": 4.64
        },
        {
            "text": "want people aware uh care about",
            "start": 1403.32,
            "duration": 6.0
        },
        {
            "text": "performance I made a cool website with",
            "start": 1407.12,
            "duration": 4.12
        },
        {
            "text": "go and small JS bundle and my friends",
            "start": 1409.32,
            "duration": 3.56
        },
        {
            "text": "told me bro just use react and fetch",
            "start": 1411.24,
            "duration": 3.64
        },
        {
            "text": "data on the client it's that easy so I",
            "start": 1412.88,
            "duration": 3.12
        },
        {
            "text": "mean that's kind of where I'm at on",
            "start": 1414.88,
            "duration": 4.039
        },
        {
            "text": "these things like people",
            "start": 1416.0,
            "duration": 6.039
        },
        {
            "text": "offset all the places in which safety is",
            "start": 1418.919,
            "duration": 5.321
        },
        {
            "text": "needed to another like a third party",
            "start": 1422.039,
            "duration": 5.161
        },
        {
            "text": "service F the saw stop guy that's right",
            "start": 1424.24,
            "duration": 5.24
        },
        {
            "text": "PCO but I mean I mean it people off they",
            "start": 1427.2,
            "duration": 4.599
        },
        {
            "text": "they they they they they they Farm out",
            "start": 1429.48,
            "duration": 5.799
        },
        {
            "text": "where they need safety you know and so I",
            "start": 1431.799,
            "duration": 4.721
        },
        {
            "text": "think a lot of this just doesn't hit",
            "start": 1435.279,
            "duration": 2.361
        },
        {
            "text": "home until you're in a large enough",
            "start": 1436.52,
            "duration": 3.639
        },
        {
            "text": "company that this hits home in and",
            "start": 1437.64,
            "duration": 3.68
        },
        {
            "text": "that's you know again this is why I've",
            "start": 1440.159,
            "duration": 2.681
        },
        {
            "text": "been just promoting go mores because I",
            "start": 1441.32,
            "duration": 3.64
        },
        {
            "text": "feel like this is it's it's a lot easier",
            "start": 1442.84,
            "duration": 5.36
        },
        {
            "text": "to make people want to opt in and learn",
            "start": 1444.96,
            "duration": 4.44
        },
        {
            "text": "something that they can be very",
            "start": 1448.2,
            "duration": 2.64
        },
        {
            "text": "productive in like they are productive",
            "start": 1449.4,
            "duration": 4.08
        },
        {
            "text": "in typescript almost immediately like",
            "start": 1450.84,
            "duration": 5.68
        },
        {
            "text": "honestly one day in Rust and you'll be",
            "start": 1453.48,
            "duration": 6.64
        },
        {
            "text": "pretty much as efficient as you are in",
            "start": 1456.52,
            "duration": 3.6
        },
        {
            "text": "typescript maybe two",
            "start": 1460.279,
            "duration": 4.76
        },
        {
            "text": "days and there's a couple of things that",
            "start": 1462.799,
            "duration": 3.441
        },
        {
            "text": "are difficult about it why do I love",
            "start": 1465.039,
            "duration": 3.24
        },
        {
            "text": "rust I really love the type system you",
            "start": 1466.24,
            "duration": 3.679
        },
        {
            "text": "know I'm not going to lie to you no I",
            "start": 1468.279,
            "duration": 4.681
        },
        {
            "text": "I'm a huge fan of pedantic masturbation",
            "start": 1469.919,
            "duration": 6.0
        },
        {
            "text": "so with rust you can just you can just",
            "start": 1472.96,
            "duration": 5.16
        },
        {
            "text": "you can type masturbate all you want",
            "start": 1475.919,
            "duration": 4.801
        },
        {
            "text": "same with typescript go just says Nah",
            "start": 1478.12,
            "duration": 4.12
        },
        {
            "text": "you're not going to do that you're not",
            "start": 1480.72,
            "duration": 4.52
        },
        {
            "text": "that guy pal you're not that guy rust",
            "start": 1482.24,
            "duration": 4.88
        },
        {
            "text": "isn't that hard honestly the compiler is",
            "start": 1485.24,
            "duration": 3.439
        },
        {
            "text": "the most helpful compiler I've ever seen",
            "start": 1487.12,
            "duration": 3.32
        },
        {
            "text": "I know I know people say",
            "start": 1488.679,
            "duration": 4.24
        },
        {
            "text": "this uh and this is just a really bad",
            "start": 1490.44,
            "duration": 4.88
        },
        {
            "text": "thing to say and what I mean by that is",
            "start": 1492.919,
            "duration": 5.0
        },
        {
            "text": "simple rust is simple hard rust is is",
            "start": 1495.32,
            "duration": 4.0
        },
        {
            "text": "hard go",
            "start": 1497.919,
            "duration": 3.921
        },
        {
            "text": "ahead really I want you to go make a",
            "start": 1499.32,
            "duration": 4.68
        },
        {
            "text": "database I want the I want you to pass",
            "start": 1501.84,
            "duration": 4.24
        },
        {
            "text": "around trait objects and I want you to",
            "start": 1504.0,
            "duration": 4.399
        },
        {
            "text": "do that in in in async",
            "start": 1506.08,
            "duration": 4.28
        },
        {
            "text": "world yeah like you build a little",
            "start": 1508.399,
            "duration": 3.721
        },
        {
            "text": "command line that takes in a string does",
            "start": 1510.36,
            "duration": 5.559
        },
        {
            "text": "some manipulation and sends it back out",
            "start": 1512.12,
            "duration": 6.76
        },
        {
            "text": "easy easy right that's not that's not",
            "start": 1515.919,
            "duration": 4.041
        },
        {
            "text": "even a",
            "start": 1518.88,
            "duration": 5.2
        },
        {
            "text": "thing right that's not even a thing it's",
            "start": 1519.96,
            "duration": 6.199
        },
        {
            "text": "of course it's simple the borrow Checker",
            "start": 1524.08,
            "duration": 4.68
        },
        {
            "text": "fundamentally is simple",
            "start": 1526.159,
            "duration": 5.161
        },
        {
            "text": "it's once you get past that that all of",
            "start": 1528.76,
            "duration": 4.2
        },
        {
            "text": "a sudden it becomes difficult the new",
            "start": 1531.32,
            "duration": 3.479
        },
        {
            "text": "async r book explains it very well okay",
            "start": 1532.96,
            "duration": 3.24
        },
        {
            "text": "very interesting I like I might have to",
            "start": 1534.799,
            "duration": 3.721
        },
        {
            "text": "check that",
            "start": 1536.2,
            "duration": 2.32
        },
        {
            "text": "out what's the best language for async",
            "start": 1538.64,
            "duration": 5.44
        },
        {
            "text": "oh go is because go does not have async",
            "start": 1540.96,
            "duration": 6.079
        },
        {
            "text": "O8 go does not have async weight or red",
            "start": 1544.08,
            "duration": 5.199
        },
        {
            "text": "blue functions it just simply has uh gof",
            "start": 1547.039,
            "duration": 6.401
        },
        {
            "text": "Funk your s and um G Funk yourselves",
            "start": 1549.279,
            "duration": 8.481
        },
        {
            "text": "channels and mutexes honestly it's it's",
            "start": 1553.44,
            "duration": 7.56
        },
        {
            "text": "it's the best it is it really is it",
            "start": 1557.76,
            "duration": 5.72
        },
        {
            "text": "really is the it is the best a weight",
            "start": 1561.0,
            "duration": 4.919
        },
        {
            "text": "groups",
            "start": 1563.48,
            "duration": 4.48
        },
        {
            "text": "fantastic it truly is one of the best",
            "start": 1565.919,
            "duration": 4.081
        },
        {
            "text": "ways to handle people love Elixir too so",
            "start": 1567.96,
            "duration": 3.439
        },
        {
            "text": "maybe Elixir could be great I just I",
            "start": 1570.0,
            "duration": 3.2
        },
        {
            "text": "don't have any I don't have the ability",
            "start": 1571.399,
            "duration": 4.361
        },
        {
            "text": "to to speak on Elixir concretely so I I",
            "start": 1573.2,
            "duration": 5.16
        },
        {
            "text": "don't want to I don't want to talk about",
            "start": 1575.76,
            "duration": 5.44
        },
        {
            "text": "it if that makes",
            "start": 1578.36,
            "duration": 4.919
        },
        {
            "text": "sense I just know that people love it",
            "start": 1581.2,
            "duration": 3.64
        },
        {
            "text": "and it appears to be really really",
            "start": 1583.279,
            "duration": 3.321
        },
        {
            "text": "really real",
            "start": 1584.84,
            "duration": 4.48
        },
        {
            "text": "sexy",
            "start": 1586.6,
            "duration": 4.88
        },
        {
            "text": "there you go but I I do really I do",
            "start": 1589.32,
            "duration": 6.239
        },
        {
            "text": "really truly believe",
            "start": 1591.48,
            "duration": 4.079
        },
        {
            "text": "that go has the best async",
            "start": 1595.84,
            "duration": 4.76
        },
        {
            "text": "model atomics and locks is uh is a great",
            "start": 1601.679,
            "duration": 5.12
        },
        {
            "text": "book I thought it was an okay book it's",
            "start": 1604.44,
            "duration": 4.68
        },
        {
            "text": "okay that's kind of where I landed I was",
            "start": 1606.799,
            "duration": 4.161
        },
        {
            "text": "reading the Rust book from CS Brown and",
            "start": 1609.12,
            "duration": 3.08
        },
        {
            "text": "that book convinced me that the compiler",
            "start": 1610.96,
            "duration": 4.8
        },
        {
            "text": "is not really your friend sometimes",
            "start": 1612.2,
            "duration": 6.16
        },
        {
            "text": "yeah JavaScript is not not a good async",
            "start": 1615.76,
            "duration": 5.519
        },
        {
            "text": "await JavaScript suffers from the pro",
            "start": 1618.36,
            "duration": 6.24
        },
        {
            "text": "what's special about Go's async",
            "start": 1621.279,
            "duration": 3.321
        },
        {
            "text": "model it doesn't I just I dog I just I I",
            "start": 1624.64,
            "duration": 6.44
        },
        {
            "text": "just told you about function coloring",
            "start": 1629.44,
            "duration": 4.959
        },
        {
            "text": "and Che",
            "start": 1631.08,
            "duration": 8.0
        },
        {
            "text": "what dog I I like I",
            "start": 1634.399,
            "duration": 4.681
        },
        {
            "text": "just I just",
            "start": 1640.32,
            "duration": 5.479
        },
        {
            "text": "sit it is a Zoolander",
            "start": 1642.76,
            "duration": 6.2
        },
        {
            "text": "moment oh my goodness",
            "start": 1645.799,
            "duration": 5.961
        },
        {
            "text": "you can read",
            "start": 1648.96,
            "duration": 2.8
        },
        {
            "text": "minds anyways uh Hey the name it's the",
            "start": 1653.6,
            "duration": 7.559
        },
        {
            "text": "primagen but why male",
            "start": 1657.24,
            "duration": 10.319
        },
        {
            "text": "models but why male models a Jen",
            "start": 1661.159,
            "duration": 6.4
        }
    ],
    "stats": {
        "viewCount": "98234",
        "likeCount": "2198",
        "favoriteCount": "0",
        "commentCount": "283"
    }
}