{
    "id": "dMfHLUWb6Q0",
    "title": "Accidently created JDSL | Prime Reacts",
    "publishedAt": "2024-02-04T14:00:32Z",
    "captions": [
        {
            "text": "let's start we're starting this how I",
            "start": 0.08,
            "duration": 5.759
        },
        {
            "text": "accidentally created J diesel of data",
            "start": 2.32,
            "duration": 5.68
        },
        {
            "text": "pipelines and it's awesome okay for",
            "start": 5.839,
            "duration": 4.241
        },
        {
            "text": "those that don't know it's from the",
            "start": 8.0,
            "duration": 4.92
        },
        {
            "text": "daily WTF a man named Tom a genius you",
            "start": 10.08,
            "duration": 5.04
        },
        {
            "text": "wouldn't understand he created J diesel",
            "start": 12.92,
            "duration": 5.279
        },
        {
            "text": "J diesel is an experience in which every",
            "start": 15.12,
            "duration": 6.919
        },
        {
            "text": "SVN commit is a function and a class is",
            "start": 18.199,
            "duration": 6.961
        },
        {
            "text": "a construction of a series of SVN",
            "start": 22.039,
            "duration": 5.521
        },
        {
            "text": "commits and for you to be able to build",
            "start": 25.16,
            "duration": 4.119
        },
        {
            "text": "the entire system and has to walk the",
            "start": 27.56,
            "duration": 3.68
        },
        {
            "text": "entire SVN think checking out each one",
            "start": 29.279,
            "duration": 4.561
        },
        {
            "text": "and constructing the JavaScript class",
            "start": 31.24,
            "duration": 5.44
        },
        {
            "text": "from a series of commits so that my",
            "start": 33.84,
            "duration": 5.8
        },
        {
            "text": "friends is J Diesel and comments are",
            "start": 36.68,
            "duration": 4.559
        },
        {
            "text": "executed as code which I'm not even sure",
            "start": 39.64,
            "duration": 2.919
        },
        {
            "text": "how is possible but anyways let's keep",
            "start": 41.239,
            "duration": 2.921
        },
        {
            "text": "on going I ended up creating a data",
            "start": 42.559,
            "duration": 2.721
        },
        {
            "text": "pipeline tool which everything is",
            "start": 44.16,
            "duration": 3.52
        },
        {
            "text": "programmed in Jon becoming the J diesel",
            "start": 45.28,
            "duration": 4.36
        },
        {
            "text": "of data processing and I promise it's",
            "start": 47.68,
            "duration": 3.84
        },
        {
            "text": "actually quite awesome okay so I'm super",
            "start": 49.64,
            "duration": 3.559
        },
        {
            "text": "skeptical of this but I'm so excited",
            "start": 51.52,
            "duration": 4.48
        },
        {
            "text": "about this and short answer I ju I just",
            "start": 53.199,
            "duration": 5.241
        },
        {
            "text": "felt like",
            "start": 56.0,
            "duration": 4.519
        },
        {
            "text": "it let's go",
            "start": 58.44,
            "duration": 4.759
        },
        {
            "text": "that is good good answer because why not",
            "start": 60.519,
            "duration": 4.441
        },
        {
            "text": "it's a crazy challenge after all however",
            "start": 63.199,
            "duration": 3.6
        },
        {
            "text": "the motivation for such a system was",
            "start": 64.96,
            "duration": 4.92
        },
        {
            "text": "based on some work at at avato uh where",
            "start": 66.799,
            "duration": 5.0
        },
        {
            "text": "I was an ml engineer was notice the",
            "start": 69.88,
            "duration": 6.239
        },
        {
            "text": "keyword was okay presented J diesel was",
            "start": 71.799,
            "duration": 6.561
        },
        {
            "text": "an engineer responsible for creating ml",
            "start": 76.119,
            "duration": 4.04
        },
        {
            "text": "models that operated on a batch and",
            "start": 78.36,
            "duration": 3.6
        },
        {
            "text": "streaming data however we hadn't",
            "start": 80.159,
            "duration": 3.121
        },
        {
            "text": "implemented any robust tools for",
            "start": 81.96,
            "duration": 3.08
        },
        {
            "text": "creating data pipelines and I was let's",
            "start": 83.28,
            "duration": 3.56
        },
        {
            "text": "see I was the only one tasked with",
            "start": 85.04,
            "duration": 4.119
        },
        {
            "text": "addressing this issue this might have",
            "start": 86.84,
            "duration": 4.16
        },
        {
            "text": "been the point where I should have opted",
            "start": 89.159,
            "duration": 3.561
        },
        {
            "text": "for a well-known data processing tool",
            "start": 91.0,
            "duration": 4.36
        },
        {
            "text": "like spark or Flink but I came but then",
            "start": 92.72,
            "duration": 4.719
        },
        {
            "text": "came the challenge of training serving",
            "start": 95.36,
            "duration": 4.84
        },
        {
            "text": "skew and ml this skew occurs when a ml",
            "start": 97.439,
            "duration": 5.04
        },
        {
            "text": "model trained on one machine runs on",
            "start": 100.2,
            "duration": 3.84
        },
        {
            "text": "another potentially using a different",
            "start": 102.479,
            "duration": 3.401
        },
        {
            "text": "programming language this means data",
            "start": 104.04,
            "duration": 3.439
        },
        {
            "text": "Transformations needed to be replicated",
            "start": 105.88,
            "duration": 3.32
        },
        {
            "text": "for example a training job might process",
            "start": 107.479,
            "duration": 3.521
        },
        {
            "text": "data in squeal and python while",
            "start": 109.2,
            "duration": 3.68
        },
        {
            "text": "production might use Scala and python",
            "start": 111.0,
            "duration": 3.399
        },
        {
            "text": "replicating complex mathematical",
            "start": 112.88,
            "duration": 3.32
        },
        {
            "text": "functions can quickly lead to slightly",
            "start": 114.399,
            "duration": 3.441
        },
        {
            "text": "different results rendering the ml model",
            "start": 116.2,
            "duration": 3.239
        },
        {
            "text": "ineffective or essentially useless",
            "start": 117.84,
            "duration": 3.72
        },
        {
            "text": "welcome to Costco forgot to turn off",
            "start": 119.439,
            "duration": 3.72
        },
        {
            "text": "alerts hey thank you you're welcome I",
            "start": 121.56,
            "duration": 4.76
        },
        {
            "text": "appreciate that appreciate that uh data",
            "start": 123.159,
            "duration": 5.281
        },
        {
            "text": "transformation is hard kids something",
            "start": 126.32,
            "duration": 5.44
        },
        {
            "text": "something hasal perer function oh camel",
            "start": 128.44,
            "duration": 5.0
        },
        {
            "text": "therefore I needed a way to ensure that",
            "start": 131.76,
            "duration": 3.559
        },
        {
            "text": "Transformations were aligned on every",
            "start": 133.44,
            "duration": 3.4
        },
        {
            "text": "machine regardless of the programming",
            "start": 135.319,
            "duration": 3.64
        },
        {
            "text": "language or version they were running on",
            "start": 136.84,
            "duration": 4.24
        },
        {
            "text": "this sounds like a hard problem this",
            "start": 138.959,
            "duration": 3.56
        },
        {
            "text": "sounds like a hard",
            "start": 141.08,
            "duration": 3.92
        },
        {
            "text": "problem okay okay the crazy idea let's",
            "start": 142.519,
            "duration": 4.601
        },
        {
            "text": "hear about let's hear about Jade diesel",
            "start": 145.0,
            "duration": 4.599
        },
        {
            "text": "here this is where my I had my crazy",
            "start": 147.12,
            "duration": 4.56
        },
        {
            "text": "idea a as each line of data",
            "start": 149.599,
            "duration": 3.801
        },
        {
            "text": "transformation can be represented with",
            "start": 151.68,
            "duration": 3.32
        },
        {
            "text": "very little information for instance if",
            "start": 153.4,
            "duration": 3.96
        },
        {
            "text": "we want to multiply the amount column by",
            "start": 155.0,
            "duration": 4.4
        },
        {
            "text": "10 we can represent a multiply column",
            "start": 157.36,
            "duration": 3.84
        },
        {
            "text": "with constant value transformation and",
            "start": 159.4,
            "duration": 3.68
        },
        {
            "text": "provide the column name amount and value",
            "start": 161.2,
            "duration": 4.119
        },
        {
            "text": "10 the same concept applies to adding",
            "start": 163.08,
            "duration": 4.6
        },
        {
            "text": "two columns we just need to know which",
            "start": 165.319,
            "duration": 4.721
        },
        {
            "text": "two columns to use or for something more",
            "start": 167.68,
            "duration": 4.24
        },
        {
            "text": "advanced like generating and embedding",
            "start": 170.04,
            "duration": 3.52
        },
        {
            "text": "we need to know which embedding model to",
            "start": 171.92,
            "duration": 6.12
        },
        {
            "text": "use and for which column I'm not happy",
            "start": 173.56,
            "duration": 6.8
        },
        {
            "text": "right now it's just at this point we",
            "start": 178.04,
            "duration": 3.64
        },
        {
            "text": "just wrote an interpreter we just wrote",
            "start": 180.36,
            "duration": 3.0
        },
        {
            "text": "an interpreter at this point this is",
            "start": 181.68,
            "duration": 3.32
        },
        {
            "text": "just an interpreter and the bik codes of",
            "start": 183.36,
            "duration": 3.72
        },
        {
            "text": "jaon in this way each transformation",
            "start": 185.0,
            "duration": 3.239
        },
        {
            "text": "would be technically agnostic and",
            "start": 187.08,
            "duration": 2.96
        },
        {
            "text": "therefore sharable across machines with",
            "start": 188.239,
            "duration": 3.161
        },
        {
            "text": "this in mind I needed a way to describe",
            "start": 190.04,
            "duration": 2.759
        },
        {
            "text": "these transformation this led to the use",
            "start": 191.4,
            "duration": 3.839
        },
        {
            "text": "of Jon meaning we actually program ETL",
            "start": 192.799,
            "duration": 3.841
        },
        {
            "text": "pipelines by defining jessan and",
            "start": 195.239,
            "duration": 2.72
        },
        {
            "text": "suddenly we ended up with Jay's diesel",
            "start": 196.64,
            "duration": 4.36
        },
        {
            "text": "pipelines name is fale transformation",
            "start": 197.959,
            "duration": 5.521
        },
        {
            "text": "key sex equals value string value female",
            "start": 201.0,
            "duration": 4.92
        },
        {
            "text": "depending on name sex from here on I",
            "start": 203.48,
            "duration": 3.88
        },
        {
            "text": "feel like there's an Austin Powers joke",
            "start": 205.92,
            "duration": 3.08
        },
        {
            "text": "every time I see the word sex I always",
            "start": 207.36,
            "duration": 4.439
        },
        {
            "text": "go yes in my head just due to stupid",
            "start": 209.0,
            "duration": 4.439
        },
        {
            "text": "Austin power what was that Austin Powers",
            "start": 211.799,
            "duration": 4.64
        },
        {
            "text": "one in 1999 or something like that when",
            "start": 213.439,
            "duration": 5.601
        },
        {
            "text": "was that every single time from here on",
            "start": 216.439,
            "duration": 4.761
        },
        {
            "text": "from here I could load the file into",
            "start": 219.04,
            "duration": 4.839
        },
        {
            "text": "Python and run my Transformations with",
            "start": 221.2,
            "duration": 5.2
        },
        {
            "text": "my processing engine of choice not bad",
            "start": 223.879,
            "duration": 4.521
        },
        {
            "text": "from aligned import file Source",
            "start": 226.4,
            "duration": 4.119
        },
        {
            "text": "Transformations equal await okay what is",
            "start": 228.4,
            "duration": 4.759
        },
        {
            "text": "this",
            "start": 230.519,
            "duration": 2.64
        },
        {
            "text": "this JavaScript is a",
            "start": 233.2,
            "duration": 5.44
        },
        {
            "text": "weight a python feature as well is there",
            "start": 235.84,
            "duration": 4.479
        },
        {
            "text": "a weight in Python what the hell is this",
            "start": 238.64,
            "duration": 3.4
        },
        {
            "text": "what language is this is this Asing",
            "start": 240.319,
            "duration": 3.521
        },
        {
            "text": "python okay I was about to say I keep",
            "start": 242.04,
            "duration": 3.119
        },
        {
            "text": "like I keep looking at it and my brain",
            "start": 243.84,
            "duration": 3.08
        },
        {
            "text": "keeps going this is python then I look",
            "start": 245.159,
            "duration": 3.761
        },
        {
            "text": "at and go no this is not Python and then",
            "start": 246.92,
            "duration": 3.56
        },
        {
            "text": "my brain thinks about I go no this is py",
            "start": 248.92,
            "duration": 3.76
        },
        {
            "text": "and then I just can't like I can't seem",
            "start": 250.48,
            "duration": 4.679
        },
        {
            "text": "to like catch which one I'm looking at",
            "start": 252.68,
            "duration": 5.44
        },
        {
            "text": "okay trans okay okay okay okay uh polar",
            "start": 255.159,
            "duration": 4.121
        },
        {
            "text": "says python that's what I thought so",
            "start": 258.12,
            "duration": 3.079
        },
        {
            "text": "that's that's what gave it away fully",
            "start": 259.28,
            "duration": 3.32
        },
        {
            "text": "that because you could actually convince",
            "start": 261.199,
            "duration": 3.121
        },
        {
            "text": "me that this is Javascript with",
            "start": 262.6,
            "duration": 3.319
        },
        {
            "text": "underscores right like you could",
            "start": 264.32,
            "duration": 3.0
        },
        {
            "text": "convince me that this is Javascript with",
            "start": 265.919,
            "duration": 3.56
        },
        {
            "text": "underscores and I guess there's no conet",
            "start": 267.32,
            "duration": 3.84
        },
        {
            "text": "here that can't be doing Global",
            "start": 269.479,
            "duration": 2.961
        },
        {
            "text": "variables that should have got that",
            "start": 271.16,
            "duration": 4.2
        },
        {
            "text": "should have got me should have got me um",
            "start": 272.44,
            "duration": 4.84
        },
        {
            "text": "anyways all right so let's look at this",
            "start": 275.36,
            "duration": 5.6
        },
        {
            "text": "uh this is Nim sir this is Nim uh all",
            "start": 277.28,
            "duration": 5.479
        },
        {
            "text": "right so we got some Transformations we",
            "start": 280.96,
            "duration": 4.04
        },
        {
            "text": "have the input data we transform it uh",
            "start": 282.759,
            "duration": 5.201
        },
        {
            "text": "feature view Titanic uh oh damn that",
            "start": 285.0,
            "duration": 4.639
        },
        {
            "text": "that sounds like it's going down Json",
            "start": 287.96,
            "duration": 5.16
        },
        {
            "text": "was a bit too crazy really really you",
            "start": 289.639,
            "duration": 6.601
        },
        {
            "text": "you ain't telling me that",
            "start": 293.12,
            "duration": 5.56
        },
        {
            "text": "programming actions for a programming to",
            "start": 296.24,
            "duration": 4.679
        },
        {
            "text": "take in j doesn't sound like it wouldn't",
            "start": 298.68,
            "duration": 3.68
        },
        {
            "text": "get out of",
            "start": 300.919,
            "duration": 4.441
        },
        {
            "text": "hand how are errors handled however",
            "start": 302.36,
            "duration": 4.52
        },
        {
            "text": "programming directly in Json is Not",
            "start": 305.36,
            "duration": 2.6
        },
        {
            "text": "Practical it would lead to many",
            "start": 306.88,
            "duration": 2.52
        },
        {
            "text": "frustrating formatting errors there was",
            "start": 307.96,
            "duration": 3.72
        },
        {
            "text": "no linting uh to check that the file was",
            "start": 309.4,
            "duration": 4.0
        },
        {
            "text": "semantically correct and no code",
            "start": 311.68,
            "duration": 3.28
        },
        {
            "text": "completion to indicate which parameters",
            "start": 313.4,
            "duration": 2.56
        },
        {
            "text": "should be set why mean you could write",
            "start": 314.96,
            "duration": 2.72
        },
        {
            "text": "your own LSP for this if you got really",
            "start": 315.96,
            "duration": 3.56
        },
        {
            "text": "excited about it but I still wouldn't",
            "start": 317.68,
            "duration": 3.32
        },
        {
            "text": "suggest it therefore I also set up a",
            "start": 319.52,
            "duration": 4.44
        },
        {
            "text": "python API providing",
            "start": 321.0,
            "duration": 6.4
        },
        {
            "text": "site stroke type safe Transformations",
            "start": 323.96,
            "duration": 5.0
        },
        {
            "text": "code completion and then compiles",
            "start": 327.4,
            "duration": 4.72
        },
        {
            "text": "everything toes on file feature view one",
            "start": 328.96,
            "duration": 5.84
        },
        {
            "text": "hot in",
            "start": 332.12,
            "duration": 2.68
        },
        {
            "text": "code what is that what is what kind of",
            "start": 335.919,
            "duration": 4.72
        },
        {
            "text": "function's called one hot and code I",
            "start": 338.88,
            "duration": 4.0
        },
        {
            "text": "must not know python dog is this like",
            "start": 340.639,
            "duration": 4.4
        },
        {
            "text": "normal python do you call it some hot",
            "start": 342.88,
            "duration": 4.159
        },
        {
            "text": "and coding what kind of encoding are we",
            "start": 345.039,
            "duration": 4.44
        },
        {
            "text": "talking about let's make me horned up",
            "start": 347.039,
            "duration": 5.44
        },
        {
            "text": "one hot program hot encode in your areas",
            "start": 349.479,
            "duration": 4.84
        },
        {
            "text": "can sex",
            "start": 352.479,
            "duration": 4.081
        },
        {
            "text": "Hammer can I find hot and codes in my",
            "start": 354.319,
            "duration": 3.961
        },
        {
            "text": "area notice that we are not referencing",
            "start": 356.56,
            "duration": 4.04
        },
        {
            "text": "columns using strings but rather using",
            "start": 358.28,
            "duration": 3.759
        },
        {
            "text": "the fields themselves that's kind of",
            "start": 360.6,
            "duration": 5.64
        },
        {
            "text": "cool okay okay okay um uh this uh leads",
            "start": 362.039,
            "duration": 6.841
        },
        {
            "text": "to to both code completion and type",
            "start": 366.24,
            "duration": 4.72
        },
        {
            "text": "safety as lters can catch errors yeah it",
            "start": 368.88,
            "duration": 4.0
        },
        {
            "text": "was better than what I thought another",
            "start": 370.96,
            "duration": 3.2
        },
        {
            "text": "let's see although the Json file",
            "start": 372.88,
            "duration": 2.599
        },
        {
            "text": "contains a lot of information it is",
            "start": 374.16,
            "duration": 3.879
        },
        {
            "text": "still just a file so what real use could",
            "start": 375.479,
            "duration": 4.241
        },
        {
            "text": "it have however after let's see after",
            "start": 378.039,
            "duration": 3.481
        },
        {
            "text": "some time I realized that its value",
            "start": 379.72,
            "duration": 3.28
        },
        {
            "text": "depended on the context in which it was",
            "start": 381.52,
            "duration": 4.079
        },
        {
            "text": "used isn't that all value now the file",
            "start": 383.0,
            "duration": 4.199
        },
        {
            "text": "has like I mean real talk isn't that all",
            "start": 385.599,
            "duration": 4.44
        },
        {
            "text": "value uh now the file has become my most",
            "start": 387.199,
            "duration": 5.241
        },
        {
            "text": "valuable asset as it powered all the",
            "start": 390.039,
            "duration": 5.041
        },
        {
            "text": "functions below data validation L data",
            "start": 392.44,
            "duration": 5.4
        },
        {
            "text": "linear graphs view data lineage data",
            "start": 395.08,
            "duration": 5.679
        },
        {
            "text": "cataloges you're welcome for that for",
            "start": 397.84,
            "duration": 4.079
        },
        {
            "text": "this",
            "start": 400.759,
            "duration": 4.481
        },
        {
            "text": "mute debug specific uh feature",
            "start": 401.919,
            "duration": 4.84
        },
        {
            "text": "transformation view data catalog",
            "start": 405.24,
            "duration": 2.84
        },
        {
            "text": "continuing pipeline from cach States",
            "start": 406.759,
            "duration": 2.681
        },
        {
            "text": "incremental data marginal",
            "start": 408.08,
            "duration": 3.2
        },
        {
            "text": "materialization warning about data",
            "start": 409.44,
            "duration": 3.759
        },
        {
            "text": "migration conflicts I don't I mean I",
            "start": 411.28,
            "duration": 3.8
        },
        {
            "text": "understand literally all these words",
            "start": 413.199,
            "duration": 4.4
        },
        {
            "text": "individually like all of them I",
            "start": 415.08,
            "duration": 4.959
        },
        {
            "text": "understand individually and yet somehow",
            "start": 417.599,
            "duration": 4.801
        },
        {
            "text": "none of it I understood uh that is the",
            "start": 420.039,
            "duration": 4.081
        },
        {
            "text": "only data engineering features and let's",
            "start": 422.4,
            "duration": 3.16
        },
        {
            "text": "see that that is only the data",
            "start": 424.12,
            "duration": 2.759
        },
        {
            "text": "engineering features not taking in",
            "start": 425.56,
            "duration": 3.4
        },
        {
            "text": "account the ml Ops features but there's",
            "start": 426.879,
            "duration": 3.561
        },
        {
            "text": "so much more having a file that contains",
            "start": 428.96,
            "duration": 3.04
        },
        {
            "text": "all these Transformations input features",
            "start": 430.44,
            "duration": 3.92
        },
        {
            "text": "Etc is a technology agnostic way to lead",
            "start": 432.0,
            "duration": 4.44
        },
        {
            "text": "to an or which has led to an incredibly",
            "start": 434.36,
            "duration": 4.0
        },
        {
            "text": "flexible system it has enabled me to",
            "start": 436.44,
            "duration": 4.0
        },
        {
            "text": "move much faster than I pre previously",
            "start": 438.36,
            "duration": 3.679
        },
        {
            "text": "thought possible I do think this is",
            "start": 440.44,
            "duration": 3.72
        },
        {
            "text": "pretty cool that you build your files",
            "start": 442.039,
            "duration": 3.681
        },
        {
            "text": "via python I thought that that that's",
            "start": 444.16,
            "duration": 3.319
        },
        {
            "text": "pretty clever can we agree that that's",
            "start": 445.72,
            "duration": 5.12
        },
        {
            "text": "probably pretty dang clever right here",
            "start": 447.479,
            "duration": 5.961
        },
        {
            "text": "I like this I like this I I I do like",
            "start": 450.84,
            "duration": 4.24
        },
        {
            "text": "that that's super cool I you know I I",
            "start": 453.44,
            "duration": 3.28
        },
        {
            "text": "love this I I love that you took a",
            "start": 455.08,
            "duration": 3.48
        },
        {
            "text": "chance you built something you w weren't",
            "start": 456.72,
            "duration": 3.52
        },
        {
            "text": "sure of and it it met a business problem",
            "start": 458.56,
            "duration": 4.0
        },
        {
            "text": "now generally I'm very skeptical of a",
            "start": 460.24,
            "duration": 4.16
        },
        {
            "text": "Json file describing how a program",
            "start": 462.56,
            "duration": 4.24
        },
        {
            "text": "should execute in general it is great",
            "start": 464.4,
            "duration": 4.68
        },
        {
            "text": "until it is horrifying right can we all",
            "start": 466.8,
            "duration": 3.959
        },
        {
            "text": "agree to that if you haven't had enough",
            "start": 469.08,
            "duration": 3.519
        },
        {
            "text": "experience in the world this has like",
            "start": 470.759,
            "duration": 3.56
        },
        {
            "text": "been a road that I have traveled down",
            "start": 472.599,
            "duration": 3.761
        },
        {
            "text": "many times in which always has the same",
            "start": 474.319,
            "duration": 4.121
        },
        {
            "text": "ending great until it's one of the worst",
            "start": 476.36,
            "duration": 3.959
        },
        {
            "text": "decisions I have ever made in my entire",
            "start": 478.44,
            "duration": 4.36
        },
        {
            "text": "lifetime so right now it sounds like",
            "start": 480.319,
            "duration": 3.88
        },
        {
            "text": "you're loving it which I think is great",
            "start": 482.8,
            "duration": 2.72
        },
        {
            "text": "and I think there are probably a set of",
            "start": 484.199,
            "duration": 3.601
        },
        {
            "text": "problems in which Json does work I mean",
            "start": 485.52,
            "duration": 4.84
        },
        {
            "text": "hell your vs code configuration is all",
            "start": 487.8,
            "duration": 3.679
        },
        {
            "text": "driven via",
            "start": 490.36,
            "duration": 5.119
        },
        {
            "text": "Json so I mean it can happen there there",
            "start": 491.479,
            "duration": 6.72
        },
        {
            "text": "can be you know how things should behave",
            "start": 495.479,
            "duration": 4.521
        },
        {
            "text": "with Json but I think it's very",
            "start": 498.199,
            "duration": 3.801
        },
        {
            "text": "difficult I think it's jmal is very",
            "start": 500.0,
            "duration": 3.72
        },
        {
            "text": "difficult language to use and so this is",
            "start": 502.0,
            "duration": 4.08
        },
        {
            "text": "super cool I I love this idea it's not J",
            "start": 503.72,
            "duration": 4.199
        },
        {
            "text": "diesel though I will say this is not J",
            "start": 506.08,
            "duration": 3.559
        },
        {
            "text": "diesel because remember one of the key",
            "start": 507.919,
            "duration": 5.841
        },
        {
            "text": "ingredients of J diesel is that J diesel",
            "start": 509.639,
            "duration": 8.241
        },
        {
            "text": "requires history to construct the item",
            "start": 513.76,
            "duration": 6.32
        },
        {
            "text": "now if you would have had each data",
            "start": 517.88,
            "duration": 5.079
        },
        {
            "text": "transformation as a git commit and then",
            "start": 520.08,
            "duration": 5.48
        },
        {
            "text": "a series of git",
            "start": 522.959,
            "duration": 5.641
        },
        {
            "text": "commits hashes as how you execute the",
            "start": 525.56,
            "duration": 6.68
        },
        {
            "text": "data pipeline then my friend then my",
            "start": 528.6,
            "duration": 6.919
        },
        {
            "text": "friend you have created g j diesel no",
            "start": 532.24,
            "duration": 4.96
        },
        {
            "text": "comments",
            "start": 535.519,
            "duration": 6.0
        },
        {
            "text": "though Jay gson yeah Jay getson yeah",
            "start": 537.2,
            "duration": 7.319
        },
        {
            "text": "exactly it Json is not great for",
            "start": 541.519,
            "duration": 4.641
        },
        {
            "text": "programmatic stuff because in the end",
            "start": 544.519,
            "duration": 3.241
        },
        {
            "text": "programmatic stuff always needs you to",
            "start": 546.16,
            "duration": 3.72
        },
        {
            "text": "have like hey I want to add one well now",
            "start": 547.76,
            "duration": 3.96
        },
        {
            "text": "you have to program in this feature in",
            "start": 549.88,
            "duration": 3.68
        },
        {
            "text": "Json to say hey add one that's why",
            "start": 551.72,
            "duration": 3.119
        },
        {
            "text": "there's that that shout out in the",
            "start": 553.56,
            "duration": 3.04
        },
        {
            "text": "beginning this constant ad add two",
            "start": 554.839,
            "duration": 3.68
        },
        {
            "text": "columns subtract two columns Subtract",
            "start": 556.6,
            "duration": 2.76
        },
        {
            "text": "with",
            "start": 558.519,
            "duration": 3.361
        },
        {
            "text": "constant like it just keeps on you know",
            "start": 559.36,
            "duration": 4.32
        },
        {
            "text": "what I mean there's there's quite a bit",
            "start": 561.88,
            "duration": 4.079
        },
        {
            "text": "Yeah do a loop throw an error how should",
            "start": 563.68,
            "duration": 4.24
        },
        {
            "text": "errors be handled should you retry",
            "start": 565.959,
            "duration": 3.88
        },
        {
            "text": "specific errors right there's like",
            "start": 567.92,
            "duration": 3.4
        },
        {
            "text": "there's a lot of stuff you have to",
            "start": 569.839,
            "duration": 3.721
        },
        {
            "text": "consider whenever doing it but I love",
            "start": 571.32,
            "duration": 3.519
        },
        {
            "text": "subtract",
            "start": 573.56,
            "duration": 3.839
        },
        {
            "text": "pre-at but I do I mean I I just super",
            "start": 574.839,
            "duration": 4.24
        },
        {
            "text": "stoked that he that he built this and",
            "start": 577.399,
            "duration": 3.88
        },
        {
            "text": "it's and it's working and it's going",
            "start": 579.079,
            "duration": 4.721
        },
        {
            "text": "great that is super cool you know",
            "start": 581.279,
            "duration": 5.041
        },
        {
            "text": "because sometimes sometimes a novel",
            "start": 583.8,
            "duration": 4.2
        },
        {
            "text": "approach to a problem can make a really",
            "start": 586.32,
            "duration": 2.72
        },
        {
            "text": "great",
            "start": 588.0,
            "duration": 3.48
        },
        {
            "text": "outcome because remember all of the",
            "start": 589.04,
            "duration": 4.12
        },
        {
            "text": "things you",
            "start": 591.48,
            "duration": 4.72
        },
        {
            "text": "hear as like the the de facto standards",
            "start": 593.16,
            "duration": 5.52
        },
        {
            "text": "and everything at one point was a novel",
            "start": 596.2,
            "duration": 4.4
        },
        {
            "text": "approach",
            "start": 598.68,
            "duration": 4.44
        },
        {
            "text": "react was a novel approach to front-end",
            "start": 600.6,
            "duration": 4.16
        },
        {
            "text": "development and it's now considered the",
            "start": 603.12,
            "duration": 5.08
        },
        {
            "text": "deao standard to front-end",
            "start": 604.76,
            "duration": 5.639
        },
        {
            "text": "development you know you got to take a",
            "start": 608.2,
            "duration": 5.4
        },
        {
            "text": "risk every now and then uh Lua is better",
            "start": 610.399,
            "duration": 5.0
        },
        {
            "text": "uh is a better DSL I think Lua is the",
            "start": 613.6,
            "duration": 4.28
        },
        {
            "text": "best DSL if you were to create a DSL or",
            "start": 615.399,
            "duration": 3.961
        },
        {
            "text": "you needed a way to execute stuff",
            "start": 617.88,
            "duration": 2.8
        },
        {
            "text": "dynamically or be able to download",
            "start": 619.36,
            "duration": 2.56
        },
        {
            "text": "scripts and be able to execute them on",
            "start": 620.68,
            "duration": 3.32
        },
        {
            "text": "the Fly I highly recommend considering",
            "start": 621.92,
            "duration": 3.68
        },
        {
            "text": "Lua",
            "start": 624.0,
            "duration": 3.64
        },
        {
            "text": "embedding it's",
            "start": 625.6,
            "duration": 4.0
        },
        {
            "text": "not extreme",
            "start": 627.64,
            "duration": 3.24
        },
        {
            "text": "difficult",
            "start": 629.6,
            "duration": 3.479
        },
        {
            "text": "yeah it's very very",
            "start": 630.88,
            "duration": 4.079
        },
        {
            "text": "cool the",
            "start": 633.079,
            "duration": 4.801
        },
        {
            "text": "name it's the J diesel then Jen look at",
            "start": 634.959,
            "duration": 6.12
        },
        {
            "text": "that I'm the day we we had it this was",
            "start": 637.88,
            "duration": 5.44
        },
        {
            "text": "the closest we've come to J Diesel and I",
            "start": 641.079,
            "duration": 4.44
        },
        {
            "text": "I appre I appreciate that now let's get",
            "start": 643.32,
            "duration": 4.199
        },
        {
            "text": "it let's let's get it into subversion",
            "start": 645.519,
            "duration": 3.56
        },
        {
            "text": "specifically tortois",
            "start": 647.519,
            "duration": 4.201
        },
        {
            "text": "SVN let's make this happen I think we",
            "start": 649.079,
            "duration": 5.081
        },
        {
            "text": "got something going here okay you're 99%",
            "start": 651.72,
            "duration": 4.799
        },
        {
            "text": "way there let's make it a hundo okay we",
            "start": 654.16,
            "duration": 6.88
        },
        {
            "text": "can make this a 100",
            "start": 656.519,
            "duration": 4.521
        },
        {
            "text": "a Jen",
            "start": 661.56,
            "duration": 2.6
        }
    ],
    "stats": {
        "viewCount": "60333",
        "likeCount": "1884",
        "favoriteCount": "0",
        "commentCount": "149"
    }
}