{
    "id": "E1i6VkUCH94",
    "title": "6 Days Spent On 1 Line of Code | Prime Reacts",
    "publishedAt": "2023-07-26T15:00:10Z",
    "captions": [
        {
            "text": "six days",
            "start": 0.179,
            "duration": 6.74
        },
        {
            "text": "to change one line of code a true story",
            "start": 2.879,
            "duration": 7.021
        },
        {
            "text": "oh no I can already feel myself going",
            "start": 6.919,
            "duration": 5.501
        },
        {
            "text": "don't do it don't you do it that's",
            "start": 9.9,
            "duration": 5.34
        },
        {
            "text": "called stability Philip president now",
            "start": 12.42,
            "duration": 4.68
        },
        {
            "text": "our Factory is underutilized by 10",
            "start": 15.24,
            "duration": 4.14
        },
        {
            "text": "either we start building more of our our",
            "start": 17.1,
            "duration": 4.14
        },
        {
            "text": "backlog or We Lay people off I'd rather",
            "start": 19.38,
            "duration": 3.96
        },
        {
            "text": "keep everyone busy build inventory and",
            "start": 21.24,
            "duration": 3.84
        },
        {
            "text": "get ahead of the curve before the busy",
            "start": 23.34,
            "duration": 4.439
        },
        {
            "text": "season how can we do that Lee operation",
            "start": 25.08,
            "duration": 4.019
        },
        {
            "text": "manager",
            "start": 27.779,
            "duration": 3.121
        },
        {
            "text": "company policy restricts us from",
            "start": 29.099,
            "duration": 3.121
        },
        {
            "text": "building more than three months of",
            "start": 30.9,
            "duration": 3.06
        },
        {
            "text": "backlog if you just change that to four",
            "start": 32.22,
            "duration": 3.72
        },
        {
            "text": "months we'll have plenty of work",
            "start": 33.96,
            "duration": 4.5
        },
        {
            "text": "Philip done now how do we Implement that",
            "start": 35.94,
            "duration": 4.98
        },
        {
            "text": "Lee I'm not really sure I think we have",
            "start": 38.46,
            "duration": 3.72
        },
        {
            "text": "to change the setting in the Legacy",
            "start": 40.92,
            "duration": 4.56
        },
        {
            "text": "software David i t director no problem",
            "start": 42.18,
            "duration": 5.46
        },
        {
            "text": "oh it's probably one line of code in our",
            "start": 45.48,
            "duration": 3.96
        },
        {
            "text": "core routine fill out a ticket submit it",
            "start": 47.64,
            "duration": 4.64
        },
        {
            "text": "to the I.T services",
            "start": 49.44,
            "duration": 2.84
        },
        {
            "text": "Judy it admin I'm assigning this request",
            "start": 53.039,
            "duration": 5.881
        },
        {
            "text": "ticket to one two nine two eight one but",
            "start": 56.16,
            "duration": 4.44
        },
        {
            "text": "it still needs the section on business",
            "start": 58.92,
            "duration": 5.779
        },
        {
            "text": "impact completed and director approval",
            "start": 60.6,
            "duration": 4.099
        },
        {
            "text": "David it's for Philip",
            "start": 65.28,
            "duration": 5.46
        },
        {
            "text": "it we don't do this right away we'll",
            "start": 68.22,
            "duration": 5.16
        },
        {
            "text": "have to uh we'll have to uh we'll have",
            "start": 70.74,
            "duration": 5.64
        },
        {
            "text": "to have a layoff Judy okay then I'll",
            "start": 73.38,
            "duration": 4.62
        },
        {
            "text": "fill out that section myself and put it",
            "start": 76.38,
            "duration": 3.779
        },
        {
            "text": "on the fast track two days later what's",
            "start": 78.0,
            "duration": 4.619
        },
        {
            "text": "the status of one two nine two eight one",
            "start": 80.159,
            "duration": 4.32
        },
        {
            "text": "it's the first enhancement in the",
            "start": 82.619,
            "duration": 3.121
        },
        {
            "text": "develop let's see it's in first",
            "start": 84.479,
            "duration": 3.121
        },
        {
            "text": "enhancement oh my goodness hold on it's",
            "start": 85.74,
            "duration": 3.54
        },
        {
            "text": "the first enhancement in the developer",
            "start": 87.6,
            "duration": 3.96
        },
        {
            "text": "queue after 14 bug reports",
            "start": 89.28,
            "duration": 4.14
        },
        {
            "text": "forget the queue Market urgent and send",
            "start": 91.56,
            "duration": 4.559
        },
        {
            "text": "it to Ed immediately one hour later Ed",
            "start": 93.42,
            "duration": 6.839
        },
        {
            "text": "programmer online 1252 of module or five",
            "start": 96.119,
            "duration": 7.801
        },
        {
            "text": "seven what the hell are we looking at I",
            "start": 100.259,
            "duration": 5.701
        },
        {
            "text": "changed the hard-coded uh variable",
            "start": 103.92,
            "duration": 3.96
        },
        {
            "text": "months of backlog from three to four now",
            "start": 105.96,
            "duration": 3.659
        },
        {
            "text": "unit tested this successfully and ran",
            "start": 107.88,
            "duration": 3.54
        },
        {
            "text": "two batch of tests the operation worked",
            "start": 109.619,
            "duration": 4.5
        },
        {
            "text": "Q increased ten percent as expected this",
            "start": 111.42,
            "duration": 4.62
        },
        {
            "text": "is good to go I submitted it to code",
            "start": 114.119,
            "duration": 4.021
        },
        {
            "text": "review and moved it to Homer for user",
            "start": 116.04,
            "duration": 4.259
        },
        {
            "text": "testing acceptance or a user acceptance",
            "start": 118.14,
            "duration": 4.019
        },
        {
            "text": "testing",
            "start": 120.299,
            "duration": 3.721
        },
        {
            "text": "wait hold on do you guys work like this",
            "start": 122.159,
            "duration": 5.901
        },
        {
            "text": "real talk is this your life",
            "start": 124.02,
            "duration": 4.04
        },
        {
            "text": "kill me",
            "start": 136.8,
            "duration": 2.84
        },
        {
            "text": "I worked at a company that this was my",
            "start": 140.459,
            "duration": 3.961
        },
        {
            "text": "life",
            "start": 142.56,
            "duration": 6.48
        },
        {
            "text": "that it was just like these large",
            "start": 144.42,
            "duration": 7.98
        },
        {
            "text": "painful changes to get somewhere",
            "start": 149.04,
            "duration": 6.08
        },
        {
            "text": "kinda",
            "start": 152.4,
            "duration": 2.72
        },
        {
            "text": "yes yes kill me oh my goodness all right",
            "start": 155.22,
            "duration": 6.599
        },
        {
            "text": "surely code review it is now against",
            "start": 159.959,
            "duration": 3.78
        },
        {
            "text": "company policy to have any hard-coded",
            "start": 161.819,
            "duration": 4.28
        },
        {
            "text": "variable",
            "start": 163.739,
            "duration": 2.36
        },
        {
            "text": "s",
            "start": 169.26,
            "duration": 2.0
        },
        {
            "text": "you gotta love it",
            "start": 174.48,
            "duration": 3.6
        },
        {
            "text": "you'll have to make this record in the",
            "start": 176.22,
            "duration": 3.599
        },
        {
            "text": "parameter files also there are two old",
            "start": 178.08,
            "duration": 3.78
        },
        {
            "text": "debug commands and unassigned variable",
            "start": 179.819,
            "duration": 3.601
        },
        {
            "text": "warning message and other hard-coded",
            "start": 181.86,
            "duration": 3.12
        },
        {
            "text": "employee ID that will have to be fixed",
            "start": 183.42,
            "duration": 2.76
        },
        {
            "text": "before this module can be moved to",
            "start": 184.98,
            "duration": 2.339
        },
        {
            "text": "production",
            "start": 186.18,
            "duration": 3.38
        },
        {
            "text": "Ed",
            "start": 187.319,
            "duration": 5.721
        },
        {
            "text": " that",
            "start": 189.56,
            "duration": 3.48
        },
        {
            "text": "[Applause]",
            "start": 193.58,
            "duration": 5.519
        },
        {
            "text": "that may very well be true",
            "start": 194.94,
            "duration": 4.159
        },
        {
            "text": "Shirley",
            "start": 200.3,
            "duration": 4.54
        },
        {
            "text": "surely we love you this is fed this is",
            "start": 202.14,
            "duration": 4.5
        },
        {
            "text": "the way to respond to Ed",
            "start": 204.84,
            "duration": 4.08
        },
        {
            "text": "but since you are assigned to orb 572",
            "start": 206.64,
            "duration": 4.56
        },
        {
            "text": "and you are responsible for fixing a",
            "start": 208.92,
            "duration": 3.899
        },
        {
            "text": "pre-existing errors that violate new",
            "start": 211.2,
            "duration": 3.959
        },
        {
            "text": "company policy I cannot promote uh this",
            "start": 212.819,
            "duration": 4.5
        },
        {
            "text": "as as it is dude this sounds like",
            "start": 215.159,
            "duration": 3.72
        },
        {
            "text": "government law when it comes to property",
            "start": 217.319,
            "duration": 2.821
        },
        {
            "text": "did you know that in the United States",
            "start": 218.879,
            "duration": 4.381
        },
        {
            "text": "if you buy a property",
            "start": 220.14,
            "duration": 5.879
        },
        {
            "text": "and your property let's just say that",
            "start": 223.26,
            "duration": 6.839
        },
        {
            "text": "you never even knew that uh one of the",
            "start": 226.019,
            "duration": 6.36
        },
        {
            "text": "structures was out of compliance or some",
            "start": 230.099,
            "duration": 4.261
        },
        {
            "text": "weird building thing or non-permit thing",
            "start": 232.379,
            "duration": 4.14
        },
        {
            "text": "happened right you had no idea you",
            "start": 234.36,
            "duration": 4.2
        },
        {
            "text": "bought this property you were just now",
            "start": 236.519,
            "duration": 3.36
        },
        {
            "text": "responsible",
            "start": 238.56,
            "duration": 3.66
        },
        {
            "text": "you own all existing errors that",
            "start": 239.879,
            "duration": 4.381
        },
        {
            "text": "happened this happened to us we had this",
            "start": 242.22,
            "duration": 3.84
        },
        {
            "text": "nice little place we thought it was",
            "start": 244.26,
            "duration": 2.82
        },
        {
            "text": "really nice",
            "start": 246.06,
            "duration": 3.3
        },
        {
            "text": "uh we really liked it we went we had",
            "start": 247.08,
            "duration": 3.6
        },
        {
            "text": "this like nice little little guest",
            "start": 249.36,
            "duration": 3.18
        },
        {
            "text": "quarters we went to the guest quarters",
            "start": 250.68,
            "duration": 4.139
        },
        {
            "text": "and then it just turns out the that the",
            "start": 252.54,
            "duration": 4.08
        },
        {
            "text": "county was like um that's not supposed",
            "start": 254.819,
            "duration": 4.88
        },
        {
            "text": "to be there and we're like",
            "start": 256.62,
            "duration": 3.079
        },
        {
            "text": "I",
            "start": 261.299,
            "duration": 4.201
        },
        {
            "text": "what do you want me to tell you",
            "start": 262.86,
            "duration": 6.3
        },
        {
            "text": "it's not well it's there I don't",
            "start": 265.5,
            "duration": 5.1
        },
        {
            "text": "I don't know what you're trying to tell",
            "start": 269.16,
            "duration": 2.7
        },
        {
            "text": "me like",
            "start": 270.6,
            "duration": 3.74
        },
        {
            "text": "sorry",
            "start": 271.86,
            "duration": 2.48
        },
        {
            "text": "right like that's that's a weird thing",
            "start": 274.62,
            "duration": 3.299
        },
        {
            "text": "all right two hours later",
            "start": 276.419,
            "duration": 3.601
        },
        {
            "text": "okay done I just re-submitted it to code",
            "start": 277.919,
            "duration": 4.261
        },
        {
            "text": "review Julie i t testing Homer is not",
            "start": 280.02,
            "duration": 3.66
        },
        {
            "text": "available for user acceptance testing",
            "start": 282.18,
            "duration": 3.48
        },
        {
            "text": "because Fred is running a controlled",
            "start": 283.68,
            "duration": 3.66
        },
        {
            "text": "test for a month and accounting close",
            "start": 285.66,
            "duration": 4.979
        },
        {
            "text": "use Marge instead I don't have access to",
            "start": 287.34,
            "duration": 5.4
        },
        {
            "text": "March then contact Joe and I.T security",
            "start": 290.639,
            "duration": 3.84
        },
        {
            "text": "he'll get you permissions two hours",
            "start": 292.74,
            "duration": 2.58
        },
        {
            "text": "later",
            "start": 294.479,
            "duration": 3.181
        },
        {
            "text": "Joe in IST security I cannot Grant you",
            "start": 295.32,
            "duration": 4.379
        },
        {
            "text": "access to Mars without David's signature",
            "start": 297.66,
            "duration": 3.36
        },
        {
            "text": "he's out of town can this wait till",
            "start": 299.699,
            "duration": 3.56
        },
        {
            "text": "Monday",
            "start": 301.02,
            "duration": 2.239
        },
        {
            "text": "I don't think so Philip or I don't think",
            "start": 303.54,
            "duration": 4.02
        },
        {
            "text": "so Philip wants this right away uh get",
            "start": 305.46,
            "duration": 5.04
        },
        {
            "text": "him to Grant access surely your new",
            "start": 307.56,
            "duration": 5.16
        },
        {
            "text": "parameter record months of demand needs",
            "start": 310.5,
            "duration": 3.96
        },
        {
            "text": "a better name oh",
            "start": 312.72,
            "duration": 3.0
        },
        {
            "text": "yes",
            "start": 314.46,
            "duration": 3.06
        },
        {
            "text": "yes uh the offshore programmers won't",
            "start": 315.72,
            "duration": 4.5
        },
        {
            "text": "understand what this means also uh it",
            "start": 317.52,
            "duration": 4.679
        },
        {
            "text": "should have an adult uh trail of changes",
            "start": 320.22,
            "duration": 4.38
        },
        {
            "text": "or an audit trail of changes what policy",
            "start": 322.199,
            "duration": 3.901
        },
        {
            "text": "is that it's not exactly written down",
            "start": 324.6,
            "duration": 3.06
        },
        {
            "text": "anywhere the offshore team is three",
            "start": 326.1,
            "duration": 3.539
        },
        {
            "text": "months late updating the wiki but I",
            "start": 327.66,
            "duration": 3.84
        },
        {
            "text": "assure you all new parameter records",
            "start": 329.639,
            "duration": 3.721
        },
        {
            "text": "must satisfy new naming requirements and",
            "start": 331.5,
            "duration": 4.919
        },
        {
            "text": "keep audit Trails one day later Ed I",
            "start": 333.36,
            "duration": 5.64
        },
        {
            "text": "renamed the parameters uh record months",
            "start": 336.419,
            "duration": 4.861
        },
        {
            "text": "of demand to selected months of backlog",
            "start": 339.0,
            "duration": 5.82
        },
        {
            "text": "demand and added module par 634 to",
            "start": 341.28,
            "duration": 5.46
        },
        {
            "text": "maintain the record and its audit Trail",
            "start": 344.82,
            "duration": 3.96
        },
        {
            "text": "I have submitted it to code review Tony",
            "start": 346.74,
            "duration": 3.56
        },
        {
            "text": "it testing",
            "start": 348.78,
            "duration": 4.38
        },
        {
            "text": "ic129 and 281 on March but I have no",
            "start": 350.3,
            "duration": 5.32
        },
        {
            "text": "test plan Ed just run it the old way in",
            "start": 353.16,
            "duration": 4.5
        },
        {
            "text": "the new way and note the increase in the",
            "start": 355.62,
            "duration": 4.139
        },
        {
            "text": "total of work hours reported work order",
            "start": 357.66,
            "duration": 5.099
        },
        {
            "text": "hours reported that's your test plan no",
            "start": 359.759,
            "duration": 5.581
        },
        {
            "text": "dude this sounds like such a QA move oh",
            "start": 362.759,
            "duration": 4.261
        },
        {
            "text": "my goodness I had the right someone was",
            "start": 365.34,
            "duration": 2.76
        },
        {
            "text": "just like you need to try to write a",
            "start": 367.02,
            "duration": 2.64
        },
        {
            "text": "test plan this was once at Netflix a",
            "start": 368.1,
            "duration": 2.879
        },
        {
            "text": "while ago okay this has only happened to",
            "start": 369.66,
            "duration": 2.819
        },
        {
            "text": "me once I wrote something down they're",
            "start": 370.979,
            "duration": 3.901
        },
        {
            "text": "like this is your test plan",
            "start": 372.479,
            "duration": 4.381
        },
        {
            "text": "it's childish",
            "start": 374.88,
            "duration": 3.72
        },
        {
            "text": "and incomplete",
            "start": 376.86,
            "duration": 3.36
        },
        {
            "text": "and I'm like yeah",
            "start": 378.6,
            "duration": 4.7
        },
        {
            "text": "yeah you know why",
            "start": 380.22,
            "duration": 3.08
        },
        {
            "text": "I'm a programmer dog this is how I see",
            "start": 383.52,
            "duration": 5.94
        },
        {
            "text": "the world okay childish and incomplete",
            "start": 386.4,
            "duration": 5.7
        },
        {
            "text": "and you will deal with it okay this is",
            "start": 389.46,
            "duration": 5.22
        },
        {
            "text": "why I do this and then something tells",
            "start": 392.1,
            "duration": 4.8
        },
        {
            "text": "me I'm wrong and I change my opinion",
            "start": 394.68,
            "duration": 3.78
        },
        {
            "text": "about how I should do things I don't",
            "start": 396.9,
            "duration": 4.579
        },
        {
            "text": "know what you want from me",
            "start": 398.46,
            "duration": 3.019
        },
        {
            "text": "uh this affects everything in the",
            "start": 401.58,
            "duration": 3.959
        },
        {
            "text": "factory I have to have user selected",
            "start": 403.319,
            "duration": 4.141
        },
        {
            "text": "test cases expected results documented",
            "start": 405.539,
            "duration": 3.66
        },
        {
            "text": "test runs and user sign off two days",
            "start": 407.46,
            "duration": 4.38
        },
        {
            "text": "later Philip David tell Tony to move",
            "start": 409.199,
            "duration": 4.021
        },
        {
            "text": "Ed's program to production immediately",
            "start": 411.84,
            "duration": 3.54
        },
        {
            "text": "David yes sir total elapsed time six",
            "start": 413.22,
            "duration": 3.96
        },
        {
            "text": "days lines of mission critical code",
            "start": 415.38,
            "duration": 3.9
        },
        {
            "text": "changed one bytes of mission critical",
            "start": 417.18,
            "duration": 5.28
        },
        {
            "text": "code change one Excedrin Eaton 24.",
            "start": 419.28,
            "duration": 5.22
        },
        {
            "text": "pissed off hours spent on Hacker News",
            "start": 422.46,
            "duration": 5.04
        },
        {
            "text": "14.",
            "start": 424.5,
            "duration": 3.0
        },
        {
            "text": "this person must be Ed in the story",
            "start": 428.759,
            "duration": 5.22
        },
        {
            "text": "this is Ed",
            "start": 432.3,
            "duration": 3.66
        },
        {
            "text": "I hope you realize that what we just",
            "start": 433.979,
            "duration": 5.34
        },
        {
            "text": "read is Ed's life story",
            "start": 435.96,
            "duration": 5.28
        },
        {
            "text": "and that man you need to lay off the",
            "start": 439.319,
            "duration": 3.421
        },
        {
            "text": "Excedrin okay you're gonna find yourself",
            "start": 441.24,
            "duration": 5.1
        },
        {
            "text": "having some issues okay",
            "start": 442.74,
            "duration": 5.519
        },
        {
            "text": "you're definitely going to have some",
            "start": 446.34,
            "duration": 3.54
        },
        {
            "text": "issues Ed you don't want to do this to",
            "start": 448.259,
            "duration": 2.761
        },
        {
            "text": "your life okay",
            "start": 449.88,
            "duration": 4.28
        },
        {
            "text": "thanks for sharing",
            "start": 451.02,
            "duration": 3.14
        },
        {
            "text": "imagine if this was your life and you",
            "start": 459.3,
            "duration": 5.28
        },
        {
            "text": "wrote it up and your response was thanks",
            "start": 462.24,
            "duration": 5.239
        },
        {
            "text": "for sharing",
            "start": 464.58,
            "duration": 2.899
        },
        {
            "text": "[Laughter]",
            "start": 474.05,
            "duration": 3.15
        },
        {
            "text": "[Music]",
            "start": 475.68,
            "duration": 6.56
        },
        {
            "text": "[Laughter]",
            "start": 477.2,
            "duration": 9.18
        },
        {
            "text": "rob you son of a",
            "start": 482.24,
            "duration": 4.14
        },
        {
            "text": "that is so funny",
            "start": 487.62,
            "duration": 5.22
        },
        {
            "text": "uh the buck stops there was Shirley yeah",
            "start": 490.259,
            "duration": 4.681
        },
        {
            "text": "Shirley really laid down the law can we",
            "start": 492.84,
            "duration": 5.579
        },
        {
            "text": "all agree don't call me Shirley okay she",
            "start": 494.94,
            "duration": 5.879
        },
        {
            "text": "has her act together I don't okay so",
            "start": 498.419,
            "duration": 5.041
        },
        {
            "text": "don't call me Shirley this is ridiculous",
            "start": 500.819,
            "duration": 6.121
        },
        {
            "text": "this oh yeah",
            "start": 503.46,
            "duration": 4.859
        },
        {
            "text": "oh yeah",
            "start": 506.94,
            "duration": 3.539
        },
        {
            "text": "of course it was Ed",
            "start": 508.319,
            "duration": 6.14
        },
        {
            "text": "it's at the top of the article",
            "start": 510.479,
            "duration": 3.98
        },
        {
            "text": "foreign",
            "start": 519.539,
            "duration": 2.541
        },
        {
            "text": "oh my goodness oh and",
            "start": 523.88,
            "duration": 6.399
        },
        {
            "text": "we spent uh Weissman thank you very much",
            "start": 527.58,
            "duration": 5.1
        },
        {
            "text": "this is a great great hey go follow ad",
            "start": 530.279,
            "duration": 4.74
        },
        {
            "text": "on Twitter okay",
            "start": 532.68,
            "duration": 4.8
        },
        {
            "text": "don't follow Ed on Twitter okay he hates",
            "start": 535.019,
            "duration": 4.861
        },
        {
            "text": "Twitter okay he's probably on threads or",
            "start": 537.48,
            "duration": 4.56
        },
        {
            "text": "on Mastodon I don't know maybe he's a",
            "start": 539.88,
            "duration": 3.78
        },
        {
            "text": "mastodon I don't know whatever happened",
            "start": 542.04,
            "duration": 4.08
        },
        {
            "text": "to you Ed I appreciate you you don't",
            "start": 543.66,
            "duration": 4.14
        },
        {
            "text": "exist anymore",
            "start": 546.12,
            "duration": 3.779
        },
        {
            "text": "I ain't using Mastodon I don't know what",
            "start": 547.8,
            "duration": 3.599
        },
        {
            "text": "to tell you okay I don't know what to",
            "start": 549.899,
            "duration": 4.081
        },
        {
            "text": "tell you the name",
            "start": 551.399,
            "duration": 5.661
        },
        {
            "text": "is the primogen",
            "start": 553.98,
            "duration": 3.08
        }
    ],
    "stats": {
        "viewCount": "234245",
        "likeCount": "7304",
        "favoriteCount": "0",
        "commentCount": "480"
    }
}