{
    "id": "EaYqsHkwuDw",
    "title": "Why Tech Culture Sucks | Prime Reacts",
    "publishedAt": "2023-03-21T12:00:13Z",
    "captions": [
        {
            "text": "all right you ready why are work culture",
            "start": 0.24,
            "duration": 6.0
        },
        {
            "text": "sucks okay last year after finding",
            "start": 3.78,
            "duration": 4.68
        },
        {
            "text": "myself between two jobs I interviewed",
            "start": 6.24,
            "duration": 5.1
        },
        {
            "text": "with a bunch of startups I stream on",
            "start": 8.46,
            "duration": 6.599
        },
        {
            "text": "Windows shut up okay",
            "start": 11.34,
            "duration": 7.939
        },
        {
            "text": "I can't help it that I stream on Windows",
            "start": 15.059,
            "duration": 4.22
        },
        {
            "text": "okay it's just",
            "start": 19.98,
            "duration": 4.379
        },
        {
            "text": "it's just so much better for video than",
            "start": 22.74,
            "duration": 3.42
        },
        {
            "text": "Linux okay I still can't get my video",
            "start": 24.359,
            "duration": 4.08
        },
        {
            "text": "and audio to even work rarely okay so",
            "start": 26.16,
            "duration": 3.32
        },
        {
            "text": "shut up",
            "start": 28.439,
            "duration": 3.721
        },
        {
            "text": "shut up",
            "start": 29.48,
            "duration": 4.419
        },
        {
            "text": "all right",
            "start": 32.16,
            "duration": 3.239
        },
        {
            "text": "last year after finding myself between",
            "start": 33.899,
            "duration": 3.061
        },
        {
            "text": "two jobs I interviewed with a bunch of",
            "start": 35.399,
            "duration": 3.721
        },
        {
            "text": "startups and Patty all successfully",
            "start": 36.96,
            "duration": 4.56
        },
        {
            "text": "accessible businesses that's good you",
            "start": 39.12,
            "duration": 3.779
        },
        {
            "text": "know I'm not gonna lie to you if you",
            "start": 41.52,
            "duration": 3.0
        },
        {
            "text": "were if you were interviewing with",
            "start": 42.899,
            "duration": 3.541
        },
        {
            "text": "unsuccessful businesses I would change",
            "start": 44.52,
            "duration": 5.519
        },
        {
            "text": "my strategy the creme de La Creme of the",
            "start": 46.44,
            "duration": 5.7
        },
        {
            "text": "French Tech a very French thing to say",
            "start": 50.039,
            "duration": 5.101
        },
        {
            "text": "the creme de La Creme uh looking for",
            "start": 52.14,
            "duration": 4.62
        },
        {
            "text": "experienced developers to con uh",
            "start": 55.14,
            "duration": 3.36
        },
        {
            "text": "consolidate their Tech teams all right I",
            "start": 56.76,
            "duration": 4.68
        },
        {
            "text": "discussed with CEOs and ctOS about their",
            "start": 58.5,
            "duration": 4.98
        },
        {
            "text": "Visions for business project management",
            "start": 61.44,
            "duration": 4.74
        },
        {
            "text": "and Company culture of course welcome to",
            "start": 63.48,
            "duration": 5.1
        },
        {
            "text": "Costco I love you I forgot to turn off",
            "start": 66.18,
            "duration": 3.96
        },
        {
            "text": "alerts alerts are off thank you very",
            "start": 68.58,
            "duration": 3.18
        },
        {
            "text": "much for that I appreciate that boner",
            "start": 70.14,
            "duration": 5.339
        },
        {
            "text": "poll and Juan prito appreciate that bait",
            "start": 71.76,
            "duration": 5.88
        },
        {
            "text": "let's see okay I would often quote the",
            "start": 75.479,
            "duration": 4.621
        },
        {
            "text": "famous base camp books so I don't know",
            "start": 77.64,
            "duration": 3.96
        },
        {
            "text": "the base camp books I don't know what",
            "start": 80.1,
            "duration": 2.94
        },
        {
            "text": "they're famous for I just I've never",
            "start": 81.6,
            "duration": 3.659
        },
        {
            "text": "seen them base camp is a famous project",
            "start": 83.04,
            "duration": 4.5
        },
        {
            "text": "management startup they wrote a series",
            "start": 85.259,
            "duration": 5.101
        },
        {
            "text": "of equally famous entrepreneurship books",
            "start": 87.54,
            "duration": 4.74
        },
        {
            "text": "advocating for a shift in the industry",
            "start": 90.36,
            "duration": 6.14
        },
        {
            "text": "towards a culture closer to their own",
            "start": 92.28,
            "duration": 4.22
        },
        {
            "text": "okay so am I the stupid one or is it not",
            "start": 97.979,
            "duration": 4.801
        },
        {
            "text": "that famous which one I also don't read",
            "start": 100.32,
            "duration": 4.38
        },
        {
            "text": "books and I only shoot shotguns and",
            "start": 102.78,
            "duration": 3.78
        },
        {
            "text": "drink beer is that a problem",
            "start": 104.7,
            "duration": 4.26
        },
        {
            "text": "I also write ATVs or Segways while",
            "start": 106.56,
            "duration": 4.739
        },
        {
            "text": "shooting shotguns and drinking beer is",
            "start": 108.96,
            "duration": 5.119
        },
        {
            "text": "this problematic",
            "start": 111.299,
            "duration": 2.78
        },
        {
            "text": "the Ruby guy okay okay okay",
            "start": 116.28,
            "duration": 6.6
        },
        {
            "text": "maybe both okay could be both shape up",
            "start": 119.479,
            "duration": 6.341
        },
        {
            "text": "remote work rework it doesn't have to be",
            "start": 122.88,
            "duration": 5.76
        },
        {
            "text": "crazy at work getting real all the great",
            "start": 125.82,
            "duration": 5.159
        },
        {
            "text": "books filled with great advice getting",
            "start": 128.64,
            "duration": 4.819
        },
        {
            "text": "real",
            "start": 130.979,
            "duration": 2.48
        },
        {
            "text": "nothing like software engineers",
            "start": 137.06,
            "duration": 6.22
        },
        {
            "text": "talk about hitting the streets and you",
            "start": 140.879,
            "duration": 6.121
        },
        {
            "text": "know getting real hey hey man you know",
            "start": 143.28,
            "duration": 6.0
        },
        {
            "text": "what last week I had to work 50 hours it",
            "start": 147.0,
            "duration": 4.739
        },
        {
            "text": "was awful like I sat down and I got up",
            "start": 149.28,
            "duration": 4.74
        },
        {
            "text": "and sure I had a yogurt parfait and and",
            "start": 151.739,
            "duration": 4.14
        },
        {
            "text": "went after they brought me a hot lunch I",
            "start": 154.02,
            "duration": 3.6
        },
        {
            "text": "was like sleepy and then they made me",
            "start": 155.879,
            "duration": 4.621
        },
        {
            "text": "work even during my sleepy hours dude",
            "start": 157.62,
            "duration": 5.82
        },
        {
            "text": "let's get real here okay the hours of",
            "start": 160.5,
            "duration": 6.48
        },
        {
            "text": "two to four should be reserved for naps",
            "start": 163.44,
            "duration": 6.26
        },
        {
            "text": "at work",
            "start": 166.98,
            "duration": 2.72
        },
        {
            "text": "everyone I talk to and I do mean",
            "start": 170.459,
            "duration": 4.5
        },
        {
            "text": "everyone agrees with the amazing content",
            "start": 172.56,
            "duration": 4.259
        },
        {
            "text": "of these books and the necessity to",
            "start": 174.959,
            "duration": 4.321
        },
        {
            "text": "follow such great advice wow I have",
            "start": 176.819,
            "duration": 3.901
        },
        {
            "text": "never even read the book I feel like",
            "start": 179.28,
            "duration": 3.84
        },
        {
            "text": "I've left out am I really missing out",
            "start": 180.72,
            "duration": 3.44
        },
        {
            "text": "this much",
            "start": 183.12,
            "duration": 4.979
        },
        {
            "text": "gosh there was still a problem no one is",
            "start": 184.16,
            "duration": 7.42
        },
        {
            "text": "actually doing it what is it is it",
            "start": 188.099,
            "duration": 5.701
        },
        {
            "text": "shaping up or getting real",
            "start": 191.58,
            "duration": 4.739
        },
        {
            "text": "what book oh of course shape up remote",
            "start": 193.8,
            "duration": 4.38
        },
        {
            "text": "work rework it doesn't have to be crazy",
            "start": 196.319,
            "duration": 4.621
        },
        {
            "text": "at work and getting real",
            "start": 198.18,
            "duration": 5.339
        },
        {
            "text": "yo a prison Mike uh that's what I'm",
            "start": 200.94,
            "duration": 3.9
        },
        {
            "text": "thinking about right now remote work",
            "start": 203.519,
            "duration": 3.601
        },
        {
            "text": "that's amazing and great and the Future",
            "start": 204.84,
            "duration": 5.88
        },
        {
            "text": "No we don't do that here",
            "start": 207.12,
            "duration": 6.24
        },
        {
            "text": "it's I mean people see first off I've",
            "start": 210.72,
            "duration": 4.56
        },
        {
            "text": "been remote working for about two and a",
            "start": 213.36,
            "duration": 4.08
        },
        {
            "text": "half years at Netflix this is not you",
            "start": 215.28,
            "duration": 3.72
        },
        {
            "text": "can't blanket say this there's plenty of",
            "start": 217.44,
            "duration": 4.079
        },
        {
            "text": "disadvantages to working a remote and",
            "start": 219.0,
            "duration": 4.739
        },
        {
            "text": "there some of them are unfixable they're",
            "start": 221.519,
            "duration": 6.121
        },
        {
            "text": "absolutely unfixable there are I I'm on",
            "start": 223.739,
            "duration": 6.661
        },
        {
            "text": "a team of I think 12 and over half of",
            "start": 227.64,
            "duration": 7.08
        },
        {
            "text": "them have no gosh darn clue what I even",
            "start": 230.4,
            "duration": 5.82
        },
        {
            "text": "do",
            "start": 234.72,
            "duration": 3.9
        },
        {
            "text": "that's part of remote work right remote",
            "start": 236.22,
            "duration": 5.64
        },
        {
            "text": "work by it's like very definition makes",
            "start": 238.62,
            "duration": 6.86
        },
        {
            "text": "it so much harder to you know interact",
            "start": 241.86,
            "duration": 5.939
        },
        {
            "text": "it's just the way it is and anyone that",
            "start": 245.48,
            "duration": 3.819
        },
        {
            "text": "tells you that's not true or if you just",
            "start": 247.799,
            "duration": 3.841
        },
        {
            "text": "change this or that they're lying to you",
            "start": 249.299,
            "duration": 4.261
        },
        {
            "text": "okay we've tried we've tried so many",
            "start": 251.64,
            "duration": 5.46
        },
        {
            "text": "different ways to change that it just",
            "start": 253.56,
            "duration": 5.459
        },
        {
            "text": "base camps advice on project management",
            "start": 257.1,
            "duration": 4.08
        },
        {
            "text": "it's great and we won't change how we do",
            "start": 259.019,
            "duration": 4.141
        },
        {
            "text": "things though their company culture the",
            "start": 261.18,
            "duration": 4.079
        },
        {
            "text": "best and no we won't change ours I",
            "start": 263.16,
            "duration": 3.599
        },
        {
            "text": "actually think that Netflix has pretty",
            "start": 265.259,
            "duration": 3.301
        },
        {
            "text": "good culture so I am curious what theirs",
            "start": 266.759,
            "duration": 3.601
        },
        {
            "text": "is okay can we I want to know what it is",
            "start": 268.56,
            "duration": 3.3
        },
        {
            "text": "can you stop telling me how good it is",
            "start": 270.36,
            "duration": 3.66
        },
        {
            "text": "and just tell me what it is you keep",
            "start": 271.86,
            "duration": 4.619
        },
        {
            "text": "using even the term it all italicized",
            "start": 274.02,
            "duration": 4.56
        },
        {
            "text": "and and stuff",
            "start": 276.479,
            "duration": 4.5
        },
        {
            "text": "what is it the problem with Basecamp",
            "start": 278.58,
            "duration": 4.08
        },
        {
            "text": "books is the following it's great advice",
            "start": 280.979,
            "duration": 3.541
        },
        {
            "text": "everyone knows it everyone agrees on it",
            "start": 282.66,
            "duration": 5.16
        },
        {
            "text": "no I don't remote work is not perfect no",
            "start": 284.52,
            "duration": 5.34
        },
        {
            "text": "one actually wants to apply it",
            "start": 287.82,
            "duration": 4.68
        },
        {
            "text": "yeah",
            "start": 289.86,
            "duration": 5.54
        },
        {
            "text": "what is it",
            "start": 292.5,
            "duration": 2.9
        },
        {
            "text": "I feel so stupid",
            "start": 298.979,
            "duration": 5.701
        },
        {
            "text": "what is it don't get me wrong I'm not",
            "start": 302.04,
            "duration": 4.76
        },
        {
            "text": "saying every company should copy pasta",
            "start": 304.68,
            "duration": 4.98
        },
        {
            "text": "the base Camp Model what the [\u00a0__\u00a0] is the",
            "start": 306.8,
            "duration": 4.839
        },
        {
            "text": "prescription model uh what works",
            "start": 309.66,
            "duration": 3.3
        },
        {
            "text": "somewhere might obviously not work",
            "start": 311.639,
            "duration": 2.941
        },
        {
            "text": "somewhere else but there is wisdom in",
            "start": 312.96,
            "duration": 3.36
        },
        {
            "text": "those books and on the approach to work",
            "start": 314.58,
            "duration": 4.5
        },
        {
            "text": "and to life and a wisdom that companies",
            "start": 316.32,
            "duration": 6.439
        },
        {
            "text": "consistently refuse to apply",
            "start": 319.08,
            "duration": 3.679
        },
        {
            "text": "it's the advice in the books duh five",
            "start": 325.8,
            "duration": 4.98
        },
        {
            "text": "head I'm sorry this is a one head take",
            "start": 328.199,
            "duration": 4.081
        },
        {
            "text": "for me not knowing this all right so",
            "start": 330.78,
            "duration": 2.88
        },
        {
            "text": "let's start with an easy example remote",
            "start": 332.28,
            "duration": 2.94
        },
        {
            "text": "work I'm very curious what they have to",
            "start": 333.66,
            "duration": 2.879
        },
        {
            "text": "say because I have a lot of feelings",
            "start": 335.22,
            "duration": 2.699
        },
        {
            "text": "about it",
            "start": 336.539,
            "duration": 2.94
        },
        {
            "text": "how many companies were forced into",
            "start": 337.919,
            "duration": 3.181
        },
        {
            "text": "remote work by the pandemic oh yeah",
            "start": 339.479,
            "duration": 3.301
        },
        {
            "text": "that's okay and realized it was actually",
            "start": 341.1,
            "duration": 3.98
        },
        {
            "text": "great",
            "start": 342.78,
            "duration": 2.3
        },
        {
            "text": "not everyone thinks this advice is great",
            "start": 357.539,
            "duration": 7.021
        },
        {
            "text": "okay not everyone's out there loving",
            "start": 360.66,
            "duration": 6.42
        },
        {
            "text": "remote work you may have heard of Reid",
            "start": 364.56,
            "duration": 3.96
        },
        {
            "text": "Hastings started several successful",
            "start": 367.08,
            "duration": 4.02
        },
        {
            "text": "companies including neetflix",
            "start": 368.52,
            "duration": 4.019
        },
        {
            "text": "I've asked him many uncomfortable",
            "start": 371.1,
            "duration": 3.06
        },
        {
            "text": "questions uh but I'm just saying I'm",
            "start": 372.539,
            "duration": 5.341
        },
        {
            "text": "also I I'm also became a remote worker",
            "start": 374.16,
            "duration": 5.94
        },
        {
            "text": "as well uh but I think the thing is is",
            "start": 377.88,
            "duration": 3.48
        },
        {
            "text": "what he's highlighting is a very",
            "start": 380.1,
            "duration": 3.48
        },
        {
            "text": "interesting points not all positions are",
            "start": 381.36,
            "duration": 3.899
        },
        {
            "text": "easily remotable",
            "start": 383.58,
            "duration": 3.36
        },
        {
            "text": "some things that you do like to okay",
            "start": 385.259,
            "duration": 4.261
        },
        {
            "text": "Real Talk press one in the chat if you",
            "start": 386.94,
            "duration": 4.379
        },
        {
            "text": "are a remote worker and press two in the",
            "start": 389.52,
            "duration": 4.44
        },
        {
            "text": "chat if you're uh like uh in office or",
            "start": 391.319,
            "duration": 5.701
        },
        {
            "text": "somewhat in office two days a week uh",
            "start": 393.96,
            "duration": 6.9
        },
        {
            "text": "person chat one for remote two for uh in",
            "start": 397.02,
            "duration": 6.019
        },
        {
            "text": "office",
            "start": 400.86,
            "duration": 2.179
        },
        {
            "text": "okay so a lot of remoters huh very",
            "start": 405.419,
            "duration": 4.021
        },
        {
            "text": "interesting three yeah yeah yeah yeah",
            "start": 408.18,
            "duration": 3.78
        },
        {
            "text": "yeah yeah yeah yeah okay so follow-up",
            "start": 409.44,
            "duration": 3.72
        },
        {
            "text": "question",
            "start": 411.96,
            "duration": 2.76
        },
        {
            "text": "follow-up question for all the people",
            "start": 413.16,
            "duration": 3.06
        },
        {
            "text": "that hit one",
            "start": 414.72,
            "duration": 4.319
        },
        {
            "text": "I want you to type 69",
            "start": 416.22,
            "duration": 5.34
        },
        {
            "text": "if you have worked in an office and are",
            "start": 419.039,
            "duration": 5.1
        },
        {
            "text": "now remote due to a pandemic all right",
            "start": 421.56,
            "duration": 5.04
        },
        {
            "text": "so give me a 69 if you've never if you",
            "start": 424.139,
            "duration": 4.5
        },
        {
            "text": "were full-time in office or mostly in",
            "start": 426.6,
            "duration": 4.5
        },
        {
            "text": "time at an office and now remote due to",
            "start": 428.639,
            "duration": 3.661
        },
        {
            "text": "pandemic",
            "start": 431.1,
            "duration": 3.12
        },
        {
            "text": "and then you just kept on doing okay a",
            "start": 432.3,
            "duration": 3.3
        },
        {
            "text": "lot of people people obviously have",
            "start": 434.22,
            "duration": 2.94
        },
        {
            "text": "changed greatly their lifestyle I'm that",
            "start": 435.6,
            "duration": 4.08
        },
        {
            "text": "same person I would be typing 69 right",
            "start": 437.16,
            "duration": 3.96
        },
        {
            "text": "now",
            "start": 439.68,
            "duration": 4.919
        },
        {
            "text": "all right for those that typed 69 I want",
            "start": 441.12,
            "duration": 6.06
        },
        {
            "text": "you to type 420 if you've noticed a",
            "start": 444.599,
            "duration": 4.081
        },
        {
            "text": "dramatic difference in how you",
            "start": 447.18,
            "duration": 4.44
        },
        {
            "text": "collaborate and think through problems",
            "start": 448.68,
            "duration": 5.579
        },
        {
            "text": "meaning how often have you just popped",
            "start": 451.62,
            "duration": 4.799
        },
        {
            "text": "in someone in slack and just start",
            "start": 454.259,
            "duration": 4.261
        },
        {
            "text": "casually talking",
            "start": 456.419,
            "duration": 4.68
        },
        {
            "text": "yeah it is different right it is vastly",
            "start": 458.52,
            "duration": 4.56
        },
        {
            "text": "different the remote work you know some",
            "start": 461.099,
            "duration": 4.621
        },
        {
            "text": "of my best ideas did not come from me",
            "start": 463.08,
            "duration": 4.679
        },
        {
            "text": "alone but it's someone else just saying",
            "start": 465.72,
            "duration": 3.96
        },
        {
            "text": "something about their work or saying",
            "start": 467.759,
            "duration": 4.021
        },
        {
            "text": "something about their weekend or saying",
            "start": 469.68,
            "duration": 3.9
        },
        {
            "text": "anything that I just haven't thought of",
            "start": 471.78,
            "duration": 4.38
        },
        {
            "text": "and all of a sudden it's a lot different",
            "start": 473.58,
            "duration": 4.86
        },
        {
            "text": "but for the better interesting see for",
            "start": 476.16,
            "duration": 4.8
        },
        {
            "text": "me it's like I don't have as many ideas",
            "start": 478.44,
            "duration": 4.5
        },
        {
            "text": "alright so here we'll do one more type",
            "start": 480.96,
            "duration": 4.019
        },
        {
            "text": "one if you think you're solving problems",
            "start": 482.94,
            "duration": 3.84
        },
        {
            "text": "better not because you have more time",
            "start": 484.979,
            "duration": 3.301
        },
        {
            "text": "but because you are having better ideas",
            "start": 486.78,
            "duration": 3.3
        },
        {
            "text": "or two do you feel like you had better",
            "start": 488.28,
            "duration": 4.68
        },
        {
            "text": "ideas or better ways to see things when",
            "start": 490.08,
            "duration": 4.92
        },
        {
            "text": "in an office one for it's better remote",
            "start": 492.96,
            "duration": 4.139
        },
        {
            "text": "two for it's better in office as far as",
            "start": 495.0,
            "duration": 4.62
        },
        {
            "text": "ID ideation goes",
            "start": 497.099,
            "duration": 4.681
        },
        {
            "text": "okay pretty split this is interesting",
            "start": 499.62,
            "duration": 4.94
        },
        {
            "text": "it's pretty split",
            "start": 501.78,
            "duration": 2.78
        },
        {
            "text": "very interesting very very interesting",
            "start": 506.16,
            "duration": 4.74
        },
        {
            "text": "for me I feel like I had better ideas",
            "start": 509.099,
            "duration": 4.32
        },
        {
            "text": "than the office but I'm more productive",
            "start": 510.9,
            "duration": 3.54
        },
        {
            "text": "at home",
            "start": 513.419,
            "duration": 2.701
        },
        {
            "text": "so it's like",
            "start": 514.44,
            "duration": 4.62
        },
        {
            "text": "I'm not sure which one is is right",
            "start": 516.12,
            "duration": 4.74
        },
        {
            "text": "I have much less distractions I don't",
            "start": 519.06,
            "duration": 3.96
        },
        {
            "text": "drive for one hour every day to and fro",
            "start": 520.86,
            "duration": 5.039
        },
        {
            "text": "from work that alone makes a huge",
            "start": 523.02,
            "duration": 4.58
        },
        {
            "text": "difference",
            "start": 525.899,
            "duration": 4.141
        },
        {
            "text": "it makes a huge huge difference that's",
            "start": 527.6,
            "duration": 4.78
        },
        {
            "text": "just more productive I have less [\u00a0__\u00a0] on",
            "start": 530.04,
            "duration": 4.5
        },
        {
            "text": "my brain uh I think hybrid is really",
            "start": 532.38,
            "duration": 4.44
        },
        {
            "text": "good yeah higher productivity I'm an",
            "start": 534.54,
            "duration": 5.1
        },
        {
            "text": "introvert okay well I'm I was an",
            "start": 536.82,
            "duration": 5.76
        },
        {
            "text": "introvert I used to mix up my words I",
            "start": 539.64,
            "duration": 5.1
        },
        {
            "text": "had a lot of embarrassment issues I used",
            "start": 542.58,
            "duration": 4.5
        },
        {
            "text": "my body used to sweat all the time I",
            "start": 544.74,
            "duration": 3.539
        },
        {
            "text": "just had a lot of weird things with me",
            "start": 547.08,
            "duration": 2.879
        },
        {
            "text": "and now uh you know things have changed",
            "start": 548.279,
            "duration": 4.581
        },
        {
            "text": "all right",
            "start": 549.959,
            "duration": 2.901
        },
        {
            "text": "all right here we go all right worse how",
            "start": 553.14,
            "duration": 4.259
        },
        {
            "text": "many companies oh hey hold on how many",
            "start": 555.6,
            "duration": 4.5
        },
        {
            "text": "of them uh used to categorically refuse",
            "start": 557.399,
            "duration": 4.56
        },
        {
            "text": "remote work uh Beyond maybe a couple",
            "start": 560.1,
            "duration": 2.88
        },
        {
            "text": "days a week yeah that was Netflix",
            "start": 561.959,
            "duration": 3.361
        },
        {
            "text": "actually and why was that uh because",
            "start": 562.98,
            "duration": 4.62
        },
        {
            "text": "Netflix is a purely senior ran company",
            "start": 565.32,
            "duration": 4.8
        },
        {
            "text": "there were no Junior engineers at that",
            "start": 567.6,
            "duration": 4.2
        },
        {
            "text": "time like none we're talking about none",
            "start": 570.12,
            "duration": 3.899
        },
        {
            "text": "no interns no Juniors no mid-levels all",
            "start": 571.8,
            "duration": 6.06
        },
        {
            "text": "seniors but we also ran on literally one",
            "start": 574.019,
            "duration": 6.781
        },
        {
            "text": "tenth the staff of YouTube so we are a",
            "start": 577.86,
            "duration": 5.94
        },
        {
            "text": "very very very very lean company and you",
            "start": 580.8,
            "duration": 4.32
        },
        {
            "text": "know being able to work with somebody",
            "start": 583.8,
            "duration": 3.479
        },
        {
            "text": "was a very important facet of it I would",
            "start": 585.12,
            "duration": 4.86
        },
        {
            "text": "get up and I'd walk to the API section",
            "start": 587.279,
            "duration": 4.981
        },
        {
            "text": "not go on the slack Channel like walk in",
            "start": 589.98,
            "duration": 4.62
        },
        {
            "text": "and just start asking them questions and",
            "start": 592.26,
            "duration": 3.96
        },
        {
            "text": "you can just do like think about the",
            "start": 594.6,
            "duration": 3.0
        },
        {
            "text": "speed of communication there and the",
            "start": 596.22,
            "duration": 3.239
        },
        {
            "text": "amount of nuance you can get in a spoken",
            "start": 597.6,
            "duration": 4.2
        },
        {
            "text": "conversation as opposed to a typed",
            "start": 599.459,
            "duration": 4.021
        },
        {
            "text": "conversation it's just a lot different",
            "start": 601.8,
            "duration": 4.26
        },
        {
            "text": "uh it was just a lot different back then",
            "start": 603.48,
            "duration": 4.44
        },
        {
            "text": "worse how many companies had great",
            "start": 606.06,
            "duration": 4.08
        },
        {
            "text": "remote work success during the pandemic",
            "start": 607.92,
            "duration": 3.96
        },
        {
            "text": "but will shift back to mandatory on-site",
            "start": 610.14,
            "duration": 4.259
        },
        {
            "text": "work once this is all over even worse",
            "start": 611.88,
            "duration": 4.26
        },
        {
            "text": "many did not wait for the end of the",
            "start": 614.399,
            "duration": 4.88
        },
        {
            "text": "pandemic before doing so",
            "start": 616.14,
            "duration": 3.139
        },
        {
            "text": "see the problem is is it's hard for me",
            "start": 622.62,
            "duration": 3.12
        },
        {
            "text": "to buy this sentence because I don't",
            "start": 624.42,
            "duration": 3.0
        },
        {
            "text": "necessarily think that remote work is a",
            "start": 625.74,
            "duration": 4.68
        },
        {
            "text": "pure win I think it's a loss and a win",
            "start": 627.42,
            "duration": 5.46
        },
        {
            "text": "right like I think there's I think",
            "start": 630.42,
            "duration": 3.24
        },
        {
            "text": "there's",
            "start": 632.88,
            "duration": 3.24
        },
        {
            "text": "there's like it's nuanced right I just",
            "start": 633.66,
            "duration": 4.32
        },
        {
            "text": "hate these one-dimensional takes I heard",
            "start": 636.12,
            "duration": 4.74
        },
        {
            "text": "all the excuses from CEOs and ctOS it's",
            "start": 637.98,
            "duration": 5.76
        },
        {
            "text": "always those [\u00a0__\u00a0] fancy sweet",
            "start": 640.86,
            "duration": 5.94
        },
        {
            "text": "sons of [\u00a0__\u00a0] it's great it's just not",
            "start": 643.74,
            "duration": 4.98
        },
        {
            "text": "for us for a web development company",
            "start": 646.8,
            "duration": 3.9
        },
        {
            "text": "this is most of the time it is just not",
            "start": 648.72,
            "duration": 4.08
        },
        {
            "text": "true again",
            "start": 650.7,
            "duration": 3.9
        },
        {
            "text": "have you ever had have you ever hired a",
            "start": 652.8,
            "duration": 4.8
        },
        {
            "text": "brand new Junior person right an intern",
            "start": 654.6,
            "duration": 6.479
        },
        {
            "text": "is is remote work great for an intern",
            "start": 657.6,
            "duration": 5.58
        },
        {
            "text": "I would argue that it's almost a",
            "start": 661.079,
            "duration": 5.121
        },
        {
            "text": "categoric negative",
            "start": 663.18,
            "duration": 3.02
        },
        {
            "text": "categorically negative for someone brand",
            "start": 666.44,
            "duration": 4.899
        },
        {
            "text": "new to the workforce to work purely by",
            "start": 669.48,
            "duration": 2.82
        },
        {
            "text": "themselves",
            "start": 671.339,
            "duration": 3.541
        },
        {
            "text": "and only get stuff from when someone",
            "start": 672.3,
            "duration": 4.56
        },
        {
            "text": "calls in and checks on them they're not",
            "start": 674.88,
            "duration": 3.899
        },
        {
            "text": "seeing them struggle they're not there",
            "start": 676.86,
            "duration": 3.479
        },
        {
            "text": "with them they can't sympathize they",
            "start": 678.779,
            "duration": 3.541
        },
        {
            "text": "can't sit down in the same sense they",
            "start": 680.339,
            "duration": 3.661
        },
        {
            "text": "can't turn around and go to a whiteboard",
            "start": 682.32,
            "duration": 3.36
        },
        {
            "text": "and let people go back and forth it's",
            "start": 684.0,
            "duration": 3.6
        },
        {
            "text": "just no matter how good these tools are",
            "start": 685.68,
            "duration": 4.08
        },
        {
            "text": "it's never the same as in-person",
            "start": 687.6,
            "duration": 4.32
        },
        {
            "text": "communication and I feel like you're",
            "start": 689.76,
            "duration": 3.96
        },
        {
            "text": "just you're you're also doing a",
            "start": 691.92,
            "duration": 3.0
        },
        {
            "text": "disservice to people that need",
            "start": 693.72,
            "duration": 3.059
        },
        {
            "text": "mentorship you know how hard it is to",
            "start": 694.92,
            "duration": 4.68
        },
        {
            "text": "get mentorship remotely and even more so",
            "start": 696.779,
            "duration": 5.881
        },
        {
            "text": "how hard it is to find a mentor remotely",
            "start": 699.6,
            "duration": 4.739
        },
        {
            "text": "you can video Call of course you can",
            "start": 702.66,
            "duration": 4.02
        },
        {
            "text": "video call but it's not the same you",
            "start": 704.339,
            "duration": 4.74
        },
        {
            "text": "know mentorships often are because you",
            "start": 706.68,
            "duration": 4.02
        },
        {
            "text": "were in the right place at the right",
            "start": 709.079,
            "duration": 4.081
        },
        {
            "text": "time you were somebody with whom totally",
            "start": 710.7,
            "duration": 4.74
        },
        {
            "text": "just worked out with somebody else and",
            "start": 713.16,
            "duration": 3.419
        },
        {
            "text": "they're just like hey let you know let",
            "start": 715.44,
            "duration": 2.22
        },
        {
            "text": "me help you with this let me help you",
            "start": 716.579,
            "duration": 2.521
        },
        {
            "text": "with this I've seen this happen a lot of",
            "start": 717.66,
            "duration": 3.54
        },
        {
            "text": "times you just can't get the same",
            "start": 719.1,
            "duration": 4.679
        },
        {
            "text": "experience from a you know from a video",
            "start": 721.2,
            "duration": 4.139
        },
        {
            "text": "call I know people are like absolutely",
            "start": 723.779,
            "duration": 3.06
        },
        {
            "text": "you can",
            "start": 725.339,
            "duration": 4.261
        },
        {
            "text": "it's just not the same it's just it's",
            "start": 726.839,
            "duration": 4.44
        },
        {
            "text": "never going to be same I love remote",
            "start": 729.6,
            "duration": 5.64
        },
        {
            "text": "work I love remote work",
            "start": 731.279,
            "duration": 6.861
        },
        {
            "text": "in office has as many benefits as remote",
            "start": 735.24,
            "duration": 5.46
        },
        {
            "text": "but it also like but just the same thing",
            "start": 738.14,
            "duration": 3.939
        },
        {
            "text": "it has as many negatives I don't think",
            "start": 740.7,
            "duration": 2.819
        },
        {
            "text": "there's one",
            "start": 742.079,
            "duration": 3.301
        },
        {
            "text": "I don't think there's a one size fits",
            "start": 743.519,
            "duration": 3.901
        },
        {
            "text": "all most people aren't mentoring most",
            "start": 745.38,
            "duration": 3.18
        },
        {
            "text": "people don't get mentored either",
            "start": 747.42,
            "duration": 3.3
        },
        {
            "text": "mentoring is one of the best activities",
            "start": 748.56,
            "duration": 4.62
        },
        {
            "text": "you can have done to you and it's one of",
            "start": 750.72,
            "duration": 5.94
        },
        {
            "text": "the best activities for you to do if you",
            "start": 753.18,
            "duration": 5.46
        },
        {
            "text": "have an opportunity to Mentor take it",
            "start": 756.66,
            "duration": 4.38
        },
        {
            "text": "you'll change someone's life and on top",
            "start": 758.64,
            "duration": 4.379
        },
        {
            "text": "of that it will teach you about teaching",
            "start": 761.04,
            "duration": 3.84
        },
        {
            "text": "which is a very hard skill to have",
            "start": 763.019,
            "duration": 4.44
        },
        {
            "text": "nothing is going to make you grow faster",
            "start": 764.88,
            "duration": 4.62
        },
        {
            "text": "trying to explain Concepts you know",
            "start": 767.459,
            "duration": 4.921
        },
        {
            "text": "really nothing you know how do I get",
            "start": 769.5,
            "duration": 4.019
        },
        {
            "text": "mentorship",
            "start": 772.38,
            "duration": 3.24
        },
        {
            "text": "well",
            "start": 773.519,
            "duration": 4.26
        },
        {
            "text": "if I was in a company in an office I",
            "start": 775.62,
            "duration": 3.36
        },
        {
            "text": "know how I'd go about it because that's",
            "start": 777.779,
            "duration": 3.24
        },
        {
            "text": "how I did it remotely I honestly I have",
            "start": 778.98,
            "duration": 3.78
        },
        {
            "text": "no idea the perfect balance for me work",
            "start": 781.019,
            "duration": 3.06
        },
        {
            "text": "in a few days yeah I think this is great",
            "start": 782.76,
            "duration": 2.699
        },
        {
            "text": "the best way you can learn is to teach",
            "start": 784.079,
            "duration": 3.301
        },
        {
            "text": "it is one of the best ways I'm already",
            "start": 785.459,
            "duration": 3.961
        },
        {
            "text": "nine years working remotely wow that is",
            "start": 787.38,
            "duration": 5.22
        },
        {
            "text": "so long I love having the academic uh",
            "start": 789.42,
            "duration": 5.039
        },
        {
            "text": "quarter after work just head down in a",
            "start": 792.6,
            "duration": 3.299
        },
        {
            "text": "Pub bar with your co-workers talk about",
            "start": 794.459,
            "duration": 2.761
        },
        {
            "text": "something not yeah I think that that's",
            "start": 795.899,
            "duration": 3.421
        },
        {
            "text": "actually a really good it's just hard to",
            "start": 797.22,
            "duration": 4.02
        },
        {
            "text": "build that with VCS it just really is",
            "start": 799.32,
            "duration": 4.139
        },
        {
            "text": "hard to build that I can't crack two and",
            "start": 801.24,
            "duration": 3.659
        },
        {
            "text": "I can't Mentor you",
            "start": 803.459,
            "duration": 3.12
        },
        {
            "text": "unless if you're in my barn you know",
            "start": 804.899,
            "duration": 3.24
        },
        {
            "text": "what I mean it's always cool when",
            "start": 806.579,
            "duration": 3.241
        },
        {
            "text": "someone you Mentor starts showing you",
            "start": 808.139,
            "duration": 3.0
        },
        {
            "text": "stuff and teaching you new things yeah",
            "start": 809.82,
            "duration": 3.36
        },
        {
            "text": "see it's the turnaround the master",
            "start": 811.139,
            "duration": 4.021
        },
        {
            "text": "becomes the sensei",
            "start": 813.18,
            "duration": 4.68
        },
        {
            "text": "wait the pupil what the hell am I saying",
            "start": 815.16,
            "duration": 4.56
        },
        {
            "text": "uh anyways let's keep on going the",
            "start": 817.86,
            "duration": 4.46
        },
        {
            "text": "problem with uh",
            "start": 819.72,
            "duration": 2.6
        },
        {
            "text": "we don't have infrastructure for remote",
            "start": 824.279,
            "duration": 3.3
        },
        {
            "text": "work what prevents you from putting it",
            "start": 826.139,
            "duration": 3.181
        },
        {
            "text": "into place I mean it can be complicated",
            "start": 827.579,
            "duration": 3.481
        },
        {
            "text": "I mean I I get what you I get I get this",
            "start": 829.32,
            "duration": 3.3
        },
        {
            "text": "argument that we should",
            "start": 831.06,
            "duration": 3.959
        },
        {
            "text": "allow I think remote work has a lot of",
            "start": 832.62,
            "duration": 3.659
        },
        {
            "text": "benefits we've already said that like",
            "start": 835.019,
            "duration": 3.361
        },
        {
            "text": "the truth is that CEOs and ctOS are",
            "start": 836.279,
            "duration": 3.0
        },
        {
            "text": "afraid",
            "start": 838.38,
            "duration": 4.44
        },
        {
            "text": "that again unilateral bold claims going",
            "start": 839.279,
            "duration": 5.881
        },
        {
            "text": "on here and don't get me wrong I'm not",
            "start": 842.82,
            "duration": 3.84
        },
        {
            "text": "throwing any Stones here no you",
            "start": 845.16,
            "duration": 3.119
        },
        {
            "text": "literally threw a stone the they're",
            "start": 846.66,
            "duration": 4.08
        },
        {
            "text": "afraid they're nothing but puppies and",
            "start": 848.279,
            "duration": 4.021
        },
        {
            "text": "they can't handle this all right like",
            "start": 850.74,
            "duration": 3.36
        },
        {
            "text": "that's what that's literally what you're",
            "start": 852.3,
            "duration": 3.96
        },
        {
            "text": "saying right there managing a company is",
            "start": 854.1,
            "duration": 3.78
        },
        {
            "text": "hard and stressful I'm sure I would be",
            "start": 856.26,
            "duration": 4.56
        },
        {
            "text": "afraid as heck too if I was managing a",
            "start": 857.88,
            "duration": 5.399
        },
        {
            "text": "dozens of employees change is difficult",
            "start": 860.82,
            "duration": 4.199
        },
        {
            "text": "and frightening and scary that's",
            "start": 863.279,
            "duration": 3.841
        },
        {
            "text": "understandable still pretending that",
            "start": 865.019,
            "duration": 3.901
        },
        {
            "text": "it's just not for us is a [\u00a0__\u00a0]",
            "start": 867.12,
            "duration": 4.159
        },
        {
            "text": "excuse",
            "start": 868.92,
            "duration": 2.359
        },
        {
            "text": "I like how I used heck here and [\u00a0__\u00a0]",
            "start": 871.8,
            "duration": 2.76
        },
        {
            "text": "there",
            "start": 873.839,
            "duration": 3.0
        },
        {
            "text": "it's kind of fun like the double the HD",
            "start": 874.56,
            "duration": 4.079
        },
        {
            "text": "double hockey sticks swear word followed",
            "start": 876.839,
            "duration": 4.5
        },
        {
            "text": "up by the uh the actual [\u00a0__\u00a0]",
            "start": 878.639,
            "duration": 3.961
        },
        {
            "text": "it's funny it's just funny way of",
            "start": 881.339,
            "duration": 4.081
        },
        {
            "text": "writing just little things anyways",
            "start": 882.6,
            "duration": 5.099
        },
        {
            "text": "uh",
            "start": 885.42,
            "duration": 4.5
        },
        {
            "text": "again it's just so one-dimensional I",
            "start": 887.699,
            "duration": 3.721
        },
        {
            "text": "don't feel like this is a good take what",
            "start": 889.92,
            "duration": 3.479
        },
        {
            "text": "I'm asking you let's see asking is that",
            "start": 891.42,
            "duration": 3.24
        },
        {
            "text": "you would at least be honest with",
            "start": 893.399,
            "duration": 2.88
        },
        {
            "text": "yourself and your employees and take a",
            "start": 894.66,
            "duration": 3.72
        },
        {
            "text": "long hard introspective look at why you",
            "start": 896.279,
            "duration": 3.541
        },
        {
            "text": "don't think remote work is good for you",
            "start": 898.38,
            "duration": 3.54
        },
        {
            "text": "and let's see why would your company be",
            "start": 899.82,
            "duration": 4.94
        },
        {
            "text": "the one exception",
            "start": 901.92,
            "duration": 2.84
        },
        {
            "text": "I mean he really is selling this as if",
            "start": 906.24,
            "duration": 5.159
        },
        {
            "text": "there's not a single drawback to remote",
            "start": 908.519,
            "duration": 5.241
        },
        {
            "text": "work",
            "start": 911.399,
            "duration": 2.361
        },
        {
            "text": "like none",
            "start": 913.86,
            "duration": 4.2
        },
        {
            "text": "ever",
            "start": 915.899,
            "duration": 5.341
        },
        {
            "text": "the first reason why companies are uh",
            "start": 918.06,
            "duration": 6.42
        },
        {
            "text": "let's see uh let's see whoa whoa",
            "start": 921.24,
            "duration": 5.279
        },
        {
            "text": "all right now hold on uh let's see uh is",
            "start": 924.48,
            "duration": 3.419
        },
        {
            "text": "that they fear a loss of communication",
            "start": 926.519,
            "duration": 3.12
        },
        {
            "text": "interaction between employees yeah okay",
            "start": 927.899,
            "duration": 4.44
        },
        {
            "text": "so this is good the other okay that's",
            "start": 929.639,
            "duration": 5.161
        },
        {
            "text": "not a fear",
            "start": 932.339,
            "duration": 4.68
        },
        {
            "text": "I've met very little people that say",
            "start": 934.8,
            "duration": 4.92
        },
        {
            "text": "this is not true uh leading to a drop in",
            "start": 937.019,
            "duration": 4.32
        },
        {
            "text": "Innovation camaraderie and productivity",
            "start": 939.72,
            "duration": 3.72
        },
        {
            "text": "I do think there is an innovation drop",
            "start": 941.339,
            "duration": 3.781
        },
        {
            "text": "off I think it's very hard to innovate",
            "start": 943.44,
            "duration": 3.72
        },
        {
            "text": "in the same way without",
            "start": 945.12,
            "duration": 5.219
        },
        {
            "text": "group I think group is really good and I",
            "start": 947.16,
            "duration": 5.039
        },
        {
            "text": "I again I still think it's hard to be",
            "start": 950.339,
            "duration": 5.221
        },
        {
            "text": "like all right right now is creativity",
            "start": 952.199,
            "duration": 5.341
        },
        {
            "text": "time from 2 to 3 P.M this Wednesday",
            "start": 955.56,
            "duration": 3.899
        },
        {
            "text": "we're being creative",
            "start": 957.54,
            "duration": 3.599
        },
        {
            "text": "and then afterwards we all leave like",
            "start": 959.459,
            "duration": 3.24
        },
        {
            "text": "it's just not the same like that that",
            "start": 961.139,
            "duration": 3.841
        },
        {
            "text": "impromptu creativity is really amazing",
            "start": 962.699,
            "duration": 4.981
        },
        {
            "text": "and it's very hard to create they are",
            "start": 964.98,
            "duration": 4.32
        },
        {
            "text": "afraid that the soap will stop bubbling",
            "start": 967.68,
            "duration": 3.719
        },
        {
            "text": "so to speak that's understandable the",
            "start": 969.3,
            "duration": 5.039
        },
        {
            "text": "problem is it's just not true",
            "start": 971.399,
            "duration": 5.161
        },
        {
            "text": "when well managing it's really not hard",
            "start": 974.339,
            "duration": 3.0
        },
        {
            "text": "to",
            "start": 976.56,
            "duration": 3.12
        },
        {
            "text": "I mean these are all such crazy",
            "start": 977.339,
            "duration": 4.62
        },
        {
            "text": "statements uh does not have does not",
            "start": 979.68,
            "duration": 4.5
        },
        {
            "text": "have these downsides so many companies",
            "start": 981.959,
            "duration": 3.961
        },
        {
            "text": "were forced into this reality because of",
            "start": 984.18,
            "duration": 4.62
        },
        {
            "text": "a pandemic but we had told them before",
            "start": 985.92,
            "duration": 4.56
        },
        {
            "text": "the information was really out there",
            "start": 988.8,
            "duration": 3.599
        },
        {
            "text": "they are just not brave enough to trust",
            "start": 990.48,
            "duration": 5.299
        },
        {
            "text": "the data and take a leap of faith",
            "start": 992.399,
            "duration": 3.38
        },
        {
            "text": "it's like bungee jumping no it's not on",
            "start": 997.8,
            "duration": 4.86
        },
        {
            "text": "the surface level you know it's a it's",
            "start": 1000.74,
            "duration": 4.56
        },
        {
            "text": "actually a safe activity uh you have a",
            "start": 1002.66,
            "duration": 4.679
        },
        {
            "text": "very resistant elastic rope which will",
            "start": 1005.3,
            "duration": 3.599
        },
        {
            "text": "prevent you from crushing in the canyon",
            "start": 1007.339,
            "duration": 3.0
        },
        {
            "text": "or crashing the canyon below you know",
            "start": 1008.899,
            "duration": 2.88
        },
        {
            "text": "it's safe yet deep down your brain",
            "start": 1010.339,
            "duration": 4.5
        },
        {
            "text": "refuses to jump no",
            "start": 1011.779,
            "duration": 3.62
        },
        {
            "text": "no",
            "start": 1014.839,
            "duration": 2.821
        },
        {
            "text": "understandable still it's not a good",
            "start": 1015.399,
            "duration": 3.821
        },
        {
            "text": "excuse remember the health of your",
            "start": 1017.66,
            "duration": 3.539
        },
        {
            "text": "company and your employees happiness are",
            "start": 1019.22,
            "duration": 4.619
        },
        {
            "text": "at Stakes here",
            "start": 1021.199,
            "duration": 4.86
        },
        {
            "text": "you know there's some people okay real",
            "start": 1023.839,
            "duration": 3.181
        },
        {
            "text": "talk",
            "start": 1026.059,
            "duration": 2.701
        },
        {
            "text": "for",
            "start": 1027.02,
            "duration": 3.539
        },
        {
            "text": "I know I already know it's going to be",
            "start": 1028.76,
            "duration": 3.78
        },
        {
            "text": "pretty negative or not many people but",
            "start": 1030.559,
            "duration": 4.14
        },
        {
            "text": "type one in the chat if you like being",
            "start": 1032.54,
            "duration": 3.779
        },
        {
            "text": "in the office for some amount of days a",
            "start": 1034.699,
            "duration": 2.581
        },
        {
            "text": "week",
            "start": 1036.319,
            "duration": 2.821
        },
        {
            "text": "type one in the chat if you like that",
            "start": 1037.28,
            "duration": 4.22
        },
        {
            "text": "experience",
            "start": 1039.14,
            "duration": 2.36
        },
        {
            "text": "so it turns out some people are",
            "start": 1045.079,
            "duration": 3.84
        },
        {
            "text": "different than other people isn't that",
            "start": 1047.0,
            "duration": 4.38
        },
        {
            "text": "crazy how that works out we can all be",
            "start": 1048.919,
            "duration": 4.081
        },
        {
            "text": "different people",
            "start": 1051.38,
            "duration": 4.74
        },
        {
            "text": "isn't that weird that like I might like",
            "start": 1053.0,
            "duration": 4.799
        },
        {
            "text": "being around people and you might not",
            "start": 1056.12,
            "duration": 4.14
        },
        {
            "text": "like being around people I know this is",
            "start": 1057.799,
            "duration": 7.101
        },
        {
            "text": "crazy I know what's crazy I know",
            "start": 1060.26,
            "duration": 4.64
        },
        {
            "text": "you might actually be different than me",
            "start": 1065.0,
            "duration": 4.1
        },
        {
            "text": "I'll pull this one we'll do a poll",
            "start": 1069.559,
            "duration": 5.581
        },
        {
            "text": "I know it's it seems fake this is",
            "start": 1072.2,
            "duration": 4.62
        },
        {
            "text": "probably fake news Alex Jones is",
            "start": 1075.14,
            "duration": 4.38
        },
        {
            "text": "probably spreading this conspiracy uh",
            "start": 1076.82,
            "duration": 4.2
        },
        {
            "text": "where to work",
            "start": 1079.52,
            "duration": 3.72
        },
        {
            "text": "full office",
            "start": 1081.02,
            "duration": 5.279
        },
        {
            "text": "uh half and half",
            "start": 1083.24,
            "duration": 4.86
        },
        {
            "text": "full remote",
            "start": 1086.299,
            "duration": 3.481
        },
        {
            "text": "is that pretty good I feel like that",
            "start": 1088.1,
            "duration": 3.12
        },
        {
            "text": "kind of covers most most of the",
            "start": 1089.78,
            "duration": 3.98
        },
        {
            "text": "situations",
            "start": 1091.22,
            "duration": 2.54
        },
        {
            "text": "when I say half and half it can be a",
            "start": 1094.82,
            "duration": 3.38
        },
        {
            "text": "little bit you know it could be like",
            "start": 1096.5,
            "duration": 4.62
        },
        {
            "text": "two-thirds remote one-third in office or",
            "start": 1098.2,
            "duration": 4.96
        },
        {
            "text": "the other way around maybe it's one day",
            "start": 1101.12,
            "duration": 3.78
        },
        {
            "text": "a week but it's something that's mixed",
            "start": 1103.16,
            "duration": 3.98
        },
        {
            "text": "right",
            "start": 1104.9,
            "duration": 2.24
        },
        {
            "text": "I'm probably half I'm on I'm personally",
            "start": 1107.84,
            "duration": 5.1
        },
        {
            "text": "on the half and half side I'm somewhere",
            "start": 1109.94,
            "duration": 5.58
        },
        {
            "text": "where I like some time in the office but",
            "start": 1112.94,
            "duration": 4.5
        },
        {
            "text": "I also like",
            "start": 1115.52,
            "duration": 3.899
        },
        {
            "text": "sometime not in the office you know what",
            "start": 1117.44,
            "duration": 3.599
        },
        {
            "text": "I mean",
            "start": 1119.419,
            "duration": 4.801
        },
        {
            "text": "yeah not being forced is great",
            "start": 1121.039,
            "duration": 6.121
        },
        {
            "text": "all right well look at that number jeez",
            "start": 1124.22,
            "duration": 4.74
        },
        {
            "text": "that sure looks a little bit more",
            "start": 1127.16,
            "duration": 4.08
        },
        {
            "text": "complicated",
            "start": 1128.96,
            "duration": 3.599
        },
        {
            "text": "so it looks like we have some people",
            "start": 1131.24,
            "duration": 3.84
        },
        {
            "text": "that just love pure remote work awesome",
            "start": 1132.559,
            "duration": 5.341
        },
        {
            "text": "and we have a lot of people that like",
            "start": 1135.08,
            "duration": 5.099
        },
        {
            "text": "mixed work and we even have some people",
            "start": 1137.9,
            "duration": 5.96
        },
        {
            "text": "that like full office work",
            "start": 1140.179,
            "duration": 3.681
        }
    ],
    "stats": {
        "viewCount": "63551",
        "likeCount": "1780",
        "favoriteCount": "0",
        "commentCount": "293"
    }
}