{
    "id": "eglMl21DJz0",
    "title": "Go 1.20 Memory Arenas Are AMAZING | Prime Reacts",
    "publishedAt": "2023-07-17T12:00:35Z",
    "captions": [
        {
            "text": "go 1.20 experiment memory Arenas versus",
            "start": 0.179,
            "duration": 6.421
        },
        {
            "text": "traditional memory management is",
            "start": 4.38,
            "duration": 4.38
        },
        {
            "text": "traditional like managed memory because",
            "start": 6.6,
            "duration": 3.66
        },
        {
            "text": "that would be more traditional right is",
            "start": 8.76,
            "duration": 3.36
        },
        {
            "text": "gar isn't garbage collection modern",
            "start": 10.26,
            "duration": 3.72
        },
        {
            "text": "memory management I don't even know now",
            "start": 12.12,
            "duration": 4.86
        },
        {
            "text": "now you got me all confused Dimitri but",
            "start": 13.98,
            "duration": 4.86
        },
        {
            "text": "let's find out what you have to say uh",
            "start": 16.98,
            "duration": 3.36
        },
        {
            "text": "go Arenas are an experimental feature",
            "start": 18.84,
            "duration": 3.06
        },
        {
            "text": "the API and implementation is completely",
            "start": 20.34,
            "duration": 3.0
        },
        {
            "text": "unsupported and the go team makes no",
            "start": 21.9,
            "duration": 3.0
        },
        {
            "text": "guarantees about a compatibility or",
            "start": 23.34,
            "duration": 3.3
        },
        {
            "text": "whether it will even continue to exist",
            "start": 24.9,
            "duration": 3.539
        },
        {
            "text": "in any feature release or future release",
            "start": 26.64,
            "duration": 3.78
        },
        {
            "text": "awesome okay this seems exciting this is",
            "start": 28.439,
            "duration": 3.42
        },
        {
            "text": "exciting this is some Cutting Edge go",
            "start": 30.42,
            "duration": 4.319
        },
        {
            "text": "people all right go uh 1.20 introduces",
            "start": 31.859,
            "duration": 4.681
        },
        {
            "text": "an experimental concept of Arenas",
            "start": 34.739,
            "duration": 4.261
        },
        {
            "text": "exciting for memory management which can",
            "start": 36.54,
            "duration": 3.9
        },
        {
            "text": "be used to improve performance of your",
            "start": 39.0,
            "duration": 3.36
        },
        {
            "text": "go programs in this blog post we'll look",
            "start": 40.44,
            "duration": 3.84
        },
        {
            "text": "at it what are arenas how do they work",
            "start": 42.36,
            "duration": 3.539
        },
        {
            "text": "how can you determine if your program",
            "start": 44.28,
            "duration": 4.08
        },
        {
            "text": "could benefit from Arenas how do we use",
            "start": 45.899,
            "duration": 4.5
        },
        {
            "text": "let's see how we use Arenas to optimize",
            "start": 48.36,
            "duration": 3.66
        },
        {
            "text": "our services so this is super exciting",
            "start": 50.399,
            "duration": 3.84
        },
        {
            "text": "because again if you can make go",
            "start": 52.02,
            "duration": 4.44
        },
        {
            "text": "slightly faster",
            "start": 54.239,
            "duration": 4.98
        },
        {
            "text": "like it's already It Go as a super",
            "start": 56.46,
            "duration": 5.16
        },
        {
            "text": "simple language to get right get it",
            "start": 59.219,
            "duration": 4.621
        },
        {
            "text": "shipped and move on so if you can make",
            "start": 61.62,
            "duration": 4.44
        },
        {
            "text": "it even slightly more faster",
            "start": 63.84,
            "duration": 4.139
        },
        {
            "text": "like that'd be crazy",
            "start": 66.06,
            "duration": 3.84
        },
        {
            "text": "all right because memory is a huge turn",
            "start": 67.979,
            "duration": 3.601
        },
        {
            "text": "on any system memory is going to be one",
            "start": 69.9,
            "duration": 3.06
        },
        {
            "text": "of your biggest causes for things being",
            "start": 71.58,
            "duration": 3.96
        },
        {
            "text": "slow let's see what are memory Arenas uh",
            "start": 72.96,
            "duration": 3.78
        },
        {
            "text": "go is a programming language that",
            "start": 75.54,
            "duration": 3.24
        },
        {
            "text": "utilizes garbage collection meaning that",
            "start": 76.74,
            "duration": 4.26
        },
        {
            "text": "the runtime automatically manages memory",
            "start": 78.78,
            "duration": 3.659
        },
        {
            "text": "allocation and deallocation for the",
            "start": 81.0,
            "duration": 3.479
        },
        {
            "text": "programmer this eliminates the need for",
            "start": 82.439,
            "duration": 3.961
        },
        {
            "text": "manual memory management but it comes",
            "start": 84.479,
            "duration": 3.541
        },
        {
            "text": "with the cost absolutely the go run time",
            "start": 86.4,
            "duration": 3.359
        },
        {
            "text": "must keep track of every object that is",
            "start": 88.02,
            "duration": 3.12
        },
        {
            "text": "allocated leading to the increased",
            "start": 89.759,
            "duration": 3.18
        },
        {
            "text": "performance overhead yep classic and",
            "start": 91.14,
            "duration": 3.0
        },
        {
            "text": "then it also has to find out which ones",
            "start": 92.939,
            "duration": 3.061
        },
        {
            "text": "can be cleaned up in let's see in",
            "start": 94.14,
            "duration": 3.299
        },
        {
            "text": "certain scenarios such as when an H",
            "start": 96.0,
            "duration": 4.38
        },
        {
            "text": "titty uh server process processes",
            "start": 97.439,
            "duration": 4.741
        },
        {
            "text": "requests with large protobuf blobs which",
            "start": 100.38,
            "duration": 3.3
        },
        {
            "text": "contain many small objects this can",
            "start": 102.18,
            "duration": 3.42
        },
        {
            "text": "result in go or in the go runtime",
            "start": 103.68,
            "duration": 3.72
        },
        {
            "text": "spending a significant amount of time",
            "start": 105.6,
            "duration": 3.24
        },
        {
            "text": "tracking each of those individual",
            "start": 107.4,
            "duration": 3.24
        },
        {
            "text": "allocations and then deallocating them",
            "start": 108.84,
            "duration": 4.139
        },
        {
            "text": "as a result this also causes significant",
            "start": 110.64,
            "duration": 3.96
        },
        {
            "text": "performance overhead one thing I don't",
            "start": 112.979,
            "duration": 3.301
        },
        {
            "text": "know about go that's true in JavaScript",
            "start": 114.6,
            "duration": 4.379
        },
        {
            "text": "is that like everything is its own",
            "start": 116.28,
            "duration": 4.74
        },
        {
            "text": "object",
            "start": 118.979,
            "duration": 4.861
        },
        {
            "text": "therefore",
            "start": 121.02,
            "duration": 4.68
        },
        {
            "text": "like a map",
            "start": 123.84,
            "duration": 4.559
        },
        {
            "text": "with maps in it",
            "start": 125.7,
            "duration": 6.119
        },
        {
            "text": "or an object with maps in it are",
            "start": 128.399,
            "duration": 5.401
        },
        {
            "text": "actually two separately tracked items so",
            "start": 131.819,
            "duration": 3.841
        },
        {
            "text": "I'm not sure if that's true in go or not",
            "start": 133.8,
            "duration": 4.86
        },
        {
            "text": "I I don't know so anyways Arenas offer a",
            "start": 135.66,
            "duration": 4.56
        },
        {
            "text": "solution to this problem by reducing the",
            "start": 138.66,
            "duration": 3.0
        },
        {
            "text": "overhead associated with many smaller",
            "start": 140.22,
            "duration": 3.599
        },
        {
            "text": "allocations in this protobuf uh blob",
            "start": 141.66,
            "duration": 4.439
        },
        {
            "text": "example a large chunk of memory and",
            "start": 143.819,
            "duration": 4.5
        },
        {
            "text": "Arena can be allocated before parsing",
            "start": 146.099,
            "duration": 5.161
        },
        {
            "text": "enable enabling before parsing enabling",
            "start": 148.319,
            "duration": 4.981
        },
        {
            "text": "all parse objects to then be placed",
            "start": 151.26,
            "duration": 3.54
        },
        {
            "text": "within an arena and tracked as a",
            "start": 153.3,
            "duration": 3.84
        },
        {
            "text": "collective unit once parsing is",
            "start": 154.8,
            "duration": 4.079
        },
        {
            "text": "completed the entire Arena can be freed",
            "start": 157.14,
            "duration": 4.44
        },
        {
            "text": "at once okay so this is like",
            "start": 158.879,
            "duration": 5.341
        },
        {
            "text": "effectively in some sense you're saying",
            "start": 161.58,
            "duration": 4.26
        },
        {
            "text": "that this object can only be referenced",
            "start": 164.22,
            "duration": 2.76
        },
        {
            "text": "by",
            "start": 165.84,
            "duration": 2.399
        },
        {
            "text": "a certain amount of items and they're",
            "start": 166.98,
            "duration": 2.759
        },
        {
            "text": "all in one single group so it's very",
            "start": 168.239,
            "duration": 3.0
        },
        {
            "text": "very simple okay this is actually pretty",
            "start": 169.739,
            "duration": 3.72
        },
        {
            "text": "cool this is kind of like a cool concept",
            "start": 171.239,
            "duration": 3.841
        },
        {
            "text": "I like it okay so garbage collector yeah",
            "start": 173.459,
            "duration": 3.06
        },
        {
            "text": "they have all these individual objects",
            "start": 175.08,
            "duration": 4.08
        },
        {
            "text": "versus just have them all in one okay I",
            "start": 176.519,
            "duration": 4.261
        },
        {
            "text": "like this",
            "start": 179.16,
            "duration": 3.42
        },
        {
            "text": "okay so this is what they mean by an",
            "start": 180.78,
            "duration": 2.7
        },
        {
            "text": "arena",
            "start": 182.58,
            "duration": 2.879
        },
        {
            "text": "okay identifying code that could benefit",
            "start": 183.48,
            "duration": 4.56
        },
        {
            "text": "from Arenas any code that allocates a",
            "start": 185.459,
            "duration": 3.721
        },
        {
            "text": "lot of small objects could potentially",
            "start": 188.04,
            "duration": 2.699
        },
        {
            "text": "benefit from Arenas but how do you know",
            "start": 189.18,
            "duration": 3.54
        },
        {
            "text": "if your code allocates too many in our",
            "start": 190.739,
            "duration": 3.121
        },
        {
            "text": "experience the best way to find out is",
            "start": 192.72,
            "duration": 2.46
        },
        {
            "text": "to profile your program yep nice",
            "start": 193.86,
            "duration": 3.48
        },
        {
            "text": "pyroscope okay pyroscope is one of these",
            "start": 195.18,
            "duration": 3.479
        },
        {
            "text": "cool so they give you like a little",
            "start": 197.34,
            "duration": 3.74
        },
        {
            "text": "Arena or allocation",
            "start": 198.659,
            "duration": 4.321
        },
        {
            "text": "allocation I believe they call these",
            "start": 201.08,
            "duration": 3.579
        },
        {
            "text": "icicle graphs because they hang from the",
            "start": 202.98,
            "duration": 3.6
        },
        {
            "text": "top",
            "start": 204.659,
            "duration": 3.481
        },
        {
            "text": "it's just a flame graph I call it a",
            "start": 206.58,
            "duration": 3.06
        },
        {
            "text": "flame graph okay just invert it and boom",
            "start": 208.14,
            "duration": 2.64
        },
        {
            "text": "you got yourself a flame graph I'm not",
            "start": 209.64,
            "duration": 2.519
        },
        {
            "text": "really sure why we decided to flip flame",
            "start": 210.78,
            "duration": 3.66
        },
        {
            "text": "graphs upside down but you know we did",
            "start": 212.159,
            "duration": 4.021
        },
        {
            "text": "we went there and now look at us now",
            "start": 214.44,
            "duration": 3.9
        },
        {
            "text": "look at us now we got icicles okay I",
            "start": 216.18,
            "duration": 3.419
        },
        {
            "text": "don't understand it what the hell's",
            "start": 218.34,
            "duration": 2.28
        },
        {
            "text": "Happening Here",
            "start": 219.599,
            "duration": 3.72
        },
        {
            "text": "okay uh the purple uh nodes in this",
            "start": 220.62,
            "duration": 4.86
        },
        {
            "text": "allocated uh objects flame graph",
            "start": 223.319,
            "duration": 3.721
        },
        {
            "text": "represent where Arenas may be most",
            "start": 225.48,
            "duration": 3.479
        },
        {
            "text": "effective oh interesting I wonder how",
            "start": 227.04,
            "duration": 3.3
        },
        {
            "text": "that works or why they're colored purple",
            "start": 228.959,
            "duration": 3.601
        },
        {
            "text": "what makes them that way",
            "start": 230.34,
            "duration": 4.08
        },
        {
            "text": "oh samples there's a lot of samples",
            "start": 232.56,
            "duration": 4.08
        },
        {
            "text": "objects in Ram there's a lot of objects",
            "start": 234.42,
            "duration": 5.399
        },
        {
            "text": "in Ram okay okay okay uh you can see the",
            "start": 236.64,
            "duration": 5.159
        },
        {
            "text": "majority of allocations this many come",
            "start": 239.819,
            "duration": 5.041
        },
        {
            "text": "from one area of code oh okay so it's",
            "start": 241.799,
            "duration": 4.561
        },
        {
            "text": "this one right here",
            "start": 244.86,
            "duration": 3.239
        },
        {
            "text": "or are you talking about this one",
            "start": 246.36,
            "duration": 3.12
        },
        {
            "text": "are you talking about this one I'm not",
            "start": 248.099,
            "duration": 2.28
        },
        {
            "text": "sure which one they're talking about but",
            "start": 249.48,
            "duration": 2.52
        },
        {
            "text": "somewhere in there usually how I read",
            "start": 250.379,
            "duration": 3.0
        },
        {
            "text": "this is this one is the one that",
            "start": 252.0,
            "duration": 3.0
        },
        {
            "text": "allocated all this this one allocated",
            "start": 253.379,
            "duration": 3.36
        },
        {
            "text": "from here to here and this one allocated",
            "start": 255.0,
            "duration": 3.06
        },
        {
            "text": "from here to here right that's how I'd",
            "start": 256.739,
            "duration": 3.72
        },
        {
            "text": "read it given that it represents 65 of",
            "start": 258.06,
            "duration": 4.139
        },
        {
            "text": "allocations this is a good candidate for",
            "start": 260.459,
            "duration": 4.201
        },
        {
            "text": "using Arenas but is there enough of a",
            "start": 262.199,
            "duration": 3.841
        },
        {
            "text": "performance benefit to be gained by",
            "start": 264.66,
            "duration": 2.7
        },
        {
            "text": "cutting down these allocations let's",
            "start": 266.04,
            "duration": 4.14
        },
        {
            "text": "take a look at the CPU profiler okay so",
            "start": 267.36,
            "duration": 4.02
        },
        {
            "text": "it does look like you're getting the",
            "start": 270.18,
            "duration": 3.12
        },
        {
            "text": "same kind of uh area right here okay",
            "start": 271.38,
            "duration": 4.98
        },
        {
            "text": "exciting purple nodes in this CPU flame",
            "start": 273.3,
            "duration": 4.679
        },
        {
            "text": "graph represents potential for",
            "start": 276.36,
            "duration": 3.0
        },
        {
            "text": "performance improvements all right let's",
            "start": 277.979,
            "duration": 3.421
        },
        {
            "text": "go a few things stand out the problem or",
            "start": 279.36,
            "duration": 3.96
        },
        {
            "text": "the program spends a lot of CPU time in",
            "start": 281.4,
            "duration": 4.799
        },
        {
            "text": "the same insert stack a function okay so",
            "start": 283.32,
            "duration": 4.319
        },
        {
            "text": "there could be there could be some gains",
            "start": 286.199,
            "duration": 3.241
        },
        {
            "text": "uh is it the memory that's causing him",
            "start": 287.639,
            "duration": 3.901
        },
        {
            "text": "if you search for a runtime Malik GC",
            "start": 289.44,
            "duration": 4.199
        },
        {
            "text": "multiple pink nodes at the bottom you'll",
            "start": 291.54,
            "duration": 3.18
        },
        {
            "text": "see that the function is called",
            "start": 293.639,
            "duration": 2.641
        },
        {
            "text": "frequently in various different places",
            "start": 294.72,
            "duration": 3.12
        },
        {
            "text": "and takes about 14 of our total",
            "start": 296.28,
            "duration": 3.419
        },
        {
            "text": "execution time so this is typically how",
            "start": 297.84,
            "duration": 4.139
        },
        {
            "text": "I do this for node node I'll look for",
            "start": 299.699,
            "duration": 5.401
        },
        {
            "text": "major and minor GC and I will look for",
            "start": 301.979,
            "duration": 6.361
        },
        {
            "text": "how much of the program's time am I",
            "start": 305.1,
            "duration": 6.42
        },
        {
            "text": "spending in a major or minor GC and",
            "start": 308.34,
            "duration": 4.74
        },
        {
            "text": "that's really your garbage collection",
            "start": 311.52,
            "duration": 4.38
        },
        {
            "text": "win now where this makes a huge win is",
            "start": 313.08,
            "duration": 4.74
        },
        {
            "text": "inside of requests right inside of a",
            "start": 315.9,
            "duration": 4.2
        },
        {
            "text": "server because once your server can can",
            "start": 317.82,
            "duration": 4.08
        },
        {
            "text": "reduce that it actually makes a",
            "start": 320.1,
            "duration": 3.84
        },
        {
            "text": "disproportionately huge effect in how",
            "start": 321.9,
            "duration": 3.6
        },
        {
            "text": "much you actually get done because a",
            "start": 323.94,
            "duration": 4.38
        },
        {
            "text": "single request all the the problem why",
            "start": 325.5,
            "duration": 5.1
        },
        {
            "text": "is that it's like a multiple right so in",
            "start": 328.32,
            "duration": 4.62
        },
        {
            "text": "in node when a single request hits with",
            "start": 330.6,
            "duration": 4.68
        },
        {
            "text": "a garbage collection all other requests",
            "start": 332.94,
            "duration": 4.44
        },
        {
            "text": "that are waiting all get hit with the",
            "start": 335.28,
            "duration": 5.04
        },
        {
            "text": "same garbage collection so a 200",
            "start": 337.38,
            "duration": 5.52
        },
        {
            "text": "millisecond stop isn't just a 200",
            "start": 340.32,
            "duration": 5.099
        },
        {
            "text": "millisecond for a singular request it's",
            "start": 342.9,
            "duration": 5.34
        },
        {
            "text": "a 200 millisecond for the 10 requests in",
            "start": 345.419,
            "duration": 5.521
        },
        {
            "text": "there so the amount of speed you gain by",
            "start": 348.24,
            "duration": 4.26
        },
        {
            "text": "reducing garbage collection goes up",
            "start": 350.94,
            "duration": 4.02
        },
        {
            "text": "significant amounts inside of a node",
            "start": 352.5,
            "duration": 4.919
        },
        {
            "text": "application that's why you know that's",
            "start": 354.96,
            "duration": 3.959
        },
        {
            "text": "why garbage collection is a really good",
            "start": 357.419,
            "duration": 2.401
        },
        {
            "text": "thing to think about you know what I",
            "start": 358.919,
            "duration": 2.941
        },
        {
            "text": "mean",
            "start": 359.82,
            "duration": 3.9
        },
        {
            "text": "I don't know if it's the same in go I",
            "start": 361.86,
            "duration": 3.48
        },
        {
            "text": "don't know exactly how go works but if",
            "start": 363.72,
            "duration": 3.0
        },
        {
            "text": "it also has freeze the world garbage",
            "start": 365.34,
            "duration": 2.88
        },
        {
            "text": "collection then you could argue the",
            "start": 366.72,
            "duration": 3.96
        },
        {
            "text": "exact same thing every single one of",
            "start": 368.22,
            "duration": 4.62
        },
        {
            "text": "those will all have to freeze and",
            "start": 370.68,
            "duration": 5.64
        },
        {
            "text": "therefore you're a 14 isn't just 14 it",
            "start": 372.84,
            "duration": 5.04
        },
        {
            "text": "could be a hundred and forty percent",
            "start": 376.32,
            "duration": 3.24
        },
        {
            "text": "right you don't know how much it will",
            "start": 377.88,
            "duration": 3.78
        },
        {
            "text": "actually improve your response time and",
            "start": 379.56,
            "duration": 4.079
        },
        {
            "text": "all that about five percent of the CPU",
            "start": 381.66,
            "duration": 4.319
        },
        {
            "text": "time is spent in runtime uh big Mark",
            "start": 383.639,
            "duration": 4.62
        },
        {
            "text": "worker okay awesome so in theory if we",
            "start": 385.979,
            "duration": 3.72
        },
        {
            "text": "optimize all of our allocations in this",
            "start": 388.259,
            "duration": 4.081
        },
        {
            "text": "program we could cut about 14 plus 5 19",
            "start": 389.699,
            "duration": 6.0
        },
        {
            "text": "CPU time this would translate in uh 90",
            "start": 392.34,
            "duration": 5.28
        },
        {
            "text": "cost savings and latency Improvement for",
            "start": 395.699,
            "duration": 3.661
        },
        {
            "text": "all of our customers in practice it's",
            "start": 397.62,
            "duration": 3.18
        },
        {
            "text": "unlikely that we could truly get those",
            "start": 399.36,
            "duration": 4.08
        },
        {
            "text": "numbers down to zero but this is still a",
            "start": 400.8,
            "duration": 4.8
        },
        {
            "text": "significant chunk of work yep",
            "start": 403.44,
            "duration": 4.14
        },
        {
            "text": "okay optimizations we made if you're",
            "start": 405.6,
            "duration": 3.36
        },
        {
            "text": "interested in following along there's a",
            "start": 407.58,
            "duration": 3.059
        },
        {
            "text": "public pull request for uh pyroscope",
            "start": 408.96,
            "duration": 3.6
        },
        {
            "text": "repository that you can use as a",
            "start": 410.639,
            "duration": 3.541
        },
        {
            "text": "reference to begin we created a wrapper",
            "start": 412.56,
            "duration": 3.18
        },
        {
            "text": "component that is responsible for",
            "start": 414.18,
            "duration": 3.18
        },
        {
            "text": "dealing with allocations of slices or",
            "start": 415.74,
            "duration": 3.54
        },
        {
            "text": "structs if Arenas are enabled this",
            "start": 417.36,
            "duration": 4.559
        },
        {
            "text": "component allocates slices using uh an",
            "start": 419.28,
            "duration": 4.44
        },
        {
            "text": "arena otherwise it uses a standard make",
            "start": 421.919,
            "duration": 3.78
        },
        {
            "text": "function we do this by using a build",
            "start": 423.72,
            "duration": 3.96
        },
        {
            "text": "tags okay I don't know much about build",
            "start": 425.699,
            "duration": 3.541
        },
        {
            "text": "tags and go this allows for easy",
            "start": 427.68,
            "duration": 3.239
        },
        {
            "text": "switching between Arena allocations and",
            "start": 429.24,
            "duration": 3.12
        },
        {
            "text": "standard allocations at build time okay",
            "start": 430.919,
            "duration": 3.06
        },
        {
            "text": "perfect so there's no runtime overhead",
            "start": 432.36,
            "duration": 3.24
        },
        {
            "text": "is what they're saying it just chooses",
            "start": 433.979,
            "duration": 3.361
        },
        {
            "text": "one or the other",
            "start": 435.6,
            "duration": 3.0
        },
        {
            "text": "perfect",
            "start": 437.34,
            "duration": 3.299
        },
        {
            "text": "then we added initialization and cleanup",
            "start": 438.6,
            "duration": 3.48
        },
        {
            "text": "calls for our Arenas around the parser",
            "start": 440.639,
            "duration": 4.081
        },
        {
            "text": "code after that we replaced regular make",
            "start": 442.08,
            "duration": 4.679
        },
        {
            "text": "calls with make calls from our wrapper",
            "start": 444.72,
            "duration": 3.72
        },
        {
            "text": "component finally we build pyroscope",
            "start": 446.759,
            "duration": 3.361
        },
        {
            "text": "with Arenas enabled and gradually",
            "start": 448.44,
            "duration": 3.12
        },
        {
            "text": "deployed to our production environment",
            "start": 450.12,
            "duration": 3.78
        },
        {
            "text": "okay",
            "start": 451.56,
            "duration": 3.96
        },
        {
            "text": "let's see uh flame graph with the",
            "start": 453.9,
            "duration": 3.66
        },
        {
            "text": "representative CPU time per function is",
            "start": 455.52,
            "duration": 3.72
        },
        {
            "text": "this supposed to be the same as this one",
            "start": 457.56,
            "duration": 3.539
        },
        {
            "text": "I mean it looks like the same right so",
            "start": 459.24,
            "duration": 3.299
        },
        {
            "text": "13 percent",
            "start": 461.099,
            "duration": 3.841
        },
        {
            "text": "13 okay the flame graph above represents",
            "start": 462.539,
            "duration": 4.201
        },
        {
            "text": "a profile after we've implemented the",
            "start": 464.94,
            "duration": 3.599
        },
        {
            "text": "changes you can see that many of the",
            "start": 466.74,
            "duration": 3.6
        },
        {
            "text": "runtime Malik calls are now gone I",
            "start": 468.539,
            "duration": 3.181
        },
        {
            "text": "couldn't see them before",
            "start": 470.34,
            "duration": 2.94
        },
        {
            "text": "I guess I'd have to kind of run through",
            "start": 471.72,
            "duration": 3.12
        },
        {
            "text": "this is there a way to like easy oh is",
            "start": 473.28,
            "duration": 3.84
        },
        {
            "text": "this one over here",
            "start": 474.84,
            "duration": 4.199
        },
        {
            "text": "yeah okay so it was this one four",
            "start": 477.12,
            "duration": 4.079
        },
        {
            "text": "percent oh is it all pink that okay so",
            "start": 479.039,
            "duration": 3.961
        },
        {
            "text": "all pink",
            "start": 481.199,
            "duration": 4.201
        },
        {
            "text": "okay so all pink is allocation stuff",
            "start": 483.0,
            "duration": 4.08
        },
        {
            "text": "okay",
            "start": 485.4,
            "duration": 3.359
        },
        {
            "text": "so now pink is all in one nice little",
            "start": 487.08,
            "duration": 2.64
        },
        {
            "text": "area",
            "start": 488.759,
            "duration": 2.401
        },
        {
            "text": "and I mean I can't really tell if it's",
            "start": 489.72,
            "duration": 2.819
        },
        {
            "text": "different I'd have to use I don't know",
            "start": 491.16,
            "duration": 3.18
        },
        {
            "text": "how to do searchings",
            "start": 492.539,
            "duration": 4.021
        },
        {
            "text": "I don't know how to use this thing well",
            "start": 494.34,
            "duration": 4.74
        },
        {
            "text": "anyways uh the flame graph uh above",
            "start": 496.56,
            "duration": 3.96
        },
        {
            "text": "represents a profile after we've",
            "start": 499.08,
            "duration": 3.119
        },
        {
            "text": "implemented the changes you can see that",
            "start": 500.52,
            "duration": 3.899
        },
        {
            "text": "many of the runtime Mallet GC calls are",
            "start": 502.199,
            "duration": 3.961
        },
        {
            "text": "gone but are now replaced with Arena",
            "start": 504.419,
            "duration": 3.601
        },
        {
            "text": "specific equivalent you can also see",
            "start": 506.16,
            "duration": 3.18
        },
        {
            "text": "that the garbage collection overhead is",
            "start": 508.02,
            "duration": 2.88
        },
        {
            "text": "cut in half it's hard to see the exact",
            "start": 509.34,
            "duration": 3.24
        },
        {
            "text": "amount of savings from solely looking at",
            "start": 510.9,
            "duration": 3.059
        },
        {
            "text": "the flame graphs but when looking at our",
            "start": 512.58,
            "duration": 3.54
        },
        {
            "text": "grafana dashboard which combines our",
            "start": 513.959,
            "duration": 4.44
        },
        {
            "text": "flame graphs with CPU utilization from",
            "start": 516.12,
            "duration": 4.32
        },
        {
            "text": "AWS metrics we saw an approximate eight",
            "start": 518.399,
            "duration": 4.14
        },
        {
            "text": "percent reduction in CPU usage this",
            "start": 520.44,
            "duration": 4.26
        },
        {
            "text": "translates into an eight percent cost",
            "start": 522.539,
            "duration": 3.781
        },
        {
            "text": "savings for our Cloud build particular",
            "start": 524.7,
            "duration": 3.06
        },
        {
            "text": "Services well that's only if you can",
            "start": 526.32,
            "duration": 3.9
        },
        {
            "text": "technically scale it correctly right I",
            "start": 527.76,
            "duration": 3.6
        },
        {
            "text": "think you have to be at a pretty good",
            "start": 530.22,
            "duration": 2.64
        },
        {
            "text": "amount but look at that that's cool",
            "start": 531.36,
            "duration": 2.52
        },
        {
            "text": "right",
            "start": 532.86,
            "duration": 2.64
        },
        {
            "text": "like that means you can handle a lot",
            "start": 533.88,
            "duration": 2.76
        },
        {
            "text": "more requests what I would really like",
            "start": 535.5,
            "duration": 3.66
        },
        {
            "text": "to see is the latency or not the latency",
            "start": 536.64,
            "duration": 4.92
        },
        {
            "text": "uh the round trip times",
            "start": 539.16,
            "duration": 4.08
        },
        {
            "text": "what do you do with the 50 percentile",
            "start": 541.56,
            "duration": 3.719
        },
        {
            "text": "what happens to the 50th percentile and",
            "start": 543.24,
            "duration": 4.26
        },
        {
            "text": "the 75th percentile because the the 99th",
            "start": 545.279,
            "duration": 4.081
        },
        {
            "text": "will probably remain near the same right",
            "start": 547.5,
            "duration": 4.62
        },
        {
            "text": "the 99th and the 99.9 those probably all",
            "start": 549.36,
            "duration": 3.72
        },
        {
            "text": "remain",
            "start": 552.12,
            "duration": 2.76
        },
        {
            "text": "the same",
            "start": 553.08,
            "duration": 5.52
        },
        {
            "text": "but like the 50 percentile or the 75th",
            "start": 554.88,
            "duration": 5.459
        },
        {
            "text": "percentile how much do you shrink that",
            "start": 558.6,
            "duration": 3.78
        },
        {
            "text": "back you could actually see a very",
            "start": 560.339,
            "duration": 3.901
        },
        {
            "text": "significant percentage shrink back uh",
            "start": 562.38,
            "duration": 3.24
        },
        {
            "text": "this may not seem like a lot but it's",
            "start": 564.24,
            "duration": 3.06
        },
        {
            "text": "important to note that this is a service",
            "start": 565.62,
            "duration": 3.42
        },
        {
            "text": "that has already been optimized quite a",
            "start": 567.3,
            "duration": 3.719
        },
        {
            "text": "bit for example the protobuf parser that",
            "start": 569.04,
            "duration": 3.78
        },
        {
            "text": "we use doesn't allocate any extra memory",
            "start": 571.019,
            "duration": 3.121
        },
        {
            "text": "at all garbage collection overhead five",
            "start": 572.82,
            "duration": 3.12
        },
        {
            "text": "percent is also lower end of the",
            "start": 574.14,
            "duration": 4.08
        },
        {
            "text": "spectrum for our services we think that",
            "start": 575.94,
            "duration": 3.54
        },
        {
            "text": "there's a lot more room for improvement",
            "start": 578.22,
            "duration": 2.7
        },
        {
            "text": "other than parts of the code base and so",
            "start": 579.48,
            "duration": 2.88
        },
        {
            "text": "we're excited to continue to experiment",
            "start": 580.92,
            "duration": 3.06
        },
        {
            "text": "with Arenas this is actually really cool",
            "start": 582.36,
            "duration": 3.659
        },
        {
            "text": "this is super cool now I want to play",
            "start": 583.98,
            "duration": 3.78
        },
        {
            "text": "with it damn it I'm supposed to be",
            "start": 586.019,
            "duration": 4.741
        },
        {
            "text": "studying for htmx and oh camel and now I",
            "start": 587.76,
            "duration": 4.98
        },
        {
            "text": "want to go play with go all of a sudden",
            "start": 590.76,
            "duration": 4.68
        },
        {
            "text": "right uh trade-offs while Arenas can",
            "start": 592.74,
            "duration": 4.2
        },
        {
            "text": "provide performance benefits it's",
            "start": 595.44,
            "duration": 2.88
        },
        {
            "text": "important to consider the trade-offs",
            "start": 596.94,
            "duration": 2.64
        },
        {
            "text": "before using them the main drawback",
            "start": 598.32,
            "duration": 3.84
        },
        {
            "text": "using Arenas is that you use Arenas you",
            "start": 599.58,
            "duration": 4.379
        },
        {
            "text": "now have to manage memory manually and",
            "start": 602.16,
            "duration": 2.94
        },
        {
            "text": "if you're not careful this leads to",
            "start": 603.959,
            "duration": 3.121
        },
        {
            "text": "serious problems absolutely failing to",
            "start": 605.1,
            "duration": 3.419
        },
        {
            "text": "properly free memory can lead to memory",
            "start": 607.08,
            "duration": 2.699
        },
        {
            "text": "leaks I know but this is a problem with",
            "start": 608.519,
            "duration": 3.481
        },
        {
            "text": "all maps right so I mean you still have",
            "start": 609.779,
            "duration": 3.721
        },
        {
            "text": "this the exact same problem in any long",
            "start": 612.0,
            "duration": 3.48
        },
        {
            "text": "living map uh attempting to access an",
            "start": 613.5,
            "duration": 3.899
        },
        {
            "text": "object from a previous previously freed",
            "start": 615.48,
            "duration": 3.359
        },
        {
            "text": "Arena may cause program crashes",
            "start": 617.399,
            "duration": 4.56
        },
        {
            "text": "absolutely classic really uh here's our",
            "start": 618.839,
            "duration": 5.221
        },
        {
            "text": "recommendation only use Arenas in",
            "start": 621.959,
            "duration": 3.301
        },
        {
            "text": "critical code paths do not use them",
            "start": 624.06,
            "duration": 3.36
        },
        {
            "text": "everywhere good good call Profile your",
            "start": 625.26,
            "duration": 3.72
        },
        {
            "text": "code before and after using Arenas to",
            "start": 627.42,
            "duration": 2.94
        },
        {
            "text": "make sure you're adding Arenas in areas",
            "start": 628.98,
            "duration": 3.359
        },
        {
            "text": "that uh they can provide most benefit",
            "start": 630.36,
            "duration": 4.32
        },
        {
            "text": "yep uh definitely profile your code",
            "start": 632.339,
            "duration": 3.601
        },
        {
            "text": "before and find where the memory is",
            "start": 634.68,
            "duration": 2.88
        },
        {
            "text": "being churned the most right uh even",
            "start": 635.94,
            "duration": 4.019
        },
        {
            "text": "node has this you can add object pools",
            "start": 637.56,
            "duration": 4.74
        },
        {
            "text": "to node and you can see huge performance",
            "start": 639.959,
            "duration": 4.32
        },
        {
            "text": "benefits by looking where you allocate",
            "start": 642.3,
            "duration": 3.719
        },
        {
            "text": "the most amount of memory and what I",
            "start": 644.279,
            "duration": 3.18
        },
        {
            "text": "found especially with like callback",
            "start": 646.019,
            "duration": 3.721
        },
        {
            "text": "objects is really really good to use",
            "start": 647.459,
            "duration": 3.961
        },
        {
            "text": "like bound functions and all that it's",
            "start": 649.74,
            "duration": 3.24
        },
        {
            "text": "very very good hog stack I know very",
            "start": 651.42,
            "duration": 3.9
        },
        {
            "text": "excited for the hog stack the hog or the",
            "start": 652.98,
            "duration": 5.0
        },
        {
            "text": "Gog stack",
            "start": 655.32,
            "duration": 2.66
        },
        {
            "text": "uh pay close attention uh to the life",
            "start": 658.2,
            "duration": 3.84
        },
        {
            "text": "cycle of the objects created in the",
            "start": 660.42,
            "duration": 3.06
        },
        {
            "text": "arena make sure you don't leak them to",
            "start": 662.04,
            "duration": 3.359
        },
        {
            "text": "other components yep so you definitely",
            "start": 663.48,
            "duration": 3.419
        },
        {
            "text": "have to have internal implementation",
            "start": 665.399,
            "duration": 3.781
        },
        {
            "text": "details use defer a free to make sure",
            "start": 666.899,
            "duration": 4.861
        },
        {
            "text": "yes beautiful use clone to clone objects",
            "start": 669.18,
            "duration": 5.099
        },
        {
            "text": "back to the Heap okay beautiful uh the",
            "start": 671.76,
            "duration": 4.079
        },
        {
            "text": "other major drawback at the moment is go",
            "start": 674.279,
            "duration": 3.781
        },
        {
            "text": "Arenas are experimental feature the API",
            "start": 675.839,
            "duration": 3.361
        },
        {
            "text": "and the implementation is completely",
            "start": 678.06,
            "duration": 2.519
        },
        {
            "text": "unsupported and the go team makes no",
            "start": 679.2,
            "duration": 2.759
        },
        {
            "text": "guarantee about backwards compatibility",
            "start": 680.579,
            "duration": 3.121
        },
        {
            "text": "or about compatibility or whether it'll",
            "start": 681.959,
            "duration": 2.88
        },
        {
            "text": "even continue to exist in future",
            "start": 683.7,
            "duration": 3.12
        },
        {
            "text": "releases I think",
            "start": 684.839,
            "duration": 3.721
        },
        {
            "text": "I think it's really exciting though I I",
            "start": 686.82,
            "duration": 3.12
        },
        {
            "text": "really do hope they kind of pursue this",
            "start": 688.56,
            "duration": 3.0
        },
        {
            "text": "because I really love the idea of having",
            "start": 689.94,
            "duration": 4.86
        },
        {
            "text": "Escape hatches to manually manage your",
            "start": 691.56,
            "duration": 5.519
        },
        {
            "text": "own memory because it is such a huge",
            "start": 694.8,
            "duration": 4.92
        },
        {
            "text": "benefit when it is a benefit you know",
            "start": 697.079,
            "duration": 3.961
        },
        {
            "text": "for the most part A lot of the things",
            "start": 699.72,
            "duration": 2.94
        },
        {
            "text": "you do is super ephemeral you don't care",
            "start": 701.04,
            "duration": 4.02
        },
        {
            "text": "but there are those few times where it's",
            "start": 702.66,
            "duration": 4.5
        },
        {
            "text": "just like if I could manage memory right",
            "start": 705.06,
            "duration": 3.3
        },
        {
            "text": "here",
            "start": 707.16,
            "duration": 4.08
        },
        {
            "text": "I could like eliminate half my programs",
            "start": 708.36,
            "duration": 4.44
        },
        {
            "text": "like running time just for this like",
            "start": 711.24,
            "duration": 3.599
        },
        {
            "text": "this one thing I have this exact thing",
            "start": 712.8,
            "duration": 4.38
        },
        {
            "text": "right now and I wish I could just map so",
            "start": 714.839,
            "duration": 3.901
        },
        {
            "text": "what I do in JavaScript I kid you not",
            "start": 717.18,
            "duration": 3.24
        },
        {
            "text": "what I do in JavaScript at my job right",
            "start": 718.74,
            "duration": 3.599
        },
        {
            "text": "now is I do this stupid stuff where I'll",
            "start": 720.42,
            "duration": 4.38
        },
        {
            "text": "be like const get you know you know",
            "start": 722.339,
            "duration": 5.221
        },
        {
            "text": "items equals some sort of awaiting and",
            "start": 724.8,
            "duration": 4.56
        },
        {
            "text": "getting this thing right I get some sort",
            "start": 727.56,
            "duration": 4.38
        },
        {
            "text": "of uh array back right this returns uh",
            "start": 729.36,
            "duration": 4.74
        },
        {
            "text": "an array of you know something right uh",
            "start": 731.94,
            "duration": 4.26
        },
        {
            "text": "something yeah yeah yeah yeah and then I",
            "start": 734.1,
            "duration": 4.14
        },
        {
            "text": "have to go through it right I do some",
            "start": 736.2,
            "duration": 4.199
        },
        {
            "text": "sort of while items uh length right",
            "start": 738.24,
            "duration": 3.599
        },
        {
            "text": "something that looks like this and do",
            "start": 740.399,
            "duration": 3.06
        },
        {
            "text": "items pop because then I'm reducing it",
            "start": 741.839,
            "duration": 3.301
        },
        {
            "text": "one at a time and then at the end I go",
            "start": 743.459,
            "duration": 4.081
        },
        {
            "text": "items equals null because",
            "start": 745.14,
            "duration": 4.139
        },
        {
            "text": "I have to which means that I have to use",
            "start": 747.54,
            "duration": 3.66
        },
        {
            "text": "a let here and it's all complicated in",
            "start": 749.279,
            "duration": 3.3
        },
        {
            "text": "one part because I actually use too much",
            "start": 751.2,
            "duration": 3.0
        },
        {
            "text": "memory and then by doing this and",
            "start": 752.579,
            "duration": 4.561
        },
        {
            "text": "importing GC and enforcing GC I can keep",
            "start": 754.2,
            "duration": 5.04
        },
        {
            "text": "memory down like this is crazy what I",
            "start": 757.14,
            "duration": 3.84
        },
        {
            "text": "have to do but my program goes to eight",
            "start": 759.24,
            "duration": 3.899
        },
        {
            "text": "gigabytes sometimes or I can keep it at",
            "start": 760.98,
            "duration": 5.28
        },
        {
            "text": "200 megabytes by enforcing manual memory",
            "start": 763.139,
            "duration": 5.461
        },
        {
            "text": "management in node which is totally the",
            "start": 766.26,
            "duration": 5.519
        },
        {
            "text": "worst thing ever and I hate it and I",
            "start": 768.6,
            "duration": 5.16
        },
        {
            "text": "have to write stupid code like this but",
            "start": 771.779,
            "duration": 3.601
        },
        {
            "text": "I do because that's what I have to do",
            "start": 773.76,
            "duration": 3.54
        },
        {
            "text": "and I don't want to do it right I wish I",
            "start": 775.38,
            "duration": 3.48
        },
        {
            "text": "had better off I wish I had more things",
            "start": 777.3,
            "duration": 2.64
        },
        {
            "text": "right",
            "start": 778.86,
            "duration": 3.599
        },
        {
            "text": "anyways the go team has received a lot",
            "start": 779.94,
            "duration": 4.139
        },
        {
            "text": "of feedback about Arenas and we'd uh",
            "start": 782.459,
            "duration": 2.94
        },
        {
            "text": "like to address some of the concerns",
            "start": 784.079,
            "duration": 2.581
        },
        {
            "text": "that we've seen from the community most",
            "start": 785.399,
            "duration": 2.761
        },
        {
            "text": "frequently mentioned issue with Arenas",
            "start": 786.66,
            "duration": 2.7
        },
        {
            "text": "is that they make the language more",
            "start": 788.16,
            "duration": 2.88
        },
        {
            "text": "complicated by adding an implicit and",
            "start": 789.36,
            "duration": 3.479
        },
        {
            "text": "not immediately obvious way for programs",
            "start": 791.04,
            "duration": 4.08
        },
        {
            "text": "to crash absolutely one positive thing",
            "start": 792.839,
            "duration": 6.861
        },
        {
            "text": "about go is that go does not",
            "start": 795.12,
            "duration": 4.58
        },
        {
            "text": "uh want complexity and there's something",
            "start": 800.04,
            "duration": 3.84
        },
        {
            "text": "about that that is very beautiful in of",
            "start": 802.019,
            "duration": 3.661
        },
        {
            "text": "itself even if you don't like it it's",
            "start": 803.88,
            "duration": 3.66
        },
        {
            "text": "still beautiful most of the criticism is",
            "start": 805.68,
            "duration": 3.719
        },
        {
            "text": "well-founded but misdirected we are not",
            "start": 807.54,
            "duration": 3.66
        },
        {
            "text": "anticipating Arenas becoming widespread",
            "start": 809.399,
            "duration": 4.56
        },
        {
            "text": "uh we view Arenas as a powerful tool but",
            "start": 811.2,
            "duration": 4.439
        },
        {
            "text": "one that only uh is suitable for",
            "start": 813.959,
            "duration": 3.421
        },
        {
            "text": "specific situation in our view Arena",
            "start": 815.639,
            "duration": 3.0
        },
        {
            "text": "should be included in the standard",
            "start": 817.38,
            "duration": 3.24
        },
        {
            "text": "Library however their usage should be",
            "start": 818.639,
            "duration": 3.721
        },
        {
            "text": "discouraged much like the usage of",
            "start": 820.62,
            "duration": 5.36
        },
        {
            "text": "unsafe reflect or seagull",
            "start": 822.36,
            "duration": 3.62
        },
        {
            "text": "our experience with Arenas has been very",
            "start": 826.68,
            "duration": 3.12
        },
        {
            "text": "positive and we're able to show that",
            "start": 828.48,
            "duration": 2.76
        },
        {
            "text": "Arenas can significantly reduce the",
            "start": 829.8,
            "duration": 2.46
        },
        {
            "text": "amount of time spent in garbage",
            "start": 831.24,
            "duration": 2.58
        },
        {
            "text": "collection and memory allocations the",
            "start": 832.26,
            "duration": 3.06
        },
        {
            "text": "experiment described in this article",
            "start": 833.82,
            "duration": 3.06
        },
        {
            "text": "focused on a single already highly",
            "start": 835.32,
            "duration": 4.079
        },
        {
            "text": "optimized service and we were still able",
            "start": 836.88,
            "duration": 3.6
        },
        {
            "text": "to squeeze eight percent extra",
            "start": 839.399,
            "duration": 3.0
        },
        {
            "text": "performance by using Arenas we still",
            "start": 840.48,
            "duration": 3.78
        },
        {
            "text": "think that many users can benefit a lot",
            "start": 842.399,
            "duration": 3.601
        },
        {
            "text": "more from Arenas absolutely if you don't",
            "start": 844.26,
            "duration": 2.819
        },
        {
            "text": "have an optimized one you're just",
            "start": 846.0,
            "duration": 3.06
        },
        {
            "text": "creating wild objects you could really",
            "start": 847.079,
            "duration": 4.26
        },
        {
            "text": "get some good stuff in addition to that",
            "start": 849.06,
            "duration": 3.779
        },
        {
            "text": "we also find that Arenas are easier to",
            "start": 851.339,
            "duration": 2.461
        },
        {
            "text": "implement compared to other",
            "start": 852.839,
            "duration": 2.341
        },
        {
            "text": "optimizations that we have tried in the",
            "start": 853.8,
            "duration": 4.14
        },
        {
            "text": "past such as using buffer pools pools",
            "start": 855.18,
            "duration": 4.44
        },
        {
            "text": "are very hard to use",
            "start": 857.94,
            "duration": 4.56
        },
        {
            "text": "pools are super easy to leak or writing",
            "start": 859.62,
            "duration": 5.219
        },
        {
            "text": "custom allocation free protobuf parsers",
            "start": 862.5,
            "duration": 5.579
        },
        {
            "text": "this is like Ultra duper duper hard and",
            "start": 864.839,
            "duration": 4.261
        },
        {
            "text": "compared to the other types of",
            "start": 868.079,
            "duration": 3.241
        },
        {
            "text": "optimizations uh they share the same",
            "start": 869.1,
            "duration": 4.38
        },
        {
            "text": "drawbacks but provide more benefits so",
            "start": 871.32,
            "duration": 4.259
        },
        {
            "text": "in our view Arenas have a net win I am",
            "start": 873.48,
            "duration": 4.26
        },
        {
            "text": "completely on this one right here this",
            "start": 875.579,
            "duration": 4.921
        },
        {
            "text": "is like totally a w right here because",
            "start": 877.74,
            "duration": 4.68
        },
        {
            "text": "this makes perfect sense because it is",
            "start": 880.5,
            "duration": 3.8
        },
        {
            "text": "so hard to do the other optimizations",
            "start": 882.42,
            "duration": 4.56
        },
        {
            "text": "pooling objects is non-trivial it's easy",
            "start": 884.3,
            "duration": 4.719
        },
        {
            "text": "to get it wrong it's easy to leak memory",
            "start": 886.98,
            "duration": 4.62
        },
        {
            "text": "it's easy to do the wrong thing uh yeah",
            "start": 889.019,
            "duration": 3.961
        },
        {
            "text": "pools are easy if you ignore exceptions",
            "start": 891.6,
            "duration": 4.5
        },
        {
            "text": "yeah they're simple and also oopsie",
            "start": 892.98,
            "duration": 4.799
        },
        {
            "text": "Daisy stale data and some other things",
            "start": 896.1,
            "duration": 3.299
        },
        {
            "text": "that accidentally happen and blah blah",
            "start": 897.779,
            "duration": 3.961
        },
        {
            "text": "blah blah Arenas are a powerful tool for",
            "start": 899.399,
            "duration": 3.961
        },
        {
            "text": "optimizing go programs particularly in",
            "start": 901.74,
            "duration": 3.0
        },
        {
            "text": "the scenarios where your program spends",
            "start": 903.36,
            "duration": 2.46
        },
        {
            "text": "significant amount of times parsing",
            "start": 904.74,
            "duration": 3.3
        },
        {
            "text": "large protobuf or Json blobs they have",
            "start": 905.82,
            "duration": 3.54
        },
        {
            "text": "the potential to provide significant",
            "start": 908.04,
            "duration": 3.0
        },
        {
            "text": "performance improvements but it also is",
            "start": 909.36,
            "duration": 2.7
        },
        {
            "text": "important to note that they are",
            "start": 911.04,
            "duration": 2.52
        },
        {
            "text": "experimental feature and there's no",
            "start": 912.06,
            "duration": 4.019
        },
        {
            "text": "guarantees of compatibility yep all",
            "start": 913.56,
            "duration": 4.079
        },
        {
            "text": "right awesome beautiful beautiful",
            "start": 916.079,
            "duration": 4.5
        },
        {
            "text": "article thank you Dimitri uh this was",
            "start": 917.639,
            "duration": 5.101
        },
        {
            "text": "fantastic really liked it and I'm",
            "start": 920.579,
            "duration": 3.841
        },
        {
            "text": "actually pretty excited about go to me",
            "start": 922.74,
            "duration": 3.599
        },
        {
            "text": "this is a",
            "start": 924.42,
            "duration": 4.02
        },
        {
            "text": "this just makes go more appealing",
            "start": 926.339,
            "duration": 5.041
        },
        {
            "text": "because what this says to me is that go",
            "start": 928.44,
            "duration": 6.48
        },
        {
            "text": "isn't fine with 95 performance",
            "start": 931.38,
            "duration": 6.139
        },
        {
            "text": "they want that 99 and if you can get 99",
            "start": 934.92,
            "duration": 5.279
        },
        {
            "text": "you're looking creamy smooth right",
            "start": 937.519,
            "duration": 4.541
        },
        {
            "text": "because with JavaScript you cannot do",
            "start": 940.199,
            "duration": 2.76
        },
        {
            "text": "this",
            "start": 942.06,
            "duration": 2.7
        },
        {
            "text": "right like this is just not currently a",
            "start": 942.959,
            "duration": 3.541
        },
        {
            "text": "thing for JavaScript and nor do I really",
            "start": 944.76,
            "duration": 3.6
        },
        {
            "text": "want it in JavaScript because anything",
            "start": 946.5,
            "duration": 3.54
        },
        {
            "text": "that is done with JavaScript tends to",
            "start": 948.36,
            "duration": 3.24
        },
        {
            "text": "get wildly abused",
            "start": 950.04,
            "duration": 4.62
        },
        {
            "text": "you know what I mean wildly abused so",
            "start": 951.6,
            "duration": 4.739
        },
        {
            "text": "this is beautiful this is actually",
            "start": 954.66,
            "duration": 2.88
        },
        {
            "text": "really beautiful and I think Greg is",
            "start": 956.339,
            "duration": 2.701
        },
        {
            "text": "leptos Greg here",
            "start": 957.54,
            "duration": 3.72
        },
        {
            "text": "is leptos Greg here Greg I'm using some",
            "start": 959.04,
            "duration": 3.419
        },
        {
            "text": "more leptos tonight I don't know if you",
            "start": 961.26,
            "duration": 2.46
        },
        {
            "text": "know that but dude I'm going deep on",
            "start": 962.459,
            "duration": 2.641
        },
        {
            "text": "leptos Greg look at this look at this",
            "start": 963.72,
            "duration": 2.88
        },
        {
            "text": "beautiful stuff I'm just about to grab",
            "start": 965.1,
            "duration": 3.66
        },
        {
            "text": "some data from Tercel but I'm using a",
            "start": 966.6,
            "duration": 3.66
        },
        {
            "text": "local file client which makes it even",
            "start": 968.76,
            "duration": 3.42
        },
        {
            "text": "better right just grabbing it from that",
            "start": 970.26,
            "duration": 3.9
        },
        {
            "text": "example love it",
            "start": 972.18,
            "duration": 4.019
        },
        {
            "text": "anyways Greg you're a great guy great",
            "start": 974.16,
            "duration": 4.38
        },
        {
            "text": "guy Greg everybody give great guy Greg",
            "start": 976.199,
            "duration": 5.041
        },
        {
            "text": "big claps everybody great guy",
            "start": 978.54,
            "duration": 4.02
        },
        {
            "text": "the name",
            "start": 981.24,
            "duration": 3.719
        },
        {
            "text": "is I really do love leptos and it is",
            "start": 982.56,
            "duration": 4.079
        },
        {
            "text": "solely the reason why I'm continuing to",
            "start": 984.959,
            "duration": 4.261
        },
        {
            "text": "use rust no matter what I think I would",
            "start": 986.639,
            "duration": 4.801
        },
        {
            "text": "switch to oh camel and use o camel for",
            "start": 989.22,
            "duration": 3.84
        },
        {
            "text": "my back ends but at this point I still",
            "start": 991.44,
            "duration": 3.54
        },
        {
            "text": "use rust because of leptos because",
            "start": 993.06,
            "duration": 5.719
        },
        {
            "text": "leptos is that amazing again",
            "start": 994.98,
            "duration": 3.799
        }
    ],
    "stats": {
        "viewCount": "95419",
        "likeCount": "2966",
        "favoriteCount": "0",
        "commentCount": "197"
    }
}