{
    "id": "EWtPOFdZ3wA",
    "title": "Filter Candidates with AI + GitHub??",
    "publishedAt": "2024-04-20T12:24:34Z",
    "captions": [
        {
            "text": "all right people git roll AI that looks",
            "start": 0.08,
            "duration": 4.719
        },
        {
            "text": "at GitHub profiles instead of doing an",
            "start": 3.12,
            "duration": 3.92
        },
        {
            "text": "interview okay okay okay this seems I",
            "start": 4.799,
            "duration": 3.401
        },
        {
            "text": "can already immediately tell you this",
            "start": 7.04,
            "duration": 4.04
        },
        {
            "text": "sounds awful uh this GitHub tool is much",
            "start": 8.2,
            "duration": 5.16
        },
        {
            "text": "more useful than giving a CV I can't",
            "start": 11.08,
            "duration": 4.719
        },
        {
            "text": "even scroll okay I'm back we're back",
            "start": 13.36,
            "duration": 4.2
        },
        {
            "text": "apparently apparently Reddit just wanted",
            "start": 15.799,
            "duration": 2.881
        },
        {
            "text": "to like I don't know what Reddit was",
            "start": 17.56,
            "duration": 3.639
        },
        {
            "text": "doing there this GitHub tool is much",
            "start": 18.68,
            "duration": 5.519
        },
        {
            "text": "more useful than giving a CV okay I'll",
            "start": 21.199,
            "duration": 4.801
        },
        {
            "text": "just open that up this GitHub tool is a",
            "start": 24.199,
            "duration": 3.84
        },
        {
            "text": "game changer get roll helps you analyze",
            "start": 26.0,
            "duration": 4.0
        },
        {
            "text": "GitHub profiles saving you heaps of time",
            "start": 28.039,
            "duration": 3.32
        },
        {
            "text": "as an interviewer instead of tedious",
            "start": 30.0,
            "duration": 2.48
        },
        {
            "text": "task of scrolling through someone",
            "start": 31.359,
            "duration": 2.961
        },
        {
            "text": "github's profiles git roll does the hard",
            "start": 32.48,
            "duration": 3.599
        },
        {
            "text": "work for you providing an in-depth look",
            "start": 34.32,
            "duration": 4.12
        },
        {
            "text": "at the candidat skills in no time flat a",
            "start": 36.079,
            "duration": 3.841
        },
        {
            "text": "deep dive into code quality this",
            "start": 38.44,
            "duration": 3.439
        },
        {
            "text": "features a dream come true for a tech",
            "start": 39.92,
            "duration": 4.159
        },
        {
            "text": "Geeks like myself get roll doesn't spot",
            "start": 41.879,
            "duration": 3.84
        },
        {
            "text": "let's see get roll doesn't just spot",
            "start": 44.079,
            "duration": 3.441
        },
        {
            "text": "potential bugs or vulnerabilities it",
            "start": 45.719,
            "duration": 4.16
        },
        {
            "text": "also appre appreciates the Beautiful the",
            "start": 47.52,
            "duration": 5.16
        },
        {
            "text": "beauty of tasteful",
            "start": 49.879,
            "duration": 2.801
        },
        {
            "text": "code I wonder if D Daniel Stenberg has",
            "start": 58.92,
            "duration": 5.279
        },
        {
            "text": "any thoughts the guy you know remember",
            "start": 62.519,
            "duration": 2.96
        },
        {
            "text": "the guy that created curl I wonder if he",
            "start": 64.199,
            "duration": 3.521
        },
        {
            "text": "has any thoughts about how llms are",
            "start": 65.479,
            "duration": 5.521
        },
        {
            "text": "really good at um spotting security",
            "start": 67.72,
            "duration": 5.32
        },
        {
            "text": "security floss remember remember that",
            "start": 71.0,
            "duration": 3.759
        },
        {
            "text": "whole problem that security is happening",
            "start": 73.04,
            "duration": 3.64
        },
        {
            "text": "right now where there's just a Non-Stop",
            "start": 74.759,
            "duration": 5.0
        },
        {
            "text": "flow of really terrible really awful",
            "start": 76.68,
            "duration": 5.52
        },
        {
            "text": "security reports being reported over and",
            "start": 79.759,
            "duration": 5.68
        },
        {
            "text": "over and over again and then even when",
            "start": 82.2,
            "duration": 5.16
        },
        {
            "text": "the person goes hey this isn't real what",
            "start": 85.439,
            "duration": 4.801
        },
        {
            "text": "are you doing they go certainly and then",
            "start": 87.36,
            "duration": 5.119
        },
        {
            "text": "they just start hallucinating code you",
            "start": 90.24,
            "duration": 4.12
        },
        {
            "text": "know what I can't wait you know what",
            "start": 92.479,
            "duration": 3.92
        },
        {
            "text": "like I'm the most excited about I think",
            "start": 94.36,
            "duration": 4.56
        },
        {
            "text": "ever is that I would love to make sure",
            "start": 96.399,
            "duration": 4.641
        },
        {
            "text": "that the next time I get hired somewhere",
            "start": 98.92,
            "duration": 4.68
        },
        {
            "text": "I get an AI to Deep dive my profile",
            "start": 101.04,
            "duration": 4.039
        },
        {
            "text": "because that would be good AI is good at",
            "start": 103.6,
            "duration": 3.68
        },
        {
            "text": "summarizing I feel I feel you're wrong I",
            "start": 105.079,
            "duration": 3.601
        },
        {
            "text": "think sometimes AIS are good at",
            "start": 107.28,
            "duration": 2.879
        },
        {
            "text": "summarizing would you put your job on",
            "start": 108.68,
            "duration": 4.24
        },
        {
            "text": "the line on an AI summarizing the",
            "start": 110.159,
            "duration": 4.92
        },
        {
            "text": "tastefulness of your code would you want",
            "start": 112.92,
            "duration": 3.44
        },
        {
            "text": "would you would you want an interview to",
            "start": 115.079,
            "duration": 3.72
        },
        {
            "text": "be uh to be put on that yeah the answer",
            "start": 116.36,
            "duration": 4.32
        },
        {
            "text": "should be no the answer should genuinely",
            "start": 118.799,
            "duration": 4.441
        },
        {
            "text": "be no here it's like having a Somalia",
            "start": 120.68,
            "duration": 4.84
        },
        {
            "text": "for code for those that don't know like",
            "start": 123.24,
            "duration": 7.56
        },
        {
            "text": "a Somalia is a is is a uh is like a very",
            "start": 125.52,
            "duration": 8.2
        },
        {
            "text": "fancy person that that has this special",
            "start": 130.8,
            "duration": 5.079
        },
        {
            "text": "genetic gift that can actually taste the",
            "start": 133.72,
            "duration": 4.519
        },
        {
            "text": "differences in wine like I can't taste",
            "start": 135.879,
            "duration": 3.841
        },
        {
            "text": "differences in wine I can tell when",
            "start": 138.239,
            "duration": 4.121
        },
        {
            "text": "wines are taste better and worse okay",
            "start": 139.72,
            "duration": 5.36
        },
        {
            "text": "I'm not a like I am not a Somalia you",
            "start": 142.36,
            "duration": 4.959
        },
        {
            "text": "know what I mean I'm just not accessing",
            "start": 145.08,
            "duration": 4.879
        },
        {
            "text": "a coder skill get roll evaluates a coder",
            "start": 147.319,
            "duration": 4.761
        },
        {
            "text": "skills based on their repositories",
            "start": 149.959,
            "duration": 4.481
        },
        {
            "text": "giving more weight to recent work this",
            "start": 152.08,
            "duration": 3.799
        },
        {
            "text": "way you can easily gauge the candidate's",
            "start": 154.44,
            "duration": 2.6
        },
        {
            "text": "skill which makes preparing for an",
            "start": 155.879,
            "duration": 3.121
        },
        {
            "text": "interview a breeze insights into",
            "start": 157.04,
            "duration": 3.72
        },
        {
            "text": "language Pro proficiency and open source",
            "start": 159.0,
            "duration": 3.2
        },
        {
            "text": "contributions okay so there is one thing",
            "start": 160.76,
            "duration": 3.119
        },
        {
            "text": "I will say that an AI could be good at",
            "start": 162.2,
            "duration": 3.319
        },
        {
            "text": "okay let me hey you know what I I'm",
            "start": 163.879,
            "duration": 3.881
        },
        {
            "text": "willing to not have a full Doomer Doomer",
            "start": 165.519,
            "duration": 5.64
        },
        {
            "text": "look at this stuff uh if this could only",
            "start": 167.76,
            "duration": 6.199
        },
        {
            "text": "be used if I had five minutes before an",
            "start": 171.159,
            "duration": 4.921
        },
        {
            "text": "interview and I wanted to find a couple",
            "start": 173.959,
            "duration": 4.041
        },
        {
            "text": "things to talk about if I could have",
            "start": 176.08,
            "duration": 3.56
        },
        {
            "text": "some AI be like okay here's the GTO",
            "start": 178.0,
            "duration": 3.319
        },
        {
            "text": "profile give me a few things to talk",
            "start": 179.64,
            "duration": 3.76
        },
        {
            "text": "about I would do that evaluate mine oh",
            "start": 181.319,
            "duration": 4.081
        },
        {
            "text": "we will evaluate mine okay we're going",
            "start": 183.4,
            "duration": 5.0
        },
        {
            "text": "to evaluate mine hard okay um the",
            "start": 185.4,
            "duration": 5.52
        },
        {
            "text": "problem is is that this won't be used",
            "start": 188.4,
            "duration": 4.64
        },
        {
            "text": "but that's what's bad about that hit me",
            "start": 190.92,
            "duration": 3.319
        },
        {
            "text": "with why you can't say that that's",
            "start": 193.04,
            "duration": 3.8
        },
        {
            "text": "already bad if you are given a candidate",
            "start": 194.239,
            "duration": 4.521
        },
        {
            "text": "to interview that day and you just",
            "start": 196.84,
            "duration": 3.88
        },
        {
            "text": "wanted the and you're there to just save",
            "start": 198.76,
            "duration": 3.36
        },
        {
            "text": "time what's wrong with saying hey give",
            "start": 200.72,
            "duration": 3.519
        },
        {
            "text": "me a give me a summation summarizing",
            "start": 202.12,
            "duration": 3.679
        },
        {
            "text": "really quick of what what they've worked",
            "start": 204.239,
            "duration": 3.72
        },
        {
            "text": "on recently so I can just talk to them",
            "start": 205.799,
            "duration": 3.681
        },
        {
            "text": "about things so if you're an unprepared",
            "start": 207.959,
            "duration": 2.441
        },
        {
            "text": "interview",
            "start": 209.48,
            "duration": 2.64
        },
        {
            "text": "you're always an under you're always an",
            "start": 210.4,
            "duration": 3.72
        },
        {
            "text": "unprepared interviewer a proper",
            "start": 212.12,
            "duration": 4.039
        },
        {
            "text": "interviewer should know as little about",
            "start": 214.12,
            "duration": 4.0
        },
        {
            "text": "their candidate as possible the more you",
            "start": 216.159,
            "duration": 3.961
        },
        {
            "text": "know the more you already project I",
            "start": 218.12,
            "duration": 3.56
        },
        {
            "text": "would not like to look at someone's code",
            "start": 220.12,
            "duration": 3.24
        },
        {
            "text": "that I'm interviewing I'm going to most",
            "start": 221.68,
            "duration": 4.0
        },
        {
            "text": "certainly judge the [\u00a0__\u00a0] out of them I",
            "start": 223.36,
            "duration": 4.04
        },
        {
            "text": "and the thing is is you could show me",
            "start": 225.68,
            "duration": 3.96
        },
        {
            "text": "you could show me my own code from 6",
            "start": 227.4,
            "duration": 4.199
        },
        {
            "text": "months ago and I wouldn't like them okay",
            "start": 229.64,
            "duration": 3.48
        },
        {
            "text": "okay just saying I don't know if it's",
            "start": 231.599,
            "duration": 3.28
        },
        {
            "text": "really great interview in 10 minutes can",
            "start": 233.12,
            "duration": 3.44
        },
        {
            "text": "you be there yeah my boss yes I've had",
            "start": 234.879,
            "duration": 3.401
        },
        {
            "text": "I've had very I've had versions of this",
            "start": 236.56,
            "duration": 3.679
        },
        {
            "text": "myself and that's fine that's why I",
            "start": 238.28,
            "duration": 4.08
        },
        {
            "text": "would ask him about that hey okay I",
            "start": 240.239,
            "duration": 3.56
        },
        {
            "text": "think your GitHub profile has this this",
            "start": 242.36,
            "duration": 3.28
        },
        {
            "text": "and this uh but you're unemployed I",
            "start": 243.799,
            "duration": 3.481
        },
        {
            "text": "unemployed now thanks TJ Tech",
            "start": 245.64,
            "duration": 3.12
        },
        {
            "text": "technically TJ I'm not unemployed right",
            "start": 247.28,
            "duration": 3.76
        },
        {
            "text": "now so suck on that uh insight into the",
            "start": 248.76,
            "duration": 3.759
        },
        {
            "text": "language proficiency and open source",
            "start": 251.04,
            "duration": 3.279
        },
        {
            "text": "contribution I think this is just crazy",
            "start": 252.519,
            "duration": 3.0
        },
        {
            "text": "git roll gives you a peak into the",
            "start": 254.319,
            "duration": 2.561
        },
        {
            "text": "coder's familiarity with different",
            "start": 255.519,
            "duration": 2.481
        },
        {
            "text": "programming languages and their",
            "start": 256.88,
            "duration": 2.56
        },
        {
            "text": "contributions to open source projects",
            "start": 258.0,
            "duration": 3.56
        },
        {
            "text": "for example it noticed my contribution",
            "start": 259.44,
            "duration": 4.759
        },
        {
            "text": "to Facebook research pytorch 3D okay",
            "start": 261.56,
            "duration": 4.359
        },
        {
            "text": "well let's find out about this dystopian",
            "start": 264.199,
            "duration": 3.681
        },
        {
            "text": "tool all right here we go all right so",
            "start": 265.919,
            "duration": 4.761
        },
        {
            "text": "how do I how how do how do I do this all",
            "start": 267.88,
            "duration": 4.12
        },
        {
            "text": "right let me just turn this off for a",
            "start": 270.68,
            "duration": 3.799
        },
        {
            "text": "quick second let me just see my let",
            "start": 272.0,
            "duration": 5.28
        },
        {
            "text": "let's just see me let me just have all",
            "start": 274.479,
            "duration": 4.841
        },
        {
            "text": "of my stuff taken all right uh read",
            "start": 277.28,
            "duration": 3.759
        },
        {
            "text": "personal data email addresses and",
            "start": 279.32,
            "duration": 3.56
        },
        {
            "text": "profile information only read only okay",
            "start": 281.039,
            "duration": 3.16
        },
        {
            "text": "at least it doesn't have an excessive",
            "start": 282.88,
            "duration": 3.92
        },
        {
            "text": "amount of stuff um by the way this man",
            "start": 284.199,
            "duration": 4.241
        },
        {
            "text": "this man literally has Charlie the",
            "start": 286.8,
            "duration": 3.36
        },
        {
            "text": "Unicorn right here okay so how do I see",
            "start": 288.44,
            "duration": 4.599
        },
        {
            "text": "mine my get roll dude I'm",
            "start": 290.16,
            "duration": 6.039
        },
        {
            "text": "talks dude I'm top x per in my region",
            "start": 293.039,
            "duration": 7.081
        },
        {
            "text": "top x per in my school let's go let's go",
            "start": 296.199,
            "duration": 7.601
        },
        {
            "text": "uh apparently I've just let you know I",
            "start": 300.12,
            "duration": 5.88
        },
        {
            "text": "just let you know some things um I'm I'm",
            "start": 303.8,
            "duration": 4.04
        },
        {
            "text": "obviously number one in",
            "start": 306.0,
            "duration": 5.12
        },
        {
            "text": "security and maintainability and",
            "start": 307.84,
            "duration": 6.84
        },
        {
            "text": "reliability really poor in influence if",
            "start": 311.12,
            "duration": 7.68
        },
        {
            "text": "you go to Global uh GitHub",
            "start": 314.68,
            "duration": 6.72
        },
        {
            "text": "follower uh rankings you will notice",
            "start": 318.8,
            "duration": 6.399
        },
        {
            "text": "that I believe I'm 43 or 42 we just",
            "start": 321.4,
            "duration": 5.04
        },
        {
            "text": "checked this like",
            "start": 325.199,
            "duration": 3.56
        },
        {
            "text": "yesterday uh cuz so because someone",
            "start": 326.44,
            "duration": 4.64
        },
        {
            "text": "asked me cuz I still am just waiting for",
            "start": 328.759,
            "duration": 3.56
        },
        {
            "text": "somebody to tell me what the point of",
            "start": 331.08,
            "duration": 3.48
        },
        {
            "text": "followers are there you go I'm 41 let's",
            "start": 332.319,
            "duration": 4.081
        },
        {
            "text": "go killing and I'm on the ninth ring of",
            "start": 334.56,
            "duration": 3.8
        },
        {
            "text": "him CEO of the startup so there you go",
            "start": 336.4,
            "duration": 3.96
        },
        {
            "text": "so apparently my influence is just not",
            "start": 338.36,
            "duration": 3.6
        },
        {
            "text": "that good I'm still not good enough to",
            "start": 340.36,
            "duration": 5.119
        },
        {
            "text": "have any influence but damn influence is",
            "start": 341.96,
            "duration": 6.4
        },
        {
            "text": "my worst one damn behind Ben aad yeah I",
            "start": 345.479,
            "duration": 5.72
        },
        {
            "text": "know uh anyways maintainability writes",
            "start": 348.36,
            "duration": 4.8
        },
        {
            "text": "clean easily readable and maintainable",
            "start": 351.199,
            "duration": 5.72
        },
        {
            "text": "code TJ hey TJ how does that feel my",
            "start": 353.16,
            "duration": 5.96
        },
        {
            "text": "best quality is maintainable code and",
            "start": 356.919,
            "duration": 4.161
        },
        {
            "text": "yet it doesn't even know that I rage",
            "start": 359.12,
            "duration": 5.12
        },
        {
            "text": "program on live on on stream where I",
            "start": 361.08,
            "duration": 5.16
        },
        {
            "text": "effectively ejaculate streams of",
            "start": 364.24,
            "duration": 4.88
        },
        {
            "text": "thoughts into code think about that",
            "start": 366.24,
            "duration": 5.16
        },
        {
            "text": "think about that this a dude influence",
            "start": 369.12,
            "duration": 6.0
        },
        {
            "text": "issue this AI is so off this AI is off",
            "start": 371.4,
            "duration": 7.56
        },
        {
            "text": "this AI is terrible I'm above 98% of",
            "start": 375.12,
            "duration": 6.24
        },
        {
            "text": "people let's go let's go can you rate",
            "start": 378.96,
            "duration": 6.679
        },
        {
            "text": "gatan I wonder what gatan has okay I you",
            "start": 381.36,
            "duration": 6.76
        },
        {
            "text": "know you know I'm pretty much dude isn't",
            "start": 385.639,
            "duration": 4.081
        },
        {
            "text": "reading the graph right what am I",
            "start": 388.12,
            "duration": 3.28
        },
        {
            "text": "reading right what what am I not reading",
            "start": 389.72,
            "duration": 4.759
        },
        {
            "text": "right the white is for average okay well",
            "start": 391.4,
            "duration": 5.96
        },
        {
            "text": "then what's my scores oh my influence oh",
            "start": 394.479,
            "duration": 4.28
        },
        {
            "text": "damn you're right yeah my influence",
            "start": 397.36,
            "duration": 3.92
        },
        {
            "text": "holds Authority oh yeah oh hell yeah",
            "start": 398.759,
            "duration": 4.401
        },
        {
            "text": "dude I am awesome I got influence like",
            "start": 401.28,
            "duration": 4.359
        },
        {
            "text": "nobody's business hell yeah dude look at",
            "start": 403.16,
            "duration": 4.439
        },
        {
            "text": "that yeah you'll suck it yeah oh the",
            "start": 405.639,
            "duration": 3.521
        },
        {
            "text": "dark gray line oh I can't even read that",
            "start": 407.599,
            "duration": 3.0
        },
        {
            "text": "yeah I am reading the gra I'm reading",
            "start": 409.16,
            "duration": 4.8
        },
        {
            "text": "the graph all wrong here oh gosh hell",
            "start": 410.599,
            "duration": 5.401
        },
        {
            "text": "yeah okay you know what you know what I",
            "start": 413.96,
            "duration": 6.56
        },
        {
            "text": "can tell I can tell right away that this",
            "start": 416.0,
            "duration": 7.039
        },
        {
            "text": "is completely wrong you know how can can",
            "start": 420.52,
            "duration": 4.16
        },
        {
            "text": "you tell why this is completely wrong",
            "start": 423.039,
            "duration": 3.081
        },
        {
            "text": "can anyone here name one thing that's",
            "start": 424.68,
            "duration": 3.16
        },
        {
            "text": "completely wrong about this graph the",
            "start": 426.12,
            "duration": 3.88
        },
        {
            "text": "primagen can that's why no no not",
            "start": 427.84,
            "duration": 3.6
        },
        {
            "text": "because of that sentence are you ready",
            "start": 430.0,
            "duration": 3.479
        },
        {
            "text": "for it are are you ready for it yep I",
            "start": 431.44,
            "duration": 3.759
        },
        {
            "text": "see the two I see people spotting it",
            "start": 433.479,
            "duration": 4.521
        },
        {
            "text": "right now security apparently the",
            "start": 435.199,
            "duration": 5.081
        },
        {
            "text": "average person committing to GitHub",
            "start": 438.0,
            "duration": 5.039
        },
        {
            "text": "writes some pretty secure code they also",
            "start": 440.28,
            "duration": 5.4
        },
        {
            "text": "write really reliable code and they're",
            "start": 443.039,
            "duration": 5.481
        },
        {
            "text": "mostly maintainable I hate to tell you",
            "start": 445.68,
            "duration": 5.359
        },
        {
            "text": "this",
            "start": 448.52,
            "duration": 6.959
        },
        {
            "text": "No No's the answer okay no is the the",
            "start": 451.039,
            "duration": 6.201
        },
        {
            "text": "answer even more reason to make my lab",
            "start": 455.479,
            "duration": 5.961
        },
        {
            "text": "repo private this is so WR this number",
            "start": 457.24,
            "duration": 6.519
        },
        {
            "text": "should be inverted in slightly out the",
            "start": 461.44,
            "duration": 4.759
        },
        {
            "text": "other direction okay",
            "start": 463.759,
            "duration": 4.041
        },
        {
            "text": "like",
            "start": 466.199,
            "duration": 4.4
        },
        {
            "text": "what how was that even",
            "start": 467.8,
            "duration": 5.72
        },
        {
            "text": "possible okay I I definitely don't write",
            "start": 470.599,
            "duration": 5.56
        },
        {
            "text": "secure code okay like I have I'm under",
            "start": 473.52,
            "duration": 6.2
        },
        {
            "text": "no illusions that I am somehow super",
            "start": 476.159,
            "duration": 5.801
        },
        {
            "text": "secure that everything I do is really",
            "start": 479.72,
            "duration": 5.039
        },
        {
            "text": "well thought through like security is",
            "start": 481.96,
            "duration": 5.12
        },
        {
            "text": "really hard it is a vertical onto itself",
            "start": 484.759,
            "duration": 4.361
        },
        {
            "text": "and if you think you can just write",
            "start": 487.08,
            "duration": 4.64
        },
        {
            "text": "secure code you're a dumb dumb right you",
            "start": 489.12,
            "duration": 6.919
        },
        {
            "text": "are a dumb dumb okay uh okay but it also",
            "start": 491.72,
            "duration": 5.919
        },
        {
            "text": "said hold on it also said that it can",
            "start": 496.039,
            "duration": 4.641
        },
        {
            "text": "tell me uh uh it can it can tell me how",
            "start": 497.639,
            "duration": 5.24
        },
        {
            "text": "tasteful my code is where's my tasteful",
            "start": 500.68,
            "duration": 4.199
        },
        {
            "text": "ranking I want to see dude I'm s here by",
            "start": 502.879,
            "duration": 3.561
        },
        {
            "text": "the way boys boys we're s here where's",
            "start": 504.879,
            "duration": 4.88
        },
        {
            "text": "my tasteful ranking overview languages",
            "start": 506.44,
            "duration": 7.479
        },
        {
            "text": "oh yeah the [\u00a0__\u00a0] is read script a lot of",
            "start": 509.759,
            "duration": 9.72
        },
        {
            "text": "JavaScript some typescript go rust",
            "start": 513.919,
            "duration": 8.321
        },
        {
            "text": "cake Lua",
            "start": 519.479,
            "duration": 7.04
        },
        {
            "text": "zigg Elixir what the hell is rescript",
            "start": 522.24,
            "duration": 7.56
        },
        {
            "text": "text Stacks front end UI development",
            "start": 526.519,
            "duration": 6.241
        },
        {
            "text": "nextjs really that much",
            "start": 529.8,
            "duration": 5.599
        },
        {
            "text": "nextjs well I didn't realize I uh did",
            "start": 532.76,
            "duration": 5.12
        },
        {
            "text": "that much nextjs boys uh this is",
            "start": 535.399,
            "duration": 3.841
        },
        {
            "text": "actually this is actually news to me",
            "start": 537.88,
            "duration": 3.6
        },
        {
            "text": "that that I'm a rescript nextjs person I",
            "start": 539.24,
            "duration": 4.92
        },
        {
            "text": "didn't even know that as someone who's",
            "start": 541.48,
            "duration": 5.84
        },
        {
            "text": "used nextjs once because Theo showed it",
            "start": 544.16,
            "duration": 6.239
        },
        {
            "text": "to me UI testing okay more just yeah I",
            "start": 547.32,
            "duration": 7.12
        },
        {
            "text": "mean okay react CSS styling this fair",
            "start": 550.399,
            "duration": 6.321
        },
        {
            "text": "websockets I wrote web I have a",
            "start": 554.44,
            "duration": 5.72
        },
        {
            "text": "websocket protocol okay restful just",
            "start": 556.72,
            "duration": 6.359
        },
        {
            "text": "mocha chai bootstrap okay back in what",
            "start": 560.16,
            "duration": 4.32
        },
        {
            "text": "do I got",
            "start": 563.079,
            "duration": 4.081
        },
        {
            "text": "nextjs again I am shocked at how much",
            "start": 564.48,
            "duration": 5.32
        },
        {
            "text": "nextjs I do websocket Express app",
            "start": 567.16,
            "duration": 5.56
        },
        {
            "text": "development restful just API development",
            "start": 569.8,
            "duration": 5.88
        },
        {
            "text": "okay microservice designs okay scaling",
            "start": 572.72,
            "duration": 5.4
        },
        {
            "text": "Monitor and logging embedded systems iot",
            "start": 575.68,
            "duration": 4.159
        },
        {
            "text": "Cloud",
            "start": 578.12,
            "duration": 6.12
        },
        {
            "text": "platforms what when when have I ever",
            "start": 579.839,
            "duration": 7.24
        },
        {
            "text": "done iot Cloud platforms what does this",
            "start": 584.24,
            "duration": 4.96
        },
        {
            "text": "even mean microcontroller okay that's",
            "start": 587.079,
            "duration": 3.361
        },
        {
            "text": "that's that's at least somewhat",
            "start": 589.2,
            "duration": 5.52
        },
        {
            "text": "reasonable devops log analysis Pino",
            "start": 590.44,
            "duration": 6.56
        },
        {
            "text": "grunt this just shows how long I've been",
            "start": 594.72,
            "duration": 4.72
        },
        {
            "text": "programming for okay this is really just",
            "start": 597.0,
            "duration": 4.399
        },
        {
            "text": "a better indication that I've been doing",
            "start": 599.44,
            "duration": 6.519
        },
        {
            "text": "too much stuff right machine learning",
            "start": 601.399,
            "duration": 6.44
        },
        {
            "text": "unsupervised learning hell yeah",
            "start": 605.959,
            "duration": 3.801
        },
        {
            "text": "supervised learning hell yeah",
            "start": 607.839,
            "duration": 4.921
        },
        {
            "text": "reproducibility hell yeah mobile",
            "start": 609.76,
            "duration": 7.16
        },
        {
            "text": "apps okay wow um so I would just",
            "start": 612.76,
            "duration": 6.88
        },
        {
            "text": "generally say that this is uh I would I",
            "start": 616.92,
            "duration": 6.44
        },
        {
            "text": "would probably give this as 90% wrong",
            "start": 619.64,
            "duration": 5.84
        },
        {
            "text": "all right what are my suppositories what",
            "start": 623.36,
            "duration": 4.28
        },
        {
            "text": "do I got what's my top one C Machine",
            "start": 625.48,
            "duration": 3.72
        },
        {
            "text": "okay I mean people really like that one",
            "start": 627.64,
            "duration": 2.759
        },
        {
            "text": "the these are all fem ones yeah these",
            "start": 629.2,
            "duration": 4.04
        },
        {
            "text": "are all uh front and Masters yeah yeah",
            "start": 630.399,
            "duration": 4.601
        },
        {
            "text": "these are all front and Masters ones",
            "start": 633.24,
            "duration": 3.44
        },
        {
            "text": "okay cool I don't know what this is this",
            "start": 635.0,
            "duration": 3.0
        },
        {
            "text": "must be something that's going on with",
            "start": 636.68,
            "duration": 2.399
        },
        {
            "text": "front end Masters I don't know what's",
            "start": 638.0,
            "duration": 3.6
        },
        {
            "text": "going on there okay anyways uh this is",
            "start": 639.079,
            "duration": 4.56
        },
        {
            "text": "largely inaccurate uh this is actually a",
            "start": 641.6,
            "duration": 4.4
        },
        {
            "text": "horrible tool get roll is genuinely if",
            "start": 643.639,
            "duration": 4.64
        },
        {
            "text": "if this what we just got done reading",
            "start": 646.0,
            "duration": 4.44
        },
        {
            "text": "here versus what we just got done seeing",
            "start": 648.279,
            "duration": 4.841
        },
        {
            "text": "I would say that this is an an absolute",
            "start": 650.44,
            "duration": 5.48
        },
        {
            "text": "L not even like a sort of L not even a",
            "start": 653.12,
            "duration": 4.76
        },
        {
            "text": "kind of L like we're talking like an L's",
            "start": 655.92,
            "duration": 4.56
        },
        {
            "text": "L okay like for the last 2 to three",
            "start": 657.88,
            "duration": 4.56
        },
        {
            "text": "years I have done nothing but pretty",
            "start": 660.48,
            "duration": 6.28
        },
        {
            "text": "much make CLI tools Vim stuff any of",
            "start": 662.44,
            "duration": 6.399
        },
        {
            "text": "that on my open source stuff and and a",
            "start": 666.76,
            "duration": 5.079
        },
        {
            "text": "websocket protocol right and so for them",
            "start": 668.839,
            "duration": 4.8
        },
        {
            "text": "like if this is the if this is the",
            "start": 671.839,
            "duration": 3.761
        },
        {
            "text": "result this is",
            "start": 673.639,
            "duration": 4.041
        },
        {
            "text": "crazy I think I might even have a",
            "start": 675.6,
            "duration": 4.239
        },
        {
            "text": "partial implementation of http2 out in",
            "start": 677.68,
            "duration": 4.64
        },
        {
            "text": "public out in public Source this is just",
            "start": 679.839,
            "duration": 5.68
        },
        {
            "text": "wild this is just wildly inaccurate this",
            "start": 682.32,
            "duration": 5.68
        },
        {
            "text": "is wildly inaccurate and writing this is",
            "start": 685.519,
            "duration": 4.281
        },
        {
            "text": "nothing Charlie",
            "start": 688.0,
            "duration": 7.0
        },
        {
            "text": "this is a shame 10 hours ago a shame yo",
            "start": 689.8,
            "duration": 8.719
        },
        {
            "text": "yo this this AI stuff this AI stuff got",
            "start": 695.0,
            "duration": 5.44
        },
        {
            "text": "to cool down man like I'm all for good",
            "start": 698.519,
            "duration": 4.921
        },
        {
            "text": "AI tools okay I think a AI on the CLI",
            "start": 700.44,
            "duration": 4.839
        },
        {
            "text": "could be very well could be something",
            "start": 703.44,
            "duration": 3.399
        },
        {
            "text": "pretty interesting I'm curious about it",
            "start": 705.279,
            "duration": 2.921
        },
        {
            "text": "I'm actually pretty excited about that",
            "start": 706.839,
            "duration": 3.44
        },
        {
            "text": "co-pilot on the CLI could be really good",
            "start": 708.2,
            "duration": 4.04
        },
        {
            "text": "I might just be able to use I might just",
            "start": 710.279,
            "duration": 4.641
        },
        {
            "text": "be able to use FFM Peg I might just be",
            "start": 712.24,
            "duration": 5.68
        },
        {
            "text": "able to do it um co-pilot itself again",
            "start": 714.92,
            "duration": 4.44
        },
        {
            "text": "I'm still really skeptical of it I've",
            "start": 717.92,
            "duration": 2.88
        },
        {
            "text": "had it off now for a little bit I'm",
            "start": 719.36,
            "duration": 2.719
        },
        {
            "text": "happy I actually have it off I'm going",
            "start": 720.8,
            "duration": 3.039
        },
        {
            "text": "to reenable it again I'm going to go",
            "start": 722.079,
            "duration": 4.241
        },
        {
            "text": "back and forth I think Chad GPT as a",
            "start": 723.839,
            "duration": 4.201
        },
        {
            "text": "method for explaining New Concepts and",
            "start": 726.32,
            "duration": 3.36
        },
        {
            "text": "stuff could very well be a very powerful",
            "start": 728.04,
            "duration": 3.68
        },
        {
            "text": "way to learn I do think this idea of AI",
            "start": 729.68,
            "duration": 3.839
        },
        {
            "text": "assisted learning is actually a really",
            "start": 731.72,
            "duration": 4.28
        },
        {
            "text": "cool concept but it has to be accurate",
            "start": 733.519,
            "duration": 5.481
        },
        {
            "text": "but this idea of AI assisted assessments",
            "start": 736.0,
            "duration": 5.639
        },
        {
            "text": "is nuts it's off it's way off because",
            "start": 739.0,
            "duration": 4.24
        },
        {
            "text": "the problem comes I mean the problem",
            "start": 741.639,
            "duration": 3.361
        },
        {
            "text": "with any of the AI stuff comes down to",
            "start": 743.24,
            "duration": 3.64
        },
        {
            "text": "the white problem which is can you",
            "start": 745.0,
            "duration": 3.839
        },
        {
            "text": "produce me an image that is pure white",
            "start": 746.88,
            "duration": 3.68
        },
        {
            "text": "pure black pure yellow pure anything",
            "start": 748.839,
            "duration": 3.601
        },
        {
            "text": "right and the thing is is that it can't",
            "start": 750.56,
            "duration": 3.6
        },
        {
            "text": "it struggles a whole bunch because when",
            "start": 752.44,
            "duration": 3.6
        },
        {
            "text": "you say produce me an image of a crab we",
            "start": 754.16,
            "duration": 3.96
        },
        {
            "text": "think that AI is just effing magic or",
            "start": 756.04,
            "duration": 3.56
        },
        {
            "text": "produce me a program that reads out a",
            "start": 758.12,
            "duration": 3.959
        },
        {
            "text": "file and does a mat plot lib X and Y it",
            "start": 759.6,
            "duration": 4.679
        },
        {
            "text": "is absolutely right people are just like",
            "start": 762.079,
            "duration": 3.76
        },
        {
            "text": "oh my goodness this is absolutely",
            "start": 764.279,
            "duration": 3.441
        },
        {
            "text": "incredible but the reality is is that",
            "start": 765.839,
            "duration": 3.881
        },
        {
            "text": "there's many many programs that fit that",
            "start": 767.72,
            "duration": 3.76
        },
        {
            "text": "mold and the reason why it's not",
            "start": 769.72,
            "duration": 3.04
        },
        {
            "text": "incredible is because it's not doing",
            "start": 771.48,
            "duration": 2.56
        },
        {
            "text": "something specific it's just",
            "start": 772.76,
            "duration": 2.92
        },
        {
            "text": "generalizing and it just happens to fit",
            "start": 774.04,
            "duration": 3.4
        },
        {
            "text": "the problem space because when you ask",
            "start": 775.68,
            "duration": 3.519
        },
        {
            "text": "it to produce a pure white image it's",
            "start": 777.44,
            "duration": 3.959
        },
        {
            "text": "struggles because Pier white is an exact",
            "start": 779.199,
            "duration": 5.08
        },
        {
            "text": "answer there's one answer which is all",
            "start": 781.399,
            "duration": 4.921
        },
        {
            "text": "all FS you can't have anything else and",
            "start": 784.279,
            "duration": 3.68
        },
        {
            "text": "it struggles to do that because once you",
            "start": 786.32,
            "duration": 4.319
        },
        {
            "text": "give it an exact thing to do it's really",
            "start": 787.959,
            "duration": 5.841
        },
        {
            "text": "hard for it to do correctly and that's",
            "start": 790.639,
            "duration": 4.921
        },
        {
            "text": "the big difference that really sums it",
            "start": 793.8,
            "duration": 3.24
        },
        {
            "text": "up yeah and that's why I think people",
            "start": 795.56,
            "duration": 2.92
        },
        {
            "text": "don't understand the difference uh uh",
            "start": 797.04,
            "duration": 3.2
        },
        {
            "text": "between this which is give me an image",
            "start": 798.48,
            "duration": 5.32
        },
        {
            "text": "of a crab there's infinite crabs give me",
            "start": 800.24,
            "duration": 7.279
        },
        {
            "text": "an exact thing struggles a ton because",
            "start": 803.8,
            "duration": 6.08
        },
        {
            "text": "an exact thing is always different",
            "start": 807.519,
            "duration": 4.361
        },
        {
            "text": "like the absolutely no elephants example",
            "start": 809.88,
            "duration": 3.399
        },
        {
            "text": "I have not seen the absolutely no",
            "start": 811.88,
            "duration": 3.84
        },
        {
            "text": "elephants example but that's hilarious",
            "start": 813.279,
            "duration": 4.8
        },
        {
            "text": "right I'm not saying that llms are going",
            "start": 815.72,
            "duration": 3.6
        },
        {
            "text": "to be bad or good in the future I'm just",
            "start": 818.079,
            "duration": 2.641
        },
        {
            "text": "saying that they're they're very hard to",
            "start": 819.32,
            "duration": 3.28
        },
        {
            "text": "get right CU When you're looking for an",
            "start": 820.72,
            "duration": 4.799
        },
        {
            "text": "exact answer that's hard that's really",
            "start": 822.6,
            "duration": 5.4
        },
        {
            "text": "hard the",
            "start": 825.519,
            "duration": 5.24
        },
        {
            "text": "name is this was genuinely the worst",
            "start": 828.0,
            "duration": 5.68
        },
        {
            "text": "tool I have ever seen this is the worst",
            "start": 830.759,
            "duration": 4.64
        },
        {
            "text": "thing I've ever seen we really really",
            "start": 833.68,
            "duration": 6.64
        },
        {
            "text": "really as as like I rarely say as a",
            "start": 835.399,
            "duration": 6.161
        },
        {
            "text": "whatever whatever you call this",
            "start": 840.32,
            "duration": 3.04
        },
        {
            "text": "amalgamation of programmers hobbyist",
            "start": 841.56,
            "duration": 4.04
        },
        {
            "text": "enthusiasts and traditional learning",
            "start": 843.36,
            "duration": 3.88
        },
        {
            "text": "people whatever you call all that put",
            "start": 845.6,
            "duration": 4.64
        },
        {
            "text": "together whatever that is we need to",
            "start": 847.24,
            "duration": 5.719
        },
        {
            "text": "agree that using AI to filter is just",
            "start": 850.24,
            "duration": 5.68
        },
        {
            "text": "going to be horribly bad it's it's not",
            "start": 852.959,
            "duration": 4.601
        },
        {
            "text": "going to end well it's going to be an",
            "start": 855.92,
            "duration": 6.24
        },
        {
            "text": "absolute 100% disaster and I also am an",
            "start": 857.56,
            "duration": 7.76
        },
        {
            "text": "expert in next Jen based on what the AI",
            "start": 862.16,
            "duration": 6.08
        },
        {
            "text": "have said of course",
            "start": 865.32,
            "duration": 2.92
        }
    ],
    "stats": {
        "viewCount": "57033",
        "likeCount": "1773",
        "favoriteCount": "0",
        "commentCount": "192"
    }
}