{
    "id": "Fez9foCZlng",
    "title": "Best Way To Learn",
    "publishedAt": "2023-12-28T15:38:00Z",
    "captions": [
        {
            "text": "I think the best way to learn is not to",
            "start": 0.08,
            "duration": 3.799
        },
        {
            "text": "have somebody else do it with you even",
            "start": 2.04,
            "duration": 3.52
        },
        {
            "text": "though that's like a fast track to get",
            "start": 3.879,
            "duration": 3.801
        },
        {
            "text": "to the right answer I think it's even",
            "start": 5.56,
            "duration": 4.999
        },
        {
            "text": "better to learn to fail and discover a",
            "start": 7.68,
            "duration": 4.36
        },
        {
            "text": "bunch of the context yourself cuz",
            "start": 10.559,
            "duration": 2.841
        },
        {
            "text": "honestly most hard things about",
            "start": 12.04,
            "duration": 2.759
        },
        {
            "text": "programming is State and the",
            "start": 13.4,
            "duration": 3.28
        },
        {
            "text": "manipulation of State it's not the",
            "start": 14.799,
            "duration": 3.841
        },
        {
            "text": "function itself a lot of the function",
            "start": 16.68,
            "duration": 3.72
        },
        {
            "text": "itself is usually pretty easy it's like",
            "start": 18.64,
            "duration": 3.479
        },
        {
            "text": "the entirety of how the state moves",
            "start": 20.4,
            "duration": 3.199
        },
        {
            "text": "through the system which just takes like",
            "start": 22.119,
            "duration": 3.361
        },
        {
            "text": "hours of debugging for you to understand",
            "start": 23.599,
            "duration": 4.161
        },
        {
            "text": "it",
            "start": 25.48,
            "duration": 2.28
        }
    ],
    "stats": {
        "viewCount": "137865",
        "likeCount": "6086",
        "favoriteCount": "0",
        "commentCount": "116"
    }
}