{
    "id": "FqG-9vKhGtg",
    "title": "C# is better than you think | Prime Reacts",
    "publishedAt": "2023-12-21T14:00:11Z",
    "captions": [
        {
            "text": "your",
            "start": 0.04,
            "duration": 3.679
        },
        {
            "text": "opinion about CP and.net is outdated so",
            "start": 0.959,
            "duration": 4.32
        },
        {
            "text": "let me tell you my opinion about csharp",
            "start": 3.719,
            "duration": 3.72
        },
        {
            "text": "and.net when I was in college University",
            "start": 5.279,
            "duration": 4.521
        },
        {
            "text": "as some of you Europeans call it uh we",
            "start": 7.439,
            "duration": 3.801
        },
        {
            "text": "just call it College around here went to",
            "start": 9.8,
            "duration": 2.919
        },
        {
            "text": "a State University nothing impressive",
            "start": 11.24,
            "duration": 2.84
        },
        {
            "text": "Montana State University by the way",
            "start": 12.719,
            "duration": 4.161
        },
        {
            "text": "Bobcats meow uh what we had to work on",
            "start": 14.08,
            "duration": 4.4
        },
        {
            "text": "was a compiler's course and I wrote a",
            "start": 16.88,
            "duration": 3.72
        },
        {
            "text": "compiler in C for something called",
            "start": 18.48,
            "duration": 3.44
        },
        {
            "text": "Pascal you may have heard of it it was",
            "start": 20.6,
            "duration": 3.88
        },
        {
            "text": "called micro Pascal it had less options",
            "start": 21.92,
            "duration": 5.679
        },
        {
            "text": "and we wrote it to translate into iel",
            "start": 24.48,
            "duration": 5.52
        },
        {
            "text": "iel was the Intermediate Language",
            "start": 27.599,
            "duration": 5.401
        },
        {
            "text": "representation of all of the netes into",
            "start": 30.0,
            "duration": 5.04
        },
        {
            "text": "how they compile it okay so yes I worked",
            "start": 33.0,
            "duration": 4.28
        },
        {
            "text": "on Windows yes I did all these things",
            "start": 35.04,
            "duration": 4.48
        },
        {
            "text": "that's what I did okay with my life okay",
            "start": 37.28,
            "duration": 4.56
        },
        {
            "text": "I did that and it was fantastic it was a",
            "start": 39.52,
            "duration": 4.08
        },
        {
            "text": "lot of fun and one of the big challenges",
            "start": 41.84,
            "duration": 3.44
        },
        {
            "text": "was that it didn't have closures at the",
            "start": 43.6,
            "duration": 4.56
        },
        {
            "text": "time iil had no closures and so we had",
            "start": 45.28,
            "duration": 4.799
        },
        {
            "text": "to make up closures programmatically if",
            "start": 48.16,
            "duration": 4.96
        },
        {
            "text": "you've ever used groovy groovy uh",
            "start": 50.079,
            "duration": 6.561
        },
        {
            "text": "2.3.6 actually did the exact same thing",
            "start": 53.12,
            "duration": 6.84
        },
        {
            "text": "groovy would compile your uh groovy code",
            "start": 56.64,
            "duration": 6.2
        },
        {
            "text": "into Java by creating these these like",
            "start": 59.96,
            "duration": 4.519
        },
        {
            "text": "little virtual functions inside or these",
            "start": 62.84,
            "duration": 3.24
        },
        {
            "text": "real functions but that you don't see",
            "start": 64.479,
            "duration": 4.041
        },
        {
            "text": "them where just takes all the arguments",
            "start": 66.08,
            "duration": 4.88
        },
        {
            "text": "that is the closure is all the arguments",
            "start": 68.52,
            "duration": 4.36
        },
        {
            "text": "super fun it was a super fun project and",
            "start": 70.96,
            "duration": 3.519
        },
        {
            "text": "it helped me understand uh groovy really",
            "start": 72.88,
            "duration": 2.76
        },
        {
            "text": "well when I went to Netflix and had the",
            "start": 74.479,
            "duration": 2.721
        },
        {
            "text": "right groovy when I went to Netflix and",
            "start": 75.64,
            "duration": 3.479
        },
        {
            "text": "Rogue groovy people were like how did",
            "start": 77.2,
            "duration": 3.559
        },
        {
            "text": "you write all this",
            "start": 79.119,
            "duration": 4.04
        },
        {
            "text": "code how were you able to do this and",
            "start": 80.759,
            "duration": 4.761
        },
        {
            "text": "I'm like yo dog it's just a little bit",
            "start": 83.159,
            "duration": 4.801
        },
        {
            "text": "of RX and a closure and they're like I",
            "start": 85.52,
            "duration": 3.8
        },
        {
            "text": "don't understand how it works I'm like",
            "start": 87.96,
            "duration": 5.479
        },
        {
            "text": "well just a what I was like the best",
            "start": 89.32,
            "duration": 7.159
        },
        {
            "text": "groovy developer for a while it was",
            "start": 93.439,
            "duration": 5.481
        },
        {
            "text": "absurd hello everybody nck in this video",
            "start": 96.479,
            "duration": 4.96
        },
        {
            "text": "I want to talk about cop and.net and how",
            "start": 98.92,
            "duration": 4.32
        },
        {
            "text": "your opinion about by the way is C dead",
            "start": 101.439,
            "duration": 4.32
        },
        {
            "text": "is C dead is C++",
            "start": 103.24,
            "duration": 6.6
        },
        {
            "text": "dead let's go is C dead is C dead is C++",
            "start": 105.759,
            "duration": 6.761
        },
        {
            "text": "dead is CP dead whole C family were",
            "start": 109.84,
            "duration": 4.919
        },
        {
            "text": "accident from the tree okay the whole C",
            "start": 112.52,
            "duration": 4.16
        },
        {
            "text": "the whole C family starting at the rote",
            "start": 114.759,
            "duration": 4.521
        },
        {
            "text": "C the whole branch is going okay the",
            "start": 116.68,
            "duration": 4.359
        },
        {
            "text": "language and the framework might be",
            "start": 119.28,
            "duration": 3.6
        },
        {
            "text": "outdated especially if you haven't",
            "start": 121.039,
            "duration": 3.801
        },
        {
            "text": "really looked at it in the past four to",
            "start": 122.88,
            "duration": 4.199
        },
        {
            "text": "5 years I not looked I was browsing",
            "start": 124.84,
            "duration": 3.96
        },
        {
            "text": "YouTube and I saw one of those videos",
            "start": 127.079,
            "duration": 4.24
        },
        {
            "text": "that sounded like should you learn cop",
            "start": 128.8,
            "duration": 5.079
        },
        {
            "text": "in 2021 and while I was watching that it",
            "start": 131.319,
            "duration": 4.56
        },
        {
            "text": "was very clear to me that this person",
            "start": 133.879,
            "duration": 3.72
        },
        {
            "text": "didn't know what they were talking about",
            "start": 135.879,
            "duration": 3.761
        },
        {
            "text": "they were giving like all outdated",
            "start": 137.599,
            "duration": 3.561
        },
        {
            "text": "information about the language you're",
            "start": 139.64,
            "duration": 3.319
        },
        {
            "text": "welcome for the uh Discord notification",
            "start": 141.16,
            "duration": 3.4
        },
        {
            "text": "by the way let me just mute that really",
            "start": 142.959,
            "duration": 4.161
        },
        {
            "text": "quickly you're welcome you're welcome uh",
            "start": 144.56,
            "duration": 4.56
        },
        {
            "text": "but this is a real problem by the way on",
            "start": 147.12,
            "duration": 4.16
        },
        {
            "text": "YouTube this is a real problem is that",
            "start": 149.12,
            "duration": 5.04
        },
        {
            "text": "people like it's very one of the easiest",
            "start": 151.28,
            "duration": 5.039
        },
        {
            "text": "ways to get views is to make a video",
            "start": 154.16,
            "duration": 3.799
        },
        {
            "text": "about something dumping on it it just",
            "start": 156.319,
            "duration": 3.601
        },
        {
            "text": "really is I why I don't know you guys",
            "start": 157.959,
            "duration": 3.761
        },
        {
            "text": "are sick okay you guys want to see other",
            "start": 159.92,
            "duration": 3.56
        },
        {
            "text": "people in pain you guys just want to see",
            "start": 161.72,
            "duration": 4.0
        },
        {
            "text": "somebody hurting and crying and so",
            "start": 163.48,
            "duration": 4.64
        },
        {
            "text": "people can make these C Dead videos and",
            "start": 165.72,
            "duration": 4.159
        },
        {
            "text": "give like 5-year-old advice and that",
            "start": 168.12,
            "duration": 3.08
        },
        {
            "text": "pretty much matches everybody's",
            "start": 169.879,
            "duration": 3.28
        },
        {
            "text": "expectation and then it just works out",
            "start": 171.2,
            "duration": 3.28
        },
        {
            "text": "you know it's like an expectation",
            "start": 173.159,
            "duration": 3.36
        },
        {
            "text": "fulfilling prophecy problem okay we're",
            "start": 174.48,
            "duration": 3.6
        },
        {
            "text": "not going to do that we're going to let",
            "start": 176.519,
            "duration": 3.521
        },
        {
            "text": "this guy give us the he's is's going to",
            "start": 178.08,
            "duration": 3.879
        },
        {
            "text": "give us the Deeds give us the Deeds",
            "start": 180.04,
            "duration": 4.44
        },
        {
            "text": "framework comparing it to Java and how",
            "start": 181.959,
            "duration": 4.401
        },
        {
            "text": "Java is significantly better and faster",
            "start": 184.48,
            "duration": 3.72
        },
        {
            "text": "and whatnot and that you should learn",
            "start": 186.36,
            "duration": 5.12
        },
        {
            "text": "that over C so I dived into quora and I",
            "start": 188.2,
            "duration": 4.92
        },
        {
            "text": "sear a little bit and I can I pause this",
            "start": 191.48,
            "duration": 2.88
        },
        {
            "text": "for a second I actually do agree with it",
            "start": 193.12,
            "duration": 3.0
        },
        {
            "text": "every place that uses C is like",
            "start": 194.36,
            "duration": 3.799
        },
        {
            "text": "government related I swear it's like",
            "start": 196.12,
            "duration": 4.16
        },
        {
            "text": "government or healthcare related and so",
            "start": 198.159,
            "duration": 3.36
        },
        {
            "text": "at least with Java you could work at",
            "start": 200.28,
            "duration": 4.08
        },
        {
            "text": "like Netflix or or other cool companies",
            "start": 201.519,
            "duration": 4.44
        },
        {
            "text": "uh or you're working for like a",
            "start": 204.36,
            "duration": 4.4
        },
        {
            "text": "government medical job Finance like I I",
            "start": 205.959,
            "duration": 5.28
        },
        {
            "text": "I don't want to Banks oh that's a w oh",
            "start": 208.76,
            "duration": 4.8
        },
        {
            "text": "that's cool uh I'm just throwing it out",
            "start": 211.239,
            "duration": 4.961
        },
        {
            "text": "there okay Unity Unity would be fun okay",
            "start": 213.56,
            "duration": 4.759
        },
        {
            "text": "at least Unity would be fun okay I get",
            "start": 216.2,
            "duration": 5.0
        },
        {
            "text": "it I get it Unity is fun a few",
            "start": 218.319,
            "duration": 5.521
        },
        {
            "text": "interesting answers on similar questions",
            "start": 221.2,
            "duration": 4.72
        },
        {
            "text": "that are so outdated that I want to use",
            "start": 223.84,
            "duration": 4.2
        },
        {
            "text": "this platform to address those this is",
            "start": 225.92,
            "duration": 4.679
        },
        {
            "text": "not a comparison between cop and Java or",
            "start": 228.04,
            "duration": 4.8
        },
        {
            "text": "any other language other languages can",
            "start": 230.599,
            "duration": 4.401
        },
        {
            "text": "do whatever they want I only want to",
            "start": 232.84,
            "duration": 6.039
        },
        {
            "text": "address cop itself and.net and yes some",
            "start": 235.0,
            "duration": 6.0
        },
        {
            "text": "facts I have work let's see facts except",
            "start": 238.879,
            "duration": 3.64
        },
        {
            "text": "I work C and I don't work for the",
            "start": 241.0,
            "duration": 3.36
        },
        {
            "text": "government or bank or Healthcare but I",
            "start": 242.519,
            "duration": 4.601
        },
        {
            "text": "used to yeah I know I know I know I I",
            "start": 244.36,
            "duration": 4.079
        },
        {
            "text": "understand C's not using those",
            "start": 247.12,
            "duration": 3.16
        },
        {
            "text": "departments but it's primary Landing if",
            "start": 248.439,
            "duration": 3.44
        },
        {
            "text": "you were to have all the jobs in the",
            "start": 250.28,
            "duration": 4.039
        },
        {
            "text": "universe that involve C and you put them",
            "start": 251.879,
            "duration": 4.681
        },
        {
            "text": "all into one big circle and then I close",
            "start": 254.319,
            "duration": 4.2
        },
        {
            "text": "my eyes and I could just shoot an arrow",
            "start": 256.56,
            "duration": 4.04
        },
        {
            "text": "somewhere and it would land somewhere in",
            "start": 258.519,
            "duration": 5.161
        },
        {
            "text": "the middle of all this I would land into",
            "start": 260.6,
            "duration": 5.48
        },
        {
            "text": "government Healthcare or Finance okay",
            "start": 263.68,
            "duration": 5.239
        },
        {
            "text": "some of the answers just against Java",
            "start": 266.08,
            "duration": 5.04
        },
        {
            "text": "because of how similar in principle the",
            "start": 268.919,
            "duration": 4.72
        },
        {
            "text": "languages are and let's be honest C was",
            "start": 271.12,
            "duration": 5.6
        },
        {
            "text": "made by Microsoft to be their own Java Y",
            "start": 273.639,
            "duration": 5.681
        },
        {
            "text": "and maybe give you my take on how things",
            "start": 276.72,
            "duration": 4.72
        },
        {
            "text": "are nowadays if you like of content and",
            "start": 279.32,
            "duration": 3.24
        },
        {
            "text": "you want to see more make sure you",
            "start": 281.44,
            "duration": 3.599
        },
        {
            "text": "subscribe H the notification Bell geted",
            "start": 282.56,
            "duration": 4.24
        },
        {
            "text": "when I upload a new video so let's go",
            "start": 285.039,
            "duration": 3.761
        },
        {
            "text": "the first one here and this one is why",
            "start": 286.8,
            "duration": 4.959
        },
        {
            "text": "is C so much better than Java yet not as",
            "start": 288.8,
            "duration": 5.56
        },
        {
            "text": "popular now is this statement true I",
            "start": 291.759,
            "duration": 4.641
        },
        {
            "text": "don't know and also I don't care what I",
            "start": 294.36,
            "duration": 3.44
        },
        {
            "text": "do care is",
            "start": 296.4,
            "duration": 4.72
        },
        {
            "text": "about by the way sign of a true Chad is",
            "start": 297.8,
            "duration": 5.92
        },
        {
            "text": "this statement true I don't know and I",
            "start": 301.12,
            "duration": 5.84
        },
        {
            "text": "don't care the first upvoted answer",
            "start": 303.72,
            "duration": 6.16
        },
        {
            "text": "which is from 2017 by the way by the way",
            "start": 306.96,
            "duration": 6.16
        },
        {
            "text": "and one of the things is cop costs money",
            "start": 309.88,
            "duration": 6.44
        },
        {
            "text": "and you're tied into Windows that's 2017",
            "start": 313.12,
            "duration": 6.199
        },
        {
            "text": "no you are no tiing the windows net and",
            "start": 316.32,
            "duration": 5.64
        },
        {
            "text": "cop are crossplatform they have been",
            "start": 319.319,
            "duration": 5.961
        },
        {
            "text": "since April of 2016 clearly this person",
            "start": 321.96,
            "duration": 5.28
        },
        {
            "text": "and you can see it from what this how",
            "start": 325.28,
            "duration": 3.96
        },
        {
            "text": "good was their crossplatform in 2016",
            "start": 327.24,
            "duration": 2.84
        },
        {
            "text": "like",
            "start": 329.24,
            "duration": 3.48
        },
        {
            "text": "I know people say this uh how good has",
            "start": 330.08,
            "duration": 4.52
        },
        {
            "text": "the cross like is the cross I know it",
            "start": 332.72,
            "duration": 4.44
        },
        {
            "text": "was really bad at one point it was awful",
            "start": 334.6,
            "duration": 6.039
        },
        {
            "text": "how about now is it good now is it good",
            "start": 337.16,
            "duration": 5.4
        },
        {
            "text": "enough now it's top tier now it's top",
            "start": 340.639,
            "duration": 5.081
        },
        {
            "text": "tier good uh the tooling is bad Linux",
            "start": 342.56,
            "duration": 6.639
        },
        {
            "text": "could run games since 19 1999 it's",
            "start": 345.72,
            "duration": 6.8
        },
        {
            "text": "pretty good okay so yeah fair fair I",
            "start": 349.199,
            "duration": 5.161
        },
        {
            "text": "like that it's really good okay good",
            "start": 352.52,
            "duration": 4.679
        },
        {
            "text": "enough for me okay yeah I C is a fine",
            "start": 354.36,
            "duration": 4.679
        },
        {
            "text": "language it's just people always ask why",
            "start": 357.199,
            "duration": 3.761
        },
        {
            "text": "don't I do C and I jokingly say that I",
            "start": 359.039,
            "duration": 3.521
        },
        {
            "text": "hate Microsoft well actually I don't",
            "start": 360.96,
            "duration": 3.72
        },
        {
            "text": "jokingly say I don't like Microsoft but",
            "start": 362.56,
            "duration": 4.199
        },
        {
            "text": "something to really think about is that",
            "start": 364.68,
            "duration": 4.799
        },
        {
            "text": "I already know a c-based language right",
            "start": 366.759,
            "duration": 4.761
        },
        {
            "text": "I don't I don't need like if I already",
            "start": 369.479,
            "duration": 4.921
        },
        {
            "text": "know go do I really want to go and learn",
            "start": 371.52,
            "duration": 5.44
        },
        {
            "text": "C no like I'd rather you learn a",
            "start": 374.4,
            "duration": 3.639
        },
        {
            "text": "language that's going to change my",
            "start": 376.96,
            "duration": 3.16
        },
        {
            "text": "perspective I'd rather learn rust maybe",
            "start": 378.039,
            "duration": 3.641
        },
        {
            "text": "learn a little bit of O camel right I",
            "start": 380.12,
            "duration": 4.72
        },
        {
            "text": "just like do I need another javal like",
            "start": 381.68,
            "duration": 5.639
        },
        {
            "text": "language right I I I tear things up as",
            "start": 384.84,
            "duration": 6.52
        },
        {
            "text": "as like C rust super rust C++ Zig super",
            "start": 387.319,
            "duration": 6.401
        },
        {
            "text": "fast I really do want to learn more Zig",
            "start": 391.36,
            "duration": 6.0
        },
        {
            "text": "uh then B languages are like go Java C",
            "start": 393.72,
            "duration": 5.759
        },
        {
            "text": "they're they're still pretty dang fast",
            "start": 397.36,
            "duration": 3.64
        },
        {
            "text": "but at the end of the day they still all",
            "start": 399.479,
            "duration": 2.84
        },
        {
            "text": "have garbage collectors like you can",
            "start": 401.0,
            "duration": 3.96
        },
        {
            "text": "only be so fast when you have a garbage",
            "start": 402.319,
            "duration": 4.841
        },
        {
            "text": "collector o camels also in this category",
            "start": 404.96,
            "duration": 3.88
        },
        {
            "text": "as well right and then you have your",
            "start": 407.16,
            "duration": 3.56
        },
        {
            "text": "like C tier languages which is which is",
            "start": 408.84,
            "duration": 4.68
        },
        {
            "text": "going to be pretty much it I mean it",
            "start": 410.72,
            "duration": 5.52
        },
        {
            "text": "should be Java py or JavaScript python",
            "start": 413.52,
            "duration": 6.399
        },
        {
            "text": "Ruby any of these but JavaScript has had",
            "start": 416.24,
            "duration": 5.92
        },
        {
            "text": "so many people focused on it that it's",
            "start": 419.919,
            "duration": 4.12
        },
        {
            "text": "become so much faster than all other",
            "start": 422.16,
            "duration": 3.64
        },
        {
            "text": "interpreted languages that it's like",
            "start": 424.039,
            "duration": 3.72
        },
        {
            "text": "your C tier is just JavaScript it's just",
            "start": 425.8,
            "duration": 3.399
        },
        {
            "text": "like how' this happen I'm not sure I",
            "start": 427.759,
            "duration": 2.481
        },
        {
            "text": "think I've said the word Java instead of",
            "start": 429.199,
            "duration": 2.601
        },
        {
            "text": "JavaScript like three times now and then",
            "start": 430.24,
            "duration": 3.48
        },
        {
            "text": "your D tier would be like these other",
            "start": 431.8,
            "duration": 4.679
        },
        {
            "text": "ones right as far as speed goes now",
            "start": 433.72,
            "duration": 4.08
        },
        {
            "text": "that's I don't know if that's a fair",
            "start": 436.479,
            "duration": 3.081
        },
        {
            "text": "take but in my head it's a fair take",
            "start": 437.8,
            "duration": 4.799
        },
        {
            "text": "JavaScript is full on D tier uh that's",
            "start": 439.56,
            "duration": 4.72
        },
        {
            "text": "just all there is assembly would be S",
            "start": 442.599,
            "duration": 2.961
        },
        {
            "text": "tier right because you can actually just",
            "start": 444.28,
            "duration": 2.68
        },
        {
            "text": "make it as fast as possible python is",
            "start": 445.56,
            "duration": 4.039
        },
        {
            "text": "slower than JS dude do a just do a loop",
            "start": 446.96,
            "duration": 5.4
        },
        {
            "text": "in Python okay python a language known",
            "start": 449.599,
            "duration": 4.921
        },
        {
            "text": "for not being good at for",
            "start": 452.36,
            "duration": 4.64
        },
        {
            "text": "Loops what do you what do you want me to",
            "start": 454.52,
            "duration": 4.119
        },
        {
            "text": "say about that python is one of the",
            "start": 457.0,
            "duration": 3.08
        },
        {
            "text": "greatest languages though python should",
            "start": 458.639,
            "duration": 4.721
        },
        {
            "text": "always be in your tuck on how to get",
            "start": 460.08,
            "duration": 5.76
        },
        {
            "text": "Chad GPT to write you python like that's",
            "start": 463.36,
            "duration": 5.279
        },
        {
            "text": "how that's I for me python is a chat",
            "start": 465.84,
            "duration": 5.56
        },
        {
            "text": "jity language it's great thank here",
            "start": 468.639,
            "duration": 5.201
        },
        {
            "text": "experience in C C++ Java and go they",
            "start": 471.4,
            "duration": 5.199
        },
        {
            "text": "have no idea what they're talking about",
            "start": 473.84,
            "duration": 5.0
        },
        {
            "text": "and this is the most upvoted answer with",
            "start": 476.599,
            "duration": 6.44
        },
        {
            "text": "6 5,000 views this is ridiculous cop is",
            "start": 478.84,
            "duration": 6.479
        },
        {
            "text": "crossplatform it is free you don't have",
            "start": 483.039,
            "duration": 5.28
        },
        {
            "text": "to pay anyone it runs anywhere from your",
            "start": 485.319,
            "duration": 5.921
        },
        {
            "text": "Raspberry Pi's to a Windows Server if",
            "start": 488.319,
            "duration": 4.88
        },
        {
            "text": "you want to all Linux or Mac and many",
            "start": 491.24,
            "duration": 3.639
        },
        {
            "text": "people that I know develop on Linux and",
            "start": 493.199,
            "duration": 4.761
        },
        {
            "text": "mac and they have a lot of free open",
            "start": 494.879,
            "duration": 4.961
        },
        {
            "text": "source Frameworks as well okay you can",
            "start": 497.96,
            "duration": 4.44
        },
        {
            "text": "do anything you want now some of the",
            "start": 499.84,
            "duration": 4.84
        },
        {
            "text": "best ones are made by Microsoft but",
            "start": 502.4,
            "duration": 4.56
        },
        {
            "text": "those are still free let's go to the",
            "start": 504.68,
            "duration": 4.0
        },
        {
            "text": "next one and this one is a Blog saying",
            "start": 506.96,
            "duration": 4.359
        },
        {
            "text": "Java vs python vs.net which one is the",
            "start": 508.68,
            "duration": 4.919
        },
        {
            "text": "best let's go to the pros and cons for",
            "start": 511.319,
            "duration": 4.321
        },
        {
            "text": "net and the prons are it supports great",
            "start": 513.599,
            "duration": 4.481
        },
        {
            "text": "third party languages Yes stable code",
            "start": 515.64,
            "duration": 5.56
        },
        {
            "text": "yes great community of experts indeed",
            "start": 518.08,
            "duration": 5.48
        },
        {
            "text": "the platform is highly productive true",
            "start": 521.2,
            "duration": 5.28
        },
        {
            "text": "you can do tons of things we like from",
            "start": 523.56,
            "duration": 6.6
        },
        {
            "text": "games to applications to Windows apps to",
            "start": 526.48,
            "duration": 6.359
        },
        {
            "text": "like anything you can do with net okay",
            "start": 530.16,
            "duration": 4.48
        },
        {
            "text": "the cons it often faces some issues",
            "start": 532.839,
            "duration": 4.961
        },
        {
            "text": "related to stability for new releases it",
            "start": 534.64,
            "duration": 7.4
        },
        {
            "text": "does not it just does it just does not",
            "start": 537.8,
            "duration": 5.96
        },
        {
            "text": "does anyone know what this issue is",
            "start": 542.04,
            "duration": 3.84
        },
        {
            "text": "referring to I've never really heard",
            "start": 543.76,
            "duration": 3.56
        },
        {
            "text": "about that and by the way quora is",
            "start": 545.88,
            "duration": 3.0
        },
        {
            "text": "terrible i've NE like one thing I've",
            "start": 547.32,
            "duration": 3.56
        },
        {
            "text": "never heard in my lifetime is that new",
            "start": 548.88,
            "duration": 4.36
        },
        {
            "text": "releases are not stable I've heard about",
            "start": 550.88,
            "duration": 4.56
        },
        {
            "text": "dll hell uh he is very offended and",
            "start": 553.24,
            "duration": 3.8
        },
        {
            "text": "limited object relational support",
            "start": 555.44,
            "duration": 3.76
        },
        {
            "text": "interesting isn't it's being scrutinized",
            "start": 557.04,
            "duration": 4.64
        },
        {
            "text": "before released to a ridiculous degree",
            "start": 559.2,
            "duration": 4.199
        },
        {
            "text": "and then limited object relational",
            "start": 561.68,
            "duration": 3.44
        },
        {
            "text": "support I'm assuming they're talking",
            "start": 563.399,
            "duration": 4.12
        },
        {
            "text": "about ORS like Entity framework is just",
            "start": 565.12,
            "duration": 4.8
        },
        {
            "text": "so good so I really don't understand",
            "start": 567.519,
            "duration": 3.88
        },
        {
            "text": "this Con and I'm not really going to",
            "start": 569.92,
            "duration": 3.24
        },
        {
            "text": "dive into the other ones because again",
            "start": 571.399,
            "duration": 3.601
        },
        {
            "text": "I'm not comparing here so the next one",
            "start": 573.16,
            "duration": 3.48
        },
        {
            "text": "is interesting it says is Java in the",
            "start": 575.0,
            "duration": 3.68
        },
        {
            "text": "jvm I think one thing we should all be",
            "start": 576.64,
            "duration": 4.759
        },
        {
            "text": "taking away here is that quora is a",
            "start": 578.68,
            "duration": 4.32
        },
        {
            "text": "horrible platform if you're going to",
            "start": 581.399,
            "duration": 4.12
        },
        {
            "text": "quora to find answers to things you've",
            "start": 583.0,
            "duration": 5.36
        },
        {
            "text": "already messed up okay that's that's",
            "start": 585.519,
            "duration": 4.681
        },
        {
            "text": "right now this is what I'm taking away",
            "start": 588.36,
            "duration": 4.28
        },
        {
            "text": "heavily from this video is maybe I don't",
            "start": 590.2,
            "duration": 4.68
        },
        {
            "text": "know csharp fair I already knew that was",
            "start": 592.64,
            "duration": 5.4
        },
        {
            "text": "happening but two you you you dumb",
            "start": 594.88,
            "duration": 5.04
        },
        {
            "text": "messed up blocky when when when you're",
            "start": 598.04,
            "duration": 3.239
        },
        {
            "text": "going to Quarry when you're going to",
            "start": 599.92,
            "duration": 3.919
        },
        {
            "text": "quora behind also I always think about",
            "start": 601.279,
            "duration": 5.081
        },
        {
            "text": "uh internet uh comment etiquette do you",
            "start": 603.839,
            "duration": 5.24
        },
        {
            "text": "know uh coneticut if you know that",
            "start": 606.36,
            "duration": 5.039
        },
        {
            "text": "YouTube channel it's so good it's so",
            "start": 609.079,
            "duration": 3.961
        },
        {
            "text": "good and he always goes to quora with",
            "start": 611.399,
            "duration": 4.56
        },
        {
            "text": "querious Betsy to ask the dumbest dude",
            "start": 613.04,
            "duration": 6.28
        },
        {
            "text": "just so good tshop fop and net with the",
            "start": 615.959,
            "duration": 6.161
        },
        {
            "text": "release of Net 5 and that was a year ago",
            "start": 619.32,
            "duration": 4.36
        },
        {
            "text": "at this point and the answer from the",
            "start": 622.12,
            "duration": 3.44
        },
        {
            "text": "first question is yes it was already far",
            "start": 623.68,
            "duration": 4.68
        },
        {
            "text": "behind and don't pushed it even further",
            "start": 625.56,
            "duration": 4.959
        },
        {
            "text": "okay let's not really address that",
            "start": 628.36,
            "duration": 4.719
        },
        {
            "text": "someone is defending Java and it's way",
            "start": 630.519,
            "duration": 4.241
        },
        {
            "text": "ahead but what I want to talk about is",
            "start": 633.079,
            "duration": 3.801
        },
        {
            "text": "the sentiment behind this comment the",
            "start": 634.76,
            "duration": 4.4
        },
        {
            "text": "fact that Java was already behind let's",
            "start": 636.88,
            "duration": 4.88
        },
        {
            "text": "see what Java is adding from java 8 to",
            "start": 639.16,
            "duration": 6.08
        },
        {
            "text": "Java 17 so if we go to the features yeah",
            "start": 641.76,
            "duration": 5.24
        },
        {
            "text": "and we go to like pattern matching for",
            "start": 645.24,
            "duration": 4.36
        },
        {
            "text": "switch this is a lift and shift one for",
            "start": 647.0,
            "duration": 4.68
        },
        {
            "text": "one actually it's a bit clanker because",
            "start": 649.6,
            "duration": 4.56
        },
        {
            "text": "it has a case here cop doesn't have it",
            "start": 651.68,
            "duration": 4.8
        },
        {
            "text": "but it's very much exactly how you do",
            "start": 654.16,
            "duration": 5.16
        },
        {
            "text": "pattern matching for s in cop do like",
            "start": 656.48,
            "duration": 4.159
        },
        {
            "text": "that lift and shift also this is a great",
            "start": 659.32,
            "duration": 3.04
        },
        {
            "text": "feature I'm very happy about this I'm",
            "start": 660.639,
            "duration": 3.721
        },
        {
            "text": "happy that Java is making good you know",
            "start": 662.36,
            "duration": 3.76
        },
        {
            "text": "inroads to more convenient I I think",
            "start": 664.36,
            "duration": 3.56
        },
        {
            "text": "pattern matching is probably the most",
            "start": 666.12,
            "duration": 3.959
        },
        {
            "text": "powerful and the greatest programming",
            "start": 667.92,
            "duration": 4.56
        },
        {
            "text": "language feature ever and I am not good",
            "start": 670.079,
            "duration": 4.521
        },
        {
            "text": "at it but every time I see someone solve",
            "start": 672.48,
            "duration": 4.32
        },
        {
            "text": "a problem with good pattern matching I",
            "start": 674.6,
            "duration": 4.76
        },
        {
            "text": "realized just like how stupid I am and",
            "start": 676.8,
            "duration": 5.24
        },
        {
            "text": "how amazing it is hard agree yeah there",
            "start": 679.36,
            "duration": 4.64
        },
        {
            "text": "literally is no greater I I am I",
            "start": 682.04,
            "duration": 3.479
        },
        {
            "text": "completely convinced of it at this point",
            "start": 684.0,
            "duration": 3.32
        },
        {
            "text": "that there is pretty much not a greater",
            "start": 685.519,
            "duration": 3.88
        },
        {
            "text": "programming problem solving than pattern",
            "start": 687.32,
            "duration": 3.639
        },
        {
            "text": "matching the the fact that this guy",
            "start": 689.399,
            "duration": 3.56
        },
        {
            "text": "reads core approves your opinion about c",
            "start": 690.959,
            "duration": 4.841
        },
        {
            "text": "not is not outdated shut up TJ I already",
            "start": 692.959,
            "duration": 4.921
        },
        {
            "text": "saw that did a few versions too and this",
            "start": 695.8,
            "duration": 4.36
        },
        {
            "text": "is still in preview in Java or you have",
            "start": 697.88,
            "duration": 4.56
        },
        {
            "text": "the sealed classes which you don't allow",
            "start": 700.16,
            "duration": 4.6
        },
        {
            "text": "anyone to inherit from that class cop",
            "start": 702.44,
            "duration": 4.839
        },
        {
            "text": "had it since forever it's been uh yeah",
            "start": 704.76,
            "duration": 5.12
        },
        {
            "text": "also also just first off the I I'm very",
            "start": 707.279,
            "duration": 4.481
        },
        {
            "text": "confused at abstract sealed class how do",
            "start": 709.88,
            "duration": 3.519
        },
        {
            "text": "you have an abstract class that no one",
            "start": 711.76,
            "duration": 3.04
        },
        {
            "text": "can inherit from isn't that like",
            "start": 713.399,
            "duration": 3.321
        },
        {
            "text": "fundamentally just broken I thought you",
            "start": 714.8,
            "duration": 4.4
        },
        {
            "text": "couldn't instantiate an abstract class",
            "start": 716.72,
            "duration": 4.32
        },
        {
            "text": "oh it permits oh it permits Circle",
            "start": 719.2,
            "duration": 3.6
        },
        {
            "text": "rectangle and square oh okay okay yeah",
            "start": 721.04,
            "duration": 2.68
        },
        {
            "text": "yeah yeah yeah yeah we already read",
            "start": 722.8,
            "duration": 2.88
        },
        {
            "text": "about this I knew about that uh also I",
            "start": 723.72,
            "duration": 3.919
        },
        {
            "text": "hate I hate this I just want everybody",
            "start": 725.68,
            "duration": 3.68
        },
        {
            "text": "to know that I hate this uh the reason",
            "start": 727.639,
            "duration": 5.281
        },
        {
            "text": "why I hate this is that saying who can",
            "start": 729.36,
            "duration": 6.479
        },
        {
            "text": "use you at the point of Declaration just",
            "start": 732.92,
            "duration": 5.76
        },
        {
            "text": "seems like such a weird inverted way to",
            "start": 735.839,
            "duration": 5.961
        },
        {
            "text": "program like you have to know everything",
            "start": 738.68,
            "duration": 5.159
        },
        {
            "text": "you have to know everything about you",
            "start": 741.8,
            "duration": 3.92
        },
        {
            "text": "like this just seems like make this an",
            "start": 743.839,
            "duration": 4.641
        },
        {
            "text": "interface It Feels So backwards this is",
            "start": 745.72,
            "duration": 4.84
        },
        {
            "text": "asp pennies straight up ass pennies been",
            "start": 748.48,
            "duration": 4.599
        },
        {
            "text": "in preview for two versions and GA Now",
            "start": 750.56,
            "duration": 5.639
        },
        {
            "text": "record type we added that a version ago",
            "start": 753.079,
            "duration": 6.401
        },
        {
            "text": "likeing for instance off to say if is",
            "start": 756.199,
            "duration": 8.32
        },
        {
            "text": "instance off string cop says X is string",
            "start": 759.48,
            "duration": 6.84
        },
        {
            "text": "all these features that effectively yeah",
            "start": 764.519,
            "duration": 4.0
        },
        {
            "text": "switch Expressions same thing cop had it",
            "start": 766.32,
            "duration": 4.199
        },
        {
            "text": "for a while and actually implementation",
            "start": 768.519,
            "duration": 3.44
        },
        {
            "text": "go back a little bit I actually first",
            "start": 770.519,
            "duration": 2.601
        },
        {
            "text": "off I know this is supposed to be about",
            "start": 771.959,
            "duration": 3.32
        },
        {
            "text": "C but I'm happy that Java has this this",
            "start": 773.12,
            "duration": 3.719
        },
        {
            "text": "is great A little pattern matching with",
            "start": 775.279,
            "duration": 3.8
        },
        {
            "text": "instance of that's cool that's that's",
            "start": 776.839,
            "duration": 4.281
        },
        {
            "text": "super cool let's go like that's good I",
            "start": 779.079,
            "duration": 3.521
        },
        {
            "text": "like what I'm seeing that effectively",
            "start": 781.12,
            "duration": 3.719
        },
        {
            "text": "yeah switch Expressions same thing C had",
            "start": 782.6,
            "duration": 3.52
        },
        {
            "text": "it for a while and actually",
            "start": 784.839,
            "duration": 4.161
        },
        {
            "text": "implementations look one for one so at",
            "start": 786.12,
            "duration": 4.8
        },
        {
            "text": "this point making arguments about",
            "start": 789.0,
            "duration": 3.88
        },
        {
            "text": "language design doesn't make sense and",
            "start": 790.92,
            "duration": 3.56
        },
        {
            "text": "then you know the other one is C better",
            "start": 792.88,
            "duration": 5.92
        },
        {
            "text": "than Java in 2019 and the first 1 3.7",
            "start": 794.48,
            "duration": 7.12
        },
        {
            "text": "th000 views and the commenter says Java",
            "start": 798.8,
            "duration": 5.08
        },
        {
            "text": "is both language and runtime and",
            "start": 801.6,
            "duration": 4.359
        },
        {
            "text": "environment is better no I've actually",
            "start": 803.88,
            "duration": 3.68
        },
        {
            "text": "never heard anyone say that people that",
            "start": 805.959,
            "duration": 4.081
        },
        {
            "text": "I respect a lot in the world of",
            "start": 807.56,
            "duration": 4.76
        },
        {
            "text": "programming have all said that Java has",
            "start": 810.04,
            "duration": 4.56
        },
        {
            "text": "a horrible environment that yes it is",
            "start": 812.32,
            "duration": 4.319
        },
        {
            "text": "more used in kind of like cooler",
            "start": 814.6,
            "duration": 4.84
        },
        {
            "text": "companies but man to get started in Java",
            "start": 816.639,
            "duration": 7.041
        },
        {
            "text": "is like a nightmare versus C aware Maven",
            "start": 819.44,
            "duration": 6.32
        },
        {
            "text": "I it's just you don't like Maven no I",
            "start": 823.68,
            "duration": 4.44
        },
        {
            "text": "don't I don't like Maven Maven and",
            "start": 825.76,
            "duration": 5.16
        },
        {
            "text": "Gradle you can Gradle these nuts okay",
            "start": 828.12,
            "duration": 6.24
        },
        {
            "text": "Facts of Life in a run time the jvm is",
            "start": 830.92,
            "duration": 5.599
        },
        {
            "text": "the runtime Java is the language and",
            "start": 834.36,
            "duration": 4.0
        },
        {
            "text": "many things can compile to bite code",
            "start": 836.519,
            "duration": 4.32
        },
        {
            "text": "which is what the jvm will run similar",
            "start": 838.36,
            "duration": 4.719
        },
        {
            "text": "to groovy or cotlin or whatever anyway",
            "start": 840.839,
            "duration": 4.281
        },
        {
            "text": "groovy mentioned let's go and there is",
            "start": 843.079,
            "duration": 3.921
        },
        {
            "text": "no second class CI and version of Java",
            "start": 845.12,
            "duration": 3.68
        },
        {
            "text": "on different platforms as it happens in",
            "start": 847.0,
            "duration": 3.759
        },
        {
            "text": "net I'm assuming they're referring to",
            "start": 848.8,
            "duration": 5.32
        },
        {
            "text": "Mono this is 2019 by that time we had",
            "start": 850.759,
            "duration": 6.88
        },
        {
            "text": "net 3.1 I think and that was like fully",
            "start": 854.12,
            "duration": 5.6
        },
        {
            "text": "crossplatform you can run it anywhere",
            "start": 857.639,
            "duration": 4.281
        },
        {
            "text": "and in fact it might even perform faster",
            "start": 859.72,
            "duration": 4.52
        },
        {
            "text": "in Linux so I don't know what they're R",
            "start": 861.92,
            "duration": 4.279
        },
        {
            "text": "about and then Java's compilation and",
            "start": 864.24,
            "duration": 3.8
        },
        {
            "text": "optimization happened you heard it here",
            "start": 866.199,
            "duration": 4.961
        },
        {
            "text": "first folks C Windows language runs",
            "start": 868.04,
            "duration": 5.239
        },
        {
            "text": "faster on Linux for years now years",
            "start": 871.16,
            "duration": 4.359
        },
        {
            "text": "absolute years this is great at run time",
            "start": 873.279,
            "duration": 6.321
        },
        {
            "text": "not before as with net and cop no Java",
            "start": 875.519,
            "duration": 6.841
        },
        {
            "text": "similar to net will compile to bite code",
            "start": 879.6,
            "duration": 5.239
        },
        {
            "text": "or Intermediate Language code for net",
            "start": 882.36,
            "duration": 3.839
        },
        {
            "text": "and that will be the first stage of",
            "start": 884.839,
            "duration": 3.24
        },
        {
            "text": "compilation and then there's a jit",
            "start": 886.199,
            "duration": 4.041
        },
        {
            "text": "compiler that happens in runtime for",
            "start": 888.079,
            "duration": 5.161
        },
        {
            "text": "both the jvm and the CLR our own version",
            "start": 890.24,
            "duration": 6.36
        },
        {
            "text": "of the VM which will also optimize that",
            "start": 893.24,
            "duration": 6.08
        },
        {
            "text": "even further so the the argument",
            "start": 896.6,
            "duration": 5.12
        },
        {
            "text": "programmer for 40 years isn't really",
            "start": 899.32,
            "duration": 5.24
        },
        {
            "text": "strong please don't leave comments like",
            "start": 901.72,
            "duration": 5.2
        },
        {
            "text": "this if you are not proficient in both",
            "start": 904.56,
            "duration": 4.36
        },
        {
            "text": "languages and there's other comments as",
            "start": 906.92,
            "duration": 3.44
        },
        {
            "text": "well saying that net is not",
            "start": 908.92,
            "duration": 3.0
        },
        {
            "text": "crossplatform or cop is not",
            "start": 910.36,
            "duration": 4.599
        },
        {
            "text": "crossplatform that's not true the aspet",
            "start": 911.92,
            "duration": 5.2
        },
        {
            "text": "core framework as you can see fully",
            "start": 914.959,
            "duration": 4.161
        },
        {
            "text": "crossplatform here anything you want can",
            "start": 917.12,
            "duration": 4.8
        },
        {
            "text": "be found here same with the runtime you",
            "start": 919.12,
            "duration": 4.44
        },
        {
            "text": "can found it here it's fully",
            "start": 921.92,
            "duration": 3.839
        },
        {
            "text": "crossplatform and I think there's I mean",
            "start": 923.56,
            "duration": 5.199
        },
        {
            "text": "I know I on c a lot I think C is is",
            "start": 925.759,
            "duration": 4.961
        },
        {
            "text": "a pretty wonderful language there fine",
            "start": 928.759,
            "duration": 3.241
        },
        {
            "text": "I'll say it I'm saying it I'm going to",
            "start": 930.72,
            "duration": 3.479
        },
        {
            "text": "say it I understand that c wasn't truly",
            "start": 932.0,
            "duration": 3.92
        },
        {
            "text": "cross- platformed back in the day it was",
            "start": 934.199,
            "duration": 3.64
        },
        {
            "text": "a really it was a it was a piece of",
            "start": 935.92,
            "duration": 4.479
        },
        {
            "text": " for a long time I I I knew a lot of",
            "start": 937.839,
            "duration": 4.12
        },
        {
            "text": "people that tried to make it work it's",
            "start": 940.399,
            "duration": 4.0
        },
        {
            "text": "just not great um C has a lot of great",
            "start": 941.959,
            "duration": 4.32
        },
        {
            "text": "language features for being I'm just",
            "start": 944.399,
            "duration": 4.401
        },
        {
            "text": "going to be real for being a Java clone",
            "start": 946.279,
            "duration": 5.36
        },
        {
            "text": "C did it better",
            "start": 948.8,
            "duration": 5.279
        },
        {
            "text": "okay somebody tell me I'm wrong if you",
            "start": 951.639,
            "duration": 5.841
        },
        {
            "text": "had to work in either C or Java I would",
            "start": 954.079,
            "duration": 6.44
        },
        {
            "text": "pretty much choose C if I could fully be",
            "start": 957.48,
            "duration": 4.64
        },
        {
            "text": "on Linux people going to hate that tweet",
            "start": 960.519,
            "duration": 3.12
        },
        {
            "text": "let's do it let's absolutely do it",
            "start": 962.12,
            "duration": 3.92
        },
        {
            "text": "people are going to hate this tweet",
            "start": 963.639,
            "duration": 4.241
        },
        {
            "text": "people going to hate this tweet but",
            "start": 966.04,
            "duration": 3.599
        },
        {
            "text": "we're doing it we're doing it we're",
            "start": 967.88,
            "duration": 5.439
        },
        {
            "text": "doing it C sharp is greater than Java",
            "start": 969.639,
            "duration": 7.521
        },
        {
            "text": "post it shambles tears tears of Rage",
            "start": 973.319,
            "duration": 5.281
        },
        {
            "text": "cannot wait for I cannot wait for the",
            "start": 977.16,
            "duration": 3.32
        },
        {
            "text": "Fallout of this tweet I actually cannot",
            "start": 978.6,
            "duration": 3.4
        },
        {
            "text": "wait what am I losing a thousand",
            "start": 980.48,
            "duration": 3.4
        },
        {
            "text": "followers on this one it's going to be",
            "start": 982.0,
            "duration": 4.319
        },
        {
            "text": "so dang",
            "start": 983.88,
            "duration": 5.24
        },
        {
            "text": "good we're very very excited about this",
            "start": 986.319,
            "duration": 4.801
        },
        {
            "text": "I'm very very excited is that even a hot",
            "start": 989.12,
            "duration": 4.719
        },
        {
            "text": "take people get people get flustered",
            "start": 991.12,
            "duration": 5.04
        },
        {
            "text": "okay people get genuinely chapped when",
            "start": 993.839,
            "duration": 3.961
        },
        {
            "text": "these kind of things happen bait thrown",
            "start": 996.16,
            "duration": 3.159
        },
        {
            "text": "oh yeah oh yeah all right let's keep on",
            "start": 997.8,
            "duration": 3.0
        },
        {
            "text": "going and in fact if you want to very",
            "start": 999.319,
            "duration": 3.121
        },
        {
            "text": "easily and quickly search for some",
            "start": 1000.8,
            "duration": 4.599
        },
        {
            "text": "source code you just go at source do",
            "start": 1002.44,
            "duration": 6.0
        },
        {
            "text": "dot.net that's a stupid name anyway and",
            "start": 1005.399,
            "duration": 4.56
        },
        {
            "text": "you can search",
            "start": 1008.44,
            "duration": 7.079
        },
        {
            "text": "like Source dot dot.net",
            "start": 1009.959,
            "duration": 5.56
        },
        {
            "text": "oh that was so good",
            "start": 1016.8,
            "duration": 4.56
        },
        {
            "text": "oh that was so good that was just so",
            "start": 1019.04,
            "duration": 4.68
        },
        {
            "text": "good I loved it I love that password",
            "start": 1021.36,
            "duration": 4.479
        },
        {
            "text": "hasher to see how net is doing password",
            "start": 1023.72,
            "duration": 4.56
        },
        {
            "text": "hashing by default and you can see all",
            "start": 1025.839,
            "duration": 6.84
        },
        {
            "text": "the code here it's all open so file as",
            "start": 1028.28,
            "duration": 5.799
        },
        {
            "text": "well if you just click on that it takes",
            "start": 1032.679,
            "duration": 3.601
        },
        {
            "text": "you to like is this kind like chromium",
            "start": 1034.079,
            "duration": 3.72
        },
        {
            "text": "now for those of you who don't know um",
            "start": 1036.28,
            "duration": 4.32
        },
        {
            "text": "in stock overflows 2021 survey as net",
            "start": 1037.799,
            "duration": 4.681
        },
        {
            "text": "core came second as the most loved",
            "start": 1040.6,
            "duration": 5.239
        },
        {
            "text": "framework a little bit under spelt and",
            "start": 1042.48,
            "duration": 6.36
        },
        {
            "text": "spelt had only 1,000 responders so",
            "start": 1045.839,
            "duration": 5.161
        },
        {
            "text": "really it was very high higher than",
            "start": 1048.84,
            "duration": 3.68
        },
        {
            "text": "react higher than Express higher than",
            "start": 1051.0,
            "duration": 3.6
        },
        {
            "text": "spring so clearly people like what",
            "start": 1052.52,
            "duration": 3.8
        },
        {
            "text": "rigged election stopped account react",
            "start": 1054.6,
            "duration": 5.0
        },
        {
            "text": "69% easy yep jQuery okay so here's one",
            "start": 1056.32,
            "duration": 4.719
        },
        {
            "text": "problem I have can we all just take a",
            "start": 1059.6,
            "duration": 3.48
        },
        {
            "text": "step back for a second spelt a rendering",
            "start": 1061.039,
            "duration": 5.121
        },
        {
            "text": "View Library ASP core and asp.net core",
            "start": 1063.08,
            "duration": 4.479
        },
        {
            "text": "I'm not sure if that's a rendering View",
            "start": 1066.16,
            "duration": 3.96
        },
        {
            "text": "Library for the web API fast API I don't",
            "start": 1067.559,
            "duration": 4.041
        },
        {
            "text": "believe this has anything to do with the",
            "start": 1070.12,
            "duration": 3.76
        },
        {
            "text": "web it has to do with servers reactjs",
            "start": 1071.6,
            "duration": 4.559
        },
        {
            "text": "okay this is okay okay we got this",
            "start": 1073.88,
            "duration": 3.84
        },
        {
            "text": "spring okay this is like spring and",
            "start": 1076.159,
            "duration": 3.361
        },
        {
            "text": "react being in the same category bothers",
            "start": 1077.72,
            "duration": 3.72
        },
        {
            "text": "me can can we all agree that spring and",
            "start": 1079.52,
            "duration": 4.279
        },
        {
            "text": "react in the same category is is is",
            "start": 1081.44,
            "duration": 5.52
        },
        {
            "text": "bothersome Min minimum minimum Ruby on",
            "start": 1083.799,
            "duration": 7.12
        },
        {
            "text": "Rails what Laurel what por Maria like",
            "start": 1086.96,
            "duration": 5.24
        },
        {
            "text": "none of this makes any sense then all",
            "start": 1090.919,
            "duration": 3.0
        },
        {
            "text": "the way down here Jay Query the fact",
            "start": 1092.2,
            "duration": 7.16
        },
        {
            "text": "that jQuery LEL spring react and asp.net",
            "start": 1093.919,
            "duration": 9.201
        },
        {
            "text": "core are on the same graph means this",
            "start": 1099.36,
            "duration": 6.6
        },
        {
            "text": "survey makes no sense okay this is a",
            "start": 1103.12,
            "duration": 4.679
        },
        {
            "text": "rigged election commies are taking over",
            "start": 1105.96,
            "duration": 3.12
        },
        {
            "text": "and what I want to is I want to go to",
            "start": 1107.799,
            "duration": 4.081
        },
        {
            "text": "the tech empowered benchmarks which are",
            "start": 1109.08,
            "duration": 4.839
        },
        {
            "text": "public benchmarks third party it's not",
            "start": 1111.88,
            "duration": 4.48
        },
        {
            "text": "by Microsoft they Benchmark a bunch of",
            "start": 1113.919,
            "duration": 5.481
        },
        {
            "text": "different Tech from rust to C++ to Java",
            "start": 1116.36,
            "duration": 5.76
        },
        {
            "text": "to cop to everything and we can see the",
            "start": 1119.4,
            "duration": 5.399
        },
        {
            "text": "plain text um web server responses and",
            "start": 1122.12,
            "duration": 4.08
        },
        {
            "text": "how many requests per second this thing",
            "start": 1124.799,
            "duration": 3.481
        },
        {
            "text": "can do and as you can see we have 7",
            "start": 1126.2,
            "duration": 4.56
        },
        {
            "text": "million here it's the by the way I hate",
            "start": 1128.28,
            "duration": 5.44
        },
        {
            "text": "this this has been so known to be gamed",
            "start": 1130.76,
            "duration": 5.24
        },
        {
            "text": "this is this website is by far one of",
            "start": 1133.72,
            "duration": 4.64
        },
        {
            "text": "the most misleading websites of all time",
            "start": 1136.0,
            "duration": 3.84
        },
        {
            "text": "like you go and you go into some of",
            "start": 1138.36,
            "duration": 3.48
        },
        {
            "text": "these uh sources people have it like",
            "start": 1139.84,
            "duration": 4.719
        },
        {
            "text": "pre-programmed into it to be to to be",
            "start": 1141.84,
            "duration": 4.079
        },
        {
            "text": "exactly what they want like there's like",
            "start": 1144.559,
            "duration": 3.561
        },
        {
            "text": "a series of things you have to do it is",
            "start": 1145.919,
            "duration": 4.521
        },
        {
            "text": "it is this is one of the just the worst",
            "start": 1148.12,
            "duration": 4.2
        },
        {
            "text": "possibilities it really it truly is",
            "start": 1150.44,
            "duration": 4.64
        },
        {
            "text": "because what you do is you optimize your",
            "start": 1152.32,
            "duration": 5.28
        },
        {
            "text": "framework for this one stupid better",
            "start": 1155.08,
            "duration": 4.52
        },
        {
            "text": "performance test and then when you",
            "start": 1157.6,
            "duration": 3.76
        },
        {
            "text": "actually write an application it's dog",
            "start": 1159.6,
            "duration": 3.4
        },
        {
            "text": "water like that's the problem that's",
            "start": 1161.36,
            "duration": 4.12
        },
        {
            "text": "like the truest problem is that real",
            "start": 1163.0,
            "duration": 4.72
        },
        {
            "text": "code does not behave the same as these",
            "start": 1165.48,
            "duration": 5.319
        },
        {
            "text": "toys EX examples it's super misleading",
            "start": 1167.72,
            "duration": 5.6
        },
        {
            "text": "second most performing under PV I don't",
            "start": 1170.799,
            "duration": 5.801
        },
        {
            "text": "know anyone using PCO or the V language",
            "start": 1173.32,
            "duration": 5.32
        },
        {
            "text": "and by the way how do you how do I know",
            "start": 1176.6,
            "duration": 4.76
        },
        {
            "text": "cuz just JS is",
            "start": 1178.64,
            "duration": 6.72
        },
        {
            "text": "99.6% okay p and Maria right that's a",
            "start": 1181.36,
            "duration": 6.12
        },
        {
            "text": "micro framework ignore it as you can see",
            "start": 1185.36,
            "duration": 4.64
        },
        {
            "text": "it performs faster than anything else",
            "start": 1187.48,
            "duration": 6.6
        },
        {
            "text": "faster than Java C++ rust anything of",
            "start": 1190.0,
            "duration": 5.64
        },
        {
            "text": "course this is just plain Tech so it's",
            "start": 1194.08,
            "duration": 3.44
        },
        {
            "text": "just effectively testing the web server",
            "start": 1195.64,
            "duration": 3.76
        },
        {
            "text": "but if you go to other examples like",
            "start": 1197.52,
            "duration": 4.039
        },
        {
            "text": "let's say Json sterilization and you",
            "start": 1199.4,
            "duration": 5.279
        },
        {
            "text": "search for ASP core it's still pretty",
            "start": 1201.559,
            "duration": 4.801
        },
        {
            "text": "high because if you search for something",
            "start": 1204.679,
            "duration": 3.041
        },
        {
            "text": "like",
            "start": 1206.36,
            "duration": 4.88
        },
        {
            "text": "nodejs that's 45,000 request this is",
            "start": 1207.72,
            "duration": 4.76
        },
        {
            "text": "interesting because I'm pretty sure",
            "start": 1211.24,
            "duration": 4.08
        },
        {
            "text": "nodejs actually parses jonon the fastest",
            "start": 1212.48,
            "duration": 4.92
        },
        {
            "text": "what this is what this really points to",
            "start": 1215.32,
            "duration": 4.28
        },
        {
            "text": "is likely garbage collection or some",
            "start": 1217.4,
            "duration": 4.08
        },
        {
            "text": "other thing going on here I'm more",
            "start": 1219.6,
            "duration": 3.84
        },
        {
            "text": "curious about what's happening here cuz",
            "start": 1221.48,
            "duration": 3.88
        },
        {
            "text": "I mean it's impressive that ASP has",
            "start": 1223.44,
            "duration": 3.68
        },
        {
            "text": "beaten it but still at the end of the",
            "start": 1225.36,
            "duration": 3.24
        },
        {
            "text": "day at the end of the day i' would also",
            "start": 1227.12,
            "duration": 3.24
        },
        {
            "text": "like to you know I'd be very curious if",
            "start": 1228.6,
            "duration": 2.959
        },
        {
            "text": "the code actually is doing what it's",
            "start": 1230.36,
            "duration": 3.48
        },
        {
            "text": "supposed to do just per second while as",
            "start": 1231.559,
            "duration": 4.761
        },
        {
            "text": "core strong cop if we go all the way up",
            "start": 1233.84,
            "duration": 5.839
        },
        {
            "text": "it's 160 almost and then if you go to",
            "start": 1236.32,
            "duration": 5.32
        },
        {
            "text": "the single query test as well you can",
            "start": 1239.679,
            "duration": 5.281
        },
        {
            "text": "see that ASP core is still very very",
            "start": 1241.64,
            "duration": 4.88
        },
        {
            "text": "high and if we go to compare that with",
            "start": 1244.96,
            "duration": 4.16
        },
        {
            "text": "something like spring with web fla",
            "start": 1246.52,
            "duration": 4.72
        },
        {
            "text": "that's 18,000 requests per second and if",
            "start": 1249.12,
            "duration": 6.08
        },
        {
            "text": "we go with RW spring that's 14 it's very",
            "start": 1251.24,
            "duration": 6.559
        },
        {
            "text": "performant very efficient very fast this",
            "start": 1255.2,
            "duration": 4.839
        },
        {
            "text": "isn't to say that you should use cop and",
            "start": 1257.799,
            "duration": 5.36
        },
        {
            "text": "net this is to say that's how things are",
            "start": 1260.039,
            "duration": 6.041
        },
        {
            "text": "in 2021 also I just think that it's it's",
            "start": 1263.159,
            "duration": 5.361
        },
        {
            "text": "all just by the way if you are",
            "start": 1266.08,
            "duration": 4.079
        },
        {
            "text": "basing how fast things are going to run",
            "start": 1268.52,
            "duration": 3.759
        },
        {
            "text": "based off of these really tiny teeny",
            "start": 1270.159,
            "duration": 4.52
        },
        {
            "text": "tiny little little little items it's not",
            "start": 1272.279,
            "duration": 4.241
        },
        {
            "text": "that great okay because your server",
            "start": 1274.679,
            "duration": 3.641
        },
        {
            "text": "doesn't do this your server isn't just",
            "start": 1276.52,
            "duration": 4.56
        },
        {
            "text": "simply a same text hello world responder",
            "start": 1278.32,
            "duration": 4.28
        },
        {
            "text": "okay your server does things it looks up",
            "start": 1281.08,
            "duration": 3.12
        },
        {
            "text": "stuff it has many requests performing it",
            "start": 1282.6,
            "duration": 3.52
        },
        {
            "text": "does authentication it does a bunch of",
            "start": 1284.2,
            "duration": 3.4
        },
        {
            "text": "stuff and So for anybody to think that",
            "start": 1286.12,
            "duration": 3.039
        },
        {
            "text": "these two are the same or that this",
            "start": 1287.6,
            "duration": 3.199
        },
        {
            "text": "actually has any indication into",
            "start": 1289.159,
            "duration": 4.321
        },
        {
            "text": "anything about how fast it is it's just",
            "start": 1290.799,
            "duration": 4.88
        },
        {
            "text": "copium it's just pure copium stop",
            "start": 1293.48,
            "duration": 3.799
        },
        {
            "text": "looking at these kind of tests they they",
            "start": 1295.679,
            "duration": 3.281
        },
        {
            "text": "mean nothing they literally mean nothing",
            "start": 1297.279,
            "duration": 3.561
        },
        {
            "text": "please update your opinion about the",
            "start": 1298.96,
            "duration": 3.92
        },
        {
            "text": "language you don't have to use it but at",
            "start": 1300.84,
            "duration": 4.12
        },
        {
            "text": "least when it comes time to talk about",
            "start": 1302.88,
            "duration": 4.56
        },
        {
            "text": "it understand what the state of the",
            "start": 1304.96,
            "duration": 4.48
        },
        {
            "text": "language and the Frameworks are well",
            "start": 1307.44,
            "duration": 3.239
        },
        {
            "text": "that's all I have for you for this video",
            "start": 1309.44,
            "duration": 3.239
        },
        {
            "text": "thank you very much for watching special",
            "start": 1310.679,
            "duration": 3.36
        },
        {
            "text": "thanks to my patreons for making this",
            "start": 1312.679,
            "duration": 3.0
        },
        {
            "text": "videos possible if you want to support",
            "start": 1314.039,
            "duration": 2.681
        },
        {
            "text": "me as well you're going to find a link",
            "start": 1315.679,
            "duration": 2.721
        },
        {
            "text": "in the description down below leave a",
            "start": 1316.72,
            "duration": 3.0
        },
        {
            "text": "like if you like this video subscribe",
            "start": 1318.4,
            "duration": 2.399
        },
        {
            "text": "for more content like this turning the",
            "start": 1319.72,
            "duration": 2.559
        },
        {
            "text": "Bell as well and I'll see you in the",
            "start": 1320.799,
            "duration": 4.401
        },
        {
            "text": "next video keep coding actually there's",
            "start": 1322.279,
            "duration": 4.081
        },
        {
            "text": "a lot of things I really liked about",
            "start": 1325.2,
            "duration": 2.52
        },
        {
            "text": "this video I think something I really",
            "start": 1326.36,
            "duration": 2.72
        },
        {
            "text": "liked about this video is that really",
            "start": 1327.72,
            "duration": 2.92
        },
        {
            "text": "what it goes to show is two two very",
            "start": 1329.08,
            "duration": 3.64
        },
        {
            "text": "important things one when you have a",
            "start": 1330.64,
            "duration": 3.84
        },
        {
            "text": "perception of something when you read",
            "start": 1332.72,
            "duration": 3.28
        },
        {
            "text": "something that's incorrect about it but",
            "start": 1334.48,
            "duration": 3.12
        },
        {
            "text": "it fulfills your perception you will",
            "start": 1336.0,
            "duration": 3.88
        },
        {
            "text": "assume it's correct and number two quora",
            "start": 1337.6,
            "duration": 4.079
        },
        {
            "text": "is the worst place ever to go for",
            "start": 1339.88,
            "duration": 3.96
        },
        {
            "text": "answers ever like just don't go to quora",
            "start": 1341.679,
            "duration": 4.48
        },
        {
            "text": "why are you going to quora stop going to",
            "start": 1343.84,
            "duration": 4.68
        },
        {
            "text": "quora people okay it's Terri",
            "start": 1346.159,
            "duration": 7.921
        },
        {
            "text": "stop it stop it why what por Maria okay",
            "start": 1348.52,
            "duration": 8.279
        },
        {
            "text": "third can you believe that qu CEO is on",
            "start": 1354.08,
            "duration": 5.24
        },
        {
            "text": "open ai's board and after the",
            "start": 1356.799,
            "duration": 4.76
        },
        {
            "text": "overthrowing of Sam Alman he remains on",
            "start": 1359.32,
            "duration": 4.239
        },
        {
            "text": "the board okay I don't trust any of it",
            "start": 1361.559,
            "duration": 3.681
        },
        {
            "text": "okay I don't trust quora I don't trust",
            "start": 1363.559,
            "duration": 3.681
        },
        {
            "text": "open Ai and I don't trust the answers on",
            "start": 1365.24,
            "duration": 4.76
        },
        {
            "text": "quora okay everything seems dangerous",
            "start": 1367.24,
            "duration": 3.88
        },
        {
            "text": "here and I don't like I don't like it",
            "start": 1370.0,
            "duration": 2.679
        },
        {
            "text": "one bit I don't like it at all which",
            "start": 1371.12,
            "duration": 2.96
        },
        {
            "text": "also makes me think maybe we should get",
            "start": 1372.679,
            "duration": 3.561
        },
        {
            "text": "a a whole Army of people putting bad",
            "start": 1374.08,
            "duration": 3.68
        },
        {
            "text": "information into quora wait that already",
            "start": 1376.24,
            "duration": 3.28
        },
        {
            "text": "happened happens dear God is our AI",
            "start": 1377.76,
            "duration": 4.6
        },
        {
            "text": "trained on quora",
            "start": 1379.52,
            "duration": 2.84
        },
        {
            "text": "data oh",
            "start": 1392.76,
            "duration": 5.56
        },
        {
            "text": "the the future is doomed I'm a Doomer",
            "start": 1395.08,
            "duration": 5.199
        },
        {
            "text": "I'm a Doomer as of officially I'm a",
            "start": 1398.32,
            "duration": 6.959
        },
        {
            "text": "Doomer I am a Doomer now oh no oh",
            "start": 1400.279,
            "duration": 8.561
        },
        {
            "text": "no a jam",
            "start": 1405.279,
            "duration": 3.561
        }
    ],
    "stats": {
        "viewCount": "234911",
        "likeCount": "7276",
        "favoriteCount": "0",
        "commentCount": "1036"
    }
}