{
    "id": "G_0lVQebo48",
    "title": "Neovim Is a Waste Of Time, And I LOVE It | Prime Reacts",
    "publishedAt": "2023-11-07T14:00:10Z",
    "captions": [
        {
            "text": "NE is driving me crazy but I can't stop",
            "start": 0.839,
            "duration": 5.241
        },
        {
            "text": "can't stop won't stop never stop",
            "start": 4.68,
            "duration": 3.52
        },
        {
            "text": "stopping I never thought anyone could",
            "start": 6.08,
            "duration": 3.479
        },
        {
            "text": "become addicted to configuring a",
            "start": 8.2,
            "duration": 3.08
        },
        {
            "text": "terminal based text editor but here we",
            "start": 9.559,
            "duration": 4.24
        },
        {
            "text": "are if you have an addictive personality",
            "start": 11.28,
            "duration": 3.88
        },
        {
            "text": "I suggest you read this post with",
            "start": 13.799,
            "duration": 3.32
        },
        {
            "text": "caution and let it serve as a warning",
            "start": 15.16,
            "duration": 4.199
        },
        {
            "text": "sign not as an encouragement this is",
            "start": 17.119,
            "duration": 3.841
        },
        {
            "text": "about my first few weeks of trying to",
            "start": 19.359,
            "duration": 3.601
        },
        {
            "text": "configure neovim and the emotional",
            "start": 20.96,
            "duration": 5.319
        },
        {
            "text": "damage it caused me oh boy this is going",
            "start": 22.96,
            "duration": 6.36
        },
        {
            "text": "to be a good one I can feel it I can",
            "start": 26.279,
            "duration": 5.361
        },
        {
            "text": "feel it in bones people you know the",
            "start": 29.32,
            "duration": 3.64
        },
        {
            "text": "best part about these articles is that",
            "start": 31.64,
            "duration": 3.919
        },
        {
            "text": "they start off good and they end good",
            "start": 32.96,
            "duration": 4.48
        },
        {
            "text": "right it's not just you don't just like",
            "start": 35.559,
            "duration": 3.641
        },
        {
            "text": "start off on a banger and then slowly",
            "start": 37.44,
            "duration": 3.84
        },
        {
            "text": "fall apart it's going to be good all the",
            "start": 39.2,
            "duration": 4.24
        },
        {
            "text": "way through and I'm excited I've been",
            "start": 41.28,
            "duration": 4.88
        },
        {
            "text": "using vs code for many years and I have",
            "start": 43.44,
            "duration": 5.36
        },
        {
            "text": "been very very happy with it okay this",
            "start": 46.16,
            "duration": 5.039
        },
        {
            "text": "is the start of tragedy here it comes",
            "start": 48.8,
            "duration": 4.32
        },
        {
            "text": "it's a lot faster and lighter than IDE",
            "start": 51.199,
            "duration": 3.641
        },
        {
            "text": "like Visual Studio or pie charm and it",
            "start": 53.12,
            "duration": 3.04
        },
        {
            "text": "has extensions for every single little",
            "start": 54.84,
            "duration": 3.12
        },
        {
            "text": "thing you can think of and it just lets",
            "start": 56.16,
            "duration": 4.359
        },
        {
            "text": "me do work fast and well this is true",
            "start": 57.96,
            "duration": 4.36
        },
        {
            "text": "but as you every time you add an",
            "start": 60.519,
            "duration": 4.64
        },
        {
            "text": "extension it gets a little slower I",
            "start": 62.32,
            "duration": 4.36
        },
        {
            "text": "started recently watching the prime",
            "start": 65.159,
            "duration": 4.721
        },
        {
            "text": "mention I got a mention and found them",
            "start": 66.68,
            "duration": 5.04
        },
        {
            "text": "extremely entertainting Prime is like a",
            "start": 69.88,
            "duration": 4.84
        },
        {
            "text": "less cheesy version of doctor disrespect",
            "start": 71.72,
            "duration": 5.6
        },
        {
            "text": "damn that might have been the greatest",
            "start": 74.72,
            "duration": 5.0
        },
        {
            "text": "compliment I have ever received ever I'm",
            "start": 77.32,
            "duration": 5.119
        },
        {
            "text": "gonna I'm going to email my wife oh my",
            "start": 79.72,
            "duration": 4.0
        },
        {
            "text": "goodness instead of playing fortnite",
            "start": 82.439,
            "duration": 3.081
        },
        {
            "text": "with kids Bri makes videos related to",
            "start": 83.72,
            "duration": 3.24
        },
        {
            "text": "coding and serious stuff but with an",
            "start": 85.52,
            "duration": 3.16
        },
        {
            "text": "equally High entertainment value and",
            "start": 86.96,
            "duration": 4.04
        },
        {
            "text": "great memes only Geeks under understand",
            "start": 88.68,
            "duration": 5.759
        },
        {
            "text": "get him get him definitely didn't pre-ad",
            "start": 91.0,
            "duration": 5.159
        },
        {
            "text": "definitely didn't pre-ad first off also",
            "start": 94.439,
            "duration": 4.761
        },
        {
            "text": "I love the doc okay so I love the doc",
            "start": 96.159,
            "duration": 4.561
        },
        {
            "text": "just letting you know neovim is a",
            "start": 99.2,
            "duration": 3.16
        },
        {
            "text": "reoccurring subject in his videos and",
            "start": 100.72,
            "duration": 3.719
        },
        {
            "text": "Prime Praises it to the moon he even has",
            "start": 102.36,
            "duration": 3.799
        },
        {
            "text": "a tutorial series about it I've heard",
            "start": 104.439,
            "duration": 3.521
        },
        {
            "text": "him uh I've heard about neovin before",
            "start": 106.159,
            "duration": 2.881
        },
        {
            "text": "and understood that it's a",
            "start": 107.96,
            "duration": 2.96
        },
        {
            "text": "terminal-based text editor that you can",
            "start": 109.04,
            "duration": 3.119
        },
        {
            "text": "configure with different plugins and",
            "start": 110.92,
            "duration": 2.839
        },
        {
            "text": "keyboard shortcuts but I've always put",
            "start": 112.159,
            "duration": 4.041
        },
        {
            "text": "it off as something that Geeks use to",
            "start": 113.759,
            "duration": 4.64
        },
        {
            "text": "help cure their inferiority complex by",
            "start": 116.2,
            "duration": 3.599
        },
        {
            "text": "trying to deliberately make their",
            "start": 118.399,
            "duration": 2.68
        },
        {
            "text": "colleagues uncomfortable when they share",
            "start": 119.799,
            "duration": 3.841
        },
        {
            "text": "their screen at work",
            "start": 121.079,
            "duration": 4.921
        },
        {
            "text": "yes yes that run-on sentence was the",
            "start": 123.64,
            "duration": 4.36
        },
        {
            "text": "greatest sentence I've ever read oh my",
            "start": 126.0,
            "duration": 3.72
        },
        {
            "text": "goodness it just kept going it kept",
            "start": 128.0,
            "duration": 3.64
        },
        {
            "text": "going it kept going but it was so good",
            "start": 129.72,
            "duration": 3.84
        },
        {
            "text": "when you whip out that terminal based",
            "start": 131.64,
            "duration": 4.0
        },
        {
            "text": "editor like even if you get like an emac",
            "start": 133.56,
            "duration": 5.08
        },
        {
            "text": "Wizard or you get a a Vim Wizard and",
            "start": 135.64,
            "duration": 4.599
        },
        {
            "text": "they whip it out and they're hopping",
            "start": 138.64,
            "duration": 4.239
        },
        {
            "text": "around you can look in the audience and",
            "start": 140.239,
            "duration": 4.121
        },
        {
            "text": "like in the video call there'll be three",
            "start": 142.879,
            "duration": 4.0
        },
        {
            "text": "people like you know you can watch their",
            "start": 144.36,
            "duration": 4.599
        },
        {
            "text": "seal of approval and then you watch",
            "start": 146.879,
            "duration": 4.881
        },
        {
            "text": "other people going",
            "start": 148.959,
            "duration": 2.801
        },
        {
            "text": "like they're freaking out like they",
            "start": 153.92,
            "duration": 2.92
        },
        {
            "text": "can't handle what is going on on the",
            "start": 155.16,
            "duration": 4.6
        },
        {
            "text": "screen like they just just just too fast",
            "start": 156.84,
            "duration": 6.039
        },
        {
            "text": "the Seal of confusion seal of approval",
            "start": 159.76,
            "duration": 6.479
        },
        {
            "text": "seal of confusion it's so good at first",
            "start": 162.879,
            "duration": 5.08
        },
        {
            "text": "I thought that the reason that Prime",
            "start": 166.239,
            "duration": 3.64
        },
        {
            "text": "uses neovim is just some gimmick to get",
            "start": 167.959,
            "duration": 6.601
        },
        {
            "text": "more viewers I mean real talk uh because",
            "start": 169.879,
            "duration": 6.241
        },
        {
            "text": "watching someone code in Neo certainly",
            "start": 174.56,
            "duration": 3.16
        },
        {
            "text": "looks cool but I doubted that one can",
            "start": 176.12,
            "duration": 3.08
        },
        {
            "text": "actually be more productive in Neo than",
            "start": 177.72,
            "duration": 3.239
        },
        {
            "text": "vs code when it comes to tools and",
            "start": 179.2,
            "duration": 3.52
        },
        {
            "text": "technology in general I've always had",
            "start": 180.959,
            "duration": 3.92
        },
        {
            "text": "quite a pragmatic mindset and I have",
            "start": 182.72,
            "duration": 3.519
        },
        {
            "text": "always been fine with using whatever",
            "start": 184.879,
            "duration": 3.28
        },
        {
            "text": "gets the job done the quickest because",
            "start": 186.239,
            "duration": 3.401
        },
        {
            "text": "getting the job done is why we're using",
            "start": 188.159,
            "duration": 2.841
        },
        {
            "text": "the editor in the first place I love",
            "start": 189.64,
            "duration": 3.28
        },
        {
            "text": "this take because that I it's the",
            "start": 191.0,
            "duration": 4.2
        },
        {
            "text": "pragmatic take just get the job done the",
            "start": 192.92,
            "duration": 4.56
        },
        {
            "text": "pragmatic take actually is the non is",
            "start": 195.2,
            "duration": 4.64
        },
        {
            "text": "the is the polar opposite of pragmatic",
            "start": 197.48,
            "duration": 3.92
        },
        {
            "text": "the pragmatic take that people always",
            "start": 199.84,
            "duration": 4.759
        },
        {
            "text": "say they have is literally the opposite",
            "start": 201.4,
            "duration": 4.479
        },
        {
            "text": "because what it means is I will look",
            "start": 204.599,
            "duration": 3.56
        },
        {
            "text": "into nothing I will try nothing else out",
            "start": 205.879,
            "duration": 4.201
        },
        {
            "text": "I will only use what was the first thing",
            "start": 208.159,
            "duration": 3.28
        },
        {
            "text": "that I ever Ed that I'm Baseline",
            "start": 210.08,
            "duration": 2.799
        },
        {
            "text": "comfortable with I'll never actually",
            "start": 211.439,
            "duration": 3.36
        },
        {
            "text": "learn it to any extent I'll put a bunch",
            "start": 212.879,
            "duration": 3.881
        },
        {
            "text": "of extensions in it use onethird of the",
            "start": 214.799,
            "duration": 3.841
        },
        {
            "text": "extensions use the extensions that I do",
            "start": 216.76,
            "duration": 3.88
        },
        {
            "text": "use at oneir the power I will just",
            "start": 218.64,
            "duration": 4.0
        },
        {
            "text": "barely scrape on by because that's what",
            "start": 220.64,
            "duration": 4.12
        },
        {
            "text": "I already understand",
            "start": 222.64,
            "duration": 4.84
        },
        {
            "text": "pragmatism",
            "start": 224.76,
            "duration": 6.759
        },
        {
            "text": "pragmatism it's not pragmatism boys okay",
            "start": 227.48,
            "duration": 5.2
        },
        {
            "text": "however after watching and reading more",
            "start": 231.519,
            "duration": 2.8
        },
        {
            "text": "about Neo and becoming more and more",
            "start": 232.68,
            "duration": 3.8
        },
        {
            "text": "brainwashed by The neovim Good vs code",
            "start": 234.319,
            "duration": 4.441
        },
        {
            "text": "bad memes I've decided to try tinkering",
            "start": 236.48,
            "duration": 4.16
        },
        {
            "text": "a little with neovim and after all what",
            "start": 238.76,
            "duration": 4.399
        },
        {
            "text": "harm can it",
            "start": 240.64,
            "duration": 5.76
        },
        {
            "text": "do oh my goodness dude he's getting he's",
            "start": 243.159,
            "duration": 5.8
        },
        {
            "text": "getting Vim pilled it's happening it's",
            "start": 246.4,
            "duration": 5.44
        },
        {
            "text": "it's happening live in front of us I",
            "start": 248.959,
            "duration": 5.041
        },
        {
            "text": "also somehow got convinced that neovim",
            "start": 251.84,
            "duration": 4.08
        },
        {
            "text": "will help you do the job faster if you",
            "start": 254.0,
            "duration": 3.639
        },
        {
            "text": "learn it well this was enough for me to",
            "start": 255.92,
            "duration": 3.48
        },
        {
            "text": "give it a try if I don't like it I'll",
            "start": 257.639,
            "duration": 4.201
        },
        {
            "text": "just go back to vs code oh here it comes",
            "start": 259.4,
            "duration": 5.799
        },
        {
            "text": "oh no here it comes oh no there are two",
            "start": 261.84,
            "duration": 5.56
        },
        {
            "text": "non-user audience for Vim Chads those",
            "start": 265.199,
            "duration": 4.401
        },
        {
            "text": "with dropped jaws and uh and those",
            "start": 267.4,
            "duration": 3.32
        },
        {
            "text": "shaking their head and rolling their",
            "start": 269.6,
            "duration": 3.68
        },
        {
            "text": "eyes that's right pragmatism is when I",
            "start": 270.72,
            "duration": 5.84
        },
        {
            "text": "don't try easy often I find that to be",
            "start": 273.28,
            "duration": 6.359
        },
        {
            "text": "true um my first step was to Google how",
            "start": 276.56,
            "duration": 4.76
        },
        {
            "text": "to get started with neovim and I found a",
            "start": 279.639,
            "duration": 3.28
        },
        {
            "text": "post on r/ neovim where someone",
            "start": 281.32,
            "duration": 2.719
        },
        {
            "text": "complained about not being able to",
            "start": 282.919,
            "duration": 4.201
        },
        {
            "text": "configure Envy Chad properly a few a",
            "start": 284.039,
            "duration": 4.561
        },
        {
            "text": "fellow redditors suggested that Envy",
            "start": 287.12,
            "duration": 3.48
        },
        {
            "text": "Chad can be too difficult for a beginner",
            "start": 288.6,
            "duration": 3.599
        },
        {
            "text": "and suggested they should use astrov",
            "start": 290.6,
            "duration": 3.879
        },
        {
            "text": "instead Envy Chad and ASTM are neovim",
            "start": 292.199,
            "duration": 4.521
        },
        {
            "text": "dros that come preconfigured by the way",
            "start": 294.479,
            "duration": 6.121
        },
        {
            "text": "if you're G to start please everybody",
            "start": 296.72,
            "duration": 6.24
        },
        {
            "text": "Kickstart if you're going to start using",
            "start": 300.6,
            "duration": 5.159
        },
        {
            "text": "neovim this is the greatest project to",
            "start": 302.96,
            "duration": 5.679
        },
        {
            "text": "start from Kickstart neovim it is just a",
            "start": 305.759,
            "duration": 6.72
        },
        {
            "text": "singular file a singular Lua file that",
            "start": 308.639,
            "duration": 7.12
        },
        {
            "text": "has an enormous amount of comments about",
            "start": 312.479,
            "duration": 5.0
        },
        {
            "text": "every last part of it about getting a",
            "start": 315.759,
            "duration": 3.601
        },
        {
            "text": "plug-in manager going about configuring",
            "start": 317.479,
            "duration": 4.201
        },
        {
            "text": "an LSP about using Mouse to do this",
            "start": 319.36,
            "duration": 3.559
        },
        {
            "text": "about setting the terminals about",
            "start": 321.68,
            "duration": 2.959
        },
        {
            "text": "setting this to get telescope set up to",
            "start": 322.919,
            "duration": 5.241
        },
        {
            "text": "get these things set up it is very very",
            "start": 324.639,
            "duration": 6.0
        },
        {
            "text": "very very good good I would highly",
            "start": 328.16,
            "duration": 4.8
        },
        {
            "text": "recommend it a fellow reditor s okay I",
            "start": 330.639,
            "duration": 4.4
        },
        {
            "text": "already did that Envy Chad and Asim are",
            "start": 332.96,
            "duration": 3.56
        },
        {
            "text": "distros that come preconfigured using a",
            "start": 335.039,
            "duration": 2.961
        },
        {
            "text": "disto sounds great so based on that",
            "start": 336.52,
            "duration": 3.28
        },
        {
            "text": "information from a random stranger I I",
            "start": 338.0,
            "duration": 4.36
        },
        {
            "text": "figured that Aston neovim is a good",
            "start": 339.8,
            "duration": 4.239
        },
        {
            "text": "place to get",
            "start": 342.36,
            "duration": 4.399
        },
        {
            "text": "started uh get a function config up and",
            "start": 344.039,
            "duration": 4.16
        },
        {
            "text": "uh and ready without having to spend too",
            "start": 346.759,
            "duration": 3.56
        },
        {
            "text": "much time on configuration okay this is",
            "start": 348.199,
            "duration": 3.161
        },
        {
            "text": "where it falls",
            "start": 350.319,
            "duration": 3.88
        },
        {
            "text": "apart it does not come with Harpoon uh",
            "start": 351.36,
            "duration": 4.24
        },
        {
            "text": "which is I honestly think Kickstart",
            "start": 354.199,
            "duration": 3.041
        },
        {
            "text": "should come with Harpoon okay I love",
            "start": 355.6,
            "duration": 3.96
        },
        {
            "text": "Harpoon after tinkering with Astro Neo a",
            "start": 357.24,
            "duration": 3.72
        },
        {
            "text": "little and doing things like switching",
            "start": 359.56,
            "duration": 3.04
        },
        {
            "text": "color themes trying to figure out which",
            "start": 360.96,
            "duration": 3.6
        },
        {
            "text": "colors will make me write the best code",
            "start": 362.6,
            "duration": 3.48
        },
        {
            "text": "and trying to understand how the hell",
            "start": 364.56,
            "duration": 3.56
        },
        {
            "text": "you even save a file I started getting a",
            "start": 366.08,
            "duration": 3.88
        },
        {
            "text": "little bit more comfortable with it and",
            "start": 368.12,
            "duration": 3.359
        },
        {
            "text": "even started to realize the idea why",
            "start": 369.96,
            "duration": 3.0
        },
        {
            "text": "mouseless development is something to",
            "start": 371.479,
            "duration": 3.761
        },
        {
            "text": "strive for this is actually a great",
            "start": 372.96,
            "duration": 4.359
        },
        {
            "text": "takeaway right here this is actually a",
            "start": 375.24,
            "duration": 4.72
        },
        {
            "text": "really good takeaway even",
            "start": 377.319,
            "duration": 5.28
        },
        {
            "text": "if even if you never use vime again and",
            "start": 379.96,
            "duration": 5.12
        },
        {
            "text": "use it for a little bit why mouseless",
            "start": 382.599,
            "duration": 4.081
        },
        {
            "text": "development is something to strive for",
            "start": 385.08,
            "duration": 5.0
        },
        {
            "text": "is actually really really really",
            "start": 386.68,
            "duration": 7.04
        },
        {
            "text": "really really good uh we'll talk about",
            "start": 390.08,
            "duration": 6.48
        },
        {
            "text": "Harpoon later uh let's see I however",
            "start": 393.72,
            "duration": 4.44
        },
        {
            "text": "producing some actual code was out of",
            "start": 396.56,
            "duration": 2.359
        },
        {
            "text": "the",
            "start": 398.16,
            "duration": 3.72
        },
        {
            "text": "question ridiculous uh as there was",
            "start": 398.919,
            "duration": 4.521
        },
        {
            "text": "always some functionality that I missed",
            "start": 401.88,
            "duration": 3.48
        },
        {
            "text": "or a hotkey that I didn't know if I",
            "start": 403.44,
            "duration": 3.879
        },
        {
            "text": "could just find out what the hotkey is I",
            "start": 405.36,
            "duration": 3.239
        },
        {
            "text": "I guess I'm calling them hot Keys is",
            "start": 407.319,
            "duration": 3.801
        },
        {
            "text": "wrong but that's what they are uh was I",
            "start": 408.599,
            "duration": 4.281
        },
        {
            "text": "asked Google how to set the hotkey but",
            "start": 411.12,
            "duration": 3.0
        },
        {
            "text": "there seemed to be different ways in",
            "start": 412.88,
            "duration": 2.8
        },
        {
            "text": "just understanding in which file to put",
            "start": 414.12,
            "duration": 4.84
        },
        {
            "text": "the uh key binding snippet was hard yes",
            "start": 415.68,
            "duration": 4.6
        },
        {
            "text": "uh the general first impression was that",
            "start": 418.96,
            "duration": 3.079
        },
        {
            "text": "neovim is clunky and difficult even",
            "start": 420.28,
            "duration": 4.199
        },
        {
            "text": "though I used preconfigured drro but I",
            "start": 422.039,
            "duration": 4.84
        },
        {
            "text": "put it down to a skill issue good call",
            "start": 424.479,
            "duration": 4.321
        },
        {
            "text": "good call and I was not ready to give up",
            "start": 426.879,
            "duration": 3.521
        },
        {
            "text": "and go back to VSS code yet love the",
            "start": 428.8,
            "duration": 3.839
        },
        {
            "text": "determination I love the determination",
            "start": 430.4,
            "duration": 4.32
        },
        {
            "text": "absolutely I do think starting with a a",
            "start": 432.639,
            "duration": 4.28
        },
        {
            "text": "Dro is actually really hard because not",
            "start": 434.72,
            "duration": 4.24
        },
        {
            "text": "only do you have to learn how to",
            "start": 436.919,
            "duration": 3.96
        },
        {
            "text": "configure neovim you have to learn how",
            "start": 438.96,
            "duration": 4.359
        },
        {
            "text": "to configure neovim in someone else's",
            "start": 440.879,
            "duration": 4.76
        },
        {
            "text": "already configured way like I mean",
            "start": 443.319,
            "duration": 5.121
        },
        {
            "text": "astrov Vim is great but still you have",
            "start": 445.639,
            "duration": 5.881
        },
        {
            "text": "to figure it out l Vim is great uh it is",
            "start": 448.44,
            "duration": 5.479
        },
        {
            "text": "FAL FAL is great what D he isuse but you",
            "start": 451.52,
            "duration": 4.2
        },
        {
            "text": "still have to figure out how faly does",
            "start": 453.919,
            "duration": 5.12
        },
        {
            "text": "it and faly is a genius okay uh number",
            "start": 455.72,
            "duration": 4.919
        },
        {
            "text": "three frustration of masses after",
            "start": 459.039,
            "duration": 2.921
        },
        {
            "text": "spending some hours trying and failing",
            "start": 460.639,
            "duration": 2.801
        },
        {
            "text": "to install things I was missing like",
            "start": 461.96,
            "duration": 3.519
        },
        {
            "text": "linters Etc I blamed it on Asim not",
            "start": 463.44,
            "duration": 3.4
        },
        {
            "text": "being well documented decided to give",
            "start": 465.479,
            "duration": 3.481
        },
        {
            "text": "Envy Chad a try maybe taking advice from",
            "start": 466.84,
            "duration": 3.359
        },
        {
            "text": "random strangers on the internet does",
            "start": 468.96,
            "duration": 5.16
        },
        {
            "text": "not always pay off en Envy Jad seemed to",
            "start": 470.199,
            "duration": 5.28
        },
        {
            "text": "have better documentation with the cheat",
            "start": 474.12,
            "duration": 3.519
        },
        {
            "text": "sheet for hotkeys and all and so it",
            "start": 475.479,
            "duration": 3.84
        },
        {
            "text": "seemed great and I also found a video on",
            "start": 477.639,
            "duration": 3.28
        },
        {
            "text": "YouTube setting up an nvy Chad for",
            "start": 479.319,
            "duration": 3.401
        },
        {
            "text": "python which was a great bonus since I'm",
            "start": 480.919,
            "duration": 3.84
        },
        {
            "text": "primarily doing python coding however",
            "start": 482.72,
            "duration": 3.4
        },
        {
            "text": "the person in the YouTube video was",
            "start": 484.759,
            "duration": 3.601
        },
        {
            "text": "using null LS which is now archived this",
            "start": 486.12,
            "duration": 4.28
        },
        {
            "text": "is true and didn't have a clue uh what",
            "start": 488.36,
            "duration": 3.279
        },
        {
            "text": "to replace it with I think there's",
            "start": 490.4,
            "duration": 2.88
        },
        {
            "text": "actually a now a community version of n",
            "start": 491.639,
            "duration": 4.84
        },
        {
            "text": "RS if I'm not mistaken mistaken uh n",
            "start": 493.28,
            "duration": 6.039
        },
        {
            "text": "null LS is the world's worst problem to",
            "start": 496.479,
            "duration": 6.041
        },
        {
            "text": "solve it is why vs C vs code can do it",
            "start": 499.319,
            "duration": 4.801
        },
        {
            "text": "because they have 30 people working on",
            "start": 502.52,
            "duration": 5.119
        },
        {
            "text": "VSS code full-time and so by having",
            "start": 504.12,
            "duration": 5.16
        },
        {
            "text": "full-time people they can there's",
            "start": 507.639,
            "duration": 3.161
        },
        {
            "text": "literally a group of people that just",
            "start": 509.28,
            "duration": 3.28
        },
        {
            "text": "resolve the differences between",
            "start": 510.8,
            "duration": 5.119
        },
        {
            "text": "formatters prets and uh your editor and",
            "start": 512.56,
            "duration": 5.24
        },
        {
            "text": "it's it's actually extremely difficult",
            "start": 515.919,
            "duration": 4.281
        },
        {
            "text": "problem I don't have that's why I love",
            "start": 517.8,
            "duration": 4.239
        },
        {
            "text": "formatting through the LSP I think the",
            "start": 520.2,
            "duration": 4.16
        },
        {
            "text": "LSP should be the one that drives that",
            "start": 522.039,
            "duration": 3.881
        },
        {
            "text": "and that is the problem with JavaScript",
            "start": 524.36,
            "duration": 3.52
        },
        {
            "text": "predominantly is because JavaScript",
            "start": 525.92,
            "duration": 3.96
        },
        {
            "text": "doesn't own the tools so your LSP TS",
            "start": 527.88,
            "duration": 4.399
        },
        {
            "text": "server does not own the prettier or the",
            "start": 529.88,
            "duration": 4.399
        },
        {
            "text": "linter and so that thing just totally",
            "start": 532.279,
            "duration": 4.641
        },
        {
            "text": "gets effed up right the whole thing gets",
            "start": 534.279,
            "duration": 4.161
        },
        {
            "text": "messed up because now when you use",
            "start": 536.92,
            "duration": 3.599
        },
        {
            "text": "JavaScript you have to go and you have",
            "start": 538.44,
            "duration": 3.639
        },
        {
            "text": "to like have all this extra",
            "start": 540.519,
            "duration": 3.721
        },
        {
            "text": "configuration whereas when you use go",
            "start": 542.079,
            "duration": 4.44
        },
        {
            "text": "you use rust they come with all of this",
            "start": 544.24,
            "duration": 4.56
        },
        {
            "text": "stuff already pre-built in and that way",
            "start": 546.519,
            "duration": 4.32
        },
        {
            "text": "formatting and linting and everything is",
            "start": 548.8,
            "duration": 3.8
        },
        {
            "text": "done through the",
            "start": 550.839,
            "duration": 6.521
        },
        {
            "text": "LST it is so dang good okay uh why rust",
            "start": 552.6,
            "duration": 8.2
        },
        {
            "text": "anal is awesome wait what why did I read",
            "start": 557.36,
            "duration": 5.52
        },
        {
            "text": "that out loud however the person in the",
            "start": 560.8,
            "duration": 3.44
        },
        {
            "text": "YouTube video was using oh we already",
            "start": 562.88,
            "duration": 3.36
        },
        {
            "text": "did that I found some random Solutions",
            "start": 564.24,
            "duration": 3.68
        },
        {
            "text": "like prettier and others but there's",
            "start": 566.24,
            "duration": 3.039
        },
        {
            "text": "like seven different ways to install",
            "start": 567.92,
            "duration": 2.72
        },
        {
            "text": "them and I could not get any of them to",
            "start": 569.279,
            "duration": 3.281
        },
        {
            "text": "work so I failed miserably at that too I",
            "start": 570.64,
            "duration": 3.199
        },
        {
            "text": "felt helpless and I had so many",
            "start": 572.56,
            "duration": 2.68
        },
        {
            "text": "questions that Google did not seem to be",
            "start": 573.839,
            "duration": 3.801
        },
        {
            "text": "able to answer I did not have a clue how",
            "start": 575.24,
            "duration": 5.24
        },
        {
            "text": "neovim really works what what is lazy",
            "start": 577.64,
            "duration": 4.84
        },
        {
            "text": "what is Mason uh what's the difference",
            "start": 580.48,
            "duration": 4.039
        },
        {
            "text": "between the two and what the hell is an",
            "start": 582.48,
            "duration": 3.799
        },
        {
            "text": "LSP anyway see these are great questions",
            "start": 584.519,
            "duration": 2.961
        },
        {
            "text": "and this is one of the problems about",
            "start": 586.279,
            "duration": 2.8
        },
        {
            "text": "only working in uh vs code you don't",
            "start": 587.48,
            "duration": 3.44
        },
        {
            "text": "even know what an LSP is right you",
            "start": 589.079,
            "duration": 4.44
        },
        {
            "text": "should know what an LSP is chapter 4",
            "start": 590.92,
            "duration": 4.8
        },
        {
            "text": "accepting defeat after being in a dark",
            "start": 593.519,
            "duration": 3.601
        },
        {
            "text": "place for a while I went back to VSS",
            "start": 595.72,
            "duration": 2.76
        },
        {
            "text": "code where I installed the vinm plug-in",
            "start": 597.12,
            "duration": 2.92
        },
        {
            "text": "oh this is actually a great way to get",
            "start": 598.48,
            "duration": 3.68
        },
        {
            "text": "started great way by the way never go",
            "start": 600.04,
            "duration": 4.88
        },
        {
            "text": "full Vim you never go full Vim right you",
            "start": 602.16,
            "duration": 5.52
        },
        {
            "text": "first go Vim motions learn Vim motions",
            "start": 604.92,
            "duration": 4.52
        },
        {
            "text": "get good at Vim motions and when you're",
            "start": 607.68,
            "duration": 5.48
        },
        {
            "text": "feeling froggy then you jump into Vim",
            "start": 609.44,
            "duration": 5.44
        },
        {
            "text": "where now you're not learning two things",
            "start": 613.16,
            "duration": 3.799
        },
        {
            "text": "at once you're learning one thing at",
            "start": 614.88,
            "duration": 4.44
        },
        {
            "text": "once and that's a big difference it's a",
            "start": 616.959,
            "duration": 4.401
        },
        {
            "text": "huge huge difference and configured the",
            "start": 619.32,
            "duration": 4.8
        },
        {
            "text": "Motions I wanted I felt like uh I felt",
            "start": 621.36,
            "duration": 4.52
        },
        {
            "text": "uh let's see I felt like by using the",
            "start": 624.12,
            "duration": 3.56
        },
        {
            "text": "Vim plugin I had at least taken a tiny",
            "start": 625.88,
            "duration": 3.36
        },
        {
            "text": "steps away from the soy boys and toward",
            "start": 627.68,
            "duration": 3.76
        },
        {
            "text": "the Neil Vim chat let's go I set up my",
            "start": 629.24,
            "duration": 3.56
        },
        {
            "text": "custom key bindings for vs code and",
            "start": 631.44,
            "duration": 3.0
        },
        {
            "text": "tried to force myself to skip the mouse",
            "start": 632.8,
            "duration": 3.279
        },
        {
            "text": "as much as possible I found that I could",
            "start": 634.44,
            "duration": 2.88
        },
        {
            "text": "actually get some coding done and became",
            "start": 636.079,
            "duration": 3.32
        },
        {
            "text": "a better at uh using the Vim motions as",
            "start": 637.32,
            "duration": 4.92
        },
        {
            "text": "well my body and my brain who have been",
            "start": 639.399,
            "duration": 4.521
        },
        {
            "text": "so used to using the mouse for such a",
            "start": 642.24,
            "duration": 2.88
        },
        {
            "text": "long time we're slowly getting",
            "start": 643.92,
            "duration": 2.68
        },
        {
            "text": "accustomed to using primarily the",
            "start": 645.12,
            "duration": 3.399
        },
        {
            "text": "keyboard to navigate vs code I felt",
            "start": 646.6,
            "duration": 3.799
        },
        {
            "text": "relief I was finally physically and",
            "start": 648.519,
            "duration": 3.801
        },
        {
            "text": "mentally able to produce code and I had",
            "start": 650.399,
            "duration": 4.201
        },
        {
            "text": "the shiny new Vim plugin in vs code that",
            "start": 652.32,
            "duration": 4.16
        },
        {
            "text": "was at least a little bit cool and it",
            "start": 654.6,
            "duration": 3.32
        },
        {
            "text": "would give me the same alleged",
            "start": 656.48,
            "duration": 3.28
        },
        {
            "text": "productivity benefits over over time",
            "start": 657.92,
            "duration": 3.2
        },
        {
            "text": "this is good I mean it's honestly this",
            "start": 659.76,
            "duration": 4.079
        },
        {
            "text": "is a great place to be this is a great",
            "start": 661.12,
            "duration": 5.24
        },
        {
            "text": "first step however there was still a",
            "start": 663.839,
            "duration": 3.961
        },
        {
            "text": "bitter taste in my mouth after having",
            "start": 666.36,
            "duration": 3.32
        },
        {
            "text": "tasted the mythical neovim world and",
            "start": 667.8,
            "duration": 3.44
        },
        {
            "text": "being close to achieving a coding",
            "start": 669.68,
            "duration": 3.599
        },
        {
            "text": "Nirvana all I could see and feel when I",
            "start": 671.24,
            "duration": 4.56
        },
        {
            "text": "closed my eyes at night was the sweet uh",
            "start": 673.279,
            "duration": 5.56
        },
        {
            "text": "cat uh cat pin Theme by the way it's not",
            "start": 675.8,
            "duration": 5.599
        },
        {
            "text": "called cat puss okay though I think it",
            "start": 678.839,
            "duration": 5.521
        },
        {
            "text": "should be called cat puss it's cat put",
            "start": 681.399,
            "duration": 6.601
        },
        {
            "text": "chin should be cat puss uh theme and I",
            "start": 684.36,
            "duration": 5.96
        },
        {
            "text": "was navigating my dream with Vim motions",
            "start": 688.0,
            "duration": 4.32
        },
        {
            "text": "it's cat person uh I dreamed about the",
            "start": 690.32,
            "duration": 4.079
        },
        {
            "text": "feeling of invincibility I would get the",
            "start": 692.32,
            "duration": 5.12
        },
        {
            "text": "ID cue the classic ID CD I would get",
            "start": 694.399,
            "duration": 4.601
        },
        {
            "text": "from doing all my coding in the terminal",
            "start": 697.44,
            "duration": 3.639
        },
        {
            "text": "without having to use a clunky electron",
            "start": 699.0,
            "duration": 4.639
        },
        {
            "text": "app that doesn't even use tree sitter",
            "start": 701.079,
            "duration": 4.721
        },
        {
            "text": "great point right there I felt like",
            "start": 703.639,
            "duration": 4.041
        },
        {
            "text": "someone uh I felt like something was",
            "start": 705.8,
            "duration": 3.56
        },
        {
            "text": "missing a part of me had awakened that I",
            "start": 707.68,
            "duration": 3.2
        },
        {
            "text": "could not become silenced by a simply",
            "start": 709.36,
            "duration": 5.2
        },
        {
            "text": "VSS code extension I needed",
            "start": 710.88,
            "duration": 6.72
        },
        {
            "text": "more okay well I didn't see I okay I",
            "start": 714.56,
            "duration": 5.32
        },
        {
            "text": "didn't see chapter FES heading again",
            "start": 717.6,
            "duration": 5.12
        },
        {
            "text": "this is not pre-ad you never go full",
            "start": 719.88,
            "duration": 5.44
        },
        {
            "text": "going full Vim we'll call going full Vim",
            "start": 722.72,
            "duration": 4.799
        },
        {
            "text": "uh Mona to going on right now did not",
            "start": 725.32,
            "duration": 4.0
        },
        {
            "text": "see this happening I plan to do some",
            "start": 727.519,
            "duration": 3.361
        },
        {
            "text": "coding this weekend as I have been",
            "start": 729.32,
            "duration": 3.68
        },
        {
            "text": "trying to learn some new web development",
            "start": 730.88,
            "duration": 4.72
        },
        {
            "text": "concepts for now for a while now oh I",
            "start": 733.0,
            "duration": 3.8
        },
        {
            "text": "read that wrong whatever you get the",
            "start": 735.6,
            "duration": 3.239
        },
        {
            "text": "idea you get the you get the idea I had",
            "start": 736.8,
            "duration": 4.12
        },
        {
            "text": "nothing extra planned and a lot of hours",
            "start": 738.839,
            "duration": 3.68
        },
        {
            "text": "to spend on improving skills that would",
            "start": 740.92,
            "duration": 3.279
        },
        {
            "text": "perhaps Advance my career now I don't do",
            "start": 742.519,
            "duration": 3.401
        },
        {
            "text": "much real coding in my day job so I",
            "start": 744.199,
            "duration": 3.401
        },
        {
            "text": "enjoy working on fun project in my spare",
            "start": 745.92,
            "duration": 3.64
        },
        {
            "text": "time and learning new things on Friday",
            "start": 747.6,
            "duration": 3.64
        },
        {
            "text": "evening I opened my terminal and created",
            "start": 749.56,
            "duration": 3.279
        },
        {
            "text": "the folder structure for my new web",
            "start": 751.24,
            "duration": 3.56
        },
        {
            "text": "development project when I was about to",
            "start": 752.839,
            "duration": 4.401
        },
        {
            "text": "press enter after typing code dot to",
            "start": 754.8,
            "duration": 4.599
        },
        {
            "text": "open my true friend vs code something",
            "start": 757.24,
            "duration": 4.24
        },
        {
            "text": "snapped in my head I stared at the",
            "start": 759.399,
            "duration": 4.321
        },
        {
            "text": "command for about 10 seconds deleted it",
            "start": 761.48,
            "duration": 5.28
        },
        {
            "text": "and typed neovim Dot and pressed enter",
            "start": 763.72,
            "duration": 4.16
        },
        {
            "text": "in what seemed like less than a",
            "start": 766.76,
            "duration": 3.759
        },
        {
            "text": "millisecond that beautiful cat puss and",
            "start": 767.88,
            "duration": 4.72
        },
        {
            "text": "theme popped up that I had configured",
            "start": 770.519,
            "duration": 3.921
        },
        {
            "text": "some weeks ago and I knew there was no",
            "start": 772.6,
            "duration": 6.239
        },
        {
            "text": "turning back vs code can suck it such a",
            "start": 774.44,
            "duration": 6.24
        },
        {
            "text": "plot twist I did not see this coming",
            "start": 778.839,
            "duration": 4.56
        },
        {
            "text": "this is like M night shamalan this is M",
            "start": 780.68,
            "duration": 5.519
        },
        {
            "text": "Night shamalan level signs material here",
            "start": 783.399,
            "duration": 4.56
        },
        {
            "text": "we got Mel Gibson helping writing",
            "start": 786.199,
            "duration": 5.041
        },
        {
            "text": "scripts right now next I went uh to",
            "start": 787.959,
            "duration": 4.361
        },
        {
            "text": "Google to find out how to configure",
            "start": 791.24,
            "duration": 2.36
        },
        {
            "text": "neovim for typescripts since I'd be",
            "start": 792.32,
            "duration": 2.48
        },
        {
            "text": "learning this as part of my web",
            "start": 793.6,
            "duration": 4.359
        },
        {
            "text": "development project okay went hard mode",
            "start": 794.8,
            "duration": 6.24
        },
        {
            "text": "went hard mode uh I could not find any",
            "start": 797.959,
            "duration": 4.721
        },
        {
            "text": "meaningful answers that were applicable",
            "start": 801.04,
            "duration": 3.2
        },
        {
            "text": "to my config so I stumbled in the dark",
            "start": 802.68,
            "duration": 2.959
        },
        {
            "text": "for some time trying different things",
            "start": 804.24,
            "duration": 3.159
        },
        {
            "text": "with Mason Mason's a pretty cool little",
            "start": 805.639,
            "duration": 3.2
        },
        {
            "text": "program I read somewhere that types",
            "start": 807.399,
            "duration": 3.081
        },
        {
            "text": "script language server is what you need",
            "start": 808.839,
            "duration": 3.641
        },
        {
            "text": "so I tried installing that and Mason uh",
            "start": 810.48,
            "duration": 3.799
        },
        {
            "text": "said it got installed but when I tried",
            "start": 812.48,
            "duration": 4.2
        },
        {
            "text": "applying LSP formatting while my ts file",
            "start": 814.279,
            "duration": 4.761
        },
        {
            "text": "was open it only said something uh in",
            "start": 816.68,
            "duration": 6.159
        },
        {
            "text": "the style of no LSP found okay yep yep",
            "start": 819.04,
            "duration": 5.32
        },
        {
            "text": "the frustration was Rising again and",
            "start": 822.839,
            "duration": 3.161
        },
        {
            "text": "after some failed attempts at debugging",
            "start": 824.36,
            "duration": 3.4
        },
        {
            "text": "this and trying to understand what the",
            "start": 826.0,
            "duration": 3.639
        },
        {
            "text": "different config files were even doing I",
            "start": 827.76,
            "duration": 3.8
        },
        {
            "text": "decided to I need to learn this from",
            "start": 829.639,
            "duration": 4.801
        },
        {
            "text": "scratch I had no idea what the code I",
            "start": 831.56,
            "duration": 4.92
        },
        {
            "text": "had gotten from YouTube video was doing",
            "start": 834.44,
            "duration": 4.319
        },
        {
            "text": "and I was obviously lacking some",
            "start": 836.48,
            "duration": 4.159
        },
        {
            "text": "foundational knowledge about Vim to be",
            "start": 838.759,
            "duration": 3.401
        },
        {
            "text": "able to fix my problems this is good",
            "start": 840.639,
            "duration": 3.88
        },
        {
            "text": "okay good you should start should try to",
            "start": 842.16,
            "duration": 3.96
        },
        {
            "text": "start from the beginning don't get",
            "start": 844.519,
            "duration": 3.361
        },
        {
            "text": "overwhelmed I found some good tutorials",
            "start": 846.12,
            "duration": 3.399
        },
        {
            "text": "on LSP zero repository that actually",
            "start": 847.88,
            "duration": 3.28
        },
        {
            "text": "explain some key Concepts and I managed",
            "start": 849.519,
            "duration": 3.921
        },
        {
            "text": "to quite quickly get working uh config",
            "start": 851.16,
            "duration": 3.919
        },
        {
            "text": "that looked good however all my code was",
            "start": 853.44,
            "duration": 3.36
        },
        {
            "text": "in an init.lua file so that felt a",
            "start": 855.079,
            "duration": 3.401
        },
        {
            "text": "little bit off-putting and",
            "start": 856.8,
            "duration": 3.76
        },
        {
            "text": "homemade this is good this is really",
            "start": 858.48,
            "duration": 3.919
        },
        {
            "text": "good this is really really good I like",
            "start": 860.56,
            "duration": 3.6
        },
        {
            "text": "where we're at right now I found another",
            "start": 862.399,
            "duration": 3.161
        },
        {
            "text": "tutorial on configuring Neil from",
            "start": 864.16,
            "duration": 2.799
        },
        {
            "text": "scratch and now I have spent 6 hours",
            "start": 865.56,
            "duration": 2.839
        },
        {
            "text": "going through the first 18 minutes of",
            "start": 866.959,
            "duration": 3.641
        },
        {
            "text": "the video I've deleted my config neovim",
            "start": 868.399,
            "duration": 3.641
        },
        {
            "text": "twice and started over my brain was",
            "start": 870.6,
            "duration": 3.32
        },
        {
            "text": "trying to tell me that it's stupid to",
            "start": 872.04,
            "duration": 3.44
        },
        {
            "text": "waste This Much Time on getting an",
            "start": 873.92,
            "duration": 3.12
        },
        {
            "text": "editor configured and although I feel",
            "start": 875.48,
            "duration": 3.76
        },
        {
            "text": "sick I physically I can't physically",
            "start": 877.04,
            "duration": 5.52
        },
        {
            "text": "quit I've come too far now to turn back",
            "start": 879.24,
            "duration": 7.719
        },
        {
            "text": "all right yes conclusion chapter",
            "start": 882.56,
            "duration": 6.6
        },
        {
            "text": "six I'm unsure if it falls under",
            "start": 886.959,
            "duration": 3.961
        },
        {
            "text": "stupidity or Insanity my goal right now",
            "start": 889.16,
            "duration": 3.08
        },
        {
            "text": "is to get working config that I'm",
            "start": 890.92,
            "duration": 3.4
        },
        {
            "text": "satisfied with during this weekend and",
            "start": 892.24,
            "duration": 4.12
        },
        {
            "text": "if I get some real coding done as well",
            "start": 894.32,
            "duration": 4.12
        },
        {
            "text": "then it's a big plus right now I regret",
            "start": 896.36,
            "duration": 5.0
        },
        {
            "text": "I did not stay in vs code dude this guy",
            "start": 898.44,
            "duration": 6.319
        },
        {
            "text": "has regts the man's reging right now",
            "start": 901.36,
            "duration": 5.8
        },
        {
            "text": "live reging happening not he's so he",
            "start": 904.759,
            "duration": 5.041
        },
        {
            "text": "reged so hard he wrote a sixth chapter",
            "start": 907.16,
            "duration": 5.119
        },
        {
            "text": "book dropped it on the internet threw it",
            "start": 909.8,
            "duration": 5.279
        },
        {
            "text": "on my uh my Reddit and then called it a",
            "start": 912.279,
            "duration": 5.0
        },
        {
            "text": "day love the cander the cander is great",
            "start": 915.079,
            "duration": 3.68
        },
        {
            "text": "but I have spent too many hours now to",
            "start": 917.279,
            "duration": 3.441
        },
        {
            "text": "go back let's see if there are any",
            "start": 918.759,
            "duration": 4.481
        },
        {
            "text": "others that uh are failing at neim at",
            "start": 920.72,
            "duration": 4.479
        },
        {
            "text": "this very moment hit me up on this by",
            "start": 923.24,
            "duration": 4.76
        },
        {
            "text": "the way please please use Kickstarter if",
            "start": 925.199,
            "duration": 5.0
        },
        {
            "text": "you're listening to the",
            "start": 928.0,
            "duration": 7.12
        },
        {
            "text": "giden G gon giden gon uh please do",
            "start": 930.199,
            "duration": 8.2
        },
        {
            "text": "it call him help him uh and share your",
            "start": 935.12,
            "duration": 4.839
        },
        {
            "text": "story and possibly resources used to",
            "start": 938.399,
            "duration": 3.68
        },
        {
            "text": "stop failing at neovim if I ever get",
            "start": 939.959,
            "duration": 3.601
        },
        {
            "text": "this configured I might make a post",
            "start": 942.079,
            "duration": 4.12
        },
        {
            "text": "about how to do it properly I think TJ",
            "start": 943.56,
            "duration": 5.759
        },
        {
            "text": "would be fantastic at getting him on",
            "start": 946.199,
            "duration": 4.801
        },
        {
            "text": "there regert driven development is a",
            "start": 949.319,
            "duration": 4.681
        },
        {
            "text": "real thing NE neovim does not fail watch",
            "start": 951.0,
            "duration": 6.519
        },
        {
            "text": "TJ's aash to basic Series yeah g gayen",
            "start": 954.0,
            "duration": 5.36
        },
        {
            "text": "chling hard there's a lot of chling",
            "start": 957.519,
            "duration": 4.281
        },
        {
            "text": "going on right now lot of chling One",
            "start": 959.36,
            "duration": 4.88
        },
        {
            "text": "does not chle simply uh this is a great",
            "start": 961.8,
            "duration": 4.159
        },
        {
            "text": "article and honestly this expresses also",
            "start": 964.24,
            "duration": 4.24
        },
        {
            "text": "my frustrations in 2016 trying to learn",
            "start": 965.959,
            "duration": 5.12
        },
        {
            "text": "what a Vim script was and trying to like",
            "start": 968.48,
            "duration": 4.799
        },
        {
            "text": "do this Vim thing and doing it as like",
            "start": 971.079,
            "duration": 4.44
        },
        {
            "text": "minimally as possible and just learning",
            "start": 973.279,
            "duration": 4.641
        },
        {
            "text": "small parts I really recommend see the",
            "start": 975.519,
            "duration": 4.12
        },
        {
            "text": "problem is is that again I also got to",
            "start": 977.92,
            "duration": 4.359
        },
        {
            "text": "grow up in the era of non- LSPs LSPs",
            "start": 979.639,
            "duration": 3.921
        },
        {
            "text": "were just getting started back then so",
            "start": 982.279,
            "duration": 4.081
        },
        {
            "text": "almost nothing had an LSP and so you",
            "start": 983.56,
            "duration": 4.079
        },
        {
            "text": "know you didn't really expect strong",
            "start": 986.36,
            "duration": 4.08
        },
        {
            "text": "autocomplete in JavaScript uh even using",
            "start": 987.639,
            "duration": 4.68
        },
        {
            "text": "intellig it still wasn't that great",
            "start": 990.44,
            "duration": 3.079
        },
        {
            "text": "there's like all these things that I",
            "start": 992.319,
            "duration": 2.64
        },
        {
            "text": "kind of got to get started with that I",
            "start": 993.519,
            "duration": 2.841
        },
        {
            "text": "think made learning Vim easier cuz I",
            "start": 994.959,
            "duration": 3.481
        },
        {
            "text": "didn't have to I didn't have to set up",
            "start": 996.36,
            "duration": 4.52
        },
        {
            "text": "everything you know I only had to set up",
            "start": 998.44,
            "duration": 4.48
        },
        {
            "text": "some things and it just got it it was",
            "start": 1000.88,
            "duration": 4.0
        },
        {
            "text": "just really really nice to slowly kind",
            "start": 1002.92,
            "duration": 4.08
        },
        {
            "text": "of get introduced to this and yeah I did",
            "start": 1004.88,
            "duration": 4.16
        },
        {
            "text": "a video Zero to LSP I thought that was",
            "start": 1007.0,
            "duration": 4.319
        },
        {
            "text": "good it really is highspeed it's",
            "start": 1009.04,
            "duration": 6.919
        },
        {
            "text": "fantastic um and HTM X is great the name",
            "start": 1011.319,
            "duration": 6.561
        },
        {
            "text": "is I just mentioned HDMX aent so",
            "start": 1015.959,
            "duration": 3.521
        },
        {
            "text": "therefore War buffering has to take a",
            "start": 1017.88,
            "duration": 4.04
        },
        {
            "text": "shot",
            "start": 1019.48,
            "duration": 2.44
        }
    ],
    "stats": {
        "viewCount": "84673",
        "likeCount": "3203",
        "favoriteCount": "0",
        "commentCount": "255"
    }
}