{
    "id": "I9c4mGAhg4U",
    "title": "Ageism in Software | Prime Reacts",
    "publishedAt": "2023-08-25T12:00:14Z",
    "captions": [
        {
            "text": "I'm gonna get canceled right now for",
            "start": 0.0,
            "duration": 4.259
        },
        {
            "text": "this take but I'm gonna be real here I'm",
            "start": 2.76,
            "duration": 3.78
        },
        {
            "text": "gonna be super super real uh I'm sort of",
            "start": 4.259,
            "duration": 4.38
        },
        {
            "text": "fine with ageism in software engineering",
            "start": 6.54,
            "duration": 4.08
        },
        {
            "text": "I know what",
            "start": 8.639,
            "duration": 3.361
        },
        {
            "text": "completely fine with it here's the deal",
            "start": 10.62,
            "duration": 3.72
        },
        {
            "text": "but it's kind of reverse ageism if you",
            "start": 12.0,
            "duration": 5.279
        },
        {
            "text": "will uh I really really like working",
            "start": 14.34,
            "duration": 7.4
        },
        {
            "text": "with people older than me got em okay",
            "start": 17.279,
            "duration": 4.461
        },
        {
            "text": "opens and all that they make really",
            "start": 26.039,
            "duration": 4.261
        },
        {
            "text": "great decisions okay that's typically",
            "start": 27.72,
            "duration": 4.379
        },
        {
            "text": "been my experience not all the time",
            "start": 30.3,
            "duration": 4.74
        },
        {
            "text": "though sometimes it sucks but I find",
            "start": 32.099,
            "duration": 5.101
        },
        {
            "text": "more often than not it's pretty dang",
            "start": 35.04,
            "duration": 4.44
        },
        {
            "text": "good and so I love experience now that's",
            "start": 37.2,
            "duration": 3.72
        },
        {
            "text": "the thing is it's it's really experience",
            "start": 39.48,
            "duration": 3.18
        },
        {
            "text": "speaking but it's not just experience",
            "start": 40.92,
            "duration": 2.94
        },
        {
            "text": "it's more than experience because",
            "start": 42.66,
            "duration": 2.399
        },
        {
            "text": "there's people that are very very",
            "start": 43.86,
            "duration": 4.08
        },
        {
            "text": "intelligent 17 software is 17 year old",
            "start": 45.059,
            "duration": 5.761
        },
        {
            "text": "software engineer uh is both wise and",
            "start": 47.94,
            "duration": 4.56
        },
        {
            "text": "intelligent because he's wise enough to",
            "start": 50.82,
            "duration": 3.0
        },
        {
            "text": "understand that he should be applying",
            "start": 52.5,
            "duration": 4.8
        },
        {
            "text": "his unlimited amount of free time to",
            "start": 53.82,
            "duration": 4.68
        },
        {
            "text": "learning something that's actually",
            "start": 57.3,
            "duration": 3.36
        },
        {
            "text": "valuable to learn and B he's intelligent",
            "start": 58.5,
            "duration": 3.899
        },
        {
            "text": "enough to be able to do this okay this",
            "start": 60.66,
            "duration": 3.66
        },
        {
            "text": "is great this is very very nice but",
            "start": 62.399,
            "duration": 5.58
        },
        {
            "text": "still 17 to 26 is like the stupidest",
            "start": 64.32,
            "duration": 6.18
        },
        {
            "text": "years of your life okay you're chocked",
            "start": 67.979,
            "duration": 4.5
        },
        {
            "text": "full of hormones and your frontal cortex",
            "start": 70.5,
            "duration": 4.32
        },
        {
            "text": "hasn't even fully formed yet okay it's",
            "start": 72.479,
            "duration": 4.201
        },
        {
            "text": "not my fault it's just that you can't",
            "start": 74.82,
            "duration": 3.9
        },
        {
            "text": "make good decisions okay it's not it's",
            "start": 76.68,
            "duration": 5.7
        },
        {
            "text": "like I'm sorry welcome to your body you",
            "start": 78.72,
            "duration": 5.219
        },
        {
            "text": "make the worst decisions between those",
            "start": 82.38,
            "duration": 3.599
        },
        {
            "text": "times hey take that back I'm just not my",
            "start": 83.939,
            "duration": 3.72
        },
        {
            "text": "I thought your brain ain't formed okay",
            "start": 85.979,
            "duration": 4.441
        },
        {
            "text": "that's your fault that's your fault uh",
            "start": 87.659,
            "duration": 5.221
        },
        {
            "text": "for okay here we go anyways getting",
            "start": 90.42,
            "duration": 4.14
        },
        {
            "text": "canceled any percent Speed Run",
            "start": 92.88,
            "duration": 3.96
        },
        {
            "text": "challenging ageism as a 17 year old",
            "start": 94.56,
            "duration": 3.78
        },
        {
            "text": "software engineer I'm sure it's actually",
            "start": 96.84,
            "duration": 4.5
        },
        {
            "text": "really hard uh as 17 year old uh to be",
            "start": 98.34,
            "duration": 4.739
        },
        {
            "text": "able to try to get respected I'm sure",
            "start": 101.34,
            "duration": 3.66
        },
        {
            "text": "there's a lot of difficulty with that I",
            "start": 103.079,
            "duration": 3.9
        },
        {
            "text": "don't think it's I again I'm not sure",
            "start": 105.0,
            "duration": 5.04
        },
        {
            "text": "how bad that is I think that it's uh I",
            "start": 106.979,
            "duration": 4.201
        },
        {
            "text": "think there's something to that that we",
            "start": 110.04,
            "duration": 3.66
        },
        {
            "text": "should be careful about you know there's",
            "start": 111.18,
            "duration": 4.14
        },
        {
            "text": "kind of like an obsession with youth in",
            "start": 113.7,
            "duration": 3.48
        },
        {
            "text": "our culture at least in you know United",
            "start": 115.32,
            "duration": 3.839
        },
        {
            "text": "States culture and so is it always good",
            "start": 117.18,
            "duration": 3.54
        },
        {
            "text": "to be focused on youth there's things",
            "start": 119.159,
            "duration": 3.42
        },
        {
            "text": "that are really good about people who've",
            "start": 120.72,
            "duration": 3.24
        },
        {
            "text": "seen the world a little bit all right",
            "start": 122.579,
            "duration": 3.061
        },
        {
            "text": "for example I really love golang these",
            "start": 123.96,
            "duration": 3.479
        },
        {
            "text": "days and I want to work with it hey I",
            "start": 125.64,
            "duration": 3.839
        },
        {
            "text": "like golang too let's go uh when I try",
            "start": 127.439,
            "duration": 3.6
        },
        {
            "text": "to nominate myself for a position in",
            "start": 129.479,
            "duration": 3.721
        },
        {
            "text": "nine out of 10 cases on average I get",
            "start": 131.039,
            "duration": 4.441
        },
        {
            "text": "rejections and you know what they don't",
            "start": 133.2,
            "duration": 4.259
        },
        {
            "text": "even uh want to listen just because of",
            "start": 135.48,
            "duration": 2.94
        },
        {
            "text": "my age",
            "start": 137.459,
            "duration": 3.901
        },
        {
            "text": "it's ninety percent damn and for this",
            "start": 138.42,
            "duration": 5.399
        },
        {
            "text": "reason age how do you know",
            "start": 141.36,
            "duration": 4.379
        },
        {
            "text": "this sorry this article started right",
            "start": 143.819,
            "duration": 4.261
        },
        {
            "text": "out this article just started right in",
            "start": 145.739,
            "duration": 3.901
        },
        {
            "text": "the middle of a sentence and I don't I'm",
            "start": 148.08,
            "duration": 3.36
        },
        {
            "text": "like I'm just trying to like get into it",
            "start": 149.64,
            "duration": 3.12
        },
        {
            "text": "you know what I mean",
            "start": 151.44,
            "duration": 2.939
        },
        {
            "text": "all right hey there fellow Tech",
            "start": 152.76,
            "duration": 3.54
        },
        {
            "text": "enthusiasts my name is Kenji and I'm on",
            "start": 154.379,
            "duration": 3.481
        },
        {
            "text": "a mission to show the world that age is",
            "start": 156.3,
            "duration": 3.0
        },
        {
            "text": "just a number in the realm of software",
            "start": 157.86,
            "duration": 2.58
        },
        {
            "text": "engineering I actually disagree with",
            "start": 159.3,
            "duration": 3.48
        },
        {
            "text": "this age is not just a number uh I do",
            "start": 160.44,
            "duration": 4.019
        },
        {
            "text": "think experience is very very important",
            "start": 162.78,
            "duration": 4.02
        },
        {
            "text": "but not just experience uh living long",
            "start": 164.459,
            "duration": 4.381
        },
        {
            "text": "enough to live through a few hype Cycles",
            "start": 166.8,
            "duration": 4.68
        },
        {
            "text": "is really really important I think that",
            "start": 168.84,
            "duration": 4.259
        },
        {
            "text": "the hype Cycles are really big and",
            "start": 171.48,
            "duration": 2.94
        },
        {
            "text": "important thing to live through like",
            "start": 173.099,
            "duration": 3.841
        },
        {
            "text": "like I think that what you needed to do",
            "start": 174.42,
            "duration": 3.84
        },
        {
            "text": "uh",
            "start": 176.94,
            "duration": 2.939
        },
        {
            "text": "why I think a lot of these older",
            "start": 178.26,
            "duration": 3.119
        },
        {
            "text": "Engineers are so uh can be really",
            "start": 179.879,
            "duration": 3.0
        },
        {
            "text": "awesome is that they they had to",
            "start": 181.379,
            "duration": 3.481
        },
        {
            "text": "implement soap and soap was the future",
            "start": 182.879,
            "duration": 4.321
        },
        {
            "text": "and none of us Implement soap you know",
            "start": 184.86,
            "duration": 4.44
        },
        {
            "text": "why because they all implemented soap",
            "start": 187.2,
            "duration": 4.319
        },
        {
            "text": "they saw the disaster and then they",
            "start": 189.3,
            "duration": 4.74
        },
        {
            "text": "avoided us going off that Cliff you know",
            "start": 191.519,
            "duration": 4.14
        },
        {
            "text": "what I mean there's like there's there's",
            "start": 194.04,
            "duration": 3.24
        },
        {
            "text": "something there there's something very",
            "start": 195.659,
            "duration": 4.141
        },
        {
            "text": "valuable valuable about that we're not",
            "start": 197.28,
            "duration": 4.679
        },
        {
            "text": "using XML I mean okay those who use",
            "start": 199.8,
            "duration": 5.04
        },
        {
            "text": "Visual Studio still use XML loser but",
            "start": 201.959,
            "duration": 4.981
        },
        {
            "text": "the rest of us don't use XML okay we use",
            "start": 204.84,
            "duration": 5.28
        },
        {
            "text": "Tamil okay tamil's great XML is for",
            "start": 206.94,
            "duration": 6.18
        },
        {
            "text": "stupid people Thomas fantastic uh",
            "start": 210.12,
            "duration": 4.619
        },
        {
            "text": "hailing from Ukraine I've embarked on a",
            "start": 213.12,
            "duration": 3.0
        },
        {
            "text": "path that's not only about coding but",
            "start": 214.739,
            "duration": 2.941
        },
        {
            "text": "also about breaking stereotypes and",
            "start": 216.12,
            "duration": 4.74
        },
        {
            "text": "proving that passion and skill uh no uh",
            "start": 217.68,
            "duration": 6.36
        },
        {
            "text": "no no age boundaries uh in some sense it",
            "start": 220.86,
            "duration": 5.159
        },
        {
            "text": "does know I mean again again to become",
            "start": 224.04,
            "duration": 3.839
        },
        {
            "text": "great at something you know the whole 10",
            "start": 226.019,
            "duration": 3.901
        },
        {
            "text": "000 hours thing it does take just time",
            "start": 227.879,
            "duration": 4.08
        },
        {
            "text": "right just pure time uh if you're",
            "start": 229.92,
            "duration": 3.239
        },
        {
            "text": "wondering about my knowledge and Tech",
            "start": 231.959,
            "duration": 2.881
        },
        {
            "text": "stack well you have a golang rust",
            "start": 233.159,
            "duration": 3.901
        },
        {
            "text": "node.js JavaScript typescript Elixir",
            "start": 234.84,
            "duration": 4.319
        },
        {
            "text": "python but that's not where it ends I've",
            "start": 237.06,
            "duration": 4.099
        },
        {
            "text": "also dabbled in C C plus plus Lua",
            "start": 239.159,
            "duration": 4.86
        },
        {
            "text": "classic neovim user right here classic",
            "start": 241.159,
            "duration": 6.041
        },
        {
            "text": "you can see the neovim user just forming",
            "start": 244.019,
            "duration": 5.521
        },
        {
            "text": "as we speak in others uh just to keep",
            "start": 247.2,
            "duration": 3.84
        },
        {
            "text": "things interesting my days are filled",
            "start": 249.54,
            "duration": 2.88
        },
        {
            "text": "with lines of code debugging sessions",
            "start": 251.04,
            "duration": 3.24
        },
        {
            "text": "and exhilarating satisfaction of solving",
            "start": 252.42,
            "duration": 3.42
        },
        {
            "text": "problems and of course learning and",
            "start": 254.28,
            "duration": 3.179
        },
        {
            "text": "exploring more and more",
            "start": 255.84,
            "duration": 3.78
        },
        {
            "text": "my love for programming runs deep and",
            "start": 257.459,
            "duration": 3.661
        },
        {
            "text": "it's not just about code itself it's",
            "start": 259.62,
            "duration": 3.0
        },
        {
            "text": "about crafting Solutions and seeing",
            "start": 261.12,
            "duration": 3.299
        },
        {
            "text": "possibilities where others might see",
            "start": 262.62,
            "duration": 3.6
        },
        {
            "text": "roadblocks and of course there's my",
            "start": 264.419,
            "duration": 4.56
        },
        {
            "text": "beautiful new event let's go you",
            "start": 266.22,
            "duration": 5.58
        },
        {
            "text": "feel it you could just feel classic deal",
            "start": 268.979,
            "duration": 5.28
        },
        {
            "text": "of abuser you could just feel it right I",
            "start": 271.8,
            "duration": 4.56
        },
        {
            "text": "could just I could just taste it",
            "start": 274.259,
            "duration": 4.981
        },
        {
            "text": "I knew it on my rice Linux a testament",
            "start": 276.36,
            "duration": 4.68
        },
        {
            "text": "to my dedication to creating a workspace",
            "start": 279.24,
            "duration": 4.019
        },
        {
            "text": "that's both functional and inspiring age",
            "start": 281.04,
            "duration": 4.439
        },
        {
            "text": "is just a number right but does it use",
            "start": 283.259,
            "duration": 4.141
        },
        {
            "text": "Arch that's a great question you know I",
            "start": 285.479,
            "duration": 4.681
        },
        {
            "text": "don't I I don't know I I will say there",
            "start": 287.4,
            "duration": 4.859
        },
        {
            "text": "is something like one of my favorite I",
            "start": 290.16,
            "duration": 4.259
        },
        {
            "text": "still recall my favorite project I ever",
            "start": 292.259,
            "duration": 4.741
        },
        {
            "text": "worked with anybody ever on in the",
            "start": 294.419,
            "duration": 5.401
        },
        {
            "text": "entirety of my career was with a uh",
            "start": 297.0,
            "duration": 6.54
        },
        {
            "text": "intern he must have been 17 18 years old",
            "start": 299.82,
            "duration": 6.0
        },
        {
            "text": "Nathan he looked 14. I don't know",
            "start": 303.54,
            "duration": 4.8
        },
        {
            "text": "anyways he was very young dude I would",
            "start": 305.82,
            "duration": 4.92
        },
        {
            "text": "just like set some bounds and he would",
            "start": 308.34,
            "duration": 5.1
        },
        {
            "text": "run clobber through all the bounds and",
            "start": 310.74,
            "duration": 4.679
        },
        {
            "text": "just make stuff and some of it was just",
            "start": 313.44,
            "duration": 4.979
        },
        {
            "text": "horrible some of it was amazing and he",
            "start": 315.419,
            "duration": 5.101
        },
        {
            "text": "just loved building stuff and it was one",
            "start": 318.419,
            "duration": 3.961
        },
        {
            "text": "of the funnest times I've ever had we",
            "start": 320.52,
            "duration": 4.019
        },
        {
            "text": "deleted a lot of code we made a lot of",
            "start": 322.38,
            "duration": 4.259
        },
        {
            "text": "mistakes we went the wrong direction a",
            "start": 324.539,
            "duration": 4.201
        },
        {
            "text": "couple times but nonetheless that was",
            "start": 326.639,
            "duration": 4.861
        },
        {
            "text": "like my favorite favorite time just",
            "start": 328.74,
            "duration": 4.679
        },
        {
            "text": "because it's so much fun working with",
            "start": 331.5,
            "duration": 4.199
        },
        {
            "text": "people who equally want to do something",
            "start": 333.419,
            "duration": 3.84
        },
        {
            "text": "great you know what I mean so I mean",
            "start": 335.699,
            "duration": 3.301
        },
        {
            "text": "there is something very very there is",
            "start": 337.259,
            "duration": 3.061
        },
        {
            "text": "something in here that you know what",
            "start": 339.0,
            "duration": 3.18
        },
        {
            "text": "doesn't I mean what it actually does",
            "start": 340.32,
            "duration": 4.26
        },
        {
            "text": "know uh something that does know age",
            "start": 342.18,
            "duration": 4.799
        },
        {
            "text": "boundaries is typically like excitement",
            "start": 344.58,
            "duration": 4.74
        },
        {
            "text": "or passion right your passion wanes as",
            "start": 346.979,
            "duration": 3.541
        },
        {
            "text": "you get older because you've just seen",
            "start": 349.32,
            "duration": 2.4
        },
        {
            "text": "enough of it that you probably don't",
            "start": 350.52,
            "duration": 2.94
        },
        {
            "text": "need to keep seeing the same thing over",
            "start": 351.72,
            "duration": 3.6
        },
        {
            "text": "and over again I get that right like",
            "start": 353.46,
            "duration": 3.179
        },
        {
            "text": "there's gonna come a point where I'll be",
            "start": 355.32,
            "duration": 3.12
        },
        {
            "text": "bored of programming I won't want to do",
            "start": 356.639,
            "duration": 2.821
        },
        {
            "text": "it anymore",
            "start": 358.44,
            "duration": 3.96
        },
        {
            "text": "it's just part of life like it's just",
            "start": 359.46,
            "duration": 4.62
        },
        {
            "text": "something that happens to all people and",
            "start": 362.4,
            "duration": 3.06
        },
        {
            "text": "I don't think it's bad because we're not",
            "start": 364.08,
            "duration": 3.119
        },
        {
            "text": "we're not destined to be Eternal here",
            "start": 365.46,
            "duration": 4.32
        },
        {
            "text": "right that's why everything that glows",
            "start": 367.199,
            "duration": 5.521
        },
        {
            "text": "bright starts to lose its glow over time",
            "start": 369.78,
            "duration": 5.52
        },
        {
            "text": "now let's tackle the elephant in the",
            "start": 372.72,
            "duration": 5.34
        },
        {
            "text": "room using Arch Linux ageism I really",
            "start": 375.3,
            "duration": 4.14
        },
        {
            "text": "want to hear more about this neovim",
            "start": 378.06,
            "duration": 3.359
        },
        {
            "text": "setup uh judging me of him set up in",
            "start": 379.44,
            "duration": 4.14
        },
        {
            "text": "five four three two one uh it's quite",
            "start": 381.419,
            "duration": 4.021
        },
        {
            "text": "amusing really while I'm busy juggling",
            "start": 383.58,
            "duration": 3.3
        },
        {
            "text": "multiple languages Frameworks and",
            "start": 385.44,
            "duration": 2.64
        },
        {
            "text": "projects some folks still find",
            "start": 386.88,
            "duration": 3.48
        },
        {
            "text": "themselves hung up on my age yes I'm",
            "start": 388.08,
            "duration": 4.44
        },
        {
            "text": "just 17 years old and no that's not a",
            "start": 390.36,
            "duration": 4.32
        },
        {
            "text": "typo but here's the kicker my age has no",
            "start": 392.52,
            "duration": 4.32
        },
        {
            "text": "correlation with my skills or passion it",
            "start": 394.68,
            "duration": 3.84
        },
        {
            "text": "has to have some correlation because you",
            "start": 396.84,
            "duration": 3.06
        },
        {
            "text": "spent the last year doing things the",
            "start": 398.52,
            "duration": 2.64
        },
        {
            "text": "last two years or the last three years",
            "start": 399.9,
            "duration": 3.12
        },
        {
            "text": "so the last four years right like you",
            "start": 401.16,
            "duration": 3.9
        },
        {
            "text": "have to like I don't feel like he's",
            "start": 403.02,
            "duration": 3.54
        },
        {
            "text": "seeing the fact that he's saying all",
            "start": 405.06,
            "duration": 3.479
        },
        {
            "text": "these languages you can't learn all of",
            "start": 406.56,
            "duration": 4.079
        },
        {
            "text": "those in a day right if you could learn",
            "start": 408.539,
            "duration": 4.081
        },
        {
            "text": "everything in a day I would agree age",
            "start": 410.639,
            "duration": 4.741
        },
        {
            "text": "has no relation to skills",
            "start": 412.62,
            "duration": 5.22
        },
        {
            "text": "right I would completely agree on you",
            "start": 415.38,
            "duration": 5.4
        },
        {
            "text": "but uh but like to be good at rust is",
            "start": 417.84,
            "duration": 5.88
        },
        {
            "text": "kind of a multi-year thing I'm okay at",
            "start": 420.78,
            "duration": 4.979
        },
        {
            "text": "rust I'd put myself in the okay I can",
            "start": 423.72,
            "duration": 4.56
        },
        {
            "text": "use arc Arc mutexes you know I'm I'm",
            "start": 425.759,
            "duration": 6.181
        },
        {
            "text": "dude I literally spam mutacies okay I'm",
            "start": 428.28,
            "duration": 5.759
        },
        {
            "text": "just like a zerg a Zerg player of just",
            "start": 431.94,
            "duration": 4.199
        },
        {
            "text": "mutacies gallons of them flying",
            "start": 434.039,
            "duration": 3.961
        },
        {
            "text": "everywhere like I know how I can kind of",
            "start": 436.139,
            "duration": 3.241
        },
        {
            "text": "rust you know what I mean",
            "start": 438.0,
            "duration": 3.06
        },
        {
            "text": "it's funny how some people assume that",
            "start": 439.38,
            "duration": 3.5
        },
        {
            "text": "youth automatically equals inexperience",
            "start": 441.06,
            "duration": 3.84
        },
        {
            "text": "illiteracy I don't know about that last",
            "start": 442.88,
            "duration": 4.96
        },
        {
            "text": "one uh amount of knowledge Etc uh I've",
            "start": 444.9,
            "duration": 4.56
        },
        {
            "text": "encountered my fair share of raised",
            "start": 447.84,
            "duration": 3.78
        },
        {
            "text": "eyebrows and skeptical glances as if uh",
            "start": 449.46,
            "duration": 4.079
        },
        {
            "text": "the number of years I've been alive has",
            "start": 451.62,
            "duration": 3.72
        },
        {
            "text": "some magical ability to determine my",
            "start": 453.539,
            "duration": 4.861
        },
        {
            "text": "capability it's a function it it is it's",
            "start": 455.34,
            "duration": 5.759
        },
        {
            "text": "a function of time I mean I agree I",
            "start": 458.4,
            "duration": 5.04
        },
        {
            "text": "agree in the sense that if you spent all",
            "start": 461.099,
            "duration": 4.5
        },
        {
            "text": "of your time since 12 years old",
            "start": 463.44,
            "duration": 5.039
        },
        {
            "text": "absolutely crushing Ash in the software",
            "start": 465.599,
            "duration": 5.401
        },
        {
            "text": "development World by the time you're 17",
            "start": 468.479,
            "duration": 5.28
        },
        {
            "text": "you're a pretty badass developer and you",
            "start": 471.0,
            "duration": 5.16
        },
        {
            "text": "will totally be judged by age despite",
            "start": 473.759,
            "duration": 3.78
        },
        {
            "text": "the fact",
            "start": 476.16,
            "duration": 2.7
        },
        {
            "text": "um despite the fact that you probably",
            "start": 477.539,
            "duration": 3.421
        },
        {
            "text": "don't deserve nearly the Judgment as you",
            "start": 478.86,
            "duration": 4.38
        },
        {
            "text": "do but you're still 17. it's very like",
            "start": 480.96,
            "duration": 3.06
        },
        {
            "text": "it's",
            "start": 483.24,
            "duration": 3.299
        },
        {
            "text": "when I was 17 when I was 20 when I was",
            "start": 484.02,
            "duration": 4.92
        },
        {
            "text": "22 it was impossible to tell me about",
            "start": 486.539,
            "duration": 4.141
        },
        {
            "text": "how life was going to be when I was in",
            "start": 488.94,
            "duration": 3.72
        },
        {
            "text": "my 30s right you couldn't tell me",
            "start": 490.68,
            "duration": 3.78
        },
        {
            "text": "because I couldn't hear I didn't have",
            "start": 492.66,
            "duration": 3.479
        },
        {
            "text": "ears to hear because I just simply",
            "start": 494.46,
            "duration": 3.42
        },
        {
            "text": "haven't achieved that level of",
            "start": 496.139,
            "duration": 3.301
        },
        {
            "text": "understanding or being able to look back",
            "start": 497.88,
            "duration": 4.2
        },
        {
            "text": "on life uh it's it's very hard to",
            "start": 499.44,
            "duration": 5.699
        },
        {
            "text": "explain and so like",
            "start": 502.08,
            "duration": 6.239
        },
        {
            "text": "there's more than just simply time in",
            "start": 505.139,
            "duration": 5.101
        },
        {
            "text": "the saddle programming there's also just",
            "start": 508.319,
            "duration": 4.381
        },
        {
            "text": "life lived uh you know there's something",
            "start": 510.24,
            "duration": 4.739
        },
        {
            "text": "about I'm gonna so this part's death",
            "start": 512.7,
            "duration": 4.019
        },
        {
            "text": "okay so my earlier take probably won't",
            "start": 514.979,
            "duration": 2.94
        },
        {
            "text": "get me canceled but this one probably",
            "start": 516.719,
            "duration": 3.24
        },
        {
            "text": "will there's something about having to",
            "start": 517.919,
            "duration": 4.081
        },
        {
            "text": "wake up at one in the morning and change",
            "start": 519.959,
            "duration": 4.38
        },
        {
            "text": "poopy diapers and and having a kid",
            "start": 522.0,
            "duration": 3.6
        },
        {
            "text": "decide that they're not going to go to",
            "start": 524.339,
            "duration": 3.841
        },
        {
            "text": "bed until 1am 2 A.M 3 A.M that happens",
            "start": 525.6,
            "duration": 4.08
        },
        {
            "text": "multiple nights in a row and then you",
            "start": 528.18,
            "duration": 2.94
        },
        {
            "text": "have to go into work and perform well",
            "start": 529.68,
            "duration": 2.82
        },
        {
            "text": "and you have to do all this crap there's",
            "start": 531.12,
            "duration": 4.08
        },
        {
            "text": "something about that that will cool how",
            "start": 532.5,
            "duration": 4.26
        },
        {
            "text": "you look at people in a different way",
            "start": 535.2,
            "duration": 4.079
        },
        {
            "text": "right and I don't mean that in you know",
            "start": 536.76,
            "duration": 3.84
        },
        {
            "text": "like",
            "start": 539.279,
            "duration": 2.881
        },
        {
            "text": "I do mean that actually in the most",
            "start": 540.6,
            "duration": 4.14
        },
        {
            "text": "obvious way uh it's just that living",
            "start": 542.16,
            "duration": 4.5
        },
        {
            "text": "life in a way that you can't live for",
            "start": 544.74,
            "duration": 4.08
        },
        {
            "text": "yourself makes you change how you live",
            "start": 546.66,
            "duration": 4.14
        },
        {
            "text": "you know in general and so when you're",
            "start": 548.82,
            "duration": 3.78
        },
        {
            "text": "17 you pretty much exclusively live for",
            "start": 550.8,
            "duration": 3.659
        },
        {
            "text": "yourself so I think that it's very easy",
            "start": 552.6,
            "duration": 4.02
        },
        {
            "text": "especially at that younger age to look",
            "start": 554.459,
            "duration": 4.32
        },
        {
            "text": "at people and to make snap judgments a",
            "start": 556.62,
            "duration": 4.14
        },
        {
            "text": "lot easier uh just because you haven't",
            "start": 558.779,
            "duration": 4.201
        },
        {
            "text": "you know you haven't experienced maybe a",
            "start": 560.76,
            "duration": 5.22
        },
        {
            "text": "larger set of stuff and so",
            "start": 562.98,
            "duration": 5.1
        },
        {
            "text": "I think he's absolutely right that no",
            "start": 565.98,
            "duration": 3.96
        },
        {
            "text": "matter how talented he is he will always",
            "start": 568.08,
            "duration": 3.6
        },
        {
            "text": "be judged for being 17 and I feel bad",
            "start": 569.94,
            "duration": 3.72
        },
        {
            "text": "for that absolutely we can all feel bad",
            "start": 571.68,
            "duration": 3.9
        },
        {
            "text": "for that even if he is fantastic and",
            "start": 573.66,
            "duration": 3.96
        },
        {
            "text": "he's Super Wise and all those things and",
            "start": 575.58,
            "duration": 3.84
        },
        {
            "text": "is really good developer but at the end",
            "start": 577.62,
            "duration": 4.92
        },
        {
            "text": "of the day uh you know we do that",
            "start": 579.42,
            "duration": 4.919
        },
        {
            "text": "because it's for the most part you",
            "start": 582.54,
            "duration": 3.66
        },
        {
            "text": "wouldn't be wrong right I'm just gonna",
            "start": 584.339,
            "duration": 3.661
        },
        {
            "text": "say you're not going to be wrong and I",
            "start": 586.2,
            "duration": 3.06
        },
        {
            "text": "totally understand why people make that",
            "start": 588.0,
            "duration": 3.3
        },
        {
            "text": "judgment feels bad for him though keep",
            "start": 589.26,
            "duration": 3.84
        },
        {
            "text": "on pushing I hope he keeps on growing",
            "start": 591.3,
            "duration": 3.9
        },
        {
            "text": "and I I hope you take a you definitely",
            "start": 593.1,
            "duration": 3.78
        },
        {
            "text": "because there's a lot of there's a lot",
            "start": 595.2,
            "duration": 3.12
        },
        {
            "text": "of stuffs in here that makes me feel",
            "start": 596.88,
            "duration": 3.899
        },
        {
            "text": "like maybe you got some time to think",
            "start": 598.32,
            "duration": 5.04
        },
        {
            "text": "about how you bring up people uh you",
            "start": 600.779,
            "duration": 3.961
        },
        {
            "text": "know and maybe it feels like you might",
            "start": 603.36,
            "duration": 3.72
        },
        {
            "text": "be a bit on your snap judgments here uh",
            "start": 604.74,
            "duration": 4.08
        },
        {
            "text": "so here's the uh here's to the fellow",
            "start": 607.08,
            "duration": 3.48
        },
        {
            "text": "techies who are navigating ageism while",
            "start": 608.82,
            "duration": 3.3
        },
        {
            "text": "juggling complex code bases remember",
            "start": 610.56,
            "duration": 2.94
        },
        {
            "text": "your passion your skills and your",
            "start": 612.12,
            "duration": 3.779
        },
        {
            "text": "dedication are the true markers of",
            "start": 613.5,
            "duration": 4.44
        },
        {
            "text": "success this is true as time goes on if",
            "start": 615.899,
            "duration": 4.741
        },
        {
            "text": "you can maintain these things you will",
            "start": 617.94,
            "duration": 5.04
        },
        {
            "text": "just buy the sheer Dent of doing that",
            "start": 620.64,
            "duration": 4.68
        },
        {
            "text": "you will you will start gaining ground",
            "start": 622.98,
            "duration": 3.96
        },
        {
            "text": "and you'll start actually making great",
            "start": 625.32,
            "duration": 3.06
        },
        {
            "text": "contributions and eventually you'll have",
            "start": 626.94,
            "duration": 3.42
        },
        {
            "text": "great things you know my mom always says",
            "start": 628.38,
            "duration": 4.8
        },
        {
            "text": "the harder I work the luckier I get",
            "start": 630.36,
            "duration": 4.8
        },
        {
            "text": "you know why and I think she's right you",
            "start": 633.18,
            "duration": 3.54
        },
        {
            "text": "know my mom lived through oh she had a",
            "start": 635.16,
            "duration": 3.239
        },
        {
            "text": "horrible life in some sense in her 30s",
            "start": 636.72,
            "duration": 3.96
        },
        {
            "text": "my dad died when I was uh when I was",
            "start": 638.399,
            "duration": 3.781
        },
        {
            "text": "young she had the take on the",
            "start": 640.68,
            "duration": 3.06
        },
        {
            "text": "responsibility of raising three kids",
            "start": 642.18,
            "duration": 4.8
        },
        {
            "text": "while declaring bankruptcy uh my brother",
            "start": 643.74,
            "duration": 4.68
        },
        {
            "text": "became a meth head",
            "start": 646.98,
            "duration": 3.18
        },
        {
            "text": "um I kind of got lost there for a little",
            "start": 648.42,
            "duration": 2.52
        },
        {
            "text": "bit",
            "start": 650.16,
            "duration": 2.64
        },
        {
            "text": "um my sister ended up having uh you know",
            "start": 650.94,
            "duration": 3.78
        },
        {
            "text": "some some problems medically right a lot",
            "start": 652.8,
            "duration": 4.979
        },
        {
            "text": "a lot a lot of things all came up and my",
            "start": 654.72,
            "duration": 4.38
        },
        {
            "text": "mom just kept telling me the harder I",
            "start": 657.779,
            "duration": 3.3
        },
        {
            "text": "work the luckier I get and she she did a",
            "start": 659.1,
            "duration": 4.5
        },
        {
            "text": "great job my mom is a dang Saint and I",
            "start": 661.079,
            "duration": 4.2
        },
        {
            "text": "genuinely love her very very much for",
            "start": 663.6,
            "duration": 3.9
        },
        {
            "text": "shaping who I am yeah love her very much",
            "start": 665.279,
            "duration": 5.161
        },
        {
            "text": "and so I agree with this you know if you",
            "start": 667.5,
            "duration": 4.32
        },
        {
            "text": "can remember these things and you can",
            "start": 670.44,
            "duration": 3.48
        },
        {
            "text": "hold on to them long enough things do",
            "start": 671.82,
            "duration": 4.199
        },
        {
            "text": "change may not change the moment but",
            "start": 673.92,
            "duration": 3.359
        },
        {
            "text": "they do change",
            "start": 676.019,
            "duration": 2.82
        },
        {
            "text": "let's continue to prove that age is",
            "start": 677.279,
            "duration": 3.12
        },
        {
            "text": "about a footnote in our journey towards",
            "start": 678.839,
            "duration": 4.44
        },
        {
            "text": "Innovation and excellence and to this uh",
            "start": 680.399,
            "duration": 4.141
        },
        {
            "text": "who can still wrap their heads around",
            "start": 683.279,
            "duration": 2.821
        },
        {
            "text": "the idea of a 17 year old back-end",
            "start": 684.54,
            "duration": 3.6
        },
        {
            "text": "developer well I'll be here coding away",
            "start": 686.1,
            "duration": 4.62
        },
        {
            "text": "leaving ageism in the digital dust",
            "start": 688.14,
            "duration": 4.379
        },
        {
            "text": "thanks for reading the article thanks",
            "start": 690.72,
            "duration": 4.799
        },
        {
            "text": "Kenji I appreciate that uh you know I",
            "start": 692.519,
            "duration": 4.38
        },
        {
            "text": "think it's a good uh I think you're",
            "start": 695.519,
            "duration": 3.421
        },
        {
            "text": "you're doing a great job focusing on on",
            "start": 696.899,
            "duration": 4.321
        },
        {
            "text": "some good things uh if I could give any",
            "start": 698.94,
            "duration": 5.339
        },
        {
            "text": "advice it is to uh it is to recognize",
            "start": 701.22,
            "duration": 4.44
        },
        {
            "text": "that people are going to have different",
            "start": 704.279,
            "duration": 3.781
        },
        {
            "text": "opinions about things and that your",
            "start": 705.66,
            "duration": 4.34
        },
        {
            "text": "struggle is a struggle that's probably",
            "start": 708.06,
            "duration": 4.44
        },
        {
            "text": "gonna help shape you and make you into",
            "start": 710.0,
            "duration": 3.64
        },
        {
            "text": "something great",
            "start": 712.5,
            "duration": 3.6
        },
        {
            "text": "and so looking at it as if it's like",
            "start": 713.64,
            "duration": 3.9
        },
        {
            "text": "there's these people that are ignorant",
            "start": 716.1,
            "duration": 3.54
        },
        {
            "text": "versus people that understand maybe not",
            "start": 717.54,
            "duration": 3.419
        },
        {
            "text": "the right way you know just throwing",
            "start": 719.64,
            "duration": 2.639
        },
        {
            "text": "that out there just throwing something",
            "start": 720.959,
            "duration": 5.101
        },
        {
            "text": "out there okay hey the name",
            "start": 722.279,
            "duration": 6.5
        },
        {
            "text": "is the prime machine",
            "start": 726.06,
            "duration": 2.719
        }
    ],
    "stats": {
        "viewCount": "56727",
        "likeCount": "2025",
        "favoriteCount": "0",
        "commentCount": "501"
    }
}