{
    "id": "iAQJhYQEx-s",
    "title": "Excel Just Got Python | Prime Reacts",
    "publishedAt": "2023-08-31T12:00:38Z",
    "captions": [
        {
            "text": "it is August 23rd 2023 and you're",
            "start": 0.0,
            "duration": 4.14
        },
        {
            "text": "watching the code report most of it",
            "start": 2.58,
            "duration": 3.779
        },
        {
            "text": "let's go code report DeVille first",
            "start": 4.14,
            "duration": 3.84
        },
        {
            "text": "developers will never admit it but that",
            "start": 6.359,
            "duration": 2.881
        },
        {
            "text": "game-changing new app they're building",
            "start": 7.98,
            "duration": 2.76
        },
        {
            "text": "probably could have just been an Excel",
            "start": 9.24,
            "duration": 4.52
        },
        {
            "text": "spreadsheet Excel",
            "start": 10.74,
            "duration": 3.02
        },
        {
            "text": "it's facts all which came out in 1985",
            "start": 16.94,
            "duration": 4.96
        },
        {
            "text": "could be the single most important piece",
            "start": 20.1,
            "duration": 3.66
        },
        {
            "text": "of software for our modern service-based",
            "start": 21.9,
            "duration": 3.6
        },
        {
            "text": "economy working with Excel formulas at",
            "start": 23.76,
            "duration": 3.359
        },
        {
            "text": "my dead end white collar job is actually",
            "start": 25.5,
            "duration": 2.88
        },
        {
            "text": "where I got my first taste of",
            "start": 27.119,
            "duration": 2.761
        },
        {
            "text": "programming I used formulas to figure",
            "start": 28.38,
            "duration": 2.88
        },
        {
            "text": "out that I would never be able to own a",
            "start": 29.88,
            "duration": 3.0
        },
        {
            "text": "house unless I got a higher paying job",
            "start": 31.26,
            "duration": 3.66
        },
        {
            "text": "but you can't do real people with Excel",
            "start": 32.88,
            "duration": 3.78
        },
        {
            "text": "it is possible to hook it up with Visual",
            "start": 34.92,
            "duration": 3.84
        },
        {
            "text": "Basic but that's just way too microsofty",
            "start": 36.66,
            "duration": 3.899
        },
        {
            "text": "luckily",
            "start": 38.76,
            "duration": 4.26
        },
        {
            "text": "he tweeted out this meme",
            "start": 40.559,
            "duration": 4.561
        },
        {
            "text": "this meme",
            "start": 43.02,
            "duration": 4.199
        },
        {
            "text": "is so good",
            "start": 45.12,
            "duration": 4.619
        },
        {
            "text": "I cannot believe",
            "start": 47.219,
            "duration": 5.041
        },
        {
            "text": "I cannot believe I never saw this but",
            "start": 49.739,
            "duration": 4.441
        },
        {
            "text": "damn this is the greatest this is the",
            "start": 52.26,
            "duration": 4.38
        },
        {
            "text": "greatest meme of all time",
            "start": 54.18,
            "duration": 4.8
        },
        {
            "text": "as of yesterday Microsoft Excel will now",
            "start": 56.64,
            "duration": 4.439
        },
        {
            "text": "support python a feature developed in",
            "start": 58.98,
            "duration": 3.719
        },
        {
            "text": "collaboration with the creator of python",
            "start": 61.079,
            "duration": 3.3
        },
        {
            "text": "Guido van Rossum which is totally",
            "start": 62.699,
            "duration": 3.541
        },
        {
            "text": "awesome here's how it'll work in Excel",
            "start": 64.379,
            "duration": 3.901
        },
        {
            "text": "you have access to this new Pi formula",
            "start": 66.24,
            "duration": 3.78
        },
        {
            "text": "which can run python code against the",
            "start": 68.28,
            "duration": 3.18
        },
        {
            "text": "data in your spreadsheet like for",
            "start": 70.02,
            "duration": 3.0
        },
        {
            "text": "example if you want to put your data",
            "start": 71.46,
            "duration": 3.36
        },
        {
            "text": "into a pandas data frame you can now",
            "start": 73.02,
            "duration": 3.36
        },
        {
            "text": "accomplish that by simply highlighting",
            "start": 74.82,
            "duration": 3.18
        },
        {
            "text": "your data and running the corresponding",
            "start": 76.38,
            "duration": 3.599
        },
        {
            "text": "python code another huge",
            "start": 78.0,
            "duration": 4.56
        },
        {
            "text": "I feel like it would have been nice if",
            "start": 79.979,
            "duration": 3.901
        },
        {
            "text": "you could just have a is this like",
            "start": 82.56,
            "duration": 3.12
        },
        {
            "text": "Jupiter book",
            "start": 83.88,
            "duration": 4.32
        },
        {
            "text": "but Microsoft just classically being an",
            "start": 85.68,
            "duration": 3.66
        },
        {
            "text": "[\u00a0__\u00a0]",
            "start": 88.2,
            "duration": 2.88
        },
        {
            "text": "is that all I'm saying right here is",
            "start": 89.34,
            "duration": 5.099
        },
        {
            "text": "this just Jupiter book but that",
            "start": 91.08,
            "duration": 5.999
        },
        {
            "text": "Jupiter book but more annoying",
            "start": 94.439,
            "duration": 4.981
        },
        {
            "text": "Jupiter book except for your data source",
            "start": 97.079,
            "duration": 4.621
        },
        {
            "text": "is in an Excel spreadsheet is that what",
            "start": 99.42,
            "duration": 4.32
        },
        {
            "text": "we're saying it's worse yeah there's",
            "start": 101.7,
            "duration": 4.44
        },
        {
            "text": "just it's just Jupiter book but your",
            "start": 103.74,
            "duration": 4.739
        },
        {
            "text": "database is your ex Excel spreadsheet",
            "start": 106.14,
            "duration": 4.14
        },
        {
            "text": "why would you ever want this",
            "start": 108.479,
            "duration": 4.201
        },
        {
            "text": "I'm",
            "start": 110.28,
            "duration": 4.32
        },
        {
            "text": "I feel like there's because the people",
            "start": 112.68,
            "duration": 3.36
        },
        {
            "text": "that are doing all this intense",
            "start": 114.6,
            "duration": 3.299
        },
        {
            "text": "visualization and everything they're",
            "start": 116.04,
            "duration": 4.14
        },
        {
            "text": "doing it in Jupiter book or they're",
            "start": 117.899,
            "duration": 4.921
        },
        {
            "text": "doing it with a little CLI tool I'm a",
            "start": 120.18,
            "duration": 5.16
        },
        {
            "text": "little confused as why this is a w",
            "start": 122.82,
            "duration": 4.74
        },
        {
            "text": "real talk I'm a little confused as to",
            "start": 125.34,
            "duration": 4.619
        },
        {
            "text": "why anyone would want this I use Excel",
            "start": 127.56,
            "duration": 4.02
        },
        {
            "text": "for the simple stuff I'm just trying to",
            "start": 129.959,
            "duration": 4.681
        },
        {
            "text": "show a w and that's it here's a w here's",
            "start": 131.58,
            "duration": 5.4
        },
        {
            "text": "the result take this thing give me a",
            "start": 134.64,
            "duration": 5.22
        },
        {
            "text": "graph that's that uh it's for normies no",
            "start": 136.98,
            "duration": 4.619
        },
        {
            "text": "it's not for normies",
            "start": 139.86,
            "duration": 4.98
        },
        {
            "text": "this ain't for normies okay you know",
            "start": 141.599,
            "duration": 5.64
        },
        {
            "text": "what's for normies you know what you",
            "start": 144.84,
            "duration": 5.16
        },
        {
            "text": "know this okay normies is when you want",
            "start": 147.239,
            "duration": 4.14
        },
        {
            "text": "to simply just",
            "start": 150.0,
            "duration": 4.14
        },
        {
            "text": "just like one two three four five bar",
            "start": 151.379,
            "duration": 5.641
        },
        {
            "text": "graph it that's normies okay this ain't",
            "start": 154.14,
            "duration": 5.819
        },
        {
            "text": "it okay learning how to make a",
            "start": 157.02,
            "duration": 6.299
        },
        {
            "text": "multi-graph single image",
            "start": 159.959,
            "duration": 5.821
        },
        {
            "text": "whatever you call this crap matplotlib",
            "start": 163.319,
            "duration": 5.161
        },
        {
            "text": "it's just non-trivial it's annoying",
            "start": 165.78,
            "duration": 4.679
        },
        {
            "text": "which benefit is the ability to use",
            "start": 168.48,
            "duration": 4.38
        },
        {
            "text": "Python databiz packages like Seabourn",
            "start": 170.459,
            "duration": 4.021
        },
        {
            "text": "and matplotlib more importantly though",
            "start": 172.86,
            "duration": 3.18
        },
        {
            "text": "it allows developers to write their own",
            "start": 174.48,
            "duration": 3.42
        },
        {
            "text": "custom functions that can Wrangle and",
            "start": 176.04,
            "duration": 3.66
        },
        {
            "text": "clean real world data sets which can be",
            "start": 177.9,
            "duration": 3.78
        },
        {
            "text": "fed to the hungry AIS in fact you could",
            "start": 179.7,
            "duration": 3.539
        },
        {
            "text": "even do machine learning directly in",
            "start": 181.68,
            "duration": 3.24
        },
        {
            "text": "your spreadsheet with tools like scikit",
            "start": 183.239,
            "duration": 4.881
        },
        {
            "text": "learn that's pretty cool",
            "start": 184.92,
            "duration": 3.2
        },
        {
            "text": "I don't understand the purpose of this",
            "start": 189.66,
            "duration": 4.14
        },
        {
            "text": "the amount of people that are going to",
            "start": 191.879,
            "duration": 4.021
        },
        {
            "text": "be debugging Excel for the rest of their",
            "start": 193.8,
            "duration": 4.019
        },
        {
            "text": "life this is just it honestly sounds",
            "start": 195.9,
            "duration": 4.02
        },
        {
            "text": "like the worst possible future this",
            "start": 197.819,
            "duration": 3.78
        },
        {
            "text": "sound this is oh people are gonna hate",
            "start": 199.92,
            "duration": 3.0
        },
        {
            "text": "me for saying this this one's gonna be",
            "start": 201.599,
            "duration": 3.0
        },
        {
            "text": "too spicy but we'll go for it anyways",
            "start": 202.92,
            "duration": 3.3
        },
        {
            "text": "all right boys there's a Polish [\u00a0__\u00a0]",
            "start": 204.599,
            "duration": 3.901
        },
        {
            "text": "we're stepping clean into it sounds like",
            "start": 206.22,
            "duration": 4.2
        },
        {
            "text": "reaction react server components for for",
            "start": 208.5,
            "duration": 4.379
        },
        {
            "text": "Excel this sounds crazy well but don't",
            "start": 210.42,
            "duration": 4.2
        },
        {
            "text": "expect it to train deep learning models",
            "start": 212.879,
            "duration": 3.541
        },
        {
            "text": "with tools like Pi torch and tensorflow",
            "start": 214.62,
            "duration": 3.539
        },
        {
            "text": "and that brings us to the one major",
            "start": 216.42,
            "duration": 4.819
        },
        {
            "text": "caveat the industry",
            "start": 218.159,
            "duration": 3.08
        },
        {
            "text": "your python code does not run locally",
            "start": 223.2,
            "duration": 4.02
        },
        {
            "text": "but instead runs in Microsoft's Azure",
            "start": 225.299,
            "duration": 4.16
        },
        {
            "text": "cloud",
            "start": 227.22,
            "duration": 2.239
        },
        {
            "text": "somehow Microsoft cannot help but just",
            "start": 230.159,
            "duration": 6.621
        },
        {
            "text": "eee everything",
            "start": 233.64,
            "duration": 3.14
        },
        {
            "text": "your stuff on the cloud how is anyone",
            "start": 239.879,
            "duration": 3.961
        },
        {
            "text": "ever going to use this what company",
            "start": 241.799,
            "duration": 5.821
        },
        {
            "text": "wants to send their spreadsheet data up",
            "start": 243.84,
            "duration": 6.06
        },
        {
            "text": "to Microsoft what the hell kind of",
            "start": 247.62,
            "duration": 5.22
        },
        {
            "text": "decision was this Microsoft's so horny",
            "start": 249.9,
            "duration": 5.52
        },
        {
            "text": "for your data all the time this will of",
            "start": 252.84,
            "duration": 4.139
        },
        {
            "text": "course keep you safe from the dangers of",
            "start": 255.42,
            "duration": 3.24
        },
        {
            "text": "spreadsheets and also from the hull that",
            "start": 256.979,
            "duration": 3.48
        },
        {
            "text": "is managing your python versions locally",
            "start": 258.66,
            "duration": 3.78
        },
        {
            "text": "they teamed up with Anaconda to create a",
            "start": 260.459,
            "duration": 4.401
        },
        {
            "text": "standard runtime for running Python and",
            "start": 262.44,
            "duration": 5.759
        },
        {
            "text": "Fire Ship is so good at this instead of",
            "start": 264.86,
            "duration": 5.32
        },
        {
            "text": "becoming upset he's just given you the",
            "start": 268.199,
            "duration": 3.421
        },
        {
            "text": "exactness of it all",
            "start": 270.18,
            "duration": 4.86
        },
        {
            "text": "but man I ain't liking this",
            "start": 271.62,
            "duration": 5.88
        },
        {
            "text": "I don't like this uh the fact that they",
            "start": 275.04,
            "duration": 4.26
        },
        {
            "text": "run it on their Cloud I know Anaconda",
            "start": 277.5,
            "duration": 3.419
        },
        {
            "text": "blah blah blah blah blah blah blah blah",
            "start": 279.3,
            "duration": 2.94
        },
        {
            "text": "but I feel like you could have",
            "start": 280.919,
            "duration": 3.601
        },
        {
            "text": "accomplished this locally okay I feel",
            "start": 282.24,
            "duration": 4.38
        },
        {
            "text": "like you could have done this locally",
            "start": 284.52,
            "duration": 4.26
        },
        {
            "text": "sell in Azure however being able to run",
            "start": 286.62,
            "duration": 4.68
        },
        {
            "text": "python locally is far more privacy",
            "start": 288.78,
            "duration": 4.02
        },
        {
            "text": "friendly and would be faster in most",
            "start": 291.3,
            "duration": 3.119
        },
        {
            "text": "situations yeah the problem is that",
            "start": 292.8,
            "duration": 2.94
        },
        {
            "text": "Microsoft then wouldn't have a product",
            "start": 294.419,
            "duration": 3.121
        },
        {
            "text": "to sell you you could use Linux and run",
            "start": 295.74,
            "duration": 4.8
        },
        {
            "text": "Libra off it yes this is a product oh",
            "start": 297.54,
            "duration": 4.98
        },
        {
            "text": "you've you've actually generated 17",
            "start": 300.54,
            "duration": 5.58
        },
        {
            "text": "graphs but we only allow for 16. that's",
            "start": 302.52,
            "duration": 8.34
        },
        {
            "text": "15 a month for 17 to 32 graphs do you",
            "start": 306.12,
            "duration": 8.46
        },
        {
            "text": "see so right now your graphing limit uh",
            "start": 310.86,
            "duration": 5.64
        },
        {
            "text": "you know oh actually you've done too",
            "start": 314.58,
            "duration": 3.839
        },
        {
            "text": "many it's the Enterprise graphing",
            "start": 316.5,
            "duration": 4.199
        },
        {
            "text": "solution that you need that will be a",
            "start": 318.419,
            "duration": 4.261
        },
        {
            "text": "thousand dollars oh I'm sorry you hired",
            "start": 320.699,
            "duration": 3.84
        },
        {
            "text": "developers and built an entire ecosystem",
            "start": 322.68,
            "duration": 4.98
        },
        {
            "text": "and didn't know about that I'm so sorry",
            "start": 324.539,
            "duration": 5.401
        },
        {
            "text": "geez",
            "start": 327.66,
            "duration": 4.62
        },
        {
            "text": "do you want to use copilot as well you",
            "start": 329.94,
            "duration": 3.9
        },
        {
            "text": "want copilot integrated that's also",
            "start": 332.28,
            "duration": 3.72
        },
        {
            "text": "forty dollars a month that's",
            "start": 333.84,
            "duration": 5.699
        },
        {
            "text": "hey Doc that's 40 a month for co-pilot",
            "start": 336.0,
            "duration": 5.759
        },
        {
            "text": "to write your graphs inside Microsoft",
            "start": 339.539,
            "duration": 4.321
        },
        {
            "text": "Excel yeah a lot of you didn't see that",
            "start": 341.759,
            "duration": 3.961
        },
        {
            "text": "one coming did you you didn't see the",
            "start": 343.86,
            "duration": 3.54
        },
        {
            "text": "one coming guess how much that's gonna",
            "start": 345.72,
            "duration": 5.1
        },
        {
            "text": "cost you oh yeah oh yeah this is the",
            "start": 347.4,
            "duration": 6.0
        },
        {
            "text": "greatest money grab of all time hey",
            "start": 350.82,
            "duration": 4.62
        },
        {
            "text": "there dummy okay you're right you",
            "start": 353.4,
            "duration": 3.6
        },
        {
            "text": "actually are right this is for normies",
            "start": 355.44,
            "duration": 4.68
        },
        {
            "text": "it's to sell co-pilot to normies to",
            "start": 357.0,
            "duration": 5.88
        },
        {
            "text": "generate crafts in the most entirely too",
            "start": 360.12,
            "duration": 5.22
        },
        {
            "text": "complicated fashion sure you want to be",
            "start": 362.88,
            "duration": 4.319
        },
        {
            "text": "able to just have a simple graph well",
            "start": 365.34,
            "duration": 4.199
        },
        {
            "text": "guess what we got co-pilot and python",
            "start": 367.199,
            "duration": 5.161
        },
        {
            "text": "it's 15 a month for that python 40 a",
            "start": 369.539,
            "duration": 4.44
        },
        {
            "text": "month for that co-pilot look at that we",
            "start": 372.36,
            "duration": 3.0
        },
        {
            "text": "got it for you how much better is this",
            "start": 373.979,
            "duration": 3.78
        },
        {
            "text": "you got abilities Ryan Winchester is",
            "start": 375.36,
            "duration": 5.1
        },
        {
            "text": "cheering let's uh uh take it back it's",
            "start": 377.759,
            "duration": 4.981
        },
        {
            "text": "paid and it's in the cloud yikes I know",
            "start": 380.46,
            "duration": 3.66
        },
        {
            "text": "all right take it back yeah you better",
            "start": 382.74,
            "duration": 4.2
        },
        {
            "text": "take it back you better take it back sir",
            "start": 384.12,
            "duration": 5.4
        },
        {
            "text": "this which has support for me sorry I'm",
            "start": 386.94,
            "duration": 5.039
        },
        {
            "text": "so angry I'm sorry I I lost it there I'm",
            "start": 389.52,
            "duration": 4.5
        },
        {
            "text": "sorry please forgive me",
            "start": 391.979,
            "duration": 4.081
        },
        {
            "text": "JavaScript and python it has had those",
            "start": 394.02,
            "duration": 3.36
        },
        {
            "text": "features forever but good luck",
            "start": 396.06,
            "duration": 2.82
        },
        {
            "text": "convincing your boss that's a good idea",
            "start": 397.38,
            "duration": 3.36
        },
        {
            "text": "it's just too free and too open source",
            "start": 398.88,
            "duration": 3.36
        },
        {
            "text": "Python and Excel is going to be a game",
            "start": 400.74,
            "duration": 3.179
        },
        {
            "text": "changer for the boring ass corporate",
            "start": 402.24,
            "duration": 3.12
        },
        {
            "text": "world for the last few years I've been",
            "start": 403.919,
            "duration": 3.181
        },
        {
            "text": "using Google Sheets with apps script",
            "start": 405.36,
            "duration": 3.059
        },
        {
            "text": "which is one of the most underrated",
            "start": 407.1,
            "duration": 3.36
        },
        {
            "text": "tools out there it's the same basic idea",
            "start": 408.419,
            "duration": 4.081
        },
        {
            "text": "as Excel and python but with JavaScript",
            "start": 410.46,
            "duration": 3.66
        },
        {
            "text": "I use it for a variety of business",
            "start": 412.5,
            "duration": 3.539
        },
        {
            "text": "related needs like it helps me automate",
            "start": 414.12,
            "duration": 3.6
        },
        {
            "text": "the shipping of t-shirts and stickers to",
            "start": 416.039,
            "duration": 3.541
        },
        {
            "text": "fireship Pro members and it can even be",
            "start": 417.72,
            "duration": 3.36
        },
        {
            "text": "used to create custom menus and",
            "start": 419.58,
            "duration": 3.66
        },
        {
            "text": "dialogues however python is a far more",
            "start": 421.08,
            "duration": 3.959
        },
        {
            "text": "powerful language when it comes to data",
            "start": 423.24,
            "duration": 4.1
        },
        {
            "text": "analysis what the this is very very true",
            "start": 425.039,
            "duration": 4.861
        },
        {
            "text": "uh as someone who's recently had to do a",
            "start": 427.34,
            "duration": 4.24
        },
        {
            "text": "lot of data analysis in JavaScript",
            "start": 429.9,
            "duration": 3.6
        },
        {
            "text": "instead",
            "start": 431.58,
            "duration": 4.44
        },
        {
            "text": "we just built a python process to do the",
            "start": 433.5,
            "duration": 3.96
        },
        {
            "text": "JavaScript to get the data Munch the",
            "start": 436.02,
            "duration": 3.299
        },
        {
            "text": "data and put it into a proper format and",
            "start": 437.46,
            "duration": 4.92
        },
        {
            "text": "then you then use type python to do the",
            "start": 439.319,
            "duration": 4.141
        },
        {
            "text": "actual",
            "start": 442.38,
            "duration": 2.46
        },
        {
            "text": "the thing",
            "start": 443.46,
            "duration": 3.54
        },
        {
            "text": "it's just easier that means is that",
            "start": 444.84,
            "duration": 3.96
        },
        {
            "text": "virtually every white collar worker will",
            "start": 447.0,
            "duration": 3.479
        },
        {
            "text": "now be able to go generate some python",
            "start": 448.8,
            "duration": 3.78
        },
        {
            "text": "code with chatgpt copy and paste it into",
            "start": 450.479,
            "duration": 5.16
        },
        {
            "text": "Excel it's going to be co-pilot fireship",
            "start": 452.58,
            "duration": 5.64
        },
        {
            "text": "you know it's going to be copilot okay",
            "start": 455.639,
            "duration": 5.521
        },
        {
            "text": "you know it common problems out there",
            "start": 458.22,
            "duration": 4.74
        },
        {
            "text": "Microsoft will be the one running and",
            "start": 461.16,
            "duration": 3.539
        },
        {
            "text": "hosting this code they already have the",
            "start": 462.96,
            "duration": 3.66
        },
        {
            "text": "most powerful AI models and those models",
            "start": 464.699,
            "duration": 3.481
        },
        {
            "text": "will only grow bigger and stronger over",
            "start": 466.62,
            "duration": 3.479
        },
        {
            "text": "time nobody's even close to Microsoft",
            "start": 468.18,
            "duration": 3.78
        },
        {
            "text": "right now in the AI race and that's a",
            "start": 470.099,
            "duration": 3.241
        },
        {
            "text": "result of their developer friendly",
            "start": 471.96,
            "duration": 3.239
        },
        {
            "text": "strategy which can be broken down in",
            "start": 473.34,
            "duration": 4.46
        },
        {
            "text": "three steps",
            "start": 475.199,
            "duration": 2.601
        },
        {
            "text": "Let's Go Fire Ship let's go oh my",
            "start": 478.5,
            "duration": 6.06
        },
        {
            "text": "goodness the most disappointing moment",
            "start": 482.52,
            "duration": 5.64
        },
        {
            "text": "of my lifetime of my lifetime is when",
            "start": 484.56,
            "duration": 5.34
        },
        {
            "text": "just recently let's see if I can pull it",
            "start": 488.16,
            "duration": 3.3
        },
        {
            "text": "up I don't know if I can pull it up I",
            "start": 489.9,
            "duration": 4.199
        },
        {
            "text": "don't know if I can pull it up uh I",
            "start": 491.46,
            "duration": 8.22
        },
        {
            "text": "cannot believe vs code is free",
            "start": 494.099,
            "duration": 8.28
        },
        {
            "text": "oh come on",
            "start": 499.68,
            "duration": 7.04
        },
        {
            "text": "come on it was just a cup cup",
            "start": 502.379,
            "duration": 4.341
        },
        {
            "text": "nobody got this",
            "start": 507.02,
            "duration": 5.139
        },
        {
            "text": "I should have lowercase these two",
            "start": 510.3,
            "duration": 3.659
        },
        {
            "text": "looking back",
            "start": 512.159,
            "duration": 5.521
        },
        {
            "text": "and just had these three uppercased but",
            "start": 513.959,
            "duration": 5.281
        },
        {
            "text": "look at this you say something nice",
            "start": 517.68,
            "duration": 3.84
        },
        {
            "text": "about vs code and look at that their big",
            "start": 519.24,
            "duration": 3.84
        },
        {
            "text": "worries is like oh no they're gonna",
            "start": 521.52,
            "duration": 2.939
        },
        {
            "text": "they're gonna they're gonna be like",
            "start": 523.08,
            "duration": 4.259
        },
        {
            "text": "charging us now no that ain't what this",
            "start": 524.459,
            "duration": 5.701
        },
        {
            "text": "is about this has nothing to do with the",
            "start": 527.339,
            "duration": 5.281
        },
        {
            "text": "fact that it's free",
            "start": 530.16,
            "duration": 3.84
        },
        {
            "text": "damn",
            "start": 532.62,
            "duration": 3.779
        },
        {
            "text": "yeah it's too subtle I know I struggle",
            "start": 534.0,
            "duration": 4.62
        },
        {
            "text": "with the subtlety sometimes first they",
            "start": 536.399,
            "duration": 3.56
        },
        {
            "text": "embrace the developer Community",
            "start": 538.62,
            "duration": 3.839
        },
        {
            "text": "developers developers developers",
            "start": 539.959,
            "duration": 5.021
        },
        {
            "text": "developers developers developer I tried",
            "start": 542.459,
            "duration": 4.5
        },
        {
            "text": "that once at a conference nobody joined",
            "start": 544.98,
            "duration": 3.479
        },
        {
            "text": "in most embarrassing moment of my life",
            "start": 546.959,
            "duration": 3.781
        },
        {
            "text": "then extend developers with awesome new",
            "start": 548.459,
            "duration": 4.201
        },
        {
            "text": "features and tools then I seem to have",
            "start": 550.74,
            "duration": 3.539
        },
        {
            "text": "forgotten what the third step is but",
            "start": 552.66,
            "duration": 3.179
        },
        {
            "text": "this has been the code report thanks for",
            "start": 554.279,
            "duration": 3.421
        },
        {
            "text": "watching and I will see you in the next",
            "start": 555.839,
            "duration": 3.301
        },
        {
            "text": "one I",
            "start": 557.7,
            "duration": 3.38
        },
        {
            "text": "loved it",
            "start": 559.14,
            "duration": 5.34
        },
        {
            "text": "I loved it it hurts it hurts so much it",
            "start": 561.08,
            "duration": 6.04
        },
        {
            "text": "hurts so much that all I want to do is",
            "start": 564.48,
            "duration": 4.32
        },
        {
            "text": "go buy some more Microsoft stock because",
            "start": 567.12,
            "duration": 2.88
        },
        {
            "text": "we all know where it's going okay",
            "start": 568.8,
            "duration": 3.12
        },
        {
            "text": "Microsoft stock is going this way",
            "start": 570.0,
            "duration": 4.92
        },
        {
            "text": "Microsoft going this way and yes I like",
            "start": 571.92,
            "duration": 5.82
        },
        {
            "text": "Aspen gold the name is the asmin",
            "start": 574.92,
            "duration": 5.359
        },
        {
            "text": "goldigen",
            "start": 577.74,
            "duration": 2.539
        }
    ],
    "stats": {
        "viewCount": "47829",
        "likeCount": "2349",
        "favoriteCount": "0",
        "commentCount": "224"
    }
}