{
    "id": "ihFoFqvZhCM",
    "title": "Atomic Git ONLY WAY TO USE GIT | Prime Reacts",
    "publishedAt": "2023-03-18T12:10:00Z",
    "captions": [
        {
            "text": "oh thank you Foster all right let's get",
            "start": 0.84,
            "duration": 3.78
        },
        {
            "text": "started I'm turning off the uh you know",
            "start": 2.7,
            "duration": 2.88
        },
        {
            "text": "the alerts because they're really",
            "start": 4.62,
            "duration": 2.219
        },
        {
            "text": "annoying when you're trying to read and",
            "start": 5.58,
            "duration": 3.3
        },
        {
            "text": "stuff like that okay so everybody be on",
            "start": 6.839,
            "duration": 3.3
        },
        {
            "text": "your best behavior this is gonna appear",
            "start": 8.88,
            "duration": 2.7
        },
        {
            "text": "on YouTube so don't say anything stupid",
            "start": 10.139,
            "duration": 3.801
        },
        {
            "text": "okay",
            "start": 11.58,
            "duration": 2.36
        },
        {
            "text": "all right so how Atomic git commits",
            "start": 14.04,
            "duration": 4.499
        },
        {
            "text": "dramatically increase my productivity",
            "start": 16.5,
            "duration": 5.46
        },
        {
            "text": "and will increase yours too",
            "start": 18.539,
            "duration": 7.021
        },
        {
            "text": "sounds uh I mean okay so dramatically is",
            "start": 21.96,
            "duration": 5.04
        },
        {
            "text": "a big word I feel like that's a little",
            "start": 25.56,
            "duration": 2.7
        },
        {
            "text": "dramatic right now you know what",
            "start": 27.0,
            "duration": 3.38
        },
        {
            "text": "dramatically improved my productivity",
            "start": 28.26,
            "duration": 4.86
        },
        {
            "text": "sessionizer okay that dramatically did",
            "start": 30.38,
            "duration": 5.14
        },
        {
            "text": "this uh this guy right here that",
            "start": 33.12,
            "duration": 4.32
        },
        {
            "text": "dramatically improved my productivity",
            "start": 35.52,
            "duration": 4.379
        },
        {
            "text": "you know it doesn't",
            "start": 37.44,
            "duration": 4.26
        },
        {
            "text": "I'm just down I'm having doubts but",
            "start": 39.899,
            "duration": 4.801
        },
        {
            "text": "maybe I'm wrong Atomic or a let's see of",
            "start": 41.7,
            "duration": 6.0
        },
        {
            "text": "or forming a single irreducible unit or",
            "start": 44.7,
            "duration": 5.58
        },
        {
            "text": "component in a larger system also",
            "start": 47.7,
            "duration": 5.699
        },
        {
            "text": "available on my blog uh knowing versus",
            "start": 50.28,
            "duration": 5.459
        },
        {
            "text": "actually knowing okay I like where we're",
            "start": 53.399,
            "duration": 4.32
        },
        {
            "text": "going I like this okay",
            "start": 55.739,
            "duration": 4.261
        },
        {
            "text": "I remember when my first Mentor told me",
            "start": 57.719,
            "duration": 4.86
        },
        {
            "text": "about test driven development oh damn",
            "start": 60.0,
            "duration": 5.9
        },
        {
            "text": "we're already getting back to tdd oh no",
            "start": 62.579,
            "duration": 7.381
        },
        {
            "text": "oh not like this okay here we go a great",
            "start": 65.9,
            "duration": 7.899
        },
        {
            "text": "method oh my goodness you just don't",
            "start": 69.96,
            "duration": 6.06
        },
        {
            "text": "understand tdd",
            "start": 73.799,
            "duration": 5.581
        },
        {
            "text": "no which I do it's just terrible uh okay",
            "start": 76.02,
            "duration": 6.48
        },
        {
            "text": "great method of methodological approach",
            "start": 79.38,
            "duration": 4.739
        },
        {
            "text": "to software engineering it took me a few",
            "start": 82.5,
            "duration": 3.24
        },
        {
            "text": "minutes to understand what it was and",
            "start": 84.119,
            "duration": 2.941
        },
        {
            "text": "how it worked",
            "start": 85.74,
            "duration": 2.699
        },
        {
            "text": "then I spent the next six months",
            "start": 87.06,
            "duration": 6.18
        },
        {
            "text": "actively not practicing it got him TD is",
            "start": 88.439,
            "duration": 7.86
        },
        {
            "text": "hard when you start you just don't no TD",
            "start": 93.24,
            "duration": 5.519
        },
        {
            "text": "is tdd is hard because if you write your",
            "start": 96.299,
            "duration": 4.081
        },
        {
            "text": "test first",
            "start": 98.759,
            "duration": 3.9
        },
        {
            "text": "you're like you're like you're like",
            "start": 100.38,
            "duration": 4.08
        },
        {
            "text": "pretending you have the foreknowledge of",
            "start": 102.659,
            "duration": 3.721
        },
        {
            "text": "the universe it's just annoying half a",
            "start": 104.46,
            "duration": 3.24
        },
        {
            "text": "year later I was hitting my head against",
            "start": 106.38,
            "duration": 3.239
        },
        {
            "text": "a wall trying to build a new feature I",
            "start": 107.7,
            "duration": 3.48
        },
        {
            "text": "forced myself for the first time to",
            "start": 109.619,
            "duration": 3.901
        },
        {
            "text": "actually do tdd by the book the wall",
            "start": 111.18,
            "duration": 3.96
        },
        {
            "text": "that was blocking my progress",
            "start": 113.52,
            "duration": 5.459
        },
        {
            "text": "disappeared instantaneously",
            "start": 115.14,
            "duration": 5.64
        },
        {
            "text": "okay I thought we were talking about",
            "start": 118.979,
            "duration": 3.901
        },
        {
            "text": "Atomic git commits I've somehow been",
            "start": 120.78,
            "duration": 4.379
        },
        {
            "text": "bamboozled into using tdd I'm not doing",
            "start": 122.88,
            "duration": 3.839
        },
        {
            "text": "tdd",
            "start": 125.159,
            "duration": 3.24
        },
        {
            "text": "in a previous article I explained how",
            "start": 126.719,
            "duration": 3.481
        },
        {
            "text": "many managers and tech leads often know",
            "start": 128.399,
            "duration": 3.301
        },
        {
            "text": "exactly how to make our industry better",
            "start": 130.2,
            "duration": 3.84
        },
        {
            "text": "yet don't",
            "start": 131.7,
            "duration": 5.06
        },
        {
            "text": "I gotta read that",
            "start": 134.04,
            "duration": 2.72
        },
        {
            "text": "better but uh [\u00a0__\u00a0] you and [\u00a0__\u00a0] you and",
            "start": 140.58,
            "duration": 6.299
        },
        {
            "text": "uh [\u00a0__\u00a0] you and you're cool and [\u00a0__\u00a0] you",
            "start": 144.78,
            "duration": 4.98
        },
        {
            "text": "I'm out of here it's just like damn uh",
            "start": 146.879,
            "duration": 5.281
        },
        {
            "text": "there is always a good reason to not uh",
            "start": 149.76,
            "duration": 5.04
        },
        {
            "text": "do things right and somehow we still end",
            "start": 152.16,
            "duration": 4.32
        },
        {
            "text": "up surprised when we're doing things",
            "start": 154.8,
            "duration": 3.78
        },
        {
            "text": "wrong",
            "start": 156.48,
            "duration": 5.7
        },
        {
            "text": "yeah man hell yeah hell yeah",
            "start": 158.58,
            "duration": 6.06
        },
        {
            "text": "um this long introduction is uh here to",
            "start": 162.18,
            "duration": 4.8
        },
        {
            "text": "illustrate a point you can know what you",
            "start": 164.64,
            "duration": 4.44
        },
        {
            "text": "should do but you might not know how",
            "start": 166.98,
            "duration": 5.1
        },
        {
            "text": "important it is to actually do it so",
            "start": 169.08,
            "duration": 4.92
        },
        {
            "text": "many people out there just like I did",
            "start": 172.08,
            "duration": 4.26
        },
        {
            "text": "before know how tdd is great yet still",
            "start": 174.0,
            "duration": 4.68
        },
        {
            "text": "don't use it",
            "start": 176.34,
            "duration": 4.08
        },
        {
            "text": "man this sounds like we're coping here",
            "start": 178.68,
            "duration": 5.04
        },
        {
            "text": "tdd is not great it's not great it's not",
            "start": 180.42,
            "duration": 5.7
        },
        {
            "text": "great it's not great the simplest",
            "start": 183.72,
            "duration": 4.56
        },
        {
            "text": "Concepts can often uh completely change",
            "start": 186.12,
            "duration": 4.68
        },
        {
            "text": "the way you work if you would only apply",
            "start": 188.28,
            "duration": 7.56
        },
        {
            "text": "them introducing the atomic get commits",
            "start": 190.8,
            "duration": 7.439
        },
        {
            "text": "all right what's an atomic git commit I",
            "start": 195.84,
            "duration": 3.479
        },
        {
            "text": "might actually like this I'm actually",
            "start": 198.239,
            "duration": 2.28
        },
        {
            "text": "pretty excited about this I actually",
            "start": 199.319,
            "duration": 2.581
        },
        {
            "text": "think I might fall in love with this man",
            "start": 200.519,
            "duration": 4.981
        },
        {
            "text": "I just got done just full full grade A",
            "start": 201.9,
            "duration": 6.18
        },
        {
            "text": "ligma in him and now I might just love",
            "start": 205.5,
            "duration": 3.9
        },
        {
            "text": "him to death",
            "start": 208.08,
            "duration": 3.6
        },
        {
            "text": "with ligma all right working the atomic",
            "start": 209.4,
            "duration": 4.38
        },
        {
            "text": "git commits wait working with atomic",
            "start": 211.68,
            "duration": 4.02
        },
        {
            "text": "working the atomic commits that sounds",
            "start": 213.78,
            "duration": 2.879
        },
        {
            "text": "like something completely different",
            "start": 215.7,
            "duration": 3.119
        },
        {
            "text": "working with atomic git commits means",
            "start": 216.659,
            "duration": 4.561
        },
        {
            "text": "your commits are of the smallest",
            "start": 218.819,
            "duration": 5.64
        },
        {
            "text": "possible size so before we go on I will",
            "start": 221.22,
            "duration": 6.239
        },
        {
            "text": "say that this has led to quite a bit of",
            "start": 224.459,
            "duration": 5.941
        },
        {
            "text": "problems in my past doing it too small",
            "start": 227.459,
            "duration": 4.5
        },
        {
            "text": "because the problem is there is this",
            "start": 230.4,
            "duration": 4.259
        },
        {
            "text": "notion of atomic commit versus what",
            "start": 231.959,
            "duration": 4.021
        },
        {
            "text": "could be done because then you start",
            "start": 234.659,
            "duration": 3.3
        },
        {
            "text": "getting into this whole like what's the",
            "start": 235.98,
            "duration": 3.839
        },
        {
            "text": "difference between a good citizen and an",
            "start": 237.959,
            "duration": 3.601
        },
        {
            "text": "atomic commit I'll give you an example",
            "start": 239.819,
            "duration": 3.901
        },
        {
            "text": "let's say you're working in a mono repo",
            "start": 241.56,
            "duration": 4.14
        },
        {
            "text": "and there's something like CSV Builder",
            "start": 243.72,
            "duration": 5.22
        },
        {
            "text": "CSV Builders say is in the main area but",
            "start": 245.7,
            "duration": 4.679
        },
        {
            "text": "what would be really nice is if you",
            "start": 248.94,
            "duration": 3.24
        },
        {
            "text": "moved it say into some sort of like uh",
            "start": 250.379,
            "duration": 3.601
        },
        {
            "text": "other package that kind of can be used",
            "start": 252.18,
            "duration": 3.899
        },
        {
            "text": "in multiple repos blah blah blah blah",
            "start": 253.98,
            "duration": 4.68
        },
        {
            "text": "and you end up not doing it and just",
            "start": 256.079,
            "duration": 4.5
        },
        {
            "text": "taking the more short route you're doing",
            "start": 258.66,
            "duration": 3.66
        },
        {
            "text": "exactly what you're supposed to be doing",
            "start": 260.579,
            "duration": 4.021
        },
        {
            "text": "in that one commit but that one commit",
            "start": 262.32,
            "duration": 4.2
        },
        {
            "text": "then leads people to say hey you should",
            "start": 264.6,
            "duration": 3.48
        },
        {
            "text": "be moving stuff and now you're caught in",
            "start": 266.52,
            "duration": 2.88
        },
        {
            "text": "between this thing where it's like I",
            "start": 268.08,
            "duration": 3.66
        },
        {
            "text": "should be doing the more extensive",
            "start": 269.4,
            "duration": 4.26
        },
        {
            "text": "change or should I be doing the atomic",
            "start": 271.74,
            "duration": 4.44
        },
        {
            "text": "basic change and I've had these problems",
            "start": 273.66,
            "duration": 3.96
        },
        {
            "text": "before where you end up getting onto",
            "start": 276.18,
            "duration": 3.06
        },
        {
            "text": "these really pedantic arguments when you",
            "start": 277.62,
            "duration": 4.079
        },
        {
            "text": "try to be too prescriptive about being",
            "start": 279.24,
            "duration": 6.08
        },
        {
            "text": "Atomic do you know what I mean",
            "start": 281.699,
            "duration": 3.621
        },
        {
            "text": "it's just one of those problems yeah",
            "start": 285.78,
            "duration": 2.639
        },
        {
            "text": "Quark commit it could be in two",
            "start": 287.1,
            "duration": 2.76
        },
        {
            "text": "locations at once and it's extremely",
            "start": 288.419,
            "duration": 3.84
        },
        {
            "text": "confusing each commit does one and the",
            "start": 289.86,
            "duration": 4.619
        },
        {
            "text": "only one simple thing I could barely",
            "start": 292.259,
            "duration": 3.961
        },
        {
            "text": "speak there that can be summed up in a",
            "start": 294.479,
            "duration": 5.301
        },
        {
            "text": "single sentence in a simple sentence",
            "start": 296.22,
            "duration": 3.56
        },
        {
            "text": "some [\u00a0__\u00a0] happened the amount of",
            "start": 306.32,
            "duration": 6.04
        },
        {
            "text": "the amount of code changes doesn't",
            "start": 310.22,
            "duration": 4.66
        },
        {
            "text": "matter it can be uh a letter or it can",
            "start": 312.36,
            "duration": 4.619
        },
        {
            "text": "be a hundred thousand lines but you",
            "start": 314.88,
            "duration": 3.3
        },
        {
            "text": "should be able to describe the change",
            "start": 316.979,
            "duration": 5.121
        },
        {
            "text": "with one simple short sentence",
            "start": 318.18,
            "duration": 3.92
        },
        {
            "text": "I don't know about this uh ideally you",
            "start": 324.72,
            "duration": 4.8
        },
        {
            "text": "want your test Suite to be in the green",
            "start": 327.3,
            "duration": 3.6
        },
        {
            "text": "when you commit",
            "start": 329.52,
            "duration": 4.14
        },
        {
            "text": "okay also you want Oh I said ideally I",
            "start": 330.9,
            "duration": 4.26
        },
        {
            "text": "think also you want yeah okay you chain",
            "start": 333.66,
            "duration": 3.539
        },
        {
            "text": "your change your changes might be Atomic",
            "start": 335.16,
            "duration": 3.72
        },
        {
            "text": "I.E the smallest possible but they",
            "start": 337.199,
            "duration": 3.84
        },
        {
            "text": "should be also be complete means that",
            "start": 338.88,
            "duration": 3.599
        },
        {
            "text": "your test Suite Hollow fault always",
            "start": 341.039,
            "duration": 3.841
        },
        {
            "text": "follows through okay as a let's see as",
            "start": 342.479,
            "duration": 4.801
        },
        {
            "text": "small as possible but complete this is",
            "start": 344.88,
            "duration": 4.02
        },
        {
            "text": "an atomic okay so where's this",
            "start": 347.28,
            "duration": 3.24
        },
        {
            "text": "productivity at I think we all",
            "start": 348.9,
            "duration": 3.54
        },
        {
            "text": "understood this where's the productivity",
            "start": 350.52,
            "duration": 3.48
        },
        {
            "text": "I want to know",
            "start": 352.44,
            "duration": 3.42
        },
        {
            "text": "there are a few great advantages to",
            "start": 354.0,
            "duration": 4.02
        },
        {
            "text": "practicing atomica git commits and we'll",
            "start": 355.86,
            "duration": 4.26
        },
        {
            "text": "detail them briefly I reread that sense",
            "start": 358.02,
            "duration": 3.66
        },
        {
            "text": "a completely different order but the",
            "start": 360.12,
            "duration": 4.44
        },
        {
            "text": "last one really is important uh it might",
            "start": 361.68,
            "duration": 4.38
        },
        {
            "text": "completely change the way you approach",
            "start": 364.56,
            "duration": 3.54
        },
        {
            "text": "your work increase your productivity by",
            "start": 366.06,
            "duration": 6.02
        },
        {
            "text": "an order of magnitude",
            "start": 368.1,
            "duration": 3.98
        },
        {
            "text": "uh and make your job much more enjoyable",
            "start": 372.12,
            "duration": 4.139
        },
        {
            "text": "okay dude I gotta know this okay reason",
            "start": 374.639,
            "duration": 3.541
        },
        {
            "text": "number one an atomic change is a",
            "start": 376.259,
            "duration": 3.841
        },
        {
            "text": "reversible change",
            "start": 378.18,
            "duration": 4.26
        },
        {
            "text": "agreed we all know the simple truth",
            "start": 380.1,
            "duration": 3.659
        },
        {
            "text": "about software the requirements are",
            "start": 382.44,
            "duration": 2.879
        },
        {
            "text": "always changing but writing Atomic",
            "start": 383.759,
            "duration": 4.201
        },
        {
            "text": "commits we allow ourselves to revert any",
            "start": 385.319,
            "duration": 4.801
        },
        {
            "text": "changes by simply commit revert this",
            "start": 387.96,
            "duration": 3.48
        },
        {
            "text": "already increases your productivity",
            "start": 390.12,
            "duration": 4.1
        },
        {
            "text": "tremendously okay so I",
            "start": 391.44,
            "duration": 6.72
        },
        {
            "text": "I'm not sure how much that",
            "start": 394.22,
            "duration": 7.24
        },
        {
            "text": "how Okay pull pull time pull time pull",
            "start": 398.16,
            "duration": 5.34
        },
        {
            "text": "tax let's go let's do a pole dance right",
            "start": 401.46,
            "duration": 3.84
        },
        {
            "text": "now we're doing a pull dance dude where",
            "start": 403.5,
            "duration": 4.319
        },
        {
            "text": "the hell does my poll go every time I",
            "start": 405.3,
            "duration": 4.56
        },
        {
            "text": "want to use it it just disappears on me",
            "start": 407.819,
            "duration": 7.021
        },
        {
            "text": "pull manage my pole I swear every single",
            "start": 409.86,
            "duration": 6.839
        },
        {
            "text": "time all right",
            "start": 414.84,
            "duration": 3.38
        },
        {
            "text": "new poll",
            "start": 416.699,
            "duration": 4.201
        },
        {
            "text": "uh revert",
            "start": 418.22,
            "duration": 6.28
        },
        {
            "text": "I revert regularly",
            "start": 420.9,
            "duration": 5.299
        },
        {
            "text": "sometimes",
            "start": 424.5,
            "duration": 4.44
        },
        {
            "text": "rarely never",
            "start": 426.199,
            "duration": 5.981
        },
        {
            "text": "how often are you reverting your code",
            "start": 428.94,
            "duration": 5.64
        },
        {
            "text": "I gotta find out oh manager pulled",
            "start": 432.18,
            "duration": 5.16
        },
        {
            "text": "manage me Daddy like really how often",
            "start": 434.58,
            "duration": 4.86
        },
        {
            "text": "are you doing it I'm in like the rarely",
            "start": 437.34,
            "duration": 4.5
        },
        {
            "text": "to never camp",
            "start": 439.44,
            "duration": 4.62
        },
        {
            "text": "being able to revert commence doesn't uh",
            "start": 441.84,
            "duration": 4.139
        },
        {
            "text": "really make you more productive unless",
            "start": 444.06,
            "duration": 4.079
        },
        {
            "text": "you have to do that a lot exactly that's",
            "start": 445.979,
            "duration": 4.461
        },
        {
            "text": "the thing come exactly Cub",
            "start": 448.139,
            "duration": 5.881
        },
        {
            "text": "like it is amazing to have the",
            "start": 450.44,
            "duration": 5.86
        },
        {
            "text": "opportunity to revert which is also why",
            "start": 454.02,
            "duration": 4.019
        },
        {
            "text": "I don't do git merges",
            "start": 456.3,
            "duration": 6.0
        },
        {
            "text": "irie base dog uh but the ability to",
            "start": 458.039,
            "duration": 6.481
        },
        {
            "text": "revert or cherry pick is still very",
            "start": 462.3,
            "duration": 3.78
        },
        {
            "text": "important so I do try to keep things as",
            "start": 464.52,
            "duration": 3.78
        },
        {
            "text": "small as possible I really do try to and",
            "start": 466.08,
            "duration": 3.78
        },
        {
            "text": "it's really hard discipline to have",
            "start": 468.3,
            "duration": 3.179
        },
        {
            "text": "because let's just be real here it's",
            "start": 469.86,
            "duration": 3.42
        },
        {
            "text": "really easy to want to keep rewriting as",
            "start": 471.479,
            "duration": 3.06
        },
        {
            "text": "you're moving stuff right have you ever",
            "start": 473.28,
            "duration": 3.12
        },
        {
            "text": "refactored a little bit and then you end",
            "start": 474.539,
            "duration": 3.78
        },
        {
            "text": "up refactoring a lot a bit and then you",
            "start": 476.4,
            "duration": 3.66
        },
        {
            "text": "end up refactoring like the whole damn",
            "start": 478.319,
            "duration": 3.301
        },
        {
            "text": "project and you're like what the hell",
            "start": 480.06,
            "duration": 4.259
        },
        {
            "text": "did I do here how did I end up from",
            "start": 481.62,
            "duration": 5.4
        },
        {
            "text": "moving one function to like 10 000 line",
            "start": 484.319,
            "duration": 5.401
        },
        {
            "text": "change I love when people rebase but I",
            "start": 487.02,
            "duration": 4.14
        },
        {
            "text": "don't know how let's see but don't know",
            "start": 489.72,
            "duration": 3.66
        },
        {
            "text": "how uh to rebase and then lose public",
            "start": 491.16,
            "duration": 3.599
        },
        {
            "text": "Branch history yeah I mean it's very",
            "start": 493.38,
            "duration": 2.879
        },
        {
            "text": "easy not to lose public Branch",
            "start": 494.759,
            "duration": 5.181
        },
        {
            "text": "information you don't rebase master",
            "start": 496.259,
            "duration": 3.681
        },
        {
            "text": "you know the Lord right it's like it's",
            "start": 500.099,
            "duration": 7.141
        },
        {
            "text": "not that hard don't rebase Master don't",
            "start": 502.74,
            "duration": 8.22
        },
        {
            "text": "ever need to force push boom you're done",
            "start": 507.24,
            "duration": 5.46
        },
        {
            "text": "yeah you rebased locally okay so most",
            "start": 510.96,
            "duration": 3.3
        },
        {
            "text": "people are on the rarely Camp so let's",
            "start": 512.7,
            "duration": 3.66
        },
        {
            "text": "just say that this you do do this and",
            "start": 514.26,
            "duration": 4.44
        },
        {
            "text": "you can revert I would say that an",
            "start": 516.36,
            "duration": 4.619
        },
        {
            "text": "obvious W here is that you can revert",
            "start": 518.7,
            "duration": 4.62
        },
        {
            "text": "but I would also say it's just like it's",
            "start": 520.979,
            "duration": 3.781
        },
        {
            "text": "not",
            "start": 523.32,
            "duration": 3.42
        },
        {
            "text": "I would not put this as reason number",
            "start": 524.76,
            "duration": 4.259
        },
        {
            "text": "one I would just simply never put this",
            "start": 526.74,
            "duration": 3.96
        },
        {
            "text": "as reason number one why you should get",
            "start": 529.019,
            "duration": 4.621
        },
        {
            "text": "into this habit because it's not",
            "start": 530.7,
            "duration": 5.1
        },
        {
            "text": "for me it's not the big reason for me",
            "start": 533.64,
            "duration": 3.66
        },
        {
            "text": "the number one reason why you do this",
            "start": 535.8,
            "duration": 4.099
        },
        {
            "text": "okay so dude",
            "start": 537.3,
            "duration": 6.0
        },
        {
            "text": "okay so I feel like Samuel I feel like",
            "start": 539.899,
            "duration": 5.681
        },
        {
            "text": "you had he had a good start well he had",
            "start": 543.3,
            "duration": 3.9
        },
        {
            "text": "a terrible start start with tdd really",
            "start": 545.58,
            "duration": 3.18
        },
        {
            "text": "just kicked me right betwixt the legs",
            "start": 547.2,
            "duration": 3.9
        },
        {
            "text": "and Then followed up with this I'll I'll",
            "start": 548.76,
            "duration": 4.019
        },
        {
            "text": "tell you my version of your story when",
            "start": 551.1,
            "duration": 3.72
        },
        {
            "text": "[\u00a0__\u00a0] hits the fan a clean gift history",
            "start": 552.779,
            "duration": 3.541
        },
        {
            "text": "makes a difference between pain and",
            "start": 554.82,
            "duration": 3.42
        },
        {
            "text": "salvation it's like insuring your house",
            "start": 556.32,
            "duration": 5.42
        },
        {
            "text": "seems useless until there's a fire",
            "start": 558.24,
            "duration": 3.5
        },
        {
            "text": "examples why why why does a clean",
            "start": 562.64,
            "duration": 4.96
        },
        {
            "text": "history make any sort of sense why is",
            "start": 565.74,
            "duration": 3.3
        },
        {
            "text": "this important I will tell you one",
            "start": 567.6,
            "duration": 3.72
        },
        {
            "text": "reason why it's important is that it's",
            "start": 569.04,
            "duration": 3.72
        },
        {
            "text": "nice to be able to look back or search",
            "start": 571.32,
            "duration": 3.18
        },
        {
            "text": "back for a series of changes to be able",
            "start": 572.76,
            "duration": 3.36
        },
        {
            "text": "to kind of deduce them to a small set if",
            "start": 574.5,
            "duration": 2.82
        },
        {
            "text": "you need to that has been very",
            "start": 576.12,
            "duration": 2.82
        },
        {
            "text": "beneficial for me to be able to search",
            "start": 577.32,
            "duration": 3.18
        },
        {
            "text": "up the word widgets and see the last",
            "start": 578.94,
            "duration": 3.68
        },
        {
            "text": "five changes to a specific widget file",
            "start": 580.5,
            "duration": 5.459
        },
        {
            "text": "in all of uh or a specific set of widget",
            "start": 582.62,
            "duration": 5.2
        },
        {
            "text": "files in all of the Netflix seven",
            "start": 585.959,
            "duration": 4.32
        },
        {
            "text": "million line code base yeah that is very",
            "start": 587.82,
            "duration": 5.28
        },
        {
            "text": "useful but nonetheless that's such a",
            "start": 590.279,
            "duration": 5.221
        },
        {
            "text": "rarity again to rely on clean git",
            "start": 593.1,
            "duration": 4.64
        },
        {
            "text": "history",
            "start": 595.5,
            "duration": 2.24
        },
        {
            "text": "again rarely used and I just don't think",
            "start": 597.779,
            "duration": 3.601
        },
        {
            "text": "this is here and anytime you need to",
            "start": 600.18,
            "duration": 4.44
        },
        {
            "text": "find a bug you binary search can we all",
            "start": 601.38,
            "duration": 6.74
        },
        {
            "text": "be real here you binary search",
            "start": 604.62,
            "duration": 3.5
        },
        {
            "text": "number three pull requests are much",
            "start": 608.519,
            "duration": 3.301
        },
        {
            "text": "easier to review absolutely okay so this",
            "start": 610.019,
            "duration": 4.201
        },
        {
            "text": "yes this this I completely agree but the",
            "start": 611.82,
            "duration": 3.66
        },
        {
            "text": "hard part is again there's a difference",
            "start": 614.22,
            "duration": 4.679
        },
        {
            "text": "between commit and pull request a commit",
            "start": 615.48,
            "duration": 6.12
        },
        {
            "text": "can be logically small but a change may",
            "start": 618.899,
            "duration": 4.741
        },
        {
            "text": "need to be a set of commits now",
            "start": 621.6,
            "duration": 3.66
        },
        {
            "text": "personally I'm under the opinion that a",
            "start": 623.64,
            "duration": 4.62
        },
        {
            "text": "PR should try to be under 150 lines",
            "start": 625.26,
            "duration": 4.44
        },
        {
            "text": "every single time",
            "start": 628.26,
            "duration": 4.5
        },
        {
            "text": "every single time if you can you've done",
            "start": 629.7,
            "duration": 5.04
        },
        {
            "text": "a great job if you can't do that I get",
            "start": 632.76,
            "duration": 3.66
        },
        {
            "text": "it then try to make it in a couple",
            "start": 634.74,
            "duration": 3.96
        },
        {
            "text": "different commits and try to do the you",
            "start": 636.42,
            "duration": 3.539
        },
        {
            "text": "know the right thing that's what I find",
            "start": 638.7,
            "duration": 3.36
        },
        {
            "text": "is that if you can make it small it's",
            "start": 639.959,
            "duration": 3.541
        },
        {
            "text": "the best for reasoning right people",
            "start": 642.06,
            "duration": 2.88
        },
        {
            "text": "don't give good reviews once you cross",
            "start": 643.5,
            "duration": 5.76
        },
        {
            "text": "about 150 Lines review quality goes down",
            "start": 644.94,
            "duration": 6.48
        },
        {
            "text": "all right number four okay so this is",
            "start": 649.26,
            "duration": 3.54
        },
        {
            "text": "where I'm waiting because he gave me",
            "start": 651.42,
            "duration": 2.88
        },
        {
            "text": "three reasons I don't think we care",
            "start": 652.8,
            "duration": 3.06
        },
        {
            "text": "about nearly as much that could be",
            "start": 654.3,
            "duration": 2.94
        },
        {
            "text": "summed up in a single point of like hey",
            "start": 655.86,
            "duration": 3.24
        },
        {
            "text": "some of the benefits are that you know",
            "start": 657.24,
            "duration": 3.719
        },
        {
            "text": "PR size you can dramatically reduce that",
            "start": 659.1,
            "duration": 3.419
        },
        {
            "text": "uh clean history is nice and you're able",
            "start": 660.959,
            "duration": 3.541
        },
        {
            "text": "to revert your commands boom super nice",
            "start": 662.519,
            "duration": 4.56
        },
        {
            "text": "awesome great thank you all right reason",
            "start": 664.5,
            "duration": 5.399
        },
        {
            "text": "number one a much much better workflow",
            "start": 667.079,
            "duration": 3.961
        },
        {
            "text": "all right this is by far the most",
            "start": 669.899,
            "duration": 2.761
        },
        {
            "text": "important reason to practice atama could",
            "start": 671.04,
            "duration": 3.539
        },
        {
            "text": "get commits it completely Alters the way",
            "start": 672.66,
            "duration": 3.6
        },
        {
            "text": "you approach problem solving if you're",
            "start": 674.579,
            "duration": 3.061
        },
        {
            "text": "like me you might have a tendency while",
            "start": 676.26,
            "duration": 3.24
        },
        {
            "text": "developing a feature to just do it",
            "start": 677.64,
            "duration": 4.5
        },
        {
            "text": "entirely yup yep exactly then you",
            "start": 679.5,
            "duration": 3.839
        },
        {
            "text": "realize how much you did not think",
            "start": 682.14,
            "duration": 3.0
        },
        {
            "text": "through everything yep uh you need to",
            "start": 683.339,
            "duration": 3.421
        },
        {
            "text": "change more than you expected the edge",
            "start": 685.14,
            "duration": 3.3
        },
        {
            "text": "cases aren't taken into account you",
            "start": 686.76,
            "duration": 3.12
        },
        {
            "text": "broke some unrelated tests they need",
            "start": 688.44,
            "duration": 2.88
        },
        {
            "text": "fixing soon you can't end up with",
            "start": 689.88,
            "duration": 3.6
        },
        {
            "text": "amazing of your own uh making yup you're",
            "start": 691.32,
            "duration": 3.54
        },
        {
            "text": "lost your head hurts this happened to me",
            "start": 693.48,
            "duration": 3.26
        },
        {
            "text": "just yesterday and I I just literally",
            "start": 694.86,
            "duration": 4.5
        },
        {
            "text": "reverted it and then started doing small",
            "start": 696.74,
            "duration": 3.88
        },
        {
            "text": "commits and just walked my way through",
            "start": 699.36,
            "duration": 2.88
        },
        {
            "text": "the problem you can't make any progress",
            "start": 700.62,
            "duration": 3.54
        },
        {
            "text": "without being entirely focused yep yep",
            "start": 702.24,
            "duration": 3.9
        },
        {
            "text": "yep now this is the wrong way to do",
            "start": 704.16,
            "duration": 3.48
        },
        {
            "text": "things and the worse you already know",
            "start": 706.14,
            "duration": 3.66
        },
        {
            "text": "the right way because it's so obvious",
            "start": 707.64,
            "duration": 5.22
        },
        {
            "text": "yes okay so this is the article could",
            "start": 709.8,
            "duration": 4.8
        },
        {
            "text": "have like literally been this sentence",
            "start": 712.86,
            "duration": 3.539
        },
        {
            "text": "in one other sentence an atomic git",
            "start": 714.6,
            "duration": 3.84
        },
        {
            "text": "commit is just the smallest amount of",
            "start": 716.399,
            "duration": 3.721
        },
        {
            "text": "work you can possibly fit into a",
            "start": 718.44,
            "duration": 4.74
        },
        {
            "text": "practical change that's that b if you do",
            "start": 720.12,
            "duration": 4.38
        },
        {
            "text": "that you won't ever get into the",
            "start": 723.18,
            "duration": 2.7
        },
        {
            "text": "situation in which you accidentally",
            "start": 724.5,
            "duration": 3.779
        },
        {
            "text": "cluster Yourself by doing too many",
            "start": 725.88,
            "duration": 4.199
        },
        {
            "text": "things at once",
            "start": 728.279,
            "duration": 3.781
        },
        {
            "text": "but I always find that I can only do",
            "start": 730.079,
            "duration": 3.541
        },
        {
            "text": "that in rear view mirror do you know",
            "start": 732.06,
            "duration": 4.32
        },
        {
            "text": "what I mean I can only start making the",
            "start": 733.62,
            "duration": 5.459
        },
        {
            "text": "change and realize what might need to",
            "start": 736.38,
            "duration": 5.1
        },
        {
            "text": "change and then walk myself back and",
            "start": 739.079,
            "duration": 4.621
        },
        {
            "text": "then you know do this",
            "start": 741.48,
            "duration": 5.46
        },
        {
            "text": "see I okay Samuel I like this",
            "start": 743.7,
            "duration": 5.1
        },
        {
            "text": "you should have just started there the",
            "start": 746.94,
            "duration": 3.959
        },
        {
            "text": "well-known method to complete complete a",
            "start": 748.8,
            "duration": 3.659
        },
        {
            "text": "big complex task cut it down into",
            "start": 750.899,
            "duration": 3.421
        },
        {
            "text": "smaller manageable Tiny Steps each step",
            "start": 752.459,
            "duration": 3.661
        },
        {
            "text": "its own simple problem to solve this is",
            "start": 754.32,
            "duration": 2.94
        },
        {
            "text": "obviously advice that you've probably",
            "start": 756.12,
            "duration": 2.279
        },
        {
            "text": "already heard many times but you're",
            "start": 757.26,
            "duration": 3.24
        },
        {
            "text": "actually practicing it and I do all the",
            "start": 758.399,
            "duration": 3.781
        },
        {
            "text": "time but here's the deal is often you",
            "start": 760.5,
            "duration": 3.48
        },
        {
            "text": "don't know that it's a big problem you",
            "start": 762.18,
            "duration": 3.42
        },
        {
            "text": "don't know it's a complex tax you're",
            "start": 763.98,
            "duration": 3.539
        },
        {
            "text": "going like this oh",
            "start": 765.6,
            "duration": 5.039
        },
        {
            "text": "I just need to hide episode numbers that",
            "start": 767.519,
            "duration": 6.481
        },
        {
            "text": "should be easy six months later 14 teams",
            "start": 770.639,
            "duration": 6.121
        },
        {
            "text": "later Galacticus finally is online so we",
            "start": 774.0,
            "duration": 6.06
        },
        {
            "text": "can get all past and current date stamps",
            "start": 776.76,
            "duration": 5.639
        },
        {
            "text": "but non-future stamps can't get and",
            "start": 780.06,
            "duration": 3.779
        },
        {
            "text": "you're just like what the hell how did I",
            "start": 782.399,
            "duration": 4.081
        },
        {
            "text": "get to Galacticus from this one tiny",
            "start": 783.839,
            "duration": 4.261
        },
        {
            "text": "change it happens it totally happens",
            "start": 786.48,
            "duration": 4.56
        },
        {
            "text": "it's completely normal uh well here's a",
            "start": 788.1,
            "duration": 4.5
        },
        {
            "text": "great uh way to actually practice it",
            "start": 791.04,
            "duration": 4.44
        },
        {
            "text": "write Atomic kit commits",
            "start": 792.6,
            "duration": 6.12
        },
        {
            "text": "ah by forcing working in atomic commits",
            "start": 795.48,
            "duration": 4.74
        },
        {
            "text": "you're approaching the work in the right",
            "start": 798.72,
            "duration": 3.059
        },
        {
            "text": "way by simplifying into smaller steps",
            "start": 800.22,
            "duration": 3.66
        },
        {
            "text": "after after all simplifying complexity",
            "start": 801.779,
            "duration": 3.421
        },
        {
            "text": "is our very core of our job so why",
            "start": 803.88,
            "duration": 2.579
        },
        {
            "text": "aren't we always conscious of doing it",
            "start": 805.2,
            "duration": 2.46
        },
        {
            "text": "of course this advice might sound",
            "start": 806.459,
            "duration": 2.581
        },
        {
            "text": "obvious but my past experience proves",
            "start": 807.66,
            "duration": 3.66
        },
        {
            "text": "anything is that it's uh that the",
            "start": 809.04,
            "duration": 4.14
        },
        {
            "text": "obvious really Bears repeating even more",
            "start": 811.32,
            "duration": 4.259
        },
        {
            "text": "importantly it Bears practicing okay I",
            "start": 813.18,
            "duration": 4.38
        },
        {
            "text": "like that that's a good way to say it uh",
            "start": 815.579,
            "duration": 3.481
        },
        {
            "text": "make your work simple better and more",
            "start": 817.56,
            "duration": 3.719
        },
        {
            "text": "manageable and mostly let's see and most",
            "start": 819.06,
            "duration": 4.86
        },
        {
            "text": "importantly make it easier I do not know",
            "start": 821.279,
            "duration": 4.74
        },
        {
            "text": "what this I don't know how to use colons",
            "start": 823.92,
            "duration": 4.02
        },
        {
            "text": "correctly but I don't know if that's how",
            "start": 826.019,
            "duration": 3.961
        },
        {
            "text": "you use a colon correctly take small",
            "start": 827.94,
            "duration": 5.1
        },
        {
            "text": "steps write small commits Atomic commits",
            "start": 829.98,
            "duration": 6.08
        },
        {
            "text": "you will love them",
            "start": 833.04,
            "duration": 3.02
        },
        {
            "text": "okay",
            "start": 837.779,
            "duration": 3.841
        },
        {
            "text": "I feel like this uh there's just things",
            "start": 839.76,
            "duration": 5.6
        },
        {
            "text": "lacking in here which is",
            "start": 841.62,
            "duration": 3.74
        },
        {
            "text": "foreign",
            "start": 845.88,
            "duration": 3.899
        },
        {
            "text": "the idea of free coding or working your",
            "start": 846.98,
            "duration": 4.299
        },
        {
            "text": "way through a series of features is",
            "start": 849.779,
            "duration": 3.661
        },
        {
            "text": "really really good and it's a very good",
            "start": 851.279,
            "duration": 4.62
        },
        {
            "text": "exercise to be able to do more often on",
            "start": 853.44,
            "duration": 4.32
        },
        {
            "text": "your free time to be able to build",
            "start": 855.899,
            "duration": 3.901
        },
        {
            "text": "something in one go to be able to Think",
            "start": 857.76,
            "duration": 3.96
        },
        {
            "text": "Through problem make a series of changes",
            "start": 859.8,
            "duration": 4.26
        },
        {
            "text": "pretty quick honestly you will find that",
            "start": 861.72,
            "duration": 3.9
        },
        {
            "text": "you actually Flex a different muscle",
            "start": 864.06,
            "duration": 3.48
        },
        {
            "text": "which is foresight the ability to look",
            "start": 865.62,
            "duration": 3.54
        },
        {
            "text": "into the future and kind of design the",
            "start": 867.54,
            "duration": 3.599
        },
        {
            "text": "shape of your code to be able to handle",
            "start": 869.16,
            "duration": 3.84
        },
        {
            "text": "various edge cases you'll gain the",
            "start": 871.139,
            "duration": 3.421
        },
        {
            "text": "ability to look further ahead it's kind",
            "start": 873.0,
            "duration": 3.24
        },
        {
            "text": "of like chess right when you first start",
            "start": 874.56,
            "duration": 3.42
        },
        {
            "text": "playing you'd only really are thinking",
            "start": 876.24,
            "duration": 3.48
        },
        {
            "text": "about your current move after a little",
            "start": 877.98,
            "duration": 3.599
        },
        {
            "text": "bit you have like 15 moves you're",
            "start": 879.72,
            "duration": 3.66
        },
        {
            "text": "thinking about all trying to organize",
            "start": 881.579,
            "duration": 4.021
        },
        {
            "text": "and if you practice that you get better",
            "start": 883.38,
            "duration": 3.959
        },
        {
            "text": "at it now some people can just hold more",
            "start": 885.6,
            "duration": 3.539
        },
        {
            "text": "in their head they're more talented than",
            "start": 887.339,
            "duration": 3.901
        },
        {
            "text": "me their name's John Carmack other",
            "start": 889.139,
            "duration": 4.26
        },
        {
            "text": "people like me we kind of explore and we",
            "start": 891.24,
            "duration": 3.539
        },
        {
            "text": "try things and we walk through the",
            "start": 893.399,
            "duration": 3.18
        },
        {
            "text": "problem slowly and try two like",
            "start": 894.779,
            "duration": 4.201
        },
        {
            "text": "different ways to do things now if you",
            "start": 896.579,
            "duration": 3.961
        },
        {
            "text": "practice that skill you'll find that you",
            "start": 898.98,
            "duration": 3.599
        },
        {
            "text": "can get further and further I personally",
            "start": 900.54,
            "duration": 4.38
        },
        {
            "text": "have found that I can do about a",
            "start": 902.579,
            "duration": 4.2
        },
        {
            "text": "two-month planning on the spot May",
            "start": 904.92,
            "duration": 4.14
        },
        {
            "text": "meaning that I can write code that's",
            "start": 906.779,
            "duration": 4.5
        },
        {
            "text": "effectively always good for about two",
            "start": 909.06,
            "duration": 4.44
        },
        {
            "text": "months of continuous code writing that's",
            "start": 911.279,
            "duration": 4.5
        },
        {
            "text": "about where I'm at have I gotten better",
            "start": 913.5,
            "duration": 4.139
        },
        {
            "text": "than that sometimes I'll get better by",
            "start": 915.779,
            "duration": 3.721
        },
        {
            "text": "accident I'll get better but I often",
            "start": 917.639,
            "duration": 3.721
        },
        {
            "text": "find that my first go around I can get",
            "start": 919.5,
            "duration": 3.779
        },
        {
            "text": "about two months use out of it and then",
            "start": 921.36,
            "duration": 3.419
        },
        {
            "text": "I have to refactor it into something",
            "start": 923.279,
            "duration": 3.541
        },
        {
            "text": "that I can get about a year use you know",
            "start": 924.779,
            "duration": 3.901
        },
        {
            "text": "use out of it because often it's just",
            "start": 926.82,
            "duration": 3.18
        },
        {
            "text": "that you don't know how the Project's",
            "start": 928.68,
            "duration": 2.279
        },
        {
            "text": "going to grow you don't know the",
            "start": 930.0,
            "duration": 3.06
        },
        {
            "text": "direction it's going to take so why",
            "start": 930.959,
            "duration": 3.661
        },
        {
            "text": "spend all of your time planning when",
            "start": 933.06,
            "duration": 3.66
        },
        {
            "text": "obviously you should just get code out",
            "start": 934.62,
            "duration": 4.62
        },
        {
            "text": "there try to understand the pressure and",
            "start": 936.72,
            "duration": 4.08
        },
        {
            "text": "then rewrite the damn thing into",
            "start": 939.24,
            "duration": 3.42
        },
        {
            "text": "something that makes more sense all",
            "start": 940.8,
            "duration": 4.14
        },
        {
            "text": "right personal opinion so does this",
            "start": 942.66,
            "duration": 3.72
        },
        {
            "text": "always work can you always work in this",
            "start": 944.94,
            "duration": 3.18
        },
        {
            "text": "idealized thing no if you're on a",
            "start": 946.38,
            "duration": 3.42
        },
        {
            "text": "Greenfield project it's extremely hard",
            "start": 948.12,
            "duration": 3.54
        },
        {
            "text": "to do this just because nothing's even",
            "start": 949.8,
            "duration": 4.56
        },
        {
            "text": "there to do it with you know I wish my",
            "start": 951.66,
            "duration": 5.22
        },
        {
            "text": "managers accepted this take there's a",
            "start": 954.36,
            "duration": 4.32
        },
        {
            "text": "game you have to play and the thing is",
            "start": 956.88,
            "duration": 3.36
        },
        {
            "text": "is that I don't really tell my managers",
            "start": 958.68,
            "duration": 5.3
        },
        {
            "text": "about this take right",
            "start": 960.24,
            "duration": 3.74
        },
        {
            "text": "like I have to kind of I work it in",
            "start": 964.5,
            "duration": 4.94
        },
        {
            "text": "through my estimates",
            "start": 966.66,
            "duration": 2.78
        },
        {
            "text": "you know what I mean but they never let",
            "start": 970.5,
            "duration": 3.36
        },
        {
            "text": "you rewrite things that's why you",
            "start": 972.12,
            "duration": 4.019
        },
        {
            "text": "rewrite them in small chunks this is",
            "start": 973.86,
            "duration": 3.539
        },
        {
            "text": "where Atomic is so this is actually a",
            "start": 976.139,
            "duration": 2.64
        },
        {
            "text": "good a good point this is where Atomic",
            "start": 977.399,
            "duration": 3.421
        },
        {
            "text": "commits can be really nice is I",
            "start": 978.779,
            "duration": 4.62
        },
        {
            "text": "guarantee you stop",
            "start": 980.82,
            "duration": 4.62
        },
        {
            "text": "tweeting",
            "start": 983.399,
            "duration": 4.8
        },
        {
            "text": "spend one hour rewriting something that",
            "start": 985.44,
            "duration": 4.32
        },
        {
            "text": "really just you really really hate even",
            "start": 988.199,
            "duration": 4.14
        },
        {
            "text": "if it's just a simple move out a simple",
            "start": 989.76,
            "duration": 5.16
        },
        {
            "text": "move out will reduce complexity",
            "start": 992.339,
            "duration": 4.201
        },
        {
            "text": "and then the next day",
            "start": 994.92,
            "duration": 4.14
        },
        {
            "text": "try adding a few like simple items onto",
            "start": 996.54,
            "duration": 4.739
        },
        {
            "text": "it like a simple a nice ways to kind of",
            "start": 999.06,
            "duration": 3.54
        },
        {
            "text": "reduce it",
            "start": 1001.279,
            "duration": 2.521
        },
        {
            "text": "and again",
            "start": 1002.6,
            "duration": 3.72
        },
        {
            "text": "walk away and it just starts compounding",
            "start": 1003.8,
            "duration": 5.7
        },
        {
            "text": "just small refactors change projects big",
            "start": 1006.32,
            "duration": 5.819
        },
        {
            "text": "refactors are always hard and hard to",
            "start": 1009.5,
            "duration": 3.48
        },
        {
            "text": "sell",
            "start": 1012.139,
            "duration": 2.281
        },
        {
            "text": "let's move out",
            "start": 1012.98,
            "duration": 3.24
        },
        {
            "text": "let's just say that you have a CSV",
            "start": 1014.42,
            "duration": 3.659
        },
        {
            "text": "producer that is kind of in line with a",
            "start": 1016.22,
            "duration": 3.119
        },
        {
            "text": "bunch of different of your data types",
            "start": 1018.079,
            "duration": 2.641
        },
        {
            "text": "and everything's all together and it's",
            "start": 1019.339,
            "duration": 3.36
        },
        {
            "text": "super kind of like intertwined and then",
            "start": 1020.72,
            "duration": 4.079
        },
        {
            "text": "you need to produce a new CSV and so you",
            "start": 1022.699,
            "duration": 3.781
        },
        {
            "text": "kind of like hack it in and there's a",
            "start": 1024.799,
            "duration": 3.061
        },
        {
            "text": "bunch of if statements and you probably",
            "start": 1026.48,
            "duration": 3.839
        },
        {
            "text": "could do this better okay take all that",
            "start": 1027.86,
            "duration": 4.5
        },
        {
            "text": "logic go throw it in a single class",
            "start": 1030.319,
            "duration": 3.781
        },
        {
            "text": "method or something like that just some",
            "start": 1032.36,
            "duration": 4.439
        },
        {
            "text": "somewhere else call it into it",
            "start": 1034.1,
            "duration": 4.979
        },
        {
            "text": "then try pulling out some of your events",
            "start": 1036.799,
            "duration": 4.02
        },
        {
            "text": "can you abstract them what's in common",
            "start": 1039.079,
            "duration": 3.961
        },
        {
            "text": "with it what's not you know what's you",
            "start": 1040.819,
            "duration": 4.441
        },
        {
            "text": "know different about it try abstracting",
            "start": 1043.04,
            "duration": 4.019
        },
        {
            "text": "like one or two items see where you can",
            "start": 1045.26,
            "duration": 3.36
        },
        {
            "text": "get see if you can make it any better",
            "start": 1047.059,
            "duration": 4.021
        },
        {
            "text": "and then try doing that a few times and",
            "start": 1048.62,
            "duration": 3.9
        },
        {
            "text": "you'll start seeing patterns you'll",
            "start": 1051.08,
            "duration": 3.66
        },
        {
            "text": "start becoming better at writing",
            "start": 1052.52,
            "duration": 3.72
        },
        {
            "text": "software better because that's always",
            "start": 1054.74,
            "duration": 3.059
        },
        {
            "text": "the big thing is that you don't know how",
            "start": 1056.24,
            "duration": 3.42
        },
        {
            "text": "to write software better because you",
            "start": 1057.799,
            "duration": 3.961
        },
        {
            "text": "have an exercise specifically that",
            "start": 1059.66,
            "duration": 4.379
        },
        {
            "text": "muscle enough it helps",
            "start": 1061.76,
            "duration": 4.14
        },
        {
            "text": "trust me",
            "start": 1064.039,
            "duration": 3.961
        },
        {
            "text": "it does help and so I often just do that",
            "start": 1065.9,
            "duration": 4.86
        },
        {
            "text": "I don't try to plan like I really don't",
            "start": 1068.0,
            "duration": 4.98
        },
        {
            "text": "try to plan on refactors I just try to",
            "start": 1070.76,
            "duration": 3.84
        },
        {
            "text": "do them continuously right I just",
            "start": 1072.98,
            "duration": 3.0
        },
        {
            "text": "constantly try to pull things out and",
            "start": 1074.6,
            "duration": 3.42
        },
        {
            "text": "make it better all right there you go",
            "start": 1075.98,
            "duration": 5.48
        },
        {
            "text": "that's it that's it",
            "start": 1078.02,
            "duration": 3.44
        }
    ],
    "stats": {
        "viewCount": "117004",
        "likeCount": "2884",
        "favoriteCount": "0",
        "commentCount": "259"
    }
}