{
    "id": "iiHpi0ZkX_I",
    "title": "No More JavaScript? | Prime Reacts",
    "publishedAt": "2023-06-18T17:12:07Z",
    "captions": [
        {
            "text": "20 years ago okay calm down",
            "start": 0.42,
            "duration": 7.379
        },
        {
            "text": "guys according to Douglas",
            "start": 4.14,
            "duration": 6.6
        },
        {
            "text": "J J being JavaScript Crawford inventor",
            "start": 7.799,
            "duration": 5.521
        },
        {
            "text": "of Jason which was originally referred",
            "start": 10.74,
            "duration": 4.08
        },
        {
            "text": "to as gizmal",
            "start": 13.32,
            "duration": 3.299
        },
        {
            "text": "has officially said we should stop using",
            "start": 14.82,
            "duration": 5.34
        },
        {
            "text": "JavaScript 20 years ago I was advocating",
            "start": 16.619,
            "duration": 6.0
        },
        {
            "text": "for JavaScript my",
            "start": 20.16,
            "duration": 4.32
        },
        {
            "text": "story I remember that he actually came",
            "start": 22.619,
            "duration": 3.781
        },
        {
            "text": "to our University and advocated for",
            "start": 24.48,
            "duration": 3.299
        },
        {
            "text": "JavaScript",
            "start": 26.4,
            "duration": 3.84
        },
        {
            "text": "on the server and said it was going to",
            "start": 27.779,
            "duration": 4.32
        },
        {
            "text": "be easy",
            "start": 30.24,
            "duration": 4.56
        },
        {
            "text": "I kid you not he gave examples of making",
            "start": 32.099,
            "duration": 5.521
        },
        {
            "text": "it run in serial and in parallel easy",
            "start": 34.8,
            "duration": 6.5
        },
        {
            "text": "JavaScript I love it",
            "start": 37.62,
            "duration": 3.68
        },
        {
            "text": "I am this is not me exaggerating at all",
            "start": 41.64,
            "duration": 5.64
        },
        {
            "text": "the story was that JavaScript is a much",
            "start": 45.0,
            "duration": 5.399
        },
        {
            "text": "better language than anybody knows and",
            "start": 47.28,
            "duration": 6.54
        },
        {
            "text": "that if we use it properly we can do",
            "start": 50.399,
            "duration": 5.881
        },
        {
            "text": "amazing things about it",
            "start": 53.82,
            "duration": 5.539
        },
        {
            "text": "[Music]",
            "start": 56.28,
            "duration": 3.079
        },
        {
            "text": "yes you know Haskell it's a much better",
            "start": 65.119,
            "duration": 6.641
        },
        {
            "text": "language than anybody knows and if you",
            "start": 68.939,
            "duration": 5.36
        },
        {
            "text": "just used it right",
            "start": 71.76,
            "duration": 7.52
        },
        {
            "text": "you too would know how good it is",
            "start": 74.299,
            "duration": 4.981
        },
        {
            "text": "pick I'm so sorry ask alone oh my",
            "start": 82.32,
            "duration": 7.14
        },
        {
            "text": "goodness and it can change the world and",
            "start": 86.34,
            "duration": 5.88
        },
        {
            "text": "in fact that happened but now my Evangel",
            "start": 89.46,
            "duration": 5.699
        },
        {
            "text": "is that we should stop using JavaScript",
            "start": 92.22,
            "duration": 4.2
        },
        {
            "text": "that",
            "start": 95.159,
            "duration": 4.801
        },
        {
            "text": "it has so many congenital defects it",
            "start": 96.42,
            "duration": 8.72
        },
        {
            "text": "really is a smelly language there's a",
            "start": 99.96,
            "duration": 5.18
        },
        {
            "text": "[Applause]",
            "start": 105.91,
            "duration": 5.63
        },
        {
            "text": "[Music]",
            "start": 109.31,
            "duration": 5.53
        },
        {
            "text": "yeah you tell them yeah I stood up and",
            "start": 111.54,
            "duration": 4.619
        },
        {
            "text": "stepped on my headphone cord almost",
            "start": 114.84,
            "duration": 3.36
        },
        {
            "text": "ripped my head off let's go",
            "start": 116.159,
            "duration": 5.221
        },
        {
            "text": "let's go crocford",
            "start": 118.2,
            "duration": 5.699
        },
        {
            "text": "I can't believe your middle name is just",
            "start": 121.38,
            "duration": 5.58
        },
        {
            "text": "on though okay great take I'm loving it",
            "start": 123.899,
            "duration": 6.241
        },
        {
            "text": "I love it JavaScript just a lot of crap",
            "start": 126.96,
            "duration": 4.26
        },
        {
            "text": "in it",
            "start": 130.14,
            "duration": 3.12
        },
        {
            "text": "and",
            "start": 131.22,
            "duration": 4.82
        },
        {
            "text": "it's still maybe for",
            "start": 133.26,
            "duration": 5.82
        },
        {
            "text": "its field of application the best",
            "start": 136.04,
            "duration": 4.48
        },
        {
            "text": "language in the world for doing that",
            "start": 139.08,
            "duration": 3.42
        },
        {
            "text": "kind of stuff but that's not good enough",
            "start": 140.52,
            "duration": 4.5
        },
        {
            "text": "we should be I do agree with that and I",
            "start": 142.5,
            "duration": 3.72
        },
        {
            "text": "think when he says field of application",
            "start": 145.02,
            "duration": 3.9
        },
        {
            "text": "I I assume he means browsers he's not",
            "start": 146.22,
            "duration": 5.159
        },
        {
            "text": "talking about servers I just don't think",
            "start": 148.92,
            "duration": 4.74
        },
        {
            "text": "it's the best on the server moving on to",
            "start": 151.379,
            "duration": 5.041
        },
        {
            "text": "the next generation of languages it used",
            "start": 153.66,
            "duration": 6.299
        },
        {
            "text": "to be that we'd get a new computer",
            "start": 156.42,
            "duration": 6.48
        },
        {
            "text": "languages about every generation",
            "start": 159.959,
            "duration": 5.101
        },
        {
            "text": "I'm going to start with Fortran and then",
            "start": 162.9,
            "duration": 5.66
        },
        {
            "text": "C and C plus",
            "start": 165.06,
            "duration": 3.5
        },
        {
            "text": "there was a lot that happened in between",
            "start": 172.14,
            "duration": 4.26
        },
        {
            "text": "all that",
            "start": 174.18,
            "duration": 5.82
        },
        {
            "text": "okay whoa whoa whoa whoa whoa whoa",
            "start": 176.4,
            "duration": 6.419
        },
        {
            "text": "Fortran to see",
            "start": 180.0,
            "duration": 4.319
        },
        {
            "text": "it's gonna be some offended people out",
            "start": 182.819,
            "duration": 4.041
        },
        {
            "text": "there okay",
            "start": 184.319,
            "duration": 2.541
        },
        {
            "text": "just saying just give me a couple",
            "start": 187.14,
            "duration": 4.56
        },
        {
            "text": "offended people out there wasn't Java",
            "start": 189.06,
            "duration": 4.38
        },
        {
            "text": "and JavaScript and so on and then it",
            "start": 191.7,
            "duration": 3.48
        },
        {
            "text": "kind of stopped there are still people",
            "start": 193.44,
            "duration": 4.2
        },
        {
            "text": "developing languages but nobody cares",
            "start": 195.18,
            "duration": 4.139
        },
        {
            "text": "one person can make a programming",
            "start": 197.64,
            "duration": 3.66
        },
        {
            "text": "language a really good one",
            "start": 199.319,
            "duration": 5.161
        },
        {
            "text": "but you can't get adoption for it there",
            "start": 201.3,
            "duration": 5.159
        },
        {
            "text": "are lots of terrible mistakes I believe",
            "start": 204.48,
            "duration": 4.38
        },
        {
            "text": "he just said the story of nim",
            "start": 206.459,
            "duration": 5.28
        },
        {
            "text": "Nim I'm sorry I I'm positive you're a",
            "start": 208.86,
            "duration": 6.379
        },
        {
            "text": "really great language Nim",
            "start": 211.739,
            "duration": 3.5
        },
        {
            "text": "a oh",
            "start": 222.12,
            "duration": 4.979
        },
        {
            "text": "all the people out there are gonna hate",
            "start": 225.0,
            "duration": 4.5
        },
        {
            "text": "me for this V leg I'm positive it was a",
            "start": 227.099,
            "duration": 4.14
        },
        {
            "text": "really great idea I love I loved it",
            "start": 229.5,
            "duration": 5.12
        },
        {
            "text": "v-lang I love what you did",
            "start": 231.239,
            "duration": 6.42
        },
        {
            "text": "he's not talking about zig",
            "start": 234.62,
            "duration": 5.38
        },
        {
            "text": "there's at least four people that like",
            "start": 237.659,
            "duration": 4.681
        },
        {
            "text": "Zig okay minimum",
            "start": 240.0,
            "duration": 4.56
        },
        {
            "text": "no Odin's actually used Odin actually",
            "start": 242.34,
            "duration": 4.8
        },
        {
            "text": "has really great Odin is a specialized",
            "start": 244.56,
            "duration": 4.44
        },
        {
            "text": "language for some things so Odin's great",
            "start": 247.14,
            "duration": 4.08
        },
        {
            "text": "Odin will do fine it's in the way that",
            "start": 249.0,
            "duration": 4.56
        },
        {
            "text": "the web works in the way our operating",
            "start": 251.22,
            "duration": 4.019
        },
        {
            "text": "systems work",
            "start": 253.56,
            "duration": 5.1
        },
        {
            "text": "and we can't get new ones we're just",
            "start": 255.239,
            "duration": 5.761
        },
        {
            "text": "stuck with this crap and and they keep",
            "start": 258.66,
            "duration": 5.039
        },
        {
            "text": "piling new features on everything and",
            "start": 261.0,
            "duration": 4.32
        },
        {
            "text": "the new feature is always create new",
            "start": 263.699,
            "duration": 3.961
        },
        {
            "text": "problems and",
            "start": 265.32,
            "duration": 4.14
        },
        {
            "text": "it doesn't have to be like that we could",
            "start": 267.66,
            "duration": 4.44
        },
        {
            "text": "be using a really clean operating",
            "start": 269.46,
            "duration": 5.94
        },
        {
            "text": "systems with really clean languages and",
            "start": 272.1,
            "duration": 5.76
        },
        {
            "text": "really clean run times and doing all",
            "start": 275.4,
            "duration": 5.88
        },
        {
            "text": "this stuff in a much more reliable way",
            "start": 277.86,
            "duration": 5.16
        },
        {
            "text": "but",
            "start": 281.28,
            "duration": 4.8
        },
        {
            "text": "but we don't seem to want to do that",
            "start": 283.02,
            "duration": 4.56
        },
        {
            "text": "is this one of those",
            "start": 286.08,
            "duration": 4.44
        },
        {
            "text": "the future if",
            "start": 287.58,
            "duration": 4.8
        },
        {
            "text": "is that what this is is this literally",
            "start": 290.52,
            "duration": 4.56
        },
        {
            "text": "that Meme the future if we didn't use",
            "start": 292.38,
            "duration": 4.92
        },
        {
            "text": "JavaScript",
            "start": 295.08,
            "duration": 5.339
        },
        {
            "text": "he's describing C plus plus 100 I think",
            "start": 297.3,
            "duration": 4.56
        },
        {
            "text": "so I think this is actually saying that",
            "start": 300.419,
            "duration": 3.241
        },
        {
            "text": "C plus plus is truly the end game",
            "start": 301.86,
            "duration": 3.3
        },
        {
            "text": "language",
            "start": 303.66,
            "duration": 2.34
        },
        {
            "text": "um",
            "start": 305.16,
            "duration": 3.3
        },
        {
            "text": "this is an older video for sure uh this",
            "start": 306.0,
            "duration": 4.199
        },
        {
            "text": "is just a cut out of it",
            "start": 308.46,
            "duration": 3.799
        },
        {
            "text": "um",
            "start": 310.199,
            "duration": 2.06
        },
        {
            "text": "I mean I",
            "start": 312.66,
            "duration": 4.74
        },
        {
            "text": "problem is is that",
            "start": 314.52,
            "duration": 5.64
        },
        {
            "text": "momentum makes a language live for a",
            "start": 317.4,
            "duration": 3.96
        },
        {
            "text": "long time",
            "start": 320.16,
            "duration": 3.599
        },
        {
            "text": "and the more momentum the longer like I",
            "start": 321.36,
            "duration": 4.2
        },
        {
            "text": "still think JavaScript is a great",
            "start": 323.759,
            "duration": 3.921
        },
        {
            "text": "introduction like introductory",
            "start": 325.56,
            "duration": 4.919
        },
        {
            "text": "introductionary language right it is",
            "start": 327.68,
            "duration": 6.54
        },
        {
            "text": "such a good starting language",
            "start": 330.479,
            "duration": 3.741
        },
        {
            "text": "you gotta move on right like you gotta",
            "start": 336.479,
            "duration": 3.481
        },
        {
            "text": "learn something else you gotta you gotta",
            "start": 338.16,
            "duration": 4.14
        },
        {
            "text": "spread your wings okay a little bit try",
            "start": 339.96,
            "duration": 3.72
        },
        {
            "text": "something else that way you're not just",
            "start": 342.3,
            "duration": 3.179
        },
        {
            "text": "JavaScript build the whole time thinking",
            "start": 343.68,
            "duration": 2.76
        },
        {
            "text": "it's the greatest language in the",
            "start": 345.479,
            "duration": 3.0
        },
        {
            "text": "universe without any idea",
            "start": 346.44,
            "duration": 4.08
        },
        {
            "text": "that there's other introductory there",
            "start": 348.479,
            "duration": 4.16
        },
        {
            "text": "you go thank you introductionary",
            "start": 350.52,
            "duration": 4.739
        },
        {
            "text": "that's not a word Prime",
            "start": 352.639,
            "duration": 3.761
        },
        {
            "text": "um",
            "start": 355.259,
            "duration": 3.421
        },
        {
            "text": "I think people could just get stuck as a",
            "start": 356.4,
            "duration": 3.66
        },
        {
            "text": "one language Andy because it feels easy",
            "start": 358.68,
            "duration": 3.84
        },
        {
            "text": "right don't settle on the first girl",
            "start": 360.06,
            "duration": 5.16
        },
        {
            "text": "yeah I guess",
            "start": 362.52,
            "duration": 6.119
        },
        {
            "text": "why do I even read you chat chat",
            "start": 365.22,
            "duration": 7.52
        },
        {
            "text": "I've done JavaScript for a generation",
            "start": 368.639,
            "duration": 4.101
        },
        {
            "text": "Douglas Crawford 25 years old",
            "start": 375.0,
            "duration": 6.539
        },
        {
            "text": "it's time for the next thing",
            "start": 378.32,
            "duration": 5.4
        },
        {
            "text": "and I don't think that should be a a",
            "start": 381.539,
            "duration": 4.44
        },
        {
            "text": "considered a radical point of view I",
            "start": 383.72,
            "duration": 5.8
        },
        {
            "text": "think it should be a normal evolutionary",
            "start": 385.979,
            "duration": 5.401
        },
        {
            "text": "View",
            "start": 389.52,
            "duration": 3.42
        },
        {
            "text": "I actually do agree with that and that's",
            "start": 391.38,
            "duration": 2.939
        },
        {
            "text": "why I think",
            "start": 392.94,
            "duration": 2.4
        },
        {
            "text": "um",
            "start": 394.319,
            "duration": 2.521
        },
        {
            "text": "that's why I do think this you know like",
            "start": 395.34,
            "duration": 3.479
        },
        {
            "text": "we just got done watching that uh that",
            "start": 396.84,
            "duration": 4.56
        },
        {
            "text": "wazex uh or we got done reading about",
            "start": 398.819,
            "duration": 4.32
        },
        {
            "text": "wasps I actually really think that this",
            "start": 401.4,
            "duration": 4.44
        },
        {
            "text": "that could very well be the marker of",
            "start": 403.139,
            "duration": 4.62
        },
        {
            "text": "the next thing right something that has",
            "start": 405.84,
            "duration": 4.74
        },
        {
            "text": "actually going to dramatically change",
            "start": 407.759,
            "duration": 4.5
        },
        {
            "text": "how the world looks I'm actually pretty",
            "start": 410.58,
            "duration": 4.679
        },
        {
            "text": "excited about that uh I'm hoping now it",
            "start": 412.259,
            "duration": 5.341
        },
        {
            "text": "could Avail to nothing which is the huge",
            "start": 415.259,
            "duration": 4.761
        },
        {
            "text": "possibility",
            "start": 417.6,
            "duration": 2.42
        },
        {
            "text": "but you never know you know what I mean",
            "start": 421.02,
            "duration": 5.119
        },
        {
            "text": "you never know",
            "start": 423.36,
            "duration": 2.779
        },
        {
            "text": "hey guess what the name",
            "start": 426.479,
            "duration": 3.321
        },
        {
            "text": "it's not Tom my name's not Tom my name's",
            "start": 434.52,
            "duration": 4.619
        },
        {
            "text": "my name's not Tom um I'm not a genius",
            "start": 437.1,
            "duration": 4.86
        },
        {
            "text": "I'm just a man who writes JavaScript",
            "start": 439.139,
            "duration": 4.921
        },
        {
            "text": "full-time",
            "start": 441.96,
            "duration": 5.7
        },
        {
            "text": "44 40 some hours a week for for Netflix",
            "start": 444.06,
            "duration": 6.419
        },
        {
            "text": "I work at Netflix by the way though",
            "start": 447.66,
            "duration": 5.3
        },
        {
            "text": "Netflix",
            "start": 450.479,
            "duration": 2.481
        }
    ],
    "stats": {
        "viewCount": "63761",
        "likeCount": "2341",
        "favoriteCount": "0",
        "commentCount": "389"
    }
}