{
    "id": "iiVN99pAg_8",
    "title": "Software Engineer vs Software Developer",
    "publishedAt": "2023-06-16T11:00:38Z",
    "captions": [
        {
            "text": "software engineer what's the difference",
            "start": 0.0,
            "duration": 5.22
        },
        {
            "text": "okay the age-old question are you ready",
            "start": 2.639,
            "duration": 3.601
        },
        {
            "text": "for this",
            "start": 5.22,
            "duration": 2.76
        },
        {
            "text": "um now I want to give you my uh personal",
            "start": 6.24,
            "duration": 3.42
        },
        {
            "text": "opinion on software developer versus",
            "start": 7.98,
            "duration": 4.02
        },
        {
            "text": "software engineer which uh there isn't",
            "start": 9.66,
            "duration": 4.859
        },
        {
            "text": "but let's just find out okay let's find",
            "start": 12.0,
            "duration": 6.6
        },
        {
            "text": "out am I a software engineer or am I a",
            "start": 14.519,
            "duration": 6.42
        },
        {
            "text": "software developer",
            "start": 18.6,
            "duration": 4.2
        },
        {
            "text": "software plays an essential role in how",
            "start": 20.939,
            "duration": 4.941
        },
        {
            "text": "we function in our daily lives",
            "start": 22.8,
            "duration": 3.08
        },
        {
            "text": "okay lovely When comparing software",
            "start": 27.98,
            "duration": 4.36
        },
        {
            "text": "Engineers versus software developers",
            "start": 30.9,
            "duration": 3.06
        },
        {
            "text": "you'll find that software developers and",
            "start": 32.34,
            "duration": 2.94
        },
        {
            "text": "Engineers work together to ensure",
            "start": 33.96,
            "duration": 3.42
        },
        {
            "text": "computer programmers computer programs",
            "start": 35.28,
            "duration": 4.2
        },
        {
            "text": "are effective I work with software",
            "start": 37.38,
            "duration": 3.54
        },
        {
            "text": "Engineers damn",
            "start": 39.48,
            "duration": 3.54
        },
        {
            "text": "uh this article discusses developer",
            "start": 40.92,
            "duration": 4.2
        },
        {
            "text": "versus engineering role engineer role",
            "start": 43.02,
            "duration": 3.6
        },
        {
            "text": "including their similarities and their",
            "start": 45.12,
            "duration": 4.259
        },
        {
            "text": "differences okay okay okay here we go",
            "start": 46.62,
            "duration": 4.98
        },
        {
            "text": "here we go people sit down",
            "start": 49.379,
            "duration": 4.321
        },
        {
            "text": "let's find out which one of you guys are",
            "start": 51.6,
            "duration": 3.9
        },
        {
            "text": "real engineers and not",
            "start": 53.7,
            "duration": 4.859
        },
        {
            "text": "software developers design develop and",
            "start": 55.5,
            "duration": 5.039
        },
        {
            "text": "customize computer software applications",
            "start": 58.559,
            "duration": 4.201
        },
        {
            "text": "for many Industries they identify",
            "start": 60.539,
            "duration": 4.2
        },
        {
            "text": "customer needs develop software to meet",
            "start": 62.76,
            "duration": 3.78
        },
        {
            "text": "those needs and test and modify the",
            "start": 64.739,
            "duration": 3.841
        },
        {
            "text": "software as needed they often work",
            "start": 66.54,
            "duration": 3.96
        },
        {
            "text": "directly with clients or as part of a",
            "start": 68.58,
            "duration": 4.2
        },
        {
            "text": "team of developers engineers and",
            "start": 70.5,
            "duration": 4.08
        },
        {
            "text": "programmers dude there's a third",
            "start": 72.78,
            "duration": 3.96
        },
        {
            "text": "category we're not even going to discuss",
            "start": 74.58,
            "duration": 4.02
        },
        {
            "text": "the third category how could you do that",
            "start": 76.74,
            "duration": 4.32
        },
        {
            "text": "that can we pour one out for the poor",
            "start": 78.6,
            "duration": 4.559
        },
        {
            "text": "programmers that aren't even they don't",
            "start": 81.06,
            "duration": 3.66
        },
        {
            "text": "even get up they get a they don't even",
            "start": 83.159,
            "duration": 2.941
        },
        {
            "text": "get an honorable mention they're just",
            "start": 84.72,
            "duration": 4.38
        },
        {
            "text": "like passerbys uh to create software",
            "start": 86.1,
            "duration": 5.1
        },
        {
            "text": "solutions that meet their uh specific",
            "start": 89.1,
            "duration": 4.14
        },
        {
            "text": "user needs okay software developer",
            "start": 91.2,
            "duration": 4.379
        },
        {
            "text": "salary and career growth hell yeah",
            "start": 93.24,
            "duration": 4.86
        },
        {
            "text": "according to the US Bureau of Labor",
            "start": 95.579,
            "duration": 5.701
        },
        {
            "text": "Statistics uh the BLS probably dropped",
            "start": 98.1,
            "duration": 5.159
        },
        {
            "text": "the L it may be good uh software",
            "start": 101.28,
            "duration": 4.62
        },
        {
            "text": "developers earn a median salary of a",
            "start": 103.259,
            "duration": 5.4
        },
        {
            "text": "hundred and twenty seven thousand two",
            "start": 105.9,
            "duration": 5.28
        },
        {
            "text": "hundred and sixty dollars Unfortunately",
            "start": 108.659,
            "duration": 4.261
        },
        {
            "text": "they do spend forty thousand dollars a",
            "start": 111.18,
            "duration": 4.92
        },
        {
            "text": "year on soy lattes so you know it really",
            "start": 112.92,
            "duration": 4.8
        },
        {
            "text": "isn't that much honestly it really isn't",
            "start": 116.1,
            "duration": 3.0
        },
        {
            "text": "that much money like when you think",
            "start": 117.72,
            "duration": 3.06
        },
        {
            "text": "about it that way they're really",
            "start": 119.1,
            "duration": 3.54
        },
        {
            "text": "actually living the life of poverty you",
            "start": 120.78,
            "duration": 4.019
        },
        {
            "text": "know what I mean it's like poverty",
            "start": 122.64,
            "duration": 4.979
        },
        {
            "text": "lifestyle uh it's very very difficult to",
            "start": 124.799,
            "duration": 5.041
        },
        {
            "text": "wear Lululemon and drink soy lattes on",
            "start": 127.619,
            "duration": 4.26
        },
        {
            "text": "127. okay",
            "start": 129.84,
            "duration": 4.2
        },
        {
            "text": "the job outlook for software developers",
            "start": 131.879,
            "duration": 4.321
        },
        {
            "text": "is excellent with employment a projected",
            "start": 134.04,
            "duration": 5.64
        },
        {
            "text": "to increase 26 percent from 2021 to 2031",
            "start": 136.2,
            "duration": 6.24
        },
        {
            "text": "according to the BLS okay you know for",
            "start": 139.68,
            "duration": 5.1
        },
        {
            "text": "all those for all those AIS taking our",
            "start": 142.44,
            "duration": 4.62
        },
        {
            "text": "jobs software developer education",
            "start": 144.78,
            "duration": 4.26
        },
        {
            "text": "requirements all right here we go here",
            "start": 147.06,
            "duration": 4.319
        },
        {
            "text": "we go software developers typically need",
            "start": 149.04,
            "duration": 4.68
        },
        {
            "text": "a back layers in software engineering",
            "start": 151.379,
            "duration": 4.321
        },
        {
            "text": "applied computer science data science",
            "start": 153.72,
            "duration": 4.379
        },
        {
            "text": "software development or a related",
            "start": 155.7,
            "duration": 4.44
        },
        {
            "text": "discipline a degree program typically",
            "start": 158.099,
            "duration": 3.72
        },
        {
            "text": "includes mathematics computer",
            "start": 160.14,
            "duration": 4.02
        },
        {
            "text": "programming languages and software",
            "start": 161.819,
            "duration": 5.041
        },
        {
            "text": "design courses additionally coding boot",
            "start": 164.16,
            "duration": 4.38
        },
        {
            "text": "camps can be an excellent option for",
            "start": 166.86,
            "duration": 3.959
        },
        {
            "text": "developing specific skills and gaining",
            "start": 168.54,
            "duration": 3.9
        },
        {
            "text": "hands-on experience in skills like",
            "start": 170.819,
            "duration": 5.181
        },
        {
            "text": "programming oh",
            "start": 172.44,
            "duration": 3.56
        },
        {
            "text": "oh programmers are just the pieces of",
            "start": 176.54,
            "duration": 5.82
        },
        {
            "text": "that's what that means you need",
            "start": 179.76,
            "duration": 4.619
        },
        {
            "text": "programmers are the ones that could cut",
            "start": 182.36,
            "duration": 4.06
        },
        {
            "text": "it with mathematics and so therefore",
            "start": 184.379,
            "duration": 3.841
        },
        {
            "text": "they don't get to be a part of the",
            "start": 186.42,
            "duration": 3.48
        },
        {
            "text": "developers but I don't know if I'm even",
            "start": 188.22,
            "duration": 3.12
        },
        {
            "text": "I don't know if I'm an engineer I'm not",
            "start": 189.9,
            "duration": 2.699
        },
        {
            "text": "gonna lie to you I don't know if I'm an",
            "start": 191.34,
            "duration": 3.72
        },
        {
            "text": "engineer based on this article okay boot",
            "start": 192.599,
            "duration": 4.14
        },
        {
            "text": "camps can give you a Competitive Edge in",
            "start": 195.06,
            "duration": 4.08
        },
        {
            "text": "the job market I big fan of edging so",
            "start": 196.739,
            "duration": 5.041
        },
        {
            "text": "hey if you can get some edging in",
            "start": 199.14,
            "duration": 5.76
        },
        {
            "text": "you know who to call the Boot campagen",
            "start": 201.78,
            "duration": 5.099
        },
        {
            "text": "wasn't there just recently a boot camp",
            "start": 204.9,
            "duration": 4.259
        },
        {
            "text": "that got in a lot of trouble okay so",
            "start": 206.879,
            "duration": 4.741
        },
        {
            "text": "that camp or the place that got in all",
            "start": 209.159,
            "duration": 5.641
        },
        {
            "text": "that trouble like a week before they",
            "start": 211.62,
            "duration": 5.82
        },
        {
            "text": "emailed me and they're like yo baby",
            "start": 214.8,
            "duration": 5.4
        },
        {
            "text": "I'd like to sit down maybe appear on",
            "start": 217.44,
            "duration": 4.92
        },
        {
            "text": "your stream get people excited for a",
            "start": 220.2,
            "duration": 4.08
        },
        {
            "text": "little boot camp",
            "start": 222.36,
            "duration": 3.54
        },
        {
            "text": "and I was like oh really and they're",
            "start": 224.28,
            "duration": 3.3
        },
        {
            "text": "like oh really",
            "start": 225.9,
            "duration": 3.72
        },
        {
            "text": "and then right afterwards it was just",
            "start": 227.58,
            "duration": 4.32
        },
        {
            "text": "like could have been Lambda School",
            "start": 229.62,
            "duration": 4.44
        },
        {
            "text": "anyways uh boot camps can give you a",
            "start": 231.9,
            "duration": 3.839
        },
        {
            "text": "Competitive Edge in the job market it is",
            "start": 234.06,
            "duration": 3.48
        },
        {
            "text": "not it is not uncommon for software",
            "start": 235.739,
            "duration": 3.72
        },
        {
            "text": "developers to have both a college degree",
            "start": 237.54,
            "duration": 4.02
        },
        {
            "text": "and boot camp training",
            "start": 239.459,
            "duration": 7.381
        },
        {
            "text": "pull right now Forbes you piece of",
            "start": 241.56,
            "duration": 11.099
        },
        {
            "text": "Paul Paul new poll is this true yes I",
            "start": 246.84,
            "duration": 8.94
        },
        {
            "text": "have both no",
            "start": 252.659,
            "duration": 5.961
        },
        {
            "text": "none",
            "start": 255.78,
            "duration": 2.84
        },
        {
            "text": "I have never I have never heard of",
            "start": 258.959,
            "duration": 4.68
        },
        {
            "text": "someone having both a college degree and",
            "start": 261.84,
            "duration": 5.16
        },
        {
            "text": "boot camp you have both",
            "start": 263.639,
            "duration": 5.28
        },
        {
            "text": "no see this is the problem about twitch",
            "start": 267.0,
            "duration": 5.46
        },
        {
            "text": "y'all y'all y'all always go",
            "start": 268.919,
            "duration": 5.901
        },
        {
            "text": "on here and put just whatever answer",
            "start": 272.46,
            "duration": 5.04
        },
        {
            "text": "pisses me off it doesn't matter what it",
            "start": 274.82,
            "duration": 5.62
        },
        {
            "text": "is somehow there's always just like you",
            "start": 277.5,
            "duration": 6.72
        },
        {
            "text": "know you know that you know it okay oh",
            "start": 280.44,
            "duration": 6.3
        },
        {
            "text": "yeah I knew that no you didn't okay you",
            "start": 284.22,
            "duration": 4.62
        },
        {
            "text": "didn't that's three years at a uni and a",
            "start": 286.74,
            "duration": 5.519
        },
        {
            "text": "boot camp count I got that damn",
            "start": 288.84,
            "duration": 6.419
        },
        {
            "text": "both",
            "start": 292.259,
            "duration": 4.741
        },
        {
            "text": "be in philosophy in a little boot camp",
            "start": 295.259,
            "duration": 3.181
        },
        {
            "text": "okay but that's different they're saying",
            "start": 297.0,
            "duration": 3.419
        },
        {
            "text": "a degree",
            "start": 298.44,
            "duration": 5.58
        },
        {
            "text": "in programming followed by that",
            "start": 300.419,
            "duration": 6.661
        },
        {
            "text": "damn the song is a banger",
            "start": 304.02,
            "duration": 5.64
        },
        {
            "text": "okay maybe I'm out of touch no okay so",
            "start": 307.08,
            "duration": 4.98
        },
        {
            "text": "11 people apparently did it a lot of",
            "start": 309.66,
            "duration": 4.02
        },
        {
            "text": "people have nothing they're just like",
            "start": 312.06,
            "duration": 4.98
        },
        {
            "text": "I'm just programming doc you'll dock",
            "start": 313.68,
            "duration": 6.079
        },
        {
            "text": "programming",
            "start": 317.04,
            "duration": 2.719
        },
        {
            "text": "Prime was the guy in the top image",
            "start": 320.72,
            "duration": 4.539
        },
        {
            "text": "wearing a bulletproof basketball coating",
            "start": 323.58,
            "duration": 4.98
        },
        {
            "text": "absolutely uh maybe an English degree",
            "start": 325.259,
            "duration": 4.621
        },
        {
            "text": "maybe yeah but that's different right",
            "start": 328.56,
            "duration": 3.78
        },
        {
            "text": "that makes sense you went you went to",
            "start": 329.88,
            "duration": 4.259
        },
        {
            "text": "college and you got some stupid ass",
            "start": 332.34,
            "duration": 3.6
        },
        {
            "text": "degree you came out with a liberal arts",
            "start": 334.139,
            "duration": 5.041
        },
        {
            "text": "degree why why won't they pay me money",
            "start": 335.94,
            "duration": 5.4
        },
        {
            "text": "you know and you're all confused that",
            "start": 339.18,
            "duration": 3.9
        },
        {
            "text": "all you can do is tell people about",
            "start": 341.34,
            "duration": 4.139
        },
        {
            "text": "effectively nothing and why no one will",
            "start": 343.08,
            "duration": 4.619
        },
        {
            "text": "pay you and then guess what you do you",
            "start": 345.479,
            "duration": 4.621
        },
        {
            "text": "go to a programming boot camp that's",
            "start": 347.699,
            "duration": 4.5
        },
        {
            "text": "completely normal and I support that I",
            "start": 350.1,
            "duration": 3.18
        },
        {
            "text": "actually think that's a really great",
            "start": 352.199,
            "duration": 3.481
        },
        {
            "text": "idea to go to Liberal Arts that's",
            "start": 353.28,
            "duration": 3.78
        },
        {
            "text": "actually how schools used to be did you",
            "start": 355.68,
            "duration": 4.019
        },
        {
            "text": "know that you do four years of liberal",
            "start": 357.06,
            "duration": 5.639
        },
        {
            "text": "arts and then you would specialize right",
            "start": 359.699,
            "duration": 4.981
        },
        {
            "text": "like that was the real thing in the uh",
            "start": 362.699,
            "duration": 4.321
        },
        {
            "text": "for most of college degree like in a in",
            "start": 364.68,
            "duration": 3.98
        },
        {
            "text": "a proper",
            "start": 367.02,
            "duration": 3.899
        },
        {
            "text": "educational pursuited Society that's how",
            "start": 368.66,
            "duration": 3.819
        },
        {
            "text": "it's supposed to be but we're not that",
            "start": 370.919,
            "duration": 3.661
        },
        {
            "text": "anyways why am I not getting paid for my",
            "start": 372.479,
            "duration": 3.961
        },
        {
            "text": "underwater basket basket weaving degree",
            "start": 374.58,
            "duration": 3.179
        },
        {
            "text": "I know",
            "start": 376.44,
            "duration": 2.64
        },
        {
            "text": "anyways",
            "start": 377.759,
            "duration": 4.681
        },
        {
            "text": "let's keep on going okay",
            "start": 379.08,
            "duration": 5.339
        },
        {
            "text": "software developer developer programming",
            "start": 382.44,
            "duration": 4.68
        },
        {
            "text": "languages and daily tasks okay the",
            "start": 384.419,
            "duration": 4.141
        },
        {
            "text": "requirements and responsibilities for",
            "start": 387.12,
            "duration": 2.82
        },
        {
            "text": "software developers vary by position",
            "start": 388.56,
            "duration": 3.359
        },
        {
            "text": "generally they are expected to be uh",
            "start": 389.94,
            "duration": 3.539
        },
        {
            "text": "have Proficiency in various computer",
            "start": 391.919,
            "duration": 5.101
        },
        {
            "text": "languages and operating systems",
            "start": 393.479,
            "duration": 6.601
        },
        {
            "text": "what this I have literally never heard",
            "start": 397.02,
            "duration": 4.799
        },
        {
            "text": "anyone be like",
            "start": 400.08,
            "duration": 3.6
        },
        {
            "text": "could you tell me about Ubuntu and",
            "start": 401.819,
            "duration": 3.541
        },
        {
            "text": "Windows please",
            "start": 403.68,
            "duration": 3.42
        },
        {
            "text": "um the following are some common tasks",
            "start": 405.36,
            "duration": 3.0
        },
        {
            "text": "that software developers May perform",
            "start": 407.1,
            "duration": 3.3
        },
        {
            "text": "plan design developed customized test",
            "start": 408.36,
            "duration": 3.72
        },
        {
            "text": "and maintain computer software and",
            "start": 410.4,
            "duration": 3.18
        },
        {
            "text": "applications or systems that address",
            "start": 412.08,
            "duration": 3.54
        },
        {
            "text": "specific user needs okay",
            "start": 413.58,
            "duration": 3.72
        },
        {
            "text": "use customer feedback to upgrade",
            "start": 415.62,
            "duration": 3.12
        },
        {
            "text": "existing software and systems to make",
            "start": 417.3,
            "duration": 3.179
        },
        {
            "text": "them more effective or efficient uh",
            "start": 418.74,
            "duration": 3.239
        },
        {
            "text": "create maintain documentation for the",
            "start": 420.479,
            "duration": 2.881
        },
        {
            "text": "system applications use a variety of",
            "start": 421.979,
            "duration": 3.621
        },
        {
            "text": "programming languages such as uh",
            "start": 423.36,
            "duration": 7.58
        },
        {
            "text": "python C plus JavaScript Java",
            "start": 425.6,
            "duration": 5.34
        },
        {
            "text": "Hold It Back",
            "start": 435.18,
            "duration": 3.48
        },
        {
            "text": "Hold It Back",
            "start": 437.22,
            "duration": 2.699
        },
        {
            "text": "now",
            "start": 438.66,
            "duration": 3.659
        },
        {
            "text": "personally when I first read this",
            "start": 439.919,
            "duration": 4.321
        },
        {
            "text": "obviously I gave them the benefit of the",
            "start": 442.319,
            "duration": 4.141
        },
        {
            "text": "doubt Oxford comma issue they clearly",
            "start": 444.24,
            "duration": 3.959
        },
        {
            "text": "just Oxford comma this because because",
            "start": 446.46,
            "duration": 3.66
        },
        {
            "text": "clearly they understood that when you",
            "start": 448.199,
            "duration": 4.681
        },
        {
            "text": "use CSS plus HTML it's actually a tour",
            "start": 450.12,
            "duration": 5.16
        },
        {
            "text": "in complete language",
            "start": 452.88,
            "duration": 3.96
        },
        {
            "text": "they knew",
            "start": 455.28,
            "duration": 3.479
        },
        {
            "text": "but then I looked at all their other",
            "start": 456.84,
            "duration": 4.44
        },
        {
            "text": "hands and guess what this one doesn't",
            "start": 458.759,
            "duration": 4.321
        },
        {
            "text": "have it either right",
            "start": 461.28,
            "duration": 3.24
        },
        {
            "text": "and it just keeps the test and",
            "start": 463.08,
            "duration": 5.64
        },
        {
            "text": "maintained right so this is just",
            "start": 464.52,
            "duration": 6.239
        },
        {
            "text": "bam all right what is a software",
            "start": 468.72,
            "duration": 4.919
        },
        {
            "text": "engineer all right let's go let's go",
            "start": 470.759,
            "duration": 4.5
        },
        {
            "text": "come on",
            "start": 473.639,
            "duration": 4.081
        },
        {
            "text": "who's touring his name's Alan uh",
            "start": 475.259,
            "duration": 4.38
        },
        {
            "text": "software Engineers are considered a type",
            "start": 477.72,
            "duration": 4.199
        },
        {
            "text": "of software developer they are involved",
            "start": 479.639,
            "duration": 3.9
        },
        {
            "text": "in all stages of software development",
            "start": 481.919,
            "duration": 3.741
        },
        {
            "text": "lifecycle using programming languages",
            "start": 483.539,
            "duration": 5.341
        },
        {
            "text": "architecture and structural design to",
            "start": 485.66,
            "duration": 6.58
        },
        {
            "text": "develop I what is structural design and",
            "start": 488.88,
            "duration": 5.46
        },
        {
            "text": "how does a different damn it I am not a",
            "start": 492.24,
            "duration": 5.42
        },
        {
            "text": "software engineer",
            "start": 494.34,
            "duration": 3.32
        },
        {
            "text": "dang it",
            "start": 498.06,
            "duration": 3.9
        },
        {
            "text": "uh",
            "start": 499.56,
            "duration": 4.199
        },
        {
            "text": "software Engineers typically work in",
            "start": 501.96,
            "duration": 3.54
        },
        {
            "text": "teams with other developers project",
            "start": 503.759,
            "duration": 4.081
        },
        {
            "text": "managers product managers and other",
            "start": 505.5,
            "duration": 3.66
        },
        {
            "text": "professionals software Engineers",
            "start": 507.84,
            "duration": 3.12
        },
        {
            "text": "consider all components of a project and",
            "start": 509.16,
            "duration": 4.02
        },
        {
            "text": "how potential Solutions may affect the",
            "start": 510.96,
            "duration": 5.06
        },
        {
            "text": "project overall",
            "start": 513.18,
            "duration": 2.84
        },
        {
            "text": "software Engineers earn an average",
            "start": 517.62,
            "duration": 4.27
        },
        {
            "text": "annual salary of 91.",
            "start": 519.36,
            "duration": 5.16
        },
        {
            "text": "[Music]",
            "start": 521.89,
            "duration": 6.41
        },
        {
            "text": "man software Engineers ain't got on",
            "start": 524.52,
            "duration": 6.72
        },
        {
            "text": "software developers look at that look at",
            "start": 528.3,
            "duration": 4.74
        },
        {
            "text": "that they got nothing you got nothing",
            "start": 531.24,
            "duration": 4.62
        },
        {
            "text": "you got nothing nothing oh man that",
            "start": 533.04,
            "duration": 4.979
        },
        {
            "text": "feels so good",
            "start": 535.86,
            "duration": 4.86
        },
        {
            "text": "um this is great all right while the BLS",
            "start": 538.019,
            "duration": 4.581
        },
        {
            "text": "doesn't provide job growth data",
            "start": 540.72,
            "duration": 4.26
        },
        {
            "text": "specifically for software Engineers",
            "start": 542.6,
            "duration": 4.0
        },
        {
            "text": "employment of software developers",
            "start": 544.98,
            "duration": 3.6
        },
        {
            "text": "quality assurance analysts and testers",
            "start": 546.6,
            "duration": 4.32
        },
        {
            "text": "is expected to decrease 25 weight is",
            "start": 548.58,
            "duration": 4.5
        },
        {
            "text": "that the same number they set up here",
            "start": 550.92,
            "duration": 4.56
        },
        {
            "text": "I thought it was",
            "start": 553.08,
            "duration": 4.199
        },
        {
            "text": "oh because they threw in an extra couple",
            "start": 555.48,
            "duration": 3.539
        },
        {
            "text": "classes of people",
            "start": 557.279,
            "duration": 4.261
        },
        {
            "text": "okay okay",
            "start": 559.019,
            "duration": 4.32
        },
        {
            "text": "all right what's the difference a",
            "start": 561.54,
            "duration": 3.18
        },
        {
            "text": "bachelor in computer science information",
            "start": 563.339,
            "duration": 3.421
        },
        {
            "text": "techno I got computer science by the way",
            "start": 564.72,
            "duration": 4.2
        },
        {
            "text": "just so you know I'm a software engineer",
            "start": 566.76,
            "duration": 5.579
        },
        {
            "text": "Ben won B1 going to B1 uh information",
            "start": 568.92,
            "duration": 5.82
        },
        {
            "text": "technology or a related discipline that",
            "start": 572.339,
            "duration": 3.961
        },
        {
            "text": "is often preferred for software",
            "start": 574.74,
            "duration": 3.0
        },
        {
            "text": "engineering roles these degrees teach",
            "start": 576.3,
            "duration": 3.659
        },
        {
            "text": "coding skills mathematics theoretical",
            "start": 577.74,
            "duration": 4.68
        },
        {
            "text": "Concepts and other fundamentals in",
            "start": 579.959,
            "duration": 3.901
        },
        {
            "text": "addition to their college education many",
            "start": 582.42,
            "duration": 2.7
        },
        {
            "text": "software Engineers receive training",
            "start": 583.86,
            "duration": 4.32
        },
        {
            "text": "through boot camp what",
            "start": 585.12,
            "duration": 4.98
        },
        {
            "text": "it happened again",
            "start": 588.18,
            "duration": 4.14
        },
        {
            "text": "to learn new skills quickly various boot",
            "start": 590.1,
            "duration": 3.96
        },
        {
            "text": "camps offer Hands-On training and teach",
            "start": 592.32,
            "duration": 3.54
        },
        {
            "text": "specific programming languages boot",
            "start": 594.06,
            "duration": 3.0
        },
        {
            "text": "camps are a great option for Tech",
            "start": 595.86,
            "duration": 2.599
        },
        {
            "text": "professionals without college degrees",
            "start": 597.06,
            "duration": 3.779
        },
        {
            "text": "software engineering daily tasks okay",
            "start": 598.459,
            "duration": 3.94
        },
        {
            "text": "let's see this uh while job",
            "start": 600.839,
            "duration": 3.0
        },
        {
            "text": "responsibilities may vary on position",
            "start": 602.399,
            "duration": 3.541
        },
        {
            "text": "below are typical tasks that software",
            "start": 603.839,
            "duration": 3.661
        },
        {
            "text": "Engineers perform regularly solve",
            "start": 605.94,
            "duration": 3.12
        },
        {
            "text": "problems using system level approaches",
            "start": 607.5,
            "duration": 3.42
        },
        {
            "text": "that consider how potential Solutions",
            "start": 609.06,
            "duration": 3.42
        },
        {
            "text": "might affect the entire system rather",
            "start": 610.92,
            "duration": 4.32
        },
        {
            "text": "than just one component",
            "start": 612.48,
            "duration": 4.52
        },
        {
            "text": "and they get paid less",
            "start": 615.24,
            "duration": 4.08
        },
        {
            "text": "collaborates with stakeholders customers",
            "start": 617.0,
            "duration": 4.6
        },
        {
            "text": "and Engineers to ensure software",
            "start": 619.32,
            "duration": 3.66
        },
        {
            "text": "applications or systems meet",
            "start": 621.6,
            "duration": 3.78
        },
        {
            "text": "requirements that reads like a that",
            "start": 622.98,
            "duration": 5.4
        },
        {
            "text": "reads like a job opening",
            "start": 625.38,
            "duration": 5.88
        },
        {
            "text": "I collaborate and create Synergy between",
            "start": 628.38,
            "duration": 8.1
        },
        {
            "text": "several multi-disciplined branches of",
            "start": 631.26,
            "duration": 7.74
        },
        {
            "text": "Enterprise Solutions like what the hell",
            "start": 636.48,
            "duration": 5.28
        },
        {
            "text": "are you even saying what that what the",
            "start": 639.0,
            "duration": 5.04
        },
        {
            "text": "hell are you saying use a variety of",
            "start": 641.76,
            "duration": 3.84
        },
        {
            "text": "computer programming languages such as",
            "start": 644.04,
            "duration": 4.1
        },
        {
            "text": "JavaScript",
            "start": 645.6,
            "duration": 2.54
        },
        {
            "text": "wait a second",
            "start": 650.399,
            "duration": 4.161
        },
        {
            "text": "wait a second",
            "start": 652.16,
            "duration": 5.2
        },
        {
            "text": "wait a second",
            "start": 654.56,
            "duration": 6.18
        },
        {
            "text": "wait a second right now",
            "start": 657.36,
            "duration": 5.28
        },
        {
            "text": "wait wait wait wait wait wait wait wait",
            "start": 660.74,
            "duration": 3.159
        },
        {
            "text": "wait wait wait wait wait wait wait wait",
            "start": 662.64,
            "duration": 4.02
        },
        {
            "text": "wait wait wait wait wait wait do that",
            "start": 663.899,
            "duration": 4.62
        },
        {
            "text": "okay okay now we got that one here you",
            "start": 666.66,
            "duration": 3.72
        },
        {
            "text": "forgot you forgot it you forgot you",
            "start": 668.519,
            "duration": 3.601
        },
        {
            "text": "forgot something okay okay I'm gonna do",
            "start": 670.38,
            "duration": 3.84
        },
        {
            "text": "this with I'm a computer scientist so I",
            "start": 672.12,
            "duration": 3.659
        },
        {
            "text": "wouldn't actually read this I'd build",
            "start": 674.22,
            "duration": 3.9
        },
        {
            "text": "something to help me okay there we go so",
            "start": 675.779,
            "duration": 3.541
        },
        {
            "text": "I'm gonna go like this I'm gonna hit it",
            "start": 678.12,
            "duration": 2.94
        },
        {
            "text": "with a little uh I'm gonna hit it with a",
            "start": 679.32,
            "duration": 3.0
        },
        {
            "text": "little can I just call sword on this",
            "start": 681.06,
            "duration": 2.94
        },
        {
            "text": "thing whoopsies",
            "start": 682.32,
            "duration": 3.48
        },
        {
            "text": "what's the what's the proper way to do",
            "start": 684.0,
            "duration": 4.2
        },
        {
            "text": "this can I can I call sword on this",
            "start": 685.8,
            "duration": 4.92
        },
        {
            "text": "yeah okay that's what I thought as a",
            "start": 688.2,
            "duration": 4.139
        },
        {
            "text": "computer scientist okay",
            "start": 690.72,
            "duration": 4.22
        },
        {
            "text": "whoopsies",
            "start": 692.339,
            "duration": 2.601
        },
        {
            "text": "all right uh there we go",
            "start": 697.56,
            "duration": 4.219
        },
        {
            "text": "all right what do we got here okay so we",
            "start": 701.88,
            "duration": 5.28
        },
        {
            "text": "got C plus plus CSS HTML Java JavaScript",
            "start": 703.8,
            "duration": 6.479
        },
        {
            "text": "they know the same thing they know the",
            "start": 707.16,
            "duration": 5.28
        },
        {
            "text": "same things what the hell are we even",
            "start": 710.279,
            "duration": 4.141
        },
        {
            "text": "reading software Engineers are",
            "start": 712.44,
            "duration": 3.42
        },
        {
            "text": "considered a type of software developer",
            "start": 714.42,
            "duration": 2.94
        },
        {
            "text": "they are involved in all stages of the",
            "start": 715.86,
            "duration": 2.88
        },
        {
            "text": "software development lifecycle using",
            "start": 717.36,
            "duration": 2.88
        },
        {
            "text": "programming languages art wait I already",
            "start": 718.74,
            "duration": 3.42
        },
        {
            "text": "read this",
            "start": 720.24,
            "duration": 4.08
        },
        {
            "text": "I was like damn this sentence is the",
            "start": 722.16,
            "duration": 4.2
        },
        {
            "text": "same difference between okay what's the",
            "start": 724.32,
            "duration": 4.079
        },
        {
            "text": "difference",
            "start": 726.36,
            "duration": 4.26
        },
        {
            "text": "they reordered it they literally just",
            "start": 728.399,
            "duration": 4.44
        },
        {
            "text": "reordered it I can't even I feel so",
            "start": 730.62,
            "duration": 4.62
        },
        {
            "text": "Bamboozled right now shippity this is",
            "start": 732.839,
            "duration": 3.841
        },
        {
            "text": "jeopardy generated software developer",
            "start": 735.24,
            "duration": 2.94
        },
        {
            "text": "and Engineering roles overlap but the",
            "start": 736.68,
            "duration": 2.76
        },
        {
            "text": "key differences exist between them",
            "start": 738.18,
            "duration": 2.64
        },
        {
            "text": "consider the following differences when",
            "start": 739.44,
            "duration": 3.42
        },
        {
            "text": "making the career decision one makes a",
            "start": 740.82,
            "duration": 4.94
        },
        {
            "text": "lot more money the other one doesn't so",
            "start": 742.86,
            "duration": 5.94
        },
        {
            "text": "that's the answer right uh software",
            "start": 745.76,
            "duration": 4.48
        },
        {
            "text": "Engineers take a big picture role",
            "start": 748.8,
            "duration": 3.24
        },
        {
            "text": "consider all components on a project to",
            "start": 750.24,
            "duration": 3.599
        },
        {
            "text": "ensure it made stakeholders requirements",
            "start": 752.04,
            "duration": 3.419
        },
        {
            "text": "on the other hand software develop",
            "start": 753.839,
            "duration": 3.361
        },
        {
            "text": "software developers develop and maintain",
            "start": 755.459,
            "duration": 4.801
        },
        {
            "text": "software to solve the problems okay",
            "start": 757.2,
            "duration": 6.18
        },
        {
            "text": "so hold on are software engineers",
            "start": 760.26,
            "duration": 5.34
        },
        {
            "text": "are they that guy",
            "start": 763.38,
            "duration": 3.66
        },
        {
            "text": "no see",
            "start": 765.6,
            "duration": 5.9
        },
        {
            "text": "I talk to the customers",
            "start": 767.04,
            "duration": 4.46
        },
        {
            "text": "software developers make sure software",
            "start": 772.92,
            "duration": 3.359
        },
        {
            "text": "functions effectively while software",
            "start": 774.72,
            "duration": 2.76
        },
        {
            "text": "Engineers ensure software meet",
            "start": 776.279,
            "duration": 3.36
        },
        {
            "text": "stakeholders overall requirements",
            "start": 777.48,
            "duration": 5.099
        },
        {
            "text": "but you just told me up here that they",
            "start": 779.639,
            "duration": 5.041
        },
        {
            "text": "use customer feedback to improve and",
            "start": 782.579,
            "duration": 5.721
        },
        {
            "text": "make it more efficient and correct",
            "start": 784.68,
            "duration": 3.62
        },
        {
            "text": "and they and you ensure that IT",
            "start": 788.639,
            "duration": 4.44
        },
        {
            "text": "addresses users needs so which one is it",
            "start": 790.339,
            "duration": 6.3
        },
        {
            "text": "which one is it",
            "start": 793.079,
            "duration": 3.56
        },
        {
            "text": "which one",
            "start": 797.22,
            "duration": 5.88
        },
        {
            "text": "I I'm feeling very lie to okay hold on",
            "start": 799.92,
            "duration": 7.159
        },
        {
            "text": "hold on let's I'm feeling very light too",
            "start": 803.1,
            "duration": 3.979
        },
        {
            "text": "similar oh I missed the whole similarity",
            "start": 807.72,
            "duration": 3.359
        },
        {
            "text": "section what's the similarity section",
            "start": 809.579,
            "duration": 3.301
        },
        {
            "text": "both play uh apart in creating software",
            "start": 811.079,
            "duration": 3.481
        },
        {
            "text": "programs okay both no comparable",
            "start": 812.88,
            "duration": 3.6
        },
        {
            "text": "computer Pro okay both right code and",
            "start": 814.56,
            "duration": 3.24
        },
        {
            "text": "tested okay both use comparable",
            "start": 816.48,
            "duration": 2.88
        },
        {
            "text": "Frameworks libraries such as Ruby and",
            "start": 817.8,
            "duration": 3.86
        },
        {
            "text": "rails very up-to-date hip spring",
            "start": 819.36,
            "duration": 4.8
        },
        {
            "text": "everybody loves Django everyone loves",
            "start": 821.66,
            "duration": 4.84
        },
        {
            "text": "Django Unchained turbo gears I've",
            "start": 824.16,
            "duration": 4.5
        },
        {
            "text": "literally never heard of Turbo gears can",
            "start": 826.5,
            "duration": 3.779
        },
        {
            "text": "somebody for a second tell me what that",
            "start": 828.66,
            "duration": 2.34
        },
        {
            "text": "is",
            "start": 830.279,
            "duration": 2.641
        },
        {
            "text": "convince me right now this is not a",
            "start": 831.0,
            "duration": 3.6
        },
        {
            "text": "Roblox reference right now or I'm gonna",
            "start": 832.92,
            "duration": 4.8
        },
        {
            "text": "be upset what the hell is Turbo gears",
            "start": 834.6,
            "duration": 5.52
        },
        {
            "text": "python thing",
            "start": 837.72,
            "duration": 5.64
        },
        {
            "text": "is that like turbo Pascal yes",
            "start": 840.12,
            "duration": 6.36
        },
        {
            "text": "dude cool kids are using turbo gears",
            "start": 843.36,
            "duration": 5.46
        },
        {
            "text": "see gosh look at me",
            "start": 846.48,
            "duration": 4.62
        },
        {
            "text": "I'm so stupid",
            "start": 848.82,
            "duration": 4.74
        },
        {
            "text": "turbo gear go crazy",
            "start": 851.1,
            "duration": 4.2
        },
        {
            "text": "all right anyways software let's see",
            "start": 853.56,
            "duration": 2.519
        },
        {
            "text": "hold on",
            "start": 855.3,
            "duration": 2.339
        },
        {
            "text": "let's see software Engineers typically",
            "start": 856.079,
            "duration": 4.56
        },
        {
            "text": "work with end clients I've always been a",
            "start": 857.639,
            "duration": 4.38
        },
        {
            "text": "big fan of the old end client uh",
            "start": 860.639,
            "duration": 3.061
        },
        {
            "text": "software developers and non-technical",
            "start": 862.019,
            "duration": 3.06
        },
        {
            "text": "stakeholders while software developers",
            "start": 863.7,
            "duration": 2.819
        },
        {
            "text": "typically work with software Engineers",
            "start": 865.079,
            "duration": 3.361
        },
        {
            "text": "quality assurance Specialists and",
            "start": 866.519,
            "duration": 3.961
        },
        {
            "text": "software testers",
            "start": 868.44,
            "duration": 3.66
        },
        {
            "text": "wow",
            "start": 870.48,
            "duration": 3.96
        },
        {
            "text": "I can't believe how ignorant I've been",
            "start": 872.1,
            "duration": 4.38
        },
        {
            "text": "this whole time there's a difference",
            "start": 874.44,
            "duration": 4.5
        },
        {
            "text": "between software engineers and software",
            "start": 876.48,
            "duration": 5.94
        },
        {
            "text": "developers like imagine",
            "start": 878.94,
            "duration": 5.88
        },
        {
            "text": "if only I knew that just don't tell",
            "start": 882.42,
            "duration": 3.9
        },
        {
            "text": "Netflix the difference because right now",
            "start": 884.82,
            "duration": 3.9
        },
        {
            "text": "I'm a senior software engineer and I",
            "start": 886.32,
            "duration": 3.48
        },
        {
            "text": "think if they find out the difference",
            "start": 888.72,
            "duration": 3.179
        },
        {
            "text": "they're going to lower my pay so can you",
            "start": 889.8,
            "duration": 3.479
        },
        {
            "text": "just let's just not",
            "start": 891.899,
            "duration": 4.321
        },
        {
            "text": "let's just all agree that we didn't read",
            "start": 893.279,
            "duration": 5.281
        },
        {
            "text": "this article or we're all software",
            "start": 896.22,
            "duration": 6.059
        },
        {
            "text": "developers can we all agree to that yeah",
            "start": 898.56,
            "duration": 6.26
        },
        {
            "text": "yeah",
            "start": 902.279,
            "duration": 2.541
        },
        {
            "text": "okay good good uh you are you even a",
            "start": 905.04,
            "duration": 5.039
        },
        {
            "text": "software engineer if you don't know",
            "start": 908.82,
            "duration": 4.68
        },
        {
            "text": "turbo gears what article",
            "start": 910.079,
            "duration": 7.94
        },
        {
            "text": "stastic hot were you",
            "start": 913.5,
            "duration": 4.519
        },
        {
            "text": "the name",
            "start": 918.3,
            "duration": 2.719
        },
        {
            "text": "is the software developer again please",
            "start": 922.019,
            "duration": 4.081
        },
        {
            "text": "give me a hundred and twenty seven",
            "start": 924.839,
            "duration": 3.981
        },
        {
            "text": "thousand dollars now",
            "start": 926.1,
            "duration": 2.72
        }
    ],
    "stats": {
        "viewCount": "86291",
        "likeCount": "2852",
        "favoriteCount": "0",
        "commentCount": "503"
    }
}