{
    "id": "J0p2Psy7NfA",
    "title": "Why New Software Engineers Have it Hard",
    "publishedAt": "2023-02-19T17:30:03Z",
    "captions": [
        {
            "text": "I don't know if we can go back to the",
            "start": 0.359,
            "duration": 3.06
        },
        {
            "text": "higher I don't know if we can go back to",
            "start": 1.8,
            "duration": 3.12
        },
        {
            "text": "a higher standard you know I mean I",
            "start": 3.419,
            "duration": 3.061
        },
        {
            "text": "think he's right I think Jonathan blows",
            "start": 4.92,
            "duration": 4.2
        },
        {
            "text": "right that we definitely are in perhaps",
            "start": 6.48,
            "duration": 4.44
        },
        {
            "text": "I honestly think that the state of web",
            "start": 9.12,
            "duration": 3.599
        },
        {
            "text": "development right now is in the worst",
            "start": 10.92,
            "duration": 4.379
        },
        {
            "text": "place it's ever been ever I think the",
            "start": 12.719,
            "duration": 5.221
        },
        {
            "text": "days of jQuery were fundamentally better",
            "start": 15.299,
            "duration": 5.041
        },
        {
            "text": "not because it was better to work on",
            "start": 17.94,
            "duration": 4.259
        },
        {
            "text": "them most certainly it was harder Docker",
            "start": 20.34,
            "duration": 3.84
        },
        {
            "text": "is an insane",
            "start": 22.199,
            "duration": 3.961
        },
        {
            "text": "insane piece of software that has",
            "start": 24.18,
            "duration": 3.66
        },
        {
            "text": "enabled a lot of Our Lives to be better",
            "start": 26.16,
            "duration": 3.48
        },
        {
            "text": "I'm going with web dev because I don't",
            "start": 27.84,
            "duration": 3.48
        },
        {
            "text": "know if it's the same for all Dev games",
            "start": 29.64,
            "duration": 3.419
        },
        {
            "text": "have always historically been a",
            "start": 31.32,
            "duration": 3.48
        },
        {
            "text": "show and so I don't know if that's like",
            "start": 33.059,
            "duration": 4.081
        },
        {
            "text": "changed at all or if it's worse or",
            "start": 34.8,
            "duration": 4.38
        },
        {
            "text": "better I'm not even sure I have no idea",
            "start": 37.14,
            "duration": 4.86
        },
        {
            "text": "it seems like it's worse to me but I",
            "start": 39.18,
            "duration": 5.82
        },
        {
            "text": "also remember buying Nintendo 64 Turok",
            "start": 42.0,
            "duration": 6.059
        },
        {
            "text": "uh rage Wars The Arena game and only",
            "start": 45.0,
            "duration": 4.8
        },
        {
            "text": "being able to get 49 out of 50",
            "start": 48.059,
            "duration": 3.721
        },
        {
            "text": "achievements because the 50th",
            "start": 49.8,
            "duration": 4.98
        },
        {
            "text": "achievement monkey tag was impossible to",
            "start": 51.78,
            "duration": 5.34
        },
        {
            "text": "get because the game just wouldn't work",
            "start": 54.78,
            "duration": 3.779
        },
        {
            "text": "it wouldn't give it to you it was",
            "start": 57.12,
            "duration": 3.36
        },
        {
            "text": "fundamentally broken no one during",
            "start": 58.559,
            "duration": 4.98
        },
        {
            "text": "testing beat through the game they just",
            "start": 60.48,
            "duration": 5.4
        },
        {
            "text": "didn't just go they didn't just do the",
            "start": 63.539,
            "duration": 4.381
        },
        {
            "text": "whole thing you know like it's just one",
            "start": 65.88,
            "duration": 3.9
        },
        {
            "text": "of those things that you know that was",
            "start": 67.92,
            "duration": 3.66
        },
        {
            "text": "my childhood there's plenty of games",
            "start": 69.78,
            "duration": 3.18
        },
        {
            "text": "like that so I don't know if games are",
            "start": 71.58,
            "duration": 2.76
        },
        {
            "text": "fundamentally different but I think web",
            "start": 72.96,
            "duration": 3.72
        },
        {
            "text": "dev itself is fundamentally different I",
            "start": 74.34,
            "duration": 4.2
        },
        {
            "text": "think web dev",
            "start": 76.68,
            "duration": 4.2
        },
        {
            "text": "is most certainly",
            "start": 78.54,
            "duration": 5.34
        },
        {
            "text": "in a really bad spot and I think one of",
            "start": 80.88,
            "duration": 6.62
        },
        {
            "text": "the reasons why it's in such a bad spot",
            "start": 83.88,
            "duration": 3.62
        },
        {
            "text": "is that",
            "start": 87.84,
            "duration": 2.72
        },
        {
            "text": "we've increased the complexity in",
            "start": 90.659,
            "duration": 6.5
        },
        {
            "text": "general a huge amount",
            "start": 93.659,
            "duration": 3.5
        },
        {
            "text": "and we flooded a bunch of new people to",
            "start": 97.979,
            "duration": 6.421
        },
        {
            "text": "programming into it but here's the deal",
            "start": 100.74,
            "duration": 6.72
        },
        {
            "text": "we don't teach them Foundation right we",
            "start": 104.4,
            "duration": 4.98
        },
        {
            "text": "teach them how to use these blocks we've",
            "start": 107.46,
            "duration": 4.019
        },
        {
            "text": "created every person that's starting out",
            "start": 109.38,
            "duration": 4.559
        },
        {
            "text": "that's pretty much brand new is trying",
            "start": 111.479,
            "duration": 4.621
        },
        {
            "text": "to launch serverless applications and",
            "start": 113.939,
            "duration": 3.72
        },
        {
            "text": "learn how to program with react right",
            "start": 116.1,
            "duration": 3.54
        },
        {
            "text": "like think about that for a second think",
            "start": 117.659,
            "duration": 4.5
        },
        {
            "text": "about how many Technologies went into",
            "start": 119.64,
            "duration": 5.519
        },
        {
            "text": "that small tiny little bit",
            "start": 122.159,
            "duration": 4.681
        },
        {
            "text": "and people that's like what people are",
            "start": 125.159,
            "duration": 3.96
        },
        {
            "text": "trying to learn on right like how do you",
            "start": 126.84,
            "duration": 4.86
        },
        {
            "text": "even learn when you don't like the um",
            "start": 129.119,
            "duration": 5.581
        },
        {
            "text": "the levels of abstraction are insane",
            "start": 131.7,
            "duration": 5.34
        },
        {
            "text": "right and I mean I don't don't get me",
            "start": 134.7,
            "duration": 4.5
        },
        {
            "text": "wrong I love that they exist I'm super",
            "start": 137.04,
            "duration": 4.8
        },
        {
            "text": "happy they exist I am not happy that is",
            "start": 139.2,
            "duration": 4.44
        },
        {
            "text": "how somebody learns how to program today",
            "start": 141.84,
            "duration": 3.539
        },
        {
            "text": "I learned how to program by building a",
            "start": 143.64,
            "duration": 3.66
        },
        {
            "text": "house by printing out then I learned a",
            "start": 145.379,
            "duration": 3.36
        },
        {
            "text": "little bit more and then I learned a",
            "start": 147.3,
            "duration": 2.4
        },
        {
            "text": "little bit more than I learned about",
            "start": 148.739,
            "duration": 2.58
        },
        {
            "text": "classes and I learned about abstract",
            "start": 149.7,
            "duration": 3.24
        },
        {
            "text": "classes and how they kind of work and",
            "start": 151.319,
            "duration": 3.661
        },
        {
            "text": "how that kind of interacts between the",
            "start": 152.94,
            "duration": 3.54
        },
        {
            "text": "two and then I learned how a linked list",
            "start": 154.98,
            "duration": 3.18
        },
        {
            "text": "works and how you can refer to your",
            "start": 156.48,
            "duration": 3.3
        },
        {
            "text": "class by itself right where you can",
            "start": 158.16,
            "duration": 3.24
        },
        {
            "text": "actually create this memory out and out",
            "start": 159.78,
            "duration": 3.42
        },
        {
            "text": "and out and you can use null to stop the",
            "start": 161.4,
            "duration": 3.479
        },
        {
            "text": "creation of memory and then I'm like oh",
            "start": 163.2,
            "duration": 4.319
        },
        {
            "text": "my goodness I can see that I can see the",
            "start": 164.879,
            "duration": 4.86
        },
        {
            "text": "Matrix this is incredible so a year into",
            "start": 167.519,
            "duration": 4.261
        },
        {
            "text": "programming I'm learning basic data",
            "start": 169.739,
            "duration": 3.421
        },
        {
            "text": "structures these people are building",
            "start": 171.78,
            "duration": 3.959
        },
        {
            "text": "full stack websites it's just so",
            "start": 173.16,
            "duration": 5.76
        },
        {
            "text": "different our foundations I knew how",
            "start": 175.739,
            "duration": 4.921
        },
        {
            "text": "computers work how functions were",
            "start": 178.92,
            "duration": 4.02
        },
        {
            "text": "invoked all of that then got thrown into",
            "start": 180.66,
            "duration": 4.2
        },
        {
            "text": "the real world these people only know",
            "start": 182.94,
            "duration": 3.84
        },
        {
            "text": "the real world and they don't understand",
            "start": 184.86,
            "duration": 4.92
        },
        {
            "text": "why anything actually works you know",
            "start": 186.78,
            "duration": 4.62
        },
        {
            "text": "what I mean like that's it's just such",
            "start": 189.78,
            "duration": 4.319
        },
        {
            "text": "an inversion of of learning and I don't",
            "start": 191.4,
            "duration": 3.96
        },
        {
            "text": "know if it's good I don't know if it's",
            "start": 194.099,
            "duration": 4.321
        },
        {
            "text": "bad I I don't want to be like I don't",
            "start": 195.36,
            "duration": 4.5
        },
        {
            "text": "want to be a person that thinks because",
            "start": 198.42,
            "duration": 3.84
        },
        {
            "text": "it's different it's bad or it's good you",
            "start": 199.86,
            "duration": 3.84
        },
        {
            "text": "know what I mean I think a lot of times",
            "start": 202.26,
            "duration": 3.3
        },
        {
            "text": "you see people that always get upset",
            "start": 203.7,
            "duration": 4.679
        },
        {
            "text": "because it's not what they had what I",
            "start": 205.56,
            "duration": 5.16
        },
        {
            "text": "had was in Java do I think Java is the",
            "start": 208.379,
            "duration": 3.901
        },
        {
            "text": "greatest I'd actually rather wish I",
            "start": 210.72,
            "duration": 3.78
        },
        {
            "text": "would have learned C plus plus way more",
            "start": 212.28,
            "duration": 4.98
        },
        {
            "text": "in depth than Java uh I'd like to see",
            "start": 214.5,
            "duration": 6.0
        },
        {
            "text": "you inverted wow uh but real talk like I",
            "start": 217.26,
            "duration": 4.979
        },
        {
            "text": "think I I can't say that it's it's",
            "start": 220.5,
            "duration": 3.599
        },
        {
            "text": "better or worse",
            "start": 222.239,
            "duration": 4.021
        },
        {
            "text": "I just don't know what it is right I",
            "start": 224.099,
            "duration": 4.2
        },
        {
            "text": "think that I think I feel bad for every",
            "start": 226.26,
            "duration": 4.619
        },
        {
            "text": "last person learning right now",
            "start": 228.299,
            "duration": 4.381
        },
        {
            "text": "in the web world I think it's really",
            "start": 230.879,
            "duration": 3.601
        },
        {
            "text": "really tough I think it's honestly super",
            "start": 232.68,
            "duration": 4.139
        },
        {
            "text": "tough and I feel bad because I feel like",
            "start": 234.48,
            "duration": 4.56
        },
        {
            "text": "you guys have to have",
            "start": 236.819,
            "duration": 4.441
        },
        {
            "text": "some of the hardest",
            "start": 239.04,
            "duration": 5.759
        },
        {
            "text": "hurdles right now to get over",
            "start": 241.26,
            "duration": 5.16
        },
        {
            "text": "you have to",
            "start": 244.799,
            "duration": 3.72
        },
        {
            "text": "I don't know what I would have done if I",
            "start": 246.42,
            "duration": 4.679
        },
        {
            "text": "would have started my first company with",
            "start": 248.519,
            "duration": 5.341
        },
        {
            "text": "web dev and I know all the fundamentals",
            "start": 251.099,
            "duration": 4.2
        },
        {
            "text": "and then I'm sitting there spending days",
            "start": 253.86,
            "duration": 2.939
        },
        {
            "text": "just trying to figure out how to launch",
            "start": 255.299,
            "duration": 3.241
        },
        {
            "text": "do all this stuff instead of like",
            "start": 256.799,
            "duration": 3.9
        },
        {
            "text": "hacking my way around a single server in",
            "start": 258.54,
            "duration": 4.379
        },
        {
            "text": "Texas or something like that right the",
            "start": 260.699,
            "duration": 4.081
        },
        {
            "text": "single server in Texas where I had to",
            "start": 262.919,
            "duration": 4.741
        },
        {
            "text": "start my PHP server I kind of understood",
            "start": 264.78,
            "duration": 5.639
        },
        {
            "text": "the pipeline right I had to start the my",
            "start": 267.66,
            "duration": 5.58
        },
        {
            "text": "squeal database I had to start PHP",
            "start": 270.419,
            "duration": 5.161
        },
        {
            "text": "Tomcat whatever the hell it was and I",
            "start": 273.24,
            "duration": 4.38
        },
        {
            "text": "understood like okay here we go we're",
            "start": 275.58,
            "duration": 4.679
        },
        {
            "text": "like we're just like yeah right like oh",
            "start": 277.62,
            "duration": 5.1
        },
        {
            "text": "man if my database goes down people",
            "start": 280.259,
            "duration": 4.38
        },
        {
            "text": "won't be able to say like I understood",
            "start": 282.72,
            "duration": 3.539
        },
        {
            "text": "it like I kind of knew what was going on",
            "start": 284.639,
            "duration": 3.541
        },
        {
            "text": "it was lamp I was literally on lamp I",
            "start": 286.259,
            "duration": 5.401
        },
        {
            "text": "was using xampp x-a-m-p-p for Windows to",
            "start": 288.18,
            "duration": 6.42
        },
        {
            "text": "develop it right like this is real and",
            "start": 291.66,
            "duration": 5.4
        },
        {
            "text": "now people are using serverless",
            "start": 294.6,
            "duration": 4.44
        },
        {
            "text": "databases on serverless companies",
            "start": 297.06,
            "duration": 5.1
        },
        {
            "text": "launching JavaScript that is uh",
            "start": 299.04,
            "duration": 5.28
        },
        {
            "text": "transpiled six different times like they",
            "start": 302.16,
            "duration": 3.9
        },
        {
            "text": "just like the connection is just so",
            "start": 304.32,
            "duration": 3.9
        },
        {
            "text": "different I'm I am super curious what",
            "start": 306.06,
            "duration": 4.56
        },
        {
            "text": "this looks like and how those people I I",
            "start": 308.22,
            "duration": 5.34
        },
        {
            "text": "wish there's a way I could just like",
            "start": 310.62,
            "duration": 5.04
        },
        {
            "text": "feel what everyone feels right now",
            "start": 313.56,
            "duration": 4.74
        },
        {
            "text": "that's been in in in in web development",
            "start": 315.66,
            "duration": 5.28
        },
        {
            "text": "for like three months",
            "start": 318.3,
            "duration": 4.98
        },
        {
            "text": "I've been in web dev since 2007. yeah I",
            "start": 320.94,
            "duration": 4.68
        },
        {
            "text": "I started jumping in 2007. I made a",
            "start": 323.28,
            "duration": 4.859
        },
        {
            "text": "website I think in 2007 or 2008 called",
            "start": 325.62,
            "duration": 5.1
        },
        {
            "text": "life in America is tough uh where people",
            "start": 328.139,
            "duration": 5.701
        },
        {
            "text": "would post their very uh very difficult",
            "start": 330.72,
            "duration": 5.58
        },
        {
            "text": "things of life such as you know I woke",
            "start": 333.84,
            "duration": 4.74
        },
        {
            "text": "up this morning and we were all out of",
            "start": 336.3,
            "duration": 4.56
        },
        {
            "text": "butter when my bread when my toast",
            "start": 338.58,
            "duration": 4.679
        },
        {
            "text": "popped out of the toaster uh that kind",
            "start": 340.86,
            "duration": 4.26
        },
        {
            "text": "of stuff",
            "start": 343.259,
            "duration": 3.361
        },
        {
            "text": "it was pretty good that was my first",
            "start": 345.12,
            "duration": 2.639
        },
        {
            "text": "website",
            "start": 346.62,
            "duration": 3.96
        },
        {
            "text": "2007 2008 something like that",
            "start": 347.759,
            "duration": 4.921
        },
        {
            "text": "it didn't I didn't even have jQuery at",
            "start": 350.58,
            "duration": 3.3
        },
        {
            "text": "that point",
            "start": 352.68,
            "duration": 5.22
        },
        {
            "text": "Jake Weary wasn't on the scene yet",
            "start": 353.88,
            "duration": 6.0
        },
        {
            "text": "hello dude it took me like two months to",
            "start": 357.9,
            "duration": 4.32
        },
        {
            "text": "build it was so hard move tools I I'd",
            "start": 359.88,
            "duration": 5.12
        },
        {
            "text": "even have mootools",
            "start": 362.22,
            "duration": 2.78
        }
    ],
    "stats": {
        "viewCount": "205599",
        "likeCount": "8503",
        "favoriteCount": "0",
        "commentCount": "886"
    }
}