{
    "id": "J7ITgYBn_3k",
    "title": "Scaling Up Prime Video | Prime Reacts",
    "publishedAt": "2023-05-10T12:00:12Z",
    "captions": [
        {
            "text": "there we go that was for flip okay",
            "start": 0.0,
            "duration": 3.24
        },
        {
            "text": "that's very important is that a is that",
            "start": 1.68,
            "duration": 4.26
        },
        {
            "text": "a peen every time I see ASCII art I just",
            "start": 3.24,
            "duration": 4.079
        },
        {
            "text": "assume it's a pen it's not a peen but",
            "start": 5.94,
            "duration": 3.119
        },
        {
            "text": "you could imagine it could be you know",
            "start": 7.319,
            "duration": 4.621
        },
        {
            "text": "what I mean anyways scaling up the Prime",
            "start": 9.059,
            "duration": 5.101
        },
        {
            "text": "video audio video monitoring service and",
            "start": 11.94,
            "duration": 4.86
        },
        {
            "text": "reducing cost by 90 the move from",
            "start": 14.16,
            "duration": 5.16
        },
        {
            "text": "distributed micro Services architecture",
            "start": 16.8,
            "duration": 4.979
        },
        {
            "text": "to a monolith application help achieve",
            "start": 19.32,
            "duration": 5.1
        },
        {
            "text": "higher scale resilience and reduced",
            "start": 21.779,
            "duration": 4.441
        },
        {
            "text": "costs if type one in the chat if anyone",
            "start": 24.42,
            "duration": 3.84
        },
        {
            "text": "here is surprised by this okay there's",
            "start": 26.22,
            "duration": 3.059
        },
        {
            "text": "some ones",
            "start": 28.26,
            "duration": 3.839
        },
        {
            "text": "not a lot of ones not not a huge amount",
            "start": 29.279,
            "duration": 5.521
        },
        {
            "text": "okay at Prime video by the way I should",
            "start": 32.099,
            "duration": 4.081
        },
        {
            "text": "probably bleep that out says you know I",
            "start": 34.8,
            "duration": 2.279
        },
        {
            "text": "don't know if you guys know this but I",
            "start": 36.18,
            "duration": 2.34
        },
        {
            "text": "work at Netflix so I should probably",
            "start": 37.079,
            "duration": 3.961
        },
        {
            "text": "that out you know what I mean uh at",
            "start": 38.52,
            "duration": 5.82
        },
        {
            "text": "Prime video we offer thousands of live",
            "start": 41.04,
            "duration": 5.1
        },
        {
            "text": "streams to our customers to ensure that",
            "start": 44.34,
            "duration": 3.6
        },
        {
            "text": "customers seamlessly receive content",
            "start": 46.14,
            "duration": 5.04
        },
        {
            "text": "Prime video uh set up a tool to monitor",
            "start": 47.94,
            "duration": 5.04
        },
        {
            "text": "every stream viewed by customers that",
            "start": 51.18,
            "duration": 3.539
        },
        {
            "text": "sounds just like Amazon probably goes",
            "start": 52.98,
            "duration": 3.54
        },
        {
            "text": "through ring doorbell this tool allows",
            "start": 54.719,
            "duration": 2.881
        },
        {
            "text": "us to automatically identify",
            "start": 56.52,
            "duration": 3.6
        },
        {
            "text": "perceptually perceptual quality issues",
            "start": 57.6,
            "duration": 5.7
        },
        {
            "text": "for example block corruption uh or audio",
            "start": 60.12,
            "duration": 5.34
        },
        {
            "text": "video sync problems and trigger a",
            "start": 63.3,
            "duration": 3.24
        },
        {
            "text": "process to fix them that's kind of",
            "start": 65.46,
            "duration": 2.46
        },
        {
            "text": "interesting I wonder how they do some of",
            "start": 66.54,
            "duration": 2.399
        },
        {
            "text": "these things",
            "start": 67.92,
            "duration": 2.46
        },
        {
            "text": "uh",
            "start": 68.939,
            "duration": 3.0
        },
        {
            "text": "I wonder why they have a service to",
            "start": 70.38,
            "duration": 3.36
        },
        {
            "text": "monitor it I mean it feels like Amazon",
            "start": 71.939,
            "duration": 3.54
        },
        {
            "text": "should have heard of like Kafka and",
            "start": 73.74,
            "duration": 4.02
        },
        {
            "text": "Atlas by now is that like a thing do",
            "start": 75.479,
            "duration": 4.14
        },
        {
            "text": "they know about Atlas do they know about",
            "start": 77.76,
            "duration": 4.02
        },
        {
            "text": "Kafka like you just set up an alert on",
            "start": 79.619,
            "duration": 4.32
        },
        {
            "text": "Atlas you know and just",
            "start": 81.78,
            "duration": 4.86
        },
        {
            "text": "walk away you know uh our video quality",
            "start": 83.939,
            "duration": 4.621
        },
        {
            "text": "analysis team at Prime video already",
            "start": 86.64,
            "duration": 3.96
        },
        {
            "text": "owned a tool for audio video Quality",
            "start": 88.56,
            "duration": 3.72
        },
        {
            "text": "Inspection but we never intended nor",
            "start": 90.6,
            "duration": 3.96
        },
        {
            "text": "designed it to run at high scale our",
            "start": 92.28,
            "duration": 3.839
        },
        {
            "text": "Target was to monitor thousands of",
            "start": 94.56,
            "duration": 3.12
        },
        {
            "text": "concurrent streams and grow that number",
            "start": 96.119,
            "duration": 4.161
        },
        {
            "text": "over time",
            "start": 97.68,
            "duration": 2.6
        },
        {
            "text": "that sounds like what happened it sounds",
            "start": 100.56,
            "duration": 4.62
        },
        {
            "text": "like a goal achieved",
            "start": 102.84,
            "duration": 4.5
        },
        {
            "text": "while onboarding more streams to the",
            "start": 105.18,
            "duration": 4.2
        },
        {
            "text": "service uh we noticed that running the",
            "start": 107.34,
            "duration": 3.66
        },
        {
            "text": "infrastructure at high scale was very",
            "start": 109.38,
            "duration": 3.059
        },
        {
            "text": "expensive we also noticed scaling",
            "start": 111.0,
            "duration": 2.64
        },
        {
            "text": "bottlenecks that prevented us from",
            "start": 112.439,
            "duration": 2.941
        },
        {
            "text": "monitoring thousands of streams so we",
            "start": 113.64,
            "duration": 3.06
        },
        {
            "text": "took a step back and Revisited the",
            "start": 115.38,
            "duration": 2.519
        },
        {
            "text": "architecture and existing service",
            "start": 116.7,
            "duration": 2.58
        },
        {
            "text": "focused on the cost and scaling",
            "start": 117.899,
            "duration": 2.641
        },
        {
            "text": "bottlenecks I really hope this involves",
            "start": 119.28,
            "duration": 3.54
        },
        {
            "text": "rust the initial version of our let's",
            "start": 120.54,
            "duration": 3.539
        },
        {
            "text": "say our service consisted of a",
            "start": 122.82,
            "duration": 2.159
        },
        {
            "text": "distributed components that were",
            "start": 124.079,
            "duration": 2.481
        },
        {
            "text": "orchestrated by",
            "start": 124.979,
            "duration": 4.681
        },
        {
            "text": "AWS step functions the two most",
            "start": 126.56,
            "duration": 4.78
        },
        {
            "text": "expensive operations in terms of cost",
            "start": 129.66,
            "duration": 3.659
        },
        {
            "text": "were the orchestration workflows when",
            "start": 131.34,
            "duration": 3.3
        },
        {
            "text": "data passed between distributed",
            "start": 133.319,
            "duration": 3.361
        },
        {
            "text": "components to address this we moved all",
            "start": 134.64,
            "duration": 3.66
        },
        {
            "text": "the components into a single process to",
            "start": 136.68,
            "duration": 3.66
        },
        {
            "text": "keep data transfer within process memory",
            "start": 138.3,
            "duration": 4.079
        },
        {
            "text": "which also simplified orchestration",
            "start": 140.34,
            "duration": 4.14
        },
        {
            "text": "logic because we compiled all the",
            "start": 142.379,
            "duration": 4.741
        },
        {
            "text": "operations into a single process uh we",
            "start": 144.48,
            "duration": 6.32
        },
        {
            "text": "could rely on this one huh",
            "start": 147.12,
            "duration": 3.68
        },
        {
            "text": "is this like a story about how not to",
            "start": 152.4,
            "duration": 5.76
        },
        {
            "text": "use Amazon by Amazon this it just seems",
            "start": 154.86,
            "duration": 4.68
        },
        {
            "text": "really strange to me okay I'm just gonna",
            "start": 158.16,
            "duration": 2.64
        },
        {
            "text": "be real with you this seems really",
            "start": 159.54,
            "duration": 3.419
        },
        {
            "text": "strange to me because in my head if you",
            "start": 160.8,
            "duration": 3.9
        },
        {
            "text": "wanted to solve this you would have a",
            "start": 162.959,
            "duration": 3.901
        },
        {
            "text": "client that periodically uploads or",
            "start": 164.7,
            "duration": 4.8
        },
        {
            "text": "updates uh and sends a message up to a",
            "start": 166.86,
            "duration": 5.34
        },
        {
            "text": "server that has like a bit rate or",
            "start": 169.5,
            "duration": 5.459
        },
        {
            "text": "time-weighted bit rate uh or any of",
            "start": 172.2,
            "duration": 4.44
        },
        {
            "text": "these magical kind of things you're",
            "start": 174.959,
            "duration": 3.841
        },
        {
            "text": "gonna you want to you know give to the",
            "start": 176.64,
            "duration": 4.739
        },
        {
            "text": "server along with like what video ID",
            "start": 178.8,
            "duration": 4.68
        },
        {
            "text": "you're watching and some basic other",
            "start": 181.379,
            "duration": 4.621
        },
        {
            "text": "items right uh",
            "start": 183.48,
            "duration": 4.44
        },
        {
            "text": "and you take that little you take that",
            "start": 186.0,
            "duration": 4.319
        },
        {
            "text": "little nice little item and you just",
            "start": 187.92,
            "duration": 3.899
        },
        {
            "text": "throw that through a queue and make it",
            "start": 190.319,
            "duration": 3.0
        },
        {
            "text": "into some big data portal whatever that",
            "start": 191.819,
            "duration": 3.78
        },
        {
            "text": "big data portal is Hive uh I prefer",
            "start": 193.319,
            "duration": 4.021
        },
        {
            "text": "Atlas for real-time monitoring blah blah",
            "start": 195.599,
            "duration": 3.42
        },
        {
            "text": "blah blah blah blah you set all that",
            "start": 197.34,
            "duration": 3.66
        },
        {
            "text": "crap up right and then the next thing",
            "start": 199.019,
            "duration": 4.8
        },
        {
            "text": "you know you can just react to any show",
            "start": 201.0,
            "duration": 4.5
        },
        {
            "text": "going wrong now if they're monitoring",
            "start": 203.819,
            "duration": 4.081
        },
        {
            "text": "individual persons like it kind of",
            "start": 205.5,
            "duration": 3.659
        },
        {
            "text": "almost looks like they're trying to say",
            "start": 207.9,
            "duration": 4.199
        },
        {
            "text": "they're they're identifying individual",
            "start": 209.159,
            "duration": 5.58
        },
        {
            "text": "perception problems and trying to fix",
            "start": 212.099,
            "duration": 4.92
        },
        {
            "text": "that on an individual content basis",
            "start": 214.739,
            "duration": 3.901
        },
        {
            "text": "which seems a little bit kind of or on",
            "start": 217.019,
            "duration": 3.121
        },
        {
            "text": "individual stream basis that seems a",
            "start": 218.64,
            "duration": 3.42
        },
        {
            "text": "little bit weird",
            "start": 220.14,
            "duration": 3.3
        },
        {
            "text": "that seems like you're trying to make a",
            "start": 222.06,
            "duration": 3.66
        },
        {
            "text": "client-side decision probably for it but",
            "start": 223.44,
            "duration": 4.799
        },
        {
            "text": "on the server you know like if you're if",
            "start": 225.72,
            "duration": 4.56
        },
        {
            "text": "you had an AV sync issue and you wanted",
            "start": 228.239,
            "duration": 4.92
        },
        {
            "text": "to fix it you would just",
            "start": 230.28,
            "duration": 5.58
        },
        {
            "text": "fix it on the client seems like I don't",
            "start": 233.159,
            "duration": 4.261
        },
        {
            "text": "know distributed systems overhead our",
            "start": 235.86,
            "duration": 2.879
        },
        {
            "text": "service consists of three major",
            "start": 237.42,
            "duration": 3.599
        },
        {
            "text": "components the media converter converts",
            "start": 238.739,
            "duration": 4.621
        },
        {
            "text": "uh input audio and video streams to",
            "start": 241.019,
            "duration": 3.961
        },
        {
            "text": "frames or decrypted audio buffers that",
            "start": 243.36,
            "duration": 4.019
        },
        {
            "text": "are sent to decoders",
            "start": 244.98,
            "duration": 5.459
        },
        {
            "text": "defect detectors execute algorithms that",
            "start": 247.379,
            "duration": 4.801
        },
        {
            "text": "analyze frames and audio buffers in real",
            "start": 250.439,
            "duration": 5.48
        },
        {
            "text": "time looking for defects what",
            "start": 252.18,
            "duration": 8.239
        },
        {
            "text": "you're looking at all the video",
            "start": 255.919,
            "duration": 4.5
        },
        {
            "text": "what",
            "start": 261.419,
            "duration": 3.0
        },
        {
            "text": "what",
            "start": 266.04,
            "duration": 4.2
        },
        {
            "text": "who does",
            "start": 268.02,
            "duration": 4.88
        },
        {
            "text": "who does that",
            "start": 270.24,
            "duration": 6.78
        },
        {
            "text": "they must have like 10 000 customers",
            "start": 272.9,
            "duration": 5.44
        },
        {
            "text": "and send real-time notifications",
            "start": 277.02,
            "duration": 3.3
        },
        {
            "text": "whenever a defect is found for more",
            "start": 278.34,
            "duration": 4.139
        },
        {
            "text": "information on this topic how uh Prime",
            "start": 280.32,
            "duration": 3.84
        },
        {
            "text": "video uses machine learning to ensure",
            "start": 282.479,
            "duration": 3.361
        },
        {
            "text": "video quality article apparently not",
            "start": 284.16,
            "duration": 3.3
        },
        {
            "text": "Netflix thank you for sharing company",
            "start": 285.84,
            "duration": 3.24
        },
        {
            "text": "secrets so I'm just thinking this is",
            "start": 287.46,
            "duration": 4.38
        },
        {
            "text": "kind of crazy to try to process does",
            "start": 289.08,
            "duration": 4.02
        },
        {
            "text": "that mean they're double streaming",
            "start": 291.84,
            "duration": 2.46
        },
        {
            "text": "always",
            "start": 293.1,
            "duration": 3.24
        },
        {
            "text": "is that what I'm hearing right now is",
            "start": 294.3,
            "duration": 3.899
        },
        {
            "text": "that is is that what I'm hearing",
            "start": 296.34,
            "duration": 3.54
        },
        {
            "text": "effectively the stream goes to two",
            "start": 298.199,
            "duration": 3.78
        },
        {
            "text": "places you know the client could just",
            "start": 299.88,
            "duration": 3.3
        },
        {
            "text": "tell you this you don't need machine",
            "start": 301.979,
            "duration": 3.301
        },
        {
            "text": "learning to tell you the client goes hey",
            "start": 303.18,
            "duration": 4.62
        },
        {
            "text": "uh buddy that stream you gave me right",
            "start": 305.28,
            "duration": 4.38
        },
        {
            "text": "there is all like low quality and a bit",
            "start": 307.8,
            "duration": 3.66
        },
        {
            "text": " up okay could you take care of that",
            "start": 309.66,
            "duration": 3.78
        },
        {
            "text": "for me uh we designed our initial",
            "start": 311.46,
            "duration": 4.08
        },
        {
            "text": "solution as a distributed system using",
            "start": 313.44,
            "duration": 4.92
        },
        {
            "text": "serverless components serverless oh my",
            "start": 315.54,
            "duration": 4.439
        },
        {
            "text": "goodness everyone loves serverless for",
            "start": 318.36,
            "duration": 4.8
        },
        {
            "text": "example AWS step functions are AWS",
            "start": 319.979,
            "duration": 7.081
        },
        {
            "text": "Lambda I try to say it with the most",
            "start": 323.16,
            "duration": 7.34
        },
        {
            "text": "like intense",
            "start": 327.06,
            "duration": 3.44
        },
        {
            "text": "robot sound uh which was a good choice",
            "start": 331.139,
            "duration": 3.721
        },
        {
            "text": "for Building Services quickly in theory",
            "start": 333.18,
            "duration": 2.88
        },
        {
            "text": "this would allow us to scale each",
            "start": 334.86,
            "duration": 2.64
        },
        {
            "text": "service component independently however",
            "start": 336.06,
            "duration": 2.88
        },
        {
            "text": "the way we use the components caused us",
            "start": 337.5,
            "duration": 3.539
        },
        {
            "text": "to hit a hard scaling limit around five",
            "start": 338.94,
            "duration": 3.91
        },
        {
            "text": "percent of the expected load",
            "start": 341.039,
            "duration": 3.241
        },
        {
            "text": "[Laughter]",
            "start": 342.85,
            "duration": 4.189
        },
        {
            "text": "yeah also the overall cost of the",
            "start": 344.28,
            "duration": 5.419
        },
        {
            "text": "building blocks",
            "start": 347.039,
            "duration": 2.66
        },
        {
            "text": "nevertheless",
            "start": 349.8,
            "duration": 2.48
        },
        {
            "text": "I love it parallel execution detector",
            "start": 352.759,
            "duration": 7.421
        },
        {
            "text": "one detect wait hold on no don't tell me",
            "start": 356.82,
            "duration": 5.34
        },
        {
            "text": "are they actually taking a stream of",
            "start": 360.18,
            "duration": 4.739
        },
        {
            "text": "video and then processing the video more",
            "start": 362.16,
            "duration": 4.8
        },
        {
            "text": "than once like each one of the videos",
            "start": 364.919,
            "duration": 4.381
        },
        {
            "text": "are processed by different compute units",
            "start": 366.96,
            "duration": 6.019
        },
        {
            "text": "with different detector algorithms",
            "start": 369.3,
            "duration": 3.679
        },
        {
            "text": "you know Amazon's front end is in",
            "start": 375.74,
            "duration": 5.739
        },
        {
            "text": "JavaScript you know you could just",
            "start": 378.419,
            "duration": 4.801
        },
        {
            "text": "put a streaming algorithm in JavaScript",
            "start": 381.479,
            "duration": 4.401
        },
        {
            "text": "you know that right",
            "start": 383.22,
            "duration": 2.66
        },
        {
            "text": "you know you can update it you can test",
            "start": 385.979,
            "duration": 4.461
        },
        {
            "text": "it",
            "start": 388.199,
            "duration": 2.241
        },
        {
            "text": "you pay me three million dollars a year",
            "start": 391.08,
            "duration": 5.1
        },
        {
            "text": "right now I'll come over to Amazon",
            "start": 393.0,
            "duration": 5.639
        },
        {
            "text": "make it four actually make it four make",
            "start": 396.18,
            "duration": 4.76
        },
        {
            "text": "it four",
            "start": 398.639,
            "duration": 2.301
        },
        {
            "text": "make it for gonna help you out",
            "start": 401.52,
            "duration": 3.44
        },
        {
            "text": "uh Netflix uh we yeah we do we do a lot",
            "start": 405.24,
            "duration": 4.2
        },
        {
            "text": "of sweet things uh the main scaling",
            "start": 407.699,
            "duration": 3.301
        },
        {
            "text": "bottleneck of the architecture was the",
            "start": 409.44,
            "duration": 3.0
        },
        {
            "text": "orchestration management that was",
            "start": 411.0,
            "duration": 4.38
        },
        {
            "text": "implemented using AWS step functions our",
            "start": 412.44,
            "duration": 4.92
        },
        {
            "text": "server our service performed multiple",
            "start": 415.38,
            "duration": 4.02
        },
        {
            "text": "State transitions for every second of",
            "start": 417.36,
            "duration": 4.32
        },
        {
            "text": "the Stream So we quickly reached account",
            "start": 419.4,
            "duration": 4.94
        },
        {
            "text": "limits",
            "start": 421.68,
            "duration": 2.66
        },
        {
            "text": "the second cause problem we discovered",
            "start": 426.18,
            "duration": 5.16
        },
        {
            "text": "uh was about the way we were passing",
            "start": 428.52,
            "duration": 4.739
        },
        {
            "text": "video frames images around the different",
            "start": 431.34,
            "duration": 3.84
        },
        {
            "text": "components please tell me they decode it",
            "start": 433.259,
            "duration": 3.601
        },
        {
            "text": "and actually look at images please tell",
            "start": 435.18,
            "duration": 3.6
        },
        {
            "text": "me please tell me they're actually",
            "start": 436.86,
            "duration": 3.6
        },
        {
            "text": "transferring images they're not just",
            "start": 438.78,
            "duration": 4.199
        },
        {
            "text": "doing like P and n and B frames they're",
            "start": 440.46,
            "duration": 4.56
        },
        {
            "text": "actually because so like to do a b frame",
            "start": 442.979,
            "duration": 4.56
        },
        {
            "text": "you have to have uh the state of the of",
            "start": 445.02,
            "duration": 4.56
        },
        {
            "text": "the stream in here so the if they're",
            "start": 447.539,
            "duration": 3.78
        },
        {
            "text": "passing around just images to look at",
            "start": 449.58,
            "duration": 3.54
        },
        {
            "text": "stuff they might actually be decoding it",
            "start": 451.319,
            "duration": 3.741
        },
        {
            "text": "and then passing",
            "start": 453.12,
            "duration": 4.919
        },
        {
            "text": "raw dog and images around this dude this",
            "start": 455.06,
            "duration": 4.539
        },
        {
            "text": "would be so great please tell me this is",
            "start": 458.039,
            "duration": 3.241
        },
        {
            "text": "true to reduce computationally expensive",
            "start": 459.599,
            "duration": 3.72
        },
        {
            "text": "video conversion jobs we built the",
            "start": 461.28,
            "duration": 3.3
        },
        {
            "text": "microservice that splits video into",
            "start": 463.319,
            "duration": 5.061
        },
        {
            "text": "frames and temporarily uploads of images",
            "start": 464.58,
            "duration": 3.8
        },
        {
            "text": "just to monitor a service dude your",
            "start": 474.5,
            "duration": 5.919
        },
        {
            "text": "client knows the bit rate oh my goodness",
            "start": 477.3,
            "duration": 5.04
        },
        {
            "text": "and televisions tell you like if they're",
            "start": 480.419,
            "duration": 4.261
        },
        {
            "text": "getting completely effed off oh my",
            "start": 482.34,
            "duration": 6.079
        },
        {
            "text": "goodness what is this world we live in",
            "start": 484.68,
            "duration": 8.7
        },
        {
            "text": "oh oh the defect detectors where each of",
            "start": 488.419,
            "duration": 6.34
        },
        {
            "text": "them also runs a separate Michael",
            "start": 493.38,
            "duration": 3.36
        },
        {
            "text": "service and then downloads images and",
            "start": 494.759,
            "duration": 4.461
        },
        {
            "text": "processes",
            "start": 496.74,
            "duration": 2.48
        },
        {
            "text": "however the high number of tier one",
            "start": 501.06,
            "duration": 4.02
        },
        {
            "text": "calls to the yesterday but speaking of",
            "start": 503.639,
            "duration": 3.24
        },
        {
            "text": "tier ones anyone have a tier one sub for",
            "start": 505.08,
            "duration": 4.739
        },
        {
            "text": "me anybody a little tier one sub",
            "start": 506.879,
            "duration": 4.861
        },
        {
            "text": "a little tier one sub yeah is this a",
            "start": 509.819,
            "duration": 6.541
        },
        {
            "text": "joke this feels like how you would build",
            "start": 511.74,
            "duration": 6.78
        },
        {
            "text": "this this honestly feels like modern",
            "start": 516.36,
            "duration": 4.799
        },
        {
            "text": "JavaScript this the this is like modern",
            "start": 518.52,
            "duration": 4.62
        },
        {
            "text": "JavaScript in my head uh to address the",
            "start": 521.159,
            "duration": 3.361
        },
        {
            "text": "bottlenecks we initially considered",
            "start": 523.14,
            "duration": 3.48
        },
        {
            "text": "fixing problems separately due to reduce",
            "start": 524.52,
            "duration": 3.9
        },
        {
            "text": "cost and increase scaling capabilities",
            "start": 526.62,
            "duration": 3.6
        },
        {
            "text": "we experimented and took a bold decision",
            "start": 528.42,
            "duration": 3.18
        },
        {
            "text": "we decided to re-architect our",
            "start": 530.22,
            "duration": 4.08
        },
        {
            "text": "infrastructure please say rust say rust",
            "start": 531.6,
            "duration": 7.08
        },
        {
            "text": "five dollars a month uh we realized that",
            "start": 534.3,
            "duration": 6.18
        },
        {
            "text": "distributed approach wasn't bringing a",
            "start": 538.68,
            "duration": 3.36
        },
        {
            "text": "lot of benefits to our specific use case",
            "start": 540.48,
            "duration": 4.14
        },
        {
            "text": "so here's the problem is this isn't a",
            "start": 542.04,
            "duration": 4.44
        },
        {
            "text": "distributed approach the problem is that",
            "start": 544.62,
            "duration": 3.659
        },
        {
            "text": "the approach is wrong right like there",
            "start": 546.48,
            "duration": 3.12
        },
        {
            "text": "could be a distributed approach that",
            "start": 548.279,
            "duration": 3.301
        },
        {
            "text": "makes a lot more sense but this is just",
            "start": 549.6,
            "duration": 4.38
        },
        {
            "text": "crazy right can we all agree that this",
            "start": 551.58,
            "duration": 4.56
        },
        {
            "text": "is just crazy version of distributed",
            "start": 553.98,
            "duration": 4.32
        },
        {
            "text": "approach you're literally taking a",
            "start": 556.14,
            "duration": 4.02
        },
        {
            "text": "stream of video which has been optimized",
            "start": 558.3,
            "duration": 4.02
        },
        {
            "text": "to run through like a 90 Hertz decoder",
            "start": 560.16,
            "duration": 4.739
        },
        {
            "text": "to render onto like a 60 hertz renderer",
            "start": 562.32,
            "duration": 4.44
        },
        {
            "text": "and then you're actually taking this",
            "start": 564.899,
            "duration": 4.321
        },
        {
            "text": "this and you're piping you're double",
            "start": 566.76,
            "duration": 5.16
        },
        {
            "text": "piping it when you decode each frame",
            "start": 569.22,
            "duration": 5.28
        },
        {
            "text": "you're uploading it to S3 then you have",
            "start": 571.92,
            "duration": 5.039
        },
        {
            "text": "separate jobs that read from Edge S3",
            "start": 574.5,
            "duration": 4.56
        },
        {
            "text": "each image to determine the quality of",
            "start": 576.959,
            "duration": 4.221
        },
        {
            "text": "it",
            "start": 579.06,
            "duration": 2.12
        },
        {
            "text": "like that's crazy talk",
            "start": 583.019,
            "duration": 4.561
        },
        {
            "text": "like",
            "start": 586.38,
            "duration": 4.04
        },
        {
            "text": "how are you",
            "start": 587.58,
            "duration": 2.84
        },
        {
            "text": "just didn't know if the client is having",
            "start": 590.76,
            "duration": 4.079
        },
        {
            "text": "a good or bad experience you know the",
            "start": 592.8,
            "duration": 3.18
        },
        {
            "text": "bit rate",
            "start": 594.839,
            "duration": 3.06
        },
        {
            "text": "like you know how many stalls are",
            "start": 595.98,
            "duration": 3.9
        },
        {
            "text": "happening like you know things because",
            "start": 597.899,
            "duration": 5.821
        },
        {
            "text": "you download the video like you know you",
            "start": 599.88,
            "duration": 9.0
        },
        {
            "text": "know up here you know why",
            "start": 603.72,
            "duration": 5.16
        },
        {
            "text": "okay anyways uh conceptually the heart I",
            "start": 609.24,
            "duration": 4.32
        },
        {
            "text": "must have missed something uh we",
            "start": 612.48,
            "duration": 2.52
        },
        {
            "text": "realized that the distributed approach",
            "start": 613.56,
            "duration": 2.88
        },
        {
            "text": "wasn't bringing a lot of benefits really",
            "start": 615.0,
            "duration": 3.3
        },
        {
            "text": "uh so we packed all the components into",
            "start": 616.44,
            "duration": 3.36
        },
        {
            "text": "a single process that eliminated the",
            "start": 618.3,
            "duration": 3.96
        },
        {
            "text": "need for S3 buckets yep yep as an",
            "start": 619.8,
            "duration": 4.26
        },
        {
            "text": "intermediate storage uh for video frames",
            "start": 622.26,
            "duration": 3.84
        },
        {
            "text": "because our data transfer now happened",
            "start": 624.06,
            "duration": 4.56
        },
        {
            "text": "in memory",
            "start": 626.1,
            "duration": 5.4
        },
        {
            "text": "data transfer in memory super efficient",
            "start": 628.62,
            "duration": 5.159
        },
        {
            "text": "uh we also implemented orchestration",
            "start": 631.5,
            "duration": 3.959
        },
        {
            "text": "that controls components within a single",
            "start": 633.779,
            "duration": 4.021
        },
        {
            "text": "instance the following diagram shows the",
            "start": 635.459,
            "duration": 4.021
        },
        {
            "text": "architect of the decision uh after",
            "start": 637.8,
            "duration": 3.84
        },
        {
            "text": "migrating to a monolith I genuinely just",
            "start": 639.48,
            "duration": 3.6
        },
        {
            "text": "think that they're just doing the wrong",
            "start": 641.64,
            "duration": 3.72
        },
        {
            "text": "thing overall like I'm happy that",
            "start": 643.08,
            "duration": 3.78
        },
        {
            "text": "they're discovering that when you do",
            "start": 645.36,
            "duration": 3.9
        },
        {
            "text": "serverless",
            "start": 646.86,
            "duration": 6.24
        },
        {
            "text": "like a lot of serverless it goes crazy",
            "start": 649.26,
            "duration": 5.46
        },
        {
            "text": "I mean it's kind of funny that Amazon's",
            "start": 653.1,
            "duration": 3.6
        },
        {
            "text": "now discovering just a lot of serverless",
            "start": 654.72,
            "duration": 6.08
        },
        {
            "text": "goes crazy goes Burr uh but",
            "start": 656.7,
            "duration": 4.1
        },
        {
            "text": "whatever I can't even think about this",
            "start": 664.62,
            "duration": 3.3
        },
        {
            "text": "conceptually the high level architecture",
            "start": 666.18,
            "duration": 3.24
        },
        {
            "text": "Remains the Same we have exactly the",
            "start": 667.92,
            "duration": 2.82
        },
        {
            "text": "same components we had at the initial",
            "start": 669.42,
            "duration": 3.06
        },
        {
            "text": "design media conversion detectors and",
            "start": 670.74,
            "duration": 3.659
        },
        {
            "text": "orchestration this allowed us to reuse a",
            "start": 672.48,
            "duration": 3.299
        },
        {
            "text": "lot of code and quickly migrate to a new",
            "start": 674.399,
            "duration": 2.94
        },
        {
            "text": "architecture the initial design we could",
            "start": 675.779,
            "duration": 4.321
        },
        {
            "text": "scale several detectors horizontally and",
            "start": 677.339,
            "duration": 4.5
        },
        {
            "text": "each of them are ran as a separate",
            "start": 680.1,
            "duration": 4.679
        },
        {
            "text": "microservice oh Noah so adding a new",
            "start": 681.839,
            "duration": 4.5
        },
        {
            "text": "detector required to do that means",
            "start": 684.779,
            "duration": 3.12
        },
        {
            "text": "they're really splitting these streams",
            "start": 686.339,
            "duration": 3.361
        },
        {
            "text": "how many video streams are going through",
            "start": 687.899,
            "duration": 3.0
        },
        {
            "text": "this system",
            "start": 689.7,
            "duration": 3.78
        },
        {
            "text": "how many are actually going through the",
            "start": 690.899,
            "duration": 4.56
        },
        {
            "text": "system does that mean when you stream",
            "start": 693.48,
            "duration": 3.84
        },
        {
            "text": "once on",
            "start": 695.459,
            "duration": 4.44
        },
        {
            "text": "on AWS you're literally like seven",
            "start": 697.32,
            "duration": 5.579
        },
        {
            "text": "streams it's your stream plus each",
            "start": 699.899,
            "duration": 5.541
        },
        {
            "text": "detector",
            "start": 702.899,
            "duration": 2.541
        },
        {
            "text": "I think I might have to buy puts against",
            "start": 711.12,
            "duration": 4.399
        },
        {
            "text": "Amazon",
            "start": 713.16,
            "duration": 2.359
        },
        {
            "text": "our team regularly adds more detectors",
            "start": 718.62,
            "duration": 4.44
        },
        {
            "text": "to the surface and we already exceed the",
            "start": 721.079,
            "duration": 4.141
        },
        {
            "text": "capacity of a single instance uh to",
            "start": 723.06,
            "duration": 3.6
        },
        {
            "text": "overcome this problem we clone the",
            "start": 725.22,
            "duration": 4.559
        },
        {
            "text": "service multiple times parameterize each",
            "start": 726.66,
            "duration": 4.38
        },
        {
            "text": "copy with a different subset of",
            "start": 729.779,
            "duration": 3.18
        },
        {
            "text": "detectors we also implemented the",
            "start": 731.04,
            "duration": 3.359
        },
        {
            "text": "lightweight orchestration layer to",
            "start": 732.959,
            "duration": 3.241
        },
        {
            "text": "distribute customer requests the",
            "start": 734.399,
            "duration": 3.721
        },
        {
            "text": "following diagram shows our solution for",
            "start": 736.2,
            "duration": 3.54
        },
        {
            "text": "deployment detectors when the capacity",
            "start": 738.12,
            "duration": 5.659
        },
        {
            "text": "of a single instance exceeds",
            "start": 739.74,
            "duration": 4.039
        },
        {
            "text": "they still have a bucket that means",
            "start": 750.24,
            "duration": 3.719
        },
        {
            "text": "they're still like the the analyzing",
            "start": 752.04,
            "duration": 6.2
        },
        {
            "text": "results it still ran from a bucket",
            "start": 753.959,
            "duration": 4.281
        },
        {
            "text": "I know there must I mean dude Real Talk",
            "start": 762.019,
            "duration": 8.681
        },
        {
            "text": "Atlas uh Atlas uh Atlas a real time uh",
            "start": 766.26,
            "duration": 7.019
        },
        {
            "text": "metrics uh there we go Atlas real-time",
            "start": 770.7,
            "duration": 5.28
        },
        {
            "text": "metrics like oh my goodness why are you",
            "start": 773.279,
            "duration": 4.68
        },
        {
            "text": "giving me oh my goodness is",
            "start": 775.98,
            "duration": 3.72
        },
        {
            "text": "trying to is trying to oh",
            "start": 777.959,
            "duration": 3.661
        },
        {
            "text": "has an atlas now oh my goodness",
            "start": 779.7,
            "duration": 4.98
        },
        {
            "text": "don't use Atlas that's not for you",
            "start": 781.62,
            "duration": 4.44
        },
        {
            "text": "all right whatever I'm not even gonna",
            "start": 784.68,
            "duration": 2.88
        },
        {
            "text": "look at it Mongo's now taking over the",
            "start": 786.06,
            "duration": 3.66
        },
        {
            "text": "word and it's impossible to find uh all",
            "start": 787.56,
            "duration": 4.079
        },
        {
            "text": "right let's keep on going",
            "start": 789.72,
            "duration": 3.6
        },
        {
            "text": "we'll look at it later all right let's",
            "start": 791.639,
            "duration": 2.401
        },
        {
            "text": "see",
            "start": 793.32,
            "duration": 2.759
        },
        {
            "text": "microservice and serverless components",
            "start": 794.04,
            "duration": 5.28
        },
        {
            "text": "are tools that do work at high scale",
            "start": 796.079,
            "duration": 5.94
        },
        {
            "text": "are they Amazon sounds like you were",
            "start": 799.32,
            "duration": 4.86
        },
        {
            "text": "failing at like 10 000 but whether to",
            "start": 802.019,
            "duration": 4.5
        },
        {
            "text": "use them over a monolith has made uh uh",
            "start": 804.18,
            "duration": 3.959
        },
        {
            "text": "has to be made on a case-by-case basis",
            "start": 806.519,
            "duration": 3.481
        },
        {
            "text": "moving our service to a monolith reduced",
            "start": 808.139,
            "duration": 3.721
        },
        {
            "text": "our infrastructure cost by over 90 and",
            "start": 810.0,
            "duration": 3.48
        },
        {
            "text": "increased our scaling capabilities today",
            "start": 811.86,
            "duration": 3.3
        },
        {
            "text": "we're able to handle",
            "start": 813.48,
            "duration": 3.72
        },
        {
            "text": "thousands of streams and we still have",
            "start": 815.16,
            "duration": 4.14
        },
        {
            "text": "the capacity to scale the service even",
            "start": 817.2,
            "duration": 5.42
        },
        {
            "text": "further thousands",
            "start": 819.3,
            "duration": 3.32
        },
        {
            "text": "think",
            "start": 826.019,
            "duration": 2.601
        },
        {
            "text": "yeah yeah yeah yeah so there you go",
            "start": 829.079,
            "duration": 3.121
        },
        {
            "text": "there's Atlas there's the atlas one here",
            "start": 830.7,
            "duration": 3.66
        },
        {
            "text": "I'll pull it up for just a second",
            "start": 832.2,
            "duration": 4.139
        },
        {
            "text": "yeah we we do a lot of we do a lot of",
            "start": 834.36,
            "duration": 4.34
        },
        {
            "text": "Alice",
            "start": 836.339,
            "duration": 2.361
        },
        {
            "text": "Alice is great",
            "start": 838.86,
            "duration": 3.84
        },
        {
            "text": "Alice like",
            "start": 840.72,
            "duration": 4.14
        },
        {
            "text": "the fun little story so Atlas is like",
            "start": 842.7,
            "duration": 3.72
        },
        {
            "text": "just effectively a real-time counter",
            "start": 844.86,
            "duration": 3.539
        },
        {
            "text": "engager that's all it is and then you",
            "start": 846.42,
            "duration": 4.44
        },
        {
            "text": "can overlay it with week over week and",
            "start": 848.399,
            "duration": 4.261
        },
        {
            "text": "then on top of that you can take it and",
            "start": 850.86,
            "duration": 3.24
        },
        {
            "text": "when there's a high enough difference",
            "start": 852.66,
            "duration": 3.66
        },
        {
            "text": "between week over week and your new",
            "start": 854.1,
            "duration": 3.9
        },
        {
            "text": "value you can actually cause alerts to",
            "start": 856.32,
            "duration": 3.72
        },
        {
            "text": "go out it's like a super cool tool and",
            "start": 858.0,
            "duration": 3.959
        },
        {
            "text": "what I did is that at Netflix when we",
            "start": 860.04,
            "duration": 4.38
        },
        {
            "text": "are expanding internationally and we are",
            "start": 861.959,
            "duration": 3.781
        },
        {
            "text": "developing all of our Originals because",
            "start": 864.42,
            "duration": 3.06
        },
        {
            "text": "I started before we had next uh house of",
            "start": 865.74,
            "duration": 4.14
        },
        {
            "text": "cards right so I start we get House of",
            "start": 867.48,
            "duration": 4.919
        },
        {
            "text": "Cards uh that was great but that",
            "start": 869.88,
            "duration": 4.259
        },
        {
            "text": "involved all of our own assets and then",
            "start": 872.399,
            "duration": 3.24
        },
        {
            "text": "we get another original and then another",
            "start": 874.139,
            "duration": 2.7
        },
        {
            "text": "original and then all of a sudden we",
            "start": 875.639,
            "duration": 2.94
        },
        {
            "text": "have 20 originals and then the next year",
            "start": 876.839,
            "duration": 4.44
        },
        {
            "text": "was like going from 20 to 400 and we've",
            "start": 878.579,
            "duration": 4.681
        },
        {
            "text": "never we had no way to know are the",
            "start": 881.279,
            "duration": 4.5
        },
        {
            "text": "images actually there in production in",
            "start": 883.26,
            "duration": 4.62
        },
        {
            "text": "the 15 different languages we supported",
            "start": 885.779,
            "duration": 4.021
        },
        {
            "text": "or whatever all the different",
            "start": 887.88,
            "duration": 3.959
        },
        {
            "text": "things are right so it's like very very",
            "start": 889.8,
            "duration": 4.08
        },
        {
            "text": "intense and so what I did is I took",
            "start": 891.839,
            "duration": 3.601
        },
        {
            "text": "every single image",
            "start": 893.88,
            "duration": 5.28
        },
        {
            "text": "and created an atlas metric by uh by a",
            "start": 895.44,
            "duration": 5.339
        },
        {
            "text": "couple different things and if it was",
            "start": 899.16,
            "duration": 3.96
        },
        {
            "text": "missing from the back end I would log it",
            "start": 900.779,
            "duration": 5.521
        },
        {
            "text": "as missing through Atlas and so we could",
            "start": 903.12,
            "duration": 6.719
        },
        {
            "text": "tell at any point what video anywhere",
            "start": 906.3,
            "duration": 6.42
        },
        {
            "text": "was missing images and so that was like",
            "start": 909.839,
            "duration": 4.74
        },
        {
            "text": "a huge huge nice thing sorry if there's",
            "start": 912.72,
            "duration": 3.84
        },
        {
            "text": "ads that's twitch twitch has ads twitch",
            "start": 914.579,
            "duration": 3.961
        },
        {
            "text": "twitch ads everybody",
            "start": 916.56,
            "duration": 2.7
        },
        {
            "text": "um",
            "start": 918.54,
            "duration": 2.52
        },
        {
            "text": "but yeah so it was super cool it solved",
            "start": 919.26,
            "duration": 3.9
        },
        {
            "text": "all of our image Problems by using Atlas",
            "start": 921.06,
            "duration": 3.66
        },
        {
            "text": "alerting and",
            "start": 923.16,
            "duration": 4.859
        },
        {
            "text": "a couple simple metrics right like",
            "start": 924.72,
            "duration": 5.34
        },
        {
            "text": "not even hard you know what I mean it's",
            "start": 928.019,
            "duration": 3.241
        },
        {
            "text": "pretty pretty exciting all right let's",
            "start": 930.06,
            "duration": 2.82
        },
        {
            "text": "keep on going some decisions we've taken",
            "start": 931.26,
            "duration": 3.48
        },
        {
            "text": "are not obvious but they resulted in",
            "start": 932.88,
            "duration": 3.959
        },
        {
            "text": "significant improvements such as",
            "start": 934.74,
            "duration": 4.08
        },
        {
            "text": "streaming all the videos we could handle",
            "start": 936.839,
            "duration": 5.461
        },
        {
            "text": "thousands okay cool thousands thousands",
            "start": 938.82,
            "duration": 6.06
        },
        {
            "text": "of streams all right",
            "start": 942.3,
            "duration": 3.839
        },
        {
            "text": "neat",
            "start": 944.88,
            "duration": 4.019
        },
        {
            "text": "I wonder I wonder if Netflix crosses the",
            "start": 946.139,
            "duration": 5.281
        },
        {
            "text": "billions of streams at this point you're",
            "start": 948.899,
            "duration": 4.5
        },
        {
            "text": "gonna have to 10x your 10x to 10x your",
            "start": 951.42,
            "duration": 4.02
        },
        {
            "text": "10x to 10x the 10x to get up to Netflix",
            "start": 953.399,
            "duration": 3.721
        },
        {
            "text": "so I hope you got I hope you're ready",
            "start": 955.44,
            "duration": 3.3
        },
        {
            "text": "for that scaling uh whereas running",
            "start": 957.12,
            "duration": 3.6
        },
        {
            "text": "media conversion once in caching its",
            "start": 958.74,
            "duration": 3.42
        },
        {
            "text": "outcome might be considered to be a",
            "start": 960.72,
            "duration": 2.76
        },
        {
            "text": "cheaper option",
            "start": 962.16,
            "duration": 3.0
        },
        {
            "text": "we have found this uh not to be a",
            "start": 963.48,
            "duration": 3.419
        },
        {
            "text": "cost-effective approach the changes",
            "start": 965.16,
            "duration": 3.539
        },
        {
            "text": "we've made allow Prime video to monitor",
            "start": 966.899,
            "duration": 3.601
        },
        {
            "text": "all streams viewed by our customers okay",
            "start": 968.699,
            "duration": 5.101
        },
        {
            "text": "hold on I swear I'm take I swear am I",
            "start": 970.5,
            "duration": 4.56
        },
        {
            "text": "just hearing this here",
            "start": 973.8,
            "duration": 4.08
        },
        {
            "text": "Amazon has thousands of concurrent",
            "start": 975.06,
            "duration": 3.899
        },
        {
            "text": "streams",
            "start": 977.88,
            "duration": 2.579
        },
        {
            "text": "old man Judo you missed the beginning",
            "start": 978.959,
            "duration": 4.32
        },
        {
            "text": "where they literally process every",
            "start": 980.459,
            "duration": 5.281
        },
        {
            "text": "single request every single video okay",
            "start": 983.279,
            "duration": 4.74
        },
        {
            "text": "get this Judo they take the video that",
            "start": 985.74,
            "duration": 4.08
        },
        {
            "text": "the customer receives pipes it to their",
            "start": 988.019,
            "duration": 3.56
        },
        {
            "text": "back end their back end decodes it",
            "start": 989.82,
            "duration": 5.16
        },
        {
            "text": "uploads the images to S3 as cache and",
            "start": 991.579,
            "duration": 5.2
        },
        {
            "text": "then other service reads these out to",
            "start": 994.98,
            "duration": 3.84
        },
        {
            "text": "test the quality of set image and looks",
            "start": 996.779,
            "duration": 4.141
        },
        {
            "text": "for detector problems that is what they",
            "start": 998.82,
            "duration": 4.86
        },
        {
            "text": "mean by cached and scaling and",
            "start": 1000.92,
            "duration": 4.08
        },
        {
            "text": "efficiency",
            "start": 1003.68,
            "duration": 3.48
        },
        {
            "text": "okay",
            "start": 1005.0,
            "duration": 4.139
        },
        {
            "text": "and what I'm reading literally right now",
            "start": 1007.16,
            "duration": 5.099
        },
        {
            "text": "is Amazon Prime has thousands of",
            "start": 1009.139,
            "duration": 6.081
        },
        {
            "text": "concurrent streams",
            "start": 1012.259,
            "duration": 2.961
        },
        {
            "text": "that literally means right now I could",
            "start": 1016.18,
            "duration": 7.379
        },
        {
            "text": "very well be like half of Amazon Prime",
            "start": 1019.88,
            "duration": 6.86
        },
        {
            "text": "right now",
            "start": 1023.559,
            "duration": 3.181
        },
        {
            "text": "I have half of Amazon Prime all right",
            "start": 1028.179,
            "duration": 5.681
        },
        {
            "text": "more hey",
            "start": 1032.059,
            "duration": 4.921
        },
        {
            "text": "this was just sad to read uh but I love",
            "start": 1033.86,
            "duration": 4.5
        },
        {
            "text": "that they're improving engineering I",
            "start": 1036.98,
            "duration": 3.06
        },
        {
            "text": "always love to see better performance so",
            "start": 1038.36,
            "duration": 3.18
        },
        {
            "text": "good job then but I think you could take",
            "start": 1040.04,
            "duration": 3.419
        },
        {
            "text": "a different solution altogether to make",
            "start": 1041.54,
            "duration": 4.919
        },
        {
            "text": "this a lot better the name",
            "start": 1043.459,
            "duration": 5.46
        },
        {
            "text": "is the stream again I work at Netflix by",
            "start": 1046.459,
            "duration": 5.181
        },
        {
            "text": "the way did you know that",
            "start": 1048.919,
            "duration": 2.721
        }
    ],
    "stats": {
        "viewCount": "98953",
        "likeCount": "2965",
        "favoriteCount": "0",
        "commentCount": "277"
    }
}