{
    "id": "Jewi2G5SgdU",
    "title": "Next Generation TypeScript | Prime Reacts",
    "publishedAt": "2023-07-21T12:00:25Z",
    "captions": [
        {
            "text": "I think so if we're doing typescript",
            "start": 0.48,
            "duration": 4.22
        },
        {
            "text": "content",
            "start": 2.22,
            "duration": 2.48
        },
        {
            "text": "we're doing typescript content",
            "start": 4.86,
            "duration": 4.86
        },
        {
            "text": "oh",
            "start": 7.68,
            "duration": 3.12
        },
        {
            "text": "hey",
            "start": 9.72,
            "duration": 4.14
        },
        {
            "text": "it's typescript content okay",
            "start": 10.8,
            "duration": 4.74
        },
        {
            "text": "we don't we don't mess around with that",
            "start": 13.86,
            "duration": 4.2
        },
        {
            "text": "non-stuff okay",
            "start": 15.54,
            "duration": 4.62
        },
        {
            "text": "there we go we're not gonna get fully",
            "start": 18.06,
            "duration": 3.18
        },
        {
            "text": "naked",
            "start": 20.16,
            "duration": 2.82
        },
        {
            "text": "okay but if we're doing typescript",
            "start": 21.24,
            "duration": 4.08
        },
        {
            "text": "content you know we gotta look the part",
            "start": 22.98,
            "duration": 4.619
        },
        {
            "text": "okay hoodies off",
            "start": 25.32,
            "duration": 5.34
        },
        {
            "text": "let's go okay hey next generation",
            "start": 27.599,
            "duration": 4.621
        },
        {
            "text": "typescript are you ready for this I'm",
            "start": 30.66,
            "duration": 3.059
        },
        {
            "text": "kind of excited about this what is next",
            "start": 32.22,
            "duration": 4.679
        },
        {
            "text": "gen typescript hi I'm Ethan and this",
            "start": 33.719,
            "duration": 5.461
        },
        {
            "text": "video is an introduction to effect a",
            "start": 36.899,
            "duration": 3.961
        },
        {
            "text": "typescript library to help developers",
            "start": 39.18,
            "duration": 3.48
        },
        {
            "text": "easily create the complex applications",
            "start": 40.86,
            "duration": 4.199
        },
        {
            "text": "of today and tomorrow",
            "start": 42.66,
            "duration": 5.34
        },
        {
            "text": "okay exciting Next Generation here we're",
            "start": 45.059,
            "duration": 3.961
        },
        {
            "text": "gonna turn up the we're going to turn up",
            "start": 48.0,
            "duration": 2.94
        },
        {
            "text": "the volume we're going to turn up the",
            "start": 49.02,
            "duration": 4.32
        },
        {
            "text": "volume I'm actually at maximum I'm at",
            "start": 50.94,
            "duration": 9.139
        },
        {
            "text": "153 spinal tap 11 can't get any louder",
            "start": 53.34,
            "duration": 6.739
        },
        {
            "text": "we are stuck with JavaScript and all of",
            "start": 60.239,
            "duration": 3.181
        },
        {
            "text": "its quirks whether we like it or not",
            "start": 62.039,
            "duration": 3.661
        },
        {
            "text": "typescript has been a really big step",
            "start": 63.42,
            "duration": 4.379
        },
        {
            "text": "but The Primitives it's built on are",
            "start": 65.7,
            "duration": 4.68
        },
        {
            "text": "still fundamentally flawed it's time to",
            "start": 67.799,
            "duration": 4.381
        },
        {
            "text": "build with a library designed to handle",
            "start": 70.38,
            "duration": 4.32
        },
        {
            "text": "the complexity of modern development",
            "start": 72.18,
            "duration": 4.799
        },
        {
            "text": "how often I do agree with this I think",
            "start": 74.7,
            "duration": 3.84
        },
        {
            "text": "JavaScript is a severely flawed language",
            "start": 76.979,
            "duration": 3.78
        },
        {
            "text": "but you know to be fair all languages",
            "start": 78.54,
            "duration": 4.5
        },
        {
            "text": "are kind of severely flawed in their own",
            "start": 80.759,
            "duration": 4.201
        },
        {
            "text": "way you know what I mean",
            "start": 83.04,
            "duration": 3.78
        },
        {
            "text": "you know you know what I mean except for",
            "start": 84.96,
            "duration": 3.6
        },
        {
            "text": "go and rust they're beautiful languages",
            "start": 86.82,
            "duration": 4.26
        },
        {
            "text": "and oh camel uh you know I mean c really",
            "start": 88.56,
            "duration": 4.44
        },
        {
            "text": "is a perfect language",
            "start": 91.08,
            "duration": 4.62
        },
        {
            "text": "um C plus plus is horrifying oh gosh I",
            "start": 93.0,
            "duration": 4.02
        },
        {
            "text": "mean I'm sure Elixir is great I've never",
            "start": 95.7,
            "duration": 3.059
        },
        {
            "text": "used Elixir I mean Haskell's So Glorious",
            "start": 97.02,
            "duration": 3.12
        },
        {
            "text": "that you can only write white papers",
            "start": 98.759,
            "duration": 3.301
        },
        {
            "text": "like okay so maybe it's just job maybe",
            "start": 100.14,
            "duration": 4.14
        },
        {
            "text": "JavaScript sucks have you seen this kind",
            "start": 102.06,
            "duration": 4.14
        },
        {
            "text": "of code yeah what problems might there",
            "start": 104.28,
            "duration": 5.58
        },
        {
            "text": "be here several try catch in",
            "start": 106.2,
            "duration": 5.76
        },
        {
            "text": "so this is like my classic example of",
            "start": 109.86,
            "duration": 4.799
        },
        {
            "text": "why I hate JavaScript where are the",
            "start": 111.96,
            "duration": 4.979
        },
        {
            "text": "errors like this function doesn't state",
            "start": 114.659,
            "duration": 4.441
        },
        {
            "text": "that it has an error this function does",
            "start": 116.939,
            "duration": 3.661
        },
        {
            "text": "not state that it has an error this",
            "start": 119.1,
            "duration": 3.72
        },
        {
            "text": "function does not like there is three",
            "start": 120.6,
            "duration": 5.78
        },
        {
            "text": "possible places where errors happen",
            "start": 122.82,
            "duration": 3.56
        },
        {
            "text": "the biggest problem is that this",
            "start": 127.68,
            "duration": 3.299
        },
        {
            "text": "function could crash your program but",
            "start": 129.3,
            "duration": 4.939
        },
        {
            "text": "doesn't feel the need to tell you",
            "start": 130.979,
            "duration": 3.26
        },
        {
            "text": "that guy read my mind he just he read it",
            "start": 136.44,
            "duration": 6.0
        },
        {
            "text": "he read it he knew it I knew it",
            "start": 139.5,
            "duration": 5.52
        },
        {
            "text": "if it happens it happens dude pre-watch",
            "start": 142.44,
            "duration": 4.26
        },
        {
            "text": "no it's because I've done this too much",
            "start": 145.02,
            "duration": 4.02
        },
        {
            "text": "it's because I've written too much",
            "start": 146.7,
            "duration": 4.14
        },
        {
            "text": "yeah",
            "start": 149.04,
            "duration": 4.02
        },
        {
            "text": "unsafe assumptions crash our programs at",
            "start": 150.84,
            "duration": 4.68
        },
        {
            "text": "runtime and wake us up at 4am",
            "start": 153.06,
            "duration": 4.8
        },
        {
            "text": "correct handling these cases properly in",
            "start": 155.52,
            "duration": 6.14
        },
        {
            "text": "vanilla typescript is less than ideal",
            "start": 157.86,
            "duration": 3.8
        },
        {
            "text": "it",
            "start": 163.739,
            "duration": 4.161
        },
        {
            "text": "did I",
            "start": 165.18,
            "duration": 2.72
        },
        {
            "text": "we have not gotten to a point in web dev",
            "start": 168.3,
            "duration": 3.36
        },
        {
            "text": "where we say the phrase vanilla",
            "start": 170.28,
            "duration": 3.539
        },
        {
            "text": "typescript right",
            "start": 171.66,
            "duration": 5.12
        },
        {
            "text": "is that a thing now",
            "start": 173.819,
            "duration": 2.961
        },
        {
            "text": "a language that's transpiled to a",
            "start": 178.26,
            "duration": 5.479
        },
        {
            "text": "language that is interpreted",
            "start": 180.36,
            "duration": 3.379
        },
        {
            "text": "Ethan I love you this is a great you",
            "start": 186.84,
            "duration": 3.84
        },
        {
            "text": "already have captured my heart with",
            "start": 188.94,
            "duration": 3.299
        },
        {
            "text": "everything you're saying Ethan I am on",
            "start": 190.68,
            "duration": 3.66
        },
        {
            "text": "your team but please never say the word",
            "start": 192.239,
            "duration": 4.261
        },
        {
            "text": "vanilla typescript again it I will",
            "start": 194.34,
            "duration": 4.38
        },
        {
            "text": "emotionally be I I'm gonna die I'm gonna",
            "start": 196.5,
            "duration": 4.56
        },
        {
            "text": "die I'm dying on the inside what if you",
            "start": 198.72,
            "duration": 4.019
        },
        {
            "text": "forget to try catch what if you forget",
            "start": 201.06,
            "duration": 4.74
        },
        {
            "text": "one of the possible errors yeah this is",
            "start": 202.739,
            "duration": 4.681
        },
        {
            "text": "exactly as unsafe as the original",
            "start": 205.8,
            "duration": 3.659
        },
        {
            "text": "function but the three places it can",
            "start": 207.42,
            "duration": 4.319
        },
        {
            "text": "crash are now explicitly stated yep if",
            "start": 209.459,
            "duration": 4.021
        },
        {
            "text": "you want it to never crash you find",
            "start": 211.739,
            "duration": 4.321
        },
        {
            "text": "alternatives for those or dies here's",
            "start": 213.48,
            "duration": 4.2
        },
        {
            "text": "what a verbose version of that might",
            "start": 216.06,
            "duration": 3.539
        },
        {
            "text": "look like okay this is good I know this",
            "start": 217.68,
            "duration": 3.839
        },
        {
            "text": "may seem like a lot but this is mostly",
            "start": 219.599,
            "duration": 3.72
        },
        {
            "text": "caused by having to work around existing",
            "start": 221.519,
            "duration": 3.961
        },
        {
            "text": "apis that are designed around try catch",
            "start": 223.319,
            "duration": 4.441
        },
        {
            "text": "it takes a bit of work at the weeds but",
            "start": 225.48,
            "duration": 3.899
        },
        {
            "text": "once you're into the effect World Things",
            "start": 227.76,
            "duration": 5.16
        },
        {
            "text": "become much easier so I so right away",
            "start": 229.379,
            "duration": 4.981
        },
        {
            "text": "there's something that really worries me",
            "start": 232.92,
            "duration": 3.539
        },
        {
            "text": "right off the rip uh when I'm just",
            "start": 234.36,
            "duration": 4.86
        },
        {
            "text": "looking at this code right I like this",
            "start": 236.459,
            "duration": 4.081
        },
        {
            "text": "is just a result type but what I'm",
            "start": 239.22,
            "duration": 2.46
        },
        {
            "text": "seeing right now is I'm just seeing",
            "start": 240.54,
            "duration": 3.24
        },
        {
            "text": "effectively an attempt to mix two",
            "start": 241.68,
            "duration": 6.18
        },
        {
            "text": "concepts together some sort of asyncing",
            "start": 243.78,
            "duration": 6.84
        },
        {
            "text": "like understanding of promises and then",
            "start": 247.86,
            "duration": 4.5
        },
        {
            "text": "on top of it it looks like it's it's",
            "start": 250.62,
            "duration": 4.92
        },
        {
            "text": "really also doing uh uh what's it called",
            "start": 252.36,
            "duration": 5.099
        },
        {
            "text": "a result type and so if you're not",
            "start": 255.54,
            "duration": 3.419
        },
        {
            "text": "familiar with result types we'll get",
            "start": 257.459,
            "duration": 3.421
        },
        {
            "text": "your monads in order because I'm about",
            "start": 258.959,
            "duration": 4.74
        },
        {
            "text": "to put my foot in your functor okay so",
            "start": 260.88,
            "duration": 5.46
        },
        {
            "text": "think about that should I put is it my",
            "start": 263.699,
            "duration": 4.201
        },
        {
            "text": "foot in your functor my functor in your",
            "start": 266.34,
            "duration": 3.24
        },
        {
            "text": "ass I feel like the second one just",
            "start": 267.9,
            "duration": 3.54
        },
        {
            "text": "doesn't sound the way I want it to sound",
            "start": 269.58,
            "duration": 3.0
        },
        {
            "text": "you know what I mean it doesn't sound",
            "start": 271.44,
            "duration": 2.819
        },
        {
            "text": "quite the way I want it doesn't doesn't",
            "start": 272.58,
            "duration": 5.76
        },
        {
            "text": "quite sound the way I want it to",
            "start": 274.259,
            "duration": 6.241
        },
        {
            "text": "an idiomatic effect solution looks like",
            "start": 278.34,
            "duration": 4.079
        },
        {
            "text": "this don't worry too much about the",
            "start": 280.5,
            "duration": 3.54
        },
        {
            "text": "specifics here we'll talk about the",
            "start": 282.419,
            "duration": 3.901
        },
        {
            "text": "basic effect types and functions soon I",
            "start": 284.04,
            "duration": 4.56
        },
        {
            "text": "am very worried about memory so I you",
            "start": 286.32,
            "duration": 3.54
        },
        {
            "text": "know I come from a different world right",
            "start": 288.6,
            "duration": 3.48
        },
        {
            "text": "I write on televisions I",
            "start": 289.86,
            "duration": 4.44
        },
        {
            "text": "memory when I write code I think about",
            "start": 292.08,
            "duration": 4.92
        },
        {
            "text": "memory is kind of like a thing I should",
            "start": 294.3,
            "duration": 5.339
        },
        {
            "text": "be worried about right and so when I see",
            "start": 297.0,
            "duration": 5.699
        },
        {
            "text": "this it worries me you know what I mean",
            "start": 299.639,
            "duration": 4.441
        },
        {
            "text": "the love-hate relationship with",
            "start": 302.699,
            "duration": 3.0
        },
        {
            "text": "JavaScript is something most developers",
            "start": 304.08,
            "duration": 3.48
        },
        {
            "text": "share yeah you can't seem to escape it",
            "start": 305.699,
            "duration": 4.201
        },
        {
            "text": "the language has grown a lot with new",
            "start": 307.56,
            "duration": 3.72
        },
        {
            "text": "modern features and typescript making",
            "start": 309.9,
            "duration": 3.6
        },
        {
            "text": "development surprisingly pleasant but",
            "start": 311.28,
            "duration": 4.68
        },
        {
            "text": "the pain points are still there",
            "start": 313.5,
            "duration": 4.62
        },
        {
            "text": "effect brings typescript up another",
            "start": 315.96,
            "duration": 4.5
        },
        {
            "text": "level providing powerful Primitives to",
            "start": 318.12,
            "duration": 4.2
        },
        {
            "text": "make writing safe asynchronous",
            "start": 320.46,
            "duration": 4.56
        },
        {
            "text": "resourceful composable concurrent and",
            "start": 322.32,
            "duration": 4.8
        },
        {
            "text": "observable programs easier than ever",
            "start": 325.02,
            "duration": 2.94
        },
        {
            "text": "before",
            "start": 327.12,
            "duration": 2.28
        },
        {
            "text": "I'm curious about the observable I'm",
            "start": 327.96,
            "duration": 2.76
        },
        {
            "text": "curious if he's going to address that",
            "start": 329.4,
            "duration": 3.12
        },
        {
            "text": "because",
            "start": 330.72,
            "duration": 4.08
        },
        {
            "text": "that's a you know",
            "start": 332.52,
            "duration": 3.54
        },
        {
            "text": "it's one of the hard Parts about",
            "start": 334.8,
            "duration": 3.119
        },
        {
            "text": "promises and things like that is that",
            "start": 336.06,
            "duration": 3.54
        },
        {
            "text": "it's it's sometimes it's hard to observe",
            "start": 337.919,
            "duration": 4.021
        },
        {
            "text": "your program in a good",
            "start": 339.6,
            "duration": 4.08
        },
        {
            "text": "in a good manner isn't typescript",
            "start": 341.94,
            "duration": 3.18
        },
        {
            "text": "already safe no it's never been safe",
            "start": 343.68,
            "duration": 4.2
        },
        {
            "text": "it's not going to start with type safety",
            "start": 345.12,
            "duration": 5.34
        },
        {
            "text": "what's the problem with these two types",
            "start": 347.88,
            "duration": 5.159
        },
        {
            "text": "they're only generic over one parameter",
            "start": 350.46,
            "duration": 4.739
        },
        {
            "text": "correct typescript gives us the illusion",
            "start": 353.039,
            "duration": 4.081
        },
        {
            "text": "of safety but once things go off the",
            "start": 355.199,
            "duration": 3.901
        },
        {
            "text": "happy path you're left completely in the",
            "start": 357.12,
            "duration": 4.139
        },
        {
            "text": "dark also uh just so you know",
            "start": 359.1,
            "duration": 4.92
        },
        {
            "text": "optimizations in JavaScript are often",
            "start": 361.259,
            "duration": 4.5
        },
        {
            "text": "tied to like monomorphic functions and",
            "start": 364.02,
            "duration": 3.0
        },
        {
            "text": "stuff like that so when I see things",
            "start": 365.759,
            "duration": 3.061
        },
        {
            "text": "where you have generics as parameters",
            "start": 367.02,
            "duration": 3.48
        },
        {
            "text": "you're also setting yourself up to get",
            "start": 368.82,
            "duration": 3.24
        },
        {
            "text": "like destroyed in performance you know",
            "start": 370.5,
            "duration": 3.6
        },
        {
            "text": "just a thing just a thing I'd like to",
            "start": 372.06,
            "duration": 3.359
        },
        {
            "text": "throw out there",
            "start": 374.1,
            "duration": 3.12
        },
        {
            "text": "I am here to tell you that it doesn't",
            "start": 375.419,
            "duration": 4.321
        },
        {
            "text": "have to be that way okay the effect type",
            "start": 377.22,
            "duration": 4.259
        },
        {
            "text": "is the core of the entire effect",
            "start": 379.74,
            "duration": 3.179
        },
        {
            "text": "ecosystem",
            "start": 381.479,
            "duration": 3.481
        },
        {
            "text": "although their actual implementation is",
            "start": 382.919,
            "duration": 4.081
        },
        {
            "text": "a bit more complex it can be helpful to",
            "start": 384.96,
            "duration": 4.019
        },
        {
            "text": "think of an effect as a function that",
            "start": 387.0,
            "duration": 3.539
        },
        {
            "text": "takes in its requirements as arguments",
            "start": 388.979,
            "duration": 5.28
        },
        {
            "text": "and returns either a value or an error",
            "start": 390.539,
            "duration": 6.181
        },
        {
            "text": "uh I really don't like this interface",
            "start": 394.259,
            "duration": 4.081
        },
        {
            "text": "right off the rip where air is first and",
            "start": 396.72,
            "duration": 2.52
        },
        {
            "text": "then value",
            "start": 398.34,
            "duration": 2.82
        },
        {
            "text": "I'm more of a value error kind of guy",
            "start": 399.24,
            "duration": 3.66
        },
        {
            "text": "not an error value that's kind of like",
            "start": 401.16,
            "duration": 4.379
        },
        {
            "text": "the old node way which is error value I",
            "start": 402.9,
            "duration": 4.5
        },
        {
            "text": "never been that kind of person more into",
            "start": 405.539,
            "duration": 3.481
        },
        {
            "text": "the whole you know",
            "start": 407.4,
            "duration": 3.0
        },
        {
            "text": "you know what I mean kind of more into",
            "start": 409.02,
            "duration": 2.88
        },
        {
            "text": "that side you know what I mean takes in",
            "start": 410.4,
            "duration": 3.06
        },
        {
            "text": "its requirements as arguments and",
            "start": 411.9,
            "duration": 4.62
        },
        {
            "text": "returns either a value or an error",
            "start": 413.46,
            "duration": 5.28
        },
        {
            "text": "now back to JavaScript for just a quick",
            "start": 416.52,
            "duration": 3.239
        },
        {
            "text": "moment",
            "start": 418.74,
            "duration": 3.06
        },
        {
            "text": "asynchronous code is everywhere in",
            "start": 419.759,
            "duration": 3.961
        },
        {
            "text": "modern apps that's the promise primitive",
            "start": 421.8,
            "duration": 3.839
        },
        {
            "text": "leaves a lot to be desired absolutely",
            "start": 423.72,
            "duration": 4.14
        },
        {
            "text": "promises are eagerly executed meaning",
            "start": 425.639,
            "duration": 4.201
        },
        {
            "text": "they begin execution immediately on",
            "start": 427.86,
            "duration": 3.66
        },
        {
            "text": "creation this means that they can never",
            "start": 429.84,
            "duration": 4.079
        },
        {
            "text": "be used to represent a computation this",
            "start": 431.52,
            "duration": 3.78
        },
        {
            "text": "is correct I've never really liked that",
            "start": 433.919,
            "duration": 3.361
        },
        {
            "text": "but there is async iterators which are",
            "start": 435.3,
            "duration": 3.959
        },
        {
            "text": "kind of like a neat result of a promise",
            "start": 437.28,
            "duration": 4.5
        },
        {
            "text": "but I do agree the idea of a promise",
            "start": 439.259,
            "duration": 4.141
        },
        {
            "text": "being",
            "start": 441.78,
            "duration": 4.68
        },
        {
            "text": "uh hot is kind of annoying I kind of",
            "start": 443.4,
            "duration": 5.16
        },
        {
            "text": "wish I had like a way to",
            "start": 446.46,
            "duration": 4.019
        },
        {
            "text": "um",
            "start": 448.56,
            "duration": 4.139
        },
        {
            "text": "I kind of wish I I that's why often",
            "start": 450.479,
            "duration": 3.66
        },
        {
            "text": "you'll see things like promise factories",
            "start": 452.699,
            "duration": 3.0
        },
        {
            "text": "where if you try to build any sort of",
            "start": 454.139,
            "duration": 3.361
        },
        {
            "text": "async request queue you kind of have to",
            "start": 455.699,
            "duration": 3.301
        },
        {
            "text": "like make them into Factory so you have",
            "start": 457.5,
            "duration": 2.759
        },
        {
            "text": "to have a function that returns a",
            "start": 459.0,
            "duration": 2.759
        },
        {
            "text": "promise as opposed to just receiving",
            "start": 460.259,
            "duration": 3.541
        },
        {
            "text": "promises or else they just all execute",
            "start": 461.759,
            "duration": 3.66
        },
        {
            "text": "right away yeah they're kind of annoying",
            "start": 463.8,
            "duration": 3.299
        },
        {
            "text": "already running computation that might",
            "start": 465.419,
            "duration": 3.301
        },
        {
            "text": "have already completed and produced a",
            "start": 467.099,
            "duration": 2.581
        },
        {
            "text": "value",
            "start": 468.72,
            "duration": 3.599
        },
        {
            "text": "also the value produced by A promise is",
            "start": 469.68,
            "duration": 4.5
        },
        {
            "text": "implicitly memoized meaning that when",
            "start": 472.319,
            "duration": 3.361
        },
        {
            "text": "the promise is settled the internal",
            "start": 474.18,
            "duration": 3.359
        },
        {
            "text": "state of the promise is frozen and can't",
            "start": 475.68,
            "duration": 3.6
        },
        {
            "text": "be changed anymore whether the promise",
            "start": 477.539,
            "duration": 3.78
        },
        {
            "text": "is fulfilled or rejected correct",
            "start": 479.28,
            "duration": 4.68
        },
        {
            "text": "consequently if you",
            "start": 481.319,
            "duration": 4.38
        },
        {
            "text": "correct",
            "start": 483.96,
            "duration": 3.12
        },
        {
            "text": "which means you may hold on to memory",
            "start": 485.699,
            "duration": 3.241
        },
        {
            "text": "longer want to run the same computation",
            "start": 487.08,
            "duration": 4.14
        },
        {
            "text": "again you'll need to recreate the entire",
            "start": 488.94,
            "duration": 3.78
        },
        {
            "text": "promise from scratch",
            "start": 491.22,
            "duration": 4.379
        },
        {
            "text": "effects aren't like this the effect data",
            "start": 492.72,
            "duration": 5.34
        },
        {
            "text": "type represents an immutable value that",
            "start": 495.599,
            "duration": 5.461
        },
        {
            "text": "lazily describes a workflow or a job and",
            "start": 498.06,
            "duration": 4.859
        },
        {
            "text": "all effect functions produce new effect",
            "start": 501.06,
            "duration": 3.24
        },
        {
            "text": "values",
            "start": 502.919,
            "duration": 3.84
        },
        {
            "text": "again worried about the memory of this",
            "start": 504.3,
            "duration": 4.519
        },
        {
            "text": "um",
            "start": 506.759,
            "duration": 2.06
        },
        {
            "text": "the thing that makes promises good is",
            "start": 509.099,
            "duration": 3.901
        },
        {
            "text": "that they are also supported at a syntax",
            "start": 510.96,
            "duration": 4.56
        },
        {
            "text": "level with async await and that's why I",
            "start": 513.0,
            "duration": 5.219
        },
        {
            "text": "like them right if I just had the raw",
            "start": 515.52,
            "duration": 5.1
        },
        {
            "text": "dog promises I wouldn't like it at all",
            "start": 518.219,
            "duration": 4.44
        },
        {
            "text": "and so one of the I always see this this",
            "start": 520.62,
            "duration": 4.02
        },
        {
            "text": "is the same thing I always see people",
            "start": 522.659,
            "duration": 4.381
        },
        {
            "text": "you know like you know Ethan I think I",
            "start": 524.64,
            "duration": 3.84
        },
        {
            "text": "love where you're trying to go with this",
            "start": 527.04,
            "duration": 2.94
        },
        {
            "text": "kind of stuff I've seen this also with",
            "start": 528.48,
            "duration": 3.419
        },
        {
            "text": "like options or result types people try",
            "start": 529.98,
            "duration": 4.62
        },
        {
            "text": "to do in uh Java or in typescript it's",
            "start": 531.899,
            "duration": 5.281
        },
        {
            "text": "always the same thing which is",
            "start": 534.6,
            "duration": 5.16
        },
        {
            "text": "these ideas are great but if there's no",
            "start": 537.18,
            "duration": 5.339
        },
        {
            "text": "syntax support for these ideas and you",
            "start": 539.76,
            "duration": 4.92
        },
        {
            "text": "have no pattern matching on top of it",
            "start": 542.519,
            "duration": 4.26
        },
        {
            "text": "which is all you know syntax support",
            "start": 544.68,
            "duration": 4.68
        },
        {
            "text": "um these things can be huge pain in the",
            "start": 546.779,
            "duration": 4.141
        },
        {
            "text": "asses you know what I mean like these",
            "start": 549.36,
            "duration": 5.479
        },
        {
            "text": "are not great experiences",
            "start": 550.92,
            "duration": 3.919
        },
        {
            "text": "you know and so until JavaScript gets",
            "start": 555.66,
            "duration": 4.44
        },
        {
            "text": "generics built into it and all of that",
            "start": 558.06,
            "duration": 4.14
        },
        {
            "text": "like how can this work okay let them",
            "start": 560.1,
            "duration": 4.44
        },
        {
            "text": "cook you're telling me let let bro cook",
            "start": 562.2,
            "duration": 3.72
        },
        {
            "text": "the building's not gonna burn down okay",
            "start": 564.54,
            "duration": 3.419
        },
        {
            "text": "okay let me hear it back to values don't",
            "start": 565.92,
            "duration": 3.96
        },
        {
            "text": "actually do anything they are just",
            "start": 567.959,
            "duration": 4.741
        },
        {
            "text": "values that model or describe effectual",
            "start": 569.88,
            "duration": 4.8
        },
        {
            "text": "interactions and effect can be",
            "start": 572.7,
            "duration": 4.02
        },
        {
            "text": "interpreted by the effect runtime system",
            "start": 574.68,
            "duration": 4.68
        },
        {
            "text": "into effectual interactions with the",
            "start": 576.72,
            "duration": 4.02
        },
        {
            "text": "external world",
            "start": 579.36,
            "duration": 3.539
        },
        {
            "text": "if you're like me your mind is probably",
            "start": 580.74,
            "duration": 4.02
        },
        {
            "text": "racing with possibilities at this point",
            "start": 582.899,
            "duration": 3.601
        },
        {
            "text": "I am now going to give you an",
            "start": 584.76,
            "duration": 3.78
        },
        {
            "text": "intentionally very quick tour of some of",
            "start": 586.5,
            "duration": 3.36
        },
        {
            "text": "the things that the effect ecosystem",
            "start": 588.54,
            "duration": 4.02
        },
        {
            "text": "offers my mind personally is racing with",
            "start": 589.86,
            "duration": 3.84
        },
        {
            "text": "memory",
            "start": 592.56,
            "duration": 3.36
        },
        {
            "text": "and desire that there was better syntax",
            "start": 593.7,
            "duration": 5.46
        },
        {
            "text": "why I still love I I I'll let them cook",
            "start": 595.92,
            "duration": 4.38
        },
        {
            "text": "we're letting them although you're more",
            "start": 599.16,
            "duration": 2.82
        },
        {
            "text": "than welcome to pause on each slide to",
            "start": 600.3,
            "duration": 3.479
        },
        {
            "text": "try and understand what's going on don't",
            "start": 601.98,
            "duration": 3.78
        },
        {
            "text": "get too caught up in the specifics I'll",
            "start": 603.779,
            "duration": 4.321
        },
        {
            "text": "go into more depth in future videos just",
            "start": 605.76,
            "duration": 4.98
        },
        {
            "text": "try to get an idea of what's possible",
            "start": 608.1,
            "duration": 4.5
        },
        {
            "text": "now that errors are in their own",
            "start": 610.74,
            "duration": 3.779
        },
        {
            "text": "dedicated Channel and clearly separated",
            "start": 612.6,
            "duration": 4.02
        },
        {
            "text": "by type it becomes trivial to handle",
            "start": 614.519,
            "duration": 4.561
        },
        {
            "text": "errors Case by case all at once or to",
            "start": 616.62,
            "duration": 5.1
        },
        {
            "text": "let them bubble up to the",
            "start": 619.08,
            "duration": 7.819
        },
        {
            "text": "I I I'm curious if these catch",
            "start": 621.72,
            "duration": 5.179
        },
        {
            "text": "I'm curious if the catch tag",
            "start": 627.36,
            "duration": 5.82
        },
        {
            "text": "that must use some sort of like name of",
            "start": 630.779,
            "duration": 4.081
        },
        {
            "text": "the function right so that way name of",
            "start": 633.18,
            "duration": 4.44
        },
        {
            "text": "the Constructor so it's able to get the",
            "start": 634.86,
            "duration": 4.5
        },
        {
            "text": "thing that's coming out of it correctly",
            "start": 637.62,
            "duration": 3.719
        },
        {
            "text": "it does look like rxjs which is also a",
            "start": 639.36,
            "duration": 3.539
        },
        {
            "text": "leaky abstraction this is also I mean",
            "start": 641.339,
            "duration": 4.56
        },
        {
            "text": "effect is a leaky abstraction uh",
            "start": 642.899,
            "duration": 5.341
        },
        {
            "text": "but I'm curious if it uses some sort of",
            "start": 645.899,
            "duration": 3.721
        },
        {
            "text": "type completing some sort of crazy",
            "start": 648.24,
            "duration": 3.06
        },
        {
            "text": "inference some sort of whatever that's",
            "start": 649.62,
            "duration": 3.42
        },
        {
            "text": "able to infer out these strings or do",
            "start": 651.3,
            "duration": 3.599
        },
        {
            "text": "you have to manually type them in hoping",
            "start": 653.04,
            "duration": 3.479
        },
        {
            "text": "you've correctly type them in for me",
            "start": 654.899,
            "duration": 3.06
        },
        {
            "text": "that's always a big worry whenever I see",
            "start": 656.519,
            "duration": 4.141
        },
        {
            "text": "strings uh if that's the case I'd much",
            "start": 657.959,
            "duration": 4.021
        },
        {
            "text": "rather see you passing a Constructor",
            "start": 660.66,
            "duration": 2.52
        },
        {
            "text": "because if you already have the type",
            "start": 661.98,
            "duration": 2.76
        },
        {
            "text": "it'd be nice just to pass in the",
            "start": 663.18,
            "duration": 2.58
        },
        {
            "text": "Constructor you know what I mean next",
            "start": 664.74,
            "duration": 1.98
        },
        {
            "text": "effect",
            "start": 665.76,
            "duration": 3.24
        },
        {
            "text": "what's wrong with this snippet well",
            "start": 666.72,
            "duration": 4.32
        },
        {
            "text": "nothing until you want to swap your live",
            "start": 669.0,
            "duration": 4.32
        },
        {
            "text": "database client for a local test one",
            "start": 671.04,
            "duration": 4.14
        },
        {
            "text": "sure we could go full functional",
            "start": 673.32,
            "duration": 3.48
        },
        {
            "text": "programming and pass every possible",
            "start": 675.18,
            "duration": 3.54
        },
        {
            "text": "dependency as an argument but that",
            "start": 676.8,
            "duration": 3.9
        },
        {
            "text": "quickly becomes unrealistic effect",
            "start": 678.72,
            "duration": 3.9
        },
        {
            "text": "provides a better way",
            "start": 680.7,
            "duration": 5.579
        },
        {
            "text": "in effect a tag on",
            "start": 682.62,
            "duration": 5.04
        },
        {
            "text": "oh I'm just looking I'm sorry I'm just",
            "start": 686.279,
            "duration": 2.521
        },
        {
            "text": "I'm just trying I'm just trying to",
            "start": 687.66,
            "duration": 2.82
        },
        {
            "text": "understand this one thing by the way",
            "start": 688.8,
            "duration": 3.599
        },
        {
            "text": "please stop doing this",
            "start": 690.48,
            "duration": 3.84
        },
        {
            "text": "there are libraries of the protobuf",
            "start": 692.399,
            "duration": 3.301
        },
        {
            "text": "generation Library does this where they",
            "start": 694.32,
            "duration": 3.0
        },
        {
            "text": "name the type and the constant the same",
            "start": 695.7,
            "duration": 4.68
        },
        {
            "text": "value it totally F's with trying to uh",
            "start": 697.32,
            "duration": 5.579
        },
        {
            "text": "you can't reuse the type easily",
            "start": 700.38,
            "duration": 4.44
        },
        {
            "text": "sometimes and it can be just just very",
            "start": 702.899,
            "duration": 4.141
        },
        {
            "text": "frustrating sometimes anyways uh sorry",
            "start": 704.82,
            "duration": 4.92
        },
        {
            "text": "I'll keep going I'll keep going context",
            "start": 707.04,
            "duration": 4.979
        },
        {
            "text": "tag okay function get users from this DB",
            "start": 709.74,
            "duration": 4.68
        },
        {
            "text": "client runnable okay what's happening",
            "start": 712.019,
            "duration": 4.5
        },
        {
            "text": "he's a placeholder for a dependency of",
            "start": 714.42,
            "duration": 4.68
        },
        {
            "text": "some type we can use the tag just as if",
            "start": 716.519,
            "duration": 4.621
        },
        {
            "text": "it was the actual implemented object in",
            "start": 719.1,
            "duration": 4.26
        },
        {
            "text": "rfx without ever actually implementing",
            "start": 721.14,
            "duration": 4.74
        },
        {
            "text": "it doing so Causes That Type to appear",
            "start": 723.36,
            "duration": 4.02
        },
        {
            "text": "in the requirements field of the",
            "start": 725.88,
            "duration": 3.54
        },
        {
            "text": "resulting effect this tells the effect",
            "start": 727.38,
            "duration": 3.959
        },
        {
            "text": "runtime that you must provide an",
            "start": 729.42,
            "duration": 3.72
        },
        {
            "text": "implementation that matches the defined",
            "start": 731.339,
            "duration": 4.261
        },
        {
            "text": "type before the program can be run this",
            "start": 733.14,
            "duration": 4.439
        },
        {
            "text": "can be done flexible anywhere in your",
            "start": 735.6,
            "duration": 3.84
        },
        {
            "text": "program meaning it becomes simple to",
            "start": 737.579,
            "duration": 3.241
        },
        {
            "text": "swap out the implementation of",
            "start": 739.44,
            "duration": 4.26
        },
        {
            "text": "dependency when required modern app",
            "start": 740.82,
            "duration": 4.5
        },
        {
            "text": "that's cool because that'll I mean at",
            "start": 743.7,
            "duration": 3.12
        },
        {
            "text": "least it airs out it's kind of like some",
            "start": 745.32,
            "duration": 3.36
        },
        {
            "text": "sort of trait implementation",
            "start": 746.82,
            "duration": 3.959
        },
        {
            "text": "you're just you're I mean it looks like",
            "start": 748.68,
            "duration": 4.44
        },
        {
            "text": "a very convo I mean",
            "start": 750.779,
            "duration": 4.321
        },
        {
            "text": "in some sense it's a very convoluted way",
            "start": 753.12,
            "duration": 5.959
        },
        {
            "text": "to make a interface requirement",
            "start": 755.1,
            "duration": 3.979
        },
        {
            "text": "but I could I I mean I can dig I can dig",
            "start": 759.12,
            "duration": 3.779
        },
        {
            "text": "it I can dig it",
            "start": 761.279,
            "duration": 3.541
        },
        {
            "text": "anywhere in your program meaning it",
            "start": 762.899,
            "duration": 3.301
        },
        {
            "text": "becomes simple to swap out the",
            "start": 764.82,
            "duration": 3.06
        },
        {
            "text": "implementation of a dependency when",
            "start": 766.2,
            "duration": 2.759
        },
        {
            "text": "required",
            "start": 767.88,
            "duration": 3.6
        },
        {
            "text": "modern apps are complex often involving",
            "start": 768.959,
            "duration": 4.741
        },
        {
            "text": "complex dependency hierarchies to",
            "start": 771.48,
            "duration": 4.2
        },
        {
            "text": "account for this effect provides a layer",
            "start": 773.7,
            "duration": 4.079
        },
        {
            "text": "a type describing the blueprint for the",
            "start": 775.68,
            "duration": 4.26
        },
        {
            "text": "construction of a set of requirements it",
            "start": 777.779,
            "duration": 4.201
        },
        {
            "text": "takes some requirements in May produce",
            "start": 779.94,
            "duration": 3.959
        },
        {
            "text": "some error and yield some requirements",
            "start": 781.98,
            "duration": 2.82
        },
        {
            "text": "out",
            "start": 783.899,
            "duration": 3.0
        },
        {
            "text": "resources in our application may require",
            "start": 784.8,
            "duration": 4.74
        },
        {
            "text": "lifetime related Logic the scope data",
            "start": 786.899,
            "duration": 4.201
        },
        {
            "text": "type is fundamental for managing",
            "start": 789.54,
            "duration": 3.299
        },
        {
            "text": "resources safely and in a composable",
            "start": 791.1,
            "duration": 4.56
        },
        {
            "text": "manner in effect in simple terms a scope",
            "start": 792.839,
            "duration": 4.62
        },
        {
            "text": "represents the lifetime of one or more",
            "start": 795.66,
            "duration": 4.08
        },
        {
            "text": "resources when a scope is closed the",
            "start": 797.459,
            "duration": 3.901
        },
        {
            "text": "resources associated with it are",
            "start": 799.74,
            "duration": 3.779
        },
        {
            "text": "guaranteed to be released modern",
            "start": 801.36,
            "duration": 4.2
        },
        {
            "text": "applications require observability for",
            "start": 803.519,
            "duration": 4.221
        },
        {
            "text": "us",
            "start": 805.56,
            "duration": 2.18
        },
        {
            "text": "I guess I didn't see how they're",
            "start": 807.779,
            "duration": 2.761
        },
        {
            "text": "guaranteed to be released there must be",
            "start": 809.16,
            "duration": 4.38
        },
        {
            "text": "some sort of okay okay so",
            "start": 810.54,
            "duration": 4.859
        },
        {
            "text": "okay okay hold on so that means the",
            "start": 813.54,
            "duration": 7.039
        },
        {
            "text": "effect itself is going to have its own",
            "start": 815.399,
            "duration": 5.18
        },
        {
            "text": "it has its own life cycles that it calls",
            "start": 820.74,
            "duration": 4.8
        },
        {
            "text": "and so a choir does this release so it",
            "start": 823.079,
            "duration": 3.841
        },
        {
            "text": "actually will call and check for these",
            "start": 825.54,
            "duration": 2.46
        },
        {
            "text": "things",
            "start": 826.92,
            "duration": 3.479
        },
        {
            "text": "okay so you have you have multiple life",
            "start": 828.0,
            "duration": 4.079
        },
        {
            "text": "cycles then this is associated with it",
            "start": 830.399,
            "duration": 3.661
        },
        {
            "text": "are guaranteed to be released",
            "start": 832.079,
            "duration": 3.481
        },
        {
            "text": "modern applications require",
            "start": 834.06,
            "duration": 3.24
        },
        {
            "text": "observability for us to know what's",
            "start": 835.56,
            "duration": 4.2
        },
        {
            "text": "going on inside them yep effect provides",
            "start": 837.3,
            "duration": 4.2
        },
        {
            "text": "powerful logging capabilities with",
            "start": 839.76,
            "duration": 3.54
        },
        {
            "text": "different levels such as debug info",
            "start": 841.5,
            "duration": 3.899
        },
        {
            "text": "warning and error as well as the ability",
            "start": 843.3,
            "duration": 3.9
        },
        {
            "text": "to provide a custom logger that can do",
            "start": 845.399,
            "duration": 4.261
        },
        {
            "text": "more than just a simple console.log",
            "start": 847.2,
            "duration": 4.259
        },
        {
            "text": "effect provides a powerful and",
            "start": 849.66,
            "duration": 3.54
        },
        {
            "text": "composable scheduling toolkit for when",
            "start": 851.459,
            "duration": 3.361
        },
        {
            "text": "you want to run an effect more than just",
            "start": 853.2,
            "duration": 3.78
        },
        {
            "text": "once have you ever tried implementing",
            "start": 854.82,
            "duration": 4.5
        },
        {
            "text": "jittered exponential back off if you",
            "start": 856.98,
            "duration": 3.72
        },
        {
            "text": "were to try to implement the snippet",
            "start": 859.32,
            "duration": 3.6
        },
        {
            "text": "without effect how would you do it would",
            "start": 860.7,
            "duration": 4.74
        },
        {
            "text": "it be as flexible or as maintainable",
            "start": 862.92,
            "duration": 4.62
        },
        {
            "text": "this code function that takes in a",
            "start": 865.44,
            "duration": 4.56
        },
        {
            "text": "function but",
            "start": 867.54,
            "duration": 4.08
        },
        {
            "text": "I mean I see what you mean it's it's a",
            "start": 870.0,
            "duration": 2.76
        },
        {
            "text": "non-trivial problem if you haven't done",
            "start": 871.62,
            "duration": 2.82
        },
        {
            "text": "your own throttle your own debounce your",
            "start": 872.76,
            "duration": 3.18
        },
        {
            "text": "own back off you know those things can",
            "start": 874.44,
            "duration": 3.3
        },
        {
            "text": "be kind of difficult I always have a lot",
            "start": 875.94,
            "duration": 2.88
        },
        {
            "text": "of questions whenever I hear these",
            "start": 877.74,
            "duration": 2.459
        },
        {
            "text": "things like should you ever do those",
            "start": 878.82,
            "duration": 2.459
        },
        {
            "text": "things because whenever you do these",
            "start": 880.199,
            "duration": 2.88
        },
        {
            "text": "back offs whenever you do that you can",
            "start": 881.279,
            "duration": 3.12
        },
        {
            "text": "also accidentally create yourself a",
            "start": 883.079,
            "duration": 3.421
        },
        {
            "text": "Thundering Herd in your own cloud and",
            "start": 884.399,
            "duration": 4.74
        },
        {
            "text": "just destroy your own service people",
            "start": 886.5,
            "duration": 4.44
        },
        {
            "text": "like we did that at Netflix we had this",
            "start": 889.139,
            "duration": 4.26
        },
        {
            "text": "nice exponential back off then we had",
            "start": 890.94,
            "duration": 4.339
        },
        {
            "text": "all these different kind of ones",
            "start": 893.399,
            "duration": 3.901
        },
        {
            "text": "and then all of a sudden the next thing",
            "start": 895.279,
            "duration": 4.541
        },
        {
            "text": "you do your clients are all just like ah",
            "start": 897.3,
            "duration": 4.26
        },
        {
            "text": "the request failed we'd better make",
            "start": 899.82,
            "duration": 4.019
        },
        {
            "text": "another request shortly oh the request",
            "start": 901.56,
            "duration": 4.38
        },
        {
            "text": "failed again we we should make it but a",
            "start": 903.839,
            "duration": 3.961
        },
        {
            "text": "little bit longer this time right so",
            "start": 905.94,
            "duration": 3.66
        },
        {
            "text": "your service is just like",
            "start": 907.8,
            "duration": 3.0
        },
        {
            "text": "ouch ouch ouch",
            "start": 909.6,
            "duration": 3.12
        },
        {
            "text": "[Laughter]",
            "start": 910.8,
            "duration": 4.08
        },
        {
            "text": "we've definitely done that",
            "start": 912.72,
            "duration": 4.02
        },
        {
            "text": "it works while your meager startup only",
            "start": 914.88,
            "duration": 3.959
        },
        {
            "text": "has five users but what about when it",
            "start": 916.74,
            "duration": 4.44
        },
        {
            "text": "grows to hundreds or thousands that many",
            "start": 918.839,
            "duration": 4.081
        },
        {
            "text": "requests at once will crash your users",
            "start": 921.18,
            "duration": 4.019
        },
        {
            "text": "devices and remember promises are",
            "start": 922.92,
            "duration": 4.32
        },
        {
            "text": "eagerly executed so we'll need to design",
            "start": 925.199,
            "duration": 4.44
        },
        {
            "text": "a complicated async queue with batching",
            "start": 927.24,
            "duration": 4.2
        },
        {
            "text": "an interruption to enforce a level of",
            "start": 929.639,
            "duration": 5.461
        },
        {
            "text": "parallelism or we could use effect",
            "start": 931.44,
            "duration": 6.32
        },
        {
            "text": "concurrency it really is this easy",
            "start": 935.1,
            "duration": 5.16
        },
        {
            "text": "affects fiber-based runtime manages",
            "start": 937.76,
            "duration": 4.24
        },
        {
            "text": "everything for you",
            "start": 940.26,
            "duration": 3.48
        },
        {
            "text": "lightweight threads of execution called",
            "start": 942.0,
            "duration": 4.5
        },
        {
            "text": "fibers power effects runtime think of a",
            "start": 943.74,
            "duration": 4.62
        },
        {
            "text": "fiber as a worker that performs a",
            "start": 946.5,
            "duration": 4.26
        },
        {
            "text": "specific job it can be started paused",
            "start": 948.36,
            "duration": 5.46
        },
        {
            "text": "resumed and even interrupted effect also",
            "start": 950.76,
            "duration": 4.56
        },
        {
            "text": "seamlessly integrates with existing",
            "start": 953.82,
            "duration": 3.18
        },
        {
            "text": "Interruption apis such as support",
            "start": 955.32,
            "duration": 4.139
        },
        {
            "text": "controller working with fibers directly",
            "start": 957.0,
            "duration": 4.139
        },
        {
            "text": "is a pretty Advanced use case you",
            "start": 959.459,
            "duration": 2.94
        },
        {
            "text": "probably won't need for a while when",
            "start": 961.139,
            "duration": 2.521
        },
        {
            "text": "starting out",
            "start": 962.399,
            "duration": 3.24
        },
        {
            "text": "so when I hear that the thing I don't",
            "start": 963.66,
            "duration": 3.66
        },
        {
            "text": "like about that is that the process of",
            "start": 965.639,
            "duration": 3.241
        },
        {
            "text": "end Loop is already a pretty dang good",
            "start": 967.32,
            "duration": 3.42
        },
        {
            "text": "one and you can't actually stop a con",
            "start": 968.88,
            "duration": 4.319
        },
        {
            "text": "like a currently running JavaScript item",
            "start": 970.74,
            "duration": 4.68
        },
        {
            "text": "you have to wait until JavaScript goes",
            "start": 973.199,
            "duration": 3.901
        },
        {
            "text": "back to the event Loop right you have to",
            "start": 975.42,
            "duration": 3.419
        },
        {
            "text": "wait for the stack to be cleared and so",
            "start": 977.1,
            "duration": 4.32
        },
        {
            "text": "you can't pause it or interrupt it you",
            "start": 978.839,
            "duration": 3.781
        },
        {
            "text": "can only stop it at a certain point",
            "start": 981.42,
            "duration": 2.88
        },
        {
            "text": "which means that you have an event Loop",
            "start": 982.62,
            "duration": 3.719
        },
        {
            "text": "which orders things as they come and now",
            "start": 984.3,
            "duration": 3.12
        },
        {
            "text": "you're going to actually have a",
            "start": 986.339,
            "duration": 3.721
        },
        {
            "text": "re-implemented event Loop",
            "start": 987.42,
            "duration": 4.8
        },
        {
            "text": "and now you have to have all these tasks",
            "start": 990.06,
            "duration": 3.719
        },
        {
            "text": "that are always kind of calling back and",
            "start": 992.22,
            "duration": 2.58
        },
        {
            "text": "you have to have something that's doing",
            "start": 993.779,
            "duration": 3.541
        },
        {
            "text": "some sort of Mega task listening to and",
            "start": 994.8,
            "duration": 4.56
        },
        {
            "text": "then comes in and tries to pluck these",
            "start": 997.32,
            "duration": 4.019
        },
        {
            "text": "things off one at a time",
            "start": 999.36,
            "duration": 5.479
        },
        {
            "text": "um and also I mean JavaScript is single",
            "start": 1001.339,
            "duration": 5.761
        },
        {
            "text": "process execution I don't like to use",
            "start": 1004.839,
            "duration": 4.36
        },
        {
            "text": "the term Single threaded I I've been",
            "start": 1007.1,
            "duration": 4.5
        },
        {
            "text": "recently calling it gnu plus Linux I",
            "start": 1009.199,
            "duration": 3.361
        },
        {
            "text": "don't like to use the term Single",
            "start": 1011.6,
            "duration": 3.239
        },
        {
            "text": "threaded uh just because V8 is not",
            "start": 1012.56,
            "duration": 4.92
        },
        {
            "text": "single threaded but your JavaScript only",
            "start": 1014.839,
            "duration": 4.261
        },
        {
            "text": "executes one line at a time there's no",
            "start": 1017.48,
            "duration": 4.02
        },
        {
            "text": "parallelism and so",
            "start": 1019.1,
            "duration": 3.9
        },
        {
            "text": "you know this idea of being able to",
            "start": 1021.5,
            "duration": 3.0
        },
        {
            "text": "break stuff and all that you do have to",
            "start": 1023.0,
            "duration": 2.699
        },
        {
            "text": "understand what that means is that if",
            "start": 1024.5,
            "duration": 3.059
        },
        {
            "text": "you I I can just assume here that if you",
            "start": 1025.699,
            "duration": 4.021
        },
        {
            "text": "have a pipe of five events and you",
            "start": 1027.559,
            "duration": 4.201
        },
        {
            "text": "Febreze this thing each one of those",
            "start": 1029.72,
            "duration": 4.739
        },
        {
            "text": "events or effects each one of those you",
            "start": 1031.76,
            "duration": 4.319
        },
        {
            "text": "could potentially pause between two of",
            "start": 1034.459,
            "duration": 3.541
        },
        {
            "text": "them and it will stop executing at one",
            "start": 1036.079,
            "duration": 4.38
        },
        {
            "text": "of them and then it will wait uh what I",
            "start": 1038.0,
            "duration": 4.86
        },
        {
            "text": "I mean",
            "start": 1040.459,
            "duration": 4.74
        },
        {
            "text": "things that I see right now",
            "start": 1042.86,
            "duration": 5.0
        },
        {
            "text": "is that",
            "start": 1045.199,
            "duration": 2.661
        },
        {
            "text": "I'm trying to understand a system that",
            "start": 1048.319,
            "duration": 4.141
        },
        {
            "text": "you would need this in because what",
            "start": 1050.54,
            "duration": 2.879
        },
        {
            "text": "you're going to get is that you're going",
            "start": 1052.46,
            "duration": 2.459
        },
        {
            "text": "to get significantly worse performance",
            "start": 1053.419,
            "duration": 3.12
        },
        {
            "text": "you're going to get significantly higher",
            "start": 1054.919,
            "duration": 3.661
        },
        {
            "text": "garbage collection uh but you are going",
            "start": 1056.539,
            "duration": 3.181
        },
        {
            "text": "to have some conveniences some things",
            "start": 1058.58,
            "duration": 2.459
        },
        {
            "text": "that I when I when I see some of these",
            "start": 1059.72,
            "duration": 3.06
        },
        {
            "text": "things what I realize is that there's a",
            "start": 1061.039,
            "duration": 3.181
        },
        {
            "text": "lot of Concepts being mixed here there's",
            "start": 1062.78,
            "duration": 2.94
        },
        {
            "text": "like the result type that we all want a",
            "start": 1064.22,
            "duration": 3.12
        },
        {
            "text": "good result type right we all want to be",
            "start": 1065.72,
            "duration": 3.9
        },
        {
            "text": "able to avoid having airs thrown right I",
            "start": 1067.34,
            "duration": 4.199
        },
        {
            "text": "think we can all agree on this very very",
            "start": 1069.62,
            "duration": 3.6
        },
        {
            "text": "much so like that",
            "start": 1071.539,
            "duration": 2.821
        },
        {
            "text": "um",
            "start": 1073.22,
            "duration": 2.94
        },
        {
            "text": "but I'm not sure if I want all the other",
            "start": 1074.36,
            "duration": 3.6
        },
        {
            "text": "things matched up with it right right",
            "start": 1076.16,
            "duration": 3.96
        },
        {
            "text": "like I don't like results because I",
            "start": 1077.96,
            "duration": 5.219
        },
        {
            "text": "can't have pattern matching but I also",
            "start": 1080.12,
            "duration": 4.86
        },
        {
            "text": "not sure if I want to mix it with the",
            "start": 1083.179,
            "duration": 3.36
        },
        {
            "text": "concepts of async it almost feels like",
            "start": 1084.98,
            "duration": 3.72
        },
        {
            "text": "they need to be separate Concepts right",
            "start": 1086.539,
            "duration": 4.26
        },
        {
            "text": "and by having them all mixed into one I",
            "start": 1088.7,
            "duration": 3.78
        },
        {
            "text": "feel like this is",
            "start": 1090.799,
            "duration": 3.721
        },
        {
            "text": "I'm not sure how I feel about I get the",
            "start": 1092.48,
            "duration": 4.68
        },
        {
            "text": "idea this this is this reminds me of",
            "start": 1094.52,
            "duration": 6.12
        },
        {
            "text": "rxjs back in the day when I got rxjs I",
            "start": 1097.16,
            "duration": 4.98
        },
        {
            "text": "was super excited about it everything",
            "start": 1100.64,
            "duration": 3.84
        },
        {
            "text": "became rxjs I got a golden Hammer and I",
            "start": 1102.14,
            "duration": 5.279
        },
        {
            "text": "solved all my problems with rxjs oh you",
            "start": 1104.48,
            "duration": 4.86
        },
        {
            "text": "want to do drag and drop look at this",
            "start": 1107.419,
            "duration": 4.801
        },
        {
            "text": "mouse down starts the observable oh",
            "start": 1109.34,
            "duration": 4.98
        },
        {
            "text": "Mouse drag every 100 SEC 100",
            "start": 1112.22,
            "duration": 4.56
        },
        {
            "text": "milliseconds is on I fire an event Mouse",
            "start": 1114.32,
            "duration": 4.44
        },
        {
            "text": "up stop it disconnect from the",
            "start": 1116.78,
            "duration": 3.899
        },
        {
            "text": "observable Mouse down reek you know like",
            "start": 1118.76,
            "duration": 3.419
        },
        {
            "text": "and just do this over and over and over",
            "start": 1120.679,
            "duration": 3.24
        },
        {
            "text": "and over again and I could see like",
            "start": 1122.179,
            "duration": 3.661
        },
        {
            "text": "everything became",
            "start": 1123.919,
            "duration": 4.681
        },
        {
            "text": "a nail because of my love for rxjs at",
            "start": 1125.84,
            "duration": 4.98
        },
        {
            "text": "one point and then I realized kind of",
            "start": 1128.6,
            "duration": 3.42
        },
        {
            "text": "what it does and all of a sudden I",
            "start": 1130.82,
            "duration": 2.64
        },
        {
            "text": "started hating it and then I realized",
            "start": 1132.02,
            "duration": 2.76
        },
        {
            "text": "like how much it spreads and then how",
            "start": 1133.46,
            "duration": 2.7
        },
        {
            "text": "much you know it can become very",
            "start": 1134.78,
            "duration": 3.12
        },
        {
            "text": "difficult to debug these kind of",
            "start": 1136.16,
            "duration": 4.139
        },
        {
            "text": "programs because the reality is is that",
            "start": 1137.9,
            "duration": 5.76
        },
        {
            "text": "most the code that execute isn't your",
            "start": 1140.299,
            "duration": 4.321
        },
        {
            "text": "code",
            "start": 1143.66,
            "duration": 2.759
        },
        {
            "text": "and so when things aren't working the",
            "start": 1144.62,
            "duration": 3.84
        },
        {
            "text": "way you think they are debugging can",
            "start": 1146.419,
            "duration": 4.801
        },
        {
            "text": "become excessively difficult",
            "start": 1148.46,
            "duration": 4.92
        },
        {
            "text": "you know what I mean",
            "start": 1151.22,
            "duration": 3.839
        },
        {
            "text": "that's that's where I see some of the",
            "start": 1153.38,
            "duration": 2.82
        },
        {
            "text": "problems here application code and",
            "start": 1155.059,
            "duration": 2.581
        },
        {
            "text": "typescript often solves the same",
            "start": 1156.2,
            "duration": 4.64
        },
        {
            "text": "problems over and over again",
            "start": 1157.64,
            "duration": 3.2
        },
        {
            "text": "someone just said yeah observables was",
            "start": 1161.96,
            "duration": 3.42
        },
        {
            "text": "cool until you have to debug it it's",
            "start": 1164.059,
            "duration": 3.0
        },
        {
            "text": "exactly like literally what I'm saying",
            "start": 1165.38,
            "duration": 4.56
        },
        {
            "text": "exactly precisely correct which is they",
            "start": 1167.059,
            "duration": 4.98
        },
        {
            "text": "feel amaz like these type of systems",
            "start": 1169.94,
            "duration": 4.2
        },
        {
            "text": "they seem super awesome but it's always",
            "start": 1172.039,
            "duration": 4.441
        },
        {
            "text": "the debug story that I really really",
            "start": 1174.14,
            "duration": 4.68
        },
        {
            "text": "really worry about the thing is that",
            "start": 1176.48,
            "duration": 5.28
        },
        {
            "text": "effect doesn't spread uh that much or to",
            "start": 1178.82,
            "duration": 4.38
        },
        {
            "text": "integrate well with vanilla code I get",
            "start": 1181.76,
            "duration": 2.34
        },
        {
            "text": "that",
            "start": 1183.2,
            "duration": 3.06
        },
        {
            "text": "why am I so naked today I'm I'm doing",
            "start": 1184.1,
            "duration": 4.56
        },
        {
            "text": "some I'm doing some types provides a",
            "start": 1186.26,
            "duration": 4.14
        },
        {
            "text": "rich ecosystem of libraries that provide",
            "start": 1188.66,
            "duration": 3.42
        },
        {
            "text": "standardized solutions to many of these",
            "start": 1190.4,
            "duration": 3.72
        },
        {
            "text": "problems you can use these libraries to",
            "start": 1192.08,
            "duration": 3.54
        },
        {
            "text": "build your application or you can use",
            "start": 1194.12,
            "duration": 3.48
        },
        {
            "text": "them to build your own libraries however",
            "start": 1195.62,
            "duration": 3.78
        },
        {
            "text": "effect understands it's not always",
            "start": 1197.6,
            "duration": 3.3
        },
        {
            "text": "realistic to rewrite your entire",
            "start": 1199.4,
            "duration": 2.7
        },
        {
            "text": "application",
            "start": 1200.9,
            "duration": 3.06
        },
        {
            "text": "by now you might have thought back to",
            "start": 1202.1,
            "duration": 3.66
        },
        {
            "text": "other projects aimed at doing typescript",
            "start": 1203.96,
            "duration": 3.719
        },
        {
            "text": "better or even other programming",
            "start": 1205.76,
            "duration": 3.659
        },
        {
            "text": "languages the majority of which",
            "start": 1207.679,
            "duration": 4.561
        },
        {
            "text": "ultimately fall to the same fate a lack",
            "start": 1209.419,
            "duration": 4.741
        },
        {
            "text": "of easy interrupt with a vast and",
            "start": 1212.24,
            "duration": 3.54
        },
        {
            "text": "unavoidable existing JavaScript",
            "start": 1214.16,
            "duration": 4.139
        },
        {
            "text": "ecosystem my assumption is that there's",
            "start": 1215.78,
            "duration": 4.32
        },
        {
            "text": "probably some sort of like",
            "start": 1218.299,
            "duration": 4.981
        },
        {
            "text": "simple exiting item that just converts",
            "start": 1220.1,
            "duration": 5.4
        },
        {
            "text": "it into a promise and go that's my guess",
            "start": 1223.28,
            "duration": 3.84
        },
        {
            "text": "not effect",
            "start": 1225.5,
            "duration": 3.059
        },
        {
            "text": "well it would be awesome to write",
            "start": 1227.12,
            "duration": 3.299
        },
        {
            "text": "applications that are affect all the way",
            "start": 1228.559,
            "duration": 4.081
        },
        {
            "text": "down you can just start with the pieces",
            "start": 1230.419,
            "duration": 3.721
        },
        {
            "text": "of the ecosystem that make the most",
            "start": 1232.64,
            "duration": 3.779
        },
        {
            "text": "sense for the problems you are solving",
            "start": 1234.14,
            "duration": 4.32
        },
        {
            "text": "do you just want to rewrite a single",
            "start": 1236.419,
            "duration": 3.421
        },
        {
            "text": "endpoint that does some complicated",
            "start": 1238.46,
            "duration": 3.54
        },
        {
            "text": "parallel asynchronous work or has some",
            "start": 1239.84,
            "duration": 4.26
        },
        {
            "text": "particularly nasty error handling you",
            "start": 1242.0,
            "duration": 4.2
        },
        {
            "text": "can do it with effect today",
            "start": 1244.1,
            "duration": 3.78
        },
        {
            "text": "do you just want to take advantage of",
            "start": 1246.2,
            "duration": 3.3
        },
        {
            "text": "one of effect's useful data structures",
            "start": 1247.88,
            "duration": 3.78
        },
        {
            "text": "you can do it with effect today well",
            "start": 1249.5,
            "duration": 3.48
        },
        {
            "text": "that's good I mean I like things however",
            "start": 1251.66,
            "duration": 3.0
        },
        {
            "text": "as more and more of your code base is",
            "start": 1252.98,
            "duration": 3.3
        },
        {
            "text": "using effect you will probably find",
            "start": 1254.66,
            "duration": 3.54
        },
        {
            "text": "yourself wanting to utilize even more of",
            "start": 1256.28,
            "duration": 2.94
        },
        {
            "text": "the ecosystem",
            "start": 1258.2,
            "duration": 2.52
        },
        {
            "text": "so that's one of the dangers of course",
            "start": 1259.22,
            "duration": 3.9
        },
        {
            "text": "so the underlying thing that he didn't",
            "start": 1260.72,
            "duration": 5.579
        },
        {
            "text": "say is that it it also can easily spread",
            "start": 1263.12,
            "duration": 4.98
        },
        {
            "text": "right maybe it spreads and maybe start",
            "start": 1266.299,
            "duration": 4.26
        },
        {
            "text": "solving things that you don't have to",
            "start": 1268.1,
            "duration": 3.3
        },
        {
            "text": "solve",
            "start": 1270.559,
            "duration": 3.841
        },
        {
            "text": "it just becomes convenient to solve once",
            "start": 1271.4,
            "duration": 4.38
        },
        {
            "text": "you already have the abstraction and",
            "start": 1274.4,
            "duration": 2.639
        },
        {
            "text": "that's why I get I get a little bit",
            "start": 1275.78,
            "duration": 3.6
        },
        {
            "text": "worried and lastly if you think you",
            "start": 1277.039,
            "duration": 3.861
        },
        {
            "text": "could get out of using effect because",
            "start": 1279.38,
            "duration": 3.6
        },
        {
            "text": "functional programming is too different",
            "start": 1280.9,
            "duration": 5.139
        },
        {
            "text": "and too difficult think again effect has",
            "start": 1282.98,
            "duration": 5.04
        },
        {
            "text": "its own form of async or white style",
            "start": 1286.039,
            "duration": 4.38
        },
        {
            "text": "syntax powered by generators with",
            "start": 1288.02,
            "duration": 4.38
        },
        {
            "text": "generators you can write effectful code",
            "start": 1290.419,
            "duration": 3.661
        },
        {
            "text": "in the imperative way that you already",
            "start": 1292.4,
            "duration": 2.639
        },
        {
            "text": "know",
            "start": 1294.08,
            "duration": 3.42
        },
        {
            "text": "effects Concepts may be new to you and",
            "start": 1295.039,
            "duration": 3.841
        },
        {
            "text": "may not completely make sense at first",
            "start": 1297.5,
            "duration": 3.6
        },
        {
            "text": "this is totally normal",
            "start": 1298.88,
            "duration": 4.62
        },
        {
            "text": "learning effect is a lot of fun many",
            "start": 1301.1,
            "duration": 4.26
        },
        {
            "text": "developers in the effect ecosystem are",
            "start": 1303.5,
            "duration": 3.6
        },
        {
            "text": "using effect today to solve real",
            "start": 1305.36,
            "duration": 3.66
        },
        {
            "text": "problems in their day-to-day work as",
            "start": 1307.1,
            "duration": 3.42
        },
        {
            "text": "well as experimenting with Cutting Edge",
            "start": 1309.02,
            "duration": 3.72
        },
        {
            "text": "ideas for pushing typescript to be the",
            "start": 1310.52,
            "duration": 4.26
        },
        {
            "text": "most useful language it can be",
            "start": 1312.74,
            "duration": 3.78
        },
        {
            "text": "I hope you feel inspired to give the",
            "start": 1314.78,
            "duration": 3.66
        },
        {
            "text": "effect documentation a read and to",
            "start": 1316.52,
            "duration": 3.96
        },
        {
            "text": "explore the effect repositories and API",
            "start": 1318.44,
            "duration": 4.38
        },
        {
            "text": "reference pages I gladly at least you",
            "start": 1320.48,
            "duration": 4.92
        },
        {
            "text": "said go use go look go read the docs",
            "start": 1322.82,
            "duration": 5.339
        },
        {
            "text": "first I like it I like it hey I like it",
            "start": 1325.4,
            "duration": 4.38
        },
        {
            "text": "start with the start with the docs",
            "start": 1328.159,
            "duration": 3.301
        },
        {
            "text": "consider joining the effect Discord",
            "start": 1329.78,
            "duration": 3.72
        },
        {
            "text": "server a great Community for Learning",
            "start": 1331.46,
            "duration": 3.599
        },
        {
            "text": "and discussing effect",
            "start": 1333.5,
            "duration": 3.48
        },
        {
            "text": "links to all of that as well as the",
            "start": 1335.059,
            "duration": 3.48
        },
        {
            "text": "transcript and markdown source code to",
            "start": 1336.98,
            "duration": 2.88
        },
        {
            "text": "this video are available in the",
            "start": 1338.539,
            "duration": 3.061
        },
        {
            "text": "description and Corrections will be in",
            "start": 1339.86,
            "duration": 2.88
        },
        {
            "text": "the pin comment",
            "start": 1341.6,
            "duration": 3.24
        },
        {
            "text": "finally a huge thank you and shout out",
            "start": 1342.74,
            "duration": 4.14
        },
        {
            "text": "to no boilerplate to whom this video",
            "start": 1344.84,
            "duration": 4.14
        },
        {
            "text": "takes very strong inspiration from nice",
            "start": 1346.88,
            "duration": 4.74
        },
        {
            "text": "his videos are incredible and inspired",
            "start": 1348.98,
            "duration": 5.1
        },
        {
            "text": "my passion I most certainly saw the no",
            "start": 1351.62,
            "duration": 4.5
        },
        {
            "text": "boilerplate",
            "start": 1354.08,
            "duration": 3.3
        },
        {
            "text": "um",
            "start": 1356.12,
            "duration": 3.0
        },
        {
            "text": "feel from this video you can see it",
            "start": 1357.38,
            "duration": 4.26
        },
        {
            "text": "right away in the sense that this was",
            "start": 1359.12,
            "duration": 3.6
        },
        {
            "text": "obviously pretty straight to the point",
            "start": 1361.64,
            "duration": 3.539
        },
        {
            "text": "there was not a lot of fluff in this",
            "start": 1362.72,
            "duration": 3.959
        },
        {
            "text": "video very well done really like this",
            "start": 1365.179,
            "duration": 3.181
        },
        {
            "text": "video great YouTube video overall very",
            "start": 1366.679,
            "duration": 3.48
        },
        {
            "text": "well done rust just like I hope this",
            "start": 1368.36,
            "duration": 3.36
        },
        {
            "text": "video will inspire your passion for",
            "start": 1370.159,
            "duration": 3.841
        },
        {
            "text": "effect please check out his channel the",
            "start": 1371.72,
            "duration": 4.079
        },
        {
            "text": "link is also in the description",
            "start": 1374.0,
            "duration": 3.72
        },
        {
            "text": "thank you so much for watching and I'll",
            "start": 1375.799,
            "duration": 3.721
        },
        {
            "text": "see you next time and I'll see you next",
            "start": 1377.72,
            "duration": 3.9
        },
        {
            "text": "time come on that's a trust move we all",
            "start": 1379.52,
            "duration": 3.3
        },
        {
            "text": "know that",
            "start": 1381.62,
            "duration": 4.62
        },
        {
            "text": "um content layer mix working with",
            "start": 1382.82,
            "duration": 5.4
        },
        {
            "text": "um very well content later makes working",
            "start": 1386.24,
            "duration": 4.02
        },
        {
            "text": "with okay I don't know what just",
            "start": 1388.22,
            "duration": 4.8
        },
        {
            "text": "happened there it got me twice uh",
            "start": 1390.26,
            "duration": 4.919
        },
        {
            "text": "I really did like that I I really liked",
            "start": 1393.02,
            "duration": 3.6
        },
        {
            "text": "the style of YouTube video I think that",
            "start": 1395.179,
            "duration": 2.88
        },
        {
            "text": "he did a great job I think that",
            "start": 1396.62,
            "duration": 2.58
        },
        {
            "text": "everything was good why am I not wearing",
            "start": 1398.059,
            "duration": 2.581
        },
        {
            "text": "I already told you why I'm not wearing",
            "start": 1399.2,
            "duration": 2.76
        },
        {
            "text": "something the thing I don't like about",
            "start": 1400.64,
            "duration": 3.18
        },
        {
            "text": "that again is just I foresee leaky",
            "start": 1401.96,
            "duration": 3.54
        },
        {
            "text": "interfaces I foresee High memory I see",
            "start": 1403.82,
            "duration": 3.359
        },
        {
            "text": "hard debug ability I know there's",
            "start": 1405.5,
            "duration": 3.299
        },
        {
            "text": "observability built in with this whole",
            "start": 1407.179,
            "duration": 3.12
        },
        {
            "text": "logger situation you can provide your",
            "start": 1408.799,
            "duration": 3.961
        },
        {
            "text": "own custom logger that all I I love that",
            "start": 1410.299,
            "duration": 7.461
        },
        {
            "text": "I love that part but I don't love",
            "start": 1412.76,
            "duration": 5.0
        },
        {
            "text": "that Tech I don't think it's good and",
            "start": 1418.039,
            "duration": 4.5
        },
        {
            "text": "I'm gonna I know I I don't often say",
            "start": 1420.62,
            "duration": 5.72
        },
        {
            "text": "things in such absolute terms",
            "start": 1422.539,
            "duration": 3.801
        },
        {
            "text": "I really try never to say this it's",
            "start": 1426.38,
            "duration": 5.34
        },
        {
            "text": "really just rxjs that gets my my ire I",
            "start": 1428.179,
            "duration": 6.061
        },
        {
            "text": "will not use rxjs I will not use effect",
            "start": 1431.72,
            "duration": 6.3
        },
        {
            "text": "I am sorry uh",
            "start": 1434.24,
            "duration": 6.059
        },
        {
            "text": "it it I love the concepts in there I",
            "start": 1438.02,
            "duration": 3.659
        },
        {
            "text": "think they're all really really great I",
            "start": 1440.299,
            "duration": 3.24
        },
        {
            "text": "just don't think it's great for",
            "start": 1441.679,
            "duration": 5.101
        },
        {
            "text": "JavaScript personal opinion okay I will",
            "start": 1443.539,
            "duration": 6.541
        },
        {
            "text": "not use it I don't use effect in react I",
            "start": 1446.78,
            "duration": 4.92
        },
        {
            "text": "don't use effect in this I don't use",
            "start": 1450.08,
            "duration": 4.079
        },
        {
            "text": "react by the way by the way um anyways",
            "start": 1451.7,
            "duration": 5.099
        },
        {
            "text": "there you go rxjs is pretty confusing uh",
            "start": 1454.159,
            "duration": 4.38
        },
        {
            "text": "it's not confused I mean once you get it",
            "start": 1456.799,
            "duration": 4.201
        },
        {
            "text": "it's not confusing it's",
            "start": 1458.539,
            "duration": 4.26
        },
        {
            "text": "it's what it does to your code it's the",
            "start": 1461.0,
            "duration": 2.82
        },
        {
            "text": "same thing that happens with the fact",
            "start": 1462.799,
            "duration": 3.0
        },
        {
            "text": "it's what it does to your code that can",
            "start": 1463.82,
            "duration": 4.08
        },
        {
            "text": "become really difficult",
            "start": 1465.799,
            "duration": 6.481
        },
        {
            "text": "appreciate your comments the name is",
            "start": 1467.9,
            "duration": 6.06
        },
        {
            "text": "Ethan I really liked your YouTube video",
            "start": 1472.28,
            "duration": 2.879
        },
        {
            "text": "I'm sorry that I'm shooting on effect",
            "start": 1473.96,
            "duration": 2.579
        },
        {
            "text": "but hey I really liked your YouTube",
            "start": 1475.159,
            "duration": 2.88
        },
        {
            "text": "video you should go and subscribe to him",
            "start": 1476.539,
            "duration": 2.88
        },
        {
            "text": "because it was actually a very well done",
            "start": 1478.039,
            "duration": 2.821
        },
        {
            "text": "video and I'm confident he's going to",
            "start": 1479.419,
            "duration": 4.021
        },
        {
            "text": "continue to make some really good videos",
            "start": 1480.86,
            "duration": 5.48
        },
        {
            "text": "again",
            "start": 1483.44,
            "duration": 2.9
        }
    ],
    "stats": {
        "viewCount": "95236",
        "likeCount": "2526",
        "favoriteCount": "0",
        "commentCount": "459"
    }
}