{
    "id": "jISSlNmrvW8",
    "title": "DO NOT USE HTML Self Closing Tags | Prime Reacts",
    "publishedAt": "2024-03-05T17:00:37Z",
    "captions": [
        {
            "text": "I personally am having a hard time",
            "start": 0.199,
            "duration": 3.44
        },
        {
            "text": "trying to figure out why you wouldn't",
            "start": 1.8,
            "duration": 3.64
        },
        {
            "text": "want self-closing tags okay they feel",
            "start": 3.639,
            "duration": 3.481
        },
        {
            "text": "convenient okay so let's talk about this",
            "start": 5.44,
            "duration": 3.76
        },
        {
            "text": "all right you see the syntax on my blog",
            "start": 7.12,
            "duration": 3.439
        },
        {
            "text": "it's what prettier does and I really",
            "start": 9.2,
            "duration": 2.96
        },
        {
            "text": "like prettier however I don't think this",
            "start": 10.559,
            "duration": 4.32
        },
        {
            "text": "is a good thing okay we're about to be",
            "start": 12.16,
            "duration": 5.279
        },
        {
            "text": "hit with facts and logic everybody get",
            "start": 14.879,
            "duration": 5.601
        },
        {
            "text": "ready facts logic here comes yes I'm a",
            "start": 17.439,
            "duration": 7.0
        },
        {
            "text": "virgin yes I have sex yes we exist",
            "start": 20.48,
            "duration": 5.32
        },
        {
            "text": "that's going in the YouTube video flip",
            "start": 24.439,
            "duration": 2.721
        },
        {
            "text": "zoom",
            "start": 25.8,
            "duration": 6.16
        },
        {
            "text": "in take it out facts enter XT HTML back",
            "start": 27.16,
            "duration": 6.88
        },
        {
            "text": "in the late '90s and early 2000s the web",
            "start": 31.96,
            "duration": 4.64
        },
        {
            "text": "3C had a real thing for",
            "start": 34.04,
            "duration": 4.72
        },
        {
            "text": "XML and the thought that it should",
            "start": 36.6,
            "duration": 5.56
        },
        {
            "text": "replace HTML syntax there was a is there",
            "start": 38.76,
            "duration": 6.319
        },
        {
            "text": "I thought HTML was a subset of XML is",
            "start": 42.16,
            "duration": 5.44
        },
        {
            "text": "that is that not it xbrl do not mention",
            "start": 45.079,
            "duration": 6.0
        },
        {
            "text": "xbrl here please it's a subet of sgml",
            "start": 47.6,
            "duration": 4.599
        },
        {
            "text": "you're right you're right you're right I",
            "start": 51.079,
            "duration": 3.32
        },
        {
            "text": "knew that shut up okay there were good",
            "start": 52.199,
            "duration": 4.2
        },
        {
            "text": "reasons for this there let's see at this",
            "start": 54.399,
            "duration": 5.561
        },
        {
            "text": "time there was no HTML parsing spec so",
            "start": 56.399,
            "duration": 5.201
        },
        {
            "text": "when it came to anything non-trivial you",
            "start": 59.96,
            "duration": 3.0
        },
        {
            "text": "would often end up with four browser",
            "start": 61.6,
            "duration": 3.12
        },
        {
            "text": "engines interpreting the same HTML",
            "start": 62.96,
            "duration": 3.28
        },
        {
            "text": "document four different ways on the",
            "start": 64.72,
            "duration": 3.28
        },
        {
            "text": "other hand XML has a fully defined",
            "start": 66.24,
            "duration": 4.0
        },
        {
            "text": "parser but it would have been a huge",
            "start": 68.0,
            "duration": 5.24
        },
        {
            "text": "change to do this all at once so in 2000",
            "start": 70.24,
            "duration": 5.96
        },
        {
            "text": "xhtml 1.0 became a recommendation a",
            "start": 73.24,
            "duration": 5.36
        },
        {
            "text": "proposed writing HTML in a way that was",
            "start": 76.2,
            "duration": 4.559
        },
        {
            "text": "compatible with both existing HTML",
            "start": 78.6,
            "duration": 6.0
        },
        {
            "text": "parsers and XML parsers that meant you'd",
            "start": 80.759,
            "duration": 5.68
        },
        {
            "text": "write",
            "start": 84.6,
            "duration": 5.36
        },
        {
            "text": "this okay uh because we let's see uh",
            "start": 86.439,
            "duration": 5.0
        },
        {
            "text": "because we've got to scare away",
            "start": 89.96,
            "duration": 3.32
        },
        {
            "text": "newcomers right I don't get that",
            "start": 91.439,
            "duration": 3.401
        },
        {
            "text": "argument I mean this is",
            "start": 93.28,
            "duration": 4.119
        },
        {
            "text": "just real talk this is just you put",
            "start": 94.84,
            "duration": 4.68
        },
        {
            "text": "at the top of your XML you write this",
            "start": 97.399,
            "duration": 4.441
        },
        {
            "text": "like once per project and then you never",
            "start": 99.52,
            "duration": 5.08
        },
        {
            "text": "look at it again right I didn't I didn't",
            "start": 101.84,
            "duration": 4.04
        },
        {
            "text": "know what was going on I just knew that",
            "start": 104.6,
            "duration": 2.6
        },
        {
            "text": "you got to put all that crap up there",
            "start": 105.88,
            "duration": 2.559
        },
        {
            "text": "you got to do a little dock type and",
            "start": 107.2,
            "duration": 2.36
        },
        {
            "text": "like that's that like that's what you",
            "start": 108.439,
            "duration": 2.481
        },
        {
            "text": "got to do you got to dock type it and",
            "start": 109.56,
            "duration": 3.12
        },
        {
            "text": "then HML 5 came around and then you just",
            "start": 110.92,
            "duration": 3.44
        },
        {
            "text": "like bang dock type or whatever it was",
            "start": 112.68,
            "duration": 3.32
        },
        {
            "text": "and that's like that's what you did like",
            "start": 114.36,
            "duration": 3.32
        },
        {
            "text": "I I don't really understand that one uh",
            "start": 116.0,
            "duration": 2.64
        },
        {
            "text": "but because we got the scare away",
            "start": 117.68,
            "duration": 3.2
        },
        {
            "text": "newcomers right uh instead of option",
            "start": 118.64,
            "duration": 4.92
        },
        {
            "text": "value selected option we did you'd write",
            "start": 120.88,
            "duration": 4.559
        },
        {
            "text": "option value Fu selected equal selected",
            "start": 123.56,
            "duration": 5.319
        },
        {
            "text": "well that's because it's funny",
            "start": 125.439,
            "duration": 6.361
        },
        {
            "text": "okay can we be real here that selected",
            "start": 128.879,
            "duration": 5.401
        },
        {
            "text": "equals selected is really funny can can",
            "start": 131.8,
            "duration": 5.159
        },
        {
            "text": "we agree that it just warms the cockles",
            "start": 134.28,
            "duration": 6.44
        },
        {
            "text": "of my heart selected equals",
            "start": 136.959,
            "duration": 3.761
        },
        {
            "text": "selected beautiful all right uh because",
            "start": 141.44,
            "duration": 6.519
        },
        {
            "text": "in XML attributes require values and",
            "start": 144.959,
            "duration": 4.961
        },
        {
            "text": "they must be quoted with double quotes",
            "start": 147.959,
            "duration": 6.0
        },
        {
            "text": "this is true this is true uh and you can",
            "start": 149.92,
            "duration": 6.08
        },
        {
            "text": "do this I think this right here by the",
            "start": 153.959,
            "duration": 3.881
        },
        {
            "text": "way like this I totally get this is a",
            "start": 156.0,
            "duration": 4.2
        },
        {
            "text": "Boolean property on on an X or on an",
            "start": 157.84,
            "duration": 4.6
        },
        {
            "text": "HTML tag but this right here I I",
            "start": 160.2,
            "duration": 5.36
        },
        {
            "text": "honestly think if this is generated code",
            "start": 162.44,
            "duration": 5.0
        },
        {
            "text": "it's fine but if you handwrite a",
            "start": 165.56,
            "duration": 3.8
        },
        {
            "text": "property with no with no double quotes I",
            "start": 167.44,
            "duration": 3.799
        },
        {
            "text": "think you're trying to be a bad person I",
            "start": 169.36,
            "duration": 3.48
        },
        {
            "text": "just think you're trying to be so clever",
            "start": 171.239,
            "duration": 3.161
        },
        {
            "text": "real talk I think you're just trying to",
            "start": 172.84,
            "duration": 4.52
        },
        {
            "text": "be too clever like that's just so effing",
            "start": 174.4,
            "duration": 5.28
        },
        {
            "text": "annoying don't do that because actually",
            "start": 177.36,
            "duration": 5.04
        },
        {
            "text": "yeah yeah and also Source equals Source",
            "start": 179.68,
            "duration": 4.68
        },
        {
            "text": "instead of this you'd write this well",
            "start": 182.4,
            "duration": 3.919
        },
        {
            "text": "would you wait whoa whoa whoa whoa whoa",
            "start": 184.36,
            "duration": 3.799
        },
        {
            "text": "this is only an artifact of the engine",
            "start": 186.319,
            "duration": 3.92
        },
        {
            "text": "parsing you're technically supposed to",
            "start": 188.159,
            "duration": 5.601
        },
        {
            "text": "put a closing image tag because HTML is",
            "start": 190.239,
            "duration": 5.161
        },
        {
            "text": "hyper resilient uh there's a computer",
            "start": 193.76,
            "duration": 4.08
        },
        {
            "text": "file a computer file YouTube video where",
            "start": 195.4,
            "duration": 4.0
        },
        {
            "text": "it talks about this it does the same",
            "start": 197.84,
            "duration": 3.319
        },
        {
            "text": "thing with Pags it's why you can't Nest",
            "start": 199.4,
            "duration": 4.119
        },
        {
            "text": "certain things with Pags but you're",
            "start": 201.159,
            "duration": 4.681
        },
        {
            "text": "supposed to actually have a closing item",
            "start": 203.519,
            "duration": 4.241
        },
        {
            "text": "just the engine knows that images cannot",
            "start": 205.84,
            "duration": 3.88
        },
        {
            "text": "have children therefore it does in",
            "start": 207.76,
            "duration": 4.479
        },
        {
            "text": "itional insertion of closing images",
            "start": 209.72,
            "duration": 5.519
        },
        {
            "text": "you're not really winning there uh",
            "start": 212.239,
            "duration": 4.92
        },
        {
            "text": "because in XML tags have to be",
            "start": 215.239,
            "duration": 4.28
        },
        {
            "text": "explicitly closed and XML has a Shand",
            "start": 217.159,
            "duration": 4.401
        },
        {
            "text": "for self-closing tags I actually so I I",
            "start": 219.519,
            "duration": 4.8
        },
        {
            "text": "mean for me I actually like this in HTML",
            "start": 221.56,
            "duration": 5.44
        },
        {
            "text": "tags have to be explicitly closed to",
            "start": 224.319,
            "duration": 5.081
        },
        {
            "text": "just well most of them do some of them",
            "start": 227.0,
            "duration": 3.799
        },
        {
            "text": "don't and that's I mean to me that's",
            "start": 229.4,
            "duration": 3.479
        },
        {
            "text": "actually a much bigger problem than this",
            "start": 230.799,
            "duration": 3.8
        },
        {
            "text": "uh in an XML it generally be formatted",
            "start": 232.879,
            "duration": 3.881
        },
        {
            "text": "like slash this okay without the space",
            "start": 234.599,
            "duration": 3.681
        },
        {
            "text": "before the slash but in Netscape",
            "start": 236.76,
            "duration": 5.6
        },
        {
            "text": "Navigator 4 couldn't code with",
            "start": 238.28,
            "duration": 4.08
        },
        {
            "text": "that I love it I love it I love it oh my",
            "start": 243.159,
            "duration": 9.08
        },
        {
            "text": "good couldn't cope without the",
            "start": 250.319,
            "duration": 4.961
        },
        {
            "text": "space Whit space significant Netscape",
            "start": 252.239,
            "duration": 4.761
        },
        {
            "text": "Navigator HTML where the slash",
            "start": 255.28,
            "duration": 2.919
        },
        {
            "text": "immediately followed the attributes so",
            "start": 257.0,
            "duration": 3.079
        },
        {
            "text": "the spec recommended a space before it",
            "start": 258.199,
            "duration": 3.88
        },
        {
            "text": "but browsers didn't care these rules",
            "start": 260.079,
            "duration": 4.081
        },
        {
            "text": "were purely for XML parsers and because",
            "start": 262.079,
            "duration": 4.361
        },
        {
            "text": "documents were being served as HTML if",
            "start": 264.16,
            "duration": 4.12
        },
        {
            "text": "you're that one guy who served their",
            "start": 266.44,
            "duration": 4.8
        },
        {
            "text": "site as application EX uh HTML plus XML",
            "start": 268.28,
            "duration": 4.4
        },
        {
            "text": "you don't need to tell me these",
            "start": 271.24,
            "duration": 3.88
        },
        {
            "text": "syntactical extras were ignored with",
            "start": 272.68,
            "duration": 4.079
        },
        {
            "text": "option equals selected selected the",
            "start": 275.12,
            "duration": 3.799
        },
        {
            "text": "value was ignored so option selected",
            "start": 276.759,
            "duration": 4.241
        },
        {
            "text": "would work too this truly was the",
            "start": 278.919,
            "duration": 5.28
        },
        {
            "text": "biggest curse can we all agree like",
            "start": 281.0,
            "duration": 6.32
        },
        {
            "text": "that the bigger curse isn't that option",
            "start": 284.199,
            "duration": 5.201
        },
        {
            "text": "selected equals",
            "start": 287.32,
            "duration": 4.439
        },
        {
            "text": "selected is a problem it's the fact that",
            "start": 289.4,
            "duration": 4.2
        },
        {
            "text": "we're trying to straddle two different",
            "start": 291.759,
            "duration": 4.201
        },
        {
            "text": "two different things selected is treated",
            "start": 293.6,
            "duration": 4.159
        },
        {
            "text": "as a Boolean property so you can",
            "start": 295.96,
            "duration": 3.16
        },
        {
            "text": "technically put whatever the hell you",
            "start": 297.759,
            "duration": 4.44
        },
        {
            "text": "want in there there so that's why",
            "start": 299.12,
            "duration": 6.88
        },
        {
            "text": "selected equals false is totally",
            "start": 302.199,
            "duration": 6.601
        },
        {
            "text": "true disabled equals disabled is does",
            "start": 306.0,
            "duration": 4.6
        },
        {
            "text": "that mean disabled is disabled or does",
            "start": 308.8,
            "duration": 3.6
        },
        {
            "text": "that mean disabled is true like real",
            "start": 310.6,
            "duration": 6.36
        },
        {
            "text": "talk how do you interpret that disabled",
            "start": 312.4,
            "duration": 7.88
        },
        {
            "text": "disabling oh I dude we really we really",
            "start": 316.96,
            "duration": 5.48
        },
        {
            "text": "need to come in with the n apostrophe T",
            "start": 320.28,
            "duration": 3.88
        },
        {
            "text": "modifier and programming I think it's so",
            "start": 322.44,
            "duration": 4.44
        },
        {
            "text": "beautiful uh if you end a slash with a",
            "start": 324.16,
            "duration": 4.879
        },
        {
            "text": "slash close the browser sought as",
            "start": 326.88,
            "duration": 4.599
        },
        {
            "text": "parsing and ignored it that's why uh",
            "start": 329.039,
            "duration": 5.121
        },
        {
            "text": "where I started to take an issue Burr is",
            "start": 331.479,
            "duration": 5.321
        },
        {
            "text": "BR closed this text is not included",
            "start": 334.16,
            "duration": 5.319
        },
        {
            "text": "inside the Burr but also beer is closed",
            "start": 336.8,
            "duration": 4.6
        },
        {
            "text": "the text is not CL yeah that's because",
            "start": 339.479,
            "duration": 3.921
        },
        {
            "text": "line breaks can't have text inside of",
            "start": 341.4,
            "duration": 4.359
        },
        {
            "text": "them see that's to me that's not a",
            "start": 343.4,
            "duration": 3.56
        },
        {
            "text": "parsing error I don't think it's",
            "start": 345.759,
            "duration": 2.16
        },
        {
            "text": "actually a parsing error I actually",
            "start": 346.96,
            "duration": 2.72
        },
        {
            "text": "think that this is correct this is a",
            "start": 347.919,
            "duration": 4.28
        },
        {
            "text": "fully formatted tag opening and closing",
            "start": 349.68,
            "duration": 4.0
        },
        {
            "text": "this is just an implicit closing it's",
            "start": 352.199,
            "duration": 3.041
        },
        {
            "text": "kind of like an automatic semicolon",
            "start": 353.68,
            "duration": 3.2
        },
        {
            "text": "insertion in",
            "start": 355.24,
            "duration": 3.6
        },
        {
            "text": "JavaScript you know good oldfashioned",
            "start": 356.88,
            "duration": 3.92
        },
        {
            "text": "automatic semi colon insertion which",
            "start": 358.84,
            "duration": 4.44
        },
        {
            "text": "still has one Legacy bug that I hate the",
            "start": 360.8,
            "duration": 4.76
        },
        {
            "text": "bug I",
            "start": 363.28,
            "duration": 4.12
        },
        {
            "text": "hate",
            "start": 365.56,
            "duration": 3.84
        },
        {
            "text": "return",
            "start": 367.4,
            "duration": 3.96
        },
        {
            "text": "that what what do you think comes out of",
            "start": 369.4,
            "duration": 3.48
        },
        {
            "text": "this bad boy what do you think comes out",
            "start": 371.36,
            "duration": 4.36
        },
        {
            "text": "of this bad boy what do you think comes",
            "start": 372.88,
            "duration": 5.12
        },
        {
            "text": "out of that bad",
            "start": 375.72,
            "duration": 4.879
        },
        {
            "text": "boy the bug I hate what do you think's",
            "start": 378.0,
            "duration": 4.319
        },
        {
            "text": "coming out of this yeah you get a sweet",
            "start": 380.599,
            "duration": 5.481
        },
        {
            "text": "ass undefined huh yeah isn't that great",
            "start": 382.319,
            "duration": 6.16
        },
        {
            "text": "isn't that great JavaScript not white",
            "start": 386.08,
            "duration": 4.64
        },
        {
            "text": "space significant except for that one",
            "start": 388.479,
            "duration": 6.481
        },
        {
            "text": "time automatic semicolon insertion boys",
            "start": 390.72,
            "duration": 5.879
        },
        {
            "text": "uh so what happens oh it's because it's",
            "start": 394.96,
            "duration": 3.32
        },
        {
            "text": "hits the return statement and then a new",
            "start": 396.599,
            "duration": 4.16
        },
        {
            "text": "line says oh there's nothing here they",
            "start": 398.28,
            "duration": 4.84
        },
        {
            "text": "meant to return undefined therefore we",
            "start": 400.759,
            "duration": 4.88
        },
        {
            "text": "automatically insert a semicolon for you",
            "start": 403.12,
            "duration": 4.88
        },
        {
            "text": "someone fix this Rex oh my gosh you",
            "start": 405.639,
            "duration": 3.801
        },
        {
            "text": "didn't know about that it's a good one",
            "start": 408.0,
            "duration": 3.199
        },
        {
            "text": "this is a good one skill",
            "start": 409.44,
            "duration": 5.319
        },
        {
            "text": "issue yes",
            "start": 411.199,
            "duration": 7.601
        },
        {
            "text": "true facts and logic how is that real",
            "start": 414.759,
            "duration": 6.16
        },
        {
            "text": "it's Java cript it was invented in a",
            "start": 418.8,
            "duration": 5.28
        },
        {
            "text": "coded out 10day cycle by Brennan Greg",
            "start": 420.919,
            "duration": 5.161
        },
        {
            "text": "okay Netscape Navigator walked into his",
            "start": 424.08,
            "duration": 5.48
        },
        {
            "text": "office one day and said hey we need Java",
            "start": 426.08,
            "duration": 5.36
        },
        {
            "text": "and he said I'll give you scheme and",
            "start": 429.56,
            "duration": 5.12
        },
        {
            "text": "they said deal but you got to have null",
            "start": 431.44,
            "duration": 7.08
        },
        {
            "text": "so we have Nan null and",
            "start": 434.68,
            "duration": 6.32
        },
        {
            "text": "undefined and scheme likee language that",
            "start": 438.52,
            "duration": 5.48
        },
        {
            "text": "kind of looks like Java what do you want",
            "start": 441.0,
            "duration": 5.4
        },
        {
            "text": "what do you want 10 days give give the",
            "start": 444.0,
            "duration": 6.24
        },
        {
            "text": "man a break give the man a break",
            "start": 446.4,
            "duration": 4.76
        },
        {
            "text": "all right this is where it gets",
            "start": 450.24,
            "duration": 3.92
        },
        {
            "text": "confusing div slash the div is open the",
            "start": 451.16,
            "duration": 5.759
        },
        {
            "text": "text is inside the div really okay that",
            "start": 454.16,
            "duration": 5.2
        },
        {
            "text": "I did not know really are you really is",
            "start": 456.919,
            "duration": 4.84
        },
        {
            "text": "that true",
            "start": 459.36,
            "duration": 5.679
        },
        {
            "text": "no well damn it's inside the div okay",
            "start": 461.759,
            "duration": 6.201
        },
        {
            "text": "everybody it's inside the div the web is",
            "start": 465.039,
            "duration": 4.84
        },
        {
            "text": "truly an awful programming",
            "start": 467.96,
            "duration": 3.799
        },
        {
            "text": "platform I you know what I think we",
            "start": 469.879,
            "duration": 4.72
        },
        {
            "text": "should all take a moment and just",
            "start": 471.759,
            "duration": 5.761
        },
        {
            "text": "appreciate the fact that we've come this",
            "start": 474.599,
            "duration": 5.44
        },
        {
            "text": "far with this",
            "start": 477.52,
            "duration": 4.239
        },
        {
            "text": "so that does that mean a self-closing",
            "start": 480.039,
            "duration": 4.681
        },
        {
            "text": "div uh doesn't work but does that work",
            "start": 481.759,
            "duration": 4.681
        },
        {
            "text": "I'm more curious about that so if we do",
            "start": 484.72,
            "duration": 3.12
        },
        {
            "text": "it that way does that actually change it",
            "start": 486.44,
            "duration": 3.68
        },
        {
            "text": "okay so that does so you have to do a",
            "start": 487.84,
            "duration": 5.639
        },
        {
            "text": "closing div tag to properly close a",
            "start": 490.12,
            "duration": 5.12
        },
        {
            "text": "div",
            "start": 493.479,
            "duration": 4.481
        },
        {
            "text": "so hold on now now now I got more",
            "start": 495.24,
            "duration": 5.32
        },
        {
            "text": "questions it just keeps going inside how",
            "start": 497.96,
            "duration": 4.959
        },
        {
            "text": "do you end it wait hold on does that",
            "start": 500.56,
            "duration": 4.4
        },
        {
            "text": "mean I have to do an ending T tag here",
            "start": 502.919,
            "duration": 3.4
        },
        {
            "text": "dude please tell me this works please",
            "start": 504.96,
            "duration": 2.84
        },
        {
            "text": "tell me this works please tell me this",
            "start": 506.319,
            "duration": 3.121
        },
        {
            "text": "works please tell me this works oh my",
            "start": 507.8,
            "duration": 4.0
        },
        {
            "text": "goodness it works oh I'm so happy I'm so",
            "start": 509.44,
            "duration": 4.68
        },
        {
            "text": "happy I'm so happy that this actually",
            "start": 511.8,
            "duration": 4.84
        },
        {
            "text": "works if",
            "start": 514.12,
            "duration": 4.76
        },
        {
            "text": "you",
            "start": 516.64,
            "duration": 5.759
        },
        {
            "text": "yes yes oh this is so good this is so",
            "start": 518.88,
            "duration": 4.719
        },
        {
            "text": "beautiful I already know this trick this",
            "start": 522.399,
            "duration": 3.44
        },
        {
            "text": "trick makes sense but it's stupid okay",
            "start": 523.599,
            "duration": 5.081
        },
        {
            "text": "oh this is so good I hate this so much I",
            "start": 525.839,
            "duration": 5.041
        },
        {
            "text": "hate this so much this is actually the",
            "start": 528.68,
            "duration": 3.44
        },
        {
            "text": "most evil thing I've ever seen in my",
            "start": 530.88,
            "duration": 3.16
        },
        {
            "text": "lifetime anyways let's keep on going",
            "start": 532.12,
            "duration": 3.719
        },
        {
            "text": "okay this guy's making dude bro bro",
            "start": 534.04,
            "duration": 4.239
        },
        {
            "text": "making a point he cooked and he might",
            "start": 535.839,
            "duration": 4.201
        },
        {
            "text": "actually be right",
            "start": 538.279,
            "duration": 3.521
        },
        {
            "text": "I honestly I came into this article",
            "start": 540.04,
            "duration": 4.6
        },
        {
            "text": "thinking he was wrong I think he's right",
            "start": 541.8,
            "duration": 4.599
        },
        {
            "text": "the Bro cooked and I mean this guy came",
            "start": 544.64,
            "duration": 5.439
        },
        {
            "text": "out with fle Fong all right in XML div",
            "start": 546.399,
            "duration": 5.201
        },
        {
            "text": "would be a self-closing div but not an",
            "start": 550.079,
            "duration": 4.921
        },
        {
            "text": "HTML in HTML it isn't the close uh that",
            "start": 551.6,
            "duration": 5.76
        },
        {
            "text": "closes a burr it's the Burr it's a",
            "start": 555.0,
            "duration": 3.92
        },
        {
            "text": "special it's a part of a special list of",
            "start": 557.36,
            "duration": 2.88
        },
        {
            "text": "elements that can have never have",
            "start": 558.92,
            "duration": 3.479
        },
        {
            "text": "children and therefore they self",
            "start": 560.24,
            "duration": 5.12
        },
        {
            "text": "clo div self-close doesn't self-close",
            "start": 562.399,
            "duration": 4.761
        },
        {
            "text": "because div isn't on that",
            "start": 565.36,
            "duration": 5.44
        },
        {
            "text": "list I cannot believe I never knew this",
            "start": 567.16,
            "duration": 5.6
        },
        {
            "text": "I I I I I actually just don't I can't",
            "start": 570.8,
            "duration": 3.599
        },
        {
            "text": "even believe I I I didn't know this this",
            "start": 572.76,
            "duration": 3.079
        },
        {
            "text": "is it is actually exceptionally",
            "start": 574.399,
            "duration": 3.801
        },
        {
            "text": "confusing the transitional phase of",
            "start": 575.839,
            "duration": 5.481
        },
        {
            "text": "xhtml ended in xhtml 1.1 and at this",
            "start": 578.2,
            "duration": 4.6
        },
        {
            "text": "point the spec required the document to",
            "start": 581.32,
            "duration": 3.56
        },
        {
            "text": "be saved and parsed as XML XML parsing",
            "start": 582.8,
            "duration": 3.719
        },
        {
            "text": "rules were well defined except for when",
            "start": 584.88,
            "duration": 2.88
        },
        {
            "text": "it came to invalid syntax was",
            "start": 586.519,
            "duration": 3.161
        },
        {
            "text": "encountered the best thing browsers",
            "start": 587.76,
            "duration": 3.72
        },
        {
            "text": "could do there was just show an error",
            "start": 589.68,
            "duration": 4.0
        },
        {
            "text": "page else we'd go back to browsers just",
            "start": 591.48,
            "duration": 3.84
        },
        {
            "text": "making stuff up and each behaving",
            "start": 593.68,
            "duration": 3.8
        },
        {
            "text": "differently and to that browser said no",
            "start": 595.32,
            "duration": 4.44
        },
        {
            "text": "thanks agreed that's actually this is by",
            "start": 597.48,
            "duration": 4.08
        },
        {
            "text": "far the worst possible way to do things",
            "start": 599.76,
            "duration": 3.319
        },
        {
            "text": "uh well that didn't actually they didn't",
            "start": 601.56,
            "duration": 3.44
        },
        {
            "text": "actually say no they supported it and",
            "start": 603.079,
            "duration": 4.401
        },
        {
            "text": "still today here's a valid ex okay you",
            "start": 605.0,
            "duration": 4.04
        },
        {
            "text": "can do that with that little thing and",
            "start": 607.48,
            "duration": 3.12
        },
        {
            "text": "here's an invalid one but the browsers",
            "start": 609.04,
            "duration": 3.16
        },
        {
            "text": "didn't see it as a future ask yourself",
            "start": 610.6,
            "duration": 3.04
        },
        {
            "text": "if you visit a website of your local",
            "start": 612.2,
            "duration": 3.16
        },
        {
            "text": "doctor surgery to find out the opening",
            "start": 613.64,
            "duration": 4.04
        },
        {
            "text": "hours which browser is best the one that",
            "start": 615.36,
            "duration": 3.76
        },
        {
            "text": "only displays the opening hours of the",
            "start": 617.68,
            "duration": 3.08
        },
        {
            "text": "surgery or the one that displays an XML",
            "start": 619.12,
            "duration": 4.12
        },
        {
            "text": "parsing airor message I mean it's",
            "start": 620.76,
            "duration": 4.56
        },
        {
            "text": "obvious why they do this right hmil is",
            "start": 623.24,
            "duration": 3.68
        },
        {
            "text": "meant to be",
            "start": 625.32,
            "duration": 6.48
        },
        {
            "text": "highly resistive to to like",
            "start": 626.92,
            "duration": 4.88
        },
        {
            "text": "failing wow one of the great things",
            "start": 632.64,
            "duration": 5.36
        },
        {
            "text": "about browsers is they're air tolerant",
            "start": 635.959,
            "duration": 3.361
        },
        {
            "text": "and browsers weren't interested in",
            "start": 638.0,
            "duration": 3.56
        },
        {
            "text": "giving that up xhtml was eventually",
            "start": 639.32,
            "duration": 4.319
        },
        {
            "text": "abandoned because a new thing came along",
            "start": 641.56,
            "duration": 4.279
        },
        {
            "text": "that browsers were happier with HTML 5",
            "start": 643.639,
            "duration": 4.921
        },
        {
            "text": "entered the scene in 2008 and one of the",
            "start": 645.839,
            "duration": 4.361
        },
        {
            "text": "major things it was introduced was a",
            "start": 648.56,
            "duration": 4.279
        },
        {
            "text": "parsing spec and unlike the XML parsing",
            "start": 650.2,
            "duration": 4.84
        },
        {
            "text": "spec it detailed what browsers should do",
            "start": 652.839,
            "duration": 3.841
        },
        {
            "text": "when they encountered weird and invalid",
            "start": 655.04,
            "duration": 4.44
        },
        {
            "text": "markup it did away with all of the XML",
            "start": 656.68,
            "duration": 5.12
        },
        {
            "text": "requirements introduced in xhtml and",
            "start": 659.48,
            "duration": 4.08
        },
        {
            "text": "leaned into the looseness of HTML",
            "start": 661.8,
            "duration": 4.24
        },
        {
            "text": "parsers that existed at the time it does",
            "start": 663.56,
            "duration": 5.12
        },
        {
            "text": "handle the slash specifically but only",
            "start": 666.04,
            "duration": 5.88
        },
        {
            "text": "to specifically ignore",
            "start": 668.68,
            "duration": 3.24
        },
        {
            "text": "it I I honestly cannot think of a reason",
            "start": 672.519,
            "duration": 6.081
        },
        {
            "text": "why you would ignore it I feel like I",
            "start": 675.8,
            "duration": 5.24
        },
        {
            "text": "knew this in my younger days when I was",
            "start": 678.6,
            "duration": 4.08
        },
        {
            "text": "like really actively building in like",
            "start": 681.04,
            "duration": 4.88
        },
        {
            "text": "the I8 days I feel like I knew this but",
            "start": 682.68,
            "duration": 5.279
        },
        {
            "text": "I don't know this",
            "start": 685.92,
            "duration": 4.84
        },
        {
            "text": "now has anyone tried a kin's Advantage",
            "start": 687.959,
            "duration": 4.361
        },
        {
            "text": "360 yeah I use it all the time 60-day",
            "start": 690.76,
            "duration": 3.72
        },
        {
            "text": "money back guarantee use my code at",
            "start": 692.32,
            "duration": 5.56
        },
        {
            "text": "bitly prime prime prime prime prime ke",
            "start": 694.48,
            "duration": 4.88
        },
        {
            "text": "keyboard I actually love this keyboard I",
            "start": 697.88,
            "duration": 2.8
        },
        {
            "text": "use it all the time it's fantastic Prime",
            "start": 699.36,
            "duration": 2.64
        },
        {
            "text": "Kinesis",
            "start": 700.68,
            "duration": 5.36
        },
        {
            "text": "Boom the the the the the look at that it",
            "start": 702.0,
            "duration": 5.48
        },
        {
            "text": "changes all the time so it's this right",
            "start": 706.04,
            "duration": 3.239
        },
        {
            "text": "now it's actually fantastic I love this",
            "start": 707.48,
            "duration": 3.32
        },
        {
            "text": "keyboard I've been using it I've been",
            "start": 709.279,
            "duration": 3.24
        },
        {
            "text": "using this keyboard before I got",
            "start": 710.8,
            "duration": 4.2
        },
        {
            "text": "sponsored for like a half decade it is",
            "start": 712.519,
            "duration": 3.601
        },
        {
            "text": "like my favorite keyboard in the",
            "start": 715.0,
            "duration": 2.279
        },
        {
            "text": "universe it feels so much better than",
            "start": 716.12,
            "duration": 2.839
        },
        {
            "text": "the advantage too somehow it does but I",
            "start": 717.279,
            "duration": 3.321
        },
        {
            "text": "love the advantage too PA chatter by the",
            "start": 718.959,
            "duration": 3.0
        },
        {
            "text": "way that was totally a",
            "start": 720.6,
            "duration": 4.359
        },
        {
            "text": "plant I love it I I I love Kinesis I've",
            "start": 721.959,
            "duration": 4.88
        },
        {
            "text": "been using them for over a decade they",
            "start": 724.959,
            "duration": 3.601
        },
        {
            "text": "actually saved my wrist I was",
            "start": 726.839,
            "duration": 3.641
        },
        {
            "text": "experiencing so much pain and I switched",
            "start": 728.56,
            "duration": 4.16
        },
        {
            "text": "to Dvorak and akinesis to save my to",
            "start": 730.48,
            "duration": 5.84
        },
        {
            "text": "save my uh my wrist you know what I mean",
            "start": 732.72,
            "duration": 5.32
        },
        {
            "text": "that was scary I was just having my",
            "start": 736.32,
            "duration": 3.68
        },
        {
            "text": "second kid I was having a whole bunch of",
            "start": 738.04,
            "duration": 3.799
        },
        {
            "text": "pain shooting up the side of my arm and",
            "start": 740.0,
            "duration": 4.079
        },
        {
            "text": "I thought I was like oh like I am I",
            "start": 741.839,
            "duration": 4.081
        },
        {
            "text": "am I going to have to quit am I going to",
            "start": 744.079,
            "duration": 3.481
        },
        {
            "text": "have to become a manager like what the",
            "start": 745.92,
            "duration": 3.32
        },
        {
            "text": "hell am I going to do dude I was",
            "start": 747.56,
            "duration": 3.0
        },
        {
            "text": "freaking out I'll tell you this much I",
            "start": 749.24,
            "duration": 3.12
        },
        {
            "text": "was freaking",
            "start": 750.56,
            "duration": 5.959
        },
        {
            "text": "out no query I I gave up query yeah uh",
            "start": 752.36,
            "duration": 6.88
        },
        {
            "text": "although Savage is an XML format when",
            "start": 756.519,
            "duration": 4.361
        },
        {
            "text": "it's embedded in HTML document it's",
            "start": 759.24,
            "duration": 4.44
        },
        {
            "text": "parsed by the HTML parser uh do you work",
            "start": 760.88,
            "duration": 6.04
        },
        {
            "text": "did you work out back then I did I did",
            "start": 763.68,
            "duration": 4.519
        },
        {
            "text": "am I going to have to become a manager",
            "start": 766.92,
            "duration": 3.08
        },
        {
            "text": "my size I know D I was not ready for it",
            "start": 768.199,
            "duration": 3.281
        },
        {
            "text": "however to increase compatibility with",
            "start": 770.0,
            "duration": 3.56
        },
        {
            "text": "copy pasted Savage content when HTML",
            "start": 771.48,
            "duration": 3.96
        },
        {
            "text": "parser is within a Savage tag it",
            "start": 773.56,
            "duration": 3.92
        },
        {
            "text": "switches to foreign content mode where",
            "start": 775.44,
            "duration": 5.639
        },
        {
            "text": "slash actually is Meaningful the div is",
            "start": 777.48,
            "duration": 5.88
        },
        {
            "text": "open",
            "start": 781.079,
            "duration": 5.921
        },
        {
            "text": "really oh that's cool other foreign",
            "start": 783.36,
            "duration": 5.68
        },
        {
            "text": "content such as math ml behaves the same",
            "start": 787.0,
            "duration": 3.839
        },
        {
            "text": "wow okay so this SLG you don't get a",
            "start": 789.04,
            "duration": 4.28
        },
        {
            "text": "group okay uh that is where uh things",
            "start": 790.839,
            "duration": 5.44
        },
        {
            "text": "are today with Slash SL close is mostly",
            "start": 793.32,
            "duration": 4.519
        },
        {
            "text": "meaningless in HML",
            "start": 796.279,
            "duration": 3.92
        },
        {
            "text": "documents wow okay these are the the",
            "start": 797.839,
            "duration": 5.36
        },
        {
            "text": "facts are good I mean I'm fact and logic",
            "start": 800.199,
            "duration": 5.521
        },
        {
            "text": "right now I fully on this gu I cannot",
            "start": 803.199,
            "duration": 4.561
        },
        {
            "text": "I've never had my opinion so changed in",
            "start": 805.72,
            "duration": 5.04
        },
        {
            "text": "my entire lifetime",
            "start": 807.76,
            "duration": 3.0
        },
        {
            "text": "honestly I am shocked at how much I",
            "start": 811.88,
            "duration": 4.319
        },
        {
            "text": "agree with everything that was just said",
            "start": 814.639,
            "duration": 4.44
        },
        {
            "text": "I was I was truly not planning on being",
            "start": 816.199,
            "duration": 4.521
        },
        {
            "text": "planning on agreeing with that by the",
            "start": 819.079,
            "duration": 3.601
        },
        {
            "text": "way all hes really appreciate that",
            "start": 820.72,
            "duration": 4.359
        },
        {
            "text": "comment really amazing insightful",
            "start": 822.68,
            "duration": 4.24
        },
        {
            "text": "although in Industry we generally",
            "start": 825.079,
            "duration": 4.88
        },
        {
            "text": "discarded most of the xhtml requirements",
            "start": 826.92,
            "duration": 5.2
        },
        {
            "text": "this self-closing tag decoration seems",
            "start": 829.959,
            "duration": 3.88
        },
        {
            "text": "to have persisted despite being a",
            "start": 832.12,
            "duration": 3.76
        },
        {
            "text": "Remnant from a spec that abandoned over",
            "start": 833.839,
            "duration": 6.161
        },
        {
            "text": "10 years ago folks even include the",
            "start": 835.88,
            "duration": 6.36
        },
        {
            "text": "space before this which uh was added for",
            "start": 840.0,
            "duration": 3.759
        },
        {
            "text": "compatibility with browser engines from",
            "start": 842.24,
            "duration": 3.76
        },
        {
            "text": "the previous",
            "start": 843.759,
            "duration": 4.44
        },
        {
            "text": "Millennium the this guy's articles are",
            "start": 846.0,
            "duration": 3.6
        },
        {
            "text": "quite good overall yeah I'm loving this",
            "start": 848.199,
            "duration": 3.401
        },
        {
            "text": "so far I think it's confusing Relic from",
            "start": 849.6,
            "duration": 3.56
        },
        {
            "text": "a Time past and I don't think tools like",
            "start": 851.6,
            "duration": 3.4
        },
        {
            "text": "prettier should be pushing it to make my",
            "start": 853.16,
            "duration": 3.359
        },
        {
            "text": "case I'll respond to counterarguments",
            "start": 855.0,
            "duration": 3.24
        },
        {
            "text": "that came up on a Twitter thread oo I",
            "start": 856.519,
            "duration": 3.0
        },
        {
            "text": "love this self-closing tags make it",
            "start": 858.24,
            "duration": 2.48
        },
        {
            "text": "easier to read and are helpful for",
            "start": 859.519,
            "duration": 2.481
        },
        {
            "text": "newcomers but they don't actually",
            "start": 860.72,
            "duration": 3.2
        },
        {
            "text": "self-close so there there literally is",
            "start": 862.0,
            "duration": 3.839
        },
        {
            "text": "no reason outside of foreign content",
            "start": 863.92,
            "duration": 3.24
        },
        {
            "text": "elements that self-close will always",
            "start": 865.839,
            "duration": 3.521
        },
        {
            "text": "self-close all other elements won't",
            "start": 867.16,
            "duration": 3.96
        },
        {
            "text": "this is this text is outside the input",
            "start": 869.36,
            "duration": 4.56
        },
        {
            "text": "this text uh this text is outside the",
            "start": 871.12,
            "duration": 5.24
        },
        {
            "text": "input this text is inside the div this",
            "start": 873.92,
            "duration": 4.32
        },
        {
            "text": "text is inside the div",
            "start": 876.36,
            "duration": 4.32
        },
        {
            "text": "yeah I mean really this is this is",
            "start": 878.24,
            "duration": 4.24
        },
        {
            "text": "actually like this is I'm fully",
            "start": 880.68,
            "duration": 4.0
        },
        {
            "text": "convinced I purchased in uh but it does",
            "start": 882.48,
            "duration": 4.44
        },
        {
            "text": "uh SL cloes have to work to be useful",
            "start": 884.68,
            "duration": 4.959
        },
        {
            "text": "code comments don't work just like slash",
            "start": 886.92,
            "duration": 5.279
        },
        {
            "text": "that they're an indication they might be",
            "start": 889.639,
            "duration": 4.64
        },
        {
            "text": "misleading but that isn't a good",
            "start": 892.199,
            "duration": 4.08
        },
        {
            "text": "argument for removing code comments the",
            "start": 894.279,
            "duration": 3.401
        },
        {
            "text": "problem with Slash is it doesn't work",
            "start": 896.279,
            "duration": 3.321
        },
        {
            "text": "like a comment and worse it doesn't",
            "start": 897.68,
            "duration": 3.64
        },
        {
            "text": "always behave like a comment due to",
            "start": 899.6,
            "duration": 3.64
        },
        {
            "text": "rules around foreign content yeah to me",
            "start": 901.32,
            "duration": 3.199
        },
        {
            "text": "this is just like straight up don't use",
            "start": 903.24,
            "duration": 3.839
        },
        {
            "text": "slash because it is actually misleading",
            "start": 904.519,
            "duration": 5.201
        },
        {
            "text": "it actually is incorrect you can use it",
            "start": 907.079,
            "duration": 5.081
        },
        {
            "text": "in Savages but use a minifier let a",
            "start": 909.72,
            "duration": 4.52
        },
        {
            "text": "minifier just do it for you I'll self",
            "start": 912.16,
            "duration": 6.08
        },
        {
            "text": "close tags if I want to go go for it uh",
            "start": 914.24,
            "duration": 5.32
        },
        {
            "text": "I think that's particularly bad for",
            "start": 918.24,
            "duration": 2.719
        },
        {
            "text": "newcomers imagine you've never seen",
            "start": 919.56,
            "duration": 3.839
        },
        {
            "text": "image before you you see like unlike",
            "start": 920.959,
            "duration": 4.081
        },
        {
            "text": "other elements it doesn't have a closing",
            "start": 923.399,
            "duration": 3.401
        },
        {
            "text": "tag debuggers and validators don't",
            "start": 925.04,
            "duration": 2.919
        },
        {
            "text": "complain about it suggesting there's",
            "start": 926.8,
            "duration": 2.519
        },
        {
            "text": "something particular about this element",
            "start": 927.959,
            "duration": 2.921
        },
        {
            "text": "you need to learn it doesn't need to",
            "start": 929.319,
            "duration": 3.921
        },
        {
            "text": "close it self closes and it's a partic",
            "start": 930.88,
            "duration": 4.879
        },
        {
            "text": "and it's particular in this Behavior yes",
            "start": 933.24,
            "duration": 4.56
        },
        {
            "text": "I I you you've sold me now imagine",
            "start": 935.759,
            "duration": 4.041
        },
        {
            "text": "you've never SE you've never seen this",
            "start": 937.8,
            "duration": 4.12
        },
        {
            "text": "before you look up this new syntax you",
            "start": 939.8,
            "duration": 2.959
        },
        {
            "text": "discovered and learn that it means",
            "start": 941.92,
            "duration": 2.68
        },
        {
            "text": "self-closing at this point why wouldn't",
            "start": 942.759,
            "duration": 4.401
        },
        {
            "text": "you assume frame closes too why would",
            "start": 944.6,
            "duration": 6.039
        },
        {
            "text": "this not or this uh is valid given this",
            "start": 947.16,
            "duration": 5.08
        },
        {
            "text": "I'm particularly sad that mdn uses",
            "start": 950.639,
            "duration": 3.401
        },
        {
            "text": "self-closing tags as a beginner facing",
            "start": 952.24,
            "duration": 5.079
        },
        {
            "text": "documentation it's consistent with jsx",
            "start": 954.04,
            "duration": 6.52
        },
        {
            "text": "jsx Js SX and HML are different formats",
            "start": 957.319,
            "duration": 5.32
        },
        {
            "text": "they aren't consider uh consistent with",
            "start": 960.56,
            "duration": 3.399
        },
        {
            "text": "each other pretending they are",
            "start": 962.639,
            "duration": 3.64
        },
        {
            "text": "consistent is misleading ooh I didn't",
            "start": 963.959,
            "duration": 3.601
        },
        {
            "text": "realize that it's not consistent with",
            "start": 966.279,
            "duration": 4.161
        },
        {
            "text": "jsx oh that's even worse let's see the",
            "start": 967.56,
            "duration": 6.12
        },
        {
            "text": "above HML renders as hello world right",
            "start": 970.44,
            "duration": 7.12
        },
        {
            "text": "the above uh jsx renders as hello world",
            "start": 973.68,
            "duration": 6.399
        },
        {
            "text": "this is outside the div wow I didn't",
            "start": 977.56,
            "duration": 4.759
        },
        {
            "text": "realize these things I like honestly I",
            "start": 980.079,
            "duration": 3.841
        },
        {
            "text": "always thought it was",
            "start": 982.319,
            "duration": 3.64
        },
        {
            "text": "um I always just thought these things",
            "start": 983.92,
            "duration": 5.12
        },
        {
            "text": "were identical I did I didn't I I",
            "start": 985.959,
            "duration": 4.761
        },
        {
            "text": "literally did not realize that there was",
            "start": 989.04,
            "duration": 3.88
        },
        {
            "text": "a significant difference in jsx versus",
            "start": 990.72,
            "duration": 4.119
        },
        {
            "text": "this especially this one particularly",
            "start": 992.92,
            "duration": 4.039
        },
        {
            "text": "because this is like if you switch to",
            "start": 994.839,
            "duration": 3.48
        },
        {
            "text": "anything other than jsx you're going to",
            "start": 996.959,
            "duration": 2.68
        },
        {
            "text": "get bit in the ass because you have no",
            "start": 998.319,
            "duration": 3.76
        },
        {
            "text": "idea how the thing actually works I",
            "start": 999.639,
            "duration": 4.32
        },
        {
            "text": "don't think it's based to",
            "start": 1002.079,
            "duration": 5.841
        },
        {
            "text": "jsx okay now that's this is this",
            "start": 1003.959,
            "duration": 9.0
        },
        {
            "text": "is actually what I I'm I'm shocked jxs",
            "start": 1007.92,
            "duration": 6.96
        },
        {
            "text": "was a mistake every they're all mistakes",
            "start": 1012.959,
            "duration": 3.921
        },
        {
            "text": "maybe jsx is the more correct form the",
            "start": 1014.88,
            "duration": 3.6
        },
        {
            "text": "way I would expect it to work",
            "start": 1016.88,
            "duration": 3.8
        },
        {
            "text": "nonetheless J JS was the real mistake",
            "start": 1018.48,
            "duration": 5.039
        },
        {
            "text": "here JS maybe JS was the friends we made",
            "start": 1020.68,
            "duration": 5.359
        },
        {
            "text": "along the way okay uh maybe JS was the",
            "start": 1023.519,
            "duration": 4.56
        },
        {
            "text": "Articles we sipped along or the lattes",
            "start": 1026.039,
            "duration": 3.361
        },
        {
            "text": "we sipped along the way while making",
            "start": 1028.079,
            "duration": 3.48
        },
        {
            "text": "hundreds of thousands of dollars at a uh",
            "start": 1029.4,
            "duration": 4.08
        },
        {
            "text": "Google like like Place rest inv vest",
            "start": 1031.559,
            "duration": 3.681
        },
        {
            "text": "baby div class name equals food the",
            "start": 1033.48,
            "duration": 4.0
        },
        {
            "text": "above HML produces a div with class name",
            "start": 1035.24,
            "duration": 4.12
        },
        {
            "text": "attribute component class name equals",
            "start": 1037.48,
            "duration": 4.0
        },
        {
            "text": "this the above jsx produces a div with",
            "start": 1039.36,
            "duration": 3.92
        },
        {
            "text": "class attribute okay that's more of a",
            "start": 1041.48,
            "duration": 3.439
        },
        {
            "text": "react thing than jsx thing but that's",
            "start": 1043.28,
            "duration": 3.679
        },
        {
            "text": "really common way yes I do like the",
            "start": 1044.919,
            "duration": 4.0
        },
        {
            "text": "these little secret names are very",
            "start": 1046.959,
            "duration": 4.321
        },
        {
            "text": "annoying as well secret names are super",
            "start": 1048.919,
            "duration": 4.401
        },
        {
            "text": "annoying can we all agree with that that",
            "start": 1051.28,
            "duration": 4.279
        },
        {
            "text": "like having to need to having to need to",
            "start": 1053.32,
            "duration": 4.2
        },
        {
            "text": "know keywords and keywords translations",
            "start": 1055.559,
            "duration": 3.36
        },
        {
            "text": "are super annoying and I always thought",
            "start": 1057.52,
            "duration": 4.76
        },
        {
            "text": "it was C Class name camel",
            "start": 1058.919,
            "duration": 6.041
        },
        {
            "text": "cased uh it means I can parse HTML with",
            "start": 1062.28,
            "duration": 4.519
        },
        {
            "text": "an XML parser call me some sort of",
            "start": 1064.96,
            "duration": 3.64
        },
        {
            "text": "purist but if I want to parse an HTML",
            "start": 1066.799,
            "duration": 3.961
        },
        {
            "text": "document I'll use an HTML parser I",
            "start": 1068.6,
            "duration": 3.6
        },
        {
            "text": "wouldn't try to write try and write",
            "start": 1070.76,
            "duration": 3.6
        },
        {
            "text": "jonon so it can be parsed by yam parser",
            "start": 1072.2,
            "duration": 3.52
        },
        {
            "text": "so I don't see why I do the same with",
            "start": 1074.36,
            "duration": 6.679
        },
        {
            "text": "htl and XML Fair fact B based",
            "start": 1075.72,
            "duration": 9.04
        },
        {
            "text": "awesome agreed just fully agree there",
            "start": 1081.039,
            "duration": 5.361
        },
        {
            "text": "are many great HML parsing libraries out",
            "start": 1084.76,
            "duration": 3.399
        },
        {
            "text": "there for almost every language and",
            "start": 1086.4,
            "duration": 3.56
        },
        {
            "text": "since the parser is specified the result",
            "start": 1088.159,
            "duration": 3.961
        },
        {
            "text": "is consistent it makes markup faster to",
            "start": 1089.96,
            "duration": 3.839
        },
        {
            "text": "parse I've heard a few times and I don't",
            "start": 1092.12,
            "duration": 3.32
        },
        {
            "text": "think it comes from an assumption that",
            "start": 1093.799,
            "duration": 3.0
        },
        {
            "text": "the more information you give the better",
            "start": 1095.44,
            "duration": 3.479
        },
        {
            "text": "the processing can optimize or something",
            "start": 1096.799,
            "duration": 4.12
        },
        {
            "text": "but let's let's compare the two parsing",
            "start": 1098.919,
            "duration": 4.401
        },
        {
            "text": "Burr there's a new tag Burr the element",
            "start": 1100.919,
            "duration": 4.281
        },
        {
            "text": "end tag Burr doesn't go back into the",
            "start": 1103.32,
            "duration": 3.12
        },
        {
            "text": "stack of elements because it's a",
            "start": 1105.2,
            "duration": 3.4
        },
        {
            "text": "self-closing one Burr parse Burr oh it's",
            "start": 1106.44,
            "duration": 5.4
        },
        {
            "text": "a new tag um bur this okay I'll just",
            "start": 1108.6,
            "duration": 4.84
        },
        {
            "text": "ignore that and tag bur doesn't go back",
            "start": 1111.84,
            "duration": 3.079
        },
        {
            "text": "on the sack of elements because it's the",
            "start": 1113.44,
            "duration": 2.92
        },
        {
            "text": "one of the self-closing ones so",
            "start": 1114.919,
            "duration": 3.0
        },
        {
            "text": "technically Burr is slower to parse as",
            "start": 1116.36,
            "duration": 4.4
        },
        {
            "text": "it contains an extra slash yep it isn't",
            "start": 1117.919,
            "duration": 5.321
        },
        {
            "text": "any slower it isn't slower in any",
            "start": 1120.76,
            "duration": 6.08
        },
        {
            "text": "meaningful way but it definitely isn't",
            "start": 1123.24,
            "duration": 7.96
        },
        {
            "text": "faster base factual and awesome it looks",
            "start": 1126.84,
            "duration": 6.16
        },
        {
            "text": "pretty okay so this actually is my only",
            "start": 1131.2,
            "duration": 3.719
        },
        {
            "text": "true argument right now I can think of",
            "start": 1133.0,
            "duration": 3.919
        },
        {
            "text": "sure that's objective I thought slash",
            "start": 1134.919,
            "duration": 3.841
        },
        {
            "text": "close looked ugly at the first time I",
            "start": 1136.919,
            "duration": 3.361
        },
        {
            "text": "worked on a code base that required it",
            "start": 1138.76,
            "duration": 3.24
        },
        {
            "text": "but I got used to it I also got used to",
            "start": 1140.28,
            "duration": 4.32
        },
        {
            "text": "missing it uh got used to missing it out",
            "start": 1142.0,
            "duration": 4.84
        },
        {
            "text": "uh if prettiness is the goal hey we",
            "start": 1144.6,
            "duration": 5.48
        },
        {
            "text": "could use type we could use",
            "start": 1146.84,
            "duration": 6.079
        },
        {
            "text": "this I don't get that I honestly don't",
            "start": 1150.08,
            "duration": 6.32
        },
        {
            "text": "understand what that is oh stop I get it",
            "start": 1152.919,
            "duration": 5.681
        },
        {
            "text": "it's a stop sign but seriously uh I",
            "start": 1156.4,
            "duration": 3.68
        },
        {
            "text": "think Aesthetics should take a backseat",
            "start": 1158.6,
            "duration": 4.079
        },
        {
            "text": "given how misleading the syntax is",
            "start": 1160.08,
            "duration": 4.12
        },
        {
            "text": "prettier should be more opinionated I",
            "start": 1162.679,
            "duration": 2.761
        },
        {
            "text": "think prettier should fix their case",
            "start": 1164.2,
            "duration": 2.479
        },
        {
            "text": "statements is what they should I respect",
            "start": 1165.44,
            "duration": 3.479
        },
        {
            "text": "prettier uh our way or the highway",
            "start": 1166.679,
            "duration": 3.281
        },
        {
            "text": "approach but I don't think it's",
            "start": 1168.919,
            "duration": 2.841
        },
        {
            "text": "consistent here it will change Burr to",
            "start": 1169.96,
            "duration": 4.28
        },
        {
            "text": "bur but it won't do anything with div in",
            "start": 1171.76,
            "duration": 4.44
        },
        {
            "text": "fact if you give it div it will reformat",
            "start": 1174.24,
            "duration": 3.72
        },
        {
            "text": "as div I think prettier should either",
            "start": 1176.2,
            "duration": 2.92
        },
        {
            "text": "drop this in cases where it's",
            "start": 1177.96,
            "duration": 2.64
        },
        {
            "text": "meaningless to parse or fix the case",
            "start": 1179.12,
            "duration": 4.36
        },
        {
            "text": "where it's actively misleading as in",
            "start": 1180.6,
            "duration": 5.68
        },
        {
            "text": "this I actually think well that's a",
            "start": 1183.48,
            "duration": 4.64
        },
        {
            "text": "great Point how do you even resolve how",
            "start": 1186.28,
            "duration": 3.48
        },
        {
            "text": "long this thing",
            "start": 1188.12,
            "duration": 3.799
        },
        {
            "text": "goes like this is actually really hard",
            "start": 1189.76,
            "duration": 5.88
        },
        {
            "text": "this is a very seriously hard parsing",
            "start": 1191.919,
            "duration": 6.921
        },
        {
            "text": "problem right this is this is switch",
            "start": 1195.64,
            "duration": 4.76
        },
        {
            "text": "statements Drive uh in prettier drive me",
            "start": 1198.84,
            "duration": 4.16
        },
        {
            "text": "nuts same here it's why I won't use",
            "start": 1200.4,
            "duration": 4.6
        },
        {
            "text": "prettier honestly it's why I won't I",
            "start": 1203.0,
            "duration": 4.24
        },
        {
            "text": "think it's",
            "start": 1205.0,
            "duration": 2.24
        },
        {
            "text": "stupid the top one is invalid HTML this",
            "start": 1207.36,
            "duration": 5.72
        },
        {
            "text": "this yeah this one is invalid",
            "start": 1210.48,
            "duration": 5.92
        },
        {
            "text": "HTML but that's what prettier",
            "start": 1213.08,
            "duration": 5.719
        },
        {
            "text": "does it's an unclosed T and prettier",
            "start": 1216.4,
            "duration": 5.2
        },
        {
            "text": "can't fix that well the problem is is it",
            "start": 1218.799,
            "duration": 5.281
        },
        {
            "text": "can't remove it because there you could",
            "start": 1221.6,
            "duration": 3.76
        },
        {
            "text": "have styles and stuff you could be",
            "start": 1224.08,
            "duration": 4.12
        },
        {
            "text": "expecting something to happen right you",
            "start": 1225.36,
            "duration": 4.24
        },
        {
            "text": "can't just remove this because it has",
            "start": 1228.2,
            "duration": 3.88
        },
        {
            "text": "meaning that's the hard part because you",
            "start": 1229.6,
            "duration": 3.84
        },
        {
            "text": "don't know what styles are applied to",
            "start": 1232.08,
            "duration": 2.56
        },
        {
            "text": "basic divs you don't know what's going",
            "start": 1233.44,
            "duration": 3.64
        },
        {
            "text": "to happen here so you can't remove it",
            "start": 1234.64,
            "duration": 3.6
        },
        {
            "text": "the problem is is that it's true",
            "start": 1237.08,
            "duration": 2.56
        },
        {
            "text": "behavior is this and that's what's",
            "start": 1238.24,
            "duration": 3.36
        },
        {
            "text": "misleading a major part of the problem",
            "start": 1239.64,
            "duration": 3.919
        },
        {
            "text": "is that slash uh SL close is sometimes",
            "start": 1241.6,
            "duration": 3.559
        },
        {
            "text": "ignored and sometimes not within the",
            "start": 1243.559,
            "duration": 3.24
        },
        {
            "text": "same well it's always ignored there's",
            "start": 1245.159,
            "duration": 3.281
        },
        {
            "text": "just behavior that happens within the",
            "start": 1246.799,
            "duration": 3.88
        },
        {
            "text": "same HTML document or I guess unless if",
            "start": 1248.44,
            "duration": 3.92
        },
        {
            "text": "you're in Savage then it does the",
            "start": 1250.679,
            "duration": 3.521
        },
        {
            "text": "correct thing right we could have the",
            "start": 1252.36,
            "duration": 3.199
        },
        {
            "text": "option to switch the parsing rule so",
            "start": 1254.2,
            "duration": 3.4
        },
        {
            "text": "slash is Meaningful as in SL D actually",
            "start": 1255.559,
            "duration": 3.6
        },
        {
            "text": "closes the T take I filed an issue for",
            "start": 1257.6,
            "duration": 4.04
        },
        {
            "text": "this but I suspect it's a no-o due to",
            "start": 1259.159,
            "duration": 4.801
        },
        {
            "text": "incompatibility with incompatibility",
            "start": 1261.64,
            "duration": 4.159
        },
        {
            "text": "incompatibility with existing libraries",
            "start": 1263.96,
            "duration": 4.92
        },
        {
            "text": "particularly security sensitive ones oh",
            "start": 1265.799,
            "duration": 5.48
        },
        {
            "text": "well what a way to end the",
            "start": 1268.88,
            "duration": 6.0
        },
        {
            "text": "article GG what an article what an",
            "start": 1271.279,
            "duration": 7.041
        },
        {
            "text": "article this was fantastic my goodness",
            "start": 1274.88,
            "duration": 5.2
        },
        {
            "text": "hey Twitter you you I you've earned",
            "start": 1278.32,
            "duration": 4.28
        },
        {
            "text": "you've earned a follow from me there you",
            "start": 1280.08,
            "duration": 6.199
        },
        {
            "text": "go you get a follow I appreciate that",
            "start": 1282.6,
            "duration": 6.439
        },
        {
            "text": "Jake archabald what a name what a",
            "start": 1286.279,
            "duration": 6.161
        },
        {
            "text": "beautiful name archabald",
            "start": 1289.039,
            "duration": 3.401
        }
    ],
    "stats": {
        "viewCount": "136939",
        "likeCount": "4449",
        "favoriteCount": "0",
        "commentCount": "427"
    }
}