{
    "id": "Jza-pMdG5ms",
    "title": "Svelte 5 Preview | Runes",
    "publishedAt": "2023-09-21T12:00:26Z",
    "captions": [
        {
            "text": "all right so let's do this okay so spell",
            "start": 0.0,
            "duration": 4.02
        },
        {
            "text": "five we're in preview mode right now",
            "start": 1.92,
            "duration": 4.32
        },
        {
            "text": "it's just introducing here's some good",
            "start": 4.02,
            "duration": 3.839
        },
        {
            "text": "looking stuff that's coming out right",
            "start": 6.24,
            "duration": 3.6
        },
        {
            "text": "here are you guys excited you excited",
            "start": 7.859,
            "duration": 3.421
        },
        {
            "text": "for all this you should be excited about",
            "start": 9.84,
            "duration": 3.78
        },
        {
            "text": "this so introducing runes rethinking",
            "start": 11.28,
            "duration": 4.919
        },
        {
            "text": "reactivity you know again I just just so",
            "start": 13.62,
            "duration": 4.919
        },
        {
            "text": "everybody knows if I wasn't using htmx I",
            "start": 16.199,
            "duration": 3.901
        },
        {
            "text": "think at this point in my life I would",
            "start": 18.539,
            "duration": 3.481
        },
        {
            "text": "probably go sveld I've been looking at",
            "start": 20.1,
            "duration": 3.48
        },
        {
            "text": "spelled on and off for the last about",
            "start": 22.02,
            "duration": 3.66
        },
        {
            "text": "five six years and I've just always",
            "start": 23.58,
            "duration": 4.439
        },
        {
            "text": "really liked what they have to offer and",
            "start": 25.68,
            "duration": 4.62
        },
        {
            "text": "so this is very very exciting so in 2019",
            "start": 28.019,
            "duration": 4.201
        },
        {
            "text": "spelled three turned JavaScript into a",
            "start": 30.3,
            "duration": 5.04
        },
        {
            "text": "reactive language sveld is a web UI",
            "start": 32.22,
            "duration": 4.74
        },
        {
            "text": "framework that uses a compiler to turn",
            "start": 35.34,
            "duration": 3.84
        },
        {
            "text": "declarative component like this right so",
            "start": 36.96,
            "duration": 3.9
        },
        {
            "text": "you can see right here you got a little",
            "start": 39.18,
            "duration": 4.559
        },
        {
            "text": "account function increment do this on",
            "start": 40.86,
            "duration": 4.859
        },
        {
            "text": "click increment count count into an",
            "start": 43.739,
            "duration": 4.261
        },
        {
            "text": "optimize a tightly optimized JavaScript",
            "start": 45.719,
            "duration": 4.68
        },
        {
            "text": "that updates the document while uh when",
            "start": 48.0,
            "duration": 4.44
        },
        {
            "text": "State like account changes because the",
            "start": 50.399,
            "duration": 3.781
        },
        {
            "text": "compiler can see where count is",
            "start": 52.44,
            "duration": 3.54
        },
        {
            "text": "referenced and the generated code is",
            "start": 54.18,
            "duration": 3.18
        },
        {
            "text": "highly efficient and because we're",
            "start": 55.98,
            "duration": 3.54
        },
        {
            "text": "hijacking syntax like let and equals",
            "start": 57.36,
            "duration": 3.9
        },
        {
            "text": "instead of using encumbersome apis you",
            "start": 59.52,
            "duration": 3.42
        },
        {
            "text": "can write less code I actually do like",
            "start": 61.26,
            "duration": 3.78
        },
        {
            "text": "this a lot about it like I like the",
            "start": 62.94,
            "duration": 3.539
        },
        {
            "text": "commitment to just saying you know what",
            "start": 65.04,
            "duration": 4.439
        },
        {
            "text": "eff it f the whole thing just F the",
            "start": 66.479,
            "duration": 4.621
        },
        {
            "text": "whole thing if you want if you want it",
            "start": 69.479,
            "duration": 2.581
        },
        {
            "text": "we're going to give you some pretty",
            "start": 71.1,
            "duration": 2.76
        },
        {
            "text": "sweet stuff and so that's what we're",
            "start": 72.06,
            "duration": 3.3
        },
        {
            "text": "doing right a common piece of feedback",
            "start": 73.86,
            "duration": 2.7
        },
        {
            "text": "is I wish I could write all my",
            "start": 75.36,
            "duration": 3.06
        },
        {
            "text": "JavaScript like this when you're used to",
            "start": 76.56,
            "duration": 3.48
        },
        {
            "text": "doing things inside components magically",
            "start": 78.42,
            "duration": 3.48
        },
        {
            "text": "updating going back to boring procedural",
            "start": 80.04,
            "duration": 4.14
        },
        {
            "text": "code feels like uh going from color to",
            "start": 81.9,
            "duration": 3.719
        },
        {
            "text": "black and white look at this whoever",
            "start": 84.18,
            "duration": 3.24
        },
        {
            "text": "wrote this blog post being from England",
            "start": 85.619,
            "duration": 4.081
        },
        {
            "text": "or some I tried to sound as stupid",
            "start": 87.42,
            "duration": 4.32
        },
        {
            "text": "as I can I feel like if you add or some",
            "start": 89.7,
            "duration": 3.779
        },
        {
            "text": " to the end of anything you",
            "start": 91.74,
            "duration": 4.44
        },
        {
            "text": "instantaneously lower the IQ by 10 10",
            "start": 93.479,
            "duration": 5.28
        },
        {
            "text": "points one generation svelt 5 changes",
            "start": 96.18,
            "duration": 4.68
        },
        {
            "text": "all that with runes which unlocked",
            "start": 98.759,
            "duration": 4.981
        },
        {
            "text": "Universal fine-grained reactivity",
            "start": 100.86,
            "duration": 4.5
        },
        {
            "text": "okay let's check it out we're gonna",
            "start": 103.74,
            "duration": 3.239
        },
        {
            "text": "we're gonna skip over that one we'll",
            "start": 105.36,
            "duration": 3.36
        },
        {
            "text": "just go into the blog post even though",
            "start": 106.979,
            "duration": 3.18
        },
        {
            "text": "we're changing how things work under the",
            "start": 108.72,
            "duration": 3.179
        },
        {
            "text": "hoods felt five should be a drop in",
            "start": 110.159,
            "duration": 3.901
        },
        {
            "text": "replacement for almost everyone hey you",
            "start": 111.899,
            "duration": 3.061
        },
        {
            "text": "know what that's nice that they're",
            "start": 114.06,
            "duration": 2.099
        },
        {
            "text": "letting people know there's going to be",
            "start": 114.96,
            "duration": 3.54
        },
        {
            "text": "potentially a little bit of work but hey",
            "start": 116.159,
            "duration": 4.381
        },
        {
            "text": "uh the new features are opt-in your",
            "start": 118.5,
            "duration": 3.36
        },
        {
            "text": "existing components will continue to",
            "start": 120.54,
            "duration": 3.359
        },
        {
            "text": "work oh that's nice yeah let's see we",
            "start": 121.86,
            "duration": 3.18
        },
        {
            "text": "don't yet have a release date for",
            "start": 123.899,
            "duration": 3.36
        },
        {
            "text": "spelled five sag uh what we're showing",
            "start": 125.04,
            "duration": 3.48
        },
        {
            "text": "you here is work in progress that's",
            "start": 127.259,
            "duration": 4.081
        },
        {
            "text": "likely to change nice roon roon roon a",
            "start": 128.52,
            "duration": 5.46
        },
        {
            "text": "letter or Mark used it uh as a mystical",
            "start": 131.34,
            "duration": 4.979
        },
        {
            "text": "or magical symbol is go claiming that",
            "start": 133.98,
            "duration": 4.619
        },
        {
            "text": "utf-8 is magical is that what's actually",
            "start": 136.319,
            "duration": 4.201
        },
        {
            "text": "happening here go is just like that",
            "start": 138.599,
            "duration": 4.441
        },
        {
            "text": "shit's magic that's the problem you're",
            "start": 140.52,
            "duration": 5.1
        },
        {
            "text": "using a magic language called utf-8 oh",
            "start": 143.04,
            "duration": 4.32
        },
        {
            "text": "you want more magic have you heard of",
            "start": 145.62,
            "duration": 4.8
        },
        {
            "text": "utf-16 anyways let's eat runes are",
            "start": 147.36,
            "duration": 4.68
        },
        {
            "text": "symbols that influence the svelte",
            "start": 150.42,
            "duration": 4.02
        },
        {
            "text": "compiler whereas svelte today uses let",
            "start": 152.04,
            "duration": 5.16
        },
        {
            "text": "and equals the export keyword and the",
            "start": 154.44,
            "duration": 4.08
        },
        {
            "text": "dollar label so for those that don't",
            "start": 157.2,
            "duration": 3.539
        },
        {
            "text": "know you mark something as uh as",
            "start": 158.52,
            "duration": 4.26
        },
        {
            "text": "reactive by using a dollar label it's",
            "start": 160.739,
            "duration": 3.601
        },
        {
            "text": "pretty clever because most people don't",
            "start": 162.78,
            "duration": 4.08
        },
        {
            "text": "realize labels exist in JavaScript here",
            "start": 164.34,
            "duration": 3.899
        },
        {
            "text": "I can give you a quick you guys want a",
            "start": 166.86,
            "duration": 3.06
        },
        {
            "text": "quick example of",
            "start": 168.239,
            "duration": 4.441
        },
        {
            "text": "of of a label uh most people don't",
            "start": 169.92,
            "duration": 5.28
        },
        {
            "text": "actually know about labels here we'll",
            "start": 172.68,
            "duration": 4.5
        },
        {
            "text": "just jump in here really quickly uh",
            "start": 175.2,
            "duration": 4.44
        },
        {
            "text": "let's look for the first here we go uh",
            "start": 177.18,
            "duration": 4.5
        },
        {
            "text": "I don't even know what this is oh that's",
            "start": 179.64,
            "duration": 3.66
        },
        {
            "text": "a big that's a big file that's an L file",
            "start": 181.68,
            "duration": 3.66
        },
        {
            "text": "com compiled from whatever it's called",
            "start": 183.3,
            "duration": 3.96
        },
        {
            "text": "here we'll just go start up so you can",
            "start": 185.34,
            "duration": 4.5
        },
        {
            "text": "do something like this so I can do a uh",
            "start": 187.26,
            "duration": 5.1
        },
        {
            "text": "I can do like an outer right and then do",
            "start": 189.84,
            "duration": 4.92
        },
        {
            "text": "four let I equals zero I has to be less",
            "start": 192.36,
            "duration": 4.98
        },
        {
            "text": "than ten I plus plus do one of those add",
            "start": 194.76,
            "duration": 4.8
        },
        {
            "text": "an extra one of those yank that paste",
            "start": 197.34,
            "duration": 4.319
        },
        {
            "text": "that in here do that then do nothing",
            "start": 199.56,
            "duration": 6.12
        },
        {
            "text": "right here take I uh in here I and make",
            "start": 201.659,
            "duration": 7.44
        },
        {
            "text": "it what J there we go and if I plus J",
            "start": 205.68,
            "duration": 7.919
        },
        {
            "text": "equals ten then break outer so what that",
            "start": 209.099,
            "duration": 6.301
        },
        {
            "text": "does is it effectively says break out of",
            "start": 213.599,
            "duration": 4.321
        },
        {
            "text": "this Loop instead of this Loop",
            "start": 215.4,
            "duration": 4.14
        },
        {
            "text": "for those I don't know",
            "start": 217.92,
            "duration": 4.02
        },
        {
            "text": "it's it's pretty cool it's a pretty cool",
            "start": 219.54,
            "duration": 4.38
        },
        {
            "text": "little experience there uh most people",
            "start": 221.94,
            "duration": 3.18
        },
        {
            "text": "don't know about that it's available in",
            "start": 223.92,
            "duration": 3.0
        },
        {
            "text": "several languages like I've done it in",
            "start": 225.12,
            "duration": 3.42
        },
        {
            "text": "Java you can do it in C if I'm not",
            "start": 226.92,
            "duration": 4.379
        },
        {
            "text": "mistaken C plus plus uh it's a go-to",
            "start": 228.54,
            "duration": 4.199
        },
        {
            "text": "it's effectively like a go-to it's a way",
            "start": 231.299,
            "duration": 3.241
        },
        {
            "text": "to do outer loop breaking because what",
            "start": 232.739,
            "duration": 2.821
        },
        {
            "text": "you'll see in a lot of people's code",
            "start": 234.54,
            "duration": 2.52
        },
        {
            "text": "that aren't used to this they'll have",
            "start": 235.56,
            "duration": 3.06
        },
        {
            "text": "some sort of like if you know they'll",
            "start": 237.06,
            "duration": 3.36
        },
        {
            "text": "have some sort of found equals false",
            "start": 238.62,
            "duration": 4.32
        },
        {
            "text": "right let found equals false now have",
            "start": 240.42,
            "duration": 4.2
        },
        {
            "text": "something like you know",
            "start": 242.94,
            "duration": 3.0
        },
        {
            "text": "they'll have something that looks like",
            "start": 244.62,
            "duration": 5.58
        },
        {
            "text": "this right that's like found equals uh I",
            "start": 245.94,
            "duration": 7.32
        },
        {
            "text": "plus a j is equivalent to ten and then",
            "start": 250.2,
            "duration": 4.86
        },
        {
            "text": "have if found you know then they'll have",
            "start": 253.26,
            "duration": 4.259
        },
        {
            "text": "if found break or some like that",
            "start": 255.06,
            "duration": 3.54
        },
        {
            "text": "right",
            "start": 257.519,
            "duration": 2.701
        },
        {
            "text": "I don't know you've seen things like",
            "start": 258.6,
            "duration": 2.699
        },
        {
            "text": "this right where you're trying to",
            "start": 260.22,
            "duration": 3.24
        },
        {
            "text": "control an outer loop break from the",
            "start": 261.299,
            "duration": 3.721
        },
        {
            "text": "inside so that's the whole point so what",
            "start": 263.46,
            "duration": 3.0
        },
        {
            "text": "svelt does since no one actually does",
            "start": 265.02,
            "duration": 2.88
        },
        {
            "text": "that because that's crazy programming",
            "start": 266.46,
            "duration": 2.64
        },
        {
            "text": "right since no one actually does that",
            "start": 267.9,
            "duration": 3.78
        },
        {
            "text": "they use the label to tell the compiler",
            "start": 269.1,
            "duration": 5.34
        },
        {
            "text": "that this label denotes reactivity which",
            "start": 271.68,
            "duration": 4.44
        },
        {
            "text": "is actually pretty smart right State",
            "start": 274.44,
            "duration": 3.319
        },
        {
            "text": "equals zero increment",
            "start": 276.12,
            "duration": 3.96
        },
        {
            "text": "for example uh declare a piece of",
            "start": 277.759,
            "duration": 3.821
        },
        {
            "text": "reactive State we can use the state room",
            "start": 280.08,
            "duration": 4.559
        },
        {
            "text": "there we go Shazam State roon that's a",
            "start": 281.58,
            "duration": 4.44
        },
        {
            "text": "that's a rune",
            "start": 284.639,
            "duration": 3.301
        },
        {
            "text": "that's a rune of statefulness here let's",
            "start": 286.02,
            "duration": 3.6
        },
        {
            "text": "see it here we can pop that out I'll",
            "start": 287.94,
            "duration": 2.759
        },
        {
            "text": "show it to you just really quickly",
            "start": 289.62,
            "duration": 3.299
        },
        {
            "text": "where'd that thing pop out at so there",
            "start": 290.699,
            "duration": 4.621
        },
        {
            "text": "you go so it's using a label",
            "start": 292.919,
            "duration": 4.741
        },
        {
            "text": "label reactive double equals this so now",
            "start": 295.32,
            "duration": 3.599
        },
        {
            "text": "when this thing gets changed it",
            "start": 297.66,
            "duration": 3.3
        },
        {
            "text": "automatically does it right",
            "start": 298.919,
            "duration": 3.901
        },
        {
            "text": "it just automatically updates the it's",
            "start": 300.96,
            "duration": 3.42
        },
        {
            "text": "pretty clever it's a pretty clever use",
            "start": 302.82,
            "duration": 3.72
        },
        {
            "text": "of JavaScript syntax valid JavaScript",
            "start": 304.38,
            "duration": 5.22
        },
        {
            "text": "syntax to help make uh your compiler",
            "start": 306.54,
            "duration": 4.26
        },
        {
            "text": "work",
            "start": 309.6,
            "duration": 3.12
        },
        {
            "text": "I think it's I think it's I think it's",
            "start": 310.8,
            "duration": 3.06
        },
        {
            "text": "pretty clever",
            "start": 312.72,
            "duration": 2.88
        },
        {
            "text": "um so instead we're gonna do this state",
            "start": 313.86,
            "duration": 2.82
        },
        {
            "text": "room so we're going to go back to a",
            "start": 315.6,
            "duration": 2.4
        },
        {
            "text": "function it looks like at first glance",
            "start": 316.68,
            "duration": 3.06
        },
        {
            "text": "this might seem like a step back perhaps",
            "start": 318.0,
            "duration": 4.199
        },
        {
            "text": "even unsfelt like isn't it better if we",
            "start": 319.74,
            "duration": 4.44
        },
        {
            "text": "can have let's down yeah so to me this",
            "start": 322.199,
            "duration": 3.241
        },
        {
            "text": "does seem more like what are you trying",
            "start": 324.18,
            "duration": 4.079
        },
        {
            "text": "to be like react or solid what is this",
            "start": 325.44,
            "duration": 4.92
        },
        {
            "text": "well no the reality is that as the",
            "start": 328.259,
            "duration": 3.841
        },
        {
            "text": "application grows in complexity figuring",
            "start": 330.36,
            "duration": 3.42
        },
        {
            "text": "out which values are reactive and which",
            "start": 332.1,
            "duration": 3.96
        },
        {
            "text": "aren't can get tricky the uh it's the",
            "start": 333.78,
            "duration": 3.84
        },
        {
            "text": "end the heuristic only works for let",
            "start": 336.06,
            "duration": 3.479
        },
        {
            "text": "declarations at the top of the component",
            "start": 337.62,
            "duration": 4.2
        },
        {
            "text": "which can cause confusions having code",
            "start": 339.539,
            "duration": 4.861
        },
        {
            "text": "behave one way inside of dotsfelt files",
            "start": 341.82,
            "duration": 4.56
        },
        {
            "text": "and another way in dot JS can make it",
            "start": 344.4,
            "duration": 4.739
        },
        {
            "text": "hard to refactor code for example if you",
            "start": 346.38,
            "duration": 4.74
        },
        {
            "text": "need to turn something into a store so",
            "start": 349.139,
            "duration": 3.301
        },
        {
            "text": "that you can use it in multiple places",
            "start": 351.12,
            "duration": 4.5
        },
        {
            "text": "okay fair fair Beyond Components with",
            "start": 352.44,
            "duration": 4.62
        },
        {
            "text": "runes reactivity extends Beyond",
            "start": 355.62,
            "duration": 3.0
        },
        {
            "text": "boundaries of your dots felt files",
            "start": 357.06,
            "duration": 3.479
        },
        {
            "text": "suppose we want to encapsulate our",
            "start": 358.62,
            "duration": 3.54
        },
        {
            "text": "counter logic in a way that we could be",
            "start": 360.539,
            "duration": 3.72
        },
        {
            "text": "used between conants today you'd have to",
            "start": 362.16,
            "duration": 5.099
        },
        {
            "text": "do a custom store in a DOT JS or TS file",
            "start": 364.259,
            "duration": 5.101
        },
        {
            "text": "you get a little store you have to",
            "start": 367.259,
            "duration": 3.541
        },
        {
            "text": "create a counter you have to have this",
            "start": 369.36,
            "duration": 3.24
        },
        {
            "text": "whole thing then you have to return this",
            "start": 370.8,
            "duration": 4.739
        },
        {
            "text": "yeah okay you yuck",
            "start": 372.6,
            "duration": 5.36
        },
        {
            "text": "so Simplicity is not necessarily good",
            "start": 375.539,
            "duration": 4.981
        },
        {
            "text": "Simplicity Ultra Simplicity may not",
            "start": 377.96,
            "duration": 4.239
        },
        {
            "text": "always be good because you can't extend",
            "start": 380.52,
            "duration": 3.6
        },
        {
            "text": "it Beyond certain scope so this one's",
            "start": 382.199,
            "duration": 3.361
        },
        {
            "text": "actually just saying hey let's extend it",
            "start": 384.12,
            "duration": 3.12
        },
        {
            "text": "Beyond certain scope",
            "start": 385.56,
            "duration": 3.479
        },
        {
            "text": "because it implements the store contract",
            "start": 387.24,
            "duration": 3.42
        },
        {
            "text": "the return value has a subscribe method",
            "start": 389.039,
            "duration": 3.78
        },
        {
            "text": "which can be referenced uh the store",
            "start": 390.66,
            "duration": 4.2
        },
        {
            "text": "value by prefixing the store with a",
            "start": 392.819,
            "duration": 4.261
        },
        {
            "text": "dollar name okay good there we go create",
            "start": 394.86,
            "duration": 4.74
        },
        {
            "text": "counter do all this thing increment",
            "start": 397.08,
            "duration": 4.679
        },
        {
            "text": "counter counter see like that's a lot",
            "start": 399.6,
            "duration": 3.659
        },
        {
            "text": "plus you got this whole like dollar",
            "start": 401.759,
            "duration": 3.72
        },
        {
            "text": "thing going on I don't like that at all",
            "start": 403.259,
            "duration": 4.321
        },
        {
            "text": "like to me that's Grody to me that's",
            "start": 405.479,
            "duration": 4.861
        },
        {
            "text": "Grody to do not a fan not a fan of",
            "start": 407.58,
            "duration": 4.38
        },
        {
            "text": "having to do some sort of magic right",
            "start": 410.34,
            "duration": 3.6
        },
        {
            "text": "there let's see it works but it's pretty",
            "start": 411.96,
            "duration": 3.9
        },
        {
            "text": "weird we found that the store API can",
            "start": 413.94,
            "duration": 3.42
        },
        {
            "text": "get rather unwieldy when you start doing",
            "start": 415.86,
            "duration": 3.54
        },
        {
            "text": "more complex things with runes it gets",
            "start": 417.36,
            "duration": 6.24
        },
        {
            "text": "much simpler state bam",
            "start": 419.4,
            "duration": 6.299
        },
        {
            "text": "okay I mean I like that I like what",
            "start": 423.6,
            "duration": 3.659
        },
        {
            "text": "we're seeing here I like what we're",
            "start": 425.699,
            "duration": 3.241
        },
        {
            "text": "seeing here",
            "start": 427.259,
            "duration": 5.72
        },
        {
            "text": "counter count I also like saying that",
            "start": 428.94,
            "duration": 4.039
        },
        {
            "text": "that's nice so it looks like it's just",
            "start": 433.62,
            "duration": 3.78
        },
        {
            "text": "like a more convenient store item that's",
            "start": 435.36,
            "duration": 3.48
        },
        {
            "text": "all it looks like so does that mean you",
            "start": 437.4,
            "duration": 3.359
        },
        {
            "text": "can still it seems like that means you",
            "start": 438.84,
            "duration": 4.759
        },
        {
            "text": "can still use the the dollar sign",
            "start": 440.759,
            "duration": 4.861
        },
        {
            "text": "reactivity label if you want to in a",
            "start": 443.599,
            "duration": 4.061
        },
        {
            "text": "spelled pile",
            "start": 445.62,
            "duration": 3.6
        },
        {
            "text": "and you can also use this as a clear",
            "start": 447.66,
            "duration": 3.12
        },
        {
            "text": "designation that you're using something",
            "start": 449.22,
            "duration": 3.479
        },
        {
            "text": "as a uh",
            "start": 450.78,
            "duration": 4.139
        },
        {
            "text": "dollars to PHP come on but they also",
            "start": 452.699,
            "duration": 4.141
        },
        {
            "text": "have Lambos is it really that bad is it",
            "start": 454.919,
            "duration": 4.021
        },
        {
            "text": "really that bad let's see today's felt",
            "start": 456.84,
            "duration": 4.02
        },
        {
            "text": "uses compile time reactivity this means",
            "start": 458.94,
            "duration": 3.84
        },
        {
            "text": "that if you have some code that uses uh",
            "start": 460.86,
            "duration": 3.6
        },
        {
            "text": "the dollar label to rerun automatically",
            "start": 462.78,
            "duration": 2.759
        },
        {
            "text": "when dependencies change those",
            "start": 464.46,
            "duration": 2.82
        },
        {
            "text": "dependencies are determined when svelte",
            "start": 465.539,
            "duration": 3.901
        },
        {
            "text": "compiles your component export width",
            "start": 467.28,
            "duration": 4.259
        },
        {
            "text": "height compiler knows area equals this",
            "start": 469.44,
            "duration": 4.62
        },
        {
            "text": "and let's see that it should log the",
            "start": 471.539,
            "duration": 5.28
        },
        {
            "text": "value area when it changes console log",
            "start": 474.06,
            "duration": 5.88
        },
        {
            "text": "area nice beautiful well this works well",
            "start": 476.819,
            "duration": 4.921
        },
        {
            "text": "until it doesn't suppose you refactor",
            "start": 479.94,
            "duration": 4.14
        },
        {
            "text": "the code above multiply by with height",
            "start": 481.74,
            "duration": 4.019
        },
        {
            "text": "is a function multiplied by width",
            "start": 484.08,
            "duration": 4.04
        },
        {
            "text": "because area",
            "start": 485.759,
            "duration": 4.801
        },
        {
            "text": "oh this is a function and function",
            "start": 488.12,
            "duration": 4.18
        },
        {
            "text": "doesn't change declaration can only see",
            "start": 490.56,
            "duration": 3.9
        },
        {
            "text": "with it won't be recalculated when the",
            "start": 492.3,
            "duration": 4.56
        },
        {
            "text": "height changes yeah we are we got",
            "start": 494.46,
            "duration": 3.66
        },
        {
            "text": "ourselves a little bit of a goof here",
            "start": 496.86,
            "duration": 3.959
        },
        {
            "text": "right multiply by height if you if you",
            "start": 498.12,
            "duration": 5.94
        },
        {
            "text": "sneak in something it doesn't change",
            "start": 500.819,
            "duration": 5.341
        },
        {
            "text": "okay yeah I could see that being very",
            "start": 504.06,
            "duration": 4.02
        },
        {
            "text": "that'd be frustrating",
            "start": 506.16,
            "duration": 3.84
        },
        {
            "text": "as a result the code is hard to refactor",
            "start": 508.08,
            "duration": 3.239
        },
        {
            "text": "and understanding the intricacies of",
            "start": 510.0,
            "duration": 2.94
        },
        {
            "text": "when spell chooses to update which",
            "start": 511.319,
            "duration": 3.301
        },
        {
            "text": "values can become rather tricky Beyond",
            "start": 512.94,
            "duration": 3.479
        },
        {
            "text": "certain levels of complexity spelled",
            "start": 514.62,
            "duration": 3.779
        },
        {
            "text": "five introduces derived and effect runes",
            "start": 516.419,
            "duration": 3.961
        },
        {
            "text": "uh which instead determine the",
            "start": 518.399,
            "duration": 3.301
        },
        {
            "text": "dependencies of their expression when",
            "start": 520.38,
            "duration": 3.0
        },
        {
            "text": "they're evaluated",
            "start": 521.7,
            "duration": 4.86
        },
        {
            "text": "all right area equals derive these two",
            "start": 523.38,
            "duration": 5.88
        },
        {
            "text": "okay okay props instead of let export",
            "start": 526.56,
            "duration": 6.6
        },
        {
            "text": "okay interesting uh effect oh we're",
            "start": 529.26,
            "duration": 5.28
        },
        {
            "text": "getting kind of into a weird area but",
            "start": 533.16,
            "duration": 4.08
        },
        {
            "text": "okay okay so effect is every time",
            "start": 534.54,
            "duration": 5.88
        },
        {
            "text": "things change with area hmm I wonder if",
            "start": 537.24,
            "duration": 4.26
        },
        {
            "text": "I like this",
            "start": 540.42,
            "duration": 3.12
        },
        {
            "text": "I wonder if I like this I feel like",
            "start": 541.5,
            "duration": 3.3
        },
        {
            "text": "we're getting",
            "start": 543.54,
            "duration": 3.419
        },
        {
            "text": "we're getting close we're slowly getting",
            "start": 544.8,
            "duration": 4.5
        },
        {
            "text": "back to PHP the problem is is I'm always",
            "start": 546.959,
            "duration": 3.601
        },
        {
            "text": "worried about like the thing I love",
            "start": 549.3,
            "duration": 2.7
        },
        {
            "text": "about svelte is that you know",
            "start": 550.56,
            "duration": 3.48
        },
        {
            "text": "client-side reactivity was very simple",
            "start": 552.0,
            "duration": 5.1
        },
        {
            "text": "when you need just some basic reactivity",
            "start": 554.04,
            "duration": 5.16
        },
        {
            "text": "I still love the idea that everything is",
            "start": 557.1,
            "duration": 4.02
        },
        {
            "text": "largely driven from the server and so",
            "start": 559.2,
            "duration": 3.24
        },
        {
            "text": "this feels like you're it just",
            "start": 561.12,
            "duration": 3.36
        },
        {
            "text": "encourages people to write more code on",
            "start": 562.44,
            "duration": 3.839
        },
        {
            "text": "the client which I am not a fan of",
            "start": 564.48,
            "duration": 3.479
        },
        {
            "text": "signal boost uh like every other",
            "start": 566.279,
            "duration": 2.941
        },
        {
            "text": "framework we come to the realization",
            "start": 567.959,
            "duration": 2.94
        },
        {
            "text": "that knockout was right all along yes",
            "start": 569.22,
            "duration": 3.059
        },
        {
            "text": "knockout has been right all along",
            "start": 570.899,
            "duration": 3.12
        },
        {
            "text": "spelled five's reactivity is powered by",
            "start": 572.279,
            "duration": 2.881
        },
        {
            "text": "signals which are essentially what",
            "start": 574.019,
            "duration": 3.061
        },
        {
            "text": "knockout was doing in 2010 more recently",
            "start": 575.16,
            "duration": 3.72
        },
        {
            "text": "signals have been polarized or",
            "start": 577.08,
            "duration": 3.9
        },
        {
            "text": "popularized by solid and adopted by a",
            "start": 578.88,
            "duration": 3.899
        },
        {
            "text": "multitude of other Frameworks yep react",
            "start": 580.98,
            "duration": 5.94
        },
        {
            "text": "still does dumb signals you state",
            "start": 582.779,
            "duration": 6.541
        },
        {
            "text": "did you pass you pack round you",
            "start": 586.92,
            "duration": 4.38
        },
        {
            "text": "it's rendering order",
            "start": 589.32,
            "duration": 4.86
        },
        {
            "text": "you stayed cool dog uh we're doing",
            "start": 591.3,
            "duration": 4.44
        },
        {
            "text": "things a bit differently though in spell",
            "start": 594.18,
            "duration": 3.719
        },
        {
            "text": "five uh signals are an under the hood",
            "start": 595.74,
            "duration": 3.539
        },
        {
            "text": "implementation detail rather than",
            "start": 597.899,
            "duration": 3.541
        },
        {
            "text": "something you interact with directly uh",
            "start": 599.279,
            "duration": 3.961
        },
        {
            "text": "as such we don't have the same API",
            "start": 601.44,
            "duration": 3.66
        },
        {
            "text": "design constraints and can maximize both",
            "start": 603.24,
            "duration": 5.039
        },
        {
            "text": "efficiency and ergonomics for example we",
            "start": 605.1,
            "duration": 4.62
        },
        {
            "text": "avoid the type narrowing issue that",
            "start": 608.279,
            "duration": 3.18
        },
        {
            "text": "arises when values are accessed by",
            "start": 609.72,
            "duration": 3.84
        },
        {
            "text": "function call and when compiling in",
            "start": 611.459,
            "duration": 3.661
        },
        {
            "text": "server-side rendering mode we can ditch",
            "start": 613.56,
            "duration": 3.42
        },
        {
            "text": "the signal altogether since the server",
            "start": 615.12,
            "duration": 4.2
        },
        {
            "text": "they are nothing but overhead beautiful",
            "start": 616.98,
            "duration": 4.14
        },
        {
            "text": "that's beautiful signals unlocked",
            "start": 619.32,
            "duration": 3.42
        },
        {
            "text": "fine-grained reactivity and meaning that",
            "start": 621.12,
            "duration": 3.36
        },
        {
            "text": "for example changes to the value inside",
            "start": 622.74,
            "duration": 4.5
        },
        {
            "text": "a large list doesn't uh or needn't",
            "start": 624.48,
            "duration": 5.82
        },
        {
            "text": "invalidate what a weird word needn't uh",
            "start": 627.24,
            "duration": 4.98
        },
        {
            "text": "needn't invalidate the other members of",
            "start": 630.3,
            "duration": 4.38
        },
        {
            "text": "that list such as such felt five is",
            "start": 632.22,
            "duration": 6.059
        },
        {
            "text": "redonculously fast beautiful needn't",
            "start": 634.68,
            "duration": 5.339
        },
        {
            "text": "I mean I know what it stands for people",
            "start": 638.279,
            "duration": 3.5
        },
        {
            "text": "that whom",
            "start": 640.019,
            "duration": 4.32
        },
        {
            "text": "uh runes are an additive feature but",
            "start": 641.779,
            "duration": 3.701
        },
        {
            "text": "they make a whole bunch of existing",
            "start": 644.339,
            "duration": 2.701
        },
        {
            "text": "Concepts obsolete the difference between",
            "start": 645.48,
            "duration": 3.24
        },
        {
            "text": "let at the top level of a component and",
            "start": 647.04,
            "duration": 3.96
        },
        {
            "text": "everywhere else export let dollar with",
            "start": 648.72,
            "duration": 4.44
        },
        {
            "text": "its intended quirks different uh",
            "start": 651.0,
            "duration": 3.66
        },
        {
            "text": "Behavior between script and script",
            "start": 653.16,
            "duration": 3.96
        },
        {
            "text": "context module uh store API and parts",
            "start": 654.66,
            "duration": 3.72
        },
        {
            "text": "that are which are genuinely quite",
            "start": 657.12,
            "duration": 4.08
        },
        {
            "text": "complicated uh the dollar store prefix",
            "start": 658.38,
            "duration": 5.459
        },
        {
            "text": "dollar dollar prop and rest prop uh life",
            "start": 661.2,
            "duration": 4.379
        },
        {
            "text": "cycle functions things like on Mount can",
            "start": 663.839,
            "duration": 3.721
        },
        {
            "text": "just be effect functions okay for those",
            "start": 665.579,
            "duration": 3.841
        },
        {
            "text": "of you who already use felt it's new",
            "start": 667.56,
            "duration": 3.839
        },
        {
            "text": "stuff to learn albeit hopefully stuff",
            "start": 669.42,
            "duration": 3.84
        },
        {
            "text": "that makes your svelte apps easier to",
            "start": 671.399,
            "duration": 3.901
        },
        {
            "text": "build and maintain but newcomers won't",
            "start": 673.26,
            "duration": 3.84
        },
        {
            "text": "need to learn all those things it'll",
            "start": 675.3,
            "duration": 4.14
        },
        {
            "text": "just be a section of the docs titled old",
            "start": 677.1,
            "duration": 4.38
        },
        {
            "text": "stuff okay it's just the beginning",
            "start": 679.44,
            "duration": 3.06
        },
        {
            "text": "though we have a long list of ideas",
            "start": 681.48,
            "duration": 3.0
        },
        {
            "text": "subsequent releases that will make svelt",
            "start": 682.5,
            "duration": 4.38
        },
        {
            "text": "simpler and more capable okay anyways",
            "start": 684.48,
            "duration": 4.14
        },
        {
            "text": "here's some good stuff assault 5 is not",
            "start": 686.88,
            "duration": 3.6
        },
        {
            "text": "production yet it's not there yet but",
            "start": 688.62,
            "duration": 3.659
        },
        {
            "text": "hey join their Discord if you have any",
            "start": 690.48,
            "duration": 3.84
        },
        {
            "text": "things you can create a preview site you",
            "start": 692.279,
            "duration": 3.421
        },
        {
            "text": "can go check out the preview site which",
            "start": 694.32,
            "duration": 4.019
        },
        {
            "text": "is pretty cool I like all this I mean I",
            "start": 695.7,
            "duration": 4.8
        },
        {
            "text": "like I in general I like spelled quite a",
            "start": 698.339,
            "duration": 5.161
        },
        {
            "text": "bit I still thinks felt is one of the",
            "start": 700.5,
            "duration": 4.92
        },
        {
            "text": "nicer front-end Frameworks if I'm going",
            "start": 703.5,
            "duration": 3.18
        },
        {
            "text": "to do a front-end framework I really",
            "start": 705.42,
            "duration": 3.12
        },
        {
            "text": "like spelled if I'm not using svelte I",
            "start": 706.68,
            "duration": 4.02
        },
        {
            "text": "will use solid if I'm not using solid I",
            "start": 708.54,
            "duration": 4.26
        },
        {
            "text": "I guess I could try out view if I'm not",
            "start": 710.7,
            "duration": 4.92
        },
        {
            "text": "using view I'm going to take a coin",
            "start": 712.8,
            "duration": 5.099
        },
        {
            "text": "and I'm going to flip the coin and if it",
            "start": 715.62,
            "duration": 4.44
        },
        {
            "text": "lands on heads it will be angular and if",
            "start": 717.899,
            "duration": 5.341
        },
        {
            "text": "it lands on Tails I'll use react but",
            "start": 720.06,
            "duration": 5.279
        },
        {
            "text": "when the coin lands I will also quit my",
            "start": 723.24,
            "duration": 4.2
        },
        {
            "text": "job so you know what I mean like it it",
            "start": 725.339,
            "duration": 3.841
        },
        {
            "text": "makes a lot of sense does that make",
            "start": 727.44,
            "duration": 3.66
        },
        {
            "text": "sense and by the way of course what I",
            "start": 729.18,
            "duration": 5.7
        },
        {
            "text": "mean by all that is that uh you use htmx",
            "start": 731.1,
            "duration": 6.54
        },
        {
            "text": "first I would always use htmx first I",
            "start": 734.88,
            "duration": 4.92
        },
        {
            "text": "would always use HDMI you're quiet no no",
            "start": 737.64,
            "duration": 4.5
        },
        {
            "text": "I just loud quit I would just just leave",
            "start": 739.8,
            "duration": 4.02
        },
        {
            "text": "I would first choose the framework and",
            "start": 742.14,
            "duration": 3.54
        },
        {
            "text": "then leave can you use rust with htmx",
            "start": 743.82,
            "duration": 5.579
        },
        {
            "text": "absolutely htmx makes no designation on",
            "start": 745.68,
            "duration": 5.279
        },
        {
            "text": "your server anyways there's a drinking",
            "start": 749.399,
            "duration": 3.661
        },
        {
            "text": "game called Prime drink with prime every",
            "start": 750.959,
            "duration": 4.081
        },
        {
            "text": "time I mention go in htmx you have to",
            "start": 753.06,
            "duration": 5.16
        },
        {
            "text": "take a drink so guess what the name",
            "start": 755.04,
            "duration": 6.38
        },
        {
            "text": "is the drunkagen",
            "start": 758.22,
            "duration": 3.2
        }
    ],
    "stats": {
        "viewCount": "74187",
        "likeCount": "2071",
        "favoriteCount": "0",
        "commentCount": "266"
    }
}