{
    "id": "k4MMrUX_H6Y",
    "title": "Problems With Webdev",
    "publishedAt": "2024-02-03T15:00:41Z",
    "captions": [
        {
            "text": "all right there's there's three parts to",
            "start": 0.199,
            "duration": 3.68
        },
        {
            "text": "the problem that we're seeing with like",
            "start": 1.959,
            "duration": 5.001
        },
        {
            "text": "modern web development one is lack of",
            "start": 3.879,
            "duration": 4.72
        },
        {
            "text": "experience this is because the web is",
            "start": 6.96,
            "duration": 5.36
        },
        {
            "text": "the easiest easiest to enter right two",
            "start": 8.599,
            "duration": 7.481
        },
        {
            "text": "dry don't repeat yourself this Mantra",
            "start": 12.32,
            "duration": 7.76
        },
        {
            "text": "has plagued development so dang much",
            "start": 16.08,
            "duration": 6.64
        },
        {
            "text": "everyone is constantly trying never to",
            "start": 20.08,
            "duration": 5.039
        },
        {
            "text": "repeat themselves ever and it's causing",
            "start": 22.72,
            "duration": 3.84
        },
        {
            "text": "people to write rappers around",
            "start": 25.119,
            "duration": 3.601
        },
        {
            "text": "everything cuz anytime something is",
            "start": 26.56,
            "duration": 3.76
        },
        {
            "text": "repeated between teams it's like we got",
            "start": 28.72,
            "duration": 2.959
        },
        {
            "text": "to solve this there's a tool that exists",
            "start": 30.32,
            "duration": 2.759
        },
        {
            "text": "here we could solve this by making a",
            "start": 31.679,
            "duration": 3.761
        },
        {
            "text": "better tool and then it just explodes",
            "start": 33.079,
            "duration": 4.601
        },
        {
            "text": "and then number three JavaScript these",
            "start": 35.44,
            "duration": 4.439
        },
        {
            "text": "three things together have just done so",
            "start": 37.68,
            "duration": 4.199
        },
        {
            "text": "much damage to web development they can",
            "start": 39.879,
            "duration": 4.561
        },
        {
            "text": "see a problem and they can just drive",
            "start": 41.879,
            "duration": 4.52
        },
        {
            "text": "the problem into some version of",
            "start": 44.44,
            "duration": 3.799
        },
        {
            "text": "abstraction and when someone doesn't",
            "start": 46.399,
            "duration": 4.32
        },
        {
            "text": "like one aspect of that they can drive a",
            "start": 48.239,
            "duration": 4.48
        },
        {
            "text": "new solution and when someone doesn't",
            "start": 50.719,
            "duration": 3.561
        },
        {
            "text": "like that one aspect they can drive",
            "start": 52.719,
            "duration": 4.601
        },
        {
            "text": "another solution",
            "start": 54.28,
            "duration": 3.04
        }
    ],
    "stats": {
        "viewCount": "213141",
        "likeCount": "9009",
        "favoriteCount": "0",
        "commentCount": "287"
    }
}