{
    "id": "KzV0mTqBcZA",
    "title": "Thoughts About Unit Testing | Prime Reacts",
    "publishedAt": "2023-07-19T15:00:24Z",
    "captions": [
        {
            "text": "all right first off I mock your mocks",
            "start": 0.0,
            "duration": 4.56
        },
        {
            "text": "this is by Lane if you don't know Lane",
            "start": 3.36,
            "duration": 3.78
        },
        {
            "text": "boot.dev Great Stuff learn back end",
            "start": 4.56,
            "duration": 4.56
        },
        {
            "text": "development by writing real code so it's",
            "start": 7.14,
            "duration": 3.84
        },
        {
            "text": "like a site to learn stuff with you know",
            "start": 9.12,
            "duration": 3.3
        },
        {
            "text": "what I'm talking about this is",
            "start": 10.98,
            "duration": 3.3
        },
        {
            "text": "technically a sponsored read I want to",
            "start": 12.42,
            "duration": 4.14
        },
        {
            "text": "say that right now okay but I get the",
            "start": 14.28,
            "duration": 3.96
        },
        {
            "text": "opportunity to say what I want about it",
            "start": 16.56,
            "duration": 3.0
        },
        {
            "text": "and I get to pick the topic and this is",
            "start": 18.24,
            "duration": 2.879
        },
        {
            "text": "a great topic this is perfectly what I",
            "start": 19.56,
            "duration": 2.82
        },
        {
            "text": "want to talk about because I have many",
            "start": 21.119,
            "duration": 4.5
        },
        {
            "text": "many strong strong feelings about mocks",
            "start": 22.38,
            "duration": 5.399
        },
        {
            "text": "yeah sponsored hashtag I gotta say it up",
            "start": 25.619,
            "duration": 3.48
        },
        {
            "text": "front because I want to be an honest",
            "start": 27.779,
            "duration": 3.9
        },
        {
            "text": "individual okay okay several years ago I",
            "start": 29.099,
            "duration": 4.261
        },
        {
            "text": "started my first job as a senior go",
            "start": 31.679,
            "duration": 3.481
        },
        {
            "text": "developer a lot of scare quotes going on",
            "start": 33.36,
            "duration": 3.84
        },
        {
            "text": "here you see after a modest three years",
            "start": 35.16,
            "duration": 4.14
        },
        {
            "text": "in the industry my Arcane ability to use",
            "start": 37.2,
            "duration": 4.08
        },
        {
            "text": "go standard Library string contains",
            "start": 39.3,
            "duration": 4.14
        },
        {
            "text": "function managed to leave a powerful",
            "start": 41.28,
            "duration": 5.36
        },
        {
            "text": "impression on the hiring team",
            "start": 43.44,
            "duration": 3.2
        },
        {
            "text": "yes okay so",
            "start": 48.719,
            "duration": 5.041
        },
        {
            "text": "first off he may not realize what he's",
            "start": 50.94,
            "duration": 4.08
        },
        {
            "text": "saying but there is something that's",
            "start": 53.76,
            "duration": 3.779
        },
        {
            "text": "really good here which is know your",
            "start": 55.02,
            "duration": 4.679
        },
        {
            "text": "language you dummies you walk into an",
            "start": 57.539,
            "duration": 4.921
        },
        {
            "text": "interview you could just magic them with",
            "start": 59.699,
            "duration": 4.32
        },
        {
            "text": "some really simple stuff that's just",
            "start": 62.46,
            "duration": 2.94
        },
        {
            "text": "available because that's what's",
            "start": 64.019,
            "duration": 3.42
        },
        {
            "text": "available in your language just know the",
            "start": 65.4,
            "duration": 3.539
        },
        {
            "text": "things",
            "start": 67.439,
            "duration": 3.481
        },
        {
            "text": "yep as a senior developer only a few",
            "start": 68.939,
            "duration": 3.661
        },
        {
            "text": "years out of college with no kids and a",
            "start": 70.92,
            "duration": 3.239
        },
        {
            "text": "six-figure salary life was looking",
            "start": 72.6,
            "duration": 3.839
        },
        {
            "text": "pretty easy well it wouldn't have been",
            "start": 74.159,
            "duration": 4.681
        },
        {
            "text": "easy it would have been easy if the",
            "start": 76.439,
            "duration": 4.5
        },
        {
            "text": "mind-numbing gelatinous corporation goo",
            "start": 78.84,
            "duration": 4.319
        },
        {
            "text": "known as Java it runs on billions of",
            "start": 80.939,
            "duration": 4.86
        },
        {
            "text": "devices by the way it hadn't shipped",
            "start": 83.159,
            "duration": 5.1
        },
        {
            "text": "away at the once great minds of my new",
            "start": 85.799,
            "duration": 4.941
        },
        {
            "text": "colleagues",
            "start": 88.259,
            "duration": 2.481
        },
        {
            "text": "Java by the way oh no oh no Corbett",
            "start": 94.159,
            "duration": 6.221
        },
        {
            "text": "needs you to find the difference okay",
            "start": 98.4,
            "duration": 3.48
        },
        {
            "text": "that's actually that's actually a really",
            "start": 100.38,
            "duration": 4.14
        },
        {
            "text": "good meme this is a really good meme",
            "start": 101.88,
            "duration": 5.82
        },
        {
            "text": "hard drugs free basic uh actually that's",
            "start": 104.52,
            "duration": 5.279
        },
        {
            "text": "just straight banging heroin uh we're",
            "start": 107.7,
            "duration": 3.72
        },
        {
            "text": "talking about my struggles with unit",
            "start": 109.799,
            "duration": 4.201
        },
        {
            "text": "tests at this new company and Mox and",
            "start": 111.42,
            "duration": 3.96
        },
        {
            "text": "heroin injection",
            "start": 114.0,
            "duration": 2.759
        },
        {
            "text": "um I mean dependency injection to be",
            "start": 115.38,
            "duration": 2.82
        },
        {
            "text": "honest they're both just as bad for you",
            "start": 116.759,
            "duration": 5.761
        },
        {
            "text": "I am on the same team in general I am a",
            "start": 118.2,
            "duration": 5.82
        },
        {
            "text": "huge",
            "start": 122.52,
            "duration": 4.86
        },
        {
            "text": "huge advocate for never mocking I'm on",
            "start": 124.02,
            "duration": 5.519
        },
        {
            "text": "team never mock okay",
            "start": 127.38,
            "duration": 5.7
        },
        {
            "text": "okay never mocker right here okay uh",
            "start": 129.539,
            "duration": 4.981
        },
        {
            "text": "before we do that let me tell you a",
            "start": 133.08,
            "duration": 2.94
        },
        {
            "text": "quick story to give you some context on",
            "start": 134.52,
            "duration": 3.9
        },
        {
            "text": "this new job fix and go I'm not 30",
            "start": 136.02,
            "duration": 4.56
        },
        {
            "text": "minutes into my new job still Homebrew",
            "start": 138.42,
            "duration": 3.72
        },
        {
            "text": "installing a bunch of nonsense when a",
            "start": 140.58,
            "duration": 4.82
        },
        {
            "text": "co-worker let's call him bill",
            "start": 142.14,
            "duration": 3.26
        },
        {
            "text": "uh you know it's no Tom I'll tell you",
            "start": 145.459,
            "duration": 3.701
        },
        {
            "text": "that much there's no Tom right now spins",
            "start": 147.72,
            "duration": 3.96
        },
        {
            "text": "around says hey you're the new go guy",
            "start": 149.16,
            "duration": 6.9
        },
        {
            "text": "right yeah uh goes the worst luckily for",
            "start": 151.68,
            "duration": 6.72
        },
        {
            "text": "you I fixed goes biggest problem if",
            "start": 156.06,
            "duration": 4.44
        },
        {
            "text": "someone actually says this like",
            "start": 158.4,
            "duration": 6.059
        },
        {
            "text": "hey I fixed typescript's biggest problem",
            "start": 160.5,
            "duration": 7.08
        },
        {
            "text": "I know immediately that whatever they",
            "start": 164.459,
            "duration": 5.041
        },
        {
            "text": "fixed is probably worse than the thing",
            "start": 167.58,
            "duration": 3.42
        },
        {
            "text": "itself",
            "start": 169.5,
            "duration": 4.04
        },
        {
            "text": "I hate to say it but",
            "start": 171.0,
            "duration": 5.04
        },
        {
            "text": "you're not making things better okay",
            "start": 173.54,
            "duration": 4.24
        },
        {
            "text": "you're not you're not doing a good job",
            "start": 176.04,
            "duration": 3.96
        },
        {
            "text": "Bill's the genius in this story I smell",
            "start": 177.78,
            "duration": 4.92
        },
        {
            "text": "a Tom I smell a Tom I've re-added try",
            "start": 180.0,
            "duration": 4.8
        },
        {
            "text": "catch the language no more if error",
            "start": 182.7,
            "duration": 3.78
        },
        {
            "text": "equals nil",
            "start": 184.8,
            "duration": 4.799
        },
        {
            "text": "welcome to Costco they say if your hand",
            "start": 186.48,
            "duration": 5.64
        },
        {
            "text": "is bigger than your head you're likely",
            "start": 189.599,
            "duration": 4.981
        },
        {
            "text": "to get cancer later in life",
            "start": 192.12,
            "duration": 4.38
        },
        {
            "text": "by the way that was a joke from the 90s",
            "start": 194.58,
            "duration": 4.739
        },
        {
            "text": "to get kids to put their hands on their",
            "start": 196.5,
            "duration": 5.099
        },
        {
            "text": "faces and then you hit their hand and so",
            "start": 199.319,
            "duration": 5.34
        },
        {
            "text": "that they hit their own face okay that's",
            "start": 201.599,
            "duration": 4.381
        },
        {
            "text": "pretty much what you're doing right here",
            "start": 204.659,
            "duration": 4.381
        },
        {
            "text": "this is the exact same joke except for",
            "start": 205.98,
            "duration": 5.339
        },
        {
            "text": "it's in code and you don't get to hit",
            "start": 209.04,
            "duration": 4.919
        },
        {
            "text": "your face once you get to do it every",
            "start": 211.319,
            "duration": 5.84
        },
        {
            "text": "single time you program",
            "start": 213.959,
            "duration": 3.2
        },
        {
            "text": "this is did that all the time everyone",
            "start": 217.2,
            "duration": 4.259
        },
        {
            "text": "did it it was a great joke it worked",
            "start": 219.42,
            "duration": 4.86
        },
        {
            "text": "every every time uh take a look at the",
            "start": 221.459,
            "duration": 5.041
        },
        {
            "text": "Elegance of Bill's new feature",
            "start": 224.28,
            "duration": 5.16
        },
        {
            "text": "funked try catch funked Panic airs new",
            "start": 226.5,
            "duration": 5.94
        },
        {
            "text": "I'm scared Funk error error print caught",
            "start": 229.44,
            "duration": 4.799
        },
        {
            "text": "wondering how Bill achieved this level",
            "start": 232.44,
            "duration": 4.5
        },
        {
            "text": "of syntactic sugar super easy barely an",
            "start": 234.239,
            "duration": 4.5
        },
        {
            "text": "inconvenience it just bastardized the",
            "start": 236.94,
            "duration": 4.019
        },
        {
            "text": "Panic recover and defer keywords oh gosh",
            "start": 238.739,
            "duration": 5.64
        },
        {
            "text": "the defer oh no",
            "start": 240.959,
            "duration": 4.981
        },
        {
            "text": "oh no",
            "start": 244.379,
            "duration": 5.341
        },
        {
            "text": "uh try catch Funk Funk catch Funk error",
            "start": 245.94,
            "duration": 6.18
        },
        {
            "text": "error this oh my goodness that's even a",
            "start": 249.72,
            "duration": 4.86
        },
        {
            "text": "named I hate naked returns this is the",
            "start": 252.12,
            "duration": 4.739
        },
        {
            "text": "Devil by the way this is actually this",
            "start": 254.58,
            "duration": 3.839
        },
        {
            "text": "is the biggest crime against humanity",
            "start": 256.859,
            "duration": 3.6
        },
        {
            "text": "this is goe's worst feature naked",
            "start": 258.419,
            "duration": 4.381
        },
        {
            "text": "returns are disgusting TJ was right",
            "start": 260.459,
            "duration": 3.901
        },
        {
            "text": "about it absolutely TJ was right about",
            "start": 262.8,
            "duration": 3.119
        },
        {
            "text": "it because you can't you have no clue",
            "start": 264.36,
            "duration": 4.44
        },
        {
            "text": "what the f is going on negative turns",
            "start": 265.919,
            "duration": 5.521
        },
        {
            "text": "are the devil our Titan or not they're",
            "start": 268.8,
            "duration": 4.86
        },
        {
            "text": "tight with the devil okay uh running",
            "start": 271.44,
            "duration": 4.44
        },
        {
            "text": "some tests after uh after a riveting",
            "start": 273.66,
            "duration": 3.84
        },
        {
            "text": "discussion with Bill about the virtues",
            "start": 275.88,
            "duration": 4.8
        },
        {
            "text": "of errors as values this is I mean I'm",
            "start": 277.5,
            "duration": 5.28
        },
        {
            "text": "on Camp airs as values any day of the",
            "start": 280.68,
            "duration": 4.64
        },
        {
            "text": "week I was able to dive into my first",
            "start": 282.78,
            "duration": 5.639
        },
        {
            "text": "zero ticket this is uh this is correct",
            "start": 285.32,
            "duration": 5.14
        },
        {
            "text": "this is 100 correct",
            "start": 288.419,
            "duration": 4.081
        },
        {
            "text": "I need to implement a new feature on an",
            "start": 290.46,
            "duration": 3.78
        },
        {
            "text": "existing and back-end go service I ran a",
            "start": 292.5,
            "duration": 3.66
        },
        {
            "text": "few commands to get going get clone go",
            "start": 294.24,
            "duration": 3.72
        },
        {
            "text": "build go test failed database connection",
            "start": 296.16,
            "duration": 4.02
        },
        {
            "text": "connection refuse awesome darn these",
            "start": 297.96,
            "duration": 3.6
        },
        {
            "text": "tests failed that's odd someone must",
            "start": 300.18,
            "duration": 3.959
        },
        {
            "text": "have committed some broken code wait why",
            "start": 301.56,
            "duration": 4.139
        },
        {
            "text": "are my unit tests trying to connect to a",
            "start": 304.139,
            "duration": 4.141
        },
        {
            "text": "database server hey Bill do I need to",
            "start": 305.699,
            "duration": 4.981
        },
        {
            "text": "set up a local postgre server to run the",
            "start": 308.28,
            "duration": 4.859
        },
        {
            "text": "test yeah I didn't have time to write",
            "start": 310.68,
            "duration": 4.14
        },
        {
            "text": "mocks for the database layer so we just",
            "start": 313.139,
            "duration": 4.141
        },
        {
            "text": "use the real database I will I just want",
            "start": 314.82,
            "duration": 4.74
        },
        {
            "text": "to take a really quick second to say one",
            "start": 317.28,
            "duration": 4.68
        },
        {
            "text": "of the glories of sqlite is that you can",
            "start": 319.56,
            "duration": 4.38
        },
        {
            "text": "point to a file even if the file doesn't",
            "start": 321.96,
            "duration": 3.9
        },
        {
            "text": "exist and it can create a database right",
            "start": 323.94,
            "duration": 3.18
        },
        {
            "text": "in that file",
            "start": 325.86,
            "duration": 3.36
        },
        {
            "text": "and so therefore for this type of test",
            "start": 327.12,
            "duration": 3.9
        },
        {
            "text": "if you truly just didn't want to mock",
            "start": 329.22,
            "duration": 4.319
        },
        {
            "text": "anything you could have a file that just",
            "start": 331.02,
            "duration": 4.5
        },
        {
            "text": "has the database in a specific condition",
            "start": 333.539,
            "duration": 5.041
        },
        {
            "text": "and then just CP the file put it in a",
            "start": 335.52,
            "duration": 5.1
        },
        {
            "text": "specific location and then run your test",
            "start": 338.58,
            "duration": 5.7
        },
        {
            "text": "on it so that is one nice part",
            "start": 340.62,
            "duration": 5.88
        },
        {
            "text": "but you know what if you're connecting",
            "start": 344.28,
            "duration": 5.34
        },
        {
            "text": "to a database on a unit test you don't",
            "start": 346.5,
            "duration": 4.8
        },
        {
            "text": "jump the shark okay I just I just want",
            "start": 349.62,
            "duration": 3.96
        },
        {
            "text": "to let you know that right now your job",
            "start": 351.3,
            "duration": 4.2
        },
        {
            "text": "is in a sun setting position you got to",
            "start": 353.58,
            "duration": 3.54
        },
        {
            "text": "get the hell out of there uh the time",
            "start": 355.5,
            "duration": 2.759
        },
        {
            "text": "has come to introduce you to my",
            "start": 357.12,
            "duration": 3.24
        },
        {
            "text": "philosophy on unit test well at least in",
            "start": 358.259,
            "duration": 3.841
        },
        {
            "text": "as much as unit test related to",
            "start": 360.36,
            "duration": 4.32
        },
        {
            "text": "databases we are a back wait we are",
            "start": 362.1,
            "duration": 4.62
        },
        {
            "text": "back-end developers 50 of the code we",
            "start": 364.68,
            "duration": 4.98
        },
        {
            "text": "write takes data from HTTP requests",
            "start": 366.72,
            "duration": 5.16
        },
        {
            "text": "fiddles with it a bit and then saves it",
            "start": 369.66,
            "duration": 4.259
        },
        {
            "text": "to a database the other 50 of our uh",
            "start": 371.88,
            "duration": 4.86
        },
        {
            "text": "codes takes data from the database does",
            "start": 373.919,
            "duration": 4.5
        },
        {
            "text": "some fiddling and sends it back to the",
            "start": 376.74,
            "duration": 3.72
        },
        {
            "text": "client in the HTTP response you know",
            "start": 378.419,
            "duration": 4.62
        },
        {
            "text": "give or take a few percenties",
            "start": 380.46,
            "duration": 4.2
        },
        {
            "text": "genuinely",
            "start": 383.039,
            "duration": 4.681
        },
        {
            "text": "fairly well done uh here's my hot take",
            "start": 384.66,
            "duration": 4.92
        },
        {
            "text": "the fiddling bit is the only part worth",
            "start": 387.72,
            "duration": 4.14
        },
        {
            "text": "unit testing",
            "start": 389.58,
            "duration": 4.86
        },
        {
            "text": "how many times have I said this",
            "start": 391.86,
            "duration": 6.36
        },
        {
            "text": "you always have the fiddling part as its",
            "start": 394.44,
            "duration": 5.4
        },
        {
            "text": "own function that takes in the thing you",
            "start": 398.22,
            "duration": 4.5
        },
        {
            "text": "wish to you wish to diddle you do the",
            "start": 399.84,
            "duration": 5.46
        },
        {
            "text": "diddling and you return the diddled like",
            "start": 402.72,
            "duration": 4.919
        },
        {
            "text": "there's no other dude stop stop having",
            "start": 405.3,
            "duration": 4.32
        },
        {
            "text": "functions that both get data and did all",
            "start": 407.639,
            "duration": 4.141
        },
        {
            "text": "the data okay it's not worth it and yes",
            "start": 409.62,
            "duration": 3.419
        },
        {
            "text": "I'm saying did will not fiddle because",
            "start": 411.78,
            "duration": 3.539
        },
        {
            "text": "it's funnier okay",
            "start": 413.039,
            "duration": 5.28
        },
        {
            "text": "uh it is shocking how often people don't",
            "start": 415.319,
            "duration": 5.341
        },
        {
            "text": "do that okay it is shocking that that's",
            "start": 418.319,
            "duration": 4.801
        },
        {
            "text": "not a real thing",
            "start": 420.66,
            "duration": 5.34
        },
        {
            "text": "my time in seminary uh",
            "start": 423.12,
            "duration": 5.46
        },
        {
            "text": "it was about diddling what I I don't",
            "start": 426.0,
            "duration": 5.039
        },
        {
            "text": "even know why I read that uh here's",
            "start": 428.58,
            "duration": 3.78
        },
        {
            "text": "where I really disagree with Bill I",
            "start": 431.039,
            "duration": 3.121
        },
        {
            "text": "actually prefer his tests that run while",
            "start": 432.36,
            "duration": 3.66
        },
        {
            "text": "connected to a real database though I",
            "start": 434.16,
            "duration": 4.2
        },
        {
            "text": "prefer let's see though though I'd more",
            "start": 436.02,
            "duration": 3.959
        },
        {
            "text": "prefer integration tests that runs",
            "start": 438.36,
            "duration": 3.36
        },
        {
            "text": "separately from the unit test at least",
            "start": 439.979,
            "duration": 3.541
        },
        {
            "text": "with the real database I'm testing code",
            "start": 441.72,
            "duration": 3.96
        },
        {
            "text": "that actually runs in production mocks",
            "start": 443.52,
            "duration": 4.019
        },
        {
            "text": "are perhaps the worst thing uh one of",
            "start": 445.68,
            "duration": 3.359
        },
        {
            "text": "the worst things to happen to back-end",
            "start": 447.539,
            "duration": 2.821
        },
        {
            "text": "development it's actually just the worst",
            "start": 449.039,
            "duration": 3.0
        },
        {
            "text": "thing to happen to all development not",
            "start": 450.36,
            "duration": 3.54
        },
        {
            "text": "just back-end development because here's",
            "start": 452.039,
            "duration": 3.78
        },
        {
            "text": "the problem it gives you all the power",
            "start": 453.9,
            "duration": 4.44
        },
        {
            "text": "to do integration tests in unit tests so",
            "start": 455.819,
            "duration": 4.32
        },
        {
            "text": "you end up testing just the stupidest",
            "start": 458.34,
            "duration": 4.079
        },
        {
            "text": "stuff in the universe and don't say and",
            "start": 460.139,
            "duration": 3.9
        },
        {
            "text": "don't forget we allow JavaScript to run",
            "start": 462.419,
            "duration": 3.361
        },
        {
            "text": "on the server side",
            "start": 464.039,
            "duration": 3.421
        },
        {
            "text": "yeah",
            "start": 465.78,
            "duration": 5.34
        },
        {
            "text": "I like Lane I like Lane I hate mocks",
            "start": 467.46,
            "duration": 5.34
        },
        {
            "text": "because they don't test code that",
            "start": 471.12,
            "duration": 3.0
        },
        {
            "text": "actually runs in production which means",
            "start": 472.8,
            "duration": 3.0
        },
        {
            "text": "they don't test anything give a",
            "start": 474.12,
            "duration": 3.0
        },
        {
            "text": "delightfully false sense of security",
            "start": 475.8,
            "duration": 3.179
        },
        {
            "text": "management loves this",
            "start": 477.12,
            "duration": 4.56
        },
        {
            "text": "these are all facts these are all facts",
            "start": 478.979,
            "duration": 4.44
        },
        {
            "text": "these are all facts I don't like the",
            "start": 481.68,
            "duration": 3.18
        },
        {
            "text": "song that's playing it's way too intense",
            "start": 483.419,
            "duration": 3.06
        },
        {
            "text": "we got we gotta change the song",
            "start": 484.86,
            "duration": 4.679
        },
        {
            "text": "immediately I am not in love I am not in",
            "start": 486.479,
            "duration": 4.5
        },
        {
            "text": "love right now",
            "start": 489.539,
            "duration": 4.5
        },
        {
            "text": "all green no red Always Green",
            "start": 490.979,
            "duration": 5.761
        },
        {
            "text": "all right take the following function uh",
            "start": 494.039,
            "duration": 5.22
        },
        {
            "text": "DB squeal user if email address equals",
            "start": 496.74,
            "duration": 3.78
        },
        {
            "text": "null okay so I can already tell why",
            "start": 499.259,
            "duration": 3.12
        },
        {
            "text": "you've heft up okay see this line right",
            "start": 500.52,
            "duration": 3.54
        },
        {
            "text": "here this line should be in a this",
            "start": 502.379,
            "duration": 3.181
        },
        {
            "text": "should this should all be in different",
            "start": 504.06,
            "duration": 3.72
        },
        {
            "text": "function right there this is the only",
            "start": 505.56,
            "duration": 5.28
        },
        {
            "text": "thing that should be in this function",
            "start": 507.78,
            "duration": 5.4
        },
        {
            "text": "right this is it this is the only thing",
            "start": 510.84,
            "duration": 4.439
        },
        {
            "text": "that should be in this function the Rest",
            "start": 513.18,
            "duration": 3.9
        },
        {
            "text": "by the way look it in look at this guy",
            "start": 515.279,
            "duration": 4.861
        },
        {
            "text": "just raw dog and a squeal look at that",
            "start": 517.08,
            "duration": 5.1
        },
        {
            "text": "can you believe there's raw dog squeal",
            "start": 520.14,
            "duration": 3.66
        },
        {
            "text": "right now like I mean",
            "start": 522.18,
            "duration": 3.54
        },
        {
            "text": "how would anyone ever raw dog squeal",
            "start": 523.8,
            "duration": 3.96
        },
        {
            "text": "it's impossible right he needs an orm",
            "start": 525.72,
            "duration": 4.14
        },
        {
            "text": "immediately all right so save user okay",
            "start": 527.76,
            "duration": 3.72
        },
        {
            "text": "there's no way to test this function",
            "start": 529.86,
            "duration": 2.94
        },
        {
            "text": "without a database connection available",
            "start": 531.48,
            "duration": 3.06
        },
        {
            "text": "at the time of testing I can practically",
            "start": 532.8,
            "duration": 4.26
        },
        {
            "text": "hear Bill Brew installing postgres as I",
            "start": 534.54,
            "duration": 4.32
        },
        {
            "text": "type my humble argument is that the",
            "start": 537.06,
            "duration": 4.56
        },
        {
            "text": "database logic this part",
            "start": 538.86,
            "duration": 4.5
        },
        {
            "text": "right",
            "start": 541.62,
            "duration": 4.26
        },
        {
            "text": "um should uh be tested in an integration",
            "start": 543.36,
            "duration": 4.86
        },
        {
            "text": "test or gasps manually I'm fine with",
            "start": 545.88,
            "duration": 4.2
        },
        {
            "text": "that however this validation logic can",
            "start": 548.22,
            "duration": 4.08
        },
        {
            "text": "easily be tested in a unit you know Yep",
            "start": 550.08,
            "duration": 4.199
        },
        {
            "text": "this part yep absolutely me and Lane are",
            "start": 552.3,
            "duration": 4.62
        },
        {
            "text": "like notice we're on the same page uh we",
            "start": 554.279,
            "duration": 3.961
        },
        {
            "text": "by the way lane and I had like an",
            "start": 556.92,
            "duration": 3.18
        },
        {
            "text": "hour-long talk and part of our hour-long",
            "start": 558.24,
            "duration": 5.039
        },
        {
            "text": "talk involved us just hating mocks just",
            "start": 560.1,
            "duration": 5.28
        },
        {
            "text": "for like an excessive period of time so",
            "start": 563.279,
            "duration": 3.781
        },
        {
            "text": "I'm not shocked at all that this this",
            "start": 565.38,
            "duration": 4.5
        },
        {
            "text": "somehow came out as as an article it's",
            "start": 567.06,
            "duration": 4.32
        },
        {
            "text": "critical to remember one of the key",
            "start": 569.88,
            "duration": 3.48
        },
        {
            "text": "tenets of software engineering your code",
            "start": 571.38,
            "duration": 2.959
        },
        {
            "text": "is ass",
            "start": 573.36,
            "duration": 3.72
        },
        {
            "text": "it's facts and because your code is",
            "start": 574.339,
            "duration": 4.18
        },
        {
            "text": "asked you shouldn't be scared to make",
            "start": 577.08,
            "duration": 3.24
        },
        {
            "text": "changes sure this function will require",
            "start": 578.519,
            "duration": 4.26
        },
        {
            "text": "database connection to be tested",
            "start": 580.32,
            "duration": 4.32
        },
        {
            "text": "uh but what if you break it down what",
            "start": 582.779,
            "duration": 4.201
        },
        {
            "text": "should we call then units yeah",
            "start": 584.64,
            "duration": 4.379
        },
        {
            "text": "the classic your code is ass problem",
            "start": 586.98,
            "duration": 4.68
        },
        {
            "text": "classic really ah now we have to write a",
            "start": 589.019,
            "duration": 4.641
        },
        {
            "text": "neat little test test user yep",
            "start": 591.66,
            "duration": 4.739
        },
        {
            "text": "awesome we've we've tested all the",
            "start": 593.66,
            "duration": 5.02
        },
        {
            "text": "validation logic uh we would have tested",
            "start": 596.399,
            "duration": 4.321
        },
        {
            "text": "in the original function with a mock and",
            "start": 598.68,
            "duration": 3.659
        },
        {
            "text": "now we don't need to you know write a",
            "start": 600.72,
            "duration": 3.6
        },
        {
            "text": "stupid mock absolutely mocks cause",
            "start": 602.339,
            "duration": 4.201
        },
        {
            "text": "blocks blocks cause talks talks about",
            "start": 604.32,
            "duration": 6.42
        },
        {
            "text": "mocks with devs or Cox what bugs with",
            "start": 606.54,
            "duration": 6.419
        },
        {
            "text": "shrugs come bugs with lugs come lugs",
            "start": 610.74,
            "duration": 4.32
        },
        {
            "text": "with bugs with Mighty shrugs come look",
            "start": 612.959,
            "duration": 4.56
        },
        {
            "text": "here look here Mr Dev dear let's stop",
            "start": 615.06,
            "duration": 4.56
        },
        {
            "text": "the mocks that cause the blocks here we",
            "start": 617.519,
            "duration": 4.861
        },
        {
            "text": "can test and we can Nest here but we",
            "start": 619.62,
            "duration": 5.46
        },
        {
            "text": "don't need to mock the rest here",
            "start": 622.38,
            "duration": 5.82
        },
        {
            "text": "probably chat chipity but the Dr Seuss",
            "start": 625.08,
            "duration": 6.18
        },
        {
            "text": "is beautiful okay mocking is akin to",
            "start": 628.2,
            "duration": 5.52
        },
        {
            "text": "reading Dr Seuss your mouth does a bunch",
            "start": 631.26,
            "duration": 4.32
        },
        {
            "text": "of movements that your brain can't quite",
            "start": 633.72,
            "duration": 4.08
        },
        {
            "text": "understand at all this was most",
            "start": 635.58,
            "duration": 4.92
        },
        {
            "text": "excellent I love this I am on I'm full",
            "start": 637.8,
            "duration": 4.92
        },
        {
            "text": "on this team by the way this is a full",
            "start": 640.5,
            "duration": 4.56
        },
        {
            "text": "on team to stop mocking right better",
            "start": 642.72,
            "duration": 4.44
        },
        {
            "text": "back end code separate out your logic",
            "start": 645.06,
            "duration": 4.32
        },
        {
            "text": "can we all give little claps for uh for",
            "start": 647.16,
            "duration": 4.32
        },
        {
            "text": "Lane this was a great article uh again",
            "start": 649.38,
            "duration": 4.079
        },
        {
            "text": "this was sponsored but still I actually",
            "start": 651.48,
            "duration": 3.12
        },
        {
            "text": "really like the article check out",
            "start": 653.459,
            "duration": 3.781
        },
        {
            "text": "boot.dev boot.dev helping your back end",
            "start": 654.6,
            "duration": 4.5
        },
        {
            "text": "Journey okay and Lane's actually he's",
            "start": 657.24,
            "duration": 4.02
        },
        {
            "text": "he's an awesome engineer I would not",
            "start": 659.1,
            "duration": 3.78
        },
        {
            "text": "promote this if I thought Lane was a",
            "start": 661.26,
            "duration": 3.12
        },
        {
            "text": "dummy he's not a dummy he's",
            "start": 662.88,
            "duration": 3.3
        },
        {
            "text": "significantly better than me at back end",
            "start": 664.38,
            "duration": 4.079
        },
        {
            "text": "engineering listen to him plus notice he",
            "start": 666.18,
            "duration": 3.839
        },
        {
            "text": "made the joke JavaScript on the back",
            "start": 668.459,
            "duration": 3.541
        },
        {
            "text": "ends the joke and that's hilarious okay",
            "start": 670.019,
            "duration": 4.32
        },
        {
            "text": "we could all appreciate that because the",
            "start": 672.0,
            "duration": 4.579
        },
        {
            "text": "name",
            "start": 674.339,
            "duration": 2.24
        },
        {
            "text": "is Javascript on the back end is a joke",
            "start": 677.339,
            "duration": 4.341
        },
        {
            "text": "again",
            "start": 679.44,
            "duration": 2.24
        }
    ],
    "stats": {
        "viewCount": "206611",
        "likeCount": "6382",
        "favoriteCount": "0",
        "commentCount": "477"
    }
}