{
    "id": "L6tYWwv75cE",
    "title": "C Is Obsolete",
    "publishedAt": "2023-09-10T12:38:26Z",
    "captions": [
        {
            "text": "I'm gonna put the volume where I think C",
            "start": 0.299,
            "duration": 4.98
        },
        {
            "text": "has the basic mechanisms for expressing",
            "start": 2.639,
            "duration": 5.641
        },
        {
            "text": "computations it has iterations it has",
            "start": 5.279,
            "duration": 4.921
        },
        {
            "text": "data types it has functions and that's",
            "start": 8.28,
            "duration": 5.22
        },
        {
            "text": "it it and you will like it okay okay",
            "start": 10.2,
            "duration": 5.16
        },
        {
            "text": "that is that is that's all you'll ever",
            "start": 13.5,
            "duration": 3.6
        },
        {
            "text": "need in your lifetime",
            "start": 15.36,
            "duration": 4.08
        },
        {
            "text": "is data types functions and Loops okay",
            "start": 17.1,
            "duration": 3.66
        },
        {
            "text": "anyone that tell you you need more",
            "start": 19.44,
            "duration": 3.48
        },
        {
            "text": "they're lying to you okay they're lying",
            "start": 20.76,
            "duration": 4.019
        },
        {
            "text": "to you C is a perfect language and I'm",
            "start": 22.92,
            "duration": 4.74
        },
        {
            "text": "not gonna lie to you I I feel like bjarn",
            "start": 24.779,
            "duration": 4.26
        },
        {
            "text": "over here is trying to sell me on some C",
            "start": 27.66,
            "duration": 3.359
        },
        {
            "text": "plus plus okay and so he's telling me",
            "start": 29.039,
            "duration": 4.261
        },
        {
            "text": "why my why my car's extended warranty",
            "start": 31.019,
            "duration": 4.2
        },
        {
            "text": "actually needs to be renewed but I don't",
            "start": 33.3,
            "duration": 3.66
        },
        {
            "text": "know if I want it renewed right now okay",
            "start": 35.219,
            "duration": 4.981
        },
        {
            "text": "yarn doesn't get into the game of",
            "start": 36.96,
            "duration": 7.02
        },
        {
            "text": "expressing abstractions so if I want a",
            "start": 40.2,
            "duration": 6.78
        },
        {
            "text": "matrix in C I'll have to say I want an",
            "start": 43.98,
            "duration": 4.68
        },
        {
            "text": "array and then I want a whole bunch of",
            "start": 46.98,
            "duration": 4.079
        },
        {
            "text": "arrays and then when I want to get the",
            "start": 48.66,
            "duration": 4.32
        },
        {
            "text": "third element I have to program my way",
            "start": 51.059,
            "duration": 3.66
        },
        {
            "text": "down to the third element of the first",
            "start": 52.98,
            "duration": 3.54
        },
        {
            "text": "row or something yeah",
            "start": 54.719,
            "duration": 4.621
        },
        {
            "text": "in C plus plus you can define something",
            "start": 56.52,
            "duration": 5.4
        },
        {
            "text": "called a matrix you define a subscript",
            "start": 59.34,
            "duration": 4.44
        },
        {
            "text": "operator",
            "start": 61.92,
            "duration": 3.48
        },
        {
            "text": "um if you don't want rectangular",
            "start": 63.78,
            "duration": 4.44
        },
        {
            "text": "matrixes you can get pen diagonal",
            "start": 65.4,
            "duration": 6.0
        },
        {
            "text": "matrices classic pen diagonal matrix I",
            "start": 68.22,
            "duration": 4.62
        },
        {
            "text": "mean I was just talking honestly to my",
            "start": 71.4,
            "duration": 4.74
        },
        {
            "text": "wife about pen diagonal matrixes you",
            "start": 72.84,
            "duration": 6.72
        },
        {
            "text": "know we both agrees because he could",
            "start": 76.14,
            "duration": 4.68
        },
        {
            "text": "barely even do that",
            "start": 79.56,
            "duration": 2.52
        },
        {
            "text": "um so these are one of those things",
            "start": 80.82,
            "duration": 3.96
        },
        {
            "text": "where it's like it's both why I like a",
            "start": 82.08,
            "duration": 5.34
        },
        {
            "text": "language that's more abstract and why I",
            "start": 84.78,
            "duration": 4.58
        },
        {
            "text": "dislike a language that's more abstract",
            "start": 87.42,
            "duration": 4.44
        },
        {
            "text": "completely do you know what I mean like",
            "start": 89.36,
            "duration": 5.079
        },
        {
            "text": "can we all agree that there is something",
            "start": 91.86,
            "duration": 6.6
        },
        {
            "text": "very very awesome about the fact that",
            "start": 94.439,
            "duration": 8.281
        },
        {
            "text": "you can override the subscript the",
            "start": 98.46,
            "duration": 6.18
        },
        {
            "text": "subscript operator you know what I mean",
            "start": 102.72,
            "duration": 6.24
        },
        {
            "text": "you also have to then consider the fact",
            "start": 104.64,
            "duration": 6.54
        },
        {
            "text": "that you can override the subscript",
            "start": 108.96,
            "duration": 4.92
        },
        {
            "text": "operator like you have to you you kind",
            "start": 111.18,
            "duration": 5.939
        },
        {
            "text": "of have both which I'm not quite sure if",
            "start": 113.88,
            "duration": 5.22
        },
        {
            "text": "if it's good to have it or not I find",
            "start": 117.119,
            "duration": 3.54
        },
        {
            "text": "myself whenever I like it I'm like oh",
            "start": 119.1,
            "duration": 3.6
        },
        {
            "text": "this is great and then we do it and then",
            "start": 120.659,
            "duration": 4.92
        },
        {
            "text": "I go oh I actually hate this no I",
            "start": 122.7,
            "duration": 4.739
        },
        {
            "text": "actually do I actually hate this very",
            "start": 125.579,
            "duration": 3.6
        },
        {
            "text": "very much giving people the freedom is",
            "start": 127.439,
            "duration": 3.061
        },
        {
            "text": "stupid I don't know see that's the",
            "start": 129.179,
            "duration": 2.941
        },
        {
            "text": "problem is like I like the",
            "start": 130.5,
            "duration": 3.36
        },
        {
            "text": "expressionists",
            "start": 132.12,
            "duration": 4.56
        },
        {
            "text": "that you can have but at the exact same",
            "start": 133.86,
            "duration": 4.5
        },
        {
            "text": "time I find that once you go a little",
            "start": 136.68,
            "duration": 4.62
        },
        {
            "text": "too much it ends up just sucking right",
            "start": 138.36,
            "duration": 4.56
        },
        {
            "text": "it just ends up being the worst thing",
            "start": 141.3,
            "duration": 4.2
        },
        {
            "text": "possible I don't know I can never figure",
            "start": 142.92,
            "duration": 5.58
        },
        {
            "text": "it out I can never figure out the",
            "start": 145.5,
            "duration": 5.34
        },
        {
            "text": "problem here it's like do I want a",
            "start": 148.5,
            "duration": 4.739
        },
        {
            "text": "language that is great or do I want a",
            "start": 150.84,
            "duration": 4.2
        },
        {
            "text": "language that is not great you know what",
            "start": 153.239,
            "duration": 4.441
        },
        {
            "text": "I mean well gosh I just deleted chat",
            "start": 155.04,
            "duration": 4.44
        },
        {
            "text": "chat you just got deleted triangular",
            "start": 157.68,
            "duration": 5.04
        },
        {
            "text": "matrices that's the kind of stuff that",
            "start": 159.48,
            "duration": 5.28
        },
        {
            "text": "people the expert in that field are",
            "start": 162.72,
            "duration": 4.62
        },
        {
            "text": "interested in and you you built that set",
            "start": 164.76,
            "duration": 4.68
        },
        {
            "text": "of Concepts and then you program it",
            "start": 167.34,
            "duration": 4.92
        },
        {
            "text": "directly it's easier to program it's",
            "start": 169.44,
            "duration": 5.64
        },
        {
            "text": "easier to debug and sometimes it's even",
            "start": 172.26,
            "duration": 5.52
        },
        {
            "text": "easier to optimize for performance when",
            "start": 175.08,
            "duration": 4.08
        },
        {
            "text": "you're expressing",
            "start": 177.78,
            "duration": 3.44
        },
        {
            "text": "the Notions",
            "start": 179.16,
            "duration": 4.56
        },
        {
            "text": "at the higher level at the level where",
            "start": 181.22,
            "duration": 5.08
        },
        {
            "text": "an expert in the field operates rather",
            "start": 183.72,
            "duration": 4.26
        },
        {
            "text": "than trying to have the expert in the",
            "start": 186.3,
            "duration": 4.019
        },
        {
            "text": "field say the physicist also be an",
            "start": 187.98,
            "duration": 4.44
        },
        {
            "text": "expert in dealing with the hardware with",
            "start": 190.319,
            "duration": 3.081
        },
        {
            "text": "a computer",
            "start": 192.42,
            "duration": 3.72
        },
        {
            "text": "there's field still okay so that's why",
            "start": 193.4,
            "duration": 5.08
        },
        {
            "text": "we invented JavaScript okay",
            "start": 196.14,
            "duration": 4.86
        },
        {
            "text": "I think I think I understand now I think",
            "start": 198.48,
            "duration": 4.679
        },
        {
            "text": "I understand why we got JavaScript we",
            "start": 201.0,
            "duration": 4.56
        },
        {
            "text": "obviously cannot expect everyone to be",
            "start": 203.159,
            "duration": 4.381
        },
        {
            "text": "an expert so we gotta invent a language",
            "start": 205.56,
            "duration": 5.52
        },
        {
            "text": "in which everybody's very very easily",
            "start": 207.54,
            "duration": 5.76
        },
        {
            "text": "happy with it and so we invented python",
            "start": 211.08,
            "duration": 3.72
        },
        {
            "text": "or JavaScript depending on which side",
            "start": 213.3,
            "duration": 3.24
        },
        {
            "text": "you want to be on but then we also",
            "start": 214.8,
            "duration": 4.019
        },
        {
            "text": "reinvented rust which rust is kind of",
            "start": 216.54,
            "duration": 4.259
        },
        {
            "text": "like you don't need to be an expert",
            "start": 218.819,
            "duration": 4.56
        },
        {
            "text": "with Hardware but we want you to be an",
            "start": 220.799,
            "duration": 4.52
        },
        {
            "text": "expert in a completely different area",
            "start": 223.379,
            "duration": 6.121
        },
        {
            "text": "that isn't necessarily translatable to",
            "start": 225.319,
            "duration": 5.56
        },
        {
            "text": "any other language but you're gonna be",
            "start": 229.5,
            "duration": 3.36
        },
        {
            "text": "your own expert right here you're an",
            "start": 230.879,
            "duration": 5.521
        },
        {
            "text": "expert in this one single thing don't be",
            "start": 232.86,
            "duration": 5.879
        },
        {
            "text": "an expert you have to have a physicist",
            "start": 236.4,
            "duration": 4.44
        },
        {
            "text": "and a computer scientist get the work",
            "start": 238.739,
            "duration": 4.441
        },
        {
            "text": "done but we would like to minimize those",
            "start": 240.84,
            "duration": 5.819
        },
        {
            "text": "because the the skill sets are not the",
            "start": 243.18,
            "duration": 4.44
        },
        {
            "text": "same",
            "start": 246.659,
            "duration": 3.3
        },
        {
            "text": "so you want fare from the hardware to",
            "start": 247.62,
            "duration": 5.539
        },
        {
            "text": "watch the human level",
            "start": 249.959,
            "duration": 3.2
        },
        {
            "text": "what do you guys think is C obsolete I",
            "start": 254.76,
            "duration": 3.78
        },
        {
            "text": "want to see a poll let's see a pull",
            "start": 256.62,
            "duration": 3.959
        },
        {
            "text": "let's see a pull I want to do this",
            "start": 258.54,
            "duration": 3.84
        },
        {
            "text": "manage pull manage my pull here we go",
            "start": 260.579,
            "duration": 6.721
        },
        {
            "text": "new pull is C obsolete obsolete question",
            "start": 262.38,
            "duration": 7.74
        },
        {
            "text": "mark yes no",
            "start": 267.3,
            "duration": 4.8
        },
        {
            "text": "start pull let's go",
            "start": 270.12,
            "duration": 3.78
        },
        {
            "text": "uh as a general purpose language it is",
            "start": 272.1,
            "duration": 3.78
        },
        {
            "text": "obsolete but uh but not irrelevant you",
            "start": 273.9,
            "duration": 4.38
        },
        {
            "text": "think so I have never been alive without",
            "start": 275.88,
            "duration": 5.06
        },
        {
            "text": "the existence of smartphones",
            "start": 278.28,
            "duration": 5.699
        },
        {
            "text": "you're definitely such a Zoomer look at",
            "start": 280.94,
            "duration": 5.68
        },
        {
            "text": "this man be just you are a zoo he's the",
            "start": 283.979,
            "duration": 6.541
        },
        {
            "text": "man zooming the man is zooming",
            "start": 286.62,
            "duration": 6.54
        },
        {
            "text": "damn you know what I I actually feel bad",
            "start": 290.52,
            "duration": 4.8
        },
        {
            "text": "for people who've only been born with",
            "start": 293.16,
            "duration": 4.2
        },
        {
            "text": "the world of smartphones like you never",
            "start": 295.32,
            "duration": 5.099
        },
        {
            "text": "got you never got that experience dude",
            "start": 297.36,
            "duration": 6.0
        },
        {
            "text": "you never got that experience where you",
            "start": 300.419,
            "duration": 5.461
        },
        {
            "text": "had to start playing a game with",
            "start": 303.36,
            "duration": 5.52
        },
        {
            "text": "somebody by first calling them on your",
            "start": 305.88,
            "duration": 5.16
        },
        {
            "text": "land phone and be like all right I'm",
            "start": 308.88,
            "duration": 3.72
        },
        {
            "text": "gonna connect to you are you I'm gonna",
            "start": 311.04,
            "duration": 3.0
        },
        {
            "text": "connect are you ready okay we're gonna",
            "start": 312.6,
            "duration": 4.2
        },
        {
            "text": "play Battle you know we're gonna before",
            "start": 314.04,
            "duration": 4.62
        },
        {
            "text": "battle Dad we're gonna play World of",
            "start": 316.8,
            "duration": 4.2
        },
        {
            "text": "Warcraft or Warcraft 2 I'm called I'm",
            "start": 318.66,
            "duration": 4.259
        },
        {
            "text": "calling TCP connection I'm calling then",
            "start": 321.0,
            "duration": 3.66
        },
        {
            "text": "we do it we hang it down you do whatever",
            "start": 322.919,
            "duration": 3.84
        },
        {
            "text": "the the settings are and you try to like",
            "start": 324.66,
            "duration": 3.9
        },
        {
            "text": "contact them and then half the time it",
            "start": 326.759,
            "duration": 3.241
        },
        {
            "text": "doesn't work and then you have to like",
            "start": 328.56,
            "duration": 3.359
        },
        {
            "text": "disconnect reopen up your phone be like",
            "start": 330.0,
            "duration": 3.66
        },
        {
            "text": "dude did it work was I calling what's",
            "start": 331.919,
            "duration": 4.261
        },
        {
            "text": "your IP man hey man what's your IP the",
            "start": 333.66,
            "duration": 3.96
        },
        {
            "text": "other person's like I don't know how do",
            "start": 336.18,
            "duration": 4.44
        },
        {
            "text": "I find it on americanononline.net dude",
            "start": 337.62,
            "duration": 6.0
        },
        {
            "text": "it was so much fun it was so fun back",
            "start": 340.62,
            "duration": 5.4
        },
        {
            "text": "then dude it was so good it was so good",
            "start": 343.62,
            "duration": 4.019
        },
        {
            "text": "tell me it was not good and your mom",
            "start": 346.02,
            "duration": 4.08
        },
        {
            "text": "picks up the phone ruins the game the",
            "start": 347.639,
            "duration": 4.921
        },
        {
            "text": "whole game is ruined our Punch Cards",
            "start": 350.1,
            "duration": 4.08
        },
        {
            "text": "obsolete I mean I wouldn't be surprised",
            "start": 352.56,
            "duration": 3.9
        },
        {
            "text": "uh I'm sure they're I'm sure I'm",
            "start": 354.18,
            "duration": 4.38
        },
        {
            "text": "positive they're they're absolutely",
            "start": 356.46,
            "duration": 4.56
        },
        {
            "text": "obsolete there's things like Cobalt",
            "start": 358.56,
            "duration": 4.8
        },
        {
            "text": "which stuck around for a long time but",
            "start": 361.02,
            "duration": 3.959
        },
        {
            "text": "there absolutely is your name from talk",
            "start": 363.36,
            "duration": 3.48
        },
        {
            "text": "to absolutely but they're definitely not",
            "start": 364.979,
            "duration": 4.021
        },
        {
            "text": "from uh like Punch Cards definitely got",
            "start": 366.84,
            "duration": 4.56
        },
        {
            "text": "obsoleted pretty pretty fast",
            "start": 369.0,
            "duration": 4.56
        },
        {
            "text": "we're Zoomer bruh I know you little",
            "start": 371.4,
            "duration": 3.54
        },
        {
            "text": "Zoomers you don't even know all right",
            "start": 373.56,
            "duration": 3.54
        },
        {
            "text": "let's see Chad thinks it is not this is",
            "start": 374.94,
            "duration": 4.319
        },
        {
            "text": "this is somewhat controversial I think",
            "start": 377.1,
            "duration": 4.56
        },
        {
            "text": "it is obsolete I think the languages",
            "start": 379.259,
            "duration": 5.401
        },
        {
            "text": "should have been merged into one so that",
            "start": 381.66,
            "duration": 4.8
        },
        {
            "text": "c would have been a subset of C plus",
            "start": 384.66,
            "duration": 3.78
        },
        {
            "text": "plus instead of nearly a subset of C",
            "start": 386.46,
            "duration": 5.22
        },
        {
            "text": "plus plus and then I thought C was a",
            "start": 388.44,
            "duration": 4.979
        },
        {
            "text": "subset of C plus plus",
            "start": 391.68,
            "duration": 3.78
        },
        {
            "text": "what isn't a subset does anyone know",
            "start": 393.419,
            "duration": 4.081
        },
        {
            "text": "what thing can you do and see that you",
            "start": 395.46,
            "duration": 4.32
        },
        {
            "text": "can't do in C plus plus no I'm not 34",
            "start": 397.5,
            "duration": 5.699
        },
        {
            "text": "I'm 37. I'm 37 next week his hair is",
            "start": 399.78,
            "duration": 6.539
        },
        {
            "text": "obsolete got him hmm people could have",
            "start": 403.199,
            "duration": 5.641
        },
        {
            "text": "used whatever parts of the C plus tool",
            "start": 406.319,
            "duration": 3.861
        },
        {
            "text": "set they needed",
            "start": 408.84,
            "duration": 3.68
        },
        {
            "text": "as it is now there's still enough",
            "start": 410.18,
            "duration": 4.239
        },
        {
            "text": "incompatibilities that you have to",
            "start": 412.52,
            "duration": 3.82
        },
        {
            "text": "remember which language you're you're",
            "start": 414.419,
            "duration": 3.0
        },
        {
            "text": "riding in",
            "start": 416.34,
            "duration": 4.62
        },
        {
            "text": "and I don't think that is necessary I",
            "start": 417.419,
            "duration": 5.4
        },
        {
            "text": "write some C plus plus for Netflix and I",
            "start": 420.96,
            "duration": 3.6
        },
        {
            "text": "usually just write my C plus plus a c",
            "start": 422.819,
            "duration": 3.481
        },
        {
            "text": "I've I've never thought about what",
            "start": 424.56,
            "duration": 3.6
        },
        {
            "text": "language I'm in",
            "start": 426.3,
            "duration": 4.38
        },
        {
            "text": "I just I didn't even realize that it",
            "start": 428.16,
            "duration": 4.979
        },
        {
            "text": "appears to be historical necessity but",
            "start": 430.68,
            "duration": 4.56
        },
        {
            "text": "it's not a technical necessity",
            "start": 433.139,
            "duration": 4.56
        },
        {
            "text": "I've argued for compatibility very",
            "start": 435.24,
            "duration": 6.12
        },
        {
            "text": "strong compatibility all the time",
            "start": 437.699,
            "duration": 6.0
        },
        {
            "text": "I mean I I started working on C plus",
            "start": 441.36,
            "duration": 4.5
        },
        {
            "text": "plus Three Doors Down from Dennis",
            "start": 443.699,
            "duration": 4.5
        },
        {
            "text": "Ritchie and we were talking every day",
            "start": 445.86,
            "duration": 5.58
        },
        {
            "text": "it's the the the competition and tension",
            "start": 448.199,
            "duration": 5.461
        },
        {
            "text": "that has been between CNC plus plus over",
            "start": 451.44,
            "duration": 4.62
        },
        {
            "text": "the decades uh certain didn't come from",
            "start": 453.66,
            "duration": 4.14
        },
        {
            "text": "home",
            "start": 456.06,
            "duration": 5.22
        },
        {
            "text": "um well I don't know",
            "start": 457.8,
            "duration": 5.1
        },
        {
            "text": "you know",
            "start": 461.28,
            "duration": 4.319
        },
        {
            "text": "I like C I mean granted there's things I",
            "start": 462.9,
            "duration": 4.199
        },
        {
            "text": "like about C plus plus that I think just",
            "start": 465.599,
            "duration": 3.481
        },
        {
            "text": "makes life a little bit easier",
            "start": 467.099,
            "duration": 4.561
        },
        {
            "text": "obviously just basic generic templating",
            "start": 469.08,
            "duration": 5.88
        },
        {
            "text": "for for container types is is great",
            "start": 471.66,
            "duration": 4.8
        },
        {
            "text": "right we watched that video just like",
            "start": 474.96,
            "duration": 3.48
        },
        {
            "text": "two days ago where someone built a",
            "start": 476.46,
            "duration": 3.959
        },
        {
            "text": "series of macros to be able the generic",
            "start": 478.44,
            "duration": 4.319
        },
        {
            "text": "template out container types which just",
            "start": 480.419,
            "duration": 5.821
        },
        {
            "text": "feels which just feels crazy right but",
            "start": 482.759,
            "duration": 6.241
        },
        {
            "text": "at the same time like I really like I",
            "start": 486.24,
            "duration": 5.1
        },
        {
            "text": "like that can we all agree that that",
            "start": 489.0,
            "duration": 4.02
        },
        {
            "text": "part is good I don't know I always",
            "start": 491.34,
            "duration": 3.0
        },
        {
            "text": "wonder because there's this whole thing",
            "start": 493.02,
            "duration": 2.64
        },
        {
            "text": "I've been kind of thinking about which",
            "start": 494.34,
            "duration": 3.72
        },
        {
            "text": "is simpler is better",
            "start": 495.66,
            "duration": 4.74
        },
        {
            "text": "but is it always better or is it only",
            "start": 498.06,
            "duration": 3.359
        },
        {
            "text": "better",
            "start": 500.4,
            "duration": 2.82
        },
        {
            "text": "some of the times I've never been in the",
            "start": 501.419,
            "duration": 2.941
        },
        {
            "text": "scenario where I wanted to do something",
            "start": 503.22,
            "duration": 3.599
        },
        {
            "text": "and see that I needed C plus plus four I",
            "start": 504.36,
            "duration": 3.779
        },
        {
            "text": "hate the overhead and the pain in the",
            "start": 506.819,
            "duration": 3.421
        },
        {
            "text": "ass syntax yeah I mean there's a lot of",
            "start": 508.139,
            "duration": 4.741
        },
        {
            "text": "there's a lot of things like see the",
            "start": 510.24,
            "duration": 6.06
        },
        {
            "text": "rules exist the undefined better or the",
            "start": 512.88,
            "duration": 4.86
        },
        {
            "text": "undefined better I read the word better",
            "start": 516.3,
            "duration": 3.84
        },
        {
            "text": "the undefined Behavior does exist",
            "start": 517.74,
            "duration": 5.28
        },
        {
            "text": "but it's so simple that for the most",
            "start": 520.14,
            "duration": 6.48
        },
        {
            "text": "part it feels easier but it also can be",
            "start": 523.02,
            "duration": 5.46
        },
        {
            "text": "a little bit uh a little a little ass",
            "start": 526.62,
            "duration": 3.719
        },
        {
            "text": "painting sometimes you know what I mean",
            "start": 528.48,
            "duration": 3.96
        },
        {
            "text": "I hate C for the lack of Ray it's so",
            "start": 530.339,
            "duration": 3.541
        },
        {
            "text": "annoying not to have it yeah I get that",
            "start": 532.44,
            "duration": 4.56
        },
        {
            "text": "that's why I I really do think Zig I",
            "start": 533.88,
            "duration": 5.459
        },
        {
            "text": "really think Zig has a really strong",
            "start": 537.0,
            "duration": 5.04
        },
        {
            "text": "potential to do something great you know",
            "start": 539.339,
            "duration": 5.161
        },
        {
            "text": "just use ocam I think ocam was great uh",
            "start": 542.04,
            "duration": 4.5
        },
        {
            "text": "get in the van loser undefined Behavior",
            "start": 544.5,
            "duration": 4.98
        },
        {
            "text": "again the van loser I think Zig has a",
            "start": 546.54,
            "duration": 4.68
        },
        {
            "text": "really big potential to do an awesome",
            "start": 549.48,
            "duration": 3.359
        },
        {
            "text": "thing you know what I mean and so that's",
            "start": 551.22,
            "duration": 3.36
        },
        {
            "text": "why I really like that and I'd like to",
            "start": 552.839,
            "duration": 3.661
        },
        {
            "text": "continue thinking more about Zig",
            "start": 554.58,
            "duration": 3.84
        },
        {
            "text": "regularly because I really think that it",
            "start": 556.5,
            "duration": 4.2
        },
        {
            "text": "has it has the power to do all the",
            "start": 558.42,
            "duration": 5.46
        },
        {
            "text": "things C does just without the",
            "start": 560.7,
            "duration": 5.4
        },
        {
            "text": "inconveniences of C",
            "start": 563.88,
            "duration": 5.459
        },
        {
            "text": "you know what I mean I like it I like it",
            "start": 566.1,
            "duration": 5.76
        },
        {
            "text": "no Denise Richie wrote that first book",
            "start": 569.339,
            "duration": 4.741
        },
        {
            "text": "with Brian Cunningham I'll have I have",
            "start": 571.86,
            "duration": 4.68
        },
        {
            "text": "dinner with Brian next week we're still",
            "start": 574.08,
            "duration": 4.439
        },
        {
            "text": "very good friends as we've always been",
            "start": 576.54,
            "duration": 5.04
        },
        {
            "text": "but sometimes the programmers of the",
            "start": 578.519,
            "duration": 6.241
        },
        {
            "text": "languages don't quite see it that way",
            "start": 581.58,
            "duration": 6.62
        },
        {
            "text": "um this showed up in one language",
            "start": 584.76,
            "duration": 3.44
        },
        {
            "text": "you see that little bit of pain in his",
            "start": 589.74,
            "duration": 5.64
        },
        {
            "text": "eye at the very end when he was like",
            "start": 591.42,
            "duration": 7.14
        },
        {
            "text": "it should have been one language",
            "start": 595.38,
            "duration": 5.84
        },
        {
            "text": "I wonder",
            "start": 598.56,
            "duration": 2.66
        },
        {
            "text": "I feel like I I again I I really think C",
            "start": 601.56,
            "duration": 6.959
        },
        {
            "text": "or Zig is the is the true spiritual",
            "start": 605.3,
            "duration": 5.32
        },
        {
            "text": "successor to see",
            "start": 608.519,
            "duration": 3.661
        },
        {
            "text": "it feels right",
            "start": 610.62,
            "duration": 4.14
        },
        {
            "text": "C plus plus 23 do you mean uh rust no C",
            "start": 612.18,
            "duration": 5.219
        },
        {
            "text": "plus plus 23 will come out in 2030. I",
            "start": 614.76,
            "duration": 3.84
        },
        {
            "text": "don't know V like the problem about",
            "start": 617.399,
            "duration": 3.301
        },
        {
            "text": "vlang is that it has a it has like a",
            "start": 618.6,
            "duration": 3.6
        },
        {
            "text": "really bad reputation that it still",
            "start": 620.7,
            "duration": 3.72
        },
        {
            "text": "needs to get over I still remember doing",
            "start": 622.2,
            "duration": 4.44
        },
        {
            "text": "doing some v-ling you know I was doing",
            "start": 624.42,
            "duration": 4.74
        },
        {
            "text": "some v-ling hard hard lines of e-ling",
            "start": 626.64,
            "duration": 4.74
        },
        {
            "text": "and I got into it and I started using",
            "start": 629.16,
            "duration": 3.299
        },
        {
            "text": "and everyone was telling me that it's",
            "start": 631.38,
            "duration": 3.0
        },
        {
            "text": "incredible and it's absolutely the",
            "start": 632.459,
            "duration": 3.541
        },
        {
            "text": "language of the future and it felt",
            "start": 634.38,
            "duration": 4.26
        },
        {
            "text": "really good like I liked the feel of",
            "start": 636.0,
            "duration": 5.82
        },
        {
            "text": "v-laying but right into it I couldn't",
            "start": 638.64,
            "duration": 4.98
        },
        {
            "text": "even make a linked list the generics",
            "start": 641.82,
            "duration": 3.06
        },
        {
            "text": "were so broken",
            "start": 643.62,
            "duration": 3.779
        },
        {
            "text": "and so it's like what do I do with that",
            "start": 644.88,
            "duration": 5.579
        },
        {
            "text": "vlang 4.0 was just or a 0.4 yeah sounds",
            "start": 647.399,
            "duration": 5.101
        },
        {
            "text": "like rust I know it was like rust except",
            "start": 650.459,
            "duration": 4.681
        },
        {
            "text": "for you just couldn't do a linked list",
            "start": 652.5,
            "duration": 5.3
        },
        {
            "text": "at all uh",
            "start": 655.14,
            "duration": 2.66
        }
    ],
    "stats": {
        "viewCount": "151507",
        "likeCount": "4431",
        "favoriteCount": "0",
        "commentCount": "954"
    }
}