{
    "id": "Ld8fYInYVQo",
    "title": "This is incredible",
    "publishedAt": "2024-02-15T22:31:04Z",
    "captions": [
        {
            "text": "all right so open AI just introduced",
            "start": 0.04,
            "duration": 5.839
        },
        {
            "text": "Sora our text to video model Sora can",
            "start": 2.24,
            "duration": 6.16
        },
        {
            "text": "create videos up of up to 60 seconds",
            "start": 5.879,
            "duration": 4.88
        },
        {
            "text": "featuring highly detailed scenes complex",
            "start": 8.4,
            "duration": 4.08
        },
        {
            "text": "camera motion and multiple characters",
            "start": 10.759,
            "duration": 4.281
        },
        {
            "text": "with vibrant emotions all right I have",
            "start": 12.48,
            "duration": 4.48
        },
        {
            "text": "that on the upload prompt beautiful",
            "start": 15.04,
            "duration": 4.84
        },
        {
            "text": "snowy Tokyo City bust uh is bustling the",
            "start": 16.96,
            "duration": 4.72
        },
        {
            "text": "camera moves through the bustling city",
            "start": 19.88,
            "duration": 3.479
        },
        {
            "text": "streets following several people",
            "start": 21.68,
            "duration": 3.439
        },
        {
            "text": "enjoying the beautiful snowy weather and",
            "start": 23.359,
            "duration": 4.601
        },
        {
            "text": "shopping at nearby stalls gorgeous",
            "start": 25.119,
            "duration": 5.441
        },
        {
            "text": "Sakura petals are flying through the",
            "start": 27.96,
            "duration": 5.2
        },
        {
            "text": "wind along with the snowflakes I believe",
            "start": 30.56,
            "duration": 4.48
        },
        {
            "text": "they didn't say the city was busing",
            "start": 33.16,
            "duration": 4.32
        },
        {
            "text": "that's I mean what what kind of AI model",
            "start": 35.04,
            "duration": 4.72
        },
        {
            "text": "is this okay so what we're looking at",
            "start": 37.48,
            "duration": 4.48
        },
        {
            "text": "right here is is shocking this is not",
            "start": 39.76,
            "duration": 5.88
        },
        {
            "text": "will this is not Will Smith eating",
            "start": 41.96,
            "duration": 6.72
        },
        {
            "text": "spaghetti and so this one I so this",
            "start": 45.64,
            "duration": 5.28
        },
        {
            "text": "one's crazy but there's one or two I",
            "start": 48.68,
            "duration": 4.16
        },
        {
            "text": "just briefly skimm the article where I",
            "start": 50.92,
            "duration": 3.639
        },
        {
            "text": "think your mind is going to be blown if",
            "start": 52.84,
            "duration": 5.76
        },
        {
            "text": "you're thinking about previous gen AI",
            "start": 54.559,
            "duration": 6.281
        },
        {
            "text": "video but this",
            "start": 58.6,
            "duration": 4.279
        },
        {
            "text": "Kind video like just the previous",
            "start": 60.84,
            "duration": 4.88
        },
        {
            "text": "generation of AI yeah video I mean",
            "start": 62.879,
            "duration": 4.401
        },
        {
            "text": "obviously there was like like if you",
            "start": 65.72,
            "duration": 3.039
        },
        {
            "text": "okay oh check this out so I did catch",
            "start": 67.28,
            "duration": 3.08
        },
        {
            "text": "something that was a little awkward",
            "start": 68.759,
            "duration": 4.761
        },
        {
            "text": "watch this girl walking yep for a second",
            "start": 70.36,
            "duration": 4.799
        },
        {
            "text": "and you'll notice that it gets really",
            "start": 73.52,
            "duration": 3.8
        },
        {
            "text": "odd with the perspectives right here",
            "start": 75.159,
            "duration": 3.64
        },
        {
            "text": "like look at this she's like walking on",
            "start": 77.32,
            "duration": 3.64
        },
        {
            "text": "top of whatever that is she like kind of",
            "start": 78.799,
            "duration": 3.921
        },
        {
            "text": "flows through that thing so it just",
            "start": 80.96,
            "duration": 4.08
        },
        {
            "text": "looks awkward and then then it kind of",
            "start": 82.72,
            "duration": 3.719
        },
        {
            "text": "looks more normal now but still there",
            "start": 85.04,
            "duration": 2.92
        },
        {
            "text": "was like that awkward weirdness there",
            "start": 86.439,
            "duration": 4.081
        },
        {
            "text": "for a second yep and there like too tall",
            "start": 87.96,
            "duration": 4.479
        },
        {
            "text": "for some stuff like look how much taller",
            "start": 90.52,
            "duration": 5.32
        },
        {
            "text": "they are than but even so you typed in a",
            "start": 92.439,
            "duration": 5.68
        },
        {
            "text": "paragraph and they got this this is",
            "start": 95.84,
            "duration": 4.319
        },
        {
            "text": "crazy yeah like look at these poor",
            "start": 98.119,
            "duration": 3.841
        },
        {
            "text": "little steaks right here right here",
            "start": 100.159,
            "duration": 3.481
        },
        {
            "text": "they're like the size of her thumb like",
            "start": 101.96,
            "duration": 3.4
        },
        {
            "text": "who who eats a steak that big look at",
            "start": 103.64,
            "duration": 3.519
        },
        {
            "text": "that little steak maybe they're just",
            "start": 105.36,
            "duration": 3.399
        },
        {
            "text": "Giants I guess we don't really know they",
            "start": 107.159,
            "duration": 3.96
        },
        {
            "text": "didn't say regular sized humans to be",
            "start": 108.759,
            "duration": 4.241
        },
        {
            "text": "fair to be fair they did okay so you're",
            "start": 111.119,
            "duration": 3.081
        },
        {
            "text": "saying that there's some other ones like",
            "start": 113.0,
            "duration": 3.799
        },
        {
            "text": "this uh this one so go to the go to the",
            "start": 114.2,
            "duration": 4.959
        },
        {
            "text": "actual like blog post from the top oh we",
            "start": 116.799,
            "duration": 4.041
        },
        {
            "text": "got one more video we got one more video",
            "start": 119.159,
            "duration": 4.081
        },
        {
            "text": "look at that",
            "start": 120.84,
            "duration": 2.4
        },
        {
            "text": "one that actually looks pretty",
            "start": 123.799,
            "duration": 5.401
        },
        {
            "text": "good",
            "start": 126.2,
            "duration": 3.0
        },
        {
            "text": "yeah that's what was the prompt for this",
            "start": 130.56,
            "duration": 5.56
        },
        {
            "text": "that one was several giant woolly",
            "start": 134.04,
            "duration": 3.76
        },
        {
            "text": "mammoths approach treading through a",
            "start": 136.12,
            "duration": 4.64
        },
        {
            "text": "snowy Meadow their long woolly F fur",
            "start": 137.8,
            "duration": 4.799
        },
        {
            "text": "lightly blows in the wind as they walk",
            "start": 140.76,
            "duration": 3.199
        },
        {
            "text": "snow covered trees and dramatic",
            "start": 142.599,
            "duration": 3.041
        },
        {
            "text": "snowcapped mountains in the distance",
            "start": 143.959,
            "duration": 4.241
        },
        {
            "text": "midafternoon light with wispy clouds and",
            "start": 145.64,
            "duration": 6.0
        },
        {
            "text": "a sun high in the distance",
            "start": 148.2,
            "duration": 5.24
        },
        {
            "text": "there's no wispy clouds they somehow got",
            "start": 151.64,
            "duration": 4.12
        },
        {
            "text": "wispy clouds meaning these these guys",
            "start": 153.44,
            "duration": 5.159
        },
        {
            "text": "are admitting just just admit what",
            "start": 155.76,
            "duration": 4.52
        },
        {
            "text": "appears to be a volcano in the",
            "start": 158.599,
            "duration": 3.961
        },
        {
            "text": "background mmoths are creating the",
            "start": 160.28,
            "duration": 3.92
        },
        {
            "text": "clouds it did get a little bit confused",
            "start": 162.56,
            "duration": 3.88
        },
        {
            "text": "about that yeah it did okay so let's",
            "start": 164.2,
            "duration": 4.0
        },
        {
            "text": "here I got I got the article up let's",
            "start": 166.44,
            "duration": 3.0
        },
        {
            "text": "look at this",
            "start": 168.2,
            "duration": 5.64
        },
        {
            "text": "article creating video from text okay",
            "start": 169.44,
            "duration": 5.879
        },
        {
            "text": "all videos of this page were generated",
            "start": 173.84,
            "duration": 3.479
        },
        {
            "text": "directly by Sora without",
            "start": 175.319,
            "duration": 5.241
        },
        {
            "text": "modification oh cool that's cool",
            "start": 177.319,
            "duration": 5.801
        },
        {
            "text": "yeah oh dang oh D the crazy thing is",
            "start": 180.56,
            "duration": 4.64
        },
        {
            "text": "without modification you know like even",
            "start": 183.12,
            "duration": 5.479
        },
        {
            "text": "if they're handpicking it's still wild",
            "start": 185.2,
            "duration": 7.16
        },
        {
            "text": "yeah still with no",
            "start": 188.599,
            "duration": 3.761
        },
        {
            "text": "modification really this is this is what",
            "start": 192.599,
            "duration": 6.161
        },
        {
            "text": "so this is where I was like I don't know",
            "start": 197.04,
            "duration": 3.36
        },
        {
            "text": "why they picked the one of them walking",
            "start": 198.76,
            "duration": 6.16
        },
        {
            "text": "in the town even just this first one",
            "start": 200.4,
            "duration": 6.64
        },
        {
            "text": "crazy yeah this one definitely has like",
            "start": 204.92,
            "duration": 3.84
        },
        {
            "text": "uncanny valley with her feet on the",
            "start": 207.04,
            "duration": 4.52
        },
        {
            "text": "ground but besides for that like",
            "start": 208.76,
            "duration": 4.759
        },
        {
            "text": "perspective obviously is really",
            "start": 211.56,
            "duration": 7.28
        },
        {
            "text": "hard but dang but if you wanted they",
            "start": 213.519,
            "duration": 6.8
        },
        {
            "text": "they're literally doing art perspective",
            "start": 218.84,
            "duration": 2.88
        },
        {
            "text": "from a seventh grader but everything",
            "start": 220.319,
            "duration": 4.2
        },
        {
            "text": "else is incredible but like it so okay",
            "start": 221.72,
            "duration": 4.599
        },
        {
            "text": "it's like okay so their feet clip poorly",
            "start": 224.519,
            "duration": 3.601
        },
        {
            "text": "with the ground all right so just zoom",
            "start": 226.319,
            "duration": 5.241
        },
        {
            "text": "the video in 15% and you're done you",
            "start": 228.12,
            "duration": 5.119
        },
        {
            "text": "know what I",
            "start": 231.56,
            "duration": 4.36
        },
        {
            "text": "mean I guess you wouldn't have been able",
            "start": 233.239,
            "duration": 4.401
        },
        {
            "text": "to tell me that right here this was a",
            "start": 235.92,
            "duration": 2.76
        },
        {
            "text": "fake",
            "start": 237.64,
            "duration": 2.72
        },
        {
            "text": "person",
            "start": 238.68,
            "duration": 3.199
        },
        {
            "text": "and the crazy thing is like the",
            "start": 240.36,
            "duration": 3.84
        },
        {
            "text": "reflections so this is the thing that's",
            "start": 241.879,
            "duration": 6.44
        },
        {
            "text": "like really blowing my mind right now is",
            "start": 244.2,
            "duration": 6.599
        },
        {
            "text": "everything I've seen up until now for",
            "start": 248.319,
            "duration": 6.721
        },
        {
            "text": "like AI video stuff right they can never",
            "start": 250.799,
            "duration": 6.201
        },
        {
            "text": "figure out like what it means for",
            "start": 255.04,
            "duration": 4.08
        },
        {
            "text": "something to be a reflection or like for",
            "start": 257.0,
            "duration": 4.0
        },
        {
            "text": "things to interact in an environment at",
            "start": 259.12,
            "duration": 3.88
        },
        {
            "text": "all basically you know what I'm saying",
            "start": 261.0,
            "duration": 3.96
        },
        {
            "text": "this is wild the reflection in the",
            "start": 263.0,
            "duration": 4.199
        },
        {
            "text": "glasses yeah and this like see the dark",
            "start": 264.96,
            "duration": 4.04
        },
        {
            "text": "part right here versus the two bright",
            "start": 267.199,
            "duration": 4.681
        },
        {
            "text": "spots on both sides mhm so it does like",
            "start": 269.0,
            "duration": 4.72
        },
        {
            "text": "kind of actually make it happen",
            "start": 271.88,
            "duration": 5.039
        },
        {
            "text": "this like actually so it's like sure you",
            "start": 273.72,
            "duration": 5.6
        },
        {
            "text": "can find problems with it but also if",
            "start": 276.919,
            "duration": 4.681
        },
        {
            "text": "you're like watching a movie you're not",
            "start": 279.32,
            "duration": 3.56
        },
        {
            "text": "actually looking at the background",
            "start": 281.6,
            "duration": 2.68
        },
        {
            "text": "people like you know there's like all",
            "start": 282.88,
            "duration": 3.12
        },
        {
            "text": "those videos on YouTube of people like",
            "start": 284.28,
            "duration": 4.44
        },
        {
            "text": "picking apart random background actors y",
            "start": 286.0,
            "duration": 4.44
        },
        {
            "text": "or stuff it's like yeah well you never",
            "start": 288.72,
            "duration": 3.16
        },
        {
            "text": "noticed cuz you're watching the thing",
            "start": 290.44,
            "duration": 3.039
        },
        {
            "text": "that's in the middle of the screen",
            "start": 291.88,
            "duration": 3.759
        },
        {
            "text": "that's fact teenage wolf did you ever",
            "start": 293.479,
            "duration": 3.321
        },
        {
            "text": "watch teenage wolf I believe with",
            "start": 295.639,
            "duration": 3.201
        },
        {
            "text": "Michael J fox I think he was the teenage",
            "start": 296.8,
            "duration": 3.839
        },
        {
            "text": "wolf",
            "start": 298.84,
            "duration": 3.44
        },
        {
            "text": "High School wolf something like that did",
            "start": 300.639,
            "duration": 4.601
        },
        {
            "text": "I just become tiny you did uh TJ are you",
            "start": 302.28,
            "duration": 5.72
        },
        {
            "text": "tiny oh man T oh crap I did that my bad",
            "start": 305.24,
            "duration": 6.399
        },
        {
            "text": "my bad my bad here bring it bring",
            "start": 308.0,
            "duration": 5.52
        },
        {
            "text": "they're finding out dude it's an AI",
            "start": 311.639,
            "duration": 3.761
        },
        {
            "text": "don't let them know AI filter this whole",
            "start": 313.52,
            "duration": 3.519
        },
        {
            "text": "time so anyways the show with I believe",
            "start": 315.4,
            "duration": 3.2
        },
        {
            "text": "Michael J fox it's like high school",
            "start": 317.039,
            "duration": 3.481
        },
        {
            "text": "werewolf or something along those lines",
            "start": 318.6,
            "duration": 4.28
        },
        {
            "text": "I don't know show a guy in the",
            "start": 320.52,
            "duration": 4.519
        },
        {
            "text": "background uh during the official",
            "start": 322.88,
            "duration": 5.039
        },
        {
            "text": "release drops trout runs during the",
            "start": 325.039,
            "duration": 5.641
        },
        {
            "text": "final scene just dick out in everything",
            "start": 327.919,
            "duration": 5.481
        },
        {
            "text": "it I mean it's in movie theaters it's",
            "start": 330.68,
            "duration": 6.639
        },
        {
            "text": "it's fantastic no way yeah you got to go",
            "start": 333.4,
            "duration": 4.88
        },
        {
            "text": "check it out it's pretty funny because",
            "start": 337.319,
            "duration": 2.841
        },
        {
            "text": "you know it's like a classic High School",
            "start": 338.28,
            "duration": 3.919
        },
        {
            "text": "like basketball game or something that",
            "start": 340.16,
            "duration": 4.0
        },
        {
            "text": "they all do and then just some dude in",
            "start": 342.199,
            "duration": 5.401
        },
        {
            "text": "the background just just just raging",
            "start": 344.16,
            "duration": 6.0
        },
        {
            "text": "just raging it out okay that's crazy",
            "start": 347.6,
            "duration": 4.8
        },
        {
            "text": "that's so good all right but then",
            "start": 350.16,
            "duration": 3.8
        },
        {
            "text": "there's like a ton of other ones from",
            "start": 352.4,
            "duration": 3.32
        },
        {
            "text": "here too like it did it not have the",
            "start": 353.96,
            "duration": 3.4
        },
        {
            "text": "left and right arrows on that one or no",
            "start": 355.72,
            "duration": 4.199
        },
        {
            "text": "I don't remember uh I don't see any left",
            "start": 357.36,
            "duration": 5.04
        },
        {
            "text": "oh yeah oh oh yeah yeah there's more",
            "start": 359.919,
            "duration": 5.241
        },
        {
            "text": "okay there's the bully",
            "start": 362.4,
            "duration": 2.76
        },
        {
            "text": "mammoths and the prompt for this is just",
            "start": 370.4,
            "duration": 4.639
        },
        {
            "text": "a movie trailer right and it like says",
            "start": 372.68,
            "duration": 5.28
        },
        {
            "text": "stuff and it remembers all the things",
            "start": 375.039,
            "duration": 4.88
        },
        {
            "text": "this also makes me question like how is",
            "start": 377.96,
            "duration": 3.959
        },
        {
            "text": "chat GPT not able to write my code",
            "start": 379.919,
            "duration": 3.641
        },
        {
            "text": "anymore you know what I'm saying like",
            "start": 381.919,
            "duration": 4.201
        },
        {
            "text": "how are we I'll I'll tell you why chat",
            "start": 383.56,
            "duration": 5.6
        },
        {
            "text": "GPT can do this but not be able to write",
            "start": 386.12,
            "duration": 6.079
        },
        {
            "text": "your it's actually really simple yeah",
            "start": 389.16,
            "duration": 5.4
        },
        {
            "text": "it's it's very very simple when it comes",
            "start": 392.199,
            "duration": 5.12
        },
        {
            "text": "to your eyeballs you actually have quite",
            "start": 394.56,
            "duration": 4.12
        },
        {
            "text": "a bit of",
            "start": 397.319,
            "duration": 4.681
        },
        {
            "text": "leeway uh if if you drop one frame and",
            "start": 398.68,
            "duration": 4.919
        },
        {
            "text": "it and you're going from say 60 frames",
            "start": 402.0,
            "duration": 4.16
        },
        {
            "text": "to 59 frames most people can't even",
            "start": 403.599,
            "duration": 5.72
        },
        {
            "text": "notice it at all like 99.9% only the",
            "start": 406.16,
            "duration": 4.84
        },
        {
            "text": "only the 14-year-olds thinking they're",
            "start": 409.319,
            "duration": 5.0
        },
        {
            "text": "ninja you know snorting uh Aderall those",
            "start": 411.0,
            "duration": 5.0
        },
        {
            "text": "are the only ones that actually can tell",
            "start": 414.319,
            "duration": 4.121
        },
        {
            "text": "when something is dropped and so your",
            "start": 416.0,
            "duration": 4.479
        },
        {
            "text": "your eyes are very very willing to let",
            "start": 418.44,
            "duration": 4.12
        },
        {
            "text": "go of things whereas if they tried to do",
            "start": 420.479,
            "duration": 4.12
        },
        {
            "text": "sound you would hear a lot more of it",
            "start": 422.56,
            "duration": 4.56
        },
        {
            "text": "but code requires 100% Precision there's",
            "start": 424.599,
            "duration": 5.801
        },
        {
            "text": "no you can't get it 85% correct it just",
            "start": 427.12,
            "duration": 5.12
        },
        {
            "text": "doesn't work that's true and so this",
            "start": 430.4,
            "duration": 3.44
        },
        {
            "text": "thing even though if it's like 90%",
            "start": 432.24,
            "duration": 2.84
        },
        {
            "text": "correct like that guy walking in the",
            "start": 433.84,
            "duration": 3.28
        },
        {
            "text": "background then he's just gone like",
            "start": 435.08,
            "duration": 4.239
        },
        {
            "text": "that's effing up the whole thing the",
            "start": 437.12,
            "duration": 3.6
        },
        {
            "text": "whole thing's broken code doesn't work",
            "start": 439.319,
            "duration": 3.361
        },
        {
            "text": "unless it was supposed to be like that",
            "start": 440.72,
            "duration": 3.56
        },
        {
            "text": "but yes",
            "start": 442.68,
            "duration": 4.04
        },
        {
            "text": "yeah okay that looks real I would have",
            "start": 444.28,
            "duration": 4.72
        },
        {
            "text": "just assumed this is real to be fair",
            "start": 446.72,
            "duration": 4.039
        },
        {
            "text": "that one could be literally just a copy",
            "start": 449.0,
            "duration": 2.919
        },
        {
            "text": "of a real",
            "start": 450.759,
            "duration": 3.761
        },
        {
            "text": "video copyright just real video right",
            "start": 451.919,
            "duration": 5.921
        },
        {
            "text": "there yeah yeah that is crazy though",
            "start": 454.52,
            "duration": 4.76
        },
        {
            "text": "yeah the water is really good I guess",
            "start": 457.84,
            "duration": 4.079
        },
        {
            "text": "that makes sense because in a sense like",
            "start": 459.28,
            "duration": 7.319
        },
        {
            "text": "water is so chaotic and so and so like",
            "start": 461.919,
            "duration": 7.72
        },
        {
            "text": "you you can't really tell it's probably",
            "start": 466.599,
            "duration": 5.0
        },
        {
            "text": "too complex for my eyeballs to really",
            "start": 469.639,
            "duration": 3.641
        },
        {
            "text": "understand that it's wrong right and",
            "start": 471.599,
            "duration": 2.961
        },
        {
            "text": "your brain kind of is just like yeah",
            "start": 473.28,
            "duration": 3.319
        },
        {
            "text": "it's water hitting stuff like",
            "start": 474.56,
            "duration": 4.52
        },
        {
            "text": "okay okay that seems fine yeah I've seen",
            "start": 476.599,
            "duration": 4.72
        },
        {
            "text": "that",
            "start": 479.08,
            "duration": 2.239
        },
        {
            "text": "rip",
            "start": 483.8,
            "duration": 4.16
        },
        {
            "text": "Pixar yeah Pixar's",
            "start": 485.4,
            "duration": 4.96
        },
        {
            "text": "dead I mean they their flame kind of",
            "start": 487.96,
            "duration": 4.799
        },
        {
            "text": "sucked I I'll I'll give you that Flame's",
            "start": 490.36,
            "duration": 3.44
        },
        {
            "text": "not that",
            "start": 492.759,
            "duration": 3.361
        },
        {
            "text": "great all right so it looks like",
            "start": 493.8,
            "duration": 3.48
        },
        {
            "text": "everything's pretty good oh this one's",
            "start": 496.12,
            "duration": 2.72
        },
        {
            "text": "really cool with the paper that's that's",
            "start": 497.28,
            "duration": 4.039
        },
        {
            "text": "pretty cool these paper model Styles",
            "start": 498.84,
            "duration": 3.96
        },
        {
            "text": "that's super cool that's really really",
            "start": 501.319,
            "duration": 4.361
        },
        {
            "text": "it be so cool to see people like mix art",
            "start": 502.8,
            "duration": 4.56
        },
        {
            "text": "styles of",
            "start": 505.68,
            "duration": 4.84
        },
        {
            "text": "things so today is becoming available to",
            "start": 507.36,
            "duration": 5.679
        },
        {
            "text": "Red teamers to assess critical areas for",
            "start": 510.52,
            "duration": 4.999
        },
        {
            "text": "harms or",
            "start": 513.039,
            "duration": 5.48
        },
        {
            "text": "risks Pixar AR poster about to have its",
            "start": 515.519,
            "duration": 5.44
        },
        {
            "text": "own content let's go we are also",
            "start": 518.519,
            "duration": 4.481
        },
        {
            "text": "granting access to a number of visual",
            "start": 520.959,
            "duration": 3.961
        },
        {
            "text": "artists designers and filmmakers to gain",
            "start": 523.0,
            "duration": 3.72
        },
        {
            "text": "feedback on how to advance the model to",
            "start": 524.92,
            "duration": 5.64
        },
        {
            "text": "become to be most helpful for Creative",
            "start": 526.72,
            "duration": 6.0
        },
        {
            "text": "Professionals for that big strike they",
            "start": 530.56,
            "duration": 5.839
        },
        {
            "text": "all just had the like the writers and",
            "start": 532.72,
            "duration": 6.72
        },
        {
            "text": "Actors Guild and stuff oh well we before",
            "start": 536.399,
            "duration": 4.601
        },
        {
            "text": "we didn't really believe it was possible",
            "start": 539.44,
            "duration": 3.079
        },
        {
            "text": "but now we watched Sora so we're going",
            "start": 541.0,
            "duration": 3.64
        },
        {
            "text": "to go back on everything we said",
            "start": 542.519,
            "duration": 4.44
        },
        {
            "text": "before writer writer's Guild is like",
            "start": 544.64,
            "duration": 4.56
        },
        {
            "text": "we're never going to do this VFX people",
            "start": 546.959,
            "duration": 4.56
        },
        {
            "text": "are like oh what you got there what what",
            "start": 549.2,
            "duration": 5.36
        },
        {
            "text": "are you doing yeah I'm totally in for",
            "start": 551.519,
            "duration": 5.081
        },
        {
            "text": "this this is gonna cost so much money I",
            "start": 554.56,
            "duration": 6.279
        },
        {
            "text": "can't imagine that this is cheap I I I",
            "start": 556.6,
            "duration": 5.88
        },
        {
            "text": "don't I have no idea if they say in the",
            "start": 560.839,
            "duration": 4.24
        },
        {
            "text": "article or not but like how long did it",
            "start": 562.48,
            "duration": 5.96
        },
        {
            "text": "take to render a video Let's yeah that's",
            "start": 565.079,
            "duration": 4.561
        },
        {
            "text": "a good that's a good idea",
            "start": 568.44,
            "duration": 2.839
        },
        {
            "text": "uh we're sharing our research progress",
            "start": 569.64,
            "duration": 3.56
        },
        {
            "text": "early to start working with and getting",
            "start": 571.279,
            "duration": 4.041
        },
        {
            "text": "feedback from people outside of open Ai",
            "start": 573.2,
            "duration": 3.68
        },
        {
            "text": "and to give public sense of what AI is",
            "start": 575.32,
            "duration": 4.079
        },
        {
            "text": "capable or what AI capabilities are on",
            "start": 576.88,
            "duration": 4.639
        },
        {
            "text": "the horizon okay so there's all this",
            "start": 579.399,
            "duration": 3.721
        },
        {
            "text": "kind of stuff you have a bunch of this",
            "start": 581.519,
            "duration": 4.081
        },
        {
            "text": "okay super cool very complex scene you",
            "start": 583.12,
            "duration": 4.2
        },
        {
            "text": "know you would assume this is just right",
            "start": 585.6,
            "duration": 4.0
        },
        {
            "text": "out of Blazing Saddles would have no",
            "start": 587.32,
            "duration": 4.28
        },
        {
            "text": "idea that it's not all right s is able",
            "start": 589.6,
            "duration": 3.56
        },
        {
            "text": "to generate complex scenes with multiple",
            "start": 591.6,
            "duration": 3.08
        },
        {
            "text": "character specific types of motion and",
            "start": 593.16,
            "duration": 2.84
        },
        {
            "text": "accurate details of the subject and",
            "start": 594.68,
            "duration": 2.8
        },
        {
            "text": "background the model understands not",
            "start": 596.0,
            "duration": 3.959
        },
        {
            "text": "only what the users has asked for in the",
            "start": 597.48,
            "duration": 4.88
        },
        {
            "text": "prompt but also how these things exist",
            "start": 599.959,
            "duration": 3.681
        },
        {
            "text": "in the physical",
            "start": 602.36,
            "duration": 4.88
        },
        {
            "text": "world okay there's that perspective part",
            "start": 603.64,
            "duration": 5.96
        },
        {
            "text": "again it's not not very good about that",
            "start": 607.24,
            "duration": 4.0
        },
        {
            "text": "part oh it even shifted the car a little",
            "start": 609.6,
            "duration": 2.96
        },
        {
            "text": "bit going off the side that was okay",
            "start": 611.24,
            "duration": 4.279
        },
        {
            "text": "that was pretty impressive yeah we cycle",
            "start": 612.56,
            "duration": 5.8
        },
        {
            "text": "through some of these ones okay that",
            "start": 615.519,
            "duration": 5.041
        },
        {
            "text": "there's still like uh like there's still",
            "start": 618.36,
            "duration": 4.44
        },
        {
            "text": "okay CU this was the one that I saw that",
            "start": 620.56,
            "duration": 3.399
        },
        {
            "text": "blew my",
            "start": 622.8,
            "duration": 5.56
        },
        {
            "text": "mind whoa that was so good cuz I have",
            "start": 623.959,
            "duration": 7.0
        },
        {
            "text": "not seen",
            "start": 628.36,
            "duration": 5.2
        },
        {
            "text": "like a video that demonstrates this",
            "start": 630.959,
            "duration": 4.641
        },
        {
            "text": "capability of like the reflection and",
            "start": 633.56,
            "duration": 5.64
        },
        {
            "text": "keeping the subject the whole time yeah",
            "start": 635.6,
            "duration": 5.679
        },
        {
            "text": "super good that was s right there that",
            "start": 639.2,
            "duration": 3.6
        },
        {
            "text": "was super",
            "start": 641.279,
            "duration": 4.281
        },
        {
            "text": "good and and yeah everything about it is",
            "start": 642.8,
            "duration": 5.24
        },
        {
            "text": "just crazy like that it's distorted",
            "start": 645.56,
            "duration": 4.64
        },
        {
            "text": "right that it looks like it's from some",
            "start": 648.04,
            "duration": 4.72
        },
        {
            "text": "like you know IRL streamer camera and",
            "start": 650.2,
            "duration": 5.079
        },
        {
            "text": "then you see them in their one is yeah",
            "start": 652.76,
            "duration": 3.72
        },
        {
            "text": "she's holding a phone you can actually",
            "start": 655.279,
            "duration": 2.961
        },
        {
            "text": "see the phone right now and then it",
            "start": 656.48,
            "duration": 3.359
        },
        {
            "text": "comes into view and goes out that was",
            "start": 658.24,
            "duration": 5.0
        },
        {
            "text": "really good that that that one's pretty",
            "start": 659.839,
            "duration": 5.24
        },
        {
            "text": "crazy let's see if they have any more",
            "start": 663.24,
            "duration": 4.24
        },
        {
            "text": "that are pretty crazy this is just looks",
            "start": 665.079,
            "duration": 4.481
        },
        {
            "text": "like a standard",
            "start": 667.48,
            "duration": 4.56
        },
        {
            "text": "tourist D the you're going to be instead",
            "start": 669.56,
            "duration": 4.36
        },
        {
            "text": "of having to spend one billion dollars",
            "start": 672.04,
            "duration": 3.599
        },
        {
            "text": "to make rings of power maybe they can",
            "start": 673.92,
            "duration": 3.919
        },
        {
            "text": "like spend 500 million instead and have",
            "start": 675.639,
            "duration": 4.88
        },
        {
            "text": "it be just as",
            "start": 677.839,
            "duration": 2.68
        },
        {
            "text": "bad yeah that's all right they won't",
            "start": 681.76,
            "duration": 4.199
        },
        {
            "text": "have to go they won't have to go and",
            "start": 684.399,
            "duration": 3.321
        },
        {
            "text": "film things on set they can just do all",
            "start": 685.959,
            "duration": 3.88
        },
        {
            "text": "the big action scenes from there",
            "start": 687.72,
            "duration": 3.6
        },
        {
            "text": "what is",
            "start": 689.839,
            "duration": 4.401
        },
        {
            "text": "this so th these ones too are crazy",
            "start": 691.32,
            "duration": 5.959
        },
        {
            "text": "right because the prompt has two",
            "start": 694.24,
            "duration": 6.52
        },
        {
            "text": "different subjects so it's wild to see",
            "start": 697.279,
            "duration": 5.401
        },
        {
            "text": "them be able to track the two subjects",
            "start": 700.76,
            "duration": 3.639
        },
        {
            "text": "the whole time right cuz like I don't",
            "start": 702.68,
            "duration": 3.24
        },
        {
            "text": "know if you've tried to do prompting for",
            "start": 704.399,
            "duration": 3.761
        },
        {
            "text": "like image stuff before and then gets",
            "start": 705.92,
            "duration": 4.24
        },
        {
            "text": "off really quickly like like I want a",
            "start": 708.16,
            "duration": 3.84
        },
        {
            "text": "guy riding a camel and so then it always",
            "start": 710.16,
            "duration": 3.76
        },
        {
            "text": "makes like a dude with a camel face or",
            "start": 712.0,
            "duration": 3.0
        },
        {
            "text": "something like that right and you're",
            "start": 713.92,
            "duration": 4.2
        },
        {
            "text": "like no I wanted two subjects in the",
            "start": 715.0,
            "duration": 4.519
        },
        {
            "text": "picture like",
            "start": 718.12,
            "duration": 2.04
        },
        {
            "text": "you",
            "start": 719.519,
            "duration": 3.161
        },
        {
            "text": "know all right hold on let's see a large",
            "start": 720.16,
            "duration": 4.239
        },
        {
            "text": "orange octopus is seen wrestling on the",
            "start": 722.68,
            "duration": 3.839
        },
        {
            "text": "bottom of the ocean floor bending with",
            "start": 724.399,
            "duration": 4.201
        },
        {
            "text": "its oh my GNA stop moving oh gosh I",
            "start": 726.519,
            "duration": 7.12
        },
        {
            "text": "can't stop it hold on CSS is hard all",
            "start": 728.6,
            "duration": 7.32
        },
        {
            "text": "right there we go they've made AI video",
            "start": 733.639,
            "duration": 3.921
        },
        {
            "text": "but they cannot render the text on the",
            "start": 735.92,
            "duration": 3.96
        },
        {
            "text": "website dude the te well the text keeps",
            "start": 737.56,
            "duration": 4.639
        },
        {
            "text": "shifting because this counter right here",
            "start": 739.88,
            "duration": 3.639
        },
        {
            "text": "the counter slightly shifts and it",
            "start": 742.199,
            "duration": 3.041
        },
        {
            "text": "shifts everything uh with the Sandy",
            "start": 743.519,
            "duration": 3.281
        },
        {
            "text": "Rocky terrain it his tentacles are",
            "start": 745.24,
            "duration": 3.08
        },
        {
            "text": "spread out around its bodies and its",
            "start": 746.8,
            "duration": 3.52
        },
        {
            "text": "eyes are closed the octopus unaware of",
            "start": 748.32,
            "duration": 3.48
        },
        {
            "text": "the king crab that is crawling towards",
            "start": 750.32,
            "duration": 3.12
        },
        {
            "text": "it from behind the Rocks its claws",
            "start": 751.8,
            "duration": 4.52
        },
        {
            "text": "raised and ready to attack the crab is",
            "start": 753.44,
            "duration": 4.8
        },
        {
            "text": "brown and spiny with long legs and",
            "start": 756.32,
            "duration": 4.199
        },
        {
            "text": "antenni the scene is captured from a",
            "start": 758.24,
            "duration": 3.88
        },
        {
            "text": "wide angle showing the vastness and",
            "start": 760.519,
            "duration": 3.081
        },
        {
            "text": "depth of the ocean and the water is",
            "start": 762.12,
            "duration": 3.2
        },
        {
            "text": "clear and blue and the rays of sunlight",
            "start": 763.6,
            "duration": 3.76
        },
        {
            "text": "filter through the shot is sharp and",
            "start": 765.32,
            "duration": 3.6
        },
        {
            "text": "crisp with high dynamic range the",
            "start": 767.36,
            "duration": 3.2
        },
        {
            "text": "octopus and the crab are in Focus while",
            "start": 768.92,
            "duration": 3.4
        },
        {
            "text": "the background is slightly blurred",
            "start": 770.56,
            "duration": 4.279
        },
        {
            "text": "creating a depth of field",
            "start": 772.32,
            "duration": 5.319
        },
        {
            "text": "effect that's crazy that is exactly what",
            "start": 774.839,
            "duration": 6.0
        },
        {
            "text": "they got",
            "start": 777.639,
            "duration": 3.2
        },
        {
            "text": "yeah like that's so cool yeah I want",
            "start": 782.12,
            "duration": 7.0
        },
        {
            "text": "this so bad for like b-roll content for",
            "start": 786.399,
            "duration": 4.961
        },
        {
            "text": "YouTube yeah this would be the greatest",
            "start": 789.12,
            "duration": 4.519
        },
        {
            "text": "b-roll content of all time on YouTube",
            "start": 791.36,
            "duration": 4.32
        },
        {
            "text": "like you can make so many memes I can't",
            "start": 793.639,
            "duration": 3.56
        },
        {
            "text": "wait and",
            "start": 795.68,
            "duration": 5.12
        },
        {
            "text": "like like I feel so dumb being like dude",
            "start": 797.199,
            "duration": 5.841
        },
        {
            "text": "I cannot wait to make so many memes with",
            "start": 800.8,
            "duration": 4.039
        },
        {
            "text": "this but then it's like this technology",
            "start": 803.04,
            "duration": 3.359
        },
        {
            "text": "is going to potentially destroy the",
            "start": 804.839,
            "duration": 4.041
        },
        {
            "text": "world yeah yeah we'll get let's talk",
            "start": 806.399,
            "duration": 3.841
        },
        {
            "text": "about the destroying world one hold on",
            "start": 808.88,
            "duration": 2.72
        },
        {
            "text": "what is going on in this one this one",
            "start": 810.24,
            "duration": 3.32
        },
        {
            "text": "seems all wrong so this I think this",
            "start": 811.6,
            "duration": 3.599
        },
        {
            "text": "section said these are the areas where",
            "start": 813.56,
            "duration": 3.2
        },
        {
            "text": "it's failing right",
            "start": 815.199,
            "duration": 5.08
        },
        {
            "text": "now proper use of a treadmill this is",
            "start": 816.76,
            "duration": 6.079
        },
        {
            "text": "the greatest reason why it can't code",
            "start": 820.279,
            "duration": 4.92
        },
        {
            "text": "for us right now this is Javascript on",
            "start": 822.839,
            "duration": 3.881
        },
        {
            "text": "the back end right here this is",
            "start": 825.199,
            "duration": 4.121
        },
        {
            "text": "Javascript on the back end ain't no way",
            "start": 826.72,
            "duration": 5.52
        },
        {
            "text": "this is working out yeah hey guy a tread",
            "start": 829.32,
            "duration": 4.8
        },
        {
            "text": "download that video right now and then",
            "start": 832.24,
            "duration": 4.959
        },
        {
            "text": "tweet after this this is Javascript on",
            "start": 834.12,
            "duration": 6.639
        },
        {
            "text": "the back end",
            "start": 837.199,
            "duration": 3.56
        },
        {
            "text": "ah that puppy had a puppy oh they're",
            "start": 841.079,
            "duration": 3.56
        },
        {
            "text": "having",
            "start": 843.56,
            "duration": 2.88
        },
        {
            "text": "puppies",
            "start": 844.639,
            "duration": 5.681
        },
        {
            "text": "whoops uh oh there's that perspective",
            "start": 846.44,
            "duration": 9.6
        },
        {
            "text": "problem yeah right or broken physics too",
            "start": 850.32,
            "duration": 8.319
        },
        {
            "text": "yeah this one asked it to explode right",
            "start": 856.04,
            "duration": 3.599
        },
        {
            "text": "doesn't that what isn't that what it",
            "start": 858.639,
            "duration": 2.961
        },
        {
            "text": "says yeah but still it's really funny",
            "start": 859.639,
            "duration": 3.921
        },
        {
            "text": "that bam and another balls flying",
            "start": 861.6,
            "duration": 4.2
        },
        {
            "text": "through the air yeah mhm it's like one",
            "start": 863.56,
            "duration": 5.199
        },
        {
            "text": "of those who watch in Reverse yeah this",
            "start": 865.8,
            "duration": 4.839
        },
        {
            "text": "looks like watching like a Tennant or",
            "start": 868.759,
            "duration": 4.361
        },
        {
            "text": "something you know you you know the the",
            "start": 870.639,
            "duration": 4.481
        },
        {
            "text": "one where they do the reverse time thing",
            "start": 873.12,
            "duration": 4.32
        },
        {
            "text": "that's what it looks it this one says",
            "start": 875.12,
            "duration": 3.959
        },
        {
            "text": "archaeologists discover a generic",
            "start": 877.44,
            "duration": 3.199
        },
        {
            "text": "plastic chair in the desert Excavating",
            "start": 879.079,
            "duration": 4.2
        },
        {
            "text": "and dusting it with great",
            "start": 880.639,
            "duration": 4.841
        },
        {
            "text": "care that would be a pretty crazy",
            "start": 883.279,
            "duration": 3.841
        },
        {
            "text": "Discovery to discover a plastic chair",
            "start": 885.48,
            "duration": 4.359
        },
        {
            "text": "like that in the desert especially one",
            "start": 887.12,
            "duration": 5.88
        },
        {
            "text": "that floats away yeah it just keeps like",
            "start": 889.839,
            "duration": 4.521
        },
        {
            "text": "that that's actually an",
            "start": 893.0,
            "duration": 3.6
        },
        {
            "text": "alien even this I feel like would be",
            "start": 894.36,
            "duration": 3.88
        },
        {
            "text": "great for memes like when it does",
            "start": 896.6,
            "duration": 3.76
        },
        {
            "text": "something that so impossibly ridiculous",
            "start": 898.24,
            "duration": 3.68
        },
        {
            "text": "I'm like oh I would love to use this in",
            "start": 900.36,
            "duration": 5.64
        },
        {
            "text": "a meme yep the interesting chair aspect",
            "start": 901.92,
            "duration": 6.68
        },
        {
            "text": "ratio that chair just gets all weird all",
            "start": 906.0,
            "duration": 4.12
        },
        {
            "text": "right all right so this is this is super",
            "start": 908.6,
            "duration": 3.239
        },
        {
            "text": "cool safety so what is the safety I'm",
            "start": 910.12,
            "duration": 2.88
        },
        {
            "text": "I'm curious what they consider the",
            "start": 911.839,
            "duration": 3.0
        },
        {
            "text": "safety problems because obviously number",
            "start": 913.0,
            "duration": 3.44
        },
        {
            "text": "one internet",
            "start": 914.839,
            "duration": 5.281
        },
        {
            "text": "porn thing number one is probably like",
            "start": 916.44,
            "duration": 6.399
        },
        {
            "text": "uh impersonating people not just not",
            "start": 920.12,
            "duration": 5.48
        },
        {
            "text": "just for porn right but like yeah like",
            "start": 922.839,
            "duration": 5.161
        },
        {
            "text": "before it was really hard to make like a",
            "start": 925.6,
            "duration": 4.96
        },
        {
            "text": "deep fake of someone saying something",
            "start": 928.0,
            "duration": 4.759
        },
        {
            "text": "else right now you could do you think is",
            "start": 930.56,
            "duration": 3.04
        },
        {
            "text": "going to be the biggest problem though",
            "start": 932.759,
            "duration": 1.64
        },
        {
            "text": "do you think that's going to be the",
            "start": 933.6,
            "duration": 3.2
        },
        {
            "text": "biggest problem I don't know I it has",
            "start": 934.399,
            "duration": 4.841
        },
        {
            "text": "the potential to probably do like the",
            "start": 936.8,
            "duration": 5.92
        },
        {
            "text": "most damage like societally right like",
            "start": 939.24,
            "duration": 8.0
        },
        {
            "text": "if you can just say that oh like say",
            "start": 942.72,
            "duration": 6.64
        },
        {
            "text": "this requires inperson more and more",
            "start": 947.24,
            "duration": 4.039
        },
        {
            "text": "right it's just gonna kind of prevent",
            "start": 949.36,
            "duration": 4.56
        },
        {
            "text": "prevent you could just write um you know",
            "start": 951.279,
            "duration": 6.281
        },
        {
            "text": "so and so drops bomb on this uh like",
            "start": 953.92,
            "duration": 5.56
        },
        {
            "text": "hospital or something right and then",
            "start": 957.56,
            "duration": 5.519
        },
        {
            "text": "like post that that really happened yeah",
            "start": 959.48,
            "duration": 6.479
        },
        {
            "text": "and then like get a bunch of yeah like",
            "start": 963.079,
            "duration": 4.68
        },
        {
            "text": "we already have people that don't like",
            "start": 965.959,
            "duration": 3.32
        },
        {
            "text": "to tell the truth about everything you",
            "start": 967.759,
            "duration": 3.721
        },
        {
            "text": "know both sides Etc right so it's like",
            "start": 969.279,
            "duration": 4.321
        },
        {
            "text": "and it's just going to be so easy",
            "start": 971.48,
            "duration": 3.719
        },
        {
            "text": "because you just literally write it out",
            "start": 973.6,
            "duration": 4.28
        },
        {
            "text": "right you just like yeah saying saying",
            "start": 975.199,
            "duration": 4.521
        },
        {
            "text": "uh say so I don't know so I'm not sure I",
            "start": 977.88,
            "duration": 3.16
        },
        {
            "text": "think the porn one is going to be really",
            "start": 979.72,
            "duration": 3.32
        },
        {
            "text": "bad though like the that worries me",
            "start": 981.04,
            "duration": 3.56
        },
        {
            "text": "about the porn one isn't that there's",
            "start": 983.04,
            "duration": 2.919
        },
        {
            "text": "going to be porn of celebrities like",
            "start": 984.6,
            "duration": 3.44
        },
        {
            "text": "that has you know that's kind of like",
            "start": 985.959,
            "duration": 4.401
        },
        {
            "text": "that's been consistent problem but it's",
            "start": 988.04,
            "duration": 5.799
        },
        {
            "text": "going to be the ninth grade boy taking",
            "start": 990.36,
            "duration": 6.08
        },
        {
            "text": "the ninth grade girl in his class and",
            "start": 993.839,
            "duration": 4.401
        },
        {
            "text": "them generating porn from it and then",
            "start": 996.44,
            "duration": 3.28
        },
        {
            "text": "causing like you now you have like a",
            "start": 998.24,
            "duration": 4.519
        },
        {
            "text": "whole new set of issues that just like",
            "start": 999.72,
            "duration": 5.08
        },
        {
            "text": "taking advantage of people like like the",
            "start": 1002.759,
            "duration": 3.88
        },
        {
            "text": "one to one taking advantage not famous",
            "start": 1004.8,
            "duration": 3.279
        },
        {
            "text": "person being taken advantage of which is",
            "start": 1006.639,
            "duration": 5.521
        },
        {
            "text": "already kind of like you know there's R",
            "start": 1008.079,
            "duration": 5.68
        },
        {
            "text": "side of it which is really bad and then",
            "start": 1012.16,
            "duration": 3.679
        },
        {
            "text": "there's also I think sort of like",
            "start": 1013.759,
            "duration": 5.161
        },
        {
            "text": "the um interpersonal stuff as wild",
            "start": 1015.839,
            "duration": 5.041
        },
        {
            "text": "interpersonal stuff and as well as just",
            "start": 1018.92,
            "duration": 5.039
        },
        {
            "text": "like then you have no basically like you",
            "start": 1020.88,
            "duration": 4.559
        },
        {
            "text": "can it's it's going to be like Brave New",
            "start": 1023.959,
            "duration": 2.84
        },
        {
            "text": "World right like where you just sit down",
            "start": 1025.439,
            "duration": 3.24
        },
        {
            "text": "in the pleasure machine and then that's",
            "start": 1026.799,
            "duration": 3.481
        },
        {
            "text": "all that you want right instead of like",
            "start": 1028.679,
            "duration": 3.681
        },
        {
            "text": "doing real things you can like generate",
            "start": 1030.28,
            "duration": 4.36
        },
        {
            "text": "all the things that you want here and",
            "start": 1032.36,
            "duration": 5.92
        },
        {
            "text": "that one I think is also um really scary",
            "start": 1034.64,
            "duration": 5.919
        },
        {
            "text": "right so like on a on personal levels I",
            "start": 1038.28,
            "duration": 4.919
        },
        {
            "text": "think those are way scarier than like",
            "start": 1040.559,
            "duration": 4.921
        },
        {
            "text": "misinformation or disinformation but I",
            "start": 1043.199,
            "duration": 4.681
        },
        {
            "text": "do like I'm worried like there's going",
            "start": 1045.48,
            "duration": 4.04
        },
        {
            "text": "to be a war before that gets started you",
            "start": 1047.88,
            "duration": 3.12
        },
        {
            "text": "know what I'm saying like like it would",
            "start": 1049.52,
            "duration": 3.44
        },
        {
            "text": "be that would be also really",
            "start": 1051.0,
            "duration": 5.2
        },
        {
            "text": "bad yeah well I mean I I'd say the the",
            "start": 1052.96,
            "duration": 5.12
        },
        {
            "text": "one good thing though that comes from",
            "start": 1056.2,
            "duration": 4.24
        },
        {
            "text": "all this is that people stop trusting",
            "start": 1058.08,
            "duration": 4.52
        },
        {
            "text": "the internet which I think would be a",
            "start": 1060.44,
            "duration": 3.8
        },
        {
            "text": "much better thing is that you cannot you",
            "start": 1062.6,
            "duration": 3.8
        },
        {
            "text": "cannot look at headlines or images and",
            "start": 1064.24,
            "duration": 4.319
        },
        {
            "text": "you can't do any of that it has to",
            "start": 1066.4,
            "duration": 4.32
        },
        {
            "text": "purely be like you have to go and like",
            "start": 1068.559,
            "duration": 4.601
        },
        {
            "text": "look at the thing itself if you want to",
            "start": 1070.72,
            "duration": 4.319
        },
        {
            "text": "know if someone said it you have to like",
            "start": 1073.16,
            "duration": 3.399
        },
        {
            "text": "literally be there or else it's probably",
            "start": 1075.039,
            "duration": 2.361
        },
        {
            "text": "all",
            "start": 1076.559,
            "duration": 4.201
        },
        {
            "text": "fake I do think at least hopefully",
            "start": 1077.4,
            "duration": 6.2
        },
        {
            "text": "people will be less trusting and more",
            "start": 1080.76,
            "duration": 5.799
        },
        {
            "text": "suspicious yeah",
            "start": 1083.6,
            "duration": 6.199
        },
        {
            "text": "yeah dang this is this is actually well",
            "start": 1086.559,
            "duration": 4.961
        },
        {
            "text": "this is probably this is a huge",
            "start": 1089.799,
            "duration": 4.721
        },
        {
            "text": "iteration I mean I'm I'm I'm not uh an",
            "start": 1091.52,
            "duration": 4.88
        },
        {
            "text": "AI accelerationist I I still think we're",
            "start": 1094.52,
            "duration": 3.24
        },
        {
            "text": "going to hit like kind of a wall where",
            "start": 1096.4,
            "duration": 4.08
        },
        {
            "text": "it's just like it's not that great I'm",
            "start": 1097.76,
            "duration": 4.52
        },
        {
            "text": "not in the uh that it's going to keep on",
            "start": 1100.48,
            "duration": 3.36
        },
        {
            "text": "improving at the rate we're currently",
            "start": 1102.28,
            "duration": 4.48
        },
        {
            "text": "seeing it uh I you know I'm just not on",
            "start": 1103.84,
            "duration": 3.959
        },
        {
            "text": "that although to be fair I would not",
            "start": 1106.76,
            "duration": 4.08
        },
        {
            "text": "have predicted Sora either like I",
            "start": 1107.799,
            "duration": 4.281
        },
        {
            "text": "thought we were kind of far away from",
            "start": 1110.84,
            "duration": 3.24
        },
        {
            "text": "this you know I don't know I don't think",
            "start": 1112.08,
            "duration": 3.92
        },
        {
            "text": "we're that I I mean this isn't that much",
            "start": 1114.08,
            "duration": 3.839
        },
        {
            "text": "further away from the um what's it",
            "start": 1116.0,
            "duration": 4.32
        },
        {
            "text": "called this I mean this is significantly",
            "start": 1117.919,
            "duration": 4.201
        },
        {
            "text": "better than the Will Smith eating",
            "start": 1120.32,
            "duration": 4.68
        },
        {
            "text": "spaghetti one but it's not dramatically",
            "start": 1122.12,
            "duration": 5.76
        },
        {
            "text": "better but the it's not so much about it",
            "start": 1125.0,
            "duration": 4.44
        },
        {
            "text": "being better I think though it's like",
            "start": 1127.88,
            "duration": 4.32
        },
        {
            "text": "about that the accessibility of it is so",
            "start": 1129.44,
            "duration": 4.599
        },
        {
            "text": "much bigger oh yeah right that's fine",
            "start": 1132.2,
            "duration": 3.16
        },
        {
            "text": "that's right so that so it's like so",
            "start": 1134.039,
            "duration": 3.161
        },
        {
            "text": "much easier to be widespread right and",
            "start": 1135.36,
            "duration": 4.04
        },
        {
            "text": "so much harder to find out like who did",
            "start": 1137.2,
            "duration": 4.0
        },
        {
            "text": "it right you know what I'm saying like",
            "start": 1139.4,
            "duration": 3.2
        },
        {
            "text": "before if there's only 10 people in the",
            "start": 1141.2,
            "duration": 3.04
        },
        {
            "text": "world who can make convincing deep fakes",
            "start": 1142.6,
            "duration": 4.28
        },
        {
            "text": "you like find the people you know you're",
            "start": 1144.24,
            "duration": 4.36
        },
        {
            "text": "like who did this but now it's going to",
            "start": 1146.88,
            "duration": 4.36
        },
        {
            "text": "be like oh it's going to be super easy",
            "start": 1148.6,
            "duration": 4.4
        },
        {
            "text": "to like pretend Joe Rogan endorsed your",
            "start": 1151.24,
            "duration": 3.919
        },
        {
            "text": "ad or like Mr Beast is doing a giveaway",
            "start": 1153.0,
            "duration": 3.24
        },
        {
            "text": "or something right and you're like",
            "start": 1155.159,
            "duration": 4.361
        },
        {
            "text": "scamming people or that it's like oh uh",
            "start": 1156.24,
            "duration": 5.04
        },
        {
            "text": "here's a picture of a person make a",
            "start": 1159.52,
            "duration": 4.12
        },
        {
            "text": "video of them like trapped kidnapped by",
            "start": 1161.28,
            "duration": 3.399
        },
        {
            "text": "people and now they're going to like",
            "start": 1163.64,
            "duration": 3.96
        },
        {
            "text": "call the grandma and like scam the",
            "start": 1164.679,
            "duration": 4.721
        },
        {
            "text": "grandma into sending money to like save",
            "start": 1167.6,
            "duration": 3.079
        },
        {
            "text": "their kid you know what I'm saying like",
            "start": 1169.4,
            "duration": 2.84
        },
        {
            "text": "this already really hard for those",
            "start": 1170.679,
            "duration": 3.921
        },
        {
            "text": "people to do it even even when it's not",
            "start": 1172.24,
            "duration": 5.4
        },
        {
            "text": "like super even when it should be",
            "start": 1174.6,
            "duration": 5.319
        },
        {
            "text": "obvious like oh it's clearly not my",
            "start": 1177.64,
            "duration": 4.039
        },
        {
            "text": "granddaughter it's a guy on the other",
            "start": 1179.919,
            "duration": 3.801
        },
        {
            "text": "end of the line like of a different you",
            "start": 1181.679,
            "duration": 4.12
        },
        {
            "text": "know ethnicity or something right and",
            "start": 1183.72,
            "duration": 4.24
        },
        {
            "text": "they still fall for it so then now it's",
            "start": 1185.799,
            "duration": 3.841
        },
        {
            "text": "going to be like oh they have a video",
            "start": 1187.96,
            "duration": 3.599
        },
        {
            "text": "that looks convincing of your daughter",
            "start": 1189.64,
            "duration": 2.919
        },
        {
            "text": "like",
            "start": 1191.559,
            "duration": 2.961
        },
        {
            "text": "kidnapped they're going to send it right",
            "start": 1192.559,
            "duration": 4.48
        },
        {
            "text": "so it's like that's our so there's like",
            "start": 1194.52,
            "duration": 4.399
        },
        {
            "text": "this whole I think the accessibility of",
            "start": 1197.039,
            "duration": 4.401
        },
        {
            "text": "the technology is like somewhat",
            "start": 1198.919,
            "duration": 5.12
        },
        {
            "text": "frightening yeah okay that's fair",
            "start": 1201.44,
            "duration": 3.96
        },
        {
            "text": "accessibility is a very interesting",
            "start": 1204.039,
            "duration": 2.441
        },
        {
            "text": "thing because that's the thing that's",
            "start": 1205.4,
            "duration": 2.72
        },
        {
            "text": "going to cause the most amount of like",
            "start": 1206.48,
            "duration": 4.4
        },
        {
            "text": "distributive problems right you know",
            "start": 1208.12,
            "duration": 3.84
        },
        {
            "text": "there is definitely something about it",
            "start": 1210.88,
            "duration": 3.88
        },
        {
            "text": "being more constrained but I mean the",
            "start": 1211.96,
            "duration": 4.56
        },
        {
            "text": "the the positive note is that kid Boga",
            "start": 1214.76,
            "duration": 3.24
        },
        {
            "text": "probably is going to have an",
            "start": 1216.52,
            "duration": 5.159
        },
        {
            "text": "incredible dude there dude AI cont the",
            "start": 1218.0,
            "duration": 5.96
        },
        {
            "text": "content for the is going to be out of",
            "start": 1221.679,
            "duration": 6.801
        },
        {
            "text": "this world the content I I like it's so",
            "start": 1223.96,
            "duration": 7.199
        },
        {
            "text": "goofy cuz like I know it's you know it's",
            "start": 1228.48,
            "duration": 5.36
        },
        {
            "text": "just like dumb but you're like man will",
            "start": 1231.159,
            "duration": 4.681
        },
        {
            "text": "be so many fun there will be I think",
            "start": 1233.84,
            "duration": 4.12
        },
        {
            "text": "like a bunch of really funny and",
            "start": 1235.84,
            "duration": 4.36
        },
        {
            "text": "hilarious like really interesting and",
            "start": 1237.96,
            "duration": 3.959
        },
        {
            "text": "beautiful things made too right you know",
            "start": 1240.2,
            "duration": 3.959
        },
        {
            "text": "what I'm saying like this lets somebody",
            "start": 1241.919,
            "duration": 4.76
        },
        {
            "text": "like make a whole movie basically by",
            "start": 1244.159,
            "duration": 3.88
        },
        {
            "text": "themselves maybe right and there's a",
            "start": 1246.679,
            "duration": 3.36
        },
        {
            "text": "bunch of people who are super funny who",
            "start": 1248.039,
            "duration": 3.441
        },
        {
            "text": "like would never get into Hollywood or",
            "start": 1250.039,
            "duration": 3.88
        },
        {
            "text": "something right yeah so it's like okay",
            "start": 1251.48,
            "duration": 4.04
        },
        {
            "text": "you never get to see their movie and now",
            "start": 1253.919,
            "duration": 3.24
        },
        {
            "text": "like we could see their movie that's",
            "start": 1255.52,
            "duration": 4.48
        },
        {
            "text": "cool I'm excited for that part um",
            "start": 1257.159,
            "duration": 5.081
        },
        {
            "text": "there's just lot of other parts that are",
            "start": 1260.0,
            "duration": 3.4
        },
        {
            "text": "less",
            "start": 1262.24,
            "duration": 3.679
        },
        {
            "text": "exciting I like that okay you know that",
            "start": 1263.4,
            "duration": 4.12
        },
        {
            "text": "really positive note that that little",
            "start": 1265.919,
            "duration": 3.0
        },
        {
            "text": "ending part that was a really positive",
            "start": 1267.52,
            "duration": 5.68
        },
        {
            "text": "note I like that uh I don't I'm",
            "start": 1268.919,
            "duration": 6.401
        },
        {
            "text": "surprised that we that I",
            "start": 1273.2,
            "duration": 5.079
        },
        {
            "text": "mean I keep I I I am partially surprised",
            "start": 1275.32,
            "duration": 4.56
        },
        {
            "text": "that we're here already but I'm it also",
            "start": 1278.279,
            "duration": 3.801
        },
        {
            "text": "feels like it's not that shocking yet",
            "start": 1279.88,
            "duration": 4.52
        },
        {
            "text": "I'm very curious what like if there will",
            "start": 1282.08,
            "duration": 4.44
        },
        {
            "text": "be an iteration that's",
            "start": 1284.4,
            "duration": 4.36
        },
        {
            "text": "actually going to be like big in a",
            "start": 1286.52,
            "duration": 3.759
        },
        {
            "text": "changing way cuz you know all the things",
            "start": 1288.76,
            "duration": 3.32
        },
        {
            "text": "that have been released up to date",
            "start": 1290.279,
            "duration": 4.201
        },
        {
            "text": "they're very cool but none of them feel",
            "start": 1292.08,
            "duration": 4.719
        },
        {
            "text": "like they change my day-to-day life you",
            "start": 1294.48,
            "duration": 5.079
        },
        {
            "text": "know like co-pilot incredibly convenient",
            "start": 1296.799,
            "duration": 4.201
        },
        {
            "text": "if you make YouTube videos this this",
            "start": 1299.559,
            "duration": 4.12
        },
        {
            "text": "changes how I can get b-roll if I get",
            "start": 1301.0,
            "duration": 5.32
        },
        {
            "text": "access to this but it it doesn't",
            "start": 1303.679,
            "duration": 5.441
        },
        {
            "text": "change you know it doesn't it doesn't",
            "start": 1306.32,
            "duration": 4.04
        },
        {
            "text": "actually change my life in any",
            "start": 1309.12,
            "duration": 3.159
        },
        {
            "text": "fundamental way I used to have to go and",
            "start": 1310.36,
            "duration": 4.52
        },
        {
            "text": "buy for $500 a b-roll package now I'm",
            "start": 1312.279,
            "duration": 4.561
        },
        {
            "text": "going to have to go spend $500",
            "start": 1314.88,
            "duration": 4.84
        },
        {
            "text": "generating a more precise b roll package",
            "start": 1316.84,
            "duration": 4.6
        },
        {
            "text": "yeah and then yelling at it and then",
            "start": 1319.72,
            "duration": 3.319
        },
        {
            "text": "like tweeting about how like man I used",
            "start": 1321.44,
            "duration": 3.44
        },
        {
            "text": "to be able to get it to like generate a",
            "start": 1323.039,
            "duration": 4.321
        },
        {
            "text": "funny Cloud guy and now like I have to",
            "start": 1324.88,
            "duration": 3.919
        },
        {
            "text": "tell it eight times to generate the",
            "start": 1327.36,
            "duration": 3.199
        },
        {
            "text": "funny Cloud guy and don't respond with",
            "start": 1328.799,
            "duration": 4.281
        },
        {
            "text": "Json you know or something like yeah and",
            "start": 1330.559,
            "duration": 4.0
        },
        {
            "text": "not only that but like when when",
            "start": 1333.08,
            "duration": 3.24
        },
        {
            "text": "co-pilot or more more importantly when",
            "start": 1334.559,
            "duration": 4.641
        },
        {
            "text": "Chad GPT came out I I kind I talked",
            "start": 1336.32,
            "duration": 4.0
        },
        {
            "text": "about this earlier but there was this",
            "start": 1339.2,
            "duration": 2.8
        },
        {
            "text": "like amazement factor that I was kind of",
            "start": 1340.32,
            "duration": 3.28
        },
        {
            "text": "already built into me like I haven't",
            "start": 1342.0,
            "duration": 4.36
        },
        {
            "text": "seen something this good yet and so when",
            "start": 1343.6,
            "duration": 4.72
        },
        {
            "text": "I'm watching it and it's going I'm like",
            "start": 1346.36,
            "duration": 3.559
        },
        {
            "text": "I I think I'm kind of like tricking",
            "start": 1348.32,
            "duration": 4.359
        },
        {
            "text": "myself to how cool it is and then now",
            "start": 1349.919,
            "duration": 4.601
        },
        {
            "text": "that I've been using it for a while I",
            "start": 1352.679,
            "duration": 3.24
        },
        {
            "text": "feel like it's gone dramatically",
            "start": 1354.52,
            "duration": 3.639
        },
        {
            "text": "downhill but I actually don't think it's",
            "start": 1355.919,
            "duration": 4.041
        },
        {
            "text": "gone dramatically downhill I just think",
            "start": 1358.159,
            "duration": 4.64
        },
        {
            "text": "my expectations have gone up they've",
            "start": 1359.96,
            "duration": 5.12
        },
        {
            "text": "risen with the times and it's actually",
            "start": 1362.799,
            "duration": 4.441
        },
        {
            "text": "not as good as my initial you know",
            "start": 1365.08,
            "duration": 3.8
        },
        {
            "text": "perspective you're not on the honeymoon",
            "start": 1367.24,
            "duration": 3.76
        },
        {
            "text": "with it anymore right you're like oh it",
            "start": 1368.88,
            "duration": 3.88
        },
        {
            "text": "actually does bother me that chat GPT",
            "start": 1371.0,
            "duration": 3.76
        },
        {
            "text": "does this I can't just look over this",
            "start": 1372.76,
            "duration": 4.519
        },
        {
            "text": "fact yeah yeah yeah and because when",
            "start": 1374.76,
            "duration": 4.24
        },
        {
            "text": "when I first did I was like make a dice",
            "start": 1377.279,
            "duration": 3.841
        },
        {
            "text": "game it's like here's a dice game like",
            "start": 1379.0,
            "duration": 4.4
        },
        {
            "text": "wow that's mostly a dice game you know",
            "start": 1381.12,
            "duration": 3.76
        },
        {
            "text": "like I'm just like shocked that it",
            "start": 1383.4,
            "duration": 2.92
        },
        {
            "text": "worked and now I'm just like dude just",
            "start": 1384.88,
            "duration": 5.24
        },
        {
            "text": "generate me the python code already",
            "start": 1386.32,
            "duration": 7.08
        },
        {
            "text": "yes yeah I I do wonder what this will do",
            "start": 1390.12,
            "duration": 5.76
        },
        {
            "text": "towards so like the main ways that I",
            "start": 1393.4,
            "duration": 4.519
        },
        {
            "text": "could see this potentially changing like",
            "start": 1395.88,
            "duration": 5.2
        },
        {
            "text": "day-to-day life is um we already talked",
            "start": 1397.919,
            "duration": 5.36
        },
        {
            "text": "about like the disinformation I like our",
            "start": 1401.08,
            "duration": 3.839
        },
        {
            "text": "our day-to-day lives won't be affected",
            "start": 1403.279,
            "duration": 3.64
        },
        {
            "text": "by the fact that this can generate porn",
            "start": 1404.919,
            "duration": 3.401
        },
        {
            "text": "probably and people will find out ways",
            "start": 1406.919,
            "duration": 5.401
        },
        {
            "text": "to do that cuz uh that's not our Jam but",
            "start": 1408.32,
            "duration": 6.88
        },
        {
            "text": "uh but I think maybe it will change",
            "start": 1412.32,
            "duration": 4.16
        },
        {
            "text": "quite a bit of the way that people",
            "start": 1415.2,
            "duration": 3.079
        },
        {
            "text": "generate like online content so like",
            "start": 1416.48,
            "duration": 4.319
        },
        {
            "text": "maybe there will be like uh a bunch of",
            "start": 1418.279,
            "duration": 5.801
        },
        {
            "text": "really interesting like TV like TV style",
            "start": 1420.799,
            "duration": 5.76
        },
        {
            "text": "shows right or like music video right or",
            "start": 1424.08,
            "duration": 5.599
        },
        {
            "text": "something like before versus Trump AI",
            "start": 1426.559,
            "duration": 5.12
        },
        {
            "text": "arguing will now just get better no I",
            "start": 1429.679,
            "duration": 4.521
        },
        {
            "text": "was thinking more like a guy who has an",
            "start": 1431.679,
            "duration": 5.321
        },
        {
            "text": "idea for a show right for like a TV show",
            "start": 1434.2,
            "duration": 4.88
        },
        {
            "text": "is he can never get enough funding to",
            "start": 1437.0,
            "duration": 3.559
        },
        {
            "text": "like make the show maybe it's like you",
            "start": 1439.08,
            "duration": 3.479
        },
        {
            "text": "know super Niche or like right like",
            "start": 1440.559,
            "duration": 4.041
        },
        {
            "text": "maybe you'll be able to find like really",
            "start": 1442.559,
            "duration": 4.281
        },
        {
            "text": "Niche like content that will be really",
            "start": 1444.6,
            "duration": 4.92
        },
        {
            "text": "funny for you but that would never get",
            "start": 1446.84,
            "duration": 4.4
        },
        {
            "text": "funded because like it's not going to",
            "start": 1449.52,
            "duration": 3.279
        },
        {
            "text": "attract the same people that laugh at",
            "start": 1451.24,
            "duration": 3.88
        },
        {
            "text": "The Big Bang Theory jokes right and so",
            "start": 1452.799,
            "duration": 4.321
        },
        {
            "text": "like you know so I don't know so it's",
            "start": 1455.12,
            "duration": 3.64
        },
        {
            "text": "possible I think that that could like I",
            "start": 1457.12,
            "duration": 2.84
        },
        {
            "text": "don't know I don't really like saying",
            "start": 1458.76,
            "duration": 2.56
        },
        {
            "text": "democratize blah blah blah because",
            "start": 1459.96,
            "duration": 3.76
        },
        {
            "text": "there's no democracy about it but like",
            "start": 1461.32,
            "duration": 4.4
        },
        {
            "text": "um you know spread the ability of people",
            "start": 1463.72,
            "duration": 4.76
        },
        {
            "text": "to be able to make like a bunch of those",
            "start": 1465.72,
            "duration": 4.36
        },
        {
            "text": "like kinds of content that could be",
            "start": 1468.48,
            "duration": 2.6
        },
        {
            "text": "really",
            "start": 1470.08,
            "duration": 3.76
        },
        {
            "text": "fun yeah yeah on people are saying",
            "start": 1471.08,
            "duration": 5.12
        },
        {
            "text": "something that that that guy def not",
            "start": 1473.84,
            "duration": 4.079
        },
        {
            "text": "forklift certified dude I know if you",
            "start": 1476.2,
            "duration": 4.24
        },
        {
            "text": "weren't watching that fork certified guy",
            "start": 1477.919,
            "duration": 4.721
        },
        {
            "text": "he dude it's it it was bothering me how",
            "start": 1480.44,
            "duration": 3.719
        },
        {
            "text": "many weird things were going on with oh",
            "start": 1482.64,
            "duration": 3.0
        },
        {
            "text": "dang it hold on you just got to look at",
            "start": 1484.159,
            "duration": 4.201
        },
        {
            "text": "it cuz it was yeah it was more wrong it",
            "start": 1485.64,
            "duration": 4.56
        },
        {
            "text": "was more wrong than the rest I've seen",
            "start": 1488.36,
            "duration": 3.439
        },
        {
            "text": "it's in the last one it's to the left of",
            "start": 1490.2,
            "duration": 3.28
        },
        {
            "text": "the yeah here it is right here so the",
            "start": 1491.799,
            "duration": 3.48
        },
        {
            "text": "guy starts off on what appears to be the",
            "start": 1493.48,
            "duration": 3.6
        },
        {
            "text": "right side of the forklift right here he",
            "start": 1495.279,
            "duration": 4.481
        },
        {
            "text": "turns the corner splits into two people",
            "start": 1497.08,
            "duration": 5.68
        },
        {
            "text": "just runs over that guy turns his car",
            "start": 1499.76,
            "duration": 5.12
        },
        {
            "text": "and craps wild whatever's going on there",
            "start": 1502.76,
            "duration": 4.399
        },
        {
            "text": "now he's on the left hand side oh man to",
            "start": 1504.88,
            "duration": 5.279
        },
        {
            "text": "be fair maybe like they make forklifts",
            "start": 1507.159,
            "duration": 4.721
        },
        {
            "text": "like that we have things that can turn a",
            "start": 1510.159,
            "duration": 4.0
        },
        {
            "text": "prompt into a video now so maybe it's",
            "start": 1511.88,
            "duration": 3.76
        },
        {
            "text": "like",
            "start": 1514.159,
            "duration": 4.281
        },
        {
            "text": "a maybe it is what it",
            "start": 1515.64,
            "duration": 7.279
        },
        {
            "text": "is I do I'm also interested to see if we",
            "start": 1518.44,
            "duration": 7.119
        },
        {
            "text": "experience the same problem of like",
            "start": 1522.919,
            "duration": 5.0
        },
        {
            "text": "people generating tons of code with",
            "start": 1525.559,
            "duration": 4.081
        },
        {
            "text": "co-pilot and then like it's training on",
            "start": 1527.919,
            "duration": 3.521
        },
        {
            "text": "more videos like are we going to",
            "start": 1529.64,
            "duration": 4.639
        },
        {
            "text": "experience this generating more AI",
            "start": 1531.44,
            "duration": 6.479
        },
        {
            "text": "artifacts as time goes on I don't",
            "start": 1534.279,
            "duration": 3.64
        },
        {
            "text": "know we'll have to see I we can't get we",
            "start": 1538.399,
            "duration": 4.361
        },
        {
            "text": "can't get access yet so yeah we can't",
            "start": 1541.12,
            "duration": 2.919
        },
        {
            "text": "get access this is",
            "start": 1542.76,
            "duration": 3.639
        },
        {
            "text": "unaccessible Sam we know you're watching",
            "start": 1544.039,
            "duration": 3.76
        },
        {
            "text": "you I know you watched all our last",
            "start": 1546.399,
            "duration": 3.28
        },
        {
            "text": "videos about the drama that's why you",
            "start": 1547.799,
            "duration": 3.641
        },
        {
            "text": "came back weo for you Sam we were Roo",
            "start": 1549.679,
            "duration": 3.201
        },
        {
            "text": "for that's why you came back thought you",
            "start": 1551.44,
            "duration": 3.52
        },
        {
            "text": "the devil we're not sure which",
            "start": 1552.88,
            "duration": 5.24
        },
        {
            "text": "one there was like 50/50 like like he's",
            "start": 1554.96,
            "duration": 4.24
        },
        {
            "text": "going to save the world or he's the",
            "start": 1558.12,
            "duration": 3.32
        },
        {
            "text": "Antichrist we're still like undecided",
            "start": 1559.2,
            "duration": 4.24
        },
        {
            "text": "but either way uh if you want to give us",
            "start": 1561.44,
            "duration": 3.28
        },
        {
            "text": "access we'd love it we could make",
            "start": 1563.44,
            "duration": 3.92
        },
        {
            "text": "another video yeah we would we'd make",
            "start": 1564.72,
            "duration": 3.88
        },
        {
            "text": "another video TJ and I would make a",
            "start": 1567.36,
            "duration": 4.36
        },
        {
            "text": "little video for you yeah true superhero",
            "start": 1568.6,
            "duration": 5.079
        },
        {
            "text": "you'd be the superhero oh we could make",
            "start": 1571.72,
            "duration": 4.6
        },
        {
            "text": "a featurelength movie of Zack Snider",
            "start": 1573.679,
            "duration": 7.201
        },
        {
            "text": "vers with Sam Alman as Superman but",
            "start": 1576.32,
            "duration": 4.56
        },
        {
            "text": "good damn TJ you just hit so many people",
            "start": 1582.64,
            "duration": 5.759
        },
        {
            "text": "with that one swing",
            "start": 1585.64,
            "duration": 5.2
        },
        {
            "text": "so so many things just went wrong with",
            "start": 1588.399,
            "duration": 5.561
        },
        {
            "text": "that one phrase the name is the",
            "start": 1590.84,
            "duration": 4.28
        },
        {
            "text": "Hollywood",
            "start": 1593.96,
            "duration": 4.719
        },
        {
            "text": "aen bam",
            "start": 1595.12,
            "duration": 3.559
        }
    ],
    "stats": {
        "viewCount": "140081",
        "likeCount": "3721",
        "favoriteCount": "0",
        "commentCount": "597"
    }
}