{
    "id": "m1apdm11D0o",
    "title": "BEST way to learn a new language",
    "publishedAt": "2023-12-02T18:41:36Z",
    "captions": [
        {
            "text": "it's the time of the year where I think",
            "start": 0.12,
            "duration": 4.04
        },
        {
            "text": "it's the single greatest time to learn a",
            "start": 1.56,
            "duration": 5.319
        },
        {
            "text": "new language that's right Advent of code",
            "start": 4.16,
            "duration": 5.479
        },
        {
            "text": "please do Advent of code find people",
            "start": 6.879,
            "duration": 4.081
        },
        {
            "text": "working in the language you're working",
            "start": 9.639,
            "duration": 3.241
        },
        {
            "text": "in and everybody will be solving the",
            "start": 10.96,
            "duration": 4.639
        },
        {
            "text": "same problem on the same day and it's",
            "start": 12.88,
            "duration": 5.8
        },
        {
            "text": "just the fastest way to learn a new",
            "start": 15.599,
            "duration": 5.52
        },
        {
            "text": "language I absolutely love doing it it's",
            "start": 18.68,
            "duration": 4.839
        },
        {
            "text": "festive it's fun and a ton of people do",
            "start": 21.119,
            "duration": 4.041
        },
        {
            "text": "it and the person who makes it is",
            "start": 23.519,
            "duration": 4.84
        },
        {
            "text": "extremely nice",
            "start": 25.16,
            "duration": 3.199
        }
    ],
    "stats": {
        "viewCount": "97416",
        "likeCount": "4682",
        "favoriteCount": "0",
        "commentCount": "66"
    }
}