{
    "id": "McRUxBHgFIo",
    "title": "Bankrupt In 45 Minutes From DevOps | Prime Reacts",
    "publishedAt": "2023-09-10T16:00:12Z",
    "captions": [
        {
            "text": "400 million dollars to bankrupt in 45",
            "start": 0.38,
            "duration": 6.939
        },
        {
            "text": "minutes due to devops I see here's the",
            "start": 4.44,
            "duration": 5.04
        },
        {
            "text": "deals I knew devops was always fake I",
            "start": 7.319,
            "duration": 4.561
        },
        {
            "text": "just knew it I could feel it terraform",
            "start": 9.48,
            "duration": 4.739
        },
        {
            "text": "terraform these nuts I just don't",
            "start": 11.88,
            "duration": 4.08
        },
        {
            "text": "believe you I've never believed it it",
            "start": 14.219,
            "duration": 3.601
        },
        {
            "text": "doesn't exist prove me wrong someone",
            "start": 15.96,
            "duration": 3.6
        },
        {
            "text": "prove me wrong someone right now yeah",
            "start": 17.82,
            "duration": 5.28
        },
        {
            "text": "see devops is fake devops is fake hello",
            "start": 19.56,
            "duration": 7.26
        },
        {
            "text": "YouTube everybody say hello devops is a",
            "start": 23.1,
            "duration": 5.16
        },
        {
            "text": "real thing I don't know if you know this",
            "start": 26.82,
            "duration": 3.6
        },
        {
            "text": "but devops is real it's actually real",
            "start": 28.26,
            "duration": 4.62
        },
        {
            "text": "and not only is it real but people make",
            "start": 30.42,
            "duration": 4.139
        },
        {
            "text": "their living off of it and I find that",
            "start": 32.88,
            "duration": 3.839
        },
        {
            "text": "when you make these insensitive anyways",
            "start": 34.559,
            "duration": 4.02
        },
        {
            "text": "I was speaking at a conference last year",
            "start": 36.719,
            "duration": 4.201
        },
        {
            "text": "on the topics of devops fake uh",
            "start": 38.579,
            "duration": 4.98
        },
        {
            "text": "configuration as code headaches and",
            "start": 40.92,
            "duration": 5.4
        },
        {
            "text": "continuous delivery Dave Farley and I",
            "start": 43.559,
            "duration": 4.68
        },
        {
            "text": "used the following story to demonstrate",
            "start": 46.32,
            "duration": 3.6
        },
        {
            "text": "the importance of making deployments",
            "start": 48.239,
            "duration": 3.421
        },
        {
            "text": "fully automated and repeatable as part",
            "start": 49.92,
            "duration": 4.799
        },
        {
            "text": "of devops continuous delivery okay it's",
            "start": 51.66,
            "duration": 6.0
        },
        {
            "text": "cicd it's not devops and continuous",
            "start": 54.719,
            "duration": 5.221
        },
        {
            "text": "delivery uh initiative since that",
            "start": 57.66,
            "duration": 4.32
        },
        {
            "text": "conference I've been asked by several",
            "start": 59.94,
            "duration": 3.419
        },
        {
            "text": "people to share the story through my",
            "start": 61.98,
            "duration": 3.48
        },
        {
            "text": "blog this story is true it really",
            "start": 63.359,
            "duration": 3.721
        },
        {
            "text": "happened this is my telling of the story",
            "start": 65.46,
            "duration": 3.3
        },
        {
            "text": "on based on what I've read I was not",
            "start": 67.08,
            "duration": 3.78
        },
        {
            "text": "involved in this this is a story of how",
            "start": 68.76,
            "duration": 5.399
        },
        {
            "text": "a company went from nearly 400 million",
            "start": 70.86,
            "duration": 7.14
        },
        {
            "text": "in assets to bankrupt in 45 minutes due",
            "start": 74.159,
            "duration": 5.401
        },
        {
            "text": "to a failed deployment if this ain't",
            "start": 78.0,
            "duration": 3.299
        },
        {
            "text": "about Mountain gox I'm Gonna Be Sad",
            "start": 79.56,
            "duration": 3.239
        },
        {
            "text": "night Capital group is an American",
            "start": 81.299,
            "duration": 3.541
        },
        {
            "text": "Global Financial uh Services my wife",
            "start": 82.799,
            "duration": 3.36
        },
        {
            "text": "reminds me of it by the way from",
            "start": 84.84,
            "duration": 4.26
        },
        {
            "text": "engaging in Market making I'm not sure",
            "start": 86.159,
            "duration": 5.521
        },
        {
            "text": "what that means um sounds risky and or",
            "start": 89.1,
            "duration": 6.479
        },
        {
            "text": "illegal uh electronic execution and uh",
            "start": 91.68,
            "duration": 6.36
        },
        {
            "text": "institutional sales and trading in 2012",
            "start": 95.579,
            "duration": 4.321
        },
        {
            "text": "Knight was the largest Trader in the U.S",
            "start": 98.04,
            "duration": 4.399
        },
        {
            "text": "equities Market with around 17 percent",
            "start": 99.9,
            "duration": 6.06
        },
        {
            "text": "whoa of the uh New York Stock Exchange",
            "start": 102.439,
            "duration": 6.841
        },
        {
            "text": "and the nas DAC Deez Nuts um",
            "start": 105.96,
            "duration": 7.199
        },
        {
            "text": "NASDAQ Deez Nuts uh I can't make it work",
            "start": 109.28,
            "duration": 6.699
        },
        {
            "text": "out I tried I tried I kept trying to go",
            "start": 113.159,
            "duration": 4.46
        },
        {
            "text": "into it",
            "start": 115.979,
            "duration": 4.68
        },
        {
            "text": "stack nuts uh Knight's electronic",
            "start": 117.619,
            "duration": 5.32
        },
        {
            "text": "Trading Group EtG managed an average",
            "start": 120.659,
            "duration": 5.041
        },
        {
            "text": "daily trading volume of more than 3.3",
            "start": 122.939,
            "duration": 5.221
        },
        {
            "text": "billion trades daily taking over 21",
            "start": 125.7,
            "duration": 5.279
        },
        {
            "text": "billion dollars daily",
            "start": 128.16,
            "duration": 7.579
        },
        {
            "text": "oh that is quite the thing on July",
            "start": 130.979,
            "duration": 4.76
        },
        {
            "text": "on July 31st 2012 Knight had",
            "start": 136.379,
            "duration": 6.841
        },
        {
            "text": "approximately 365 million in cash and",
            "start": 139.62,
            "duration": 5.339
        },
        {
            "text": "equivalents I don't know what what's",
            "start": 143.22,
            "duration": 3.96
        },
        {
            "text": "equivalence does that mean stonks what",
            "start": 144.959,
            "duration": 4.021
        },
        {
            "text": "are what are equivalents liquid it's",
            "start": 147.18,
            "duration": 4.26
        },
        {
            "text": "cash right oh it's bonds bonds gold",
            "start": 148.98,
            "duration": 4.08
        },
        {
            "text": "Birch gold",
            "start": 151.44,
            "duration": 4.14
        },
        {
            "text": "by the way this article brought to you",
            "start": 153.06,
            "duration": 5.039
        },
        {
            "text": "by Birch gold",
            "start": 155.58,
            "duration": 4.739
        },
        {
            "text": "man I gotta get a gold sponsorship",
            "start": 158.099,
            "duration": 4.681
        },
        {
            "text": "imagine how good that would be right now",
            "start": 160.319,
            "duration": 5.101
        },
        {
            "text": "if I could drop a gold sponsorship right",
            "start": 162.78,
            "duration": 5.16
        },
        {
            "text": "now like if I could just drop a gold",
            "start": 165.42,
            "duration": 5.34
        },
        {
            "text": "sponsorship man that would have been the",
            "start": 167.94,
            "duration": 4.56
        },
        {
            "text": "great that would have been the single",
            "start": 170.76,
            "duration": 6.119
        },
        {
            "text": "greatest play ever uh the NYSE was",
            "start": 172.5,
            "duration": 5.879
        },
        {
            "text": "planning to launch a new retail",
            "start": 176.879,
            "duration": 3.72
        },
        {
            "text": "liquidity program a program meant to",
            "start": 178.379,
            "duration": 4.561
        },
        {
            "text": "provide improving improved pricing to",
            "start": 180.599,
            "duration": 4.14
        },
        {
            "text": "retail investors through retail Brokers",
            "start": 182.94,
            "duration": 5.879
        },
        {
            "text": "like connect on August 1st 2012 in",
            "start": 184.739,
            "duration": 5.64
        },
        {
            "text": "preparation for this event tonight",
            "start": 188.819,
            "duration": 3.601
        },
        {
            "text": "updated their automated high-speed",
            "start": 190.379,
            "duration": 4.621
        },
        {
            "text": "algorithmic router that sent uh orders",
            "start": 192.42,
            "duration": 4.56
        },
        {
            "text": "into the market for execution known as",
            "start": 195.0,
            "duration": 4.26
        },
        {
            "text": "smarts I already hate that I already",
            "start": 196.98,
            "duration": 4.979
        },
        {
            "text": "hate that that acronym just so you know",
            "start": 199.26,
            "duration": 5.64
        },
        {
            "text": "smart uh one of the core functions of",
            "start": 201.959,
            "duration": 4.741
        },
        {
            "text": "Mars is to receive orders from",
            "start": 204.9,
            "duration": 3.479
        },
        {
            "text": "components of night trading platform",
            "start": 206.7,
            "duration": 4.38
        },
        {
            "text": "parent orders and send the one uh one or",
            "start": 208.379,
            "duration": 5.041
        },
        {
            "text": "more child orders for execution in other",
            "start": 211.08,
            "duration": 4.379
        },
        {
            "text": "words Mars would receive large orders",
            "start": 213.42,
            "duration": 3.42
        },
        {
            "text": "from the trading platform and break them",
            "start": 215.459,
            "duration": 3.541
        },
        {
            "text": "up into smaller orders to in order to",
            "start": 216.84,
            "duration": 3.899
        },
        {
            "text": "find a buy or seller match for the",
            "start": 219.0,
            "duration": 3.0
        },
        {
            "text": "volume of shares yeah that makes sense",
            "start": 220.739,
            "duration": 3.72
        },
        {
            "text": "because you can't just like drop a",
            "start": 222.0,
            "duration": 4.08
        },
        {
            "text": "million shares of something you gotta",
            "start": 224.459,
            "duration": 3.241
        },
        {
            "text": "feed it in right you got to feed it into",
            "start": 226.08,
            "duration": 3.54
        },
        {
            "text": "the dummies that are still buying while",
            "start": 227.7,
            "duration": 3.24
        },
        {
            "text": "you're dropping bombs you know what I",
            "start": 229.62,
            "duration": 3.72
        },
        {
            "text": "mean you got to be careful uh the update",
            "start": 230.94,
            "duration": 4.2
        },
        {
            "text": "to smarts was intended to replace old",
            "start": 233.34,
            "duration": 4.08
        },
        {
            "text": "unused code referred to as power Peg",
            "start": 235.14,
            "duration": 4.44
        },
        {
            "text": "nothing like a good old-fashioned power",
            "start": 237.42,
            "duration": 4.98
        },
        {
            "text": "pegging that's what I always say I'm",
            "start": 239.58,
            "duration": 4.76
        },
        {
            "text": "known for this I'm known for this phrase",
            "start": 242.4,
            "duration": 4.8
        },
        {
            "text": "saying it uh functionality that Knight",
            "start": 244.34,
            "duration": 5.08
        },
        {
            "text": "hadn't used in eight years why code has",
            "start": 247.2,
            "duration": 3.599
        },
        {
            "text": "been dead for eight years was still",
            "start": 249.42,
            "duration": 3.179
        },
        {
            "text": "present in the code base is a mystery uh",
            "start": 250.799,
            "duration": 3.72
        },
        {
            "text": "because you don't remove code everybody",
            "start": 252.599,
            "duration": 4.2
        },
        {
            "text": "knows that power Peg with unused power",
            "start": 254.519,
            "duration": 4.021
        },
        {
            "text": "pegging is the status day of all time",
            "start": 256.799,
            "duration": 4.381
        },
        {
            "text": "that code will uh see the code that that",
            "start": 258.54,
            "duration": 5.04
        },
        {
            "text": "was up to created repurpose an old flag",
            "start": 261.18,
            "duration": 4.44
        },
        {
            "text": "that was used to activate the power Peg",
            "start": 263.58,
            "duration": 3.899
        },
        {
            "text": "functionality the code was thoroughly",
            "start": 265.62,
            "duration": 3.299
        },
        {
            "text": "tested and proven to work correctly and",
            "start": 267.479,
            "duration": 3.841
        },
        {
            "text": "reliably what could possibly go wrong",
            "start": 268.919,
            "duration": 4.381
        },
        {
            "text": "man I'm so excited",
            "start": 271.32,
            "duration": 6.18
        },
        {
            "text": "I'm I'm I'm I'm so excited okay okay",
            "start": 273.3,
            "duration": 6.78
        },
        {
            "text": "what could go wrong",
            "start": 277.5,
            "duration": 5.4
        },
        {
            "text": "indeed you know I've said this phrase I",
            "start": 280.08,
            "duration": 4.44
        },
        {
            "text": "have literally never said this phrase",
            "start": 282.9,
            "duration": 3.66
        },
        {
            "text": "and been happy with whatever the result",
            "start": 284.52,
            "duration": 4.44
        },
        {
            "text": "was I've like I've never said this",
            "start": 286.56,
            "duration": 4.8
        },
        {
            "text": "phrase and then been happy it's always",
            "start": 288.96,
            "duration": 4.799
        },
        {
            "text": "sad I always break something in",
            "start": 291.36,
            "duration": 4.2
        },
        {
            "text": "production what's the worst thing that",
            "start": 293.759,
            "duration": 3.541
        },
        {
            "text": "could go wrong well you bricked a couple",
            "start": 295.56,
            "duration": 3.419
        },
        {
            "text": "devices for a couple days I remember",
            "start": 297.3,
            "duration": 3.48
        },
        {
            "text": "when we were replacing the network stack",
            "start": 298.979,
            "duration": 4.561
        },
        {
            "text": "live in production at Netflix like at",
            "start": 300.78,
            "duration": 5.88
        },
        {
            "text": "some point I was just like screw it we",
            "start": 303.54,
            "duration": 5.52
        },
        {
            "text": "got it we just gotta do it and it it was",
            "start": 306.66,
            "duration": 4.62
        },
        {
            "text": "so nerve-wracking that by the time I got",
            "start": 309.06,
            "duration": 3.359
        },
        {
            "text": "done with it I was just like all right",
            "start": 311.28,
            "duration": 2.88
        },
        {
            "text": "what's the worst that could go wrong",
            "start": 312.419,
            "duration": 3.84
        },
        {
            "text": "turns out luckily the only thing that",
            "start": 314.16,
            "duration": 3.479
        },
        {
            "text": "went wrong that time is that we actually",
            "start": 316.259,
            "duration": 3.121
        },
        {
            "text": "just didn't replace the network stack",
            "start": 317.639,
            "duration": 3.301
        },
        {
            "text": "and it would it would reload the app",
            "start": 319.38,
            "duration": 4.319
        },
        {
            "text": "three times and then fail backwards and",
            "start": 320.94,
            "duration": 4.92
        },
        {
            "text": "so I was very happy about that that",
            "start": 323.699,
            "duration": 4.5
        },
        {
            "text": "despite",
            "start": 325.86,
            "duration": 4.74
        },
        {
            "text": "failing to change the tires on a moving",
            "start": 328.199,
            "duration": 4.741
        },
        {
            "text": "car at least the spare was still",
            "start": 330.6,
            "duration": 4.02
        },
        {
            "text": "attached and everything just worked uh",
            "start": 332.94,
            "duration": 4.92
        },
        {
            "text": "between July 27 2012 and July 31st 2012",
            "start": 334.62,
            "duration": 4.68
        },
        {
            "text": "Knight manually deployed the new",
            "start": 337.86,
            "duration": 3.0
        },
        {
            "text": "software to a limited number of servers",
            "start": 339.3,
            "duration": 3.66
        },
        {
            "text": "per day eight servers in all this is",
            "start": 340.86,
            "duration": 4.08
        },
        {
            "text": "what the SEC filing says about manual",
            "start": 342.96,
            "duration": 3.959
        },
        {
            "text": "deployment process by the way if there",
            "start": 344.94,
            "duration": 3.72
        },
        {
            "text": "is an SEC filing about your deployment",
            "start": 346.919,
            "duration": 3.72
        },
        {
            "text": "uh something may have gone terribly",
            "start": 348.66,
            "duration": 4.22
        },
        {
            "text": "wrong",
            "start": 350.639,
            "duration": 2.241
        },
        {
            "text": "perfect during the deployment of new",
            "start": 354.979,
            "duration": 4.541
        },
        {
            "text": "code however one of the night",
            "start": 357.66,
            "duration": 4.379
        },
        {
            "text": "technicians did not copy the new code to",
            "start": 359.52,
            "duration": 6.179
        },
        {
            "text": "one of the eight smars computer server",
            "start": 362.039,
            "duration": 5.821
        },
        {
            "text": "this is why you don't manually deploy at",
            "start": 365.699,
            "duration": 3.601
        },
        {
            "text": "that level if you have hundreds of",
            "start": 367.86,
            "duration": 3.899
        },
        {
            "text": "millions of dollars of assets figure out",
            "start": 369.3,
            "duration": 5.28
        },
        {
            "text": "how to automate it pay somebody pay two",
            "start": 371.759,
            "duration": 4.561
        },
        {
            "text": "people pay five people",
            "start": 374.58,
            "duration": 3.54
        },
        {
            "text": "okay because you know what's gonna",
            "start": 376.32,
            "duration": 3.3
        },
        {
            "text": "happen you know what's gonna happen",
            "start": 378.12,
            "duration": 4.1
        },
        {
            "text": "you're gonna get power pegged okay",
            "start": 379.62,
            "duration": 4.74
        },
        {
            "text": "during the deployment of the new code",
            "start": 382.22,
            "duration": 4.0
        },
        {
            "text": "however one of the knights technicians",
            "start": 384.36,
            "duration": 3.779
        },
        {
            "text": "weird also used the phrase technicians",
            "start": 386.22,
            "duration": 4.38
        },
        {
            "text": "did not copy the new code uh to one of",
            "start": 388.139,
            "duration": 5.041
        },
        {
            "text": "the eight smarts computer servers Knight",
            "start": 390.6,
            "duration": 4.319
        },
        {
            "text": "did not have a second technician review",
            "start": 393.18,
            "duration": 4.26
        },
        {
            "text": "this deployment and no one at night",
            "start": 394.919,
            "duration": 4.441
        },
        {
            "text": "realized that power pay code had not",
            "start": 397.44,
            "duration": 3.9
        },
        {
            "text": "been removed from the eighth server nor",
            "start": 399.36,
            "duration": 4.92
        },
        {
            "text": "the new rlp code added Knight had no",
            "start": 401.34,
            "duration": 4.44
        },
        {
            "text": "written procedures that required such a",
            "start": 404.28,
            "duration": 5.039
        },
        {
            "text": "review uh at 9 30 a.m Eastern Time on",
            "start": 405.78,
            "duration": 5.28
        },
        {
            "text": "August 1st 2012 the markets open tonight",
            "start": 409.319,
            "duration": 3.6
        },
        {
            "text": "began processing orders from the broker",
            "start": 411.06,
            "duration": 4.079
        },
        {
            "text": "uh dealers on behalf of their customers",
            "start": 412.919,
            "duration": 4.681
        },
        {
            "text": "for the new retail liquidity program and",
            "start": 415.139,
            "duration": 3.84
        },
        {
            "text": "the Seven servers that had the correct",
            "start": 417.6,
            "duration": 3.06
        },
        {
            "text": "smarts deployment began processing these",
            "start": 418.979,
            "duration": 3.301
        },
        {
            "text": "orders correctly order sent to the",
            "start": 420.66,
            "duration": 4.14
        },
        {
            "text": "eighth triggered Asus uh a supposable",
            "start": 422.28,
            "duration": 5.16
        },
        {
            "text": "repurposed flag and brought back from",
            "start": 424.8,
            "duration": 6.619
        },
        {
            "text": "the dead the old Power Peg code oh yes",
            "start": 427.44,
            "duration": 6.539
        },
        {
            "text": "attacks of the killer code zombies it's",
            "start": 431.419,
            "duration": 4.301
        },
        {
            "text": "important to understand what the dead",
            "start": 433.979,
            "duration": 4.141
        },
        {
            "text": "power Peg code was meant to do this",
            "start": 435.72,
            "duration": 4.259
        },
        {
            "text": "functionality was meant to count the",
            "start": 438.12,
            "duration": 3.359
        },
        {
            "text": "shares bought and sold against a parent",
            "start": 439.979,
            "duration": 3.361
        },
        {
            "text": "order as child orders were executed",
            "start": 441.479,
            "duration": 4.201
        },
        {
            "text": "power Peg would instruct the system to",
            "start": 443.34,
            "duration": 4.38
        },
        {
            "text": "stop routing child orders once the",
            "start": 445.68,
            "duration": 4.38
        },
        {
            "text": "parent order was fulfilled basically",
            "start": 447.72,
            "duration": 4.56
        },
        {
            "text": "power Peg would keep track of the child",
            "start": 450.06,
            "duration": 4.02
        },
        {
            "text": "orders and stop them once the parent",
            "start": 452.28,
            "duration": 4.44
        },
        {
            "text": "order was completed in 2005 Knight",
            "start": 454.08,
            "duration": 4.8
        },
        {
            "text": "removed this cumulative tracking",
            "start": 456.72,
            "duration": 3.96
        },
        {
            "text": "functionality to an earlier stage in the",
            "start": 458.88,
            "duration": 3.78
        },
        {
            "text": "code execution thus removing the count",
            "start": 460.68,
            "duration": 3.78
        },
        {
            "text": "tracking from the power Peg",
            "start": 462.66,
            "duration": 5.28
        },
        {
            "text": "functionality oh no",
            "start": 464.46,
            "duration": 6.42
        },
        {
            "text": "they are about to get power pegged when",
            "start": 467.94,
            "duration": 5.159
        },
        {
            "text": "the power Peg flag on the eighth server",
            "start": 470.88,
            "duration": 3.78
        },
        {
            "text": "was activated the power Peg",
            "start": 473.099,
            "duration": 3.781
        },
        {
            "text": "functionality began routing child orders",
            "start": 474.66,
            "duration": 4.56
        },
        {
            "text": "for execution but wasn't tracking the",
            "start": 476.88,
            "duration": 3.719
        },
        {
            "text": "amount of shares against the parent",
            "start": 479.22,
            "duration": 4.259
        },
        {
            "text": "order somewhat like an endless loop",
            "start": 480.599,
            "duration": 6.181
        },
        {
            "text": "getting pegged wait hold on hold on hold",
            "start": 483.479,
            "duration": 6.981
        },
        {
            "text": "on are you telling me that power pegged",
            "start": 486.78,
            "duration": 7.68
        },
        {
            "text": "literally accidentally pegged the CPU in",
            "start": 490.46,
            "duration": 6.1
        },
        {
            "text": "a in a wild true Loop endless pegging",
            "start": 494.46,
            "duration": 4.919
        },
        {
            "text": "like literally power Peg got pegged what",
            "start": 496.56,
            "duration": 5.819
        },
        {
            "text": "is the chances this is so good 45",
            "start": 499.379,
            "duration": 4.621
        },
        {
            "text": "minutes of hell imagine what would",
            "start": 502.379,
            "duration": 3.061
        },
        {
            "text": "happen if you had a system capable of",
            "start": 504.0,
            "duration": 3.3
        },
        {
            "text": "sending automated high-speed orders into",
            "start": 505.44,
            "duration": 3.539
        },
        {
            "text": "the market without any tracking to see",
            "start": 507.3,
            "duration": 3.959
        },
        {
            "text": "if enough orders had been executed yes",
            "start": 508.979,
            "duration": 4.92
        },
        {
            "text": "it was that bad when the market opened",
            "start": 511.259,
            "duration": 4.381
        },
        {
            "text": "at 9 30 people quickly knew something",
            "start": 513.899,
            "duration": 5.94
        },
        {
            "text": "was wrong by 9 to 31 imagine one minute",
            "start": 515.64,
            "duration": 6.42
        },
        {
            "text": "later it was evident to many people on",
            "start": 519.839,
            "duration": 3.661
        },
        {
            "text": "Wall Street that something serious was",
            "start": 522.06,
            "duration": 2.88
        },
        {
            "text": "happening the market was being flooded",
            "start": 523.5,
            "duration": 3.18
        },
        {
            "text": "with orders uh orders out of the",
            "start": 524.94,
            "duration": 3.78
        },
        {
            "text": "ordinary for regular Trading volumes on",
            "start": 526.68,
            "duration": 5.339
        },
        {
            "text": "certain Stocks by 932 many people on",
            "start": 528.72,
            "duration": 5.1
        },
        {
            "text": "Wall Street were wondering why it hadn't",
            "start": 532.019,
            "duration": 3.961
        },
        {
            "text": "stopped oh my goodness this is the",
            "start": 533.82,
            "duration": 3.6
        },
        {
            "text": "greatest time dude imagine what you",
            "start": 535.98,
            "duration": 3.9
        },
        {
            "text": "could do with like the put market like",
            "start": 537.42,
            "duration": 4.08
        },
        {
            "text": "imagine if you were alive at this point",
            "start": 539.88,
            "duration": 3.42
        },
        {
            "text": "and you saw all these orders flooding in",
            "start": 541.5,
            "duration": 3.72
        },
        {
            "text": "and you just bought a put",
            "start": 543.3,
            "duration": 5.219
        },
        {
            "text": "right like you just bought a put at all",
            "start": 545.22,
            "duration": 5.76
        },
        {
            "text": "and the stonk prices just started just",
            "start": 548.519,
            "duration": 7.861
        },
        {
            "text": "going oh dude oh man this is so good",
            "start": 550.98,
            "duration": 7.2
        },
        {
            "text": "this was an eternity in high speed",
            "start": 556.38,
            "duration": 3.66
        },
        {
            "text": "trading terms why hadn't someone killed",
            "start": 558.18,
            "duration": 3.48
        },
        {
            "text": "the switch uh kill switch on whatever",
            "start": 560.04,
            "duration": 3.479
        },
        {
            "text": "system was doing this as it turns out",
            "start": 561.66,
            "duration": 4.92
        },
        {
            "text": "there was no kill switch no way",
            "start": 563.519,
            "duration": 5.101
        },
        {
            "text": "during the first 45 minutes of trading",
            "start": 566.58,
            "duration": 5.16
        },
        {
            "text": "Knights executions uh constituted more",
            "start": 568.62,
            "duration": 4.8
        },
        {
            "text": "than 50 percent of the trading volume",
            "start": 571.74,
            "duration": 4.02
        },
        {
            "text": "driving certain stocks up over 10",
            "start": 573.42,
            "duration": 4.56
        },
        {
            "text": "percent of their value as a result other",
            "start": 575.76,
            "duration": 4.38
        },
        {
            "text": "stocks decreased in value in response to",
            "start": 577.98,
            "duration": 4.979
        },
        {
            "text": "erroneous trades oh my goodness to make",
            "start": 580.14,
            "duration": 4.56
        },
        {
            "text": "things worse night system began sending",
            "start": 582.959,
            "duration": 3.721
        },
        {
            "text": "automated email messages earlier in the",
            "start": 584.7,
            "duration": 5.04
        },
        {
            "text": "day or uh as early as 801 when smarts",
            "start": 586.68,
            "duration": 4.56
        },
        {
            "text": "had process orders eligible for",
            "start": 589.74,
            "duration": 3.36
        },
        {
            "text": "pre-market trading the email message",
            "start": 591.24,
            "duration": 4.32
        },
        {
            "text": "refers to smarts and identified and",
            "start": 593.1,
            "duration": 6.419
        },
        {
            "text": "error as power Peg disabled oh it wasn't",
            "start": 595.56,
            "duration": 6.54
        },
        {
            "text": "disabled that power Peg was on you would",
            "start": 599.519,
            "duration": 4.5
        },
        {
            "text": "think that somebody at this point was",
            "start": 602.1,
            "duration": 4.2
        },
        {
            "text": "watching the system right you're about",
            "start": 604.019,
            "duration": 6.541
        },
        {
            "text": "to go day one day Zero of a new trading",
            "start": 606.3,
            "duration": 6.24
        },
        {
            "text": "functionality and you're telling me that",
            "start": 610.56,
            "duration": 3.42
        },
        {
            "text": "they didn't somehow catch it with an",
            "start": 612.54,
            "duration": 3.239
        },
        {
            "text": "hour and a half of warning",
            "start": 613.98,
            "duration": 4.919
        },
        {
            "text": "between 801 and 9 30 a.m there was 97 of",
            "start": 615.779,
            "duration": 5.101
        },
        {
            "text": "these emails sent to Knight Personnel of",
            "start": 618.899,
            "duration": 3.661
        },
        {
            "text": "course these emails were not designated",
            "start": 620.88,
            "duration": 3.54
        },
        {
            "text": "as system alerts and therefore no one",
            "start": 622.56,
            "duration": 4.1
        },
        {
            "text": "looked at him right away",
            "start": 624.42,
            "duration": 5.7
        },
        {
            "text": "oh oh the pre-packing of the power",
            "start": 626.66,
            "duration": 6.4
        },
        {
            "text": "pancake was painful enough during the 45",
            "start": 630.12,
            "duration": 4.8
        },
        {
            "text": "minutes of hell that night experienced",
            "start": 633.06,
            "duration": 3.36
        },
        {
            "text": "that uh they attempted several",
            "start": 634.92,
            "duration": 3.0
        },
        {
            "text": "countermeasures and tried to stop the",
            "start": 636.42,
            "duration": 3.539
        },
        {
            "text": "erroneous trades there was no kill",
            "start": 637.92,
            "duration": 3.84
        },
        {
            "text": "switch and no documented procedure for",
            "start": 639.959,
            "duration": 3.901
        },
        {
            "text": "how to react so they were left trying to",
            "start": 641.76,
            "duration": 4.319
        },
        {
            "text": "diagnose the issue in a live trading",
            "start": 643.86,
            "duration": 4.08
        },
        {
            "text": "environment where 8 million shares were",
            "start": 646.079,
            "duration": 5.041
        },
        {
            "text": "being traded every minute oh my goodness",
            "start": 647.94,
            "duration": 5.1
        },
        {
            "text": "you're telling me you never built in",
            "start": 651.12,
            "duration": 4.56
        },
        {
            "text": "like an oopsie Daisy handle how does",
            "start": 653.04,
            "duration": 5.22
        },
        {
            "text": "that happen especially with high what",
            "start": 655.68,
            "duration": 5.7
        },
        {
            "text": "just unplug the server just rmrf it just",
            "start": 658.26,
            "duration": 6.0
        },
        {
            "text": "kill it control C control D give him the",
            "start": 661.38,
            "duration": 4.74
        },
        {
            "text": "D give them the C give them whatever you",
            "start": 664.26,
            "duration": 4.8
        },
        {
            "text": "got to end that they oh my goodness",
            "start": 666.12,
            "duration": 4.44
        },
        {
            "text": "since they're unable to determine what",
            "start": 669.06,
            "duration": 3.3
        },
        {
            "text": "was causing the errones orders they",
            "start": 670.56,
            "duration": 3.24
        },
        {
            "text": "reacted by uninstalling the new code",
            "start": 672.36,
            "duration": 3.419
        },
        {
            "text": "from the servers it was deployed to",
            "start": 673.8,
            "duration": 3.9
        },
        {
            "text": "correctly in other words they removed",
            "start": 675.779,
            "duration": 3.3
        },
        {
            "text": "the working code and left the broken",
            "start": 677.7,
            "duration": 2.94
        },
        {
            "text": "code",
            "start": 679.079,
            "duration": 3.541
        },
        {
            "text": "this only Amplified the issue causing",
            "start": 680.64,
            "duration": 3.72
        },
        {
            "text": "additional parent orders to activate the",
            "start": 682.62,
            "duration": 4.8
        },
        {
            "text": "power pay code oh oh power the power",
            "start": 684.36,
            "duration": 5.4
        },
        {
            "text": "mode went over 9000 at that point it",
            "start": 687.42,
            "duration": 4.38
        },
        {
            "text": "went to the full power pegging oh the",
            "start": 689.76,
            "duration": 3.84
        },
        {
            "text": "code on all the servers not just the one",
            "start": 691.8,
            "duration": 3.18
        },
        {
            "text": "that wasn't deployed to correctly",
            "start": 693.6,
            "duration": 3.299
        },
        {
            "text": "eventually they were able to stop the",
            "start": 694.98,
            "duration": 4.38
        },
        {
            "text": "system after 45 minutes of trading in",
            "start": 696.899,
            "duration": 4.981
        },
        {
            "text": "the first 45 minutes the market was open",
            "start": 699.36,
            "duration": 4.62
        },
        {
            "text": "the power Peg code received and",
            "start": 701.88,
            "duration": 5.72
        },
        {
            "text": "processed 212 parent orders as a result",
            "start": 703.98,
            "duration": 6.539
        },
        {
            "text": "smars sent millions of child orders into",
            "start": 707.6,
            "duration": 4.66
        },
        {
            "text": "the market resulting in 4 million",
            "start": 710.519,
            "duration": 4.5
        },
        {
            "text": "transaction against 154 stocks for more",
            "start": 712.26,
            "duration": 6.0
        },
        {
            "text": "than 397 million shares for your stock",
            "start": 715.019,
            "duration": 5.281
        },
        {
            "text": "market junkies this meant Knight assumed",
            "start": 718.26,
            "duration": 4.44
        },
        {
            "text": "approximately 3.5 billion net long",
            "start": 720.3,
            "duration": 5.58
        },
        {
            "text": "positions in 80 stocks and 3.15 billion",
            "start": 722.7,
            "duration": 7.02
        },
        {
            "text": "net short positions in 74 stocks",
            "start": 725.88,
            "duration": 6.36
        },
        {
            "text": "oh gosh that makes me want to vomit in",
            "start": 729.72,
            "duration": 4.32
        },
        {
            "text": "layman's terms Knight Capital group",
            "start": 732.24,
            "duration": 5.82
        },
        {
            "text": "realized a 460 million uh loss in 45",
            "start": 734.04,
            "duration": 7.38
        },
        {
            "text": "minutes remember Knight has only 365",
            "start": 738.06,
            "duration": 5.219
        },
        {
            "text": "million in cash and you must pay up",
            "start": 741.42,
            "duration": 5.039
        },
        {
            "text": "right away and equivalents in 45 minutes",
            "start": 743.279,
            "duration": 5.281
        },
        {
            "text": "Knight went from being the largest",
            "start": 746.459,
            "duration": 4.141
        },
        {
            "text": "Trader in U.S equities in a Major Market",
            "start": 748.56,
            "duration": 4.08
        },
        {
            "text": "maker in the New York Stock Exchange in",
            "start": 750.6,
            "duration": 4.979
        },
        {
            "text": "NASDAQ to bankrupt they had 48 hours to",
            "start": 752.64,
            "duration": 4.319
        },
        {
            "text": "raise the capital necessary to cover",
            "start": 755.579,
            "duration": 3.241
        },
        {
            "text": "their lossage which they managed to do",
            "start": 756.959,
            "duration": 4.38
        },
        {
            "text": "with a 400 million investment from",
            "start": 758.82,
            "duration": 4.8
        },
        {
            "text": "around a half dozen investors oh my",
            "start": 761.339,
            "duration": 3.901
        },
        {
            "text": "goodness night Capital group was",
            "start": 763.62,
            "duration": 4.68
        },
        {
            "text": "eventually acquired by uh getco LLC",
            "start": 765.24,
            "duration": 5.399
        },
        {
            "text": "December 12th and they merged company is",
            "start": 768.3,
            "duration": 5.58
        },
        {
            "text": "now called kcg Holdings man whoever",
            "start": 770.639,
            "duration": 5.521
        },
        {
            "text": "bought into that company was able to buy",
            "start": 773.88,
            "duration": 4.92
        },
        {
            "text": "shares at such a cheap price think about",
            "start": 776.16,
            "duration": 5.34
        },
        {
            "text": "how cheap they got to buy stock for oh",
            "start": 778.8,
            "duration": 5.039
        },
        {
            "text": "you need 400 million dollars well guess",
            "start": 781.5,
            "duration": 3.24
        },
        {
            "text": "what",
            "start": 783.839,
            "duration": 3.12
        },
        {
            "text": "that dollar per share is gonna have to",
            "start": 784.74,
            "duration": 4.74
        },
        {
            "text": "uh it's gonna have to go down it's gonna",
            "start": 786.959,
            "duration": 4.32
        },
        {
            "text": "have to go down the events of August 1st",
            "start": 789.48,
            "duration": 3.18
        },
        {
            "text": "2012 should be a lesson to all",
            "start": 791.279,
            "duration": 3.541
        },
        {
            "text": "development and operations teams it is",
            "start": 792.66,
            "duration": 3.72
        },
        {
            "text": "not enough to build great software and",
            "start": 794.82,
            "duration": 2.88
        },
        {
            "text": "test it you also have to ensure its",
            "start": 796.38,
            "duration": 2.699
        },
        {
            "text": "delivery to Market correctly so that",
            "start": 797.7,
            "duration": 3.6
        },
        {
            "text": "your customers can get value uh you are",
            "start": 799.079,
            "duration": 3.841
        },
        {
            "text": "delivering and you don't bankrupt your",
            "start": 801.3,
            "duration": 3.3
        },
        {
            "text": "company the engineers who deployed",
            "start": 802.92,
            "duration": 3.3
        },
        {
            "text": "smarts are not solely to blame here the",
            "start": 804.6,
            "duration": 3.06
        },
        {
            "text": "process Knight had set up was not",
            "start": 806.22,
            "duration": 2.58
        },
        {
            "text": "appropriate for the risk they were",
            "start": 807.66,
            "duration": 2.7
        },
        {
            "text": "exposed to additionally their process or",
            "start": 808.8,
            "duration": 3.06
        },
        {
            "text": "lack thereof was inherently prone to",
            "start": 810.36,
            "duration": 3.3
        },
        {
            "text": "error anytime your development process",
            "start": 811.86,
            "duration": 3.779
        },
        {
            "text": "relies on human reading or following",
            "start": 813.66,
            "duration": 3.299
        },
        {
            "text": "instructions you are exposing yourself",
            "start": 815.639,
            "duration": 3.541
        },
        {
            "text": "to risk absolutely I would say that all",
            "start": 816.959,
            "duration": 4.081
        },
        {
            "text": "the individual the only",
            "start": 819.18,
            "duration": 4.56
        },
        {
            "text": "fault to the individual Engineers was",
            "start": 821.04,
            "duration": 5.64
        },
        {
            "text": "the fact that they did not",
            "start": 823.74,
            "duration": 5.88
        },
        {
            "text": "push hard against this process saying",
            "start": 826.68,
            "duration": 5.82
        },
        {
            "text": "that it's crazy right the managers are",
            "start": 829.62,
            "duration": 5.219
        },
        {
            "text": "all to blame the individual like",
            "start": 832.5,
            "duration": 4.2
        },
        {
            "text": "everybody's to blame that no one took",
            "start": 834.839,
            "duration": 4.62
        },
        {
            "text": "the took this and anyone that did",
            "start": 836.7,
            "duration": 4.92
        },
        {
            "text": "then they're not to blame the fact that",
            "start": 839.459,
            "duration": 3.781
        },
        {
            "text": "man humans make mistakes the mistakes",
            "start": 841.62,
            "duration": 3.54
        },
        {
            "text": "could be uh could be the instructions",
            "start": 843.24,
            "duration": 3.659
        },
        {
            "text": "the interpretation of instructions or",
            "start": 845.16,
            "duration": 3.66
        },
        {
            "text": "the execution of instructions yeah",
            "start": 846.899,
            "duration": 3.361
        },
        {
            "text": "deployments need to be automated and",
            "start": 848.82,
            "duration": 4.199
        },
        {
            "text": "repeatable yep uh as free from potential",
            "start": 850.26,
            "duration": 4.379
        },
        {
            "text": "human error as possible had Knight",
            "start": 853.019,
            "duration": 3.06
        },
        {
            "text": "implemented an automated deployment",
            "start": 854.639,
            "duration": 2.82
        },
        {
            "text": "System complete with configuration",
            "start": 856.079,
            "duration": 2.88
        },
        {
            "text": "deployment and testing automation the",
            "start": 857.459,
            "duration": 3.841
        },
        {
            "text": "error that had caused the night mayor",
            "start": 858.959,
            "duration": 4.56
        },
        {
            "text": "cutesy uh would have been avoided a",
            "start": 861.3,
            "duration": 4.38
        },
        {
            "text": "couple principles uh okay you know what",
            "start": 863.519,
            "duration": 3.361
        },
        {
            "text": "I think the one thing that he didn't",
            "start": 865.68,
            "duration": 3.06
        },
        {
            "text": "touch on which is obvious",
            "start": 866.88,
            "duration": 5.1
        },
        {
            "text": "is a kill switch is a requirement I",
            "start": 868.74,
            "duration": 5.099
        },
        {
            "text": "cannot tell you I",
            "start": 871.98,
            "duration": 4.02
        },
        {
            "text": "when I first started out at Netflix",
            "start": 873.839,
            "duration": 4.981
        },
        {
            "text": "again Netflix we built a pretty large",
            "start": 876.0,
            "duration": 4.68
        },
        {
            "text": "feature called Darwin social Mountain it",
            "start": 878.82,
            "duration": 3.78
        },
        {
            "text": "was a reworking of a lot of the app's",
            "start": 880.68,
            "duration": 3.18
        },
        {
            "text": "core infrastructure to be able to",
            "start": 882.6,
            "duration": 2.94
        },
        {
            "text": "deliver and integrate with Facebook and",
            "start": 883.86,
            "duration": 3.0
        },
        {
            "text": "be able to recommend videos with friends",
            "start": 885.54,
            "duration": 3.78
        },
        {
            "text": "and all this this was in 2013 to 2014",
            "start": 886.86,
            "duration": 5.4
        },
        {
            "text": "and one of the first things I built in",
            "start": 889.32,
            "duration": 5.28
        },
        {
            "text": "was two features one I called the slow",
            "start": 892.26,
            "duration": 3.96
        },
        {
            "text": "clap which I thought was a great name",
            "start": 894.6,
            "duration": 3.06
        },
        {
            "text": "for a product and it never took off",
            "start": 896.22,
            "duration": 2.7
        },
        {
            "text": "though it should have been now we call",
            "start": 897.66,
            "duration": 3.479
        },
        {
            "text": "them slow rollouts but I called it the",
            "start": 898.92,
            "duration": 4.859
        },
        {
            "text": "slow clap which was I used the",
            "start": 901.139,
            "duration": 5.76
        },
        {
            "text": "customer's ID and a module a modulo",
            "start": 903.779,
            "duration": 4.86
        },
        {
            "text": "operator and assault",
            "start": 906.899,
            "duration": 5.701
        },
        {
            "text": "to be able to deliver an A B feature to",
            "start": 908.639,
            "duration": 6.601
        },
        {
            "text": "uh just certain people that way I could",
            "start": 912.6,
            "duration": 4.799
        },
        {
            "text": "set it to one and one percent of all the",
            "start": 915.24,
            "duration": 3.899
        },
        {
            "text": "customers would come in and get that",
            "start": 917.399,
            "duration": 3.541
        },
        {
            "text": "feature so that way we could measure to",
            "start": 919.139,
            "duration": 3.0
        },
        {
            "text": "make sure we haven't screwed everything",
            "start": 920.94,
            "duration": 4.079
        },
        {
            "text": "up and two I had a kill feature a kill",
            "start": 922.139,
            "duration": 5.521
        },
        {
            "text": "flake if I was gonna do this gigantic",
            "start": 925.019,
            "duration": 4.32
        },
        {
            "text": "test I was going to ensure that I could",
            "start": 927.66,
            "duration": 4.799
        },
        {
            "text": "kill the thing in case I royally screwed",
            "start": 929.339,
            "duration": 6.36
        },
        {
            "text": "it up uh it was awesome",
            "start": 932.459,
            "duration": 5.94
        },
        {
            "text": "it was awesome slow clap worked like a",
            "start": 935.699,
            "duration": 4.981
        },
        {
            "text": "charm we could see it happening it was",
            "start": 938.399,
            "duration": 4.321
        },
        {
            "text": "so sweet to do some modular some modular",
            "start": 940.68,
            "duration": 4.92
        },
        {
            "text": "bath the only downfall again",
            "start": 942.72,
            "duration": 4.919
        },
        {
            "text": "there was no there was no continuation",
            "start": 945.6,
            "duration": 3.539
        },
        {
            "text": "of the term the slow clap that's really",
            "start": 947.639,
            "duration": 3.06
        },
        {
            "text": "the saddest part of the whole thing is",
            "start": 949.139,
            "duration": 3.181
        },
        {
            "text": "an amazing name for that it is it's the",
            "start": 950.699,
            "duration": 3.181
        },
        {
            "text": "it's slow clap because it starts off",
            "start": 952.32,
            "duration": 3.6
        },
        {
            "text": "with one person clapping",
            "start": 953.88,
            "duration": 3.72
        },
        {
            "text": "and then eventually everyone's clapping",
            "start": 955.92,
            "duration": 4.62
        },
        {
            "text": "it as yeah dude it was so good let's see",
            "start": 957.6,
            "duration": 4.08
        },
        {
            "text": "did you ever have to use the kill switch",
            "start": 960.54,
            "duration": 3.359
        },
        {
            "text": "no but we did have it and I did uh we",
            "start": 961.68,
            "duration": 3.719
        },
        {
            "text": "did test it just to make sure we",
            "start": 963.899,
            "duration": 3.12
        },
        {
            "text": "allocated some people started making it",
            "start": 965.399,
            "duration": 3.421
        },
        {
            "text": "run and then killed just to make sure",
            "start": 967.019,
            "duration": 3.961
        },
        {
            "text": "that our kill switch would work a seven",
            "start": 968.82,
            "duration": 4.92
        },
        {
            "text": "out of eight article would read again",
            "start": 970.98,
            "duration": 7.5
        },
        {
            "text": "oh oh the wound hurts the name",
            "start": 973.74,
            "duration": 8.06
        },
        {
            "text": "is the power Packaging",
            "start": 978.48,
            "duration": 3.32
        }
    ],
    "stats": {
        "viewCount": "235880",
        "likeCount": "6011",
        "favoriteCount": "0",
        "commentCount": "474"
    }
}