{
    "id": "MLxGtH4XQTU",
    "title": "History Of Webdev",
    "publishedAt": "2023-11-16T19:50:57Z",
    "captions": [
        {
            "text": "he man look at this we got ourselves a",
            "start": 0.08,
            "duration": 4.52
        },
        {
            "text": "component it's like a class with some",
            "start": 2.879,
            "duration": 3.44
        },
        {
            "text": "life cycle hooks it makes building",
            "start": 4.6,
            "duration": 4.72
        },
        {
            "text": "components easier one year later hey man",
            "start": 6.319,
            "duration": 4.521
        },
        {
            "text": "we would never use some of these life",
            "start": 9.32,
            "duration": 3.52
        },
        {
            "text": "cycle methods we're going to rename that",
            "start": 10.84,
            "duration": 4.839
        },
        {
            "text": "into unsafe component will receive props",
            "start": 12.84,
            "duration": 4.88
        },
        {
            "text": "we use component did Mount now one year",
            "start": 15.679,
            "duration": 4.081
        },
        {
            "text": "later nobody actually does that anymore",
            "start": 17.72,
            "duration": 4.16
        },
        {
            "text": "we're all about functional components",
            "start": 19.76,
            "duration": 4.24
        },
        {
            "text": "okay so functional components are the",
            "start": 21.88,
            "duration": 4.479
        },
        {
            "text": "way to do things one year later so use",
            "start": 24.0,
            "duration": 4.439
        },
        {
            "text": "effect wasn't quite exactly what we",
            "start": 26.359,
            "duration": 3.641
        },
        {
            "text": "thought it was going to be so you",
            "start": 28.439,
            "duration": 3.441
        },
        {
            "text": "shouldn't use use effect anymore we",
            "start": 30.0,
            "duration": 3.8
        },
        {
            "text": "don't know what to use yet though one",
            "start": 31.88,
            "duration": 4.24
        },
        {
            "text": "year later react on the server is the",
            "start": 33.8,
            "duration": 4.36
        },
        {
            "text": "greatest thing that has ever existed it",
            "start": 36.12,
            "duration": 4.04
        },
        {
            "text": "actually is good trust us this will be",
            "start": 38.16,
            "duration": 4.32
        },
        {
            "text": "the one this is finally the Savior sure",
            "start": 40.16,
            "duration": 3.719
        },
        {
            "text": "your server component can produce a",
            "start": 42.48,
            "duration": 2.8
        },
        {
            "text": "client component which has a rendered",
            "start": 43.879,
            "duration": 2.68
        },
        {
            "text": "server component which has a client",
            "start": 45.28,
            "duration": 2.48
        },
        {
            "text": "component which has a rendered server",
            "start": 46.559,
            "duration": 2.801
        },
        {
            "text": "component inside of it it's not like",
            "start": 47.76,
            "duration": 3.68
        },
        {
            "text": "it's going to be hard to debug or",
            "start": 49.36,
            "duration": 4.24
        },
        {
            "text": "understand what's going on this is truly",
            "start": 51.44,
            "duration": 5.759
        },
        {
            "text": "the Pinnacle a front end one year later",
            "start": 53.6,
            "duration": 5.599
        },
        {
            "text": "so HDMX is actually a really great",
            "start": 57.199,
            "duration": 4.561
        },
        {
            "text": "Library",
            "start": 59.199,
            "duration": 2.561
        }
    ],
    "stats": {
        "viewCount": "256282",
        "likeCount": "11870",
        "favoriteCount": "0",
        "commentCount": "298"
    }
}