{
    "id": "muy_muuMa74",
    "title": "Netscape Announces JavaScript | Prime Reacts",
    "publishedAt": "2023-07-30T12:00:42Z",
    "captions": [
        {
            "text": "Netscape and Sun micro system announces",
            "start": 0.199,
            "duration": 5.501
        },
        {
            "text": "JavaScript the open cross-platform",
            "start": 3.48,
            "duration": 4.379
        },
        {
            "text": "object scripting language what the heck",
            "start": 5.7,
            "duration": 3.479
        },
        {
            "text": "is an object scripting language for",
            "start": 7.859,
            "duration": 4.141
        },
        {
            "text": "Enterprise networks and the internet",
            "start": 9.179,
            "duration": 5.12
        },
        {
            "text": "every single person right now",
            "start": 12.0,
            "duration": 5.46
        },
        {
            "text": "thinking about life",
            "start": 14.299,
            "duration": 5.021
        },
        {
            "text": "look what they did to the internet",
            "start": 17.46,
            "duration": 4.7
        },
        {
            "text": "look at what they did",
            "start": 19.32,
            "duration": 2.84
        },
        {
            "text": "we got JavaScript 28 industry leading",
            "start": 25.74,
            "duration": 6.18
        },
        {
            "text": "companies to endorse JavaScript as a",
            "start": 29.279,
            "duration": 5.161
        },
        {
            "text": "compliment to Java for easy online",
            "start": 31.92,
            "duration": 6.02
        },
        {
            "text": "application development",
            "start": 34.44,
            "duration": 6.54
        },
        {
            "text": "e-o-a-d oh this is beautiful Mountain",
            "start": 37.94,
            "duration": 5.5
        },
        {
            "text": "View California when did we start",
            "start": 40.98,
            "duration": 5.16
        },
        {
            "text": "abbreviating California as caliph",
            "start": 43.44,
            "duration": 6.66
        },
        {
            "text": "December 4th 1995 a day that will live",
            "start": 46.14,
            "duration": 6.3
        },
        {
            "text": "in infamy and I forgot to turn off",
            "start": 50.1,
            "duration": 4.02
        },
        {
            "text": "alerts Netscape Communications",
            "start": 52.44,
            "duration": 5.04
        },
        {
            "text": "Corporation NASDAQ oh wow they really",
            "start": 54.12,
            "duration": 4.98
        },
        {
            "text": "went down and Sun Microsystems",
            "start": 57.48,
            "duration": 5.759
        },
        {
            "text": "Incorporated Sun W uh what a W uh today",
            "start": 59.1,
            "duration": 6.6
        },
        {
            "text": "announced JavaScript an Open Cross pour",
            "start": 63.239,
            "duration": 4.501
        },
        {
            "text": "of platform object scripting language",
            "start": 65.7,
            "duration": 4.02
        },
        {
            "text": "for the creation and customization of",
            "start": 67.74,
            "duration": 4.44
        },
        {
            "text": "applications on Enterprise networks and",
            "start": 69.72,
            "duration": 5.579
        },
        {
            "text": "the Internet Capital I internet the",
            "start": 72.18,
            "duration": 4.92
        },
        {
            "text": "JavaScript language complements Java",
            "start": 75.299,
            "duration": 4.5
        },
        {
            "text": "Sun's industry leading object-oriented",
            "start": 77.1,
            "duration": 4.519
        },
        {
            "text": "cross-platform programming language",
            "start": 79.799,
            "duration": 4.801
        },
        {
            "text": "write one's debug everywhere the initial",
            "start": 81.619,
            "duration": 5.081
        },
        {
            "text": "version of JavaScript is available now",
            "start": 84.6,
            "duration": 4.08
        },
        {
            "text": "as part of the beta version of Netscape",
            "start": 86.7,
            "duration": 3.84
        },
        {
            "text": "Navigator 2.0 which is currently",
            "start": 88.68,
            "duration": 3.18
        },
        {
            "text": "available for downloading from",
            "start": 90.54,
            "duration": 5.759
        },
        {
            "text": "netscape's web site in addition 28 I",
            "start": 91.86,
            "duration": 5.939
        },
        {
            "text": "cannot believe this is how it all",
            "start": 96.299,
            "duration": 4.381
        },
        {
            "text": "started like think about this we now get",
            "start": 97.799,
            "duration": 5.881
        },
        {
            "text": "27 individual tools to compile our",
            "start": 100.68,
            "duration": 5.22
        },
        {
            "text": "JavaScript running on everything from",
            "start": 103.68,
            "duration": 5.759
        },
        {
            "text": "medical devices to NASA to our browser",
            "start": 105.9,
            "duration": 7.02
        },
        {
            "text": "to iot to just device script you get",
            "start": 109.439,
            "duration": 5.341
        },
        {
            "text": "everything now look at what happened",
            "start": 112.92,
            "duration": 3.54
        },
        {
            "text": "this",
            "start": 114.78,
            "duration": 5.64
        },
        {
            "text": "is what made my life less awesome",
            "start": 116.46,
            "duration": 6.42
        },
        {
            "text": "in addition 28 industry leading",
            "start": 120.42,
            "duration": 4.699
        },
        {
            "text": "companies including American online",
            "start": 122.88,
            "duration": 5.159
        },
        {
            "text": "industry-leading Apple computer uh",
            "start": 125.119,
            "duration": 5.14
        },
        {
            "text": "architect software what attachment",
            "start": 128.039,
            "duration": 4.621
        },
        {
            "text": "Corporation what at D Borland",
            "start": 130.259,
            "duration": 4.141
        },
        {
            "text": "International Brio Technology",
            "start": 132.66,
            "duration": 3.299
        },
        {
            "text": "Incorporated Computer Associates",
            "start": 134.4,
            "duration": 3.24
        },
        {
            "text": "Incorporated digital Equipment",
            "start": 135.959,
            "duration": 6.121
        },
        {
            "text": "Corporation Hewlett Packard uh in icon",
            "start": 137.64,
            "duration": 7.62
        },
        {
            "text": "of x uh illustra illustra Information",
            "start": 142.08,
            "duration": 6.18
        },
        {
            "text": "Technology informix software into it",
            "start": 145.26,
            "duration": 4.32
        },
        {
            "text": "okay I know into it like there's very",
            "start": 148.26,
            "duration": 3.18
        },
        {
            "text": "few I even recognize here macro media",
            "start": 149.58,
            "duration": 5.34
        },
        {
            "text": "pour one out for macromedia uh Novell",
            "start": 151.44,
            "duration": 9.42
        },
        {
            "text": "Oracle Corporation boo boo boo boo uh",
            "start": 154.92,
            "duration": 8.58
        },
        {
            "text": "precept software rad Technologies the",
            "start": 160.86,
            "duration": 5.04
        },
        {
            "text": "Santa Cruz operation silicon Graphics",
            "start": 163.5,
            "duration": 6.959
        },
        {
            "text": "spider Technologies sisbase Toshiba uh",
            "start": 165.9,
            "duration": 6.96
        },
        {
            "text": "variety uh Verity uh Vermeer",
            "start": 170.459,
            "duration": 4.021
        },
        {
            "text": "technologies have indoors oh where's",
            "start": 172.86,
            "duration": 3.659
        },
        {
            "text": "Microsoft because didn't Microsoft just",
            "start": 174.48,
            "duration": 4.38
        },
        {
            "text": "completely everybody when it comes to",
            "start": 176.519,
            "duration": 4.981
        },
        {
            "text": "JavaScript shocking",
            "start": 178.86,
            "duration": 4.56
        },
        {
            "text": "um have endorsed JavaScript as an open",
            "start": 181.5,
            "duration": 4.019
        },
        {
            "text": "standard object scripting language and",
            "start": 183.42,
            "duration": 3.72
        },
        {
            "text": "intend to provide it in the future",
            "start": 185.519,
            "duration": 3.72
        },
        {
            "text": "products the draft specification of",
            "start": 187.14,
            "duration": 3.72
        },
        {
            "text": "JavaScript as well as the final draft",
            "start": 189.239,
            "duration": 4.021
        },
        {
            "text": "specification of java is planned for",
            "start": 190.86,
            "duration": 4.14
        },
        {
            "text": "publishing and submission to appropriate",
            "start": 193.26,
            "duration": 4.979
        },
        {
            "text": "standard bodies for industry review and",
            "start": 195.0,
            "duration": 6.36
        },
        {
            "text": "comment this month oh God I remembered",
            "start": 198.239,
            "duration": 5.941
        },
        {
            "text": "Microsoft's solution yeah JavaScript is",
            "start": 201.36,
            "duration": 4.86
        },
        {
            "text": "an easy to use object scripting language",
            "start": 204.18,
            "duration": 3.779
        },
        {
            "text": "designed for creating live online",
            "start": 206.22,
            "duration": 3.659
        },
        {
            "text": "applications that link together object",
            "start": 207.959,
            "duration": 4.021
        },
        {
            "text": "and resources on both clients and",
            "start": 209.879,
            "duration": 4.5
        },
        {
            "text": "servers wow do they have no idea what it",
            "start": 211.98,
            "duration": 4.2
        },
        {
            "text": "was going to become look everybody we",
            "start": 214.379,
            "duration": 3.901
        },
        {
            "text": "built this in 10 days",
            "start": 216.18,
            "duration": 4.38
        },
        {
            "text": "while Java is used by programmers to",
            "start": 218.28,
            "duration": 4.44
        },
        {
            "text": "create new objects and applets uh",
            "start": 220.56,
            "duration": 4.14
        },
        {
            "text": "JavaScript is designed to be used by",
            "start": 222.72,
            "duration": 4.32
        },
        {
            "text": "HTML page authors and Enterprise",
            "start": 224.7,
            "duration": 4.8
        },
        {
            "text": "application developers to dynamically",
            "start": 227.04,
            "duration": 4.68
        },
        {
            "text": "script the behavior of objects running",
            "start": 229.5,
            "duration": 4.86
        },
        {
            "text": "on either the client or the server what",
            "start": 231.72,
            "duration": 5.28
        },
        {
            "text": "does this even mean like I know enough",
            "start": 234.36,
            "duration": 4.86
        },
        {
            "text": "about programming that this statement by",
            "start": 237.0,
            "duration": 4.98
        },
        {
            "text": "itself is emotionally painful and",
            "start": 239.22,
            "duration": 5.4
        },
        {
            "text": "confusing JavaScript is analogous to",
            "start": 241.98,
            "duration": 5.039
        },
        {
            "text": "Visual Basic in that it can be used by",
            "start": 244.62,
            "duration": 4.619
        },
        {
            "text": "people with little or no programming",
            "start": 247.019,
            "duration": 4.621
        },
        {
            "text": "experience to quickly construct complex",
            "start": 249.239,
            "duration": 5.06
        },
        {
            "text": "applications",
            "start": 251.64,
            "duration": 2.659
        },
        {
            "text": "still true still true still true and",
            "start": 254.48,
            "duration": 6.219
        },
        {
            "text": "hearts still true and hurts hey man",
            "start": 258.239,
            "duration": 4.861
        },
        {
            "text": "react is really awesome all right uh",
            "start": 260.699,
            "duration": 4.261
        },
        {
            "text": "javascript's design represents the next",
            "start": 263.1,
            "duration": 3.42
        },
        {
            "text": "generation of software designs",
            "start": 264.96,
            "duration": 4.08
        },
        {
            "text": "specifically for the Internet Capital I",
            "start": 266.52,
            "duration": 5.04
        },
        {
            "text": "and is designed for creating",
            "start": 269.04,
            "duration": 3.84
        },
        {
            "text": "network-centric applications",
            "start": 271.56,
            "duration": 3.66
        },
        {
            "text": "complementary to and integrated with",
            "start": 272.88,
            "duration": 4.92
        },
        {
            "text": "Java complementary to and integrated",
            "start": 275.22,
            "duration": 5.58
        },
        {
            "text": "with hitmal open and cross-platform",
            "start": 277.8,
            "duration": 5.82
        },
        {
            "text": "crazy Java developed by Sun is an",
            "start": 280.8,
            "duration": 4.08
        },
        {
            "text": "object-oriented programming language",
            "start": 283.62,
            "duration": 3.06
        },
        {
            "text": "that operates independent of any is this",
            "start": 284.88,
            "duration": 4.379
        },
        {
            "text": "is this for like programmers who who are",
            "start": 286.68,
            "duration": 4.44
        },
        {
            "text": "they writing to",
            "start": 289.259,
            "duration": 4.201
        },
        {
            "text": "okay the the amount of times you said is",
            "start": 291.12,
            "duration": 4.62
        },
        {
            "text": "object oriented or is object scripting",
            "start": 293.46,
            "duration": 5.7
        },
        {
            "text": "language it's like how many times uh",
            "start": 295.74,
            "duration": 5.519
        },
        {
            "text": "Java developed by Sun is an",
            "start": 299.16,
            "duration": 3.24
        },
        {
            "text": "object-oriented programming language",
            "start": 301.259,
            "duration": 2.761
        },
        {
            "text": "that operates independent of any",
            "start": 302.4,
            "duration": 3.78
        },
        {
            "text": "operating system or microprocessor Java",
            "start": 304.02,
            "duration": 4.92
        },
        {
            "text": "programs called app list by the way I my",
            "start": 306.18,
            "duration": 4.56
        },
        {
            "text": "fir the the thing that got me into",
            "start": 308.94,
            "duration": 5.699
        },
        {
            "text": "programming like as a heavy programming",
            "start": 310.74,
            "duration": 6.48
        },
        {
            "text": "thing was JavaScript applets I used it",
            "start": 314.639,
            "duration": 4.201
        },
        {
            "text": "to make little video games before I knew",
            "start": 317.22,
            "duration": 3.3
        },
        {
            "text": "physics I had my own physics and then I",
            "start": 318.84,
            "duration": 3.18
        },
        {
            "text": "learned physics and rewrote the engine",
            "start": 320.52,
            "duration": 4.32
        },
        {
            "text": "using fit oh man can be transmitted over",
            "start": 322.02,
            "duration": 4.26
        },
        {
            "text": "the network and run on any client",
            "start": 324.84,
            "duration": 3.84
        },
        {
            "text": "providing the multimedia richness of a",
            "start": 326.28,
            "duration": 4.56
        },
        {
            "text": "of a cd-raw",
            "start": 328.68,
            "duration": 4.26
        },
        {
            "text": "so many W's need to happen in chat right",
            "start": 330.84,
            "duration": 5.82
        },
        {
            "text": "now okay so many W's right now Java",
            "start": 332.94,
            "duration": 6.539
        },
        {
            "text": "applets provide the richness of of a",
            "start": 336.66,
            "duration": 4.319
        },
        {
            "text": "CD-ROM",
            "start": 339.479,
            "duration": 6.66
        },
        {
            "text": "this statement is this statement is is",
            "start": 340.979,
            "duration": 8.28
        },
        {
            "text": "there is no competing who has made more",
            "start": 346.139,
            "duration": 5.761
        },
        {
            "text": "of a great statement that has been so",
            "start": 349.259,
            "duration": 4.561
        },
        {
            "text": "like we just got done reading an article",
            "start": 351.9,
            "duration": 4.38
        },
        {
            "text": "about go and how it was designed and how",
            "start": 353.82,
            "duration": 5.159
        },
        {
            "text": "wisdom was able to Prevail 11 years",
            "start": 356.28,
            "duration": 5.04
        },
        {
            "text": "later it was still a good article",
            "start": 358.979,
            "duration": 4.021
        },
        {
            "text": "talking about good things on how we",
            "start": 361.32,
            "duration": 3.9
        },
        {
            "text": "should think about programming we look",
            "start": 363.0,
            "duration": 4.68
        },
        {
            "text": "at this and everything about this",
            "start": 365.22,
            "duration": 5.759
        },
        {
            "text": "statement has been deprecated this is",
            "start": 367.68,
            "duration": 5.34
        },
        {
            "text": "the opposite",
            "start": 370.979,
            "duration": 4.5
        },
        {
            "text": "the opposite of wisdom we're reading",
            "start": 373.02,
            "duration": 4.619
        },
        {
            "text": "right now this is so good over corporate",
            "start": 375.479,
            "duration": 5.341
        },
        {
            "text": "networks and the Internet Capital I Java",
            "start": 377.639,
            "duration": 4.801
        },
        {
            "text": "has been widely hailed by programmers",
            "start": 380.82,
            "duration": 3.36
        },
        {
            "text": "because it eliminates the need to Port",
            "start": 382.44,
            "duration": 3.66
        },
        {
            "text": "applications and by managers of",
            "start": 384.18,
            "duration": 3.72
        },
        {
            "text": "information systems for its potential to",
            "start": 386.1,
            "duration": 3.659
        },
        {
            "text": "lower the cost of Distributing and",
            "start": 387.9,
            "duration": 3.78
        },
        {
            "text": "maintaining applications across the",
            "start": 389.759,
            "duration": 5.401
        },
        {
            "text": "network with JavaScript and HTML and",
            "start": 391.68,
            "duration": 5.459
        },
        {
            "text": "HTML page might contain an intelligent",
            "start": 395.16,
            "duration": 5.039
        },
        {
            "text": "form that performs loan payments or",
            "start": 397.139,
            "duration": 5.701
        },
        {
            "text": "currency exchange which is programmed by",
            "start": 400.199,
            "duration": 4.921
        },
        {
            "text": "people with little to no programming",
            "start": 402.84,
            "duration": 4.82
        },
        {
            "text": "experience",
            "start": 405.12,
            "duration": 2.54
        },
        {
            "text": "let's go",
            "start": 412.94,
            "duration": 5.62
        },
        {
            "text": "oh now a multimedia weather forecast",
            "start": 414.9,
            "duration": 6.239
        },
        {
            "text": "applet written in Java can be scripted",
            "start": 418.56,
            "duration": 4.259
        },
        {
            "text": "by JavaScript to display appropriate",
            "start": 421.139,
            "duration": 3.241
        },
        {
            "text": "images and sounds based on the current",
            "start": 422.819,
            "duration": 3.66
        },
        {
            "text": "weather readings in a region a",
            "start": 424.38,
            "duration": 3.39
        },
        {
            "text": "server-side JavaScript",
            "start": 426.479,
            "duration": 3.361
        },
        {
            "text": "[Music]",
            "start": 427.77,
            "duration": 4.41
        },
        {
            "text": "what",
            "start": 429.84,
            "duration": 8.28
        },
        {
            "text": "did they call node.js in 19 they knew",
            "start": 432.18,
            "duration": 8.1
        },
        {
            "text": "they",
            "start": 438.12,
            "duration": 5.479
        },
        {
            "text": "they knew",
            "start": 440.28,
            "duration": 3.319
        },
        {
            "text": "this whole time",
            "start": 445.02,
            "duration": 4.92
        },
        {
            "text": "I thought it was an accident",
            "start": 447.539,
            "duration": 5.461
        },
        {
            "text": "oh my goodness is this a CIA Psy op to",
            "start": 449.94,
            "duration": 4.5
        },
        {
            "text": "make my life horrible I think it",
            "start": 453.0,
            "duration": 3.419
        },
        {
            "text": "literally is I think this is a psyop I",
            "start": 454.44,
            "duration": 3.9
        },
        {
            "text": "think we've officially I think",
            "start": 456.419,
            "duration": 4.381
        },
        {
            "text": "we gotta get Alex Jones on here right",
            "start": 458.34,
            "duration": 3.72
        },
        {
            "text": "now",
            "start": 460.8,
            "duration": 5.179
        },
        {
            "text": "we gotta get Jones on here right now",
            "start": 462.06,
            "duration": 3.919
        },
        {
            "text": "they're turning all the freaking",
            "start": 466.259,
            "duration": 3.301
        },
        {
            "text": "programming languages into JavaScript",
            "start": 467.94,
            "duration": 4.5
        },
        {
            "text": "that's what's happening right now it's",
            "start": 469.56,
            "duration": 6.68
        },
        {
            "text": "been it's been it was it was there",
            "start": 472.44,
            "duration": 3.8
        },
        {
            "text": "might be pulled a data SSR called 20",
            "start": 476.639,
            "duration": 5.881
        },
        {
            "text": "years ago JavaScript might pull data out",
            "start": 480.24,
            "duration": 4.079
        },
        {
            "text": "of a relational database and format it",
            "start": 482.52,
            "duration": 5.0
        },
        {
            "text": "in HTML on the Fly oh my goodness it is",
            "start": 484.319,
            "duration": 6.181
        },
        {
            "text": "they literally called react server",
            "start": 487.52,
            "duration": 6.48
        },
        {
            "text": "components ah",
            "start": 490.5,
            "duration": 7.58
        },
        {
            "text": "oh no not",
            "start": 494.0,
            "duration": 4.08
        },
        {
            "text": "and react still screwed it up for a",
            "start": 498.66,
            "duration": 5.659
        },
        {
            "text": "decade how did that happen",
            "start": 501.12,
            "duration": 3.199
        },
        {
            "text": "how did that how did you do that how did",
            "start": 506.12,
            "duration": 5.199
        },
        {
            "text": "this what a page might contain",
            "start": 509.46,
            "duration": 4.68
        },
        {
            "text": "javascript's uh javascripts that run on",
            "start": 511.319,
            "duration": 4.741
        },
        {
            "text": "both the client and the server and the",
            "start": 514.14,
            "duration": 3.42
        },
        {
            "text": "server the scripts might dynamically",
            "start": 516.06,
            "duration": 3.659
        },
        {
            "text": "compose and format HTML content based on",
            "start": 517.56,
            "duration": 3.359
        },
        {
            "text": "the user preferences stored in a",
            "start": 519.719,
            "duration": 2.401
        },
        {
            "text": "relational database and all the client",
            "start": 520.919,
            "duration": 2.701
        },
        {
            "text": "the scripts would glue together the",
            "start": 522.12,
            "duration": 4.26
        },
        {
            "text": "assortment of java applets and HTML how",
            "start": 523.62,
            "duration": 5.76
        },
        {
            "text": "were you so close yet so far away uh",
            "start": 526.38,
            "duration": 5.399
        },
        {
            "text": "form elements into live interactive user",
            "start": 529.38,
            "duration": 4.56
        },
        {
            "text": "interfaces for specifying a netwide",
            "start": 531.779,
            "duration": 4.861
        },
        {
            "text": "search of information Java programs and",
            "start": 533.94,
            "duration": 5.28
        },
        {
            "text": "JavaScript scripts are designed to run",
            "start": 536.64,
            "duration": 5.16
        },
        {
            "text": "both CL on both clients and servers with",
            "start": 539.22,
            "duration": 5.64
        },
        {
            "text": "JavaScript scripts used to modify the",
            "start": 541.8,
            "duration": 5.219
        },
        {
            "text": "properties or behavior of java objects",
            "start": 544.86,
            "duration": 4.74
        },
        {
            "text": "so the range of live online applications",
            "start": 547.019,
            "duration": 5.221
        },
        {
            "text": "that dynamically present information to",
            "start": 549.6,
            "duration": 5.22
        },
        {
            "text": "and interact with users over Enterprise",
            "start": 552.24,
            "duration": 5.64
        },
        {
            "text": "networks or the Internet Capital I is",
            "start": 554.82,
            "duration": 5.28
        },
        {
            "text": "virtually unlimited I mean they really",
            "start": 557.88,
            "duration": 4.019
        },
        {
            "text": "did have good foresight here other than",
            "start": 560.1,
            "duration": 3.96
        },
        {
            "text": "the whole JavaScript scripts and Java",
            "start": 561.899,
            "duration": 4.081
        },
        {
            "text": "program like all that Netscape will",
            "start": 564.06,
            "duration": 5.339
        },
        {
            "text": "support Java and javascripts in the",
            "start": 565.98,
            "duration": 4.979
        },
        {
            "text": "client and server products as well as",
            "start": 569.399,
            "duration": 3.12
        },
        {
            "text": "programming tools and applications to",
            "start": 570.959,
            "duration": 3.38
        },
        {
            "text": "make this Vision a reality",
            "start": 572.519,
            "duration": 4.861
        },
        {
            "text": "programmers have been overwhelmingly",
            "start": 574.339,
            "duration": 5.081
        },
        {
            "text": "enthusiastic about Java because it",
            "start": 577.38,
            "duration": 3.78
        },
        {
            "text": "designed from the ground up for the",
            "start": 579.42,
            "duration": 4.14
        },
        {
            "text": "Internet Capital I JavaScript is a",
            "start": 581.16,
            "duration": 4.14
        },
        {
            "text": "natural fit but since it also is",
            "start": 583.56,
            "duration": 4.32
        },
        {
            "text": "designed for the Internet Capital I and",
            "start": 585.3,
            "duration": 5.28
        },
        {
            "text": "unicode based worldwide use said Bill",
            "start": 587.88,
            "duration": 3.72
        },
        {
            "text": "Joy",
            "start": 590.58,
            "duration": 3.6
        },
        {
            "text": "FN built did you know Bill Joy invented",
            "start": 591.6,
            "duration": 5.94
        },
        {
            "text": "VI and then right afterwards left VI and",
            "start": 594.18,
            "duration": 6.719
        },
        {
            "text": "started using emacs that is not fake",
            "start": 597.54,
            "duration": 5.7
        },
        {
            "text": "that is not a made-up story he literally",
            "start": 600.899,
            "duration": 4.38
        },
        {
            "text": "did that",
            "start": 603.24,
            "duration": 5.58
        },
        {
            "text": "okay Bill Bill how could you be both you",
            "start": 605.279,
            "duration": 5.941
        },
        {
            "text": "are Anakin bill",
            "start": 608.82,
            "duration": 4.44
        },
        {
            "text": "you are an attic kid",
            "start": 611.22,
            "duration": 3.78
        },
        {
            "text": "co-founder and vice president of",
            "start": 613.26,
            "duration": 3.66
        },
        {
            "text": "research at Sun JavaScript will be the",
            "start": 615.0,
            "duration": 4.019
        },
        {
            "text": "most effective method to connect hitmal",
            "start": 616.92,
            "duration": 7.52
        },
        {
            "text": "based content to Java applets bill",
            "start": 619.019,
            "duration": 5.421
        },
        {
            "text": "I wish I could talk to Bill honestly I",
            "start": 625.5,
            "duration": 5.3
        },
        {
            "text": "really wish I could talk to Bill",
            "start": 627.72,
            "duration": 3.08
        },
        {
            "text": "I don't even know if Bill Joy is still",
            "start": 631.14,
            "duration": 2.639
        },
        {
            "text": "alive",
            "start": 632.7,
            "duration": 3.96
        },
        {
            "text": "if he is alive and I can somehow talk to",
            "start": 633.779,
            "duration": 5.341
        },
        {
            "text": "him I would love to talk to Bill Java is",
            "start": 636.66,
            "duration": 3.78
        },
        {
            "text": "available okay so we're almost done then",
            "start": 639.12,
            "duration": 2.46
        },
        {
            "text": "it comes to some sighting Java is",
            "start": 640.44,
            "duration": 2.579
        },
        {
            "text": "available to developers free of charge",
            "start": 641.58,
            "duration": 4.56
        },
        {
            "text": "the Java compiler TM and Java Java",
            "start": 643.019,
            "duration": 5.641
        },
        {
            "text": "developers kit TM as well as the hot",
            "start": 646.14,
            "duration": 4.16
        },
        {
            "text": "Java browser",
            "start": 648.66,
            "duration": 3.78
        },
        {
            "text": "uh and related documentation are",
            "start": 650.3,
            "duration": 4.719
        },
        {
            "text": "available from Sun's website at HTTP",
            "start": 652.44,
            "duration": 5.76
        },
        {
            "text": "colon slash slash java.sun.com in",
            "start": 655.019,
            "duration": 5.461
        },
        {
            "text": "addition the Java source code can be",
            "start": 658.2,
            "duration": 5.46
        },
        {
            "text": "licensed for for a fee details on the",
            "start": 660.48,
            "duration": 5.06
        },
        {
            "text": "licensing are also available via the",
            "start": 663.66,
            "duration": 5.04
        },
        {
            "text": "java.sun.com webpage to date sun has",
            "start": 665.54,
            "duration": 5.2
        },
        {
            "text": "licensed Java to a number of leading",
            "start": 668.7,
            "duration": 3.78
        },
        {
            "text": "technology companies including Borland",
            "start": 670.74,
            "duration": 4.56
        },
        {
            "text": "macromedia Mitsubishi Netscape Oracle",
            "start": 672.48,
            "duration": 5.28
        },
        {
            "text": "silicon Graphics Spyglass and Toshiba",
            "start": 675.3,
            "duration": 4.74
        },
        {
            "text": "Sun's workshop for Java toolkit is",
            "start": 677.76,
            "duration": 4.259
        },
        {
            "text": "scheduled for release in Spring 1996",
            "start": 680.04,
            "duration": 4.739
        },
        {
            "text": "Sun's Neo product family the first",
            "start": 682.019,
            "duration": 4.5
        },
        {
            "text": "complete development operating and",
            "start": 684.779,
            "duration": 2.761
        },
        {
            "text": "management environment for",
            "start": 686.519,
            "duration": 2.82
        },
        {
            "text": "object-oriented Network applications",
            "start": 687.54,
            "duration": 5.039
        },
        {
            "text": "we'll also use Java enabled browser also",
            "start": 689.339,
            "duration": 6.12
        },
        {
            "text": "as front ends to the Neo environment man",
            "start": 692.579,
            "duration": 6.141
        },
        {
            "text": "did they get that wrong",
            "start": 695.459,
            "duration": 3.261
        },
        {
            "text": "I",
            "start": 698.94,
            "duration": 4.38
        },
        {
            "text": "man",
            "start": 701.22,
            "duration": 4.98
        },
        {
            "text": "just like Bill Joy chose emacs did Bill",
            "start": 703.32,
            "duration": 4.44
        },
        {
            "text": "Joy get it wrong",
            "start": 706.2,
            "duration": 4.139
        },
        {
            "text": "uh no hey by the way I'm not making fun",
            "start": 707.76,
            "duration": 5.88
        },
        {
            "text": "of Bill Joy Bill Joy obviously",
            "start": 710.339,
            "duration": 5.821
        },
        {
            "text": "you know hero",
            "start": 713.64,
            "duration": 3.9
        },
        {
            "text": "other than that I'm still trying to get",
            "start": 716.16,
            "duration": 2.46
        },
        {
            "text": "the knife out of my back though it's",
            "start": 717.54,
            "duration": 2.76
        },
        {
            "text": "really hurting right now Netscape and",
            "start": 718.62,
            "duration": 4.56
        },
        {
            "text": "Son plan to propose JavaScript to the W3",
            "start": 720.3,
            "duration": 6.599
        },
        {
            "text": "Consortium w3c and the Internet Capital",
            "start": 723.18,
            "duration": 6.54
        },
        {
            "text": "I engineering task force as an open",
            "start": 726.899,
            "duration": 4.861
        },
        {
            "text": "internet capitalized scripting language",
            "start": 729.72,
            "duration": 3.9
        },
        {
            "text": "standard JavaScript will be an open",
            "start": 731.76,
            "duration": 3.54
        },
        {
            "text": "freely licensed proposed standard",
            "start": 733.62,
            "duration": 3.6
        },
        {
            "text": "available to the entire Internet Capital",
            "start": 735.3,
            "duration": 5.159
        },
        {
            "text": "I Community existing Sun Java licenses",
            "start": 737.22,
            "duration": 5.22
        },
        {
            "text": "will receive a license to JavaScript in",
            "start": 740.459,
            "duration": 3.901
        },
        {
            "text": "addition sun and Netscape intend to make",
            "start": 742.44,
            "duration": 3.839
        },
        {
            "text": "a source code reference implementation",
            "start": 744.36,
            "duration": 4.44
        },
        {
            "text": "of JavaScript available for royalty-free",
            "start": 746.279,
            "duration": 4.921
        },
        {
            "text": "licensing further encouraging its",
            "start": 748.8,
            "duration": 4.56
        },
        {
            "text": "adoption as a standard uh in a wide",
            "start": 751.2,
            "duration": 3.6
        },
        {
            "text": "variety of products honestly this is",
            "start": 753.36,
            "duration": 2.76
        },
        {
            "text": "actually a really great statement here",
            "start": 754.8,
            "duration": 3.96
        },
        {
            "text": "notice they they really close down",
            "start": 756.12,
            "duration": 4.98
        },
        {
            "text": "source code that as the whole argument",
            "start": 758.76,
            "duration": 4.62
        },
        {
            "text": "with Google and the whole uh everything",
            "start": 761.1,
            "duration": 4.44
        },
        {
            "text": "with Java and the fee and the licensing",
            "start": 763.38,
            "duration": 4.5
        },
        {
            "text": "whereas JavaScript came royalty free",
            "start": 765.54,
            "duration": 4.38
        },
        {
            "text": "just like anyone can have it other than",
            "start": 767.88,
            "duration": 4.019
        },
        {
            "text": "Oracle owning the JavaScript Twitter",
            "start": 769.92,
            "duration": 4.26
        },
        {
            "text": "handle and they will sue you if you try",
            "start": 771.899,
            "duration": 4.68
        },
        {
            "text": "to use the term Java it's job JavaScript",
            "start": 774.18,
            "duration": 5.58
        },
        {
            "text": "at any website yes this is true no my",
            "start": 776.579,
            "duration": 5.521
        },
        {
            "text": "fears about rust saying you can't use in",
            "start": 779.76,
            "duration": 4.259
        },
        {
            "text": "a website aren't unfounded they",
            "start": 782.1,
            "duration": 3.539
        },
        {
            "text": "literally did it to somebody just within",
            "start": 784.019,
            "duration": 3.12
        },
        {
            "text": "the last few weeks or in the last couple",
            "start": 785.639,
            "duration": 4.401
        },
        {
            "text": "months okay",
            "start": 787.139,
            "duration": 2.901
        },
        {
            "text": "when people say that they don't like",
            "start": 790.38,
            "duration": 4.019
        },
        {
            "text": "trademark policy especially when it",
            "start": 792.3,
            "duration": 3.599
        },
        {
            "text": "comes to rust You Now understand why",
            "start": 794.399,
            "duration": 3.961
        },
        {
            "text": "Netscape Communications Corporation is a",
            "start": 795.899,
            "duration": 4.261
        },
        {
            "text": "premier provider of open source for",
            "start": 798.36,
            "duration": 3.18
        },
        {
            "text": "linking people and information over",
            "start": 800.16,
            "duration": 2.94
        },
        {
            "text": "Enterprise networks and the internet",
            "start": 801.54,
            "duration": 4.26
        },
        {
            "text": "capitalized the com company offers a",
            "start": 803.1,
            "duration": 4.5
        },
        {
            "text": "full line of Netscape Navigator clients",
            "start": 805.8,
            "duration": 4.74
        },
        {
            "text": "Navigator servers what am I reading with",
            "start": 807.6,
            "duration": 4.94
        },
        {
            "text": "annual revenues of 6 billion Sun",
            "start": 810.54,
            "duration": 4.38
        },
        {
            "text": "Microsystems provide solutions that",
            "start": 812.54,
            "duration": 4.299
        },
        {
            "text": "enable customers to build and maintain",
            "start": 814.92,
            "duration": 3.659
        },
        {
            "text": "open network computing environments",
            "start": 816.839,
            "duration": 3.481
        },
        {
            "text": "widely recognized as a proponent of Open",
            "start": 818.579,
            "duration": 3.481
        },
        {
            "text": "Standards okay is this just like all",
            "start": 820.32,
            "duration": 4.019
        },
        {
            "text": "padding each other on the back",
            "start": 822.06,
            "duration": 4.26
        },
        {
            "text": "yeah yeah okay let's read some quotes",
            "start": 824.339,
            "duration": 3.901
        },
        {
            "text": "okay we're about to get quoted are you",
            "start": 826.32,
            "duration": 2.94
        },
        {
            "text": "ready",
            "start": 828.24,
            "duration": 2.58
        },
        {
            "text": "script brings the power of Rapid",
            "start": 829.26,
            "duration": 3.96
        },
        {
            "text": "multimedia application development with",
            "start": 830.82,
            "duration": 4.68
        },
        {
            "text": "cross-platform Mobility at both the",
            "start": 833.22,
            "duration": 4.08
        },
        {
            "text": "operating system and architecture level",
            "start": 835.5,
            "duration": 3.66
        },
        {
            "text": "we are pleased to integrate this",
            "start": 837.3,
            "duration": 4.02
        },
        {
            "text": "powerful language into our developers",
            "start": 839.16,
            "duration": 5.84
        },
        {
            "text": "program Mike Connors president America",
            "start": 841.32,
            "duration": 7.68
        },
        {
            "text": "Online Technologies",
            "start": 845.0,
            "duration": 4.0
        },
        {
            "text": "JavaScript will allow us to easily",
            "start": 851.88,
            "duration": 4.079
        },
        {
            "text": "create personalized applets for the",
            "start": 854.1,
            "duration": 4.799
        },
        {
            "text": "excite service these applets combined",
            "start": 855.959,
            "duration": 4.861
        },
        {
            "text": "with the rich functionality of excite",
            "start": 858.899,
            "duration": 3.961
        },
        {
            "text": "service will integrate more fully into",
            "start": 860.82,
            "duration": 3.48
        },
        {
            "text": "the user's experience as they explore",
            "start": 862.86,
            "duration": 4.94
        },
        {
            "text": "and navigate the internet you have mail",
            "start": 864.3,
            "duration": 6.56
        },
        {
            "text": "Graham Spencer Chief technology officer",
            "start": 867.8,
            "duration": 9.659
        },
        {
            "text": "Architects software at T Colt semicolon",
            "start": 870.86,
            "duration": 6.599
        },
        {
            "text": "support for JavaScript is more than",
            "start": 878.579,
            "duration": 4.26
        },
        {
            "text": "support for cool technology it is the",
            "start": 880.74,
            "duration": 4.68
        },
        {
            "text": "support for an open Standard Process the",
            "start": 882.839,
            "duration": 4.56
        },
        {
            "text": "Open Standards are and will be as",
            "start": 885.42,
            "duration": 3.859
        },
        {
            "text": "important to the success of the internet",
            "start": 887.399,
            "duration": 4.74
        },
        {
            "text": "capitalized as open connectivity Tom",
            "start": 889.279,
            "duration": 4.841
        },
        {
            "text": "okay this actually this guy did a really",
            "start": 892.139,
            "duration": 4.801
        },
        {
            "text": "great job he's absolutely correct the",
            "start": 894.12,
            "duration": 4.62
        },
        {
            "text": "more open the more free it is the better",
            "start": 896.94,
            "duration": 3.839
        },
        {
            "text": "and quicker it can be adopted this is",
            "start": 898.74,
            "duration": 3.719
        },
        {
            "text": "good all right let's let's see some good",
            "start": 900.779,
            "duration": 3.36
        },
        {
            "text": "ones here JavaScript and Java represent",
            "start": 902.459,
            "duration": 3.421
        },
        {
            "text": "important steps in the evolution of the",
            "start": 904.139,
            "duration": 2.7
        },
        {
            "text": "internet",
            "start": 905.88,
            "duration": 3.3
        },
        {
            "text": "and the intranets people have no idea",
            "start": 906.839,
            "duration": 4.081
        },
        {
            "text": "what she's even saying for business",
            "start": 909.18,
            "duration": 3.599
        },
        {
            "text": "Computing JavaScript allows internet",
            "start": 910.92,
            "duration": 4.26
        },
        {
            "text": "applications to easily connect uh to",
            "start": 912.779,
            "duration": 5.881
        },
        {
            "text": "production databases such as ca ca open",
            "start": 915.18,
            "duration": 5.04
        },
        {
            "text": "Ingress",
            "start": 918.66,
            "duration": 3.0
        },
        {
            "text": "let me guess",
            "start": 920.22,
            "duration": 4.619
        },
        {
            "text": "CA is Computer Associates well really",
            "start": 921.66,
            "duration": 5.039
        },
        {
            "text": "while Java allows easy to use",
            "start": 924.839,
            "duration": 4.141
        },
        {
            "text": "multi-platform web clients for CA",
            "start": 926.699,
            "duration": 4.561
        },
        {
            "text": "unicenter and business applications such",
            "start": 928.98,
            "duration": 6.24
        },
        {
            "text": "as CA Masterpiece and CA man man",
            "start": 931.26,
            "duration": 7.86
        },
        {
            "text": "pen and CA AC pack what the hell's the",
            "start": 935.22,
            "duration": 7.559
        },
        {
            "text": "ca Nancy Nancy what is CA",
            "start": 939.12,
            "duration": 6.06
        },
        {
            "text": "tools like JavaScript will unleash a new",
            "start": 942.779,
            "duration": 4.74
        },
        {
            "text": "wave of creativity and transform the",
            "start": 945.18,
            "duration": 6.62
        },
        {
            "text": "internet in a way no one can predict",
            "start": 947.519,
            "duration": 4.281
        },
        {
            "text": "Lord have mercy my goodness this guy",
            "start": 952.699,
            "duration": 6.88
        },
        {
            "text": "predicted correctly no one saw this one",
            "start": 956.76,
            "duration": 5.34
        },
        {
            "text": "coming uh JavaScript and other",
            "start": 959.579,
            "duration": 4.38
        },
        {
            "text": "developments will demand increased",
            "start": 962.1,
            "duration": 4.7
        },
        {
            "text": "system performance",
            "start": 963.959,
            "duration": 2.841
        },
        {
            "text": "shoot that's funny uh ideally met by",
            "start": 971.04,
            "duration": 6.96
        },
        {
            "text": "digital Alpha system architecture",
            "start": 974.519,
            "duration": 7.021
        },
        {
            "text": "okay Rose why does everything do you",
            "start": 978.0,
            "duration": 5.16
        },
        {
            "text": "notice that everything with JavaScript",
            "start": 981.54,
            "duration": 4.44
        },
        {
            "text": "also is a self promo are you catching",
            "start": 983.16,
            "duration": 5.46
        },
        {
            "text": "this right now it is like literally all",
            "start": 985.98,
            "duration": 6.44
        },
        {
            "text": "self-promo every time hey by the way",
            "start": 988.62,
            "duration": 8.219
        },
        {
            "text": "JavaScript pairs best with CA technology",
            "start": 992.42,
            "duration": 6.4
        },
        {
            "text": "JavaScript is an exciting technology",
            "start": 996.839,
            "duration": 3.18
        },
        {
            "text": "because it represents the next",
            "start": 998.82,
            "duration": 2.519
        },
        {
            "text": "generation of software designs",
            "start": 1000.019,
            "duration": 2.281
        },
        {
            "text": "specifically for the internet",
            "start": 1001.339,
            "duration": 3.06
        },
        {
            "text": "capitalized hulert Packard is committed",
            "start": 1002.3,
            "duration": 4.5
        },
        {
            "text": "to Open Standards and some and is a",
            "start": 1004.399,
            "duration": 4.081
        },
        {
            "text": "supporter of JavaScript because it",
            "start": 1006.8,
            "duration": 3.42
        },
        {
            "text": "complements Hewlett Packard's open",
            "start": 1008.48,
            "duration": 4.14
        },
        {
            "text": "system architecture",
            "start": 1010.22,
            "duration": 5.22
        },
        {
            "text": "thank you Jan Orion I don't know if",
            "start": 1012.62,
            "duration": 4.98
        },
        {
            "text": "you're German or not uh we plan to",
            "start": 1015.44,
            "duration": 5.04
        },
        {
            "text": "integrate our Atomic or our automatic",
            "start": 1017.6,
            "duration": 4.44
        },
        {
            "text": "document indexing and abstraction",
            "start": 1020.48,
            "duration": 3.299
        },
        {
            "text": "technology to leverage the power and",
            "start": 1022.04,
            "duration": 3.899
        },
        {
            "text": "functionality of JavaScript the power",
            "start": 1023.779,
            "duration": 3.841
        },
        {
            "text": "and use of our Technologies greatly",
            "start": 1025.939,
            "duration": 3.601
        },
        {
            "text": "enhance the server and its delivery of",
            "start": 1027.62,
            "duration": 3.66
        },
        {
            "text": "timely and valuable documents for web",
            "start": 1029.54,
            "duration": 4.919
        },
        {
            "text": "clients Robert Griggs vice president of",
            "start": 1031.28,
            "duration": 5.7
        },
        {
            "text": "sales and marketing iconifex Corporation",
            "start": 1034.459,
            "duration": 4.74
        },
        {
            "text": "you're probably asking yourself oh icon",
            "start": 1036.98,
            "duration": 4.38
        },
        {
            "text": "of X the corporation we all know about",
            "start": 1039.199,
            "duration": 6.541
        },
        {
            "text": "rip icon of X it is still",
            "start": 1041.36,
            "duration": 6.9
        },
        {
            "text": "making somewhere between zero to one",
            "start": 1045.74,
            "duration": 5.04
        },
        {
            "text": "million dollars in Revenue",
            "start": 1048.26,
            "duration": 5.159
        },
        {
            "text": "it has less than 25 employees",
            "start": 1050.78,
            "duration": 4.92
        },
        {
            "text": "they probably asked some how much do you",
            "start": 1053.419,
            "duration": 4.561
        },
        {
            "text": "want to bet it probably has some oh my",
            "start": 1055.7,
            "duration": 3.839
        },
        {
            "text": "goodness",
            "start": 1057.98,
            "duration": 4.74
        },
        {
            "text": "Stephen Waldron is still oh my goodness",
            "start": 1059.539,
            "duration": 6.0
        },
        {
            "text": "we can email we could call Stephen",
            "start": 1062.72,
            "duration": 4.92
        },
        {
            "text": "Waldron",
            "start": 1065.539,
            "duration": 6.321
        },
        {
            "text": "let's make a phone call Stephen",
            "start": 1067.64,
            "duration": 4.22
        },
        {
            "text": "this is the primogen",
            "start": 1073.28,
            "duration": 4.68
        },
        {
            "text": "um Microsoft empowers developers to",
            "start": 1075.5,
            "duration": 4.26
        },
        {
            "text": "create powerful new class of multimedia",
            "start": 1077.96,
            "duration": 3.18
        },
        {
            "text": "Rich applications in a platform",
            "start": 1079.76,
            "duration": 3.6
        },
        {
            "text": "independent development environment how",
            "start": 1081.14,
            "duration": 3.419
        },
        {
            "text": "much money did you have to pay somebody",
            "start": 1083.36,
            "duration": 4.08
        },
        {
            "text": "to say this quote uh illustra's unique",
            "start": 1084.559,
            "duration": 4.321
        },
        {
            "text": "extensible object relational",
            "start": 1087.44,
            "duration": 2.94
        },
        {
            "text": "architecture",
            "start": 1088.88,
            "duration": 4.08
        },
        {
            "text": "look at this they're literally doctor Dr",
            "start": 1090.38,
            "duration": 5.159
        },
        {
            "text": "Michael Stone breaker",
            "start": 1092.96,
            "duration": 4.86
        },
        {
            "text": "more like ball breaker here why are you",
            "start": 1095.539,
            "duration": 5.221
        },
        {
            "text": "doing why why you gotta be like this why",
            "start": 1097.82,
            "duration": 5.46
        },
        {
            "text": "do all of you have intuits into it into",
            "start": 1100.76,
            "duration": 4.7
        },
        {
            "text": "a paper software implies a",
            "start": 1103.28,
            "duration": 5.22
        },
        {
            "text": "multi-dimensional verbal user interface",
            "start": 1105.46,
            "duration": 6.16
        },
        {
            "text": "that is what is this",
            "start": 1108.5,
            "duration": 4.86
        },
        {
            "text": "does anybody here just say something",
            "start": 1111.62,
            "duration": 3.059
        },
        {
            "text": "about JavaScript other than the person",
            "start": 1113.36,
            "duration": 4.14
        },
        {
            "text": "that's like and no one can predict no",
            "start": 1114.679,
            "duration": 5.401
        },
        {
            "text": "one can predict this was probably the",
            "start": 1117.5,
            "duration": 5.58
        },
        {
            "text": "best statement of all time in fact this",
            "start": 1120.08,
            "duration": 4.8
        },
        {
            "text": "statement deserves a tweet",
            "start": 1123.08,
            "duration": 4.5
        },
        {
            "text": "can predict let's let's correctly",
            "start": 1124.88,
            "duration": 7.159
        },
        {
            "text": "attribute it to to Rose rose and",
            "start": 1127.58,
            "duration": 8.459
        },
        {
            "text": "gordano gordano",
            "start": 1132.039,
            "duration": 4.0
        },
        {
            "text": "night uh December 4th 1994.",
            "start": 1136.419,
            "duration": 6.041
        },
        {
            "text": "a stone breaker is a legend well Stone",
            "start": 1144.02,
            "duration": 5.1
        },
        {
            "text": "break me in surprise okay I didn't",
            "start": 1146.48,
            "duration": 4.62
        },
        {
            "text": "realize Dr ball breaker's a legend okay",
            "start": 1149.12,
            "duration": 5.12
        },
        {
            "text": "hey guess what the name",
            "start": 1151.1,
            "duration": 3.14
        },
        {
            "text": "is Javascript is a object scripting",
            "start": 1154.52,
            "duration": 5.659
        },
        {
            "text": "language again",
            "start": 1157.46,
            "duration": 2.719
        }
    ],
    "stats": {
        "viewCount": "47592",
        "likeCount": "1319",
        "favoriteCount": "0",
        "commentCount": "217"
    }
}