{
    "id": "NE4Exqt_0z8",
    "title": "Rust Compiles Faster NOW!",
    "publishedAt": "2023-11-19T14:15:01Z",
    "captions": [
        {
            "text": "all right let's do this faster",
            "start": 0.08,
            "duration": 4.56
        },
        {
            "text": "compilation with the parallel front end",
            "start": 1.719,
            "duration": 4.801
        },
        {
            "text": "in nightly okay so",
            "start": 4.64,
            "duration": 4.52
        },
        {
            "text": "apparently maybe less parallel we were",
            "start": 6.52,
            "duration": 4.72
        },
        {
            "text": "less parallel at one point with rust I",
            "start": 9.16,
            "duration": 3.88
        },
        {
            "text": "don't know it looked very unparallel you",
            "start": 11.24,
            "duration": 3.359
        },
        {
            "text": "know when you used to build it it would",
            "start": 13.04,
            "duration": 3.4
        },
        {
            "text": "just like literally say the numbers and",
            "start": 14.599,
            "duration": 4.44
        },
        {
            "text": "go one by one through it kind of looks",
            "start": 16.44,
            "duration": 5.36
        },
        {
            "text": "like they did a topological sort and",
            "start": 19.039,
            "duration": 4.681
        },
        {
            "text": "then never actually did a topological",
            "start": 21.8,
            "duration": 3.719
        },
        {
            "text": "sort with groups if you don't know what",
            "start": 23.72,
            "duration": 3.6
        },
        {
            "text": "a topological sword is you know next",
            "start": 25.519,
            "duration": 3.881
        },
        {
            "text": "Friday or next Thursday free on Twitch I",
            "start": 27.32,
            "duration": 3.48
        },
        {
            "text": "want to be doing an 8 Hour course that",
            "start": 29.4,
            "duration": 5.04
        },
        {
            "text": "touches on topological sort uh anyways",
            "start": 30.8,
            "duration": 5.88
        },
        {
            "text": "you should know this by now okay uh the",
            "start": 34.44,
            "duration": 3.92
        },
        {
            "text": "rust compiler's front end can use",
            "start": 36.68,
            "duration": 3.28
        },
        {
            "text": "parallel execution to significantly",
            "start": 38.36,
            "duration": 4.08
        },
        {
            "text": "reduce compile times uh to try it run",
            "start": 39.96,
            "duration": 5.2
        },
        {
            "text": "nightly compiler with the dasz threads 8",
            "start": 42.44,
            "duration": 4.48
        },
        {
            "text": "option this feature is currently",
            "start": 45.16,
            "duration": 3.44
        },
        {
            "text": "experimental and we aim to ship it in",
            "start": 46.92,
            "duration": 4.479
        },
        {
            "text": "stable compiler in 2024 keep reading to",
            "start": 48.6,
            "duration": 6.16
        },
        {
            "text": "learn why par you got to learn why don't",
            "start": 51.399,
            "duration": 6.081
        },
        {
            "text": "tell them don't tell them to skip rust",
            "start": 54.76,
            "duration": 4.479
        },
        {
            "text": "okay don't tell them to skip this okay",
            "start": 57.48,
            "duration": 2.96
        },
        {
            "text": "make them learn",
            "start": 59.239,
            "duration": 4.64
        },
        {
            "text": "make them know show them expose them all",
            "start": 60.44,
            "duration": 5.8
        },
        {
            "text": "right compile times and Par parallelism",
            "start": 63.879,
            "duration": 5.001
        },
        {
            "text": "rust compile times are a perennial",
            "start": 66.24,
            "duration": 6.4
        },
        {
            "text": "concern really the compiler performance",
            "start": 68.88,
            "duration": 5.72
        },
        {
            "text": "working group has continually improved",
            "start": 72.64,
            "duration": 3.479
        },
        {
            "text": "compiler performance for several years",
            "start": 74.6,
            "duration": 3.08
        },
        {
            "text": "for example in the first 10 months of",
            "start": 76.119,
            "duration": 4.161
        },
        {
            "text": "2023 there were mean reductions in",
            "start": 77.68,
            "duration": 5.96
        },
        {
            "text": "compile time by of 13% in Peak memory",
            "start": 80.28,
            "duration": 7.04
        },
        {
            "text": "use of 15% and in binary size of 7% as",
            "start": 83.64,
            "duration": 6.92
        },
        {
            "text": "measured by our performance Suite",
            "start": 87.32,
            "duration": 4.799
        },
        {
            "text": "okay that's I",
            "start": 90.56,
            "duration": 4.04
        },
        {
            "text": "mean assuming that their performance",
            "start": 92.119,
            "duration": 5.161
        },
        {
            "text": "Suite is telling the truth you know I",
            "start": 94.6,
            "duration": 4.4
        },
        {
            "text": "think would I mean I don't know how they",
            "start": 97.28,
            "duration": 3.519
        },
        {
            "text": "measure but to me what seems to be a",
            "start": 99.0,
            "duration": 4.28
        },
        {
            "text": "significantly better measurement is that",
            "start": 100.799,
            "duration": 4.28
        },
        {
            "text": "they own",
            "start": 103.28,
            "duration": 5.04
        },
        {
            "text": "crates.io they know a bunch about",
            "start": 105.079,
            "duration": 4.481
        },
        {
            "text": "compiling they should have just",
            "start": 108.32,
            "duration": 4.2
        },
        {
            "text": "literally used crates IO we reduced our",
            "start": 109.56,
            "duration": 5.879
        },
        {
            "text": "machine overhead by 15 machines at any",
            "start": 112.52,
            "duration": 5.32
        },
        {
            "text": "one time or 21 machines out of 400 or",
            "start": 115.439,
            "duration": 4.161
        },
        {
            "text": "whatever it is right like if they just",
            "start": 117.84,
            "duration": 4.0
        },
        {
            "text": "did did that you would know exactly how",
            "start": 119.6,
            "duration": 4.28
        },
        {
            "text": "much are you actually improving cuz I",
            "start": 121.84,
            "duration": 3.639
        },
        {
            "text": "always have a worry about performance",
            "start": 123.88,
            "duration": 4.4
        },
        {
            "text": "Suites right performance Suites because",
            "start": 125.479,
            "duration": 4.801
        },
        {
            "text": "they're not real sometimes I just want",
            "start": 128.28,
            "duration": 4.959
        },
        {
            "text": "to see the real deal just say how you",
            "start": 130.28,
            "duration": 5.28
        },
        {
            "text": "affected crates.io and then we can all",
            "start": 133.239,
            "duration": 4.36
        },
        {
            "text": "move on right it would make perfect",
            "start": 135.56,
            "duration": 3.6
        },
        {
            "text": "sense however at this points the",
            "start": 137.599,
            "duration": 3.401
        },
        {
            "text": "compiler has been heavily optimized and",
            "start": 139.16,
            "duration": 3.56
        },
        {
            "text": "new improvements are hard to find there",
            "start": 141.0,
            "duration": 3.959
        },
        {
            "text": "is no lwh hanging fruit remaining but",
            "start": 142.72,
            "duration": 4.44
        },
        {
            "text": "there is one piece of large let's see",
            "start": 144.959,
            "duration": 4.601
        },
        {
            "text": "but there is one piece of large but High",
            "start": 147.16,
            "duration": 5.96
        },
        {
            "text": "hang fruit parallelism rust compiler or",
            "start": 149.56,
            "duration": 5.48
        },
        {
            "text": "the current rust compiler user benefits",
            "start": 153.12,
            "duration": 4.16
        },
        {
            "text": "from two kinds of parallelism the newly",
            "start": 155.04,
            "duration": 4.72
        },
        {
            "text": "paralleled front end adds a Third Kind",
            "start": 157.28,
            "duration": 5.08
        },
        {
            "text": "okay okay I'm getting excited I'm",
            "start": 159.76,
            "duration": 4.96
        },
        {
            "text": "getting excited we're getting ready uh",
            "start": 162.36,
            "duration": 4.239
        },
        {
            "text": "existing interprocess",
            "start": 164.72,
            "duration": 4.08
        },
        {
            "text": "parallelism um when you compile rust",
            "start": 166.599,
            "duration": 3.961
        },
        {
            "text": "program cargo launches multiple Rusty",
            "start": 168.8,
            "duration": 3.68
        },
        {
            "text": "processes yes I've seen this CU my all",
            "start": 170.56,
            "duration": 4.039
        },
        {
            "text": "my all my course go bye-by compiling",
            "start": 172.48,
            "duration": 4.0
        },
        {
            "text": "multiple crates in parallel this works",
            "start": 174.599,
            "duration": 4.121
        },
        {
            "text": "well try compiling a large rust program",
            "start": 176.48,
            "duration": 4.52
        },
        {
            "text": "with J1 flag to disable paralyzation it",
            "start": 178.72,
            "duration": 4.12
        },
        {
            "text": "will take a lot longer than normal so",
            "start": 181.0,
            "duration": 4.239
        },
        {
            "text": "it'll take from it'll take from 5",
            "start": 182.84,
            "duration": 5.52
        },
        {
            "text": "minutes to 20 minutes got them all right",
            "start": 185.239,
            "duration": 5.64
        },
        {
            "text": "you can visualize the parallelism uh if",
            "start": 188.36,
            "duration": 4.64
        },
        {
            "text": "you build Russ cargo's timing Flags",
            "start": 190.879,
            "duration": 3.681
        },
        {
            "text": "which produce a chart showing how the",
            "start": 193.0,
            "duration": 3.4
        },
        {
            "text": "crates are compiled the following images",
            "start": 194.56,
            "duration": 4.28
        },
        {
            "text": "show the timeline when building a rip",
            "start": 196.4,
            "duration": 5.8
        },
        {
            "text": "grip on a machine with 28 virtual cores",
            "start": 198.84,
            "duration": 5.399
        },
        {
            "text": "okay okay okay let's see we got a bunch",
            "start": 202.2,
            "duration": 3.8
        },
        {
            "text": "of stuff going on right here fantastic",
            "start": 204.239,
            "duration": 3.881
        },
        {
            "text": "and then we hit this really long",
            "start": 206.0,
            "duration": 4.76
        },
        {
            "text": "definitely not in parallel anymore",
            "start": 208.12,
            "duration": 4.839
        },
        {
            "text": "oh this must be a a bunch of",
            "start": 210.76,
            "duration": 5.0
        },
        {
            "text": "like all the dependencies how did sde",
            "start": 212.959,
            "duration": 4.761
        },
        {
            "text": "get way down here how did sde Json get",
            "start": 215.76,
            "duration": 4.08
        },
        {
            "text": "way down here how did sday and sday",
            "start": 217.72,
            "duration": 4.2
        },
        {
            "text": "Jason get down here it seems like sday",
            "start": 219.84,
            "duration": 5.479
        },
        {
            "text": "should have been up here obviously duh",
            "start": 221.92,
            "duration": 5.08
        },
        {
            "text": "uh there are 60 horizontal lines each",
            "start": 225.319,
            "duration": 4.081
        },
        {
            "text": "one representing a distinct process uh",
            "start": 227.0,
            "duration": 4.239
        },
        {
            "text": "their duration range from a fraction of",
            "start": 229.4,
            "duration": 3.479
        },
        {
            "text": "a second to multiple seconds most of",
            "start": 231.239,
            "duration": 3.72
        },
        {
            "text": "them are rust see and a let's see and",
            "start": 232.879,
            "duration": 4.28
        },
        {
            "text": "the few orange ones are build scripts",
            "start": 234.959,
            "duration": 4.041
        },
        {
            "text": "the first 20 processes all start at the",
            "start": 237.159,
            "duration": 3.401
        },
        {
            "text": "same time the this is possible because",
            "start": 239.0,
            "duration": 3.48
        },
        {
            "text": "there are no dependencies uh between the",
            "start": 240.56,
            "duration": 3.56
        },
        {
            "text": "relevant crates but further down the",
            "start": 242.48,
            "duration": 5.28
        },
        {
            "text": "graph parallel paral parallelism reduces",
            "start": 244.12,
            "duration": 5.6
        },
        {
            "text": "as crate dependencies increase although",
            "start": 247.76,
            "duration": 3.759
        },
        {
            "text": "the compiler can overlap compilation of",
            "start": 249.72,
            "duration": 3.519
        },
        {
            "text": "dependent crates somewhat thanks to a",
            "start": 251.519,
            "duration": 3.92
        },
        {
            "text": "feature called pipeline compilation oh",
            "start": 253.239,
            "duration": 3.84
        },
        {
            "text": "cool there is much less parallel",
            "start": 255.439,
            "duration": 3.721
        },
        {
            "text": "execution happening toward the end of",
            "start": 257.079,
            "duration": 3.961
        },
        {
            "text": "compilation and this is typical for",
            "start": 259.16,
            "duration": 3.56
        },
        {
            "text": "large rust programs interprocess",
            "start": 261.04,
            "duration": 3.64
        },
        {
            "text": "parallelism is not enough to take full",
            "start": 262.72,
            "duration": 4.36
        },
        {
            "text": "advantage of many cores for more speed",
            "start": 264.68,
            "duration": 6.92
        },
        {
            "text": "we need more parallelism within more",
            "start": 267.08,
            "duration": 4.52
        },
        {
            "text": "processes hell yeah hell yeah I hope you",
            "start": 272.24,
            "duration": 5.04
        },
        {
            "text": "guys are getting excited I'm getting",
            "start": 276.16,
            "duration": 2.96
        },
        {
            "text": "excited for whatever whatever this is",
            "start": 277.28,
            "duration": 3.44
        },
        {
            "text": "let's do",
            "start": 279.12,
            "duration": 3.88
        },
        {
            "text": "this okay so they do obviously do a",
            "start": 280.72,
            "duration": 4.479
        },
        {
            "text": "topological sort and execute things as",
            "start": 283.0,
            "duration": 5.199
        },
        {
            "text": "parallel as possible so that I mean that",
            "start": 285.199,
            "duration": 4.401
        },
        {
            "text": "should not be surprising all right",
            "start": 288.199,
            "duration": 3.321
        },
        {
            "text": "existing interprocess parallelism the",
            "start": 289.6,
            "duration": 4.2
        },
        {
            "text": "back end uh the compiler is split into",
            "start": 291.52,
            "duration": 3.399
        },
        {
            "text": "two ABS the front end and the back and",
            "start": 293.8,
            "duration": 2.8
        },
        {
            "text": "the front end does many things including",
            "start": 294.919,
            "duration": 3.041
        },
        {
            "text": "parsing type checking and borrow",
            "start": 296.6,
            "duration": 3.64
        },
        {
            "text": "checking until uh this week it could not",
            "start": 297.96,
            "duration": 5.12
        },
        {
            "text": "be parallel execution okay",
            "start": 300.24,
            "duration": 4.64
        },
        {
            "text": "interesting because I know borrow",
            "start": 303.08,
            "duration": 4.559
        },
        {
            "text": "checking is like a huge uh is definitely",
            "start": 304.88,
            "duration": 5.08
        },
        {
            "text": "slow I know linking and borrow checking",
            "start": 307.639,
            "duration": 3.84
        },
        {
            "text": "are like the two big slowdowns so if you",
            "start": 309.96,
            "duration": 3.48
        },
        {
            "text": "could do like a parallel typeing across",
            "start": 311.479,
            "duration": 5.16
        },
        {
            "text": "your project could you potentially find",
            "start": 313.44,
            "duration": 5.36
        },
        {
            "text": "problems before you have to do all the",
            "start": 316.639,
            "duration": 4.041
        },
        {
            "text": "slower Parts I don't know it's kind of",
            "start": 318.8,
            "duration": 3.28
        },
        {
            "text": "an interesting concept what you can do",
            "start": 320.68,
            "duration": 2.959
        },
        {
            "text": "in parallel right type checking all",
            "start": 322.08,
            "duration": 3.48
        },
        {
            "text": "these things parsing why can't you just",
            "start": 323.639,
            "duration": 4.361
        },
        {
            "text": "parse all the things in parallel I don't",
            "start": 325.56,
            "duration": 4.079
        },
        {
            "text": "know I don't know the answers to these I",
            "start": 328.0,
            "duration": 3.36
        },
        {
            "text": "have no idea how the compiler set up the",
            "start": 329.639,
            "duration": 3.521
        },
        {
            "text": "backend performs code generation the it",
            "start": 331.36,
            "duration": 4.08
        },
        {
            "text": "generates code in chunks called code gen",
            "start": 333.16,
            "duration": 4.92
        },
        {
            "text": "units and the llvm processes these units",
            "start": 335.44,
            "duration": 4.759
        },
        {
            "text": "in parallel this is a form of coar grain",
            "start": 338.08,
            "duration": 4.6
        },
        {
            "text": "parallelism okay okay we can visualize",
            "start": 340.199,
            "duration": 3.961
        },
        {
            "text": "the difference between serial front end",
            "start": 342.68,
            "duration": 2.84
        },
        {
            "text": "and parallel back end following the",
            "start": 344.16,
            "duration": 3.68
        },
        {
            "text": "images shown uh shows the output of the",
            "start": 345.52,
            "duration": 5.28
        },
        {
            "text": "profiler called samply measures rust c",
            "start": 347.84,
            "duration": 5.32
        },
        {
            "text": "as it does a release build of the final",
            "start": 350.8,
            "duration": 5.28
        },
        {
            "text": "crate in cargo the image is superimposed",
            "start": 353.16,
            "duration": 4.84
        },
        {
            "text": "with markers that indicate front end and",
            "start": 356.08,
            "duration": 4.44
        },
        {
            "text": "back end okay",
            "start": 358.0,
            "duration": 4.84
        },
        {
            "text": "front",
            "start": 360.52,
            "duration": 2.32
        },
        {
            "text": "end back",
            "start": 363.68,
            "duration": 6.0
        },
        {
            "text": "end okay I feel like we can see some",
            "start": 366.24,
            "duration": 6.239
        },
        {
            "text": "problems here all right this does look",
            "start": 369.68,
            "duration": 5.76
        },
        {
            "text": "this does I mean like that doesn't look",
            "start": 372.479,
            "duration": 6.361
        },
        {
            "text": "good can we all agree that's not a w can",
            "start": 375.44,
            "duration": 5.159
        },
        {
            "text": "we get Fs in the chat maybe like an F",
            "start": 378.84,
            "duration": 3.6
        },
        {
            "text": "two FS three FS five FS how many FS can",
            "start": 380.599,
            "duration": 3.801
        },
        {
            "text": "we get in the chat have",
            "start": 382.44,
            "duration": 4.64
        },
        {
            "text": "I five FS okay we got enough FS we got",
            "start": 384.4,
            "duration": 4.72
        },
        {
            "text": "enough FS to move on forget you guys no",
            "start": 387.08,
            "duration": 4.64
        },
        {
            "text": "you shut up okay don't you come in here",
            "start": 389.12,
            "duration": 4.96
        },
        {
            "text": "dropping FS all right each horizontal",
            "start": 391.72,
            "duration": 4.52
        },
        {
            "text": "line represents a thread the main thread",
            "start": 394.08,
            "duration": 4.04
        },
        {
            "text": "is labeled Russy and is shown at the",
            "start": 396.24,
            "duration": 4.399
        },
        {
            "text": "bottom it is busy for most of the educu",
            "start": 398.12,
            "duration": 4.96
        },
        {
            "text": "the other 16 threads are llvm threads",
            "start": 400.639,
            "duration": 6.761
        },
        {
            "text": "called GP uh cgu Z through cgu 15 There",
            "start": 403.08,
            "duration": 6.36
        },
        {
            "text": "are 16 threads because 16 is the default",
            "start": 407.4,
            "duration": 4.56
        },
        {
            "text": "number of Coen units for a release",
            "start": 409.44,
            "duration": 5.479
        },
        {
            "text": "build classic 16 for 16 you know what I",
            "start": 411.96,
            "duration": 4.4
        },
        {
            "text": "mean there are several things worth",
            "start": 414.919,
            "duration": 3.68
        },
        {
            "text": "noting front end takes 10.2 seconds back",
            "start": 416.36,
            "duration": 5.239
        },
        {
            "text": "end takes 6. 2 seconds the llvm threads",
            "start": 418.599,
            "duration": 5.28
        },
        {
            "text": "are running for 5.9 seconds of that the",
            "start": 421.599,
            "duration": 3.841
        },
        {
            "text": "parallel code generation is highly",
            "start": 423.879,
            "duration": 3.641
        },
        {
            "text": "effective imagine all those llvm",
            "start": 425.44,
            "duration": 4.159
        },
        {
            "text": "executed one after another I can imagine",
            "start": 427.52,
            "duration": 4.679
        },
        {
            "text": "I can see it I can feel it it's kind of",
            "start": 429.599,
            "duration": 4.761
        },
        {
            "text": "like the front end uh even though there",
            "start": 432.199,
            "duration": 5.241
        },
        {
            "text": "are 16 lvm uh threads at no point are",
            "start": 434.36,
            "duration": 4.959
        },
        {
            "text": "all 16 executing at the same time",
            "start": 437.44,
            "duration": 3.96
        },
        {
            "text": "despite this being run on a machine with",
            "start": 439.319,
            "duration": 4.961
        },
        {
            "text": "28 cores the peak is 14 or 15 this is",
            "start": 441.4,
            "duration": 4.32
        },
        {
            "text": "because the main thread translates its",
            "start": 444.28,
            "duration": 4.16
        },
        {
            "text": "internal code representation mirr to",
            "start": 445.72,
            "duration": 6.12
        },
        {
            "text": "llvm's code representation llvm IR uh in",
            "start": 448.44,
            "duration": 5.159
        },
        {
            "text": "serial this takes a brief period for",
            "start": 451.84,
            "duration": 3.72
        },
        {
            "text": "each Coen unit and explains the",
            "start": 453.599,
            "duration": 3.6
        },
        {
            "text": "staircase shape on the left hand side",
            "start": 455.56,
            "duration": 3.56
        },
        {
            "text": "okay okay the front end is entirely",
            "start": 457.199,
            "duration": 3.521
        },
        {
            "text": "serial",
            "start": 459.12,
            "duration": 4.44
        },
        {
            "text": "yeah yeah okay so it looks like we got a",
            "start": 460.72,
            "duration": 4.84
        },
        {
            "text": "lot of W's going on here looks like we",
            "start": 463.56,
            "duration": 4.359
        },
        {
            "text": "got a lot of potential for some dubs",
            "start": 465.56,
            "duration": 4.0
        },
        {
            "text": "going on here this reminds me back in",
            "start": 467.919,
            "duration": 4.201
        },
        {
            "text": "the day when rulia conquered the",
            "start": 469.56,
            "duration": 4.8
        },
        {
            "text": "Philistines and negotiated trade",
            "start": 472.12,
            "duration": 5.079
        },
        {
            "text": "contracts at the same time thank you",
            "start": 474.36,
            "duration": 4.799
        },
        {
            "text": "history buff I mean I I understand we",
            "start": 477.199,
            "duration": 2.68
        },
        {
            "text": "have",
            "start": 479.159,
            "duration": 3.241
        },
        {
            "text": "we have some history Buffs going on here",
            "start": 479.879,
            "duration": 6.28
        },
        {
            "text": "um you know contract trade negotiation",
            "start": 482.4,
            "duration": 5.199
        },
        {
            "text": "always very",
            "start": 486.159,
            "duration": 3.48
        },
        {
            "text": "difficult you know people have been",
            "start": 487.599,
            "duration": 3.521
        },
        {
            "text": "stuck on that I mean we're still stuck",
            "start": 489.639,
            "duration": 5.52
        },
        {
            "text": "on that so congratulations that guy all",
            "start": 491.12,
            "duration": 5.6
        },
        {
            "text": "right hold on just one second I go to I",
            "start": 495.159,
            "duration": 2.76
        },
        {
            "text": "I want to pull up twitch chat so I can",
            "start": 496.72,
            "duration": 2.52
        },
        {
            "text": "actually read it instead of reading it",
            "start": 497.919,
            "duration": 4.081
        },
        {
            "text": "off my own feed right now I'm literally",
            "start": 499.24,
            "duration": 5.639
        },
        {
            "text": "reading it off my own",
            "start": 502.0,
            "duration": 4.879
        },
        {
            "text": "feed and that's really annoying I'd",
            "start": 504.879,
            "duration": 4.521
        },
        {
            "text": "rather read it in a dedicated window all",
            "start": 506.879,
            "duration": 4.28
        },
        {
            "text": "right let's pop this bad boy",
            "start": 509.4,
            "duration": 4.519
        },
        {
            "text": "out let's pop it",
            "start": 511.159,
            "duration": 5.401
        },
        {
            "text": "out I'm somewhat of a buffery of History",
            "start": 513.919,
            "duration": 4.48
        },
        {
            "text": "myself",
            "start": 516.56,
            "duration": 6.52
        },
        {
            "text": "yeah uh off your own feet yeah",
            "start": 518.399,
            "duration": 4.681
        },
        {
            "text": "yeah all right here we go uh new",
            "start": 524.6,
            "duration": 4.6
        },
        {
            "text": "inprocess parallelism the front end the",
            "start": 526.92,
            "duration": 4.039
        },
        {
            "text": "front end is now capable of parallel",
            "start": 529.2,
            "duration": 3.639
        },
        {
            "text": "execution it uses rayon to perform",
            "start": 530.959,
            "duration": 4.201
        },
        {
            "text": "compilation tasks using fine grained",
            "start": 532.839,
            "duration": 4.68
        },
        {
            "text": "parallelism okay okay many data",
            "start": 535.16,
            "duration": 4.56
        },
        {
            "text": "structures are synchronized by mutus",
            "start": 537.519,
            "duration": 4.481
        },
        {
            "text": "and read write locks Atomic types are",
            "start": 539.72,
            "duration": 3.96
        },
        {
            "text": "used where appropriate and many front",
            "start": 542.0,
            "duration": 3.6
        },
        {
            "text": "end operations are made parallel in",
            "start": 543.68,
            "duration": 3.88
        },
        {
            "text": "addition of parallelism was done by",
            "start": 545.6,
            "duration": 3.679
        },
        {
            "text": "modifying a relatively small number of",
            "start": 547.56,
            "duration": 3.12
        },
        {
            "text": "key points in the code the vast majority",
            "start": 549.279,
            "duration": 3.041
        },
        {
            "text": "of the front end code did not need to be",
            "start": 550.68,
            "duration": 3.279
        },
        {
            "text": "changed okay this better be amazing what",
            "start": 552.32,
            "duration": 3.519
        },
        {
            "text": "we're",
            "start": 553.959,
            "duration": 6.641
        },
        {
            "text": "seeing there we go that looks",
            "start": 555.839,
            "duration": 4.761
        },
        {
            "text": "good this looks much much better I like",
            "start": 560.68,
            "duration": 4.52
        },
        {
            "text": "what I'm seeing right",
            "start": 563.72,
            "duration": 4.559
        },
        {
            "text": "here this is cool I like that whatever",
            "start": 565.2,
            "duration": 5.0
        },
        {
            "text": "this samply is I never have seen samply",
            "start": 568.279,
            "duration": 4.56
        },
        {
            "text": "but it has this nice little uh it it has",
            "start": 570.2,
            "duration": 4.199
        },
        {
            "text": "this nice little um what's it called",
            "start": 572.839,
            "duration": 3.961
        },
        {
            "text": "like how much actually is being used",
            "start": 574.399,
            "duration": 3.481
        },
        {
            "text": "kind of cool it's kind of weird that",
            "start": 576.8,
            "duration": 2.96
        },
        {
            "text": "they all dip at the same time you know",
            "start": 577.88,
            "duration": 4.399
        },
        {
            "text": "just interesting more than anything else",
            "start": 579.76,
            "duration": 3.759
        },
        {
            "text": "so this does obviously reduce",
            "start": 582.279,
            "duration": 3.0
        },
        {
            "text": "compilation by a huge percentage awesome",
            "start": 583.519,
            "duration": 3.161
        },
        {
            "text": "when parallel front end is enabled and",
            "start": 585.279,
            "duration": 3.401
        },
        {
            "text": "configured to use eight threads we get",
            "start": 586.68,
            "duration": 3.64
        },
        {
            "text": "the following samply profile when",
            "start": 588.68,
            "duration": 3.8
        },
        {
            "text": "compiling uh the same example before",
            "start": 590.32,
            "duration": 4.32
        },
        {
            "text": "okay faster front end execution takes",
            "start": 592.48,
            "duration": 4.44
        },
        {
            "text": "5.9 seconds down from 10.2 backend takes",
            "start": 594.64,
            "duration": 6.12
        },
        {
            "text": "5.3 down from n uh 6. two nice and lvm",
            "start": 596.92,
            "duration": 6.359
        },
        {
            "text": "threads are running uh 4.9 seconds of",
            "start": 600.76,
            "duration": 4.88
        },
        {
            "text": "that down from 5.9 nice the additional",
            "start": 603.279,
            "duration": 3.921
        },
        {
            "text": "uh seven let's see the seven additional",
            "start": 605.64,
            "duration": 3.04
        },
        {
            "text": "threads labeled Rusty operate in the",
            "start": 607.2,
            "duration": 4.199
        },
        {
            "text": "front end they reduce front end times uh",
            "start": 608.68,
            "duration": 4.2
        },
        {
            "text": "time shows that they are reasonably",
            "start": 611.399,
            "duration": 3.721
        },
        {
            "text": "effective but the thread utilization is",
            "start": 612.88,
            "duration": 3.92
        },
        {
            "text": "patchy within the eight threads all",
            "start": 615.12,
            "duration": 3.48
        },
        {
            "text": "having uh periods of inactivity there's",
            "start": 616.8,
            "duration": 3.599
        },
        {
            "text": "room for significant Improvement I like",
            "start": 618.6,
            "duration": 3.919
        },
        {
            "text": "hearing this okay this is actually",
            "start": 620.399,
            "duration": 3.841
        },
        {
            "text": "pretty cool so here we'll skip that so",
            "start": 622.519,
            "duration": 4.801
        },
        {
            "text": "how to use it uh we do this little bad",
            "start": 624.24,
            "duration": 6.88
        },
        {
            "text": "boy okay okay so let's get nightly let's",
            "start": 627.32,
            "duration": 6.4
        },
        {
            "text": "actually just try this out um let's just",
            "start": 631.12,
            "duration": 6.279
        },
        {
            "text": "try this out uh I like this",
            "start": 633.72,
            "duration": 5.6
        },
        {
            "text": "idea all right so I'm going to go like",
            "start": 637.399,
            "duration": 3.641
        },
        {
            "text": "this cargo",
            "start": 639.32,
            "duration": 4.72
        },
        {
            "text": "clean right there we go rmrf let's just",
            "start": 641.04,
            "duration": 5.72
        },
        {
            "text": "make sure okay Target's gone fantastic",
            "start": 644.04,
            "duration": 4.64
        },
        {
            "text": "so let's do ourselves a little bit of uh",
            "start": 646.76,
            "duration": 4.24
        },
        {
            "text": "rust uh rust up a tool chain install",
            "start": 648.68,
            "duration": 3.68
        },
        {
            "text": "nightly let's make sure we're on the the",
            "start": 651.0,
            "duration": 5.12
        },
        {
            "text": "tippity top all",
            "start": 652.36,
            "duration": 3.76
        },
        {
            "text": "right",
            "start": 658.04,
            "duration": 3.0
        },
        {
            "text": "what version do we need does it say what",
            "start": 661.079,
            "duration": 3.281
        },
        {
            "text": "version we need it says it's in nightly",
            "start": 662.519,
            "duration": 3.401
        },
        {
            "text": "but like what what does that mean is",
            "start": 664.36,
            "duration": 4.88
        },
        {
            "text": "there like a seven 1.7 something how do",
            "start": 665.92,
            "duration": 5.159
        },
        {
            "text": "I know I have the right things oh well",
            "start": 669.24,
            "duration": 3.399
        },
        {
            "text": "whatever we'll we'll see we should be",
            "start": 671.079,
            "duration": 4.0
        },
        {
            "text": "able to see do uh do already work on",
            "start": 672.639,
            "duration": 5.521
        },
        {
            "text": "resolved issue about memory",
            "start": 675.079,
            "duration": 3.081
        },
        {
            "text": "leak there are some cool tools for",
            "start": 678.36,
            "duration": 4.88
        },
        {
            "text": "memory leaks and all that um valren is",
            "start": 680.32,
            "duration": 5.639
        },
        {
            "text": "uh pretty great uh you also if you're if",
            "start": 683.24,
            "duration": 3.96
        },
        {
            "text": "you're if you're doing just like",
            "start": 685.959,
            "duration": 2.56
        },
        {
            "text": "JavaScript and you're looking for memory",
            "start": 687.2,
            "duration": 2.36
        },
        {
            "text": "leaks",
            "start": 688.519,
            "duration": 2.921
        },
        {
            "text": "uh you got yourself a little bit more of",
            "start": 689.56,
            "duration": 3.64
        },
        {
            "text": "a goofy way you have to approach it",
            "start": 691.44,
            "duration": 2.72
        },
        {
            "text": "which means that you're going to need to",
            "start": 693.2,
            "duration": 5.28
        },
        {
            "text": "use like Chrome Dev tools and do Heap uh",
            "start": 694.16,
            "duration": 4.32
        },
        {
            "text": "snapshots I've accepted inevitably uh",
            "start": 698.519,
            "duration": 5.641
        },
        {
            "text": "and the inevitable and swapped to Neo",
            "start": 701.24,
            "duration": 4.719
        },
        {
            "text": "good job all right there we go so now",
            "start": 704.16,
            "duration": 3.119
        },
        {
            "text": "we're on the latest of the latest",
            "start": 705.959,
            "duration": 3.401
        },
        {
            "text": "nightly 175 hopefully that is that is",
            "start": 707.279,
            "duration": 3.761
        },
        {
            "text": "where we need to be uh and so what we're",
            "start": 709.36,
            "duration": 2.56
        },
        {
            "text": "going to do is I'm going to go like this",
            "start": 711.04,
            "duration": 5.239
        },
        {
            "text": "cargo build uh whoopsies uh",
            "start": 711.92,
            "duration": 7.919
        },
        {
            "text": "release oh crap uh cargo clean",
            "start": 716.279,
            "duration": 6.201
        },
        {
            "text": "uh time cargo build release let's just",
            "start": 719.839,
            "duration": 4.56
        },
        {
            "text": "do a very simple test ourselves very",
            "start": 722.48,
            "duration": 4.56
        },
        {
            "text": "simple obviously this is not real again",
            "start": 724.399,
            "duration": 5.56
        },
        {
            "text": "crates IO with thousands and thousands",
            "start": 727.04,
            "duration": 5.2
        },
        {
            "text": "of buildings all the time would be",
            "start": 729.959,
            "duration": 5.521
        },
        {
            "text": "fantastic all right there we go pretty",
            "start": 732.24,
            "duration": 4.959
        },
        {
            "text": "great we're looking pretty good I think",
            "start": 735.48,
            "duration": 3.08
        },
        {
            "text": "we're pretty happy about that little",
            "start": 737.199,
            "duration": 2.601
        },
        {
            "text": "number right there so I'm just going to",
            "start": 738.56,
            "duration": 4.0
        },
        {
            "text": "copy it uh I'm going to do a cargo uh",
            "start": 739.8,
            "duration": 5.839
        },
        {
            "text": "clean oopsies uh cargo clean apparently",
            "start": 742.56,
            "duration": 5.399
        },
        {
            "text": "I cannot type today cargo clean and then",
            "start": 745.639,
            "duration": 4.64
        },
        {
            "text": "let's do the let's",
            "start": 747.959,
            "duration": 4.481
        },
        {
            "text": "do this thing right down here let's go",
            "start": 750.279,
            "duration": 3.68
        },
        {
            "text": "down here and let's execute this bad boy",
            "start": 752.44,
            "duration": 3.16
        },
        {
            "text": "I just want to see it I want to I want",
            "start": 753.959,
            "duration": 3.041
        },
        {
            "text": "to feel it you know what I mean I want",
            "start": 755.6,
            "duration": 3.28
        },
        {
            "text": "to feel that all right so what are we",
            "start": 757.0,
            "duration": 3.8
        },
        {
            "text": "looking at 154",
            "start": 758.88,
            "duration": 5.8
        },
        {
            "text": "seconds uh of time overall but actually",
            "start": 760.8,
            "duration": 6.88
        },
        {
            "text": "18.37%",
            "start": 764.68,
            "duration": 3.0
        },
        {
            "text": "okay we had",
            "start": 768.72,
            "duration": 3.28
        },
        {
            "text": "18.37% I I I don't think I must not have",
            "start": 777.839,
            "duration": 4.36
        },
        {
            "text": "this version because that that should",
            "start": 780.76,
            "duration": 4.079
        },
        {
            "text": "have obviously",
            "start": 782.199,
            "duration": 2.64
        },
        {
            "text": "worked right that should have obviously",
            "start": 786.0,
            "duration": 4.0
        },
        {
            "text": "worked here we'll just go to",
            "start": 788.12,
            "duration": 4.279
        },
        {
            "text": "16 you know when in doubt just add more",
            "start": 790.0,
            "duration": 4.0
        },
        {
            "text": "threads that's what I always say that's",
            "start": 792.399,
            "duration": 4.081
        },
        {
            "text": "what I always say well that's awkward",
            "start": 794.0,
            "duration": 4.12
        },
        {
            "text": "yeah I know it is a little bit awkward",
            "start": 796.48,
            "duration": 4.68
        },
        {
            "text": "blazingly fast is there a way to clean",
            "start": 798.12,
            "duration": 5.56
        },
        {
            "text": "all of cargo's",
            "start": 801.16,
            "duration": 5.88
        },
        {
            "text": "data is there a way to yeah okay that",
            "start": 803.68,
            "duration": 7.08
        },
        {
            "text": "somehow that did not help me",
            "start": 807.04,
            "duration": 3.72
        },
        {
            "text": "uh is there a cargo reset yeah that's",
            "start": 811.199,
            "duration": 6.44
        },
        {
            "text": "not a real thing rmrf rout okay I could",
            "start": 814.48,
            "duration": 6.039
        },
        {
            "text": "try that I could try that more threads",
            "start": 817.639,
            "duration": 4.721
        },
        {
            "text": "equal slower Yeah we actually got we",
            "start": 820.519,
            "duration": 2.961
        },
        {
            "text": "actually well I don't know if that's",
            "start": 822.36,
            "duration": 2.44
        },
        {
            "text": "actually true the problem about doing",
            "start": 823.48,
            "duration": 2.84
        },
        {
            "text": "anything on your own system is like dude",
            "start": 824.8,
            "duration": 3.36
        },
        {
            "text": "I have like twitch running I have",
            "start": 826.32,
            "duration": 4.0
        },
        {
            "text": "YouTube videos up we have like a lot of",
            "start": 828.16,
            "duration": 4.2
        },
        {
            "text": "stuff going on can can't you just delete",
            "start": 830.32,
            "duration": 4.92
        },
        {
            "text": "cargo does cargo uh which",
            "start": 832.36,
            "duration": 5.0
        },
        {
            "text": "cargo see the problem is if I delete",
            "start": 835.24,
            "duration": 4.839
        },
        {
            "text": "cargo I delete more than than just cargo",
            "start": 837.36,
            "duration": 6.96
        },
        {
            "text": "uh F let's see find uh",
            "start": 840.079,
            "duration": 8.841
        },
        {
            "text": "cargo max depth 2 what do we got in here",
            "start": 844.32,
            "duration": 6.079
        },
        {
            "text": "we got a bunch of Bin director so we",
            "start": 848.92,
            "duration": 2.719
        },
        {
            "text": "definitely don't want to do that we have",
            "start": 850.399,
            "duration": 3.88
        },
        {
            "text": "registry packages what do we use here to",
            "start": 851.639,
            "duration": 5.12
        },
        {
            "text": "delete all these things cargo cash",
            "start": 854.279,
            "duration": 4.401
        },
        {
            "text": "remove dur all okay cargo cash I don't",
            "start": 856.759,
            "duration": 4.841
        },
        {
            "text": "think I have cargo cash do I oh remove",
            "start": 858.68,
            "duration": 6.76
        },
        {
            "text": "uh remove dur",
            "start": 861.6,
            "duration": 3.84
        },
        {
            "text": "all that's a lot of gigawatts I just got",
            "start": 867.68,
            "duration": 5.0
        },
        {
            "text": "a lot of memory back okay there we go so",
            "start": 870.079,
            "duration": 4.32
        },
        {
            "text": "now let's try this again we'll go back",
            "start": 872.68,
            "duration": 5.519
        },
        {
            "text": "down to eight let's see how we",
            "start": 874.399,
            "duration": 3.8
        },
        {
            "text": "do I did have to download just then see",
            "start": 880.16,
            "duration": 4.679
        },
        {
            "text": "that was kind of unfair I had to do some",
            "start": 883.44,
            "duration": 3.36
        },
        {
            "text": "downloading see the problem is is we had",
            "start": 884.839,
            "duration": 4.961
        },
        {
            "text": "this little download",
            "start": 886.8,
            "duration": 3.0
        },
        {
            "text": "phase see it's not it's not even fair it",
            "start": 891.88,
            "duration": 5.44
        },
        {
            "text": "still looks low okay I don't think we're",
            "start": 895.639,
            "duration": 3.721
        },
        {
            "text": "getting anything out of this okay",
            "start": 897.32,
            "duration": 4.04
        },
        {
            "text": "we're not getting anything out of this",
            "start": 899.36,
            "duration": 4.32
        },
        {
            "text": "we're not getting any obviously I must",
            "start": 901.36,
            "duration": 5.479
        },
        {
            "text": "be missing something um okay what lives",
            "start": 903.68,
            "duration": 5.48
        },
        {
            "text": "are seven no the compiled compiled rust",
            "start": 906.839,
            "duration": 5.761
        },
        {
            "text": "is huge okay compiled rust is",
            "start": 909.16,
            "duration": 7.2
        },
        {
            "text": "giant my nightly isn't new enough",
            "start": 912.6,
            "duration": 6.159
        },
        {
            "text": "yeah",
            "start": 916.36,
            "duration": 4.719
        },
        {
            "text": "oh uh are you on the right version let's",
            "start": 918.759,
            "duration": 6.041
        },
        {
            "text": "find out cargo version I'm on the latest",
            "start": 921.079,
            "duration": 8.0
        },
        {
            "text": "nightly as of like I guess two days ago",
            "start": 924.8,
            "duration": 5.88
        },
        {
            "text": "I'm on two days ago so I don't know if",
            "start": 929.079,
            "duration": 3.281
        },
        {
            "text": "this Is It Anyways okay well we'll drop",
            "start": 930.68,
            "duration": 4.519
        },
        {
            "text": "the whole trying it out thing all right",
            "start": 932.36,
            "duration": 5.599
        },
        {
            "text": "all right hey couldn't get that to work",
            "start": 935.199,
            "duration": 4.44
        },
        {
            "text": "apparently whatever I was doing did not",
            "start": 937.959,
            "duration": 4.961
        },
        {
            "text": "seem to actually make it work uh so the",
            "start": 939.639,
            "duration": 5.56
        },
        {
            "text": "name is I am excited about rust",
            "start": 942.92,
            "duration": 3.44
        },
        {
            "text": "compiling faster because I do think",
            "start": 945.199,
            "duration": 2.44
        },
        {
            "text": "that'd be a huge win but still the",
            "start": 946.36,
            "duration": 3.12
        },
        {
            "text": "linking is very very slow I'd love to",
            "start": 947.639,
            "duration": 3.68
        },
        {
            "text": "see some improvements in that whole area",
            "start": 949.48,
            "duration": 4.839
        },
        {
            "text": "uh Jen",
            "start": 951.319,
            "duration": 3.0
        }
    ],
    "stats": {
        "viewCount": "69338",
        "likeCount": "2033",
        "favoriteCount": "0",
        "commentCount": "113"
    }
}