{
    "id": "Nllgz51TcLw",
    "title": "TOP 5 CODE EDITORS | Prime Reacts",
    "publishedAt": "2023-03-05T13:05:20Z",
    "captions": [
        {
            "text": "all right here we go Mandela effect all",
            "start": 0.12,
            "duration": 4.08
        },
        {
            "text": "right are you ready for this favorite",
            "start": 2.46,
            "duration": 3.899
        },
        {
            "text": "code editors",
            "start": 4.2,
            "duration": 3.84
        },
        {
            "text": "is everybody ready for just the most",
            "start": 6.359,
            "duration": 3.541
        },
        {
            "text": "glorious moment of their life all right",
            "start": 8.04,
            "duration": 4.38
        },
        {
            "text": "so let's start it right now okay",
            "start": 9.9,
            "duration": 4.859
        },
        {
            "text": "my favorite code editor number five is",
            "start": 12.42,
            "duration": 5.48
        },
        {
            "text": "uh now in my first",
            "start": 14.759,
            "duration": 3.141
        },
        {
            "text": "what",
            "start": 32.16,
            "duration": 5.1
        },
        {
            "text": "what I mean I thought this was gonna be",
            "start": 34.739,
            "duration": 4.621
        },
        {
            "text": "something at least you know like I use",
            "start": 37.26,
            "duration": 4.08
        },
        {
            "text": "vim and I make fun of people using vs",
            "start": 39.36,
            "duration": 3.84
        },
        {
            "text": "code and we're gonna laugh over them and",
            "start": 41.34,
            "duration": 4.08
        },
        {
            "text": "say oh you know IntelliJ is really",
            "start": 43.2,
            "duration": 4.26
        },
        {
            "text": "awesome but he just came out the gates",
            "start": 45.42,
            "duration": 4.56
        },
        {
            "text": "with Adam",
            "start": 47.46,
            "duration": 4.38
        },
        {
            "text": "with Adam",
            "start": 49.98,
            "duration": 4.98
        },
        {
            "text": "Adam has been deprecated and stopped it",
            "start": 51.84,
            "duration": 4.98
        },
        {
            "text": "hasn't been worked on by the company",
            "start": 54.96,
            "duration": 5.34
        },
        {
            "text": "that started it in how many years now",
            "start": 56.82,
            "duration": 4.98
        },
        {
            "text": "what",
            "start": 60.3,
            "duration": 4.499
        },
        {
            "text": "what kind of weird ass start to this",
            "start": 61.8,
            "duration": 4.98
        },
        {
            "text": "whole thing is this I am I'm just",
            "start": 64.799,
            "duration": 4.261
        },
        {
            "text": "confused I'm absolutely confused by this",
            "start": 66.78,
            "duration": 4.46
        },
        {
            "text": "take",
            "start": 69.06,
            "duration": 2.18
        },
        {
            "text": "all right let's go to let's go to the",
            "start": 73.439,
            "duration": 2.821
        },
        {
            "text": "next one",
            "start": 75.119,
            "duration": 3.421
        },
        {
            "text": "full opinion Adam just looks really",
            "start": 76.26,
            "duration": 4.26
        },
        {
            "text": "really nice I might be biased here but I",
            "start": 78.54,
            "duration": 4.14
        },
        {
            "text": "love that number four is any jet brings",
            "start": 80.52,
            "duration": 4.7
        },
        {
            "text": "product now",
            "start": 82.68,
            "duration": 2.54
        },
        {
            "text": "okay I think jetbrains should have made",
            "start": 86.7,
            "duration": 3.9
        },
        {
            "text": "the list I agree I mean I think jet",
            "start": 88.32,
            "duration": 4.32
        },
        {
            "text": "brains that they they think about you",
            "start": 90.6,
            "duration": 4.08
        },
        {
            "text": "know think about development before LSPs",
            "start": 92.64,
            "duration": 3.6
        },
        {
            "text": "and all that jetbrains was really",
            "start": 94.68,
            "duration": 3.06
        },
        {
            "text": "awesome and when they did their",
            "start": 96.24,
            "duration": 3.12
        },
        {
            "text": "Community Edition back in like what is",
            "start": 97.74,
            "duration": 4.44
        },
        {
            "text": "it 2011 where ever everything but",
            "start": 99.36,
            "duration": 4.32
        },
        {
            "text": "JavaScript I don't I still don't get",
            "start": 102.18,
            "duration": 3.299
        },
        {
            "text": "that one was uh paid for or for free",
            "start": 103.68,
            "duration": 4.14
        },
        {
            "text": "like that was really good honestly it",
            "start": 105.479,
            "duration": 4.381
        },
        {
            "text": "was really really amazing I thought",
            "start": 107.82,
            "duration": 3.659
        },
        {
            "text": "jetbrains they did a great job when I",
            "start": 109.86,
            "duration": 4.5
        },
        {
            "text": "was using python it was fantastic right",
            "start": 111.479,
            "duration": 4.92
        },
        {
            "text": "pie charm you got it pretty much for",
            "start": 114.36,
            "duration": 4.82
        },
        {
            "text": "free uh",
            "start": 116.399,
            "duration": 5.341
        },
        {
            "text": "it was nice",
            "start": 119.18,
            "duration": 5.399
        },
        {
            "text": "this was good",
            "start": 121.74,
            "duration": 2.839
        },
        {
            "text": "but number four",
            "start": 125.04,
            "duration": 3.66
        },
        {
            "text": "I mean it does beat Adam it should beat",
            "start": 126.6,
            "duration": 3.9
        },
        {
            "text": "Adam",
            "start": 128.7,
            "duration": 3.24
        },
        {
            "text": "I'm just really scared with the next",
            "start": 130.5,
            "duration": 3.78
        },
        {
            "text": "three are because there's only emacs vim",
            "start": 131.94,
            "duration": 5.34
        },
        {
            "text": "and vs code pretty much left",
            "start": 134.28,
            "duration": 5.64
        },
        {
            "text": "or Helix these nuts that's I mean that's",
            "start": 137.28,
            "duration": 4.14
        },
        {
            "text": "it that's all we got",
            "start": 139.92,
            "duration": 3.3
        },
        {
            "text": "I don't often really use Japanese",
            "start": 141.42,
            "duration": 3.42
        },
        {
            "text": "products because they're really really",
            "start": 143.22,
            "duration": 3.599
        },
        {
            "text": "bloated but they're super simple to use",
            "start": 144.84,
            "duration": 4.7
        },
        {
            "text": "and variants",
            "start": 146.819,
            "duration": 2.721
        },
        {
            "text": "jet brains",
            "start": 152.22,
            "duration": 3.08
        },
        {
            "text": "is nothing but simple okay",
            "start": 155.94,
            "duration": 4.62
        },
        {
            "text": "there's nothing simple about jet brains",
            "start": 158.58,
            "duration": 4.08
        },
        {
            "text": "jetbrains is the single-handedly the",
            "start": 160.56,
            "duration": 3.72
        },
        {
            "text": "most complex",
            "start": 162.66,
            "duration": 5.96
        },
        {
            "text": "piece of software ever created",
            "start": 164.28,
            "duration": 4.34
        },
        {
            "text": "I mean I get that you can press the",
            "start": 170.819,
            "duration": 4.081
        },
        {
            "text": "green button and press play but it's it",
            "start": 172.319,
            "duration": 5.521
        },
        {
            "text": "has one billion features that integrate",
            "start": 174.9,
            "duration": 4.68
        },
        {
            "text": "with every aspect of your development",
            "start": 177.84,
            "duration": 5.64
        },
        {
            "text": "life like it is it is by far not simple",
            "start": 179.58,
            "duration": 6.06
        },
        {
            "text": "okay I would even call it greatly",
            "start": 183.48,
            "duration": 3.6
        },
        {
            "text": "intuitive either",
            "start": 185.64,
            "duration": 3.959
        },
        {
            "text": "number three is a product that I use off",
            "start": 187.08,
            "duration": 5.22
        },
        {
            "text": "and this is vs code yes okay good vs",
            "start": 189.599,
            "duration": 4.92
        },
        {
            "text": "code is not number one everybody",
            "start": 192.3,
            "duration": 4.019
        },
        {
            "text": "that's that's that's a victory right",
            "start": 194.519,
            "duration": 3.36
        },
        {
            "text": "there I'm not gonna lie to you after",
            "start": 196.319,
            "duration": 4.381
        },
        {
            "text": "Adam being number one I'm super scared",
            "start": 197.879,
            "duration": 5.341
        },
        {
            "text": "of what number two three and two or uh",
            "start": 200.7,
            "duration": 4.38
        },
        {
            "text": "two and one are gonna be I'm happy vs",
            "start": 203.22,
            "duration": 3.18
        },
        {
            "text": "code is not number one everybody we",
            "start": 205.08,
            "duration": 2.519
        },
        {
            "text": "should all be happy can we get some",
            "start": 206.4,
            "duration": 3.059
        },
        {
            "text": "claps in here",
            "start": 207.599,
            "duration": 3.661
        },
        {
            "text": "but I'm not gonna lie to you I have a",
            "start": 209.459,
            "duration": 4.021
        },
        {
            "text": "strong feeling that that the rest of",
            "start": 211.26,
            "duration": 4.619
        },
        {
            "text": "this is just giving notepad plus plus I",
            "start": 213.48,
            "duration": 4.2
        },
        {
            "text": "swear it's gonna make it Nano or notepad",
            "start": 215.879,
            "duration": 5.22
        },
        {
            "text": "plus plus I swear I swear",
            "start": 217.68,
            "duration": 6.419
        },
        {
            "text": "foreign",
            "start": 221.099,
            "duration": 3.0
        },
        {
            "text": "because it has a bunch of extensions",
            "start": 224.299,
            "duration": 4.421
        },
        {
            "text": "it's lightweight and honestly it runs",
            "start": 226.5,
            "duration": 5.28
        },
        {
            "text": "like fun it",
            "start": 228.72,
            "duration": 5.4
        },
        {
            "text": "it doesn't run like butter",
            "start": 231.78,
            "duration": 5.819
        },
        {
            "text": "it is definitionally not lightweight",
            "start": 234.12,
            "duration": 6.479
        },
        {
            "text": "it's a big ass V8 engine running that",
            "start": 237.599,
            "duration": 4.801
        },
        {
            "text": "runs like eight processes all running",
            "start": 240.599,
            "duration": 3.661
        },
        {
            "text": "JavaScript they each take up like a gig",
            "start": 242.4,
            "duration": 3.839
        },
        {
            "text": "of RAM there's nothing there's nothing",
            "start": 244.26,
            "duration": 4.44
        },
        {
            "text": "lightweight about this whole concept of",
            "start": 246.239,
            "duration": 4.92
        },
        {
            "text": "vs code like nothing this lightweight is",
            "start": 248.7,
            "duration": 4.28
        },
        {
            "text": "not the proper description here okay",
            "start": 251.159,
            "duration": 4.621
        },
        {
            "text": "runs like margarine runs like melted",
            "start": 252.98,
            "duration": 5.14
        },
        {
            "text": "Legos okay these are just hot ass Legos",
            "start": 255.78,
            "duration": 4.139
        },
        {
            "text": "getting poured all over the place",
            "start": 258.12,
            "duration": 3.98
        },
        {
            "text": "run like churned butter baby",
            "start": 259.919,
            "duration": 5.31
        },
        {
            "text": "[Music]",
            "start": 262.1,
            "duration": 3.129
        },
        {
            "text": "number two and I use the most often okay",
            "start": 270.24,
            "duration": 3.84
        },
        {
            "text": "so what the hell is number one this is",
            "start": 272.34,
            "duration": 3.6
        },
        {
            "text": "giving this give me an anxiety just",
            "start": 274.08,
            "duration": 3.48
        },
        {
            "text": "thinking about it the open being number",
            "start": 275.94,
            "duration": 3.42
        },
        {
            "text": "two I can respect that okay because some",
            "start": 277.56,
            "duration": 3.72
        },
        {
            "text": "people are emacs Chads you know they",
            "start": 279.36,
            "duration": 4.08
        },
        {
            "text": "just they think it's number one",
            "start": 281.28,
            "duration": 5.24
        },
        {
            "text": "I can let that go",
            "start": 283.44,
            "duration": 3.08
        },
        {
            "text": "but I think okay chat real talk what do",
            "start": 286.68,
            "duration": 3.9
        },
        {
            "text": "you think it's gonna be",
            "start": 289.08,
            "duration": 2.82
        },
        {
            "text": "it's gonna be Helix I think they're",
            "start": 290.58,
            "duration": 3.059
        },
        {
            "text": "gonna he's gonna just drop Helix is",
            "start": 291.9,
            "duration": 2.7
        },
        {
            "text": "number one",
            "start": 293.639,
            "duration": 3.721
        },
        {
            "text": "helix or notepad plus plus or Sublime",
            "start": 294.6,
            "duration": 5.76
        },
        {
            "text": "incoming",
            "start": 297.36,
            "duration": 3.0
        },
        {
            "text": "you think Nano oh man we're getting a",
            "start": 300.479,
            "duration": 4.741
        },
        {
            "text": "load of Nano all right before we do it",
            "start": 302.88,
            "duration": 3.66
        },
        {
            "text": "let's just let's just do a quick poll",
            "start": 305.22,
            "duration": 3.84
        },
        {
            "text": "because I do I I want to see this what",
            "start": 306.54,
            "duration": 3.84
        },
        {
            "text": "is",
            "start": 309.06,
            "duration": 3.3
        },
        {
            "text": "what is the the thoughts of the new one",
            "start": 310.38,
            "duration": 4.259
        },
        {
            "text": "here I'm just gonna go like this what is",
            "start": 312.36,
            "duration": 4.08
        },
        {
            "text": "it oh actually now let's not do a poll",
            "start": 314.639,
            "duration": 4.141
        },
        {
            "text": "let's do a prediction you got to put",
            "start": 316.44,
            "duration": 5.479
        },
        {
            "text": "some dollars on the line here okay",
            "start": 318.78,
            "duration": 8.28
        },
        {
            "text": "what's number one emacs",
            "start": 321.919,
            "duration": 7.78
        },
        {
            "text": "helix",
            "start": 327.06,
            "duration": 4.8
        },
        {
            "text": "Nano",
            "start": 329.699,
            "duration": 3.78
        },
        {
            "text": "note",
            "start": 331.86,
            "duration": 4.679
        },
        {
            "text": "pad plus plus",
            "start": 333.479,
            "duration": 4.921
        },
        {
            "text": "Google Docs",
            "start": 336.539,
            "duration": 5.481
        },
        {
            "text": "or something else",
            "start": 338.4,
            "duration": 3.62
        },
        {
            "text": "all right what is it gonna be",
            "start": 343.199,
            "duration": 6.081
        },
        {
            "text": "what is it gonna be",
            "start": 345.18,
            "duration": 4.1
        },
        {
            "text": "a Google Docs Microsoft Word Microsoft",
            "start": 350.759,
            "duration": 3.78
        },
        {
            "text": "Word Google Docs will be the same so if",
            "start": 352.62,
            "duration": 3.9
        },
        {
            "text": "you get Microsoft Word add the standard",
            "start": 354.539,
            "duration": 4.981
        },
        {
            "text": "editor it could be uh sorry no no",
            "start": 356.52,
            "duration": 5.28
        },
        {
            "text": "gambling from Sweden uh pull people uh",
            "start": 359.52,
            "duration": 3.3
        },
        {
            "text": "can cheat",
            "start": 361.8,
            "duration": 3.54
        },
        {
            "text": "I know this will I think this is good",
            "start": 362.82,
            "duration": 5.46
        },
        {
            "text": "this is a bet Nightshade dude no this is",
            "start": 365.34,
            "duration": 4.139
        },
        {
            "text": "a bet",
            "start": 368.28,
            "duration": 3.84
        },
        {
            "text": "this is good there's no cheating",
            "start": 369.479,
            "duration": 5.94
        },
        {
            "text": "oh yeah there is cheating don't be a d",
            "start": 372.12,
            "duration": 5.88
        },
        {
            "text": "don't be a doo-doo head and go look up",
            "start": 375.419,
            "duration": 6.361
        },
        {
            "text": "the name I even think about that",
            "start": 378.0,
            "duration": 9.27
        },
        {
            "text": "[Laughter]",
            "start": 381.78,
            "duration": 5.49
        },
        {
            "text": "there's people that already saw this",
            "start": 387.84,
            "duration": 5.28
        },
        {
            "text": "that are like easy money so my guess is",
            "start": 389.4,
            "duration": 5.16
        },
        {
            "text": "it's something else all right here we go",
            "start": 393.12,
            "duration": 3.359
        },
        {
            "text": "it's gonna be sublime or some something",
            "start": 394.56,
            "duration": 4.8
        },
        {
            "text": "some nonsense is coming in isn't it",
            "start": 396.479,
            "duration": 5.581
        },
        {
            "text": "all right here we go",
            "start": 399.36,
            "duration": 5.399
        },
        {
            "text": "Vim is great because it has a bunch of",
            "start": 402.06,
            "duration": 5.34
        },
        {
            "text": "extensions even more than BS code and",
            "start": 404.759,
            "duration": 4.321
        },
        {
            "text": "its key bindings are amazing in my",
            "start": 407.4,
            "duration": 5.12
        },
        {
            "text": "opinion it's almost perfect but the most",
            "start": 409.08,
            "duration": 3.44
        },
        {
            "text": "why am I being trolled like this this",
            "start": 428.1,
            "duration": 7.099
        },
        {
            "text": "why are we living this life right now",
            "start": 430.46,
            "duration": 4.739
        },
        {
            "text": "is pretty good okay it was pretty good",
            "start": 440.4,
            "duration": 5.46
        },
        {
            "text": "because he was pretty I I think Adam had",
            "start": 442.979,
            "duration": 5.821
        },
        {
            "text": "to be the start on on purpose just to",
            "start": 445.86,
            "duration": 5.64
        },
        {
            "text": "make people so upset and then finish it",
            "start": 448.8,
            "duration": 5.1
        },
        {
            "text": "off with notepad plus plus I feel like",
            "start": 451.5,
            "duration": 3.84
        },
        {
            "text": "this was all on purpose this we are",
            "start": 453.9,
            "duration": 3.72
        },
        {
            "text": "being had right now we're being had",
            "start": 455.34,
            "duration": 4.68
        },
        {
            "text": "what I just watched",
            "start": 457.62,
            "duration": 5.479
        },
        {
            "text": "is BS",
            "start": 460.02,
            "duration": 3.079
        },
        {
            "text": "we're being had",
            "start": 464.16,
            "duration": 2.78
        }
    ],
    "stats": {
        "viewCount": "82149",
        "likeCount": "3167",
        "favoriteCount": "0",
        "commentCount": "212"
    }
}