{
    "id": "NYorsca0wxU",
    "title": "Indexing &amp; Node Modules",
    "publishedAt": "2024-01-04T21:35:52Z",
    "captions": [
        {
            "text": "indexing and node modules is the is is",
            "start": 0.04,
            "duration": 3.8
        },
        {
            "text": "is literally one of the rings of hell",
            "start": 2.2,
            "duration": 3.48
        },
        {
            "text": "the amount of times I have to uninstall",
            "start": 3.84,
            "duration": 3.76
        },
        {
            "text": "and reinstall node modules followed by",
            "start": 5.68,
            "duration": 4.2
        },
        {
            "text": "indexing in an intellig project is",
            "start": 7.6,
            "duration": 4.6
        },
        {
            "text": "entirely too painful it is entirely too",
            "start": 9.88,
            "duration": 4.4
        },
        {
            "text": "painful okay it's literally done once",
            "start": 12.2,
            "duration": 3.919
        },
        {
            "text": "yeah unless if you have to delete and",
            "start": 14.28,
            "duration": 3.4
        },
        {
            "text": "reinstall node modules which I don't",
            "start": 16.119,
            "duration": 3.481
        },
        {
            "text": "know why why does that fix so many",
            "start": 17.68,
            "duration": 4.12
        },
        {
            "text": "issues what's going on it's interpreted",
            "start": 19.6,
            "duration": 5.599
        },
        {
            "text": "code and it's not changing",
            "start": 21.8,
            "duration": 3.399
        }
    ],
    "stats": {
        "viewCount": "61349",
        "likeCount": "2380",
        "favoriteCount": "0",
        "commentCount": "65"
    }
}