{
    "id": "oKzVBgHqsis",
    "title": "Code That MURDERED 6 People | Prime Reacts",
    "publishedAt": "2023-09-17T12:00:37Z",
    "captions": [
        {
            "text": "all right so if you don't know this is",
            "start": 0.0,
            "duration": 3.179
        },
        {
            "text": "low level learning low-level learning is",
            "start": 1.56,
            "duration": 4.38
        },
        {
            "text": "one of my favorite producers of content",
            "start": 3.179,
            "duration": 6.061
        },
        {
            "text": "and not only that great streamer based",
            "start": 5.94,
            "duration": 5.46
        },
        {
            "text": "takes wears glasses so he's likely",
            "start": 9.24,
            "duration": 3.779
        },
        {
            "text": "smarter than you if he carries a",
            "start": 11.4,
            "duration": 3.84
        },
        {
            "text": "clipboard and wears glasses he will",
            "start": 13.019,
            "duration": 5.161
        },
        {
            "text": "somehow intersect the the full ability",
            "start": 15.24,
            "duration": 5.76
        },
        {
            "text": "to appear ultimately smart and thus I",
            "start": 18.18,
            "duration": 4.38
        },
        {
            "text": "will actually get imposter syndrome",
            "start": 21.0,
            "duration": 3.779
        },
        {
            "text": "being around him it's that good it's",
            "start": 22.56,
            "duration": 6.959
        },
        {
            "text": "that good on March 21st 1986 Ray Cox",
            "start": 24.779,
            "duration": 6.9
        },
        {
            "text": "drove to the East Texas Cancer Treatment",
            "start": 29.519,
            "duration": 4.681
        },
        {
            "text": "Center where he was set to undergo a",
            "start": 31.679,
            "duration": 4.681
        },
        {
            "text": "regularly scheduled treatment oh man is",
            "start": 34.2,
            "duration": 4.379
        },
        {
            "text": "this gonna make me sad Rey would receive",
            "start": 36.36,
            "duration": 5.46
        },
        {
            "text": "180 RADS of radiation for a tumor",
            "start": 38.579,
            "duration": 5.701
        },
        {
            "text": "developing in his back just left at this",
            "start": 41.82,
            "duration": 3.239
        },
        {
            "text": "fine",
            "start": 44.28,
            "duration": 3.36
        },
        {
            "text": "five months later this gentleman was",
            "start": 45.059,
            "duration": 4.081
        },
        {
            "text": "dead",
            "start": 47.64,
            "duration": 3.54
        },
        {
            "text": "the East Texas Cancer Center incident",
            "start": 49.14,
            "duration": 5.16
        },
        {
            "text": "was just one of six radiation related",
            "start": 51.18,
            "duration": 8.16
        },
        {
            "text": "injuries and deaths from 1985 to 1987.",
            "start": 54.3,
            "duration": 6.779
        },
        {
            "text": "the common theme in all these events",
            "start": 59.34,
            "duration": 4.74
        },
        {
            "text": "same their act 25. like I just can't",
            "start": 61.079,
            "duration": 4.201
        },
        {
            "text": "imagine",
            "start": 64.08,
            "duration": 2.7
        },
        {
            "text": "oh my God I don't even want to talk I",
            "start": 65.28,
            "duration": 2.879
        },
        {
            "text": "just like just think about my beautiful",
            "start": 66.78,
            "duration": 2.699
        },
        {
            "text": "wife or something like that having that",
            "start": 68.159,
            "duration": 2.521
        },
        {
            "text": "happen too where it's like a medical",
            "start": 69.479,
            "duration": 3.481
        },
        {
            "text": "oopsie Daisy with dividing by zero or",
            "start": 70.68,
            "duration": 4.92
        },
        {
            "text": "some man I feel like I would just I",
            "start": 72.96,
            "duration": 4.68
        },
        {
            "text": "would just lose it which is also another",
            "start": 75.6,
            "duration": 3.72
        },
        {
            "text": "thing to think about everything that is",
            "start": 77.64,
            "duration": 3.24
        },
        {
            "text": "being used remember",
            "start": 79.32,
            "duration": 4.86
        },
        {
            "text": "somebody like me or you programmed that",
            "start": 80.88,
            "duration": 5.16
        },
        {
            "text": "machine it's actually kind of terrifying",
            "start": 84.18,
            "duration": 3.72
        },
        {
            "text": "once you think about that",
            "start": 86.04,
            "duration": 4.619
        },
        {
            "text": "it's not easy to treat cancer treating",
            "start": 87.9,
            "duration": 4.68
        },
        {
            "text": "cancer effectively has been a hard",
            "start": 90.659,
            "duration": 3.901
        },
        {
            "text": "problem in the field of medicine for",
            "start": 92.58,
            "duration": 4.02
        },
        {
            "text": "several decades is that a chat GPT image",
            "start": 94.56,
            "duration": 4.62
        },
        {
            "text": "is the medical industry spends you're",
            "start": 96.6,
            "duration": 3.96
        },
        {
            "text": "welcome for the screen tearing oh my",
            "start": 99.18,
            "duration": 2.7
        },
        {
            "text": "goodness the fly just landed on me we're",
            "start": 100.56,
            "duration": 3.18
        },
        {
            "text": "gonna end the slide's life in three two",
            "start": 101.88,
            "duration": 5.22
        },
        {
            "text": "one oh God away the fly that got away",
            "start": 103.74,
            "duration": 6.12
        },
        {
            "text": "billions every year in research and",
            "start": 107.1,
            "duration": 4.5
        },
        {
            "text": "development attempting to make cancer",
            "start": 109.86,
            "duration": 3.78
        },
        {
            "text": "treatment more effective and less",
            "start": 111.6,
            "duration": 3.36
        },
        {
            "text": "invasive",
            "start": 113.64,
            "duration": 4.259
        },
        {
            "text": "in the mid-1970s the atomic energy of",
            "start": 114.96,
            "duration": 6.299
        },
        {
            "text": "Canada Limited company or aecl developed",
            "start": 117.899,
            "duration": 6.18
        },
        {
            "text": "a radical new double pass concept for",
            "start": 121.259,
            "duration": 5.101
        },
        {
            "text": "electron acceleration",
            "start": 124.079,
            "duration": 4.561
        },
        {
            "text": "the double pass accelerator allowed new",
            "start": 126.36,
            "duration": 4.619
        },
        {
            "text": "Radiology machines to be more Compact",
            "start": 128.64,
            "duration": 5.22
        },
        {
            "text": "and perform two kinds of radiotherapy in",
            "start": 130.979,
            "duration": 6.001
        },
        {
            "text": "one machine x-ray therapy and electron",
            "start": 133.86,
            "duration": 6.0
        },
        {
            "text": "therapy this two-in-one package made the",
            "start": 136.98,
            "duration": 5.46
        },
        {
            "text": "newly developed their act 25 extremely",
            "start": 139.86,
            "duration": 5.22
        },
        {
            "text": "attractive to hospitals as it was easier",
            "start": 142.44,
            "duration": 5.28
        },
        {
            "text": "and cheaper than the original therax6",
            "start": 145.08,
            "duration": 5.879
        },
        {
            "text": "and their act 20. it's called the",
            "start": 147.72,
            "duration": 5.879
        },
        {
            "text": "therak25 why wasn't it called the ferric",
            "start": 150.959,
            "duration": 5.701
        },
        {
            "text": "26 I mean they had a 20",
            "start": 153.599,
            "duration": 5.401
        },
        {
            "text": "and a six",
            "start": 156.66,
            "duration": 4.56
        },
        {
            "text": "and it was both models together",
            "start": 159.0,
            "duration": 4.739
        },
        {
            "text": "why wasn't it the 26.",
            "start": 161.22,
            "duration": 5.76
        },
        {
            "text": "Windows 21 confirmed off by one air here",
            "start": 163.739,
            "duration": 5.821
        },
        {
            "text": "we come here comes Derek 25 was the",
            "start": 166.98,
            "duration": 4.16
        },
        {
            "text": "first radiation therapy machine",
            "start": 169.56,
            "duration": 5.16
        },
        {
            "text": "controlled entirely by software previous",
            "start": 171.14,
            "duration": 5.44
        },
        {
            "text": "versions use software to make the",
            "start": 174.72,
            "duration": 4.2
        },
        {
            "text": "interfaces more convenient but still add",
            "start": 176.58,
            "duration": 4.68
        },
        {
            "text": "Hardware interlocks to operate the",
            "start": 178.92,
            "duration": 3.599
        },
        {
            "text": "emitters",
            "start": 181.26,
            "duration": 5.64
        },
        {
            "text": "on March 21st 1986 Ray Cox entered the",
            "start": 182.519,
            "duration": 6.601
        },
        {
            "text": "East Texas Treatment Center to receive",
            "start": 186.9,
            "duration": 5.52
        },
        {
            "text": "his 180 RADS he was taken to his room",
            "start": 189.12,
            "duration": 6.06
        },
        {
            "text": "where he laid under the therak-25 base",
            "start": 192.42,
            "duration": 4.38
        },
        {
            "text": "down",
            "start": 195.18,
            "duration": 3.479
        },
        {
            "text": "operator entered the control Bay where",
            "start": 196.8,
            "duration": 3.299
        },
        {
            "text": "she quickly entered the prescription",
            "start": 198.659,
            "duration": 4.44
        },
        {
            "text": "data to the therak 25 user interface",
            "start": 200.099,
            "duration": 4.621
        },
        {
            "text": "could mess this up",
            "start": 203.099,
            "duration": 4.261
        },
        {
            "text": "honestly this looks perfect",
            "start": 204.72,
            "duration": 5.28
        },
        {
            "text": "um this this seems absolutely easy and",
            "start": 207.36,
            "duration": 3.98
        },
        {
            "text": "it definitely",
            "start": 210.0,
            "duration": 3.599
        },
        {
            "text": "non-oopsie Daisy proof I mean this is",
            "start": 211.34,
            "duration": 4.539
        },
        {
            "text": "perfectly perfectly straightforward",
            "start": 213.599,
            "duration": 5.28
        },
        {
            "text": "perfectly straightforward imagine this",
            "start": 215.879,
            "duration": 5.461
        },
        {
            "text": "is what it'll never it'll never mess up",
            "start": 218.879,
            "duration": 4.86
        },
        {
            "text": "dude I know dude imagine if this is your",
            "start": 221.34,
            "duration": 4.74
        },
        {
            "text": "life was dependent on this input oh my",
            "start": 223.739,
            "duration": 4.28
        },
        {
            "text": "goodness I'd be terrified",
            "start": 226.08,
            "duration": 4.92
        },
        {
            "text": "because x-ray therapy was more common",
            "start": 228.019,
            "duration": 6.341
        },
        {
            "text": "the operator accidentally input X for",
            "start": 231.0,
            "duration": 6.0
        },
        {
            "text": "x-ray she quickly noticed and having",
            "start": 234.36,
            "duration": 4.86
        },
        {
            "text": "operated this machine for more than 500",
            "start": 237.0,
            "duration": 5.4
        },
        {
            "text": "patients very quickly changed the X to",
            "start": 239.22,
            "duration": 5.64
        },
        {
            "text": "an E for electron therapy which was",
            "start": 242.4,
            "duration": 4.68
        },
        {
            "text": "prescribed for Ray Cox",
            "start": 244.86,
            "duration": 4.08
        },
        {
            "text": "after confirming the inputs were",
            "start": 247.08,
            "duration": 4.5
        },
        {
            "text": "verified and the screen read beam ready",
            "start": 248.94,
            "duration": 5.999
        },
        {
            "text": "she hit B for Beam on to begin the",
            "start": 251.58,
            "duration": 4.26
        },
        {
            "text": "treatment",
            "start": 254.939,
            "duration": 2.7
        },
        {
            "text": "oh my goodness this is making me so",
            "start": 255.84,
            "duration": 4.139
        },
        {
            "text": "uncomfortable I am so uncomfortable",
            "start": 257.639,
            "duration": 4.56
        },
        {
            "text": "because I like my brain's already trying",
            "start": 259.979,
            "duration": 3.72
        },
        {
            "text": "to run like what's what's the thing",
            "start": 262.199,
            "duration": 3.321
        },
        {
            "text": "since the beam was already ready",
            "start": 263.699,
            "duration": 4.44
        },
        {
            "text": "therefore it's already set to X and it",
            "start": 265.52,
            "duration": 4.119
        },
        {
            "text": "just doesn't do did you just not do",
            "start": 268.139,
            "duration": 4.261
        },
        {
            "text": "enough and is the energy too high like",
            "start": 269.639,
            "duration": 4.701
        },
        {
            "text": "what is that what is the thing right",
            "start": 272.4,
            "duration": 4.62
        },
        {
            "text": "what is the thing that",
            "start": 274.34,
            "duration": 5.44
        },
        {
            "text": "after several seconds of confusion the",
            "start": 277.02,
            "duration": 4.56
        },
        {
            "text": "machine shut down and displayed",
            "start": 279.78,
            "duration": 5.58
        },
        {
            "text": "malfunction 54 on the screen if that",
            "start": 281.58,
            "duration": 5.46
        },
        {
            "text": "ever happens and the patient isn't",
            "start": 285.36,
            "duration": 4.2
        },
        {
            "text": "immediately escorted from that room",
            "start": 287.04,
            "duration": 5.64
        },
        {
            "text": "covered in lead and and and dodging all",
            "start": 289.56,
            "duration": 4.859
        },
        {
            "text": "the X-ray lasers I don't know what would",
            "start": 292.68,
            "duration": 3.6
        },
        {
            "text": "be like I would never have",
            "start": 294.419,
            "duration": 3.901
        },
        {
            "text": "that's crazy if that if the if they if",
            "start": 296.28,
            "duration": 3.12
        },
        {
            "text": "they didn't get him out of there because",
            "start": 298.32,
            "duration": 2.879
        },
        {
            "text": "of that what the hell",
            "start": 299.4,
            "duration": 4.079
        },
        {
            "text": "the screen also displayed a treatment",
            "start": 301.199,
            "duration": 5.341
        },
        {
            "text": "pause error which normally came from a",
            "start": 303.479,
            "duration": 5.581
        },
        {
            "text": "low priority operator error that was",
            "start": 306.54,
            "duration": 3.96
        },
        {
            "text": "easy to fix",
            "start": 309.06,
            "duration": 3.9
        },
        {
            "text": "the only documentation though presented",
            "start": 310.5,
            "duration": 5.1
        },
        {
            "text": "about malfunction 54 indicated that",
            "start": 312.96,
            "duration": 5.64
        },
        {
            "text": "there was a dose input 2 error something",
            "start": 315.6,
            "duration": 5.7
        },
        {
            "text": "in aecl technician would later indicate",
            "start": 318.6,
            "duration": 4.92
        },
        {
            "text": "meant that the patient was given either",
            "start": 321.3,
            "duration": 5.94
        },
        {
            "text": "too high or too low of a dosage",
            "start": 323.52,
            "duration": 5.64
        },
        {
            "text": "the screen indicated that the patient",
            "start": 327.24,
            "duration": 5.04
        },
        {
            "text": "had only received six RADS so far and",
            "start": 329.16,
            "duration": 5.58
        },
        {
            "text": "while the operator had ordered 202 the",
            "start": 332.28,
            "duration": 4.62
        },
        {
            "text": "operator pressed P to unpause the",
            "start": 334.74,
            "duration": 3.42
        },
        {
            "text": "treatment",
            "start": 336.9,
            "duration": 2.7
        },
        {
            "text": "while all this occurred in the control",
            "start": 338.16,
            "duration": 3.84
        },
        {
            "text": "room Ray laid alone in the operating",
            "start": 339.6,
            "duration": 4.74
        },
        {
            "text": "room normally the two Zone two zones",
            "start": 342.0,
            "duration": 5.039
        },
        {
            "text": "were connected by Audio and Video but",
            "start": 344.34,
            "duration": 4.68
        },
        {
            "text": "during this session the video monitor",
            "start": 347.039,
            "duration": 4.201
        },
        {
            "text": "had turned off and the speakers had been",
            "start": 349.02,
            "duration": 3.899
        },
        {
            "text": "broken for some time",
            "start": 351.24,
            "duration": 3.959
        },
        {
            "text": "okay first off if I saw a keyboard that",
            "start": 352.919,
            "duration": 3.72
        },
        {
            "text": "looked like this I'd have many questions",
            "start": 355.199,
            "duration": 3.361
        },
        {
            "text": "before getting radiation okay just",
            "start": 356.639,
            "duration": 4.021
        },
        {
            "text": "throwing that out there but how in the",
            "start": 358.56,
            "duration": 4.74
        },
        {
            "text": "world are you allowed to operate one of",
            "start": 360.66,
            "duration": 4.259
        },
        {
            "text": "those things without working video and",
            "start": 363.3,
            "duration": 3.179
        },
        {
            "text": "audio to begin with like how's that even",
            "start": 364.919,
            "duration": 3.661
        },
        {
            "text": "a thing how's that how how is that not a",
            "start": 366.479,
            "duration": 2.761
        },
        {
            "text": "thing",
            "start": 368.58,
            "duration": 2.88
        },
        {
            "text": "after receiving the first attempt at",
            "start": 369.24,
            "duration": 4.62
        },
        {
            "text": "treatment Rey later recounted a feeling",
            "start": 371.46,
            "duration": 5.94
        },
        {
            "text": "of electric shock or that hot coffee had",
            "start": 373.86,
            "duration": 5.339
        },
        {
            "text": "been poured down his back",
            "start": 377.4,
            "duration": 4.2
        },
        {
            "text": "being his ninth treatment Rey knew",
            "start": 379.199,
            "duration": 4.021
        },
        {
            "text": "something was wrong so he got up from",
            "start": 381.6,
            "duration": 4.08
        },
        {
            "text": "the table at the exact same time the",
            "start": 383.22,
            "duration": 5.52
        },
        {
            "text": "operator unpaused the therak-25",
            "start": 385.68,
            "duration": 4.92
        },
        {
            "text": "he ran to the door of the control room",
            "start": 388.74,
            "duration": 3.84
        },
        {
            "text": "screaming and pounded on the door",
            "start": 390.6,
            "duration": 5.219
        },
        {
            "text": "visibly shaken and upset",
            "start": 392.58,
            "duration": 5.64
        },
        {
            "text": "simulations after the incident estimate",
            "start": 395.819,
            "duration": 6.421
        },
        {
            "text": "that Ray Cox received not 180 RADS but",
            "start": 398.22,
            "duration": 6.12
        },
        {
            "text": "somewhere between 16",
            "start": 402.24,
            "duration": 3.6
        },
        {
            "text": "000 and 25",
            "start": 404.34,
            "duration": 2.34
        },
        {
            "text": "000.",
            "start": 405.84,
            "duration": 2.76
        },
        {
            "text": "Ray Cox in the following weeks would",
            "start": 406.68,
            "duration": 4.26
        },
        {
            "text": "feel excruciating pain in his neck and",
            "start": 408.6,
            "duration": 4.98
        },
        {
            "text": "shoulders suffer from several types of",
            "start": 410.94,
            "duration": 5.22
        },
        {
            "text": "paralysis and eventually die to",
            "start": 413.58,
            "duration": 4.92
        },
        {
            "text": "complications five months later",
            "start": 416.16,
            "duration": 4.44
        },
        {
            "text": "five other patients in the U.S and",
            "start": 418.5,
            "duration": 5.819
        },
        {
            "text": "Canada would suffer a similar fate",
            "start": 420.6,
            "duration": 6.3
        },
        {
            "text": "what could have gone so terribly wrong",
            "start": 424.319,
            "duration": 5.341
        },
        {
            "text": "in software to cause a man to lose his",
            "start": 426.9,
            "duration": 6.359
        },
        {
            "text": "life you know I I harp",
            "start": 429.66,
            "duration": 6.84
        },
        {
            "text": "on unit testing and coverage and things",
            "start": 433.259,
            "duration": 5.341
        },
        {
            "text": "like that I'd say that this is a really",
            "start": 436.5,
            "duration": 4.139
        },
        {
            "text": "good place to just just be out of",
            "start": 438.6,
            "duration": 4.92
        },
        {
            "text": "control with every kind of coverage",
            "start": 440.639,
            "duration": 5.221
        },
        {
            "text": "possible and there's people today",
            "start": 443.52,
            "duration": 4.079
        },
        {
            "text": "remember this there's people today that",
            "start": 445.86,
            "duration": 5.22
        },
        {
            "text": "program airplanes and radiation machines",
            "start": 447.599,
            "duration": 5.641
        },
        {
            "text": "and all this stuff like it's actually",
            "start": 451.08,
            "duration": 3.78
        },
        {
            "text": "really just scary to think about how",
            "start": 453.24,
            "duration": 3.06
        },
        {
            "text": "many machines that could just destroy",
            "start": 454.86,
            "duration": 4.08
        },
        {
            "text": "your life are programmed just by people",
            "start": 456.3,
            "duration": 4.679
        },
        {
            "text": "you know and at some point there is an",
            "start": 458.94,
            "duration": 4.199
        },
        {
            "text": "unknown situation that's going to that's",
            "start": 460.979,
            "duration": 3.72
        },
        {
            "text": "going to happen",
            "start": 463.139,
            "duration": 4.5
        },
        {
            "text": "several assumptions about software poor",
            "start": 464.699,
            "duration": 4.981
        },
        {
            "text": "software engineering practices and",
            "start": 467.639,
            "duration": 4.021
        },
        {
            "text": "safety design choices in the therax 25",
            "start": 469.68,
            "duration": 4.739
        },
        {
            "text": "led to these catastrophic events that",
            "start": 471.66,
            "duration": 5.759
        },
        {
            "text": "were all rooted in bugs and software",
            "start": 474.419,
            "duration": 6.06
        },
        {
            "text": "in the 1980s and early 1990s there",
            "start": 477.419,
            "duration": 4.981
        },
        {
            "text": "wasn't much knowledge about how software",
            "start": 480.479,
            "duration": 4.261
        },
        {
            "text": "worked outside of a small community of",
            "start": 482.4,
            "duration": 3.48
        },
        {
            "text": "programmers",
            "start": 484.74,
            "duration": 3.359
        },
        {
            "text": "there was an attitude in the public that",
            "start": 485.88,
            "duration": 4.92
        },
        {
            "text": "once the code worked software was unable",
            "start": 488.099,
            "duration": 4.44
        },
        {
            "text": "to fail",
            "start": 490.8,
            "duration": 3.6
        },
        {
            "text": "none of these guys are Gamers you could",
            "start": 492.539,
            "duration": 4.201
        },
        {
            "text": "tell right away none of them were gamers",
            "start": 494.4,
            "duration": 3.9
        },
        {
            "text": "people that have that attitude never",
            "start": 496.74,
            "duration": 2.7
        },
        {
            "text": "played a game",
            "start": 498.3,
            "duration": 3.299
        },
        {
            "text": "ever in their lifetime now all you gotta",
            "start": 499.44,
            "duration": 4.56
        },
        {
            "text": "do is play any game any AAA game like",
            "start": 501.599,
            "duration": 3.72
        },
        {
            "text": "any of them and you'll be like wow this",
            "start": 504.0,
            "duration": 2.879
        },
        {
            "text": "is piece of",
            "start": 505.319,
            "duration": 3.741
        },
        {
            "text": "how many people worked on this",
            "start": 506.879,
            "duration": 4.801
        },
        {
            "text": "once the code performed the function it",
            "start": 509.06,
            "duration": 4.479
        },
        {
            "text": "was able to perform there was no more",
            "start": 511.68,
            "duration": 4.08
        },
        {
            "text": "work to do nothing could go wrong there",
            "start": 513.539,
            "duration": 4.44
        },
        {
            "text": "were no edge cases the fact that people",
            "start": 515.76,
            "duration": 4.62
        },
        {
            "text": "in chat right now are kind of debate me",
            "start": 517.979,
            "duration": 4.021
        },
        {
            "text": "ever I can see it over and over again",
            "start": 520.38,
            "duration": 3.719
        },
        {
            "text": "just wait it gets like it's it sounds",
            "start": 522.0,
            "duration": 3.779
        },
        {
            "text": "like this is gonna get real bad I'm I'm",
            "start": 524.099,
            "duration": 3.42
        },
        {
            "text": "already having like an emotionally hard",
            "start": 525.779,
            "duration": 3.421
        },
        {
            "text": "time even watching this",
            "start": 527.519,
            "duration": 3.661
        },
        {
            "text": "just because this is atypical of any",
            "start": 529.2,
            "duration": 5.52
        },
        {
            "text": "content I ever ever consume I don't like",
            "start": 531.18,
            "duration": 5.4
        },
        {
            "text": "I don't I don't like I don't like it I",
            "start": 534.72,
            "duration": 3.36
        },
        {
            "text": "don't like it stop saying just wait I I",
            "start": 536.58,
            "duration": 3.66
        },
        {
            "text": "could I'm literally holding on here aecl",
            "start": 538.08,
            "duration": 5.34
        },
        {
            "text": "allowed a single hobbyist programmer to",
            "start": 540.24,
            "duration": 6.599
        },
        {
            "text": "program the therap25 alone in PDP 11",
            "start": 543.42,
            "duration": 5.28
        },
        {
            "text": "assembly",
            "start": 546.839,
            "duration": 4.68
        },
        {
            "text": "get the get the hell out of here get out",
            "start": 548.7,
            "duration": 7.44
        },
        {
            "text": "you what what what is what what the",
            "start": 551.519,
            "duration": 6.241
        },
        {
            "text": "hell's a hobbyist like was this guy like",
            "start": 556.14,
            "duration": 2.879
        },
        {
            "text": "an electrical engineer that they're just",
            "start": 557.76,
            "duration": 2.88
        },
        {
            "text": "like oh by the way could you just whip",
            "start": 559.019,
            "duration": 4.581
        },
        {
            "text": "up some codes for us",
            "start": 560.64,
            "duration": 8.96
        },
        {
            "text": "one person coded alone in assembly",
            "start": 563.6,
            "duration": 6.0
        },
        {
            "text": "I mean now that I think about that green",
            "start": 571.68,
            "duration": 3.96
        },
        {
            "text": "screen was incredibly impressive like",
            "start": 573.36,
            "duration": 3.78
        },
        {
            "text": "can we all just take a moment and just",
            "start": 575.64,
            "duration": 3.72
        },
        {
            "text": "remember that that UI he built",
            "start": 577.14,
            "duration": 5.72
        },
        {
            "text": "okay the the UI was actually incredible",
            "start": 579.36,
            "duration": 5.94
        },
        {
            "text": "considering what was going on okay just",
            "start": 582.86,
            "duration": 5.5
        },
        {
            "text": "one dude I know it was usual then",
            "start": 585.3,
            "duration": 5.039
        },
        {
            "text": "but it doesn't feel good it doesn't make",
            "start": 588.36,
            "duration": 4.5
        },
        {
            "text": "it somehow better okay the UI was great",
            "start": 590.339,
            "duration": 4.62
        },
        {
            "text": "I don't think the UI killed people I",
            "start": 592.86,
            "duration": 3.479
        },
        {
            "text": "think it's obviously the buggy program",
            "start": 594.959,
            "duration": 3.541
        },
        {
            "text": "that messed up with the UI I'm just",
            "start": 596.339,
            "duration": 3.961
        },
        {
            "text": "saying the UI itself was good okay you",
            "start": 598.5,
            "duration": 3.0
        },
        {
            "text": "know people always people are always",
            "start": 600.3,
            "duration": 3.659
        },
        {
            "text": "like you know it's just greed I I'm not",
            "start": 601.5,
            "duration": 3.66
        },
        {
            "text": "sure if it's green this time I think it",
            "start": 603.959,
            "duration": 2.701
        },
        {
            "text": "was obviously a massive misunderstanding",
            "start": 605.16,
            "duration": 4.02
        },
        {
            "text": "of software but I I I'm just completely",
            "start": 606.66,
            "duration": 6.239
        },
        {
            "text": "shocked that anybody at any point I",
            "start": 609.18,
            "duration": 5.159
        },
        {
            "text": "guess I never lived I never was a",
            "start": 612.899,
            "duration": 2.761
        },
        {
            "text": "software developer in the 80s so I don't",
            "start": 614.339,
            "duration": 2.701
        },
        {
            "text": "know what people were thinking back then",
            "start": 615.66,
            "duration": 3.72
        },
        {
            "text": "but I cannot I can't imagine being like",
            "start": 617.04,
            "duration": 4.979
        },
        {
            "text": "this thing shoots lasers in which can",
            "start": 619.38,
            "duration": 4.92
        },
        {
            "text": "kill people let's just throw somebody on",
            "start": 622.019,
            "duration": 4.861
        },
        {
            "text": "it like that just can't be real",
            "start": 624.3,
            "duration": 5.52
        },
        {
            "text": "right this well yeah lasers right I",
            "start": 626.88,
            "duration": 4.74
        },
        {
            "text": "don't mean like I remember it's all part",
            "start": 629.82,
            "duration": 3.959
        },
        {
            "text": "of a spectrum right what I don't what",
            "start": 631.62,
            "duration": 4.2
        },
        {
            "text": "what particles come out of a radiation I",
            "start": 633.779,
            "duration": 3.24
        },
        {
            "text": "don't know what particles come out of it",
            "start": 635.82,
            "duration": 3.18
        },
        {
            "text": "I don't know how I'm not a I'm not a",
            "start": 637.019,
            "duration": 3.901
        },
        {
            "text": "chemist I'm not a physicist I don't know",
            "start": 639.0,
            "duration": 3.66
        },
        {
            "text": "these things damn it",
            "start": 640.92,
            "duration": 4.8
        },
        {
            "text": "okay I I program it typescript okay I",
            "start": 642.66,
            "duration": 5.7
        },
        {
            "text": "don't know this I just know that it",
            "start": 645.72,
            "duration": 4.739
        },
        {
            "text": "comes out of there it's effectively a",
            "start": 648.36,
            "duration": 3.659
        },
        {
            "text": "laser it's just a laser you don't see",
            "start": 650.459,
            "duration": 3.181
        },
        {
            "text": "it's not like Star Wars okay I'm not",
            "start": 652.019,
            "duration": 3.421
        },
        {
            "text": "talking about like a laser gun from your",
            "start": 653.64,
            "duration": 2.819
        },
        {
            "text": "childhood I'm talking about like real",
            "start": 655.44,
            "duration": 3.06
        },
        {
            "text": "lasers like real real that actually",
            "start": 656.459,
            "duration": 4.681
        },
        {
            "text": "hurts you okay software cannot fail",
            "start": 658.5,
            "duration": 5.64
        },
        {
            "text": "attitude bled into all aspects of the",
            "start": 661.14,
            "duration": 5.16
        },
        {
            "text": "Engineering Process the design of the",
            "start": 664.14,
            "duration": 5.58
        },
        {
            "text": "therak 25 was unnecessarily complex and",
            "start": 666.3,
            "duration": 5.58
        },
        {
            "text": "when questioned by the FDA about how",
            "start": 669.72,
            "duration": 4.679
        },
        {
            "text": "much the theraq had been tested",
            "start": 671.88,
            "duration": 4.56
        },
        {
            "text": "and",
            "start": 674.399,
            "duration": 4.981
        },
        {
            "text": "set upper culminator keyboard Handler",
            "start": 676.44,
            "duration": 5.82
        },
        {
            "text": "data entry offset parameters mode energy",
            "start": 679.38,
            "duration": 5.22
        },
        {
            "text": "mode energy offset mios calibrator",
            "start": 682.26,
            "duration": 5.6
        },
        {
            "text": "calibration tables reset date",
            "start": 684.6,
            "duration": 5.84
        },
        {
            "text": "you don't even get that I and date",
            "start": 687.86,
            "duration": 5.32
        },
        {
            "text": "intent that date didn't happen anytime",
            "start": 690.44,
            "duration": 4.959
        },
        {
            "text": "when I've been working on it that didn't",
            "start": 693.18,
            "duration": 4.5
        },
        {
            "text": "happen anytime setup done set up tests",
            "start": 695.399,
            "duration": 3.481
        },
        {
            "text": "patient treatment pause treatment",
            "start": 697.68,
            "duration": 3.599
        },
        {
            "text": "terminate treatment date time ID changes",
            "start": 698.88,
            "duration": 5.399
        },
        {
            "text": "the the aecl representative reported",
            "start": 701.279,
            "duration": 6.781
        },
        {
            "text": "that the Thera 25 underwent 2 700 hours",
            "start": 704.279,
            "duration": 6.3
        },
        {
            "text": "of testing when pressed for more",
            "start": 708.06,
            "duration": 4.5
        },
        {
            "text": "information and data representative",
            "start": 710.579,
            "duration": 4.861
        },
        {
            "text": "backpedaled and said 2 700 hours of",
            "start": 712.56,
            "duration": 5.459
        },
        {
            "text": "testing by The Operators using the",
            "start": 715.44,
            "duration": 5.519
        },
        {
            "text": "machine it was later revealed",
            "start": 718.019,
            "duration": 4.981
        },
        {
            "text": "that's not testing dog",
            "start": 720.959,
            "duration": 3.721
        },
        {
            "text": "that's production",
            "start": 723.0,
            "duration": 3.0
        },
        {
            "text": "that ain't that ain't the test",
            "start": 724.68,
            "duration": 3.48
        },
        {
            "text": "environment",
            "start": 726.0,
            "duration": 5.279
        },
        {
            "text": "there act 25 was never tested until it",
            "start": 728.16,
            "duration": 4.919
        },
        {
            "text": "arrived and was assembled at the",
            "start": 731.279,
            "duration": 4.081
        },
        {
            "text": "hospitals where it underwent minimal",
            "start": 733.079,
            "duration": 3.841
        },
        {
            "text": "system testing to prove that it",
            "start": 735.36,
            "duration": 4.8
        },
        {
            "text": "functioned and nothing more",
            "start": 736.92,
            "duration": 7.56
        },
        {
            "text": "they literally test and prod a laser gun",
            "start": 740.16,
            "duration": 5.82
        },
        {
            "text": "okay by the way the guy that keeps",
            "start": 744.48,
            "duration": 3.18
        },
        {
            "text": "spamming something about the CIA CIA",
            "start": 745.98,
            "duration": 3.539
        },
        {
            "text": "doing that if you're ruining the ending",
            "start": 747.66,
            "duration": 4.5
        },
        {
            "text": "and this turns out to be a CA CIA psyop",
            "start": 749.519,
            "duration": 4.741
        },
        {
            "text": "that's crazy but if it doesn't say that",
            "start": 752.16,
            "duration": 4.56
        },
        {
            "text": "okay I know it's it's it's funny to do",
            "start": 754.26,
            "duration": 4.5
        },
        {
            "text": "an Alex Jones Chasm okay we all laugh",
            "start": 756.72,
            "duration": 4.08
        },
        {
            "text": "about it but let's slow it down a little",
            "start": 758.76,
            "duration": 5.04
        },
        {
            "text": "bit okay CIA guy okay CIA guy can we",
            "start": 760.8,
            "duration": 4.56
        },
        {
            "text": "just calm down a little bit",
            "start": 763.8,
            "duration": 3.719
        },
        {
            "text": "code that was modified between the their",
            "start": 765.36,
            "duration": 4.56
        },
        {
            "text": "act 20 and the third act 25 underwent",
            "start": 767.519,
            "duration": 5.041
        },
        {
            "text": "zero regression testing and the therax",
            "start": 769.92,
            "duration": 5.039
        },
        {
            "text": "25 didn't come with any system level",
            "start": 772.56,
            "duration": 5.16
        },
        {
            "text": "documentation about the errors so that",
            "start": 774.959,
            "duration": 4.5
        },
        {
            "text": "an operator could handle them when",
            "start": 777.72,
            "duration": 3.419
        },
        {
            "text": "encountered",
            "start": 779.459,
            "duration": 4.5
        },
        {
            "text": "so what happened to Ray Cox",
            "start": 781.139,
            "duration": 6.301
        },
        {
            "text": "inside the therak 25s code a task Rand",
            "start": 783.959,
            "duration": 5.701
        },
        {
            "text": "that executed the treatment",
            "start": 787.44,
            "duration": 4.86
        },
        {
            "text": "inside that task a variable called T",
            "start": 789.66,
            "duration": 5.04
        },
        {
            "text": "phase controlled which one of eight",
            "start": 792.3,
            "duration": 4.86
        },
        {
            "text": "subroutines was being ran at any given",
            "start": 794.7,
            "duration": 3.42
        },
        {
            "text": "time",
            "start": 797.16,
            "duration": 3.239
        },
        {
            "text": "when the operator first accidentally",
            "start": 798.12,
            "duration": 4.92
        },
        {
            "text": "entered x-ray mode the t-phase variable",
            "start": 800.399,
            "duration": 5.521
        },
        {
            "text": "quickly moved on to phase three or the",
            "start": 803.04,
            "duration": 4.859
        },
        {
            "text": "setup treatment phase",
            "start": 805.92,
            "duration": 4.26
        },
        {
            "text": "during this time the X-ray energy",
            "start": 807.899,
            "duration": 5.161
        },
        {
            "text": "specified on the user interface was used",
            "start": 810.18,
            "duration": 5.459
        },
        {
            "text": "to look up and program a configuration",
            "start": 813.06,
            "duration": 5.04
        },
        {
            "text": "to the digital to analog converter which",
            "start": 815.639,
            "duration": 4.32
        },
        {
            "text": "would be used to emit the radiation",
            "start": 818.1,
            "duration": 3.9
        },
        {
            "text": "energy to the patient",
            "start": 819.959,
            "duration": 4.981
        },
        {
            "text": "also during this time magnets were put",
            "start": 822.0,
            "duration": 5.519
        },
        {
            "text": "into motion that would be used to bend",
            "start": 824.94,
            "duration": 5.519
        },
        {
            "text": "the X-ray beam and control its output",
            "start": 827.519,
            "duration": 5.281
        },
        {
            "text": "it took about eight seconds to move this",
            "start": 830.459,
            "duration": 3.301
        },
        {
            "text": "magnet",
            "start": 832.8,
            "duration": 3.36
        },
        {
            "text": "during this eight seconds the task would",
            "start": 833.76,
            "duration": 5.28
        },
        {
            "text": "ignore additional input from the user as",
            "start": 836.16,
            "duration": 5.52
        },
        {
            "text": "the data entry task was not being ran",
            "start": 839.04,
            "duration": 5.28
        },
        {
            "text": "because the operator in this case was",
            "start": 841.68,
            "duration": 5.64
        },
        {
            "text": "skilled and able to change x-ray mode to",
            "start": 844.32,
            "duration": 6.06
        },
        {
            "text": "electron mode in under 8 seconds the",
            "start": 847.32,
            "duration": 4.86
        },
        {
            "text": "changes to the prescription were not",
            "start": 850.38,
            "duration": 3.66
        },
        {
            "text": "observed by the machine",
            "start": 852.18,
            "duration": 4.5
        },
        {
            "text": "instead of receiving electron radiation",
            "start": 854.04,
            "duration": 5.7
        },
        {
            "text": "as prescribed Ray received x-ray",
            "start": 856.68,
            "duration": 6.12
        },
        {
            "text": "radiation at electron radiation doses",
            "start": 859.74,
            "duration": 5.88
        },
        {
            "text": "without the proper bending and mediation",
            "start": 862.8,
            "duration": 5.099
        },
        {
            "text": "by the magnets",
            "start": 865.62,
            "duration": 4.32
        },
        {
            "text": "this error",
            "start": 867.899,
            "duration": 3.361
        },
        {
            "text": "damn",
            "start": 869.94,
            "duration": 3.54
        },
        {
            "text": "I mean it feels so obvious",
            "start": 871.26,
            "duration": 5.579
        },
        {
            "text": "since I get to look back is known as a",
            "start": 873.48,
            "duration": 6.24
        },
        {
            "text": "race condition in a race condition logic",
            "start": 876.839,
            "duration": 5.461
        },
        {
            "text": "in a program depends on a data location",
            "start": 879.72,
            "duration": 5.64
        },
        {
            "text": "that can be written to by two separate",
            "start": 882.3,
            "duration": 5.46
        },
        {
            "text": "threads the race condition exists",
            "start": 885.36,
            "duration": 4.68
        },
        {
            "text": "because there is no logic controlling",
            "start": 887.76,
            "duration": 4.98
        },
        {
            "text": "who is allowed to write to that data at",
            "start": 890.04,
            "duration": 4.02
        },
        {
            "text": "any given time",
            "start": 892.74,
            "duration": 4.2
        },
        {
            "text": "the race happens when the logic executed",
            "start": 894.06,
            "duration": 5.579
        },
        {
            "text": "on the data depends on what piece of",
            "start": 896.94,
            "duration": 5.28
        },
        {
            "text": "code gets there first",
            "start": 899.639,
            "duration": 4.861
        },
        {
            "text": "in the therak 25 the race condition",
            "start": 902.22,
            "duration": 5.16
        },
        {
            "text": "caused the data entry to occur before",
            "start": 904.5,
            "duration": 5.82
        },
        {
            "text": "the patient setup task was able to read",
            "start": 907.38,
            "duration": 5.579
        },
        {
            "text": "it causing a misconfiguration in the",
            "start": 910.32,
            "duration": 4.62
        },
        {
            "text": "machine that was not accounted for",
            "start": 912.959,
            "duration": 5.841
        },
        {
            "text": "previously by the programmer",
            "start": 914.94,
            "duration": 3.86
        },
        {
            "text": "you know I think often about what it",
            "start": 921.12,
            "duration": 3.959
        },
        {
            "text": "would be like working at a place like",
            "start": 923.639,
            "duration": 6.0
        },
        {
            "text": "Tesla or or you know NASA",
            "start": 925.079,
            "duration": 6.241
        },
        {
            "text": "or any of these places where you're like",
            "start": 929.639,
            "duration": 4.081
        },
        {
            "text": "programming real systems that if they",
            "start": 931.32,
            "duration": 5.16
        },
        {
            "text": "mess up people get hurt and I just think",
            "start": 933.72,
            "duration": 4.2
        },
        {
            "text": "about",
            "start": 936.48,
            "duration": 4.56
        },
        {
            "text": "like how sick",
            "start": 937.92,
            "duration": 4.919
        },
        {
            "text": "I would feel",
            "start": 941.04,
            "duration": 3.9
        },
        {
            "text": "programming like I'd be constantly",
            "start": 942.839,
            "duration": 3.841
        },
        {
            "text": "freaking out",
            "start": 944.94,
            "duration": 4.019
        },
        {
            "text": "geez Louise I can't even imagine trying",
            "start": 946.68,
            "duration": 5.76
        },
        {
            "text": "to program an x-ray machine in assembly",
            "start": 948.959,
            "duration": 5.401
        },
        {
            "text": "how did it even test it if the first",
            "start": 952.44,
            "duration": 3.66
        },
        {
            "text": "time ever tested was like assembled",
            "start": 954.36,
            "duration": 3.539
        },
        {
            "text": "somewhere",
            "start": 956.1,
            "duration": 4.26
        },
        {
            "text": "crazy",
            "start": 957.899,
            "duration": 4.201
        },
        {
            "text": "this would not have been a problem in",
            "start": 960.36,
            "duration": 3.419
        },
        {
            "text": "previous versions of the theraq where",
            "start": 962.1,
            "duration": 3.9
        },
        {
            "text": "Hardware interlocks were there to make",
            "start": 963.779,
            "duration": 4.321
        },
        {
            "text": "sure that these levels of radiation did",
            "start": 966.0,
            "duration": 3.899
        },
        {
            "text": "not come out but to make the therak",
            "start": 968.1,
            "duration": 3.9
        },
        {
            "text": "cheaper these Hardware interlocks were",
            "start": 969.899,
            "duration": 4.56
        },
        {
            "text": "removed and the system depended entirely",
            "start": 972.0,
            "duration": 5.1
        },
        {
            "text": "on software checks to make sure this",
            "start": 974.459,
            "duration": 5.12
        },
        {
            "text": "didn't happen",
            "start": 977.1,
            "duration": 2.479
        },
        {
            "text": "why would you do that",
            "start": 980.639,
            "duration": 4.56
        },
        {
            "text": "I cannot imagine a hardware lock being",
            "start": 982.8,
            "duration": 3.96
        },
        {
            "text": "that expensive",
            "start": 985.199,
            "duration": 3.421
        },
        {
            "text": "aren't they selling I assume these",
            "start": 986.76,
            "duration": 3.54
        },
        {
            "text": "machines are like a kajillion dollars",
            "start": 988.62,
            "duration": 2.88
        },
        {
            "text": "each",
            "start": 990.3,
            "duration": 2.7
        },
        {
            "text": "and you're telling me that you can't",
            "start": 991.5,
            "duration": 4.079
        },
        {
            "text": "throw a little bit of hardware on that",
            "start": 993.0,
            "duration": 5.04
        },
        {
            "text": "that's crazy",
            "start": 995.579,
            "duration": 4.981
        },
        {
            "text": "in code it should be accepted that bugs",
            "start": 998.04,
            "duration": 4.62
        },
        {
            "text": "will happen ones that you're aware of",
            "start": 1000.56,
            "duration": 4.04
        },
        {
            "text": "and ones that you could never predict",
            "start": 1002.66,
            "duration": 4.26
        },
        {
            "text": "incompetence plus greed one of the most",
            "start": 1004.6,
            "duration": 4.9
        },
        {
            "text": "dangerous combos of all time it is just",
            "start": 1006.92,
            "duration": 4.859
        },
        {
            "text": "super super dangerous",
            "start": 1009.5,
            "duration": 3.899
        },
        {
            "text": "classic corporate greed well you also",
            "start": 1011.779,
            "duration": 3.12
        },
        {
            "text": "had to you I mean you also had just",
            "start": 1013.399,
            "duration": 3.36
        },
        {
            "text": "sheer and confidence right it wasn't",
            "start": 1014.899,
            "duration": 4.921
        },
        {
            "text": "just greed they they I mean if what he's",
            "start": 1016.759,
            "duration": 4.5
        },
        {
            "text": "saying is true so I don't know I don't",
            "start": 1019.82,
            "duration": 3.36
        },
        {
            "text": "know what the 80s was like okay I don't",
            "start": 1021.259,
            "duration": 3.361
        },
        {
            "text": "know what the 80s was like so I have no",
            "start": 1023.18,
            "duration": 2.879
        },
        {
            "text": "idea I was I was",
            "start": 1024.62,
            "duration": 3.66
        },
        {
            "text": "zero to four years old in the 80s so I",
            "start": 1026.059,
            "duration": 4.441
        },
        {
            "text": "have no idea and so I don't know if this",
            "start": 1028.28,
            "duration": 4.86
        },
        {
            "text": "idea that software will never fail was a",
            "start": 1030.5,
            "duration": 5.28
        },
        {
            "text": "mindset people had right if people had",
            "start": 1033.14,
            "duration": 4.919
        },
        {
            "text": "that mindset why would you have Hardware",
            "start": 1035.78,
            "duration": 3.84
        },
        {
            "text": "locks",
            "start": 1038.059,
            "duration": 3.9
        },
        {
            "text": "real talk if you actually genuinely",
            "start": 1039.62,
            "duration": 4.98
        },
        {
            "text": "believe that why would you have them I",
            "start": 1041.959,
            "duration": 4.74
        },
        {
            "text": "have no idea it seems crazy to me",
            "start": 1044.6,
            "duration": 4.5
        },
        {
            "text": "because to me obviously my heart mind",
            "start": 1046.699,
            "duration": 4.141
        },
        {
            "text": "and soul knows that software fails",
            "start": 1049.1,
            "duration": 2.94
        },
        {
            "text": "Non-Stop",
            "start": 1050.84,
            "duration": 3.839
        },
        {
            "text": "right but it seems It's it feels very",
            "start": 1052.04,
            "duration": 4.259
        },
        {
            "text": "it's always very easy to look back and",
            "start": 1054.679,
            "duration": 3.24
        },
        {
            "text": "blame people but man",
            "start": 1056.299,
            "duration": 4.681
        },
        {
            "text": "this shit's so messed up it's just so",
            "start": 1057.919,
            "duration": 4.14
        },
        {
            "text": "messed up I don't even know what to do",
            "start": 1060.98,
            "duration": 4.5
        },
        {
            "text": "with this it's so messed up rigorous",
            "start": 1062.059,
            "duration": 5.101
        },
        {
            "text": "code testing should always occur",
            "start": 1065.48,
            "duration": 4.62
        },
        {
            "text": "especially in systems where lives depend",
            "start": 1067.16,
            "duration": 6.0
        },
        {
            "text": "on software safety if the therak 25 code",
            "start": 1070.1,
            "duration": 7.76
        },
        {
            "text": "was tested raycox might still be alive",
            "start": 1073.16,
            "duration": 4.7
        }
    ],
    "stats": {
        "viewCount": "221017",
        "likeCount": "6939",
        "favoriteCount": "0",
        "commentCount": "784"
    }
}