{
    "id": "OOmZQByQSx4",
    "title": "2.1 Billion Downloaded Deprecated Packages NPM | Prime Reacts",
    "publishedAt": "2024-02-20T14:00:16Z",
    "captions": [
        {
            "text": "apparently this is a little bit of a new",
            "start": 0.24,
            "duration": 3.719
        },
        {
            "text": "study coming in claiming that npm",
            "start": 1.719,
            "duration": 4.841
        },
        {
            "text": "registry users download 2.1 billion",
            "start": 3.959,
            "duration": 5.241
        },
        {
            "text": "deprecated packages weekly it's a lot of",
            "start": 6.56,
            "duration": 4.6
        },
        {
            "text": "billions going on and of course for",
            "start": 9.2,
            "duration": 3.439
        },
        {
            "text": "those that don't know I lost a beted I",
            "start": 11.16,
            "duration": 3.16
        },
        {
            "text": "have blue hair so I just need to say",
            "start": 12.639,
            "duration": 3.921
        },
        {
            "text": "that for this recording so you know okay",
            "start": 14.32,
            "duration": 4.52
        },
        {
            "text": "anyways npm register uh registry users",
            "start": 16.56,
            "duration": 4.2
        },
        {
            "text": "download deprecated packages an",
            "start": 18.84,
            "duration": 4.679
        },
        {
            "text": "estimated 2.1 billion times weekly",
            "start": 20.76,
            "duration": 4.4
        },
        {
            "text": "according to statistical analysis of the",
            "start": 23.519,
            "duration": 4.041
        },
        {
            "text": "top 50,000 most downloaded packages in",
            "start": 25.16,
            "duration": 5.199
        },
        {
            "text": "the registry okay okay deprecated arived",
            "start": 27.56,
            "duration": 4.879
        },
        {
            "text": "and orphaned npm packages can contribute",
            "start": 30.359,
            "duration": 3.52
        },
        {
            "text": "unpatched and or unreported",
            "start": 32.439,
            "duration": 3.761
        },
        {
            "text": "vulnerabilities that pose a risk to",
            "start": 33.879,
            "duration": 4.761
        },
        {
            "text": "projects depend uh that depend on them",
            "start": 36.2,
            "duration": 4.24
        },
        {
            "text": "warned the researchers from Aqua",
            "start": 38.64,
            "duration": 4.32
        },
        {
            "text": "Securities team Nautilus who published",
            "start": 40.44,
            "duration": 5.0
        },
        {
            "text": "their findings in a blog post on Sunday",
            "start": 42.96,
            "duration": 5.68
        },
        {
            "text": "huh huh you know I somehow I'm not",
            "start": 45.44,
            "duration": 5.32
        },
        {
            "text": "surprised about this because first off",
            "start": 48.64,
            "duration": 5.239
        },
        {
            "text": "this code is crazy okay what the what is",
            "start": 50.76,
            "duration": 5.84
        },
        {
            "text": "this code what are we looking at right",
            "start": 53.879,
            "duration": 4.401
        },
        {
            "text": "here this code is",
            "start": 56.6,
            "duration": 4.08
        },
        {
            "text": "crazy who",
            "start": 58.28,
            "duration": 4.84
        },
        {
            "text": "does it at least align their case",
            "start": 60.68,
            "duration": 4.759
        },
        {
            "text": "statements in like descending order here",
            "start": 63.12,
            "duration": 5.16
        },
        {
            "text": "look at this else if results switch type",
            "start": 65.439,
            "duration": 5.36
        },
        {
            "text": "squirly brace the old else if switch",
            "start": 68.28,
            "duration": 4.96
        },
        {
            "text": "statement this is crazy JavaScript",
            "start": 70.799,
            "duration": 4.36
        },
        {
            "text": "developers who rely on open source npm",
            "start": 73.24,
            "duration": 3.559
        },
        {
            "text": "packages for their own projects may not",
            "start": 75.159,
            "duration": 4.081
        },
        {
            "text": "be aware of the extent to which",
            "start": 76.799,
            "duration": 4.241
        },
        {
            "text": "dependencies on deprecated packages",
            "start": 79.24,
            "duration": 4.0
        },
        {
            "text": "impact their work the Nautilus team said",
            "start": 81.04,
            "duration": 4.119
        },
        {
            "text": "in conjunction with their research Aqua",
            "start": 83.24,
            "duration": 4.239
        },
        {
            "text": "Nautilus such an intense name has",
            "start": 85.159,
            "duration": 3.681
        },
        {
            "text": "released an open source tool that can",
            "start": 87.479,
            "duration": 2.96
        },
        {
            "text": "help developers identify deprecated",
            "start": 88.84,
            "duration": 3.12
        },
        {
            "text": "dependencies in their projects npm",
            "start": 90.439,
            "duration": 3.561
        },
        {
            "text": "Publishers May archive packages rather",
            "start": 91.96,
            "duration": 4.92
        },
        {
            "text": "than address security",
            "start": 94.0,
            "duration": 2.88
        },
        {
            "text": "flaws I",
            "start": 100.439,
            "duration": 4.72
        },
        {
            "text": "mean you know like that's that's like",
            "start": 102.28,
            "duration": 4.68
        },
        {
            "text": "that's some open source energy right",
            "start": 105.159,
            "duration": 3.96
        },
        {
            "text": "there instead of just addressing the",
            "start": 106.96,
            "duration": 3.439
        },
        {
            "text": "problem they're like dude I ain't got",
            "start": 109.119,
            "duration": 3.32
        },
        {
            "text": "time for this you know",
            "start": 110.399,
            "duration": 4.76
        },
        {
            "text": "what",
            "start": 112.439,
            "duration": 5.121
        },
        {
            "text": "archived I ain't I I'm not even going to",
            "start": 115.159,
            "duration": 5.28
        },
        {
            "text": "look at that not my problem anymore open",
            "start": 117.56,
            "duration": 4.28
        },
        {
            "text": "source software may stop receiving",
            "start": 120.439,
            "duration": 3.201
        },
        {
            "text": "updates for a variety of reasons and it",
            "start": 121.84,
            "duration": 4.559
        },
        {
            "text": "is up to developers maintainers to",
            "start": 123.64,
            "duration": 4.72
        },
        {
            "text": "communicate this maintenance schedule to",
            "start": 126.399,
            "duration": 4.28
        },
        {
            "text": "users as researchers pointed out not all",
            "start": 128.36,
            "duration": 3.64
        },
        {
            "text": "developers are transparent about",
            "start": 130.679,
            "duration": 3.121
        },
        {
            "text": "potential risks to users who de uh",
            "start": 132.0,
            "duration": 4.2
        },
        {
            "text": "download or depend on their outdated npm",
            "start": 133.8,
            "duration": 4.799
        },
        {
            "text": "packages Aqua Nautilus researchers kick",
            "start": 136.2,
            "duration": 4.119
        },
        {
            "text": "off kicked off their analysis after",
            "start": 138.599,
            "duration": 4.041
        },
        {
            "text": "finding that one open source software",
            "start": 140.319,
            "duration": 3.961
        },
        {
            "text": "maintainer responded to a report about a",
            "start": 142.64,
            "duration": 3.599
        },
        {
            "text": "vulnerability naus Nautilus discovered",
            "start": 144.28,
            "duration": 4.16
        },
        {
            "text": "by archiving The vulnerable repository",
            "start": 146.239,
            "duration": 5.521
        },
        {
            "text": "the same day",
            "start": 148.44,
            "duration": 3.32
        },
        {
            "text": "such such an alpha move that is just I",
            "start": 152.36,
            "duration": 6.36
        },
        {
            "text": "just can't imagine getting a security",
            "start": 156.16,
            "duration": 4.92
        },
        {
            "text": "yeah I can't imagine getting a",
            "start": 158.72,
            "duration": 5.239
        },
        {
            "text": "security report on one of my packages",
            "start": 161.08,
            "duration": 4.519
        },
        {
            "text": "being like by the way this is going to",
            "start": 163.959,
            "duration": 4.401
        },
        {
            "text": "potentially ruin somebody else's",
            "start": 165.599,
            "duration": 7.121
        },
        {
            "text": "business and my response is and for this",
            "start": 168.36,
            "duration": 6.68
        },
        {
            "text": "reason I am",
            "start": 172.72,
            "duration": 6.04
        },
        {
            "text": "out just just Shark Tank",
            "start": 175.04,
            "duration": 6.72
        },
        {
            "text": "him",
            "start": 178.76,
            "duration": 3.0
        },
        {
            "text": "the ultimate S I know by archiving The",
            "start": 182.239,
            "duration": 3.681
        },
        {
            "text": "repository without fixing the security",
            "start": 184.36,
            "duration": 4.32
        },
        {
            "text": "flaw or assigning it to cve the owner",
            "start": 185.92,
            "duration": 4.64
        },
        {
            "text": "leaves developers of dependent projects",
            "start": 188.68,
            "duration": 3.199
        },
        {
            "text": "in the dark about the risks the",
            "start": 190.56,
            "duration": 4.399
        },
        {
            "text": "researcher said yeah that sucks huh Aqua",
            "start": 191.879,
            "duration": 6.72
        },
        {
            "text": "security researcher Isa Goldman uh IL",
            "start": 194.959,
            "duration": 6.761
        },
        {
            "text": "Ilia IL IL Ila Goldman a member of the",
            "start": 198.599,
            "duration": 4.601
        },
        {
            "text": "team Nautilus highlight dude if they say",
            "start": 201.72,
            "duration": 3.72
        },
        {
            "text": "the word Nautilus I swear one more time",
            "start": 203.2,
            "duration": 4.119
        },
        {
            "text": "they say they've said this word like 18",
            "start": 205.44,
            "duration": 3.76
        },
        {
            "text": "times highlighted how vulnerabilities in",
            "start": 207.319,
            "duration": 3.48
        },
        {
            "text": "the open source supply chain can open",
            "start": 209.2,
            "duration": 4.039
        },
        {
            "text": "the door for major cyber attacks a prime",
            "start": 210.799,
            "duration": 5.241
        },
        {
            "text": "example of this can be the log for Shell",
            "start": 213.239,
            "duration": 4.841
        },
        {
            "text": "vulnerability which is not in npm but",
            "start": 216.04,
            "duration": 4.119
        },
        {
            "text": "underscores the problem of using package",
            "start": 218.08,
            "duration": 3.64
        },
        {
            "text": "that has a vulnerability and should be",
            "start": 220.159,
            "duration": 3.761
        },
        {
            "text": "treated as",
            "start": 221.72,
            "duration": 5.32
        },
        {
            "text": "deprecated cool uh yeah I mean I I like",
            "start": 223.92,
            "duration": 5.56
        },
        {
            "text": "I agree I like how they they they bring",
            "start": 227.04,
            "duration": 5.08
        },
        {
            "text": "up the most like one of the larger",
            "start": 229.48,
            "duration": 4.72
        },
        {
            "text": "examples that have happened in a",
            "start": 232.12,
            "duration": 5.52
        },
        {
            "text": "while you know using your crappy npm",
            "start": 234.2,
            "duration": 5.64
        },
        {
            "text": "package this could happen to you you're",
            "start": 237.64,
            "duration": 5.879
        },
        {
            "text": "like yeah it could it really could",
            "start": 239.84,
            "duration": 5.8
        },
        {
            "text": "um I don't know I think I think this is",
            "start": 243.519,
            "duration": 3.961
        },
        {
            "text": "just a great reminder of like how much",
            "start": 245.64,
            "duration": 6.08
        },
        {
            "text": "how how much do we rely on potentially",
            "start": 247.48,
            "duration": 7.16
        },
        {
            "text": "really shoddy npm packages uh with that",
            "start": 251.72,
            "duration": 4.6
        },
        {
            "text": "potential consequence in mind the aqua",
            "start": 254.64,
            "duration": 4.24
        },
        {
            "text": "Nautilus team sought to better estimate",
            "start": 256.32,
            "duration": 4.439
        },
        {
            "text": "the reach of unmaintained npm packages",
            "start": 258.88,
            "duration": 3.879
        },
        {
            "text": "in the registry more than 20% of the top",
            "start": 260.759,
            "duration": 4.841
        },
        {
            "text": "50k npm packages may have maintenance",
            "start": 262.759,
            "duration": 5.281
        },
        {
            "text": "gaps the statistical analysis of the npm",
            "start": 265.6,
            "duration": 4.68
        },
        {
            "text": "package deprecation and pump say both",
            "start": 268.04,
            "duration": 4.2
        },
        {
            "text": "officially deprecated packages and other",
            "start": 270.28,
            "duration": 4.04
        },
        {
            "text": "packages with an uncertain maintenance",
            "start": 272.24,
            "duration": 4.239
        },
        {
            "text": "uh status due to having an archived or",
            "start": 274.32,
            "duration": 4.28
        },
        {
            "text": "unavailable repository linked as the",
            "start": 276.479,
            "duration": 3.081
        },
        {
            "text": "source",
            "start": 278.6,
            "duration": 3.24
        },
        {
            "text": "commit unavailable repository let's go",
            "start": 279.56,
            "duration": 4.56
        },
        {
            "text": "oh we got a graph coming up taking into",
            "start": 281.84,
            "duration": 4.0
        },
        {
            "text": "consideration both deprecated packages",
            "start": 284.12,
            "duration": 3.68
        },
        {
            "text": "and active packages that have direct",
            "start": 285.84,
            "duration": 4.079
        },
        {
            "text": "dependencies on deprecated projects the",
            "start": 287.8,
            "duration": 5.839
        },
        {
            "text": "researchers found about 4100 8.2% of the",
            "start": 289.919,
            "duration": 5.72
        },
        {
            "text": "topped 50,000 most downloaded npm",
            "start": 293.639,
            "duration": 4.041
        },
        {
            "text": "packages fell under the category of",
            "start": 295.639,
            "duration": 4.481
        },
        {
            "text": "officially deprecation of official",
            "start": 297.68,
            "duration": 4.2
        },
        {
            "text": "deprecation",
            "start": 300.12,
            "duration": 4.88
        },
        {
            "text": "wow that's that's like that's a lot",
            "start": 301.88,
            "duration": 6.52
        },
        {
            "text": "that's a lot of them that's that's a",
            "start": 305.0,
            "duration": 5.8
        },
        {
            "text": "that's a lot of them does that just",
            "start": 308.4,
            "duration": 5.0
        },
        {
            "text": "simply mean that the front end moves too",
            "start": 310.8,
            "duration": 4.88
        },
        {
            "text": "fast it's kind of wild to think that the",
            "start": 313.4,
            "duration": 3.96
        },
        {
            "text": "50,000 okay you know you know it's",
            "start": 315.68,
            "duration": 2.88
        },
        {
            "text": "another kind of an interesting thought",
            "start": 317.36,
            "duration": 2.959
        },
        {
            "text": "to kind of kind of mle around in your",
            "start": 318.56,
            "duration": 4.479
        },
        {
            "text": "head is that you're a new company and",
            "start": 320.319,
            "duration": 4.88
        },
        {
            "text": "you go out and you",
            "start": 323.039,
            "duration": 4.761
        },
        {
            "text": "pick some packages right you go out",
            "start": 325.199,
            "duration": 4.081
        },
        {
            "text": "there and you pick some technology that",
            "start": 327.8,
            "duration": 3.88
        },
        {
            "text": "you wish to base your stack off of right",
            "start": 329.28,
            "duration": 4.12
        },
        {
            "text": "and you're going to now have to write",
            "start": 331.68,
            "duration": 3.639
        },
        {
            "text": "literally thousands upon tens of",
            "start": 333.4,
            "duration": 4.519
        },
        {
            "text": "thousands upon a 100,000 lines of code",
            "start": 335.319,
            "duration": 3.88
        },
        {
            "text": "right you're going to have to get deep",
            "start": 337.919,
            "duration": 4.201
        },
        {
            "text": "into this and so you pick out some",
            "start": 339.199,
            "duration": 6.921
        },
        {
            "text": "packages and then two years later",
            "start": 342.12,
            "duration": 5.88
        },
        {
            "text": "they're all deprecated because the",
            "start": 346.12,
            "duration": 3.84
        },
        {
            "text": "technology you chose today just has",
            "start": 348.0,
            "duration": 4.039
        },
        {
            "text": "completely moved",
            "start": 349.96,
            "duration": 6.359
        },
        {
            "text": "on blazingly Fast great great iio would",
            "start": 352.039,
            "duration": 6.481
        },
        {
            "text": "send them straight to Guantanamo could",
            "start": 356.319,
            "duration": 4.16
        },
        {
            "text": "potentially I mean this this happens",
            "start": 358.52,
            "duration": 4.28
        },
        {
            "text": "this like genuinely",
            "start": 360.479,
            "duration": 4.921
        },
        {
            "text": "happens I've worked at like even the",
            "start": 362.8,
            "duration": 4.04
        },
        {
            "text": "even at Netflix a lot of the things",
            "start": 365.4,
            "duration": 4.56
        },
        {
            "text": "we're using is is are old they're",
            "start": 366.84,
            "duration": 4.639
        },
        {
            "text": "they're old",
            "start": 369.96,
            "duration": 4.84
        },
        {
            "text": "because we're just not a brand new",
            "start": 371.479,
            "duration": 5.361
        },
        {
            "text": "company you know we have to suffer with",
            "start": 374.8,
            "duration": 3.64
        },
        {
            "text": "the decision someone made eight years",
            "start": 376.84,
            "duration": 3.84
        },
        {
            "text": "ago uh however adding archived",
            "start": 378.44,
            "duration": 3.56
        },
        {
            "text": "repositories to the definition of",
            "start": 380.68,
            "duration": 2.799
        },
        {
            "text": "deprecated increases the number of",
            "start": 382.0,
            "duration": 3.44
        },
        {
            "text": "packages affected by deprecation and",
            "start": 383.479,
            "duration": 6.041
        },
        {
            "text": "deprecated dependencies to 6,400 12.8%",
            "start": 385.44,
            "duration": 5.92
        },
        {
            "text": "oh my goodness orphan packages with",
            "start": 389.52,
            "duration": 3.72
        },
        {
            "text": "unavailable non-existent repository",
            "start": 391.36,
            "duration": 3.52
        },
        {
            "text": "Source commits can also be considered",
            "start": 393.24,
            "duration": 3.32
        },
        {
            "text": "deprecated due to the decrease ability",
            "start": 394.88,
            "duration": 4.0
        },
        {
            "text": "to attract maintenance status view",
            "start": 396.56,
            "duration": 4.28
        },
        {
            "text": "commit history and Report issues",
            "start": 398.88,
            "duration": 3.2
        },
        {
            "text": "researcher",
            "start": 400.84,
            "duration": 3.759
        },
        {
            "text": "said damn look at this officially",
            "start": 402.08,
            "duration": 4.08
        },
        {
            "text": "deprecated",
            "start": 404.599,
            "duration": 5.88
        },
        {
            "text": "4100 officially deprecated repository",
            "start": 406.16,
            "duration": 5.84
        },
        {
            "text": "archived",
            "start": 410.479,
            "duration": 4.081
        },
        {
            "text": "12.5% officially deprecated repository",
            "start": 412.0,
            "duration": 6.8
        },
        {
            "text": "archived and GitHub unavailable 404 15%",
            "start": 414.56,
            "duration": 7.079
        },
        {
            "text": "of the time top 50,000 most downloaded",
            "start": 418.8,
            "duration": 5.679
        },
        {
            "text": "npm packages officially deprecated",
            "start": 421.639,
            "duration": 4.721
        },
        {
            "text": "repository archived GitHub unavailable",
            "start": 424.479,
            "duration": 6.321
        },
        {
            "text": "404 no repository linked",
            "start": 426.36,
            "duration": 4.44
        },
        {
            "text": "21.2% damn rip Bozo that's one out of",
            "start": 431.919,
            "duration": 6.801
        },
        {
            "text": "five man this is fine everything is fine",
            "start": 435.36,
            "duration": 5.04
        },
        {
            "text": "extending the definition of deprecation",
            "start": 438.72,
            "duration": 3.68
        },
        {
            "text": "to include npm packages without actively",
            "start": 440.4,
            "duration": 3.72
        },
        {
            "text": "maintained repository reveals more than",
            "start": 442.4,
            "duration": 4.199
        },
        {
            "text": "20% of the top 50,000 npm packages can",
            "start": 444.12,
            "duration": 4.919
        },
        {
            "text": "be considered deprecated credit aqua",
            "start": 446.599,
            "duration": 3.641
        },
        {
            "text": "secur",
            "start": 449.039,
            "duration": 3.521
        },
        {
            "text": "it's just it's so much it's like it's",
            "start": 450.24,
            "duration": 4.519
        },
        {
            "text": "like it's literally like my",
            "start": 452.56,
            "duration": 6.44
        },
        {
            "text": "GitHub of abandoned projects",
            "start": 454.759,
            "duration": 6.801
        },
        {
            "text": "right it's pretty impressive uh except",
            "start": 459.0,
            "duration": 4.08
        },
        {
            "text": "for my percentage is probably higher",
            "start": 461.56,
            "duration": 2.8
        },
        {
            "text": "including packages with linked",
            "start": 463.08,
            "duration": 3.48
        },
        {
            "text": "repositories that uh are shown as",
            "start": 464.36,
            "duration": 4.559
        },
        {
            "text": "unavailable 404 air on GitHub increases",
            "start": 466.56,
            "duration": 4.079
        },
        {
            "text": "the deprecation rate to 15% yeah we",
            "start": 468.919,
            "duration": 3.28
        },
        {
            "text": "already read all that uh Team Nautilus",
            "start": 470.639,
            "duration": 3.801
        },
        {
            "text": "estimated that under this broader",
            "start": 472.199,
            "duration": 3.481
        },
        {
            "text": "understanding of package deprecation",
            "start": 474.44,
            "duration": 3.36
        },
        {
            "text": "about 2.1 billion downloads of",
            "start": 475.68,
            "duration": 4.12
        },
        {
            "text": "deprecated packages are made on PM reg",
            "start": 477.8,
            "duration": 4.04
        },
        {
            "text": "stre weekly that's just so many",
            "start": 479.8,
            "duration": 4.839
        },
        {
            "text": "downloads that's just so many downloads",
            "start": 481.84,
            "duration": 4.96
        },
        {
            "text": "the problem stretches uh farther when",
            "start": 484.639,
            "duration": 3.68
        },
        {
            "text": "considering the Wide Web of dependency",
            "start": 486.8,
            "duration": 3.239
        },
        {
            "text": "some of these package creates such as",
            "start": 488.319,
            "duration": 3.401
        },
        {
            "text": "officially deprecated request package",
            "start": 490.039,
            "duration": 4.361
        },
        {
            "text": "which has more than 55,000 direct",
            "start": 491.72,
            "duration": 5.68
        },
        {
            "text": "dependencies",
            "start": 494.4,
            "duration": 3.0
        },
        {
            "text": "nice let's go that's a lot of people",
            "start": 498.08,
            "duration": 6.079
        },
        {
            "text": "depending on a on a on a package that is",
            "start": 500.84,
            "duration": 6.72
        },
        {
            "text": "is not even you shouldn't use anymore",
            "start": 504.159,
            "duration": 7.241
        },
        {
            "text": "npm2 there's npm npm2 when yeah if you",
            "start": 507.56,
            "duration": 5.56
        },
        {
            "text": "guys don't know if npm 1 was so good",
            "start": 511.4,
            "duration": 4.16
        },
        {
            "text": "when's the",
            "start": 513.12,
            "duration": 2.44
        },
        {
            "text": "npm2 it's already right here npm2 even",
            "start": 516.44,
            "duration": 6.92
        },
        {
            "text": "better than npm1 fancy window shell",
            "start": 520.44,
            "duration": 6.12
        },
        {
            "text": "install on sigin a everybody Lov sigwin",
            "start": 523.36,
            "duration": 5.84
        },
        {
            "text": "npm not properly managed oh everybody",
            "start": 526.56,
            "duration": 5.56
        },
        {
            "text": "loves it developers can use uh the free",
            "start": 529.2,
            "duration": 4.52
        },
        {
            "text": "dependency deprecation Checker uh",
            "start": 532.12,
            "duration": 4.08
        },
        {
            "text": "published by Aqua security uh to begin",
            "start": 533.72,
            "duration": 4.08
        },
        {
            "text": "identifying deprecated packages among",
            "start": 536.2,
            "duration": 3.44
        },
        {
            "text": "their dependencies the tool allows users",
            "start": 537.8,
            "duration": 3.279
        },
        {
            "text": "to set criteria for deprecation",
            "start": 539.64,
            "duration": 2.759
        },
        {
            "text": "according to their preferences such as",
            "start": 541.079,
            "duration": 2.721
        },
        {
            "text": "excluding packages with archived",
            "start": 542.399,
            "duration": 3.0
        },
        {
            "text": "repositories from the search the",
            "start": 543.8,
            "duration": 3.88
        },
        {
            "text": "researchers note uh that the tool is",
            "start": 545.399,
            "duration": 3.961
        },
        {
            "text": "proof of concept and thus not entirely",
            "start": 547.68,
            "duration": 3.2
        },
        {
            "text": "comprehensive but can give developers an",
            "start": 549.36,
            "duration": 3.919
        },
        {
            "text": "idea of their deprecation status this is",
            "start": 550.88,
            "duration": 3.72
        },
        {
            "text": "kind of interesting because it'd be fun",
            "start": 553.279,
            "duration": 2.921
        },
        {
            "text": "I I actually kind of want to run it on",
            "start": 554.6,
            "duration": 3.88
        },
        {
            "text": "on some Netflix projects and see how do",
            "start": 556.2,
            "duration": 4.24
        },
        {
            "text": "we contribute to this problem uh Aqua",
            "start": 558.48,
            "duration": 3.479
        },
        {
            "text": "security recommended that organizations",
            "start": 560.44,
            "duration": 3.12
        },
        {
            "text": "establish deprecation protocols that",
            "start": 561.959,
            "duration": 3.801
        },
        {
            "text": "outline their criteria for considering a",
            "start": 563.56,
            "duration": 4.64
        },
        {
            "text": "package to be deprecated when react",
            "start": 565.76,
            "duration": 5.4
        },
        {
            "text": "deprecated what do you do then what do",
            "start": 568.2,
            "duration": 5.16
        },
        {
            "text": "what do you do then uh the team also",
            "start": 571.16,
            "duration": 4.72
        },
        {
            "text": "urges organizations to allow update or",
            "start": 573.36,
            "duration": 4.159
        },
        {
            "text": "replace deprecated dependencies whenever",
            "start": 575.88,
            "duration": 4.48
        },
        {
            "text": "possible it is critical to acknowledge",
            "start": 577.519,
            "duration": 4.801
        },
        {
            "text": "that deprecated dependencies may serve",
            "start": 580.36,
            "duration": 5.039
        },
        {
            "text": "as an entry Vector for an attack uh in",
            "start": 582.32,
            "duration": 4.8
        },
        {
            "text": "this context GitHub can enhance its",
            "start": 585.399,
            "duration": 4.321
        },
        {
            "text": "users notification mechanism Goldman uh",
            "start": 587.12,
            "duration": 4.08
        },
        {
            "text": "suggests although npm displays",
            "start": 589.72,
            "duration": 2.76
        },
        {
            "text": "deprecated messages these could be",
            "start": 591.2,
            "duration": 3.759
        },
        {
            "text": "expanded into including uh include",
            "start": 592.48,
            "duration": 4.12
        },
        {
            "text": "warnings when a package relies on a",
            "start": 594.959,
            "duration": 3.641
        },
        {
            "text": "deprecated dependency man imagine if you",
            "start": 596.6,
            "duration": 4.88
        },
        {
            "text": "tried to install anything and they did",
            "start": 598.6,
            "duration": 5.359
        },
        {
            "text": "that like just imagine if you tried to",
            "start": 601.48,
            "duration": 4.72
        },
        {
            "text": "install anything you'd be like npm",
            "start": 603.959,
            "duration": 6.361
        },
        {
            "text": "install web sockets and it' just be",
            "start": 606.2,
            "duration": 7.879
        },
        {
            "text": "like all deprecated you're like oh cool",
            "start": 610.32,
            "duration": 7.36
        },
        {
            "text": "dude it'd be so many of them dang okay",
            "start": 614.079,
            "duration": 4.801
        },
        {
            "text": "well I didn't know that I didn't realize",
            "start": 617.68,
            "duration": 3.56
        },
        {
            "text": "it was this bad but I'm not like I mean",
            "start": 618.88,
            "duration": 3.92
        },
        {
            "text": "the problem is is is",
            "start": 621.24,
            "duration": 3.599
        },
        {
            "text": "something I guess the question I have to",
            "start": 622.8,
            "duration": 3.2
        },
        {
            "text": "ask",
            "start": 624.839,
            "duration": 5.521
        },
        {
            "text": "is because repository AR iived is",
            "start": 626.0,
            "duration": 7.0
        },
        {
            "text": "archived considered deprecated I I don't",
            "start": 630.36,
            "duration": 3.88
        },
        {
            "text": "think so I think something can be",
            "start": 633.0,
            "duration": 3.24
        },
        {
            "text": "archived without I mean there's that",
            "start": 634.24,
            "duration": 3.599
        },
        {
            "text": "there's that one guy who went told he",
            "start": 636.24,
            "duration": 3.32
        },
        {
            "text": "had a security warning he was just like",
            "start": 637.839,
            "duration": 4.8
        },
        {
            "text": "and archived but you can archive",
            "start": 639.56,
            "duration": 5.64
        },
        {
            "text": "something saying that its state will",
            "start": 642.639,
            "duration": 4.76
        },
        {
            "text": "just simply not change which I think is",
            "start": 645.2,
            "duration": 5.48
        },
        {
            "text": "fine I think it's fine to Archive uh if",
            "start": 647.399,
            "duration": 4.56
        },
        {
            "text": "you don't think there's any more changes",
            "start": 650.68,
            "duration": 3.719
        },
        {
            "text": "that are needed right and so archived",
            "start": 651.959,
            "duration": 4.401
        },
        {
            "text": "could be a good thing hey careful what",
            "start": 654.399,
            "duration": 3.56
        },
        {
            "text": "you use on npm I think this is just",
            "start": 656.36,
            "duration": 3.44
        },
        {
            "text": "another reason to try to strive for low",
            "start": 657.959,
            "duration": 3.601
        },
        {
            "text": "dependencies you know try to build",
            "start": 659.8,
            "duration": 4.839
        },
        {
            "text": "things as as as simple as possible uh",
            "start": 661.56,
            "duration": 5.399
        },
        {
            "text": "not just because npm hell exists but",
            "start": 664.639,
            "duration": 4.401
        },
        {
            "text": "because you should want to build things",
            "start": 666.959,
            "duration": 3.921
        },
        {
            "text": "as simple as possible to avoid a lot of",
            "start": 669.04,
            "duration": 4.239
        },
        {
            "text": "these problems I don't think it's",
            "start": 670.88,
            "duration": 4.48
        },
        {
            "text": "terribly hard choose a few things that",
            "start": 673.279,
            "duration": 4.36
        },
        {
            "text": "you find vitally important and and and",
            "start": 675.36,
            "duration": 3.96
        },
        {
            "text": "keep it that way you know what I mean",
            "start": 677.639,
            "duration": 3.801
        },
        {
            "text": "the",
            "start": 679.32,
            "duration": 2.12
        },
        {
            "text": "name is the primagen",
            "start": 681.76,
            "duration": 3.92
        }
    ],
    "stats": {
        "viewCount": "65616",
        "likeCount": "1730",
        "favoriteCount": "0",
        "commentCount": "159"
    }
}