{
    "id": "OUC75Uprk8U",
    "title": "Rust is Not C",
    "publishedAt": "2023-07-04T12:00:17Z",
    "captions": [
        {
            "text": "rust is not a good c replacement all",
            "start": 0.0,
            "duration": 6.18
        },
        {
            "text": "right Drew why don't you tell us I have",
            "start": 4.02,
            "duration": 4.14
        },
        {
            "text": "a saying that summarizes my opinion of",
            "start": 6.18,
            "duration": 4.499
        },
        {
            "text": "rust compared to go go is the result of",
            "start": 8.16,
            "duration": 4.14
        },
        {
            "text": "C programmers designing a new",
            "start": 10.679,
            "duration": 3.061
        },
        {
            "text": "programming language and rust is the",
            "start": 12.3,
            "duration": 3.48
        },
        {
            "text": "result of C plus programmers designing a",
            "start": 13.74,
            "duration": 4.08
        },
        {
            "text": "new programming language okay I agree",
            "start": 15.78,
            "duration": 4.259
        },
        {
            "text": "with that uh this isn't just a metaphor",
            "start": 17.82,
            "duration": 5.039
        },
        {
            "text": "go was designed by Plan 9 alumni an",
            "start": 20.039,
            "duration": 4.681
        },
        {
            "text": "operating system written in C and the",
            "start": 22.859,
            "duration": 3.961
        },
        {
            "text": "source of inspiration for many goals of",
            "start": 24.72,
            "duration": 3.96
        },
        {
            "text": "features and rust was designed by Folks",
            "start": 26.82,
            "duration": 3.66
        },
        {
            "text": "at Mozilla whose Flagship product is one",
            "start": 28.68,
            "duration": 3.54
        },
        {
            "text": "of the largest C plus code bases in the",
            "start": 30.48,
            "duration": 2.7
        },
        {
            "text": "world",
            "start": 32.22,
            "duration": 3.72
        },
        {
            "text": "okay yeah uh the values of good C plus",
            "start": 33.18,
            "duration": 5.039
        },
        {
            "text": "programmers are are incompatible with",
            "start": 35.94,
            "duration": 3.6
        },
        {
            "text": "the values of",
            "start": 38.219,
            "duration": 5.041
        },
        {
            "text": "good C programmers interesting rust is a",
            "start": 39.54,
            "duration": 5.64
        },
        {
            "text": "a decent C plus plus replacement if you",
            "start": 43.26,
            "duration": 3.6
        },
        {
            "text": "have the same goals as C plus plus but",
            "start": 45.18,
            "duration": 3.24
        },
        {
            "text": "if you don't the design has a very",
            "start": 46.86,
            "duration": 3.6
        },
        {
            "text": "similar drawbacks both rust and C plus",
            "start": 48.42,
            "duration": 4.26
        },
        {
            "text": "are what I like to call kitchen sink",
            "start": 50.46,
            "duration": 4.259
        },
        {
            "text": "programming languages with the obvious",
            "start": 52.68,
            "duration": 4.019
        },
        {
            "text": "implications these languages solve",
            "start": 54.719,
            "duration": 3.18
        },
        {
            "text": "problems by adding more language",
            "start": 56.699,
            "duration": 3.661
        },
        {
            "text": "features a language like C self by",
            "start": 57.899,
            "duration": 4.5
        },
        {
            "text": "writing more C code I really like that",
            "start": 60.36,
            "duration": 4.68
        },
        {
            "text": "take kitchen and sync are both keywords",
            "start": 62.399,
            "duration": 5.101
        },
        {
            "text": "also no but really but real talk this is",
            "start": 65.04,
            "duration": 3.54
        },
        {
            "text": "actually a really interesting take",
            "start": 67.5,
            "duration": 2.7
        },
        {
            "text": "because that's one of I think that's one",
            "start": 68.58,
            "duration": 4.8
        },
        {
            "text": "of goes big reason why people get upset",
            "start": 70.2,
            "duration": 6.48
        },
        {
            "text": "at go is that it doesn't like add more",
            "start": 73.38,
            "duration": 4.68
        },
        {
            "text": "features why not why aren't you doing",
            "start": 76.68,
            "duration": 2.46
        },
        {
            "text": "this why haven't you added this why",
            "start": 78.06,
            "duration": 2.16
        },
        {
            "text": "haven't you done this why haven't you",
            "start": 79.14,
            "duration": 3.42
        },
        {
            "text": "done this but instead they do very",
            "start": 80.22,
            "duration": 4.92
        },
        {
            "text": "little and in some sense it keeps the",
            "start": 82.56,
            "duration": 5.58
        },
        {
            "text": "language very simple and so to solve a",
            "start": 85.14,
            "duration": 5.58
        },
        {
            "text": "problem you just write more go is that",
            "start": 88.14,
            "duration": 4.68
        },
        {
            "text": "bad I don't know",
            "start": 90.72,
            "duration": 4.079
        },
        {
            "text": "I don't know if that's bad or good I",
            "start": 92.82,
            "duration": 3.96
        },
        {
            "text": "can't because I you know the hard part",
            "start": 94.799,
            "duration": 4.621
        },
        {
            "text": "about if anyone who's ever been in a",
            "start": 96.78,
            "duration": 5.28
        },
        {
            "text": "part of like a really large really",
            "start": 99.42,
            "duration": 5.879
        },
        {
            "text": "complex C plus code base knows for a",
            "start": 102.06,
            "duration": 5.46
        },
        {
            "text": "fact that language features don't make",
            "start": 105.299,
            "duration": 4.081
        },
        {
            "text": "it easier they don't make things great",
            "start": 107.52,
            "duration": 4.34
        },
        {
            "text": "it's it can be excessively difficult",
            "start": 109.38,
            "duration": 4.86
        },
        {
            "text": "reasoning through these things right and",
            "start": 111.86,
            "duration": 3.82
        },
        {
            "text": "but that's really hard for you to",
            "start": 114.24,
            "duration": 2.82
        },
        {
            "text": "understand right it could be really hard",
            "start": 115.68,
            "duration": 3.479
        },
        {
            "text": "if you've never been in that world go a",
            "start": 117.06,
            "duration": 4.739
        },
        {
            "text": "simple yet performing yeah uh",
            "start": 119.159,
            "duration": 4.561
        },
        {
            "text": "curious just a cure it's just a curious",
            "start": 121.799,
            "duration": 4.381
        },
        {
            "text": "take that I think I can agree with I",
            "start": 123.72,
            "duration": 4.319
        },
        {
            "text": "think I did some uh back of the napkin",
            "start": 126.18,
            "duration": 3.24
        },
        {
            "text": "estimates at the rate in which these",
            "start": 128.039,
            "duration": 2.94
        },
        {
            "text": "languages become more complex based on",
            "start": 129.42,
            "duration": 3.72
        },
        {
            "text": "the rate uh at which they add features",
            "start": 130.979,
            "duration": 3.601
        },
        {
            "text": "per year my Approach wasn't very",
            "start": 133.14,
            "duration": 3.48
        },
        {
            "text": "scientific but I'm sure the point comes",
            "start": 134.58,
            "duration": 3.68
        },
        {
            "text": "across C",
            "start": 136.62,
            "duration": 4.32
        },
        {
            "text": ".73 new features per year measured by",
            "start": 138.26,
            "duration": 4.24
        },
        {
            "text": "the number of bullet points in the C",
            "start": 140.94,
            "duration": 3.659
        },
        {
            "text": "plus a C11 article on Wikipedia which",
            "start": 142.5,
            "duration": 4.86
        },
        {
            "text": "summarizes the change from c99 adjusted",
            "start": 144.599,
            "duration": 4.561
        },
        {
            "text": "to account for the fact that c18",
            "start": 147.36,
            "duration": 4.14
        },
        {
            "text": "introduces no new features is it I mean",
            "start": 149.16,
            "duration": 4.32
        },
        {
            "text": "C11 pretty much just gave the new",
            "start": 151.5,
            "duration": 4.5
        },
        {
            "text": "threads right it dropped P threads for",
            "start": 153.48,
            "duration": 3.78
        },
        {
            "text": "some new",
            "start": 156.0,
            "duration": 3.12
        },
        {
            "text": "naming conventions am I right for that",
            "start": 157.26,
            "duration": 4.259
        },
        {
            "text": "and some like basic new ways to kind of",
            "start": 159.12,
            "duration": 5.399
        },
        {
            "text": "do things go two new features per year",
            "start": 161.519,
            "duration": 4.44
        },
        {
            "text": "measured by the number of new features",
            "start": 164.519,
            "duration": 3.0
        },
        {
            "text": "listed in the Wikipedia summary of The",
            "start": 165.959,
            "duration": 3.481
        },
        {
            "text": "Go versions okay",
            "start": 167.519,
            "duration": 4.86
        },
        {
            "text": "C plus plus 11.3 new features per year",
            "start": 169.44,
            "duration": 4.439
        },
        {
            "text": "measured by the number of bullet points",
            "start": 172.379,
            "duration": 3.121
        },
        {
            "text": "in the C plus plus 17 article which",
            "start": 173.879,
            "duration": 3.241
        },
        {
            "text": "summarizes the changes from C plus plus",
            "start": 175.5,
            "duration": 4.8
        },
        {
            "text": "14 which will be implemented in in 2032.",
            "start": 177.12,
            "duration": 7.02
        },
        {
            "text": "uh rust 15 or rust 15 new features per",
            "start": 180.3,
            "duration": 5.28
        },
        {
            "text": "year measured by the number of headers",
            "start": 184.14,
            "duration": 3.179
        },
        {
            "text": "in the release notes of the major rust",
            "start": 185.58,
            "duration": 3.18
        },
        {
            "text": "version over the past year minus things",
            "start": 187.319,
            "duration": 4.161
        },
        {
            "text": "like linters",
            "start": 188.76,
            "duration": 2.72
        },
        {
            "text": "interesting",
            "start": 191.7,
            "duration": 2.48
        },
        {
            "text": "about a language that does not change",
            "start": 194.7,
            "duration": 2.94
        },
        {
            "text": "drastically but there is also something",
            "start": 196.08,
            "duration": 3.0
        },
        {
            "text": "very nice about getting features that",
            "start": 197.64,
            "duration": 3.66
        },
        {
            "text": "make your life easier so I'm not sure if",
            "start": 199.08,
            "duration": 3.84
        },
        {
            "text": "like I don't know if these are good or",
            "start": 201.3,
            "duration": 3.42
        },
        {
            "text": "bad measurements it's really hard to",
            "start": 202.92,
            "duration": 3.3
        },
        {
            "text": "kind of I mean I guess the real",
            "start": 204.72,
            "duration": 4.26
        },
        {
            "text": "measurement you're looking for is",
            "start": 206.22,
            "duration": 5.28
        },
        {
            "text": "how many changes make material impact to",
            "start": 208.98,
            "duration": 4.679
        },
        {
            "text": "how you write code I think that would be",
            "start": 211.5,
            "duration": 3.959
        },
        {
            "text": "a better measurement",
            "start": 213.659,
            "duration": 4.981
        },
        {
            "text": "assembly zero new features",
            "start": 215.459,
            "duration": 3.721
        },
        {
            "text": "um",
            "start": 218.64,
            "duration": 2.819
        },
        {
            "text": "I don't know just something you know",
            "start": 219.18,
            "duration": 3.96
        },
        {
            "text": "think about this this speaks volumes to",
            "start": 221.459,
            "duration": 3.301
        },
        {
            "text": "this ability the stability of these",
            "start": 223.14,
            "duration": 3.48
        },
        {
            "text": "languages but more importantly it speaks",
            "start": 224.76,
            "duration": 3.96
        },
        {
            "text": "to their complexity over time it rapidly",
            "start": 226.62,
            "duration": 4.259
        },
        {
            "text": "becomes difficult for one to keep an",
            "start": 228.72,
            "duration": 4.2
        },
        {
            "text": "up-to-date mental map of rust and how to",
            "start": 230.879,
            "duration": 3.72
        },
        {
            "text": "solve problems idiomatically this is",
            "start": 232.92,
            "duration": 4.2
        },
        {
            "text": "true I would agree with this as more and",
            "start": 234.599,
            "duration": 4.441
        },
        {
            "text": "more features are added it does become",
            "start": 237.12,
            "duration": 3.24
        },
        {
            "text": "more difficult you do have to",
            "start": 239.04,
            "duration": 3.779
        },
        {
            "text": "continuously be pursuing and pushing in",
            "start": 240.36,
            "duration": 4.439
        },
        {
            "text": "to become good at rust I agree with that",
            "start": 242.819,
            "duration": 3.901
        },
        {
            "text": "a rust program written last year already",
            "start": 244.799,
            "duration": 3.66
        },
        {
            "text": "looks outdated whereas a c program",
            "start": 246.72,
            "duration": 3.48
        },
        {
            "text": "written 10 years ago also has pretty",
            "start": 248.459,
            "duration": 3.78
        },
        {
            "text": "good odds of being just fine system",
            "start": 250.2,
            "duration": 3.899
        },
        {
            "text": "programmers don't want shiny things we",
            "start": 252.239,
            "duration": 4.441
        },
        {
            "text": "just want things that work that really",
            "start": 254.099,
            "duration": 5.161
        },
        {
            "text": "cool feature other Pro other language",
            "start": 256.68,
            "duration": 4.619
        },
        {
            "text": "has not interested it'll be more trouble",
            "start": 259.26,
            "duration": 3.3
        },
        {
            "text": "than it's worth",
            "start": 261.299,
            "duration": 3.18
        },
        {
            "text": "okay I mean I think that's a good point",
            "start": 262.56,
            "duration": 3.84
        },
        {
            "text": "I think that's a good argument for why",
            "start": 264.479,
            "duration": 4.201
        },
        {
            "text": "for why like you know languages with",
            "start": 266.4,
            "duration": 3.66
        },
        {
            "text": "large change aren't as great like the",
            "start": 268.68,
            "duration": 2.7
        },
        {
            "text": "same thing with JavaScript like",
            "start": 270.06,
            "duration": 4.02
        },
        {
            "text": "JavaScript in the last few years",
            "start": 271.38,
            "duration": 5.46
        },
        {
            "text": "it is very like it is it is disgusting",
            "start": 274.08,
            "duration": 4.5
        },
        {
            "text": "looking at JavaScript that's 10 years",
            "start": 276.84,
            "duration": 4.26
        },
        {
            "text": "old like it's gross",
            "start": 278.58,
            "duration": 5.22
        },
        {
            "text": "it's insane you know what I mean like",
            "start": 281.1,
            "duration": 4.26
        },
        {
            "text": "you look at it you're like what the",
            "start": 283.8,
            "duration": 3.959
        },
        {
            "text": "hell's happening in here it's crazy and",
            "start": 285.36,
            "duration": 3.96
        },
        {
            "text": "then you look at JavaScript even just a",
            "start": 287.759,
            "duration": 3.301
        },
        {
            "text": "few years ago and it looks like wow they",
            "start": 289.32,
            "duration": 2.64
        },
        {
            "text": "should have used this or they should",
            "start": 291.06,
            "duration": 2.16
        },
        {
            "text": "have used that and it's because there's",
            "start": 291.96,
            "duration": 3.54
        },
        {
            "text": "just so much change so quick",
            "start": 293.22,
            "duration": 4.5
        },
        {
            "text": "also just looking at JavaScript can also",
            "start": 295.5,
            "duration": 3.84
        },
        {
            "text": "be kind of gross too all right anyways",
            "start": 297.72,
            "duration": 4.32
        },
        {
            "text": "with uh the philosophy wish wash uh out",
            "start": 299.34,
            "duration": 4.5
        },
        {
            "text": "of the way in a tone set let me go over",
            "start": 302.04,
            "duration": 3.06
        },
        {
            "text": "some more specific problems when",
            "start": 303.84,
            "duration": 3.48
        },
        {
            "text": "considering rust as a c replacement C is",
            "start": 305.1,
            "duration": 3.599
        },
        {
            "text": "the most portable programming language",
            "start": 307.32,
            "duration": 3.86
        },
        {
            "text": "rust actually has a pretty admirable",
            "start": 308.699,
            "duration": 4.921
        },
        {
            "text": "selection of supported targets for a new",
            "start": 311.18,
            "duration": 4.959
        },
        {
            "text": "language thanks mostly to llvm but it",
            "start": 313.62,
            "duration": 4.44
        },
        {
            "text": "pales in comparison to C which runs",
            "start": 316.139,
            "duration": 4.441
        },
        {
            "text": "almost everything a new CPU architecture",
            "start": 318.06,
            "duration": 4.079
        },
        {
            "text": "and operating system can barely be",
            "start": 320.58,
            "duration": 3.36
        },
        {
            "text": "considered to exist until it has a c",
            "start": 322.139,
            "duration": 4.021
        },
        {
            "text": "compiler and once it does it unlocks",
            "start": 323.94,
            "duration": 5.099
        },
        {
            "text": "access to a vast repository of software",
            "start": 326.16,
            "duration": 4.5
        },
        {
            "text": "written in C many other programming",
            "start": 329.039,
            "duration": 3.421
        },
        {
            "text": "languages such as Ruby and python are",
            "start": 330.66,
            "duration": 3.9
        },
        {
            "text": "implemented in C and you get those for",
            "start": 332.46,
            "duration": 5.28
        },
        {
            "text": "free too see as a spec no spec means uh",
            "start": 334.56,
            "duration": 5.16
        },
        {
            "text": "means there's nothing keeping Rusty",
            "start": 337.74,
            "duration": 4.2
        },
        {
            "text": "honest any Behavior it exhibits could",
            "start": 339.72,
            "duration": 4.979
        },
        {
            "text": "change tomorrow some weird thing it does",
            "start": 341.94,
            "duration": 5.16
        },
        {
            "text": "could be a feature or a bug there's no",
            "start": 344.699,
            "duration": 4.321
        },
        {
            "text": "way to know until your code breaks that",
            "start": 347.1,
            "duration": 3.72
        },
        {
            "text": "can't slow down to pin let's see they",
            "start": 349.02,
            "duration": 3.959
        },
        {
            "text": "can't slow down to pin down exactly what",
            "start": 350.82,
            "duration": 4.2
        },
        {
            "text": "defines Russ is also indicative of an",
            "start": 352.979,
            "duration": 5.401
        },
        {
            "text": "immature language I mean I could I mean",
            "start": 355.02,
            "duration": 5.34
        },
        {
            "text": "see see feels complete maybe that's why",
            "start": 358.38,
            "duration": 4.08
        },
        {
            "text": "there's a spec I mean uh rust is still",
            "start": 360.36,
            "duration": 3.179
        },
        {
            "text": "in the process I mean they don't even",
            "start": 362.46,
            "duration": 3.54
        },
        {
            "text": "have like impul everywhere you know what",
            "start": 363.539,
            "duration": 4.861
        },
        {
            "text": "I mean uh yeah by the way this article",
            "start": 366.0,
            "duration": 3.479
        },
        {
            "text": "has no affiliation with the rust",
            "start": 368.4,
            "duration": 2.7
        },
        {
            "text": "Foundation C has many implementations",
            "start": 369.479,
            "duration": 3.601
        },
        {
            "text": "she has many competing compilers they",
            "start": 371.1,
            "duration": 3.98
        },
        {
            "text": "all work together stressing out the spec",
            "start": 373.08,
            "duration": 4.8
        },
        {
            "text": "uh finishing or fishing out the Loosely",
            "start": 375.08,
            "duration": 4.6
        },
        {
            "text": "defined corners and pinning down exactly",
            "start": 377.88,
            "duration": 4.259
        },
        {
            "text": "what C is code that compiles in one and",
            "start": 379.68,
            "duration": 4.32
        },
        {
            "text": "not another is indicative of a bug in",
            "start": 382.139,
            "duration": 4.801
        },
        {
            "text": "one of them true statement a statement",
            "start": 384.0,
            "duration": 6.419
        },
        {
            "text": "in which you cannot argue",
            "start": 386.94,
            "duration": 5.759
        },
        {
            "text": "which gives a nice extra layer of",
            "start": 390.419,
            "duration": 4.141
        },
        {
            "text": "testing to each by having many",
            "start": 392.699,
            "duration": 3.661
        },
        {
            "text": "implementations we foresee to be well",
            "start": 394.56,
            "duration": 3.24
        },
        {
            "text": "defined and this is good for the",
            "start": 396.36,
            "duration": 3.6
        },
        {
            "text": "language and it's long-term stability",
            "start": 397.8,
            "duration": 3.899
        },
        {
            "text": "rust C could stand to have some",
            "start": 399.96,
            "duration": 3.48
        },
        {
            "text": "competition as well maybe it would get",
            "start": 401.699,
            "duration": 3.241
        },
        {
            "text": "faster",
            "start": 403.44,
            "duration": 3.479
        },
        {
            "text": "ah",
            "start": 404.94,
            "duration": 5.759
        },
        {
            "text": "maybe see as consistent and stable ABI",
            "start": 406.919,
            "duration": 7.021
        },
        {
            "text": "the system V the system of V ABI is",
            "start": 410.699,
            "duration": 4.741
        },
        {
            "text": "supported on a wide variety of systems",
            "start": 413.94,
            "duration": 3.06
        },
        {
            "text": "that have been mostly agreed upon by now",
            "start": 415.44,
            "duration": 3.3
        },
        {
            "text": "rust on the other hand has no stable",
            "start": 417.0,
            "duration": 4.08
        },
        {
            "text": "internal ABI you have to compile and",
            "start": 418.74,
            "duration": 4.14
        },
        {
            "text": "Link everything all in one go on the",
            "start": 421.08,
            "duration": 3.48
        },
        {
            "text": "same version of rust compiler they're",
            "start": 422.88,
            "duration": 4.14
        },
        {
            "text": "the only code which can interact with",
            "start": 424.56,
            "duration": 4.139
        },
        {
            "text": "the rest of the ecosystem is UN",
            "start": 427.02,
            "duration": 4.38
        },
        {
            "text": "idiomatic rust written at some kind of",
            "start": 428.699,
            "duration": 4.201
        },
        {
            "text": "checkpoint between rust and the outside",
            "start": 431.4,
            "duration": 4.68
        },
        {
            "text": "world the outside world exists it speaks",
            "start": 432.9,
            "duration": 5.4
        },
        {
            "text": "system five or system V what is it do",
            "start": 436.08,
            "duration": 4.679
        },
        {
            "text": "you say system V or system five and uh",
            "start": 438.3,
            "duration": 4.14
        },
        {
            "text": "us a systems programmers spend a lot of",
            "start": 440.759,
            "duration": 4.801
        },
        {
            "text": "time talking to it system five okay I",
            "start": 442.44,
            "duration": 4.92
        },
        {
            "text": "actually think a v we got a v in there",
            "start": 445.56,
            "duration": 3.72
        },
        {
            "text": "as well I actually I I agree I agree",
            "start": 447.36,
            "duration": 3.3
        },
        {
            "text": "with this point I think this is a good",
            "start": 449.28,
            "duration": 3.0
        },
        {
            "text": "point especially about this part because",
            "start": 450.66,
            "duration": 3.12
        },
        {
            "text": "I know that is a bane of a lot of people",
            "start": 452.28,
            "duration": 5.94
        },
        {
            "text": "in writing rust is trying to um",
            "start": 453.78,
            "duration": 7.74
        },
        {
            "text": "is the interaction points with the",
            "start": 458.22,
            "duration": 5.4
        },
        {
            "text": "outside world oh system U",
            "start": 461.52,
            "duration": 5.04
        },
        {
            "text": "I like that uh cargo is mandatory on a",
            "start": 463.62,
            "duration": 4.32
        },
        {
            "text": "similar line of thought rust compiler",
            "start": 466.56,
            "duration": 3.0
        },
        {
            "text": "flags are not stable attempts to",
            "start": 467.94,
            "duration": 3.06
        },
        {
            "text": "integrate it with other build systems",
            "start": 469.56,
            "duration": 2.88
        },
        {
            "text": "have been met with hostility from the",
            "start": 471.0,
            "duration": 3.479
        },
        {
            "text": "rust and cargo teams the outside world",
            "start": 472.44,
            "duration": 4.319
        },
        {
            "text": "exists and US system programmers spend a",
            "start": 474.479,
            "duration": 4.5
        },
        {
            "text": "lot of our time integrating things rust",
            "start": 476.759,
            "duration": 4.321
        },
        {
            "text": "refuses to play along",
            "start": 478.979,
            "duration": 4.62
        },
        {
            "text": "okay maybe a little salt there uh concur",
            "start": 481.08,
            "duration": 4.32
        },
        {
            "text": "uh concurrency is generally a Bad Thing",
            "start": 483.599,
            "duration": 4.021
        },
        {
            "text": "serial programmers have X problems and",
            "start": 485.4,
            "duration": 3.84
        },
        {
            "text": "parallel programmers have x to the Y",
            "start": 487.62,
            "duration": 3.84
        },
        {
            "text": "problems where Y is the amount of",
            "start": 489.24,
            "duration": 4.32
        },
        {
            "text": "parallelism you introduced introduced",
            "start": 491.46,
            "duration": 4.019
        },
        {
            "text": "parallelism and C is a pain in the ass",
            "start": 493.56,
            "duration": 3.66
        },
        {
            "text": "for sure and this is one reason I find",
            "start": 495.479,
            "duration": 3.961
        },
        {
            "text": "go much more suitable to those cases",
            "start": 497.22,
            "duration": 4.68
        },
        {
            "text": "however nearly all programs needn't",
            "start": 499.44,
            "duration": 6.84
        },
        {
            "text": "needn't needn't uh be parallel strange",
            "start": 501.9,
            "duration": 6.78
        },
        {
            "text": "contraction a program which uses pull",
            "start": 506.28,
            "duration": 4.199
        },
        {
            "text": "effectively is going to be simpler",
            "start": 508.68,
            "duration": 3.96
        },
        {
            "text": "reasonably performant and have orders of",
            "start": 510.479,
            "duration": 3.781
        },
        {
            "text": "magnitude fewer bugs Fearless",
            "start": 512.64,
            "duration": 3.24
        },
        {
            "text": "concurrency allows you to fearlessly",
            "start": 514.26,
            "duration": 3.42
        },
        {
            "text": "employ bad software design nine times",
            "start": 515.88,
            "duration": 4.339
        },
        {
            "text": "out of ten",
            "start": 517.68,
            "duration": 2.539
        },
        {
            "text": "it's pretty good I do agree with this uh",
            "start": 523.74,
            "duration": 4.2
        },
        {
            "text": "with this whole Fearless concurrency",
            "start": 526.5,
            "duration": 3.6
        },
        {
            "text": "thing I've written some pretty poor",
            "start": 527.94,
            "duration": 4.74
        },
        {
            "text": "performing code that I just could write",
            "start": 530.1,
            "duration": 5.28
        },
        {
            "text": "faster and rust all right and go granted",
            "start": 532.68,
            "duration": 4.5
        },
        {
            "text": "skill issue there",
            "start": 535.38,
            "duration": 3.72
        },
        {
            "text": "granted that's a skill issue but",
            "start": 537.18,
            "duration": 3.12
        },
        {
            "text": "nonetheless",
            "start": 539.1,
            "duration": 3.419
        },
        {
            "text": "it's just easier to write it faster",
            "start": 540.3,
            "duration": 4.02
        },
        {
            "text": "because you just don't have to think as",
            "start": 542.519,
            "duration": 5.341
        },
        {
            "text": "hard right you're just like and go oh",
            "start": 544.32,
            "duration": 5.579
        },
        {
            "text": "that's fast first try",
            "start": 547.86,
            "duration": 4.56
        },
        {
            "text": "cool dog uh but I do agree that when",
            "start": 549.899,
            "duration": 4.201
        },
        {
            "text": "rust when you write it in Rust I feel",
            "start": 552.42,
            "duration": 5.0
        },
        {
            "text": "like I have more confidence in it",
            "start": 554.1,
            "duration": 3.32
        },
        {
            "text": "but it takes a bit of time you know what",
            "start": 557.82,
            "duration": 4.019
        },
        {
            "text": "I mean it takes a bit of time safety yes",
            "start": 559.86,
            "duration": 4.62
        },
        {
            "text": "rust is more safe I don't really care",
            "start": 561.839,
            "duration": 4.741
        },
        {
            "text": "okay I care about that one in light of",
            "start": 564.48,
            "duration": 3.96
        },
        {
            "text": "all those problems I'll take my seg",
            "start": 566.58,
            "duration": 3.9
        },
        {
            "text": "faults and buffer overflows I especially",
            "start": 568.44,
            "duration": 3.899
        },
        {
            "text": "refuse to rewrite it in Rust because no",
            "start": 570.48,
            "duration": 3.479
        },
        {
            "text": "matter what rewriting an entire program",
            "start": 572.339,
            "duration": 3.18
        },
        {
            "text": "from scratch is always going to",
            "start": 573.959,
            "duration": 3.06
        },
        {
            "text": "introduce more bugs than maintaining the",
            "start": 575.519,
            "duration": 3.541
        },
        {
            "text": "C program ever would I don't care about",
            "start": 577.019,
            "duration": 3.961
        },
        {
            "text": "what language you rewrite it in okay so",
            "start": 579.06,
            "duration": 4.02
        },
        {
            "text": "this is an interesting this this one is",
            "start": 580.98,
            "duration": 4.68
        },
        {
            "text": "kind of interesting uh I think I",
            "start": 583.08,
            "duration": 5.04
        },
        {
            "text": "disagree at this point I do think that",
            "start": 585.66,
            "duration": 4.92
        },
        {
            "text": "when safety is a concern using a",
            "start": 588.12,
            "duration": 6.12
        },
        {
            "text": "language which has enforced safety",
            "start": 590.58,
            "duration": 6.6
        },
        {
            "text": "uh like built-in language features I",
            "start": 594.24,
            "duration": 4.74
        },
        {
            "text": "think is a better choice",
            "start": 597.18,
            "duration": 4.8
        },
        {
            "text": "can we agree to that",
            "start": 598.98,
            "duration": 5.64
        },
        {
            "text": "base memory safety uh disregarder yeah I",
            "start": 601.98,
            "duration": 4.5
        },
        {
            "text": "think that",
            "start": 604.62,
            "duration": 5.24
        },
        {
            "text": "this makes more sense",
            "start": 606.48,
            "duration": 3.38
        },
        {
            "text": "right this makes more sense than that in",
            "start": 610.2,
            "duration": 4.44
        },
        {
            "text": "that world and safety",
            "start": 612.36,
            "duration": 6.2
        },
        {
            "text": "safety is just easier to get right",
            "start": 614.64,
            "duration": 3.92
        },
        {
            "text": "in in Rust just hands down so if safety",
            "start": 618.6,
            "duration": 4.14
        },
        {
            "text": "is a requirement I think it makes more",
            "start": 621.42,
            "duration": 2.58
        },
        {
            "text": "sense that's why I'm not necessarily",
            "start": 622.74,
            "duration": 3.48
        },
        {
            "text": "opposed to Russ being in more of the",
            "start": 624.0,
            "duration": 3.72
        },
        {
            "text": "operating system level because it's just",
            "start": 626.22,
            "duration": 3.48
        },
        {
            "text": "going to be",
            "start": 627.72,
            "duration": 4.559
        },
        {
            "text": "less likely to introduce dumb bugs",
            "start": 629.7,
            "duration": 5.16
        },
        {
            "text": "there'll still be bugs right",
            "start": 632.279,
            "duration": 4.56
        },
        {
            "text": "can you code CPP safe",
            "start": 634.86,
            "duration": 4.68
        },
        {
            "text": "sort of I mean there's always uh there's",
            "start": 636.839,
            "duration": 4.321
        },
        {
            "text": "always what's it called",
            "start": 639.54,
            "duration": 2.7
        },
        {
            "text": "um",
            "start": 641.16,
            "duration": 2.58
        },
        {
            "text": "there's always like unique pointers and",
            "start": 642.24,
            "duration": 3.96
        },
        {
            "text": "shared pointers right safety is always",
            "start": 643.74,
            "duration": 4.5
        },
        {
            "text": "requirement yeah maybe why do you often",
            "start": 646.2,
            "duration": 3.54
        },
        {
            "text": "highlight from the first I don't know I",
            "start": 648.24,
            "duration": 3.779
        },
        {
            "text": "like going like this it just feels good",
            "start": 649.74,
            "duration": 4.5
        },
        {
            "text": "did you see the F-35 pilot needing to",
            "start": 652.019,
            "duration": 4.741
        },
        {
            "text": "eject because the computer issues like a",
            "start": 654.24,
            "duration": 4.38
        },
        {
            "text": "wooden uh maybe it would happen to rust",
            "start": 656.76,
            "duration": 3.06
        },
        {
            "text": "I can't say it would or would not happen",
            "start": 658.62,
            "duration": 2.64
        },
        {
            "text": "in Rust that's the hard part about this",
            "start": 659.82,
            "duration": 3.54
        },
        {
            "text": "mix nuts which is you can't say it would",
            "start": 661.26,
            "duration": 4.5
        },
        {
            "text": "or would not happen in Rust because rust",
            "start": 663.36,
            "duration": 4.8
        },
        {
            "text": "enforces things and it actually enforces",
            "start": 665.76,
            "duration": 5.0
        },
        {
            "text": "less things",
            "start": 668.16,
            "duration": 2.6
        },
        {
            "text": "like uh integer are rolling over right",
            "start": 670.86,
            "duration": 5.039
        },
        {
            "text": "classic one it will hard error in debug",
            "start": 673.2,
            "duration": 6.36
        },
        {
            "text": "mode and not hard error in release mode",
            "start": 675.899,
            "duration": 6.241
        },
        {
            "text": "so that's like a real thing right that's",
            "start": 679.56,
            "duration": 4.68
        },
        {
            "text": "like a real thing that can cause a whole",
            "start": 682.14,
            "duration": 4.98
        },
        {
            "text": "set of issues in which you know what do",
            "start": 684.24,
            "duration": 5.279
        },
        {
            "text": "you do that Greg hates rust be back",
            "start": 687.12,
            "duration": 4.62
        },
        {
            "text": "later work yeah",
            "start": 689.519,
            "duration": 3.541
        },
        {
            "text": "you know I'm not saying it's it's",
            "start": 691.74,
            "duration": 3.06
        },
        {
            "text": "perfect I'm just saying it's it's just",
            "start": 693.06,
            "duration": 3.0
        },
        {
            "text": "different the language does not matter",
            "start": 694.8,
            "duration": 3.3
        },
        {
            "text": "the developer does no that's not true",
            "start": 696.06,
            "duration": 4.56
        },
        {
            "text": "either that's not true languages have",
            "start": 698.1,
            "duration": 4.919
        },
        {
            "text": "various levels of of safety built into",
            "start": 700.62,
            "duration": 4.62
        },
        {
            "text": "them right that's because if the",
            "start": 703.019,
            "duration": 3.421
        },
        {
            "text": "language doesn't matter let's all just",
            "start": 705.24,
            "duration": 2.4
        },
        {
            "text": "use C",
            "start": 706.44,
            "duration": 4.38
        },
        {
            "text": "your answer would be like well actually",
            "start": 707.64,
            "duration": 4.5
        },
        {
            "text": "yeah",
            "start": 710.82,
            "duration": 3.66
        },
        {
            "text": "actually is correct well actually it is",
            "start": 712.14,
            "duration": 3.66
        },
        {
            "text": "actually the correct answer to that all",
            "start": 714.48,
            "duration": 3.12
        },
        {
            "text": "right anyways C is far from a perfect",
            "start": 715.8,
            "duration": 3.42
        },
        {
            "text": "language it has many flaws however its",
            "start": 717.6,
            "duration": 3.179
        },
        {
            "text": "replacement will be simpler not more",
            "start": 719.22,
            "duration": 3.66
        },
        {
            "text": "complex consider go which has a lot a",
            "start": 720.779,
            "duration": 4.8
        },
        {
            "text": "lot of success in supplanting C for many",
            "start": 722.88,
            "duration": 4.5
        },
        {
            "text": "problems it does this by specializing on",
            "start": 725.579,
            "duration": 3.181
        },
        {
            "text": "certain classes of programs and",
            "start": 727.38,
            "duration": 2.579
        },
        {
            "text": "addressing them with the simplest",
            "start": 728.76,
            "duration": 3.0
        },
        {
            "text": "solution possible it hasn't completely",
            "start": 729.959,
            "duration": 4.081
        },
        {
            "text": "replaced C but it it has made a",
            "start": 731.76,
            "duration": 3.66
        },
        {
            "text": "substantial dent in the problem space",
            "start": 734.04,
            "duration": 3.12
        },
        {
            "text": "more than I can really say for rust",
            "start": 735.42,
            "duration": 3.479
        },
        {
            "text": "which made similar strides for C plus",
            "start": 737.16,
            "duration": 4.14
        },
        {
            "text": "but definitely not C I think Zig is",
            "start": 738.899,
            "duration": 4.081
        },
        {
            "text": "pretty interesting in this case I think",
            "start": 741.3,
            "duration": 3.719
        },
        {
            "text": "Zig has a lot a long way to go on",
            "start": 742.98,
            "duration": 4.2
        },
        {
            "text": "tooling and I think once Zig has really",
            "start": 745.019,
            "duration": 4.681
        },
        {
            "text": "good tools I think Zig will become a",
            "start": 747.18,
            "duration": 4.56
        },
        {
            "text": "great Contender until then I think Zig",
            "start": 749.7,
            "duration": 3.42
        },
        {
            "text": "is really hard to get behind just",
            "start": 751.74,
            "duration": 4.2
        },
        {
            "text": "because you know the LSP is",
            "start": 753.12,
            "duration": 5.339
        },
        {
            "text": "just not great right and I know there's",
            "start": 755.94,
            "duration": 3.959
        },
        {
            "text": "a lot of difficulties with it but it",
            "start": 758.459,
            "duration": 4.141
        },
        {
            "text": "really is important to have good Tools",
            "start": 759.899,
            "duration": 5.521
        },
        {
            "text": "in this day and age because people just",
            "start": 762.6,
            "duration": 4.799
        },
        {
            "text": "you know it's just like memorizing phone",
            "start": 765.42,
            "duration": 3.599
        },
        {
            "text": "numbers at one point I was super good at",
            "start": 767.399,
            "duration": 3.06
        },
        {
            "text": "memorizing phone numbers and then the",
            "start": 769.019,
            "duration": 3.181
        },
        {
            "text": "cell phone came around and now I don't",
            "start": 770.459,
            "duration": 3.721
        },
        {
            "text": "have to memorize cell phone numbers and",
            "start": 772.2,
            "duration": 3.48
        },
        {
            "text": "now I'm really bad at memorizing cell",
            "start": 774.18,
            "duration": 2.82
        },
        {
            "text": "phone numbers and I don't really want to",
            "start": 775.68,
            "duration": 2.459
        },
        {
            "text": "go back to the time where I memorize",
            "start": 777.0,
            "duration": 2.22
        },
        {
            "text": "cell phone numbers",
            "start": 778.139,
            "duration": 3.601
        },
        {
            "text": "LSPs are kind of similar to that like I",
            "start": 779.22,
            "duration": 4.799
        },
        {
            "text": "could totally program without an LSP but",
            "start": 781.74,
            "duration": 4.2
        },
        {
            "text": "I would rather program with one hands",
            "start": 784.019,
            "duration": 3.661
        },
        {
            "text": "down every single day of the way a week",
            "start": 785.94,
            "duration": 3.48
        },
        {
            "text": "right the kitchen sink approach doesn't",
            "start": 787.68,
            "duration": 3.719
        },
        {
            "text": "work Russ will eventually uh fail to the",
            "start": 789.42,
            "duration": 3.359
        },
        {
            "text": "Jack of all trades master of none",
            "start": 791.399,
            "duration": 3.301
        },
        {
            "text": "problem that c plus has why is language",
            "start": 792.779,
            "duration": 3.601
        },
        {
            "text": "designer start small and stay small why",
            "start": 794.7,
            "duration": 3.3
        },
        {
            "text": "system programmers extend the philosophy",
            "start": 796.38,
            "duration": 3.899
        },
        {
            "text": "to design designing entire systems and",
            "start": 798.0,
            "duration": 4.16
        },
        {
            "text": "rust is probably not going to be invited",
            "start": 800.279,
            "duration": 5.161
        },
        {
            "text": "dang little does he little little does",
            "start": 802.16,
            "duration": 5.5
        },
        {
            "text": "the future know on this one Russ doesn't",
            "start": 805.44,
            "duration": 5.28
        },
        {
            "text": "get it does get a bit more invited uh",
            "start": 807.66,
            "duration": 4.16
        },
        {
            "text": "later on",
            "start": 810.72,
            "duration": 4.98
        },
        {
            "text": "doesn't know in lightest article um",
            "start": 811.82,
            "duration": 5.98
        },
        {
            "text": "let's see I understand that many people",
            "start": 815.7,
            "duration": 4.079
        },
        {
            "text": "particularly those uh already enamored",
            "start": 817.8,
            "duration": 3.36
        },
        {
            "text": "with Russ won't agree with much of this",
            "start": 819.779,
            "duration": 3.24
        },
        {
            "text": "article but now you know why we are",
            "start": 821.16,
            "duration": 3.119
        },
        {
            "text": "still writing C and hopefully you'll",
            "start": 823.019,
            "duration": 4.76
        },
        {
            "text": "stop bloody bothering us about it",
            "start": 824.279,
            "duration": 3.5
        },
        {
            "text": "status update",
            "start": 829.079,
            "duration": 8.041
        },
        {
            "text": "I guess Ro I guess uh rustic is okay",
            "start": 830.899,
            "duration": 7.961
        },
        {
            "text": "it is it I mean it's a good article in",
            "start": 837.12,
            "duration": 3.36
        },
        {
            "text": "the sense that",
            "start": 838.86,
            "duration": 3.96
        },
        {
            "text": "it shows you how different people think",
            "start": 840.48,
            "duration": 4.14
        },
        {
            "text": "right",
            "start": 842.82,
            "duration": 5.72
        },
        {
            "text": "who is bothering that man rust people",
            "start": 844.62,
            "duration": 3.92
        },
        {
            "text": "uh by 2019 it was pretty obvious that it",
            "start": 849.6,
            "duration": 3.419
        },
        {
            "text": "was adopted by the industry definitely",
            "start": 851.76,
            "duration": 3.36
        },
        {
            "text": "not definitely most certainly not it was",
            "start": 853.019,
            "duration": 3.961
        },
        {
            "text": "not obvious even now it's not fully",
            "start": 855.12,
            "duration": 4.08
        },
        {
            "text": "obvious what is going to be the outcome",
            "start": 856.98,
            "duration": 4.68
        },
        {
            "text": "of rust I do not know I don't know what",
            "start": 859.2,
            "duration": 4.74
        },
        {
            "text": "is the outcome of rust I think it has a",
            "start": 861.66,
            "duration": 4.979
        },
        {
            "text": "great potential I think there's some big",
            "start": 863.94,
            "duration": 4.68
        },
        {
            "text": "hurdles that has to come over",
            "start": 866.639,
            "duration": 3.721
        },
        {
            "text": "uh and some of those hurdles are",
            "start": 868.62,
            "duration": 3.18
        },
        {
            "text": "definitely the foundation itself the",
            "start": 870.36,
            "duration": 4.2
        },
        {
            "text": "people in leadership uh I would love to",
            "start": 871.8,
            "duration": 5.279
        },
        {
            "text": "see different engineers in place I",
            "start": 874.56,
            "duration": 3.66
        },
        {
            "text": "sounds like they're really great",
            "start": 877.079,
            "duration": 2.88
        },
        {
            "text": "Engineers that are just terrible at",
            "start": 878.22,
            "duration": 3.059
        },
        {
            "text": "people problems",
            "start": 879.959,
            "duration": 3.301
        },
        {
            "text": "that's what it seems like to me",
            "start": 881.279,
            "duration": 4.62
        },
        {
            "text": "um I'm curious if rust is fully",
            "start": 883.26,
            "duration": 5.1
        },
        {
            "text": "sustainable always like could you could",
            "start": 885.899,
            "duration": 6.06
        },
        {
            "text": "you do that I don't know I think so",
            "start": 888.36,
            "duration": 6.38
        },
        {
            "text": "I think you could",
            "start": 891.959,
            "duration": 2.781
        },
        {
            "text": "but I'm curious what larger projects",
            "start": 894.959,
            "duration": 2.82
        },
        {
            "text": "look like",
            "start": 896.88,
            "duration": 3.18
        },
        {
            "text": "right what do larger fast changing",
            "start": 897.779,
            "duration": 4.021
        },
        {
            "text": "projects look like is that the right",
            "start": 900.06,
            "duration": 4.019
        },
        {
            "text": "commitment maybe maybe not uh yeah",
            "start": 901.8,
            "duration": 4.26
        },
        {
            "text": "Amazon Amazon and Microsoft most",
            "start": 904.079,
            "duration": 4.32
        },
        {
            "text": "certainly are committed to uh are",
            "start": 906.06,
            "duration": 3.779
        },
        {
            "text": "committed to Russ but that doesn't mean",
            "start": 908.399,
            "duration": 3.781
        },
        {
            "text": "it's widely accepted right industry",
            "start": 909.839,
            "duration": 4.981
        },
        {
            "text": "accepted means that you have Industries",
            "start": 912.18,
            "duration": 5.7
        },
        {
            "text": "using it right just I mean just because",
            "start": 914.82,
            "duration": 6.12
        },
        {
            "text": "somebody uses something like Objective C",
            "start": 917.88,
            "duration": 4.98
        },
        {
            "text": "had an entire ecosystem in which",
            "start": 920.94,
            "duration": 3.899
        },
        {
            "text": "everybody had to write in at some point",
            "start": 922.86,
            "duration": 5.159
        },
        {
            "text": "to make like iOS stuff that's an",
            "start": 924.839,
            "duration": 5.221
        },
        {
            "text": "industry standard now was it a good one",
            "start": 928.019,
            "duration": 4.801
        },
        {
            "text": "no it was shitty but nonetheless it",
            "start": 930.06,
            "duration": 4.38
        },
        {
            "text": "still was one and so that's kind of what",
            "start": 932.82,
            "duration": 2.94
        },
        {
            "text": "you have to kind of think about just",
            "start": 934.44,
            "duration": 3.18
        },
        {
            "text": "because there is Niche projects whether",
            "start": 935.76,
            "duration": 3.78
        },
        {
            "text": "or not they're large",
            "start": 937.62,
            "duration": 3.779
        },
        {
            "text": "it's still a niche project it's still",
            "start": 939.54,
            "duration": 4.799
        },
        {
            "text": "just Amazon doing just Amazon things",
            "start": 941.399,
            "duration": 4.5
        },
        {
            "text": "right",
            "start": 944.339,
            "duration": 3.781
        },
        {
            "text": "it is it is I've written that Microsoft",
            "start": 945.899,
            "duration": 4.74
        },
        {
            "text": "is committed to safety of rust not rust",
            "start": 948.12,
            "duration": 5.579
        },
        {
            "text": "itself yes this is also true",
            "start": 950.639,
            "duration": 5.341
        },
        {
            "text": "Objective C was kind of cool it was also",
            "start": 953.699,
            "duration": 5.82
        },
        {
            "text": "kind of horrible Mojo is real",
            "start": 955.98,
            "duration": 6.06
        },
        {
            "text": "uh I actually like Objective C what",
            "start": 959.519,
            "duration": 4.44
        },
        {
            "text": "large go projects are hell yeah I'd like",
            "start": 962.04,
            "duration": 3.0
        },
        {
            "text": "to see this because I know a lot of",
            "start": 963.959,
            "duration": 2.581
        },
        {
            "text": "people that say large we I mean I'm",
            "start": 965.04,
            "duration": 3.12
        },
        {
            "text": "working in a large go project and",
            "start": 966.54,
            "duration": 3.9
        },
        {
            "text": "Netflix and people it seems pretty I",
            "start": 968.16,
            "duration": 4.08
        },
        {
            "text": "mean it seems pretty easy",
            "start": 970.44,
            "duration": 4.019
        },
        {
            "text": "seems pretty straightforward right uh",
            "start": 972.24,
            "duration": 3.48
        },
        {
            "text": "I'm interested in carbon carbon's",
            "start": 974.459,
            "duration": 3.781
        },
        {
            "text": "interesting objective CDs nuts damn",
            "start": 975.72,
            "duration": 5.1
        },
        {
            "text": "Netflix by the way all right hey the",
            "start": 978.24,
            "duration": 6.68
        },
        {
            "text": "name is the not the sea agent",
            "start": 980.82,
            "duration": 4.1
        }
    ],
    "stats": {
        "viewCount": "189870",
        "likeCount": "5044",
        "favoriteCount": "0",
        "commentCount": "797"
    }
}