{
    "id": "P2gJdbb3Pec",
    "title": "125 Million Effected Accounts By FireBase Configuration",
    "publishedAt": "2024-05-02T19:08:49Z",
    "captions": [
        {
            "text": "we're starting at 900 sites 125 million",
            "start": 0.04,
            "duration": 5.12
        },
        {
            "text": "accounts one",
            "start": 3.56,
            "duration": 5.56
        },
        {
            "text": "vulnerability by m BR bruh ziga and",
            "start": 5.16,
            "duration": 7.32
        },
        {
            "text": "loggi KK ziga is in",
            "start": 9.12,
            "duration": 6.24
        },
        {
            "text": "here um all right anyways tldr Firebase",
            "start": 12.48,
            "duration": 4.559
        },
        {
            "text": "allows for easy misconfiguration of",
            "start": 15.36,
            "duration": 4.88
        },
        {
            "text": "security rules with zero",
            "start": 17.039,
            "duration": 5.32
        },
        {
            "text": "warnings how many of the configurations",
            "start": 20.24,
            "duration": 4.799
        },
        {
            "text": "were driven by AI can we just answer",
            "start": 22.359,
            "duration": 4.76
        },
        {
            "text": "that you know what the best part is is",
            "start": 25.039,
            "duration": 4.24
        },
        {
            "text": "if you misconfigure it and it's public",
            "start": 27.119,
            "duration": 4.24
        },
        {
            "text": "and a lot of people have it it will get",
            "start": 29.279,
            "duration": 5.081
        },
        {
            "text": "baked into the cake for like years",
            "start": 31.359,
            "duration": 5.761
        },
        {
            "text": "oh beautiful this has resulted in",
            "start": 34.36,
            "duration": 4.4
        },
        {
            "text": "hundreds of sites exposing a total of",
            "start": 37.12,
            "duration": 4.16
        },
        {
            "text": "125 million user records including plain",
            "start": 38.76,
            "duration": 5.16
        },
        {
            "text": "text passwords what sensitive billing",
            "start": 41.28,
            "duration": 5.16
        },
        {
            "text": "information what after an initial Buzz",
            "start": 43.92,
            "duration": 5.56
        },
        {
            "text": "of poning chatter AI uh has settled down",
            "start": 46.44,
            "duration": 5.919
        },
        {
            "text": "wait what is poning Chatter AI am I",
            "start": 49.48,
            "duration": 5.28
        },
        {
            "text": "about to get ligma how I pwned half of",
            "start": 52.359,
            "duration": 5.04
        },
        {
            "text": "America's fast food chains Sim",
            "start": 54.76,
            "duration": 5.279
        },
        {
            "text": "okay that might that might we we just",
            "start": 57.399,
            "duration": 4.8
        },
        {
            "text": "might have to take a quick Divergence",
            "start": 60.039,
            "duration": 4.08
        },
        {
            "text": "and read that one that one sounds good",
            "start": 62.199,
            "duration": 3.561
        },
        {
            "text": "does that one sounds good yes it does",
            "start": 64.119,
            "duration": 3.961
        },
        {
            "text": "sound good uh has settled down we uh we",
            "start": 65.76,
            "duration": 3.8
        },
        {
            "text": "set to work on scanning the entire",
            "start": 68.08,
            "duration": 4.24
        },
        {
            "text": "internet for exposed PP pii that's uh",
            "start": 69.56,
            "duration": 3.72
        },
        {
            "text": "what is that that's personal",
            "start": 72.32,
            "duration": 2.32
        },
        {
            "text": "identifiable information via",
            "start": 73.28,
            "duration": 3.879
        },
        {
            "text": "misconfigured Firebase instances attempt",
            "start": 74.64,
            "duration": 5.0
        },
        {
            "text": "one Mr BR wrote up a rudimentary scanner",
            "start": 77.159,
            "duration": 4.761
        },
        {
            "text": "in Python that would check for Firebase",
            "start": 79.64,
            "duration": 4.439
        },
        {
            "text": "configuration variables in websites or",
            "start": 81.92,
            "duration": 4.559
        },
        {
            "text": "their loaded JS bundles it worked until",
            "start": 84.079,
            "duration": 3.921
        },
        {
            "text": "it didn't it turns out that Python",
            "start": 86.479,
            "duration": 3.441
        },
        {
            "text": "program with 500 threads will start",
            "start": 88.0,
            "duration": 4.24
        },
        {
            "text": "start to chew up memory over time really",
            "start": 89.92,
            "duration": 5.839
        },
        {
            "text": "first off I absolutely love this but I I",
            "start": 92.24,
            "duration": 5.32
        },
        {
            "text": "love the first I love the first",
            "start": 95.759,
            "duration": 4.601
        },
        {
            "text": "conclusion here turns out",
            "start": 97.56,
            "duration": 6.16
        },
        {
            "text": "python well it's",
            "start": 100.36,
            "duration": 3.36
        },
        {
            "text": "python no idea how that happened uh for",
            "start": 105.119,
            "duration": 4.6
        },
        {
            "text": "for us that meant it would oom oh my",
            "start": 108.0,
            "duration": 4.36
        },
        {
            "text": "goodness you got an oom you OED yourself",
            "start": 109.719,
            "duration": 6.561
        },
        {
            "text": "that's so good that's so good I love",
            "start": 112.36,
            "duration": 3.92
        },
        {
            "text": "it that's just my favorite I love",
            "start": 118.159,
            "duration": 5.28
        },
        {
            "text": "getting OED I've OED many of things all",
            "start": 120.52,
            "duration": 7.439
        },
        {
            "text": "right uh logy uh rewrote the scanner and",
            "start": 123.439,
            "duration": 7.52
        },
        {
            "text": "go should have been rust un unlike the",
            "start": 127.959,
            "duration": 5.801
        },
        {
            "text": "prior it didn't seem to leak",
            "start": 130.959,
            "duration": 4.681
        },
        {
            "text": "memory it really doesn't matter the",
            "start": 133.76,
            "duration": 3.559
        },
        {
            "text": "language then our initial estimate was",
            "start": 135.64,
            "duration": 3.28
        },
        {
            "text": "that this was going to take 11 days to",
            "start": 137.319,
            "duration": 3.56
        },
        {
            "text": "scan through 5 and a half million",
            "start": 138.92,
            "duration": 3.56
        },
        {
            "text": "domains but it turned out to be closer",
            "start": 140.879,
            "duration": 3.44
        },
        {
            "text": "to two to three weeks which made this",
            "start": 142.48,
            "duration": 4.759
        },
        {
            "text": "very much a waiting game okay manual",
            "start": 144.319,
            "duration": 4.801
        },
        {
            "text": "checking every domain uh we first went",
            "start": 147.239,
            "duration": 3.36
        },
        {
            "text": "and started manually looking at each",
            "start": 149.12,
            "duration": 5.119
        },
        {
            "text": "entry in the 550,000 line text file holy",
            "start": 150.599,
            "duration": 5.201
        },
        {
            "text": "cow seeing if we could find anything",
            "start": 154.239,
            "duration": 3.28
        },
        {
            "text": "interesting this was timec consuming and",
            "start": 155.8,
            "duration": 3.76
        },
        {
            "text": "very repetitive you know in the end we",
            "start": 157.519,
            "duration": 3.881
        },
        {
            "text": "went through quite a lot of it it had",
            "start": 159.56,
            "duration": 4.84
        },
        {
            "text": "let's see it had 136 sites and 6.2",
            "start": 161.4,
            "duration": 5.52
        },
        {
            "text": "million records but all we knew that we",
            "start": 164.4,
            "duration": 4.199
        },
        {
            "text": "needed to do something fully automated",
            "start": 166.92,
            "duration": 2.959
        },
        {
            "text": "because this was taking white too long",
            "start": 168.599,
            "duration": 2.521
        },
        {
            "text": "yeah mean know once you figure out the",
            "start": 169.879,
            "duration": 3.201
        },
        {
            "text": "process I assume you can automate it",
            "start": 171.12,
            "duration": 3.28
        },
        {
            "text": "this is very interesting okay once we",
            "start": 173.08,
            "duration": 2.84
        },
        {
            "text": "had acquired a our short list of",
            "start": 174.4,
            "duration": 3.119
        },
        {
            "text": "potentially affected sites we ran it",
            "start": 175.92,
            "duration": 3.56
        },
        {
            "text": "through a secondary scanner that Eva had",
            "start": 177.519,
            "duration": 3.521
        },
        {
            "text": "made called",
            "start": 179.48,
            "duration": 4.319
        },
        {
            "text": "Catalyst this would take the site or JS",
            "start": 181.04,
            "duration": 4.36
        },
        {
            "text": "bundle we found then automatically check",
            "start": 183.799,
            "duration": 3.561
        },
        {
            "text": "for read ACC uh access to Common",
            "start": 185.4,
            "duration": 4.08
        },
        {
            "text": "Firebase Collections and any that were",
            "start": 187.36,
            "duration": 3.519
        },
        {
            "text": "explicitly mentioned in JavaScript",
            "start": 189.48,
            "duration": 4.44
        },
        {
            "text": "itself this is just so beautiful this is",
            "start": 190.879,
            "duration": 4.521
        },
        {
            "text": "just so beautiful when it found read",
            "start": 193.92,
            "duration": 3.44
        },
        {
            "text": "access to uh to a collection it would",
            "start": 195.4,
            "duration": 3.68
        },
        {
            "text": "attempt to calculate the impact of the",
            "start": 197.36,
            "duration": 4.28
        },
        {
            "text": "exposed data by gathering a sample of a",
            "start": 199.08,
            "duration": 4.12
        },
        {
            "text": "100 records checking the type of",
            "start": 201.64,
            "duration": 3.2
        },
        {
            "text": "information contained and extrapolating",
            "start": 203.2,
            "duration": 3.92
        },
        {
            "text": "that uh by the total size of the",
            "start": 204.84,
            "duration": 4.959
        },
        {
            "text": "collection then we decided to uh the",
            "start": 207.12,
            "duration": 5.16
        },
        {
            "text": "database let's see then we then decided",
            "start": 209.799,
            "duration": 4.481
        },
        {
            "text": "the database to use to store all the",
            "start": 212.28,
            "duration": 4.239
        },
        {
            "text": "results and we chose superbase which",
            "start": 214.28,
            "duration": 4.679
        },
        {
            "text": "uses posts under the hood a open source",
            "start": 216.519,
            "duration": 5.161
        },
        {
            "text": "Firebase competitor just for irony so",
            "start": 218.959,
            "duration": 4.321
        },
        {
            "text": "this is just out",
            "start": 221.68,
            "duration": 4.52
        },
        {
            "text": "there so you you literally just went on",
            "start": 223.28,
            "duration": 5.48
        },
        {
            "text": "the internet and just looked for read",
            "start": 226.2,
            "duration": 6.119
        },
        {
            "text": "access that was exposed in J JavaScript",
            "start": 228.76,
            "duration": 6.199
        },
        {
            "text": "you know in my head whenever I think of",
            "start": 232.319,
            "duration": 3.961
        },
        {
            "text": "like someone that's doing like some form",
            "start": 234.959,
            "duration": 4.401
        },
        {
            "text": "of hacking it's like this like intense",
            "start": 236.28,
            "duration": 4.879
        },
        {
            "text": "there's like Linux it's like it's like",
            "start": 239.36,
            "duration": 5.12
        },
        {
            "text": "you know it's hacker man getting deep in",
            "start": 241.159,
            "duration": 5.401
        },
        {
            "text": "there it's like some really crazy stuff",
            "start": 244.48,
            "duration": 4.039
        },
        {
            "text": "they're like they're taking advantage of",
            "start": 246.56,
            "duration": 5.12
        },
        {
            "text": "of memory and systems and all",
            "start": 248.519,
            "duration": 5.92
        },
        {
            "text": "that this is just JavaScript being like",
            "start": 251.68,
            "duration": 5.48
        },
        {
            "text": "yo JavaScript you got read access all",
            "start": 254.439,
            "duration": 5.161
        },
        {
            "text": "right all right all right all right and",
            "start": 257.16,
            "duration": 5.56
        },
        {
            "text": "then just a Shazam you're just in what'",
            "start": 259.6,
            "duration": 4.8
        },
        {
            "text": "you do I wrote something and python it",
            "start": 262.72,
            "duration": 2.96
        },
        {
            "text": "leaked a bunch of memory rewrote a",
            "start": 264.4,
            "duration": 2.64
        },
        {
            "text": "program and go now it doesn't leak",
            "start": 265.68,
            "duration": 2.6
        },
        {
            "text": "memory waited two weeks and then it",
            "start": 267.04,
            "duration": 2.4
        },
        {
            "text": "started manually checking a list and",
            "start": 268.28,
            "duration": 3.84
        },
        {
            "text": "bought a b bing bada boom crushed yeah",
            "start": 269.44,
            "duration": 5.72
        },
        {
            "text": "like Gan stuff I think of Gan often Gan",
            "start": 272.12,
            "duration": 5.799
        },
        {
            "text": "just like slow conning people for for",
            "start": 275.16,
            "duration": 5.4
        },
        {
            "text": "years Catalyst okay so we did this uh",
            "start": 277.919,
            "duration": 4.361
        },
        {
            "text": "once we had all that completed uh the",
            "start": 280.56,
            "duration": 3.479
        },
        {
            "text": "data was formatted and uploaded to a",
            "start": 282.28,
            "duration": 4.88
        },
        {
            "text": "private database table users user stock",
            "start": 284.039,
            "duration": 6.0
        },
        {
            "text": "document data invoices testing",
            "start": 287.16,
            "duration": 4.92
        },
        {
            "text": "instructions employees don't know what",
            "start": 290.039,
            "duration": 5.281
        },
        {
            "text": "that is history spin roulette",
            "start": 292.08,
            "duration": 6.92
        },
        {
            "text": "redeem oh no all records 125 million",
            "start": 295.32,
            "duration": 6.92
        },
        {
            "text": "names 84 million emails 106 million",
            "start": 299.0,
            "duration": 5.919
        },
        {
            "text": "phone numbers 33 million passwords 20",
            "start": 302.24,
            "duration": 4.92
        },
        {
            "text": "million billing info Bank details",
            "start": 304.919,
            "duration": 5.72
        },
        {
            "text": "invoices Etc 27 million there's probably",
            "start": 307.16,
            "duration": 5.479
        },
        {
            "text": "a large there's probably a much larger",
            "start": 310.639,
            "duration": 4.881
        },
        {
            "text": "list short list of affected sites by the",
            "start": 312.639,
            "duration": 5.321
        },
        {
            "text": "way so quick question did you inform uh",
            "start": 315.52,
            "duration": 5.6
        },
        {
            "text": "Sid LMS did you inform Sid of LMS a",
            "start": 317.96,
            "duration": 4.76
        },
        {
            "text": "learning management system for students",
            "start": 321.12,
            "duration": 3.919
        },
        {
            "text": "and teachers most total exposed user",
            "start": 322.72,
            "duration": 5.08
        },
        {
            "text": "records 27 a million affected users name",
            "start": 325.039,
            "duration": 5.121
        },
        {
            "text": "emails and phone numbers damn",
            "start": 327.8,
            "duration": 4.56
        },
        {
            "text": "yes disclosure was done okay online",
            "start": 330.16,
            "duration": 3.68
        },
        {
            "text": "gambling Network okay that's not too",
            "start": 332.36,
            "duration": 3.04
        },
        {
            "text": "surprising gambling networks are",
            "start": 333.84,
            "duration": 3.52
        },
        {
            "text": "typically set up just just gorilla just",
            "start": 335.4,
            "duration": 4.919
        },
        {
            "text": "gorilla domains uh compromised of nine",
            "start": 337.36,
            "duration": 4.76
        },
        {
            "text": "sites which are all reskinned of each",
            "start": 340.319,
            "duration": 4.121
        },
        {
            "text": "other shocking shocking reskinned low",
            "start": 342.12,
            "duration": 4.76
        },
        {
            "text": "effort gambling sites uh common spins",
            "start": 344.44,
            "duration": 6.16
        },
        {
            "text": "are rigged and have a zero chance of",
            "start": 346.88,
            "duration": 3.72
        },
        {
            "text": "winning okay I'm going to give you a",
            "start": 354.08,
            "duration": 4.72
        },
        {
            "text": "little hot take here there's sports",
            "start": 355.919,
            "duration": 4.241
        },
        {
            "text": "betting",
            "start": 358.8,
            "duration": 2.88
        },
        {
            "text": "right I I would put this under the",
            "start": 360.16,
            "duration": 3.599
        },
        {
            "text": "category of like",
            "start": 361.68,
            "duration": 4.16
        },
        {
            "text": "foolish you know I'm not really into",
            "start": 363.759,
            "duration": 4.041
        },
        {
            "text": "betting in general it's it's just kind",
            "start": 365.84,
            "duration": 4.96
        },
        {
            "text": "of like dumb then there's casinos",
            "start": 367.8,
            "duration": 5.239
        },
        {
            "text": "they're regulated they're required for",
            "start": 370.8,
            "duration": 5.28
        },
        {
            "text": "you to lose a at a certain percent so",
            "start": 373.039,
            "duration": 4.88
        },
        {
            "text": "you're not going to lose more than",
            "start": 376.08,
            "duration": 4.92
        },
        {
            "text": "96% you know over some course of time or",
            "start": 377.919,
            "duration": 4.361
        },
        {
            "text": "whatever it is depending on the game",
            "start": 381.0,
            "duration": 2.84
        },
        {
            "text": "right each game has its specific odds",
            "start": 382.28,
            "duration": 2.72
        },
        {
            "text": "you can look it up and you'll know that",
            "start": 383.84,
            "duration": 2.639
        },
        {
            "text": "if you play you know if you played a",
            "start": 385.0,
            "duration": 3.4
        },
        {
            "text": "thousand games you would lose that",
            "start": 386.479,
            "duration": 3.361
        },
        {
            "text": "amount of percent or you'd win that much",
            "start": 388.4,
            "duration": 3.239
        },
        {
            "text": "so like I think for craps you would end",
            "start": 389.84,
            "duration": 4.32
        },
        {
            "text": "up winning approximately you know like",
            "start": 391.639,
            "duration": 4.4
        },
        {
            "text": "by winning right craps is craps is like",
            "start": 394.16,
            "duration": 3.52
        },
        {
            "text": "Tetris you only lose but you would end",
            "start": 396.039,
            "duration": 3.641
        },
        {
            "text": "up winning like 460 or whatever it is",
            "start": 397.68,
            "duration": 4.68
        },
        {
            "text": "right you know there's like there there",
            "start": 399.68,
            "duration": 5.6
        },
        {
            "text": "is you are this is a 100% guaranteed",
            "start": 402.36,
            "duration": 5.44
        },
        {
            "text": "loss this is less of a guaranteed loss",
            "start": 405.28,
            "duration": 4.88
        },
        {
            "text": "this one's more confusing right you know",
            "start": 407.8,
            "duration": 6.08
        },
        {
            "text": "you got you know but then there's",
            "start": 410.16,
            "duration": 7.28
        },
        {
            "text": "unregulated gambling and it's it's slot",
            "start": 413.88,
            "duration": 5.96
        },
        {
            "text": "machines it's often in crypto and it's",
            "start": 417.44,
            "duration": 5.599
        },
        {
            "text": "on some sort of shady website yo dog",
            "start": 419.84,
            "duration": 5.479
        },
        {
            "text": "what are you doing with your life I mean",
            "start": 423.039,
            "duration": 4.88
        },
        {
            "text": "you got some strategy you're going to",
            "start": 425.319,
            "duration": 4.921
        },
        {
            "text": "lose but at a certain rate and this is",
            "start": 427.919,
            "duration": 4.801
        },
        {
            "text": "just handing somebody money what are you",
            "start": 430.24,
            "duration": 5.12
        },
        {
            "text": "doing with your life don't do that",
            "start": 432.72,
            "duration": 4.319
        },
        {
            "text": "customer support uh tried to flirt with",
            "start": 435.36,
            "duration": 3.16
        },
        {
            "text": "me uh when I attempted to report the",
            "start": 437.039,
            "duration": 3.56
        },
        {
            "text": "issue your Firebase allows uh anyone to",
            "start": 438.52,
            "duration": 3.399
        },
        {
            "text": "read information I'll send you a link do",
            "start": 440.599,
            "duration": 2.641
        },
        {
            "text": "you have a girlfriend I want to be our",
            "start": 441.919,
            "duration": 3.641
        },
        {
            "text": "girlfriend you're very smart dang it I",
            "start": 443.24,
            "duration": 3.639
        },
        {
            "text": "couldn't I actually couldn't get out",
            "start": 445.56,
            "duration": 3.24
        },
        {
            "text": "some something stupid to say at this I",
            "start": 446.879,
            "duration": 3.04
        },
        {
            "text": "actually couldn't even like I couldn't",
            "start": 448.8,
            "duration": 3.88
        },
        {
            "text": "force myself to to act normal reading",
            "start": 449.919,
            "duration": 5.041
        },
        {
            "text": "this I am actually pretty shocked that",
            "start": 452.68,
            "duration": 4.16
        },
        {
            "text": "this would be the response of customer",
            "start": 454.96,
            "duration": 3.639
        },
        {
            "text": "support and what I mean by pretty",
            "start": 456.84,
            "duration": 3.56
        },
        {
            "text": "shocked is that normally customer",
            "start": 458.599,
            "duration": 4.361
        },
        {
            "text": "support I would expect uh oh I don't I",
            "start": 460.4,
            "duration": 5.199
        },
        {
            "text": "don't understand this this is bad I",
            "start": 462.96,
            "duration": 4.28
        },
        {
            "text": "don't know what to do right like I would",
            "start": 465.599,
            "duration": 4.201
        },
        {
            "text": "expect incompetence that's a that's just",
            "start": 467.24,
            "duration": 4.519
        },
        {
            "text": "a whole new level I've never even seen",
            "start": 469.8,
            "duration": 4.76
        },
        {
            "text": "this kind of level anyways contain the",
            "start": 471.759,
            "duration": 4.201
        },
        {
            "text": "most amount of exposed Bank Account",
            "start": 474.56,
            "duration": 3.44
        },
        {
            "text": "Details logins out of all of our records",
            "start": 475.96,
            "duration": 3.919
        },
        {
            "text": "8 million also contains most PL text",
            "start": 478.0,
            "duration": 3.56
        },
        {
            "text": "passwords off all affected websites 10",
            "start": 479.879,
            "duration": 4.401
        },
        {
            "text": "Millions sh leave it to an unregulated",
            "start": 481.56,
            "duration": 4.56
        },
        {
            "text": "gambling site to store passwords in",
            "start": 484.28,
            "duration": 4.24
        },
        {
            "text": "plain text and have them readable by a",
            "start": 486.12,
            "duration": 6.079
        },
        {
            "text": "JavaScript nice nice lead carrot uh uh",
            "start": 488.52,
            "duration": 6.16
        },
        {
            "text": "online lead generation for cold calling",
            "start": 492.199,
            "duration": 4.28
        },
        {
            "text": "uh top three in total amount for",
            "start": 494.68,
            "duration": 3.639
        },
        {
            "text": "exposure user information sitting at 22",
            "start": 496.479,
            "duration": 4.641
        },
        {
            "text": "million affected people my chef tool",
            "start": 498.319,
            "duration": 4.16
        },
        {
            "text": "luckily I have done none of these",
            "start": 501.12,
            "duration": 2.88
        },
        {
            "text": "business management app and point of",
            "start": 502.479,
            "duration": 3.4
        },
        {
            "text": "service application for restaurants",
            "start": 504.0,
            "duration": 3.72
        },
        {
            "text": "first place for most uh exposed names",
            "start": 505.879,
            "duration": 5.121
        },
        {
            "text": "and second place for emails nice ni the",
            "start": 507.72,
            "duration": 6.84
        },
        {
            "text": "aftermath 842 emails sent over 13 days",
            "start": 511.0,
            "duration": 6.919
        },
        {
            "text": "85% emails delivered nine emails bounced",
            "start": 514.56,
            "duration": 5.399
        },
        {
            "text": "24% of site owners fixed mixed",
            "start": 517.919,
            "duration": 4.12
        },
        {
            "text": "configuration 1% of site owners emailed",
            "start": 519.959,
            "duration": 5.56
        },
        {
            "text": "us back 2% of site owners offered bug",
            "start": 522.039,
            "duration": 5.641
        },
        {
            "text": "Bounty I think sometimes I have such a",
            "start": 525.519,
            "duration": 6.841
        },
        {
            "text": "positive view that I would assume that a",
            "start": 527.68,
            "duration": 6.76
        },
        {
            "text": "really high percent of percentage of",
            "start": 532.36,
            "duration": 3.039
        },
        {
            "text": "people be like crap we got",
            "start": 534.44,
            "duration": 2.399
        },
        {
            "text": "misconfiguration let's fix that",
            "start": 535.399,
            "duration": 5.201
        },
        {
            "text": "immediately right we're exposing data",
            "start": 536.839,
            "duration": 7.201
        },
        {
            "text": "but man less than 1/4 less than",
            "start": 540.6,
            "duration": 8.0
        },
        {
            "text": "1/4 .01% of customer service got",
            "start": 544.04,
            "duration": 7.56
        },
        {
            "text": "laid",
            "start": 548.6,
            "duration": 3.0
        },
        {
            "text": " oh no the internet's dumber than I",
            "start": 551.76,
            "duration": 3.96
        },
        {
            "text": "thought the internet actually is the",
            "start": 554.399,
            "duration": 3.44
        },
        {
            "text": "dumbest place in the universe fixing the",
            "start": 555.72,
            "duration": 4.92
        },
        {
            "text": "issue wasn't on the Sprint this is crazy",
            "start": 557.839,
            "duration": 4.841
        },
        {
            "text": "to me this is just absolutely nuts this",
            "start": 560.64,
            "duration": 5.0
        },
        {
            "text": "is incredible work by the way um do you",
            "start": 562.68,
            "duration": 7.0
        },
        {
            "text": "have any of this stuff open source uh do",
            "start": 565.64,
            "duration": 5.759
        },
        {
            "text": "do you have any of it that that can be",
            "start": 569.68,
            "duration": 3.68
        },
        {
            "text": "perus cuz it's pretty cool that you did",
            "start": 571.399,
            "duration": 4.041
        },
        {
            "text": "this I'm curious how you got all these",
            "start": 573.36,
            "duration": 4.0
        },
        {
            "text": "websites like what was your what was",
            "start": 575.44,
            "duration": 3.56
        },
        {
            "text": "your general kind of strategy for like",
            "start": 577.36,
            "duration": 2.88
        },
        {
            "text": "did you have a strategy for which ones",
            "start": 579.0,
            "duration": 3.36
        },
        {
            "text": "you would look for was there a certain",
            "start": 580.24,
            "duration": 3.719
        },
        {
            "text": "class how did you categorize them",
            "start": 582.36,
            "duration": 2.68
        },
        {
            "text": "because this sounds like a bunch of",
            "start": 583.959,
            "duration": 3.641
        },
        {
            "text": "mixed manual work versus non-mixed",
            "start": 585.04,
            "duration": 5.239
        },
        {
            "text": "manual it's pretty cool it's super cool",
            "start": 587.6,
            "duration": 6.32
        },
        {
            "text": "absolutely amazing n fail post fire",
            "start": 590.279,
            "duration": 5.68
        },
        {
            "text": "Wreck This Is Beautiful by the way uh I",
            "start": 593.92,
            "duration": 3.24
        },
        {
            "text": "would just like to let everybody know",
            "start": 595.959,
            "duration": 3.481
        },
        {
            "text": "this is this is like a really great",
            "start": 597.16,
            "duration": 5.239
        },
        {
            "text": "great way to show expertise real talk",
            "start": 599.44,
            "duration": 5.12
        },
        {
            "text": "you go and you actually figure out",
            "start": 602.399,
            "duration": 3.88
        },
        {
            "text": "things and you do it the right way your",
            "start": 604.56,
            "duration": 4.44
        },
        {
            "text": "goal your goal is to do stuff and then",
            "start": 606.279,
            "duration": 5.041
        },
        {
            "text": "inform people and then actually try to",
            "start": 609.0,
            "duration": 4.519
        },
        {
            "text": "get things fixed and then write about",
            "start": 611.32,
            "duration": 4.36
        },
        {
            "text": "how you achieved this thing because this",
            "start": 613.519,
            "duration": 4.681
        },
        {
            "text": "is absolutely great write up just",
            "start": 615.68,
            "duration": 5.32
        },
        {
            "text": "amazing I am so pumped up about this",
            "start": 618.2,
            "duration": 4.84
        },
        {
            "text": "anyways great job great job Eva and",
            "start": 621.0,
            "duration": 4.48
        },
        {
            "text": "everybody else uh you do have XY in your",
            "start": 623.04,
            "duration": 4.239
        },
        {
            "text": "name Eva little bit worrisome okay I",
            "start": 625.48,
            "duration": 3.28
        },
        {
            "text": "don't know what version you're at okay I",
            "start": 627.279,
            "duration": 2.641
        },
        {
            "text": "don't know if this is I don't know if",
            "start": 628.76,
            "duration": 3.28
        },
        {
            "text": "this is a gan moment",
            "start": 629.92,
            "duration": 4.44
        },
        {
            "text": "here anyways I am glad I enjoyed the",
            "start": 632.04,
            "duration": 3.599
        },
        {
            "text": "Rite up yeah dude it was great hey thank",
            "start": 634.36,
            "duration": 2.68
        },
        {
            "text": "you Mr bro I'd love a little bit more",
            "start": 635.639,
            "duration": 2.921
        },
        {
            "text": "detail on some of the things cuz man I'm",
            "start": 637.04,
            "duration": 3.28
        },
        {
            "text": "just curious how like what did you look",
            "start": 638.56,
            "duration": 4.519
        },
        {
            "text": "for I have no idea I don't even know",
            "start": 640.32,
            "duration": 4.16
        },
        {
            "text": "I've never configured I've never",
            "start": 643.079,
            "duration": 2.841
        },
        {
            "text": "misconfigured Firebase let alone",
            "start": 644.48,
            "duration": 4.08
        },
        {
            "text": "configured Firebase the",
            "start": 645.92,
            "duration": 4.599
        },
        {
            "text": "name maybe I need to know a little bit",
            "start": 648.56,
            "duration": 3.399
        },
        {
            "text": "more about Firebase maybe I'm just being",
            "start": 650.519,
            "duration": 4.081
        },
        {
            "text": "weak here",
            "start": 651.959,
            "duration": 2.641
        }
    ],
    "stats": {
        "viewCount": "103535",
        "likeCount": "2992",
        "favoriteCount": "0",
        "commentCount": "218"
    }
}