{
    "id": "prgWXy9vGc4",
    "title": "When Zig Outshines Rust | Prime Reacts",
    "publishedAt": "2023-09-24T12:00:43Z",
    "captions": [
        {
            "text": "when Zig outshines rust memory efficient",
            "start": 0.0,
            "duration": 6.839
        },
        {
            "text": "enum Rays okay okay okay enums are",
            "start": 3.12,
            "duration": 5.88
        },
        {
            "text": "tagged unions whose variance uh vary in",
            "start": 6.839,
            "duration": 3.84
        },
        {
            "text": "size are prone to significant memory",
            "start": 9.0,
            "duration": 4.559
        },
        {
            "text": "fragmentation in Rust okay type one in",
            "start": 10.679,
            "duration": 5.101
        },
        {
            "text": "the chat by the way who knows what a an",
            "start": 13.559,
            "duration": 4.56
        },
        {
            "text": "enum tagged Union is okay these are not",
            "start": 15.78,
            "duration": 4.56
        },
        {
            "text": "typescript enums okay so if you if you",
            "start": 18.119,
            "duration": 4.261
        },
        {
            "text": "know what a typescript enum is don't",
            "start": 20.34,
            "duration": 3.779
        },
        {
            "text": "don't think they're the same all right",
            "start": 22.38,
            "duration": 3.36
        },
        {
            "text": "sorry I asked this question incorrectly",
            "start": 24.119,
            "duration": 3.301
        },
        {
            "text": "69 in the chat if you have just",
            "start": 25.74,
            "duration": 3.66
        },
        {
            "text": "absolutely no idea what they are okay",
            "start": 27.42,
            "duration": 3.54
        },
        {
            "text": "there's a lot of people so let's hear",
            "start": 29.4,
            "duration": 2.999
        },
        {
            "text": "I'll give you a quickie can I give you",
            "start": 30.96,
            "duration": 3.06
        },
        {
            "text": "guys a quickie so that way we make sure",
            "start": 32.399,
            "duration": 4.561
        },
        {
            "text": "everybody's on the same page uh it's",
            "start": 34.02,
            "duration": 5.34
        },
        {
            "text": "pretty straightforward okay so here do I",
            "start": 36.96,
            "duration": 3.9
        },
        {
            "text": "I don't think I have a car here I'll",
            "start": 39.36,
            "duration": 3.0
        },
        {
            "text": "just cargo knit a new project in here",
            "start": 40.86,
            "duration": 2.94
        },
        {
            "text": "whatever that's fine",
            "start": 42.36,
            "duration": 4.26
        },
        {
            "text": "we'll go to main all right so in enum",
            "start": 43.8,
            "duration": 6.06
        },
        {
            "text": "here we can go like this uh enum uh Foo",
            "start": 46.62,
            "duration": 4.919
        },
        {
            "text": "right so I've created an enum in Rust",
            "start": 49.86,
            "duration": 3.48
        },
        {
            "text": "and now I can say some different types",
            "start": 51.539,
            "duration": 3.721
        },
        {
            "text": "right I can have a bar which let's just",
            "start": 53.34,
            "duration": 5.16
        },
        {
            "text": "say it has a subtype string I can have a",
            "start": 55.26,
            "duration": 6.9
        },
        {
            "text": "baz here uh struct uh other right and",
            "start": 58.5,
            "duration": 5.699
        },
        {
            "text": "let's just say that it has a which is an",
            "start": 62.16,
            "duration": 5.76
        },
        {
            "text": "i32 and a b right I can have a bass that",
            "start": 64.199,
            "duration": 6.181
        },
        {
            "text": "contains an other I can also have a",
            "start": 67.92,
            "duration": 4.199
        },
        {
            "text": "nothing element right and I can put that",
            "start": 70.38,
            "duration": 3.18
        },
        {
            "text": "at the tippity top little optimization",
            "start": 72.119,
            "duration": 3.721
        },
        {
            "text": "whatever not a big deal uh but this is",
            "start": 73.56,
            "duration": 4.08
        },
        {
            "text": "an enum what it does is it actually",
            "start": 75.84,
            "duration": 4.919
        },
        {
            "text": "shows it's a way to tag",
            "start": 77.64,
            "duration": 6.18
        },
        {
            "text": "different types right so what happens",
            "start": 80.759,
            "duration": 5.461
        },
        {
            "text": "underneath the hood is that it has I",
            "start": 83.82,
            "duration": 4.38
        },
        {
            "text": "think I think it's just your system word",
            "start": 86.22,
            "duration": 5.219
        },
        {
            "text": "size of what type it is and then the",
            "start": 88.2,
            "duration": 5.04
        },
        {
            "text": "rest of the memory is devoted to the",
            "start": 91.439,
            "duration": 3.961
        },
        {
            "text": "type underneath the hood so that way so",
            "start": 93.24,
            "duration": 4.68
        },
        {
            "text": "like the equivalent of this in in",
            "start": 95.4,
            "duration": 4.2
        },
        {
            "text": "um in typescript would be something like",
            "start": 97.92,
            "duration": 6.0
        },
        {
            "text": "this right type Foo equals uh undefined",
            "start": 99.6,
            "duration": 8.46
        },
        {
            "text": "or string or other right like I think",
            "start": 103.92,
            "duration": 5.82
        },
        {
            "text": "that would be the equivalent but they're",
            "start": 108.06,
            "duration": 3.72
        },
        {
            "text": "not quite the equivalent right they're",
            "start": 109.74,
            "duration": 3.659
        },
        {
            "text": "not quite the equivalent because when I",
            "start": 111.78,
            "duration": 5.46
        },
        {
            "text": "want to go like this uh Foo equals uh",
            "start": 113.399,
            "duration": 7.921
        },
        {
            "text": "Foo bar uh hello uh into there we go",
            "start": 117.24,
            "duration": 6.3
        },
        {
            "text": "I've just created a bar",
            "start": 121.32,
            "duration": 4.32
        },
        {
            "text": "right but it's just a foo size right so",
            "start": 123.54,
            "duration": 3.899
        },
        {
            "text": "it's just type Foo I can pass this food",
            "start": 125.64,
            "duration": 4.14
        },
        {
            "text": "to any function and it's just a food it",
            "start": 127.439,
            "duration": 4.02
        },
        {
            "text": "takes in function food it takes in that",
            "start": 129.78,
            "duration": 3.42
        },
        {
            "text": "type food to be able to do something",
            "start": 131.459,
            "duration": 4.441
        },
        {
            "text": "here with Foo I have to lift it right",
            "start": 133.2,
            "duration": 5.1
        },
        {
            "text": "and so I have to lift the actual inner",
            "start": 135.9,
            "duration": 5.22
        },
        {
            "text": "value out of it this one would be if",
            "start": 138.3,
            "duration": 5.159
        },
        {
            "text": "it's a type bar if it's a foo bar then",
            "start": 141.12,
            "duration": 4.259
        },
        {
            "text": "we get the string out if it's a foo baz",
            "start": 143.459,
            "duration": 4.381
        },
        {
            "text": "we get the other object out so it's a",
            "start": 145.379,
            "duration": 3.781
        },
        {
            "text": "little different than typescript because",
            "start": 147.84,
            "duration": 3.18
        },
        {
            "text": "typescript what you do with typescript",
            "start": 149.16,
            "duration": 4.86
        },
        {
            "text": "is that you'd go if undefined handle the",
            "start": 151.02,
            "duration": 4.68
        },
        {
            "text": "undefined case",
            "start": 154.02,
            "duration": 3.12
        },
        {
            "text": "if",
            "start": 155.7,
            "duration": 6.179
        },
        {
            "text": "a is in the thing if type of is string",
            "start": 157.14,
            "duration": 6.959
        },
        {
            "text": "do the thing else it's the other one",
            "start": 161.879,
            "duration": 3.241
        },
        {
            "text": "right so it's kind of like you have to",
            "start": 164.099,
            "duration": 2.941
        },
        {
            "text": "do a bunch of if else's as opposed to a",
            "start": 165.12,
            "duration": 4.08
        },
        {
            "text": "pattern match on top of it plus it's",
            "start": 167.04,
            "duration": 4.199
        },
        {
            "text": "efficiently stored its type is stored as",
            "start": 169.2,
            "duration": 3.96
        },
        {
            "text": "part of the information so this pattern",
            "start": 171.239,
            "duration": 4.14
        },
        {
            "text": "match is effectively the same thing like",
            "start": 173.16,
            "duration": 5.04
        },
        {
            "text": "comparing a integer right so it's very",
            "start": 175.379,
            "duration": 5.521
        },
        {
            "text": "fast it's just a it's just a it's it's",
            "start": 178.2,
            "duration": 4.5
        },
        {
            "text": "just a comparison of an incher whereas a",
            "start": 180.9,
            "duration": 5.479
        },
        {
            "text": "switch is not a comparison of an integer",
            "start": 182.7,
            "duration": 3.679
        },
        {
            "text": "let's see you can serialize a tagged",
            "start": 187.44,
            "duration": 3.54
        },
        {
            "text": "Union with typescript you cannot without",
            "start": 189.239,
            "duration": 3.301
        },
        {
            "text": "keeping the type exactly so this is",
            "start": 190.98,
            "duration": 3.899
        },
        {
            "text": "another cool part about a tagged Union",
            "start": 192.54,
            "duration": 4.26
        },
        {
            "text": "you can serialize them",
            "start": 194.879,
            "duration": 4.681
        },
        {
            "text": "like integers on and then deserialize",
            "start": 196.8,
            "duration": 4.079
        },
        {
            "text": "them back into that tagged Union",
            "start": 199.56,
            "duration": 4.259
        },
        {
            "text": "structure it's pretty cool",
            "start": 200.879,
            "duration": 4.921
        },
        {
            "text": "what did I use into okay well this is",
            "start": 203.819,
            "duration": 3.84
        },
        {
            "text": "just a rust question now this right here",
            "start": 205.8,
            "duration": 3.84
        },
        {
            "text": "is a stir why is it a stir when you",
            "start": 207.659,
            "duration": 4.021
        },
        {
            "text": "compile a program and you just raw dog a",
            "start": 209.64,
            "duration": 3.959
        },
        {
            "text": "string right into a program this is",
            "start": 211.68,
            "duration": 3.96
        },
        {
            "text": "actually the type the underlying type is",
            "start": 213.599,
            "duration": 3.78
        },
        {
            "text": "a static oh I don't know how I got that",
            "start": 215.64,
            "duration": 3.42
        },
        {
            "text": "little T in there is a static stir",
            "start": 217.379,
            "duration": 3.601
        },
        {
            "text": "because it's in memory somewhere right",
            "start": 219.06,
            "duration": 3.899
        },
        {
            "text": "that string is like actually in the",
            "start": 220.98,
            "duration": 3.42
        },
        {
            "text": "memory of the program if you looked at",
            "start": 222.959,
            "duration": 3.301
        },
        {
            "text": "the binary there would just be a hello",
            "start": 224.4,
            "duration": 4.02
        },
        {
            "text": "somewhere within there and so it's just",
            "start": 226.26,
            "duration": 4.08
        },
        {
            "text": "a reference to that point so to create",
            "start": 228.42,
            "duration": 4.5
        },
        {
            "text": "it into a capital S string which is like",
            "start": 230.34,
            "duration": 4.5
        },
        {
            "text": "an object right which is its own object",
            "start": 232.92,
            "duration": 4.02
        },
        {
            "text": "with its own underlying copy of memory",
            "start": 234.84,
            "duration": 3.78
        },
        {
            "text": "which that memory hello is located",
            "start": 236.94,
            "duration": 3.54
        },
        {
            "text": "somewhere on",
            "start": 238.62,
            "duration": 4.619
        },
        {
            "text": "um somewhere on the Heap that's what I",
            "start": 240.48,
            "duration": 5.64
        },
        {
            "text": "just did but Mr HDMX uh made an improved",
            "start": 243.239,
            "duration": 5.28
        },
        {
            "text": "uh morph Dom oh cool that's something I",
            "start": 246.12,
            "duration": 4.92
        },
        {
            "text": "would want to look at okay anyways so",
            "start": 248.519,
            "duration": 4.021
        },
        {
            "text": "now that everyone knows what a tagged",
            "start": 251.04,
            "duration": 3.0
        },
        {
            "text": "Union is and kind of how to use it and",
            "start": 252.54,
            "duration": 3.599
        },
        {
            "text": "what was going on there let's go back",
            "start": 254.04,
            "duration": 3.84
        },
        {
            "text": "into the article so consider this one",
            "start": 256.139,
            "duration": 3.421
        },
        {
            "text": "Foo there you go so here again here's",
            "start": 257.88,
            "duration": 2.819
        },
        {
            "text": "the tagged Union with its different",
            "start": 259.56,
            "duration": 4.68
        },
        {
            "text": "types A is a u8 b would be a type u16 32",
            "start": 260.699,
            "duration": 5.461
        },
        {
            "text": "so here you go because of the space",
            "start": 264.24,
            "duration": 3.78
        },
        {
            "text": "needed for tagging and Alignment this",
            "start": 266.16,
            "duration": 3.66
        },
        {
            "text": "type is 16 bytes long this makes sense",
            "start": 268.02,
            "duration": 3.72
        },
        {
            "text": "because remember so one thing I forgot",
            "start": 269.82,
            "duration": 5.819
        },
        {
            "text": "to say is any tagged Union contains",
            "start": 271.74,
            "duration": 6.239
        },
        {
            "text": "the size of a tagged unit contains the",
            "start": 275.639,
            "duration": 6.141
        },
        {
            "text": "the tag plus it contains the largest",
            "start": 277.979,
            "duration": 6.541
        },
        {
            "text": "submember so the this members one byte",
            "start": 281.78,
            "duration": 4.479
        },
        {
            "text": "this is two bytes this is four bytes",
            "start": 284.52,
            "duration": 4.02
        },
        {
            "text": "this is eight bytes so one tag which is",
            "start": 286.259,
            "duration": 3.541
        },
        {
            "text": "usually system width so that would be",
            "start": 288.54,
            "duration": 3.9
        },
        {
            "text": "you know a u64 effectively then another",
            "start": 289.8,
            "duration": 4.26
        },
        {
            "text": "one of these so that'd be 16 bytes which",
            "start": 292.44,
            "duration": 3.18
        },
        {
            "text": "they say right here right you can see",
            "start": 294.06,
            "duration": 3.84
        },
        {
            "text": "that right here it contains each one of",
            "start": 295.62,
            "duration": 3.9
        },
        {
            "text": "the the units and that's just how a",
            "start": 297.9,
            "duration": 3.54
        },
        {
            "text": "union Works in C it's how it works at",
            "start": 299.52,
            "duration": 3.66
        },
        {
            "text": "any language and you can't complain",
            "start": 301.44,
            "duration": 3.12
        },
        {
            "text": "about in typescript because well if",
            "start": 303.18,
            "duration": 3.06
        },
        {
            "text": "you're using JavaScript which everything",
            "start": 304.56,
            "duration": 3.66
        },
        {
            "text": "is like a minimum of 16 bytes it's just",
            "start": 306.24,
            "duration": 4.62
        },
        {
            "text": "gigantic uh this presents real pain when",
            "start": 308.22,
            "duration": 4.979
        },
        {
            "text": "collecting a large number of them into a",
            "start": 310.86,
            "duration": 4.38
        },
        {
            "text": "vector hash map okay this makes sense",
            "start": 313.199,
            "duration": 3.78
        },
        {
            "text": "this actually makes sense so this tag",
            "start": 315.24,
            "duration": 3.48
        },
        {
            "text": "and padding thing is kind of interesting",
            "start": 316.979,
            "duration": 3.66
        },
        {
            "text": "you can have a lot of them obviously the",
            "start": 318.72,
            "duration": 3.36
        },
        {
            "text": "reason why they choose this I believe is",
            "start": 320.639,
            "duration": 3.84
        },
        {
            "text": "uh reading speed right it's it's just",
            "start": 322.08,
            "duration": 4.14
        },
        {
            "text": "more efficient to read out an entire",
            "start": 324.479,
            "duration": 5.101
        },
        {
            "text": "word than it is to read out some u8 and",
            "start": 326.22,
            "duration": 5.58
        },
        {
            "text": "so just a thing to think about uh you",
            "start": 329.58,
            "duration": 3.78
        },
        {
            "text": "can handle specialized data structures",
            "start": 331.8,
            "duration": 3.6
        },
        {
            "text": "for particular for particular enums that",
            "start": 333.36,
            "duration": 4.44
        },
        {
            "text": "reduce fragmentation to a minimum but",
            "start": 335.4,
            "duration": 4.859
        },
        {
            "text": "doing this generically or generically",
            "start": 337.8,
            "duration": 4.14
        },
        {
            "text": "for an arbitrary enum with maximum",
            "start": 340.259,
            "duration": 3.601
        },
        {
            "text": "memory efficiency is close to Impossible",
            "start": 341.94,
            "duration": 4.259
        },
        {
            "text": "in Rust the only option we have are proc",
            "start": 343.86,
            "duration": 5.1
        },
        {
            "text": "macros which compose poorly no derive on",
            "start": 346.199,
            "duration": 5.401
        },
        {
            "text": "third-party code or type aliases and are",
            "start": 348.96,
            "duration": 4.799
        },
        {
            "text": "not type aware unless using workarounds",
            "start": 351.6,
            "duration": 4.8
        },
        {
            "text": "based on generic const Expressions which",
            "start": 353.759,
            "duration": 5.041
        },
        {
            "text": "infect the call graph with the verbose",
            "start": 356.4,
            "duration": 4.56
        },
        {
            "text": "trait bounds and don't work with generic",
            "start": 358.8,
            "duration": 4.32
        },
        {
            "text": "type parameters so all this to say I",
            "start": 360.96,
            "duration": 3.6
        },
        {
            "text": "have no idea what he's talking about but",
            "start": 363.12,
            "duration": 3.48
        },
        {
            "text": "that sounds that sounds terrible or",
            "start": 364.56,
            "duration": 4.919
        },
        {
            "text": "congratulations I'm sorry a zig on the",
            "start": 366.6,
            "duration": 4.68
        },
        {
            "text": "other hand lets us perform the wildest",
            "start": 369.479,
            "duration": 3.66
        },
        {
            "text": "data structure transformations in a",
            "start": 371.28,
            "duration": 3.54
        },
        {
            "text": "generic concise way",
            "start": 373.139,
            "duration": 4.441
        },
        {
            "text": "well that's exciting I like that I like",
            "start": 374.82,
            "duration": 4.56
        },
        {
            "text": "the sounds of that because I understand",
            "start": 377.58,
            "duration": 3.839
        },
        {
            "text": "the problem right so just for everyone",
            "start": 379.38,
            "duration": 3.96
        },
        {
            "text": "to understand the problem let's say you",
            "start": 381.419,
            "duration": 5.461
        },
        {
            "text": "had a million a million Foods right and",
            "start": 383.34,
            "duration": 6.12
        },
        {
            "text": "almost every single Foo",
            "start": 386.88,
            "duration": 5.819
        },
        {
            "text": "is an A and you have very few of these",
            "start": 389.46,
            "duration": 5.28
        },
        {
            "text": "other ones right like let's just say Foo",
            "start": 392.699,
            "duration": 4.861
        },
        {
            "text": "represents a utf-8 encoding and it's",
            "start": 394.74,
            "duration": 5.399
        },
        {
            "text": "it's an English paper most of them are",
            "start": 397.56,
            "duration": 4.44
        },
        {
            "text": "going to be this maybe there's some sort",
            "start": 400.139,
            "duration": 3.541
        },
        {
            "text": "of weirdness that actually causes some",
            "start": 402.0,
            "duration": 4.199
        },
        {
            "text": "other large character right I get I know",
            "start": 403.68,
            "duration": 5.16
        },
        {
            "text": "u64 is not utf-8 encoding I get what",
            "start": 406.199,
            "duration": 4.081
        },
        {
            "text": "you're saying and so what's going to be",
            "start": 408.84,
            "duration": 3.06
        },
        {
            "text": "is you're going to have like all this",
            "start": 410.28,
            "duration": 4.62
        },
        {
            "text": "unused space in every single spot right",
            "start": 411.9,
            "duration": 4.859
        },
        {
            "text": "you're only using two bytes out of 16",
            "start": 414.9,
            "duration": 4.019
        },
        {
            "text": "one out of eight so you're only using",
            "start": 416.759,
            "duration": 3.78
        },
        {
            "text": "like 12 and a half percent of your",
            "start": 418.919,
            "duration": 4.381
        },
        {
            "text": "memory at any one time almost throughout",
            "start": 420.539,
            "duration": 4.621
        },
        {
            "text": "the entire array which ends up being 16",
            "start": 423.3,
            "duration": 5.519
        },
        {
            "text": "megabytes which is a lot of memory",
            "start": 425.16,
            "duration": 5.879
        },
        {
            "text": "so I I get I get the argument the",
            "start": 428.819,
            "duration": 3.061
        },
        {
            "text": "argument",
            "start": 431.039,
            "duration": 3.0
        },
        {
            "text": "sucks you want a tight structure you",
            "start": 431.88,
            "duration": 3.78
        },
        {
            "text": "want yeah you want you want to pack it",
            "start": 434.039,
            "duration": 4.021
        },
        {
            "text": "you want to pack a tat but that's the",
            "start": 435.66,
            "duration": 4.259
        },
        {
            "text": "problem about unions they need the space",
            "start": 438.06,
            "duration": 3.359
        },
        {
            "text": "they have to have the space because you",
            "start": 439.919,
            "duration": 2.881
        },
        {
            "text": "have to be able to lay out memory in a",
            "start": 441.419,
            "duration": 2.521
        },
        {
            "text": "certain way",
            "start": 442.8,
            "duration": 2.519
        },
        {
            "text": "let's see before I go to the",
            "start": 443.94,
            "duration": 2.759
        },
        {
            "text": "implementation details I'd like to",
            "start": 445.319,
            "duration": 3.181
        },
        {
            "text": "explain why reducing the aforementioned",
            "start": 446.699,
            "duration": 3.72
        },
        {
            "text": "memory fragmentation is a useful in",
            "start": 448.5,
            "duration": 4.68
        },
        {
            "text": "practice okay background to me one of",
            "start": 450.419,
            "duration": 4.261
        },
        {
            "text": "the biggest motivators for efficient",
            "start": 453.18,
            "duration": 3.78
        },
        {
            "text": "enum arrays have been compilers one",
            "start": 454.68,
            "duration": 3.66
        },
        {
            "text": "problem that keeps coming up when",
            "start": 456.96,
            "duration": 3.359
        },
        {
            "text": "designing an AST is figuring out how to",
            "start": 458.34,
            "duration": 5.16
        },
        {
            "text": "reduce its memory footprint big ASDS you",
            "start": 460.319,
            "duration": 5.521
        },
        {
            "text": "know girl you know I like big asts can",
            "start": 463.5,
            "duration": 4.319
        },
        {
            "text": "incur a hefty performance penalty during",
            "start": 465.84,
            "duration": 3.72
        },
        {
            "text": "compilation because memory bandwidth and",
            "start": 467.819,
            "duration": 3.66
        },
        {
            "text": "latency are frequently bottleneck in a",
            "start": 469.56,
            "duration": 4.38
        },
        {
            "text": "computer front end Chandler Kurt's video",
            "start": 471.479,
            "duration": 4.44
        },
        {
            "text": "on carbon compiler has been making the",
            "start": 473.94,
            "duration": 4.379
        },
        {
            "text": "rounds on language forums in it he",
            "start": 475.919,
            "duration": 4.701
        },
        {
            "text": "describes how he parsed clang AST",
            "start": 478.319,
            "duration": 5.521
        },
        {
            "text": "regularly consumes 50x more memory than",
            "start": 480.62,
            "duration": 5.139
        },
        {
            "text": "the original source code",
            "start": 483.84,
            "duration": 5.699
        },
        {
            "text": "dang dang that's a lot of I mean think",
            "start": 485.759,
            "duration": 5.761
        },
        {
            "text": "about it source code is largely like",
            "start": 489.539,
            "duration": 4.801
        },
        {
            "text": "white space too there's so much white",
            "start": 491.52,
            "duration": 4.32
        },
        {
            "text": "space in code",
            "start": 494.34,
            "duration": 3.9
        },
        {
            "text": "and you're telling me that it's like 50x",
            "start": 495.84,
            "duration": 5.639
        },
        {
            "text": "more memory that's crazy all right so",
            "start": 498.24,
            "duration": 4.679
        },
        {
            "text": "what does this have to do with enums",
            "start": 501.479,
            "duration": 2.94
        },
        {
            "text": "well the most common way of representing",
            "start": 502.919,
            "duration": 5.161
        },
        {
            "text": "a syntax tree nodes is by uh is via some",
            "start": 504.419,
            "duration": 5.581
        },
        {
            "text": "kind of recursion or recursion like data",
            "start": 508.08,
            "duration": 4.379
        },
        {
            "text": "structure let's define a node for",
            "start": 510.0,
            "duration": 4.5
        },
        {
            "text": "expressions in Rust using our new type",
            "start": 512.459,
            "duration": 3.901
        },
        {
            "text": "indices for indirection",
            "start": 514.5,
            "duration": 5.099
        },
        {
            "text": "expression unit number binary so there",
            "start": 516.36,
            "duration": 5.039
        },
        {
            "text": "you go so like this looks just like this",
            "start": 519.599,
            "duration": 3.06
        },
        {
            "text": "if you've done anything with like the",
            "start": 521.399,
            "duration": 2.82
        },
        {
            "text": "thorsten ball book uh building an",
            "start": 522.659,
            "duration": 3.24
        },
        {
            "text": "interpreter this looks like you you",
            "start": 524.219,
            "duration": 4.081
        },
        {
            "text": "immediately recognize this right",
            "start": 525.899,
            "duration": 4.5
        },
        {
            "text": "we can write an AST node in O camel",
            "start": 528.3,
            "duration": 6.36
        },
        {
            "text": "let's go let's go oh camel let's go oh",
            "start": 530.399,
            "duration": 5.461
        },
        {
            "text": "Campbell",
            "start": 534.66,
            "duration": 2.52
        },
        {
            "text": "um there you go you got the exact same",
            "start": 535.86,
            "duration": 3.479
        },
        {
            "text": "thing this all looks good a big",
            "start": 537.18,
            "duration": 3.54
        },
        {
            "text": "difference compared to rust is that we",
            "start": 539.339,
            "duration": 3.241
        },
        {
            "text": "uh can express truly recursive data",
            "start": 540.72,
            "duration": 3.54
        },
        {
            "text": "types without any form of explicit",
            "start": 542.58,
            "duration": 3.36
        },
        {
            "text": "indirection that's because the runtime",
            "start": 544.26,
            "duration": 3.66
        },
        {
            "text": "system and garbage uh",
            "start": 545.94,
            "duration": 3.839
        },
        {
            "text": "a garbage collector take care of memory",
            "start": 547.92,
            "duration": 3.78
        },
        {
            "text": "bookkeeping for us yes this is true it",
            "start": 549.779,
            "duration": 4.56
        },
        {
            "text": "just makes everything an O camel is just",
            "start": 551.7,
            "duration": 4.44
        },
        {
            "text": "slightly easier you just have to learn a",
            "start": 554.339,
            "duration": 3.841
        },
        {
            "text": "new syntax which is emotional which is",
            "start": 556.14,
            "duration": 3.18
        },
        {
            "text": "what I want to do but I just haven't",
            "start": 558.18,
            "duration": 3.24
        },
        {
            "text": "done it yet the problem uh we have now",
            "start": 559.32,
            "duration": 3.48
        },
        {
            "text": "is that we want to improve packing",
            "start": 561.42,
            "duration": 3.72
        },
        {
            "text": "efficiency of those enums a simple VEC",
            "start": 562.8,
            "duration": 4.26
        },
        {
            "text": "expression will consume size of enum",
            "start": 565.14,
            "duration": 3.48
        },
        {
            "text": "this is actually a really great article",
            "start": 567.06,
            "duration": 3.42
        },
        {
            "text": "I love where this is going this is",
            "start": 568.62,
            "duration": 3.779
        },
        {
            "text": "fantastic amount of memory for every",
            "start": 570.48,
            "duration": 3.66
        },
        {
            "text": "element which corresponds to the size of",
            "start": 572.399,
            "duration": 3.181
        },
        {
            "text": "the largest variant plus tag plus",
            "start": 574.14,
            "duration": 4.02
        },
        {
            "text": "padding uh luckily there are some ways",
            "start": 575.58,
            "duration": 4.379
        },
        {
            "text": "of dealing with this reducing",
            "start": 578.16,
            "duration": 3.179
        },
        {
            "text": "fragmentation let's take a simple",
            "start": 579.959,
            "duration": 3.601
        },
        {
            "text": "example of a three variant enum with a",
            "start": 581.339,
            "duration": 4.921
        },
        {
            "text": "member sizes 8 16 and 32 bytes storing",
            "start": 583.56,
            "duration": 4.08
        },
        {
            "text": "those in a regular VEC would look",
            "start": 586.26,
            "duration": 2.579
        },
        {
            "text": "something like this",
            "start": 587.64,
            "duration": 3.3
        },
        {
            "text": "this makes perfect sense right every is",
            "start": 588.839,
            "duration": 4.381
        },
        {
            "text": "everybody on board with this by the way",
            "start": 590.94,
            "duration": 4.32
        },
        {
            "text": "this guy is using Excalibur can we all",
            "start": 593.22,
            "duration": 3.54
        },
        {
            "text": "take a second and appreciate a little",
            "start": 595.26,
            "duration": 3.54
        },
        {
            "text": "bit of excalator",
            "start": 596.76,
            "duration": 4.32
        },
        {
            "text": "right this is some good Excalibur skills",
            "start": 598.8,
            "duration": 4.2
        },
        {
            "text": "right here I think he's using Excalibur",
            "start": 601.08,
            "duration": 4.68
        },
        {
            "text": "dude o camel is rising oh camel is a Big",
            "start": 603.0,
            "duration": 5.22
        },
        {
            "text": "W I'm getting excited about it uh the",
            "start": 605.76,
            "duration": 3.84
        },
        {
            "text": "most common way to improve packing",
            "start": 608.22,
            "duration": 2.88
        },
        {
            "text": "efficiency is by keeping the enum",
            "start": 609.6,
            "duration": 3.12
        },
        {
            "text": "variants as small as possible using",
            "start": 611.1,
            "duration": 4.56
        },
        {
            "text": "tagged indices for example in Rust take",
            "start": 612.72,
            "duration": 4.679
        },
        {
            "text": "a look at the tagged index crate used by",
            "start": 615.66,
            "duration": 3.54
        },
        {
            "text": "the compiler or check out the recent",
            "start": 617.399,
            "duration": 3.841
        },
        {
            "text": "blog post on small string optimizations",
            "start": 619.2,
            "duration": 4.5
        },
        {
            "text": "you'll find these optimizations all uh",
            "start": 621.24,
            "duration": 4.32
        },
        {
            "text": "the time in high performance code like a",
            "start": 623.7,
            "duration": 3.12
        },
        {
            "text": "language runtimes garbage collectors",
            "start": 625.56,
            "duration": 3.0
        },
        {
            "text": "compilers game engines and Os kernels",
            "start": 626.82,
            "duration": 3.0
        },
        {
            "text": "okay very cool we won't look at those",
            "start": 628.56,
            "duration": 3.6
        },
        {
            "text": "but exciting unfortunately that doesn't",
            "start": 629.82,
            "duration": 4.079
        },
        {
            "text": "completely solve the fragmentation issue",
            "start": 632.16,
            "duration": 4.799
        },
        {
            "text": "the other way to tackle the container uh",
            "start": 633.899,
            "duration": 5.401
        },
        {
            "text": "let's see the other way to tackle the",
            "start": 636.959,
            "duration": 4.681
        },
        {
            "text": "container type directly oh whoopsies the",
            "start": 639.3,
            "duration": 3.9
        },
        {
            "text": "other way is to tackle the container",
            "start": 641.64,
            "duration": 3.36
        },
        {
            "text": "type directly we could use a struct of",
            "start": 643.2,
            "duration": 3.06
        },
        {
            "text": "arrays approach to store the",
            "start": 645.0,
            "duration": 3.48
        },
        {
            "text": "discriminants and values in two separate",
            "start": 646.26,
            "duration": 4.74
        },
        {
            "text": "allocations in fact that's uh what the",
            "start": 648.48,
            "duration": 5.52
        },
        {
            "text": "self-hosted zig compiler actually does",
            "start": 651.0,
            "duration": 6.18
        },
        {
            "text": "okay okay this makes sense an array of",
            "start": 654.0,
            "duration": 5.279
        },
        {
            "text": "structs approach was practically ECS at",
            "start": 657.18,
            "duration": 4.08
        },
        {
            "text": "this point the tag and Union are stored",
            "start": 659.279,
            "duration": 4.081
        },
        {
            "text": "in two separate allocations so we're not",
            "start": 661.26,
            "duration": 4.5
        },
        {
            "text": "paying for padding anymore however the",
            "start": 663.36,
            "duration": 3.96
        },
        {
            "text": "union collection still has the variant",
            "start": 665.76,
            "duration": 3.72
        },
        {
            "text": "fragmentation yes this makes sense",
            "start": 667.32,
            "duration": 4.56
        },
        {
            "text": "because you have to store does this make",
            "start": 669.48,
            "duration": 3.9
        },
        {
            "text": "sense is everyone",
            "start": 671.88,
            "duration": 3.3
        },
        {
            "text": "understanding this",
            "start": 673.38,
            "duration": 5.28
        },
        {
            "text": "like if you still have an array of 8 16s",
            "start": 675.18,
            "duration": 5.88
        },
        {
            "text": "and 32s that still means you have to",
            "start": 678.66,
            "duration": 5.1
        },
        {
            "text": "have an array of only 32s",
            "start": 681.06,
            "duration": 5.279
        },
        {
            "text": "and all these eights and 16s just fit in",
            "start": 683.76,
            "duration": 4.38
        },
        {
            "text": "the 32s right",
            "start": 686.339,
            "duration": 4.021
        },
        {
            "text": "that makes sense because of zig's stage",
            "start": 688.14,
            "duration": 3.72
        },
        {
            "text": "compilation we have a container types",
            "start": 690.36,
            "duration": 3.719
        },
        {
            "text": "that perform this SOA struct of arrays",
            "start": 691.86,
            "duration": 4.26
        },
        {
            "text": "transformation generically for any type",
            "start": 694.079,
            "duration": 4.801
        },
        {
            "text": "in Rust we're constrained to proc macros",
            "start": 696.12,
            "duration": 4.98
        },
        {
            "text": "like structs of arrays derived which has",
            "start": 698.88,
            "duration": 4.26
        },
        {
            "text": "several downsides we can't place derive",
            "start": 701.1,
            "duration": 3.359
        },
        {
            "text": "on third party yep we've already talked",
            "start": 703.14,
            "duration": 2.16
        },
        {
            "text": "about that",
            "start": 704.459,
            "duration": 3.261
        },
        {
            "text": "reducing variant fragmentation",
            "start": 705.3,
            "duration": 4.92
        },
        {
            "text": "this structure of array a transformation",
            "start": 707.72,
            "duration": 5.32
        },
        {
            "text": "reduces a loss of way a lot of wasted",
            "start": 710.22,
            "duration": 4.859
        },
        {
            "text": "padding introduced by the enum tag but",
            "start": 713.04,
            "duration": 4.32
        },
        {
            "text": "still isn't optimal to really get rid of",
            "start": 715.079,
            "duration": 3.661
        },
        {
            "text": "fragmentation of the values we can",
            "start": 717.36,
            "duration": 5.4
        },
        {
            "text": "create a create one vector per variant",
            "start": 718.74,
            "duration": 5.88
        },
        {
            "text": "okay this would be hard because now you",
            "start": 722.76,
            "duration": 3.48
        },
        {
            "text": "have to use because one thing they're",
            "start": 724.62,
            "duration": 2.88
        },
        {
            "text": "missing in here is that you'd have to",
            "start": 726.24,
            "duration": 3.0
        },
        {
            "text": "have some level of bookkeeping right",
            "start": 727.5,
            "duration": 4.44
        },
        {
            "text": "you'd have to have something that tells",
            "start": 729.24,
            "duration": 4.5
        },
        {
            "text": "something else where to look for this",
            "start": 731.94,
            "duration": 4.139
        },
        {
            "text": "information right it's you can't just do",
            "start": 733.74,
            "duration": 5.36
        },
        {
            "text": "three separate arrays for freezing",
            "start": 736.079,
            "duration": 6.061
        },
        {
            "text": "uh size equivalent classes we could stop",
            "start": 739.1,
            "duration": 4.54
        },
        {
            "text": "here but let's consider items that have",
            "start": 742.14,
            "duration": 3.3
        },
        {
            "text": "lots of variants that can be grouped",
            "start": 743.64,
            "duration": 3.54
        },
        {
            "text": "into small number of clusters with the",
            "start": 745.44,
            "duration": 4.079
        },
        {
            "text": "same type size okay",
            "start": 747.18,
            "duration": 4.98
        },
        {
            "text": "a b and c and d these are all the same",
            "start": 749.519,
            "duration": 6.301
        },
        {
            "text": "thing okay nice yep e f yeah yeah yeah",
            "start": 752.16,
            "duration": 4.98
        },
        {
            "text": "yeah yeah yeah",
            "start": 755.82,
            "duration": 4.62
        },
        {
            "text": "and then I four four okay beautiful",
            "start": 757.14,
            "duration": 5.639
        },
        {
            "text": "beautiful",
            "start": 760.44,
            "duration": 5.1
        },
        {
            "text": "look at that a u32 and a u32 wait hold",
            "start": 762.779,
            "duration": 6.481
        },
        {
            "text": "on wait these aren't the same I should I",
            "start": 765.54,
            "duration": 5.52
        },
        {
            "text": "looks larger oh I is supposed to be",
            "start": 769.26,
            "duration": 3.3
        },
        {
            "text": "thinner I it's hard for me to read what",
            "start": 771.06,
            "duration": 2.82
        },
        {
            "text": "I supposed to mean",
            "start": 772.56,
            "duration": 4.44
        },
        {
            "text": "anyways okay as you can see the once per",
            "start": 773.88,
            "duration": 5.519
        },
        {
            "text": "a variant approach would add 15 vectors",
            "start": 777.0,
            "duration": 4.8
        },
        {
            "text": "it's like the number of reallocations in",
            "start": 779.399,
            "duration": 3.361
        },
        {
            "text": "the system's call would increase",
            "start": 781.8,
            "duration": 2.64
        },
        {
            "text": "substantially and that requires a lot of",
            "start": 782.76,
            "duration": 4.259
        },
        {
            "text": "memory uh to amortize compared to the",
            "start": 784.44,
            "duration": 5.1
        },
        {
            "text": "native effect yep or the naive fact the",
            "start": 787.019,
            "duration": 4.26
        },
        {
            "text": "vector it's also just super hard like",
            "start": 789.54,
            "duration": 4.02
        },
        {
            "text": "this would be such a hard thing to",
            "start": 791.279,
            "duration": 4.021
        },
        {
            "text": "program can we all agree that this is",
            "start": 793.56,
            "duration": 4.2
        },
        {
            "text": "like virtually the impossible this",
            "start": 795.3,
            "duration": 5.7
        },
        {
            "text": "solution feels impossible to program",
            "start": 797.76,
            "duration": 5.34
        },
        {
            "text": "uh the vectors may also be arbitrary",
            "start": 801.0,
            "duration": 3.72
        },
        {
            "text": "spread in memory leading to a higher",
            "start": 803.1,
            "duration": 4.62
        },
        {
            "text": "chance of cash conflicts uh the aova",
            "start": 804.72,
            "duration": 4.38
        },
        {
            "text": "collection I don't I actually don't know",
            "start": 807.72,
            "duration": 3.119
        },
        {
            "text": "what that is collection itself also",
            "start": 809.1,
            "duration": 3.179
        },
        {
            "text": "consumes a lot of memory bloating any",
            "start": 810.839,
            "duration": 3.481
        },
        {
            "text": "struct it's embedded in now if we group",
            "start": 812.279,
            "duration": 4.8
        },
        {
            "text": "every variant by size we get three",
            "start": 814.32,
            "duration": 4.98
        },
        {
            "text": "clusters two four and eight bytes such",
            "start": 817.079,
            "duration": 4.5
        },
        {
            "text": "clusters can be allocated together into",
            "start": 819.3,
            "duration": 4.14
        },
        {
            "text": "the same Vector therefore reducing the",
            "start": 821.579,
            "duration": 4.141
        },
        {
            "text": "number of total vectors okay",
            "start": 823.44,
            "duration": 3.899
        },
        {
            "text": "so we have a bunch of different kind of",
            "start": 825.72,
            "duration": 3.119
        },
        {
            "text": "Vex right",
            "start": 827.339,
            "duration": 3.421
        },
        {
            "text": "this makes sense you",
            "start": 828.839,
            "duration": 3.361
        },
        {
            "text": "collapse them all based on their size",
            "start": 830.76,
            "duration": 3.66
        },
        {
            "text": "you could say this dense version of of",
            "start": 832.2,
            "duration": 4.62
        },
        {
            "text": "our aova pattern",
            "start": 834.42,
            "duration": 3.0
        },
        {
            "text": "um",
            "start": 836.82,
            "duration": 2.519
        },
        {
            "text": "however once we co-locate different",
            "start": 837.42,
            "duration": 3.719
        },
        {
            "text": "variants of the same allocation we lose",
            "start": 839.339,
            "duration": 3.12
        },
        {
            "text": "the ability to iterate through the",
            "start": 841.139,
            "duration": 3.421
        },
        {
            "text": "vector in a type-safe way exactly so",
            "start": 842.459,
            "duration": 3.421
        },
        {
            "text": "what he means by that is you can't like",
            "start": 844.56,
            "duration": 3.24
        },
        {
            "text": "you literally just can't match the type",
            "start": 845.88,
            "duration": 3.78
        },
        {
            "text": "you can't just four match four match",
            "start": 847.8,
            "duration": 3.96
        },
        {
            "text": "four match you have to",
            "start": 849.66,
            "duration": 3.84
        },
        {
            "text": "I mean I'm not even sure how you'd walk",
            "start": 851.76,
            "duration": 3.48
        },
        {
            "text": "through this in order to begin with how",
            "start": 853.5,
            "duration": 4.56
        },
        {
            "text": "do you know what order is what order",
            "start": 855.24,
            "duration": 4.68
        },
        {
            "text": "and when it comes to an AST ordering is",
            "start": 858.06,
            "duration": 4.68
        },
        {
            "text": "it's pretty important so I don't quite",
            "start": 859.92,
            "duration": 4.62
        },
        {
            "text": "see how we do something with this yet if",
            "start": 862.74,
            "duration": 3.839
        },
        {
            "text": "you lose access uh if you if your access",
            "start": 864.54,
            "duration": 3.96
        },
        {
            "text": "password pattern does not require blind",
            "start": 866.579,
            "duration": 3.541
        },
        {
            "text": "iteration which can be the case for",
            "start": 868.5,
            "duration": 3.18
        },
        {
            "text": "flattened index-based tree structures",
            "start": 870.12,
            "duration": 3.719
        },
        {
            "text": "absolutely this uh this might be a",
            "start": 871.68,
            "duration": 3.899
        },
        {
            "text": "worthwhile trade-off okay I've",
            "start": 873.839,
            "duration": 3.481
        },
        {
            "text": "implemented a prototype of this data",
            "start": 875.579,
            "duration": 3.181
        },
        {
            "text": "structure in Zig the most important",
            "start": 877.32,
            "duration": 3.54
        },
        {
            "text": "pieces are the compiler built-ins that",
            "start": 878.76,
            "duration": 4.74
        },
        {
            "text": "allow reflection of field types by byte",
            "start": 880.86,
            "duration": 4.5
        },
        {
            "text": "and bit sizes as well as inspecting",
            "start": 883.5,
            "duration": 3.6
        },
        {
            "text": "discriminant okay",
            "start": 885.36,
            "duration": 3.599
        },
        {
            "text": "so at its core this performs a",
            "start": 887.1,
            "duration": 3.179
        },
        {
            "text": "straightforward compile time reflection",
            "start": 888.959,
            "duration": 3.301
        },
        {
            "text": "to compute the Clusters and field two",
            "start": 890.279,
            "duration": 4.5
        },
        {
            "text": "cluster mappings we do a pseudo Dynamic",
            "start": 892.26,
            "duration": 4.019
        },
        {
            "text": "allocation using a stack allocated",
            "start": 894.779,
            "duration": 4.381
        },
        {
            "text": "Vector this cluster information is used",
            "start": 896.279,
            "duration": 5.521
        },
        {
            "text": "to construct the aova data structure",
            "start": 899.16,
            "duration": 5.78
        },
        {
            "text": "okay very cool",
            "start": 901.8,
            "duration": 3.14
        },
        {
            "text": "you gotta oh",
            "start": 905.76,
            "duration": 3.54
        },
        {
            "text": "this is kind of wild I this would take a",
            "start": 907.56,
            "duration": 3.42
        },
        {
            "text": "while to digest so we're just gonna have",
            "start": 909.3,
            "duration": 3.24
        },
        {
            "text": "to jump forward",
            "start": 910.98,
            "duration": 3.479
        },
        {
            "text": "if you want to do typesafe iteration you",
            "start": 912.54,
            "duration": 3.539
        },
        {
            "text": "could pay the cost of padding and add",
            "start": 914.459,
            "duration": 3.12
        },
        {
            "text": "the tag back in",
            "start": 916.079,
            "duration": 3.921
        },
        {
            "text": "okay",
            "start": 917.579,
            "duration": 2.421
        },
        {
            "text": "okay very cool I don't understand why",
            "start": 920.579,
            "duration": 3.541
        },
        {
            "text": "the tag",
            "start": 922.68,
            "duration": 5.3
        },
        {
            "text": "is matching these sizes right",
            "start": 924.12,
            "duration": 3.86
        },
        {
            "text": "that I don't quite get why the tags are",
            "start": 928.56,
            "duration": 4.62
        },
        {
            "text": "matching sizes uh if padding uh is too",
            "start": 930.42,
            "duration": 5.099
        },
        {
            "text": "much you can do a structure uh transfer",
            "start": 933.18,
            "duration": 3.779
        },
        {
            "text": "obstructive arrays transformation on",
            "start": 935.519,
            "duration": 3.481
        },
        {
            "text": "each array variants",
            "start": 936.959,
            "duration": 3.901
        },
        {
            "text": "yep you can do that that's cool that's",
            "start": 939.0,
            "duration": 3.54
        },
        {
            "text": "cool as you can see there's quite a few",
            "start": 940.86,
            "duration": 2.82
        },
        {
            "text": "trade-offs you can make in this space",
            "start": 942.54,
            "duration": 2.34
        },
        {
            "text": "and they've all depend on the concrete",
            "start": 943.68,
            "duration": 3.899
        },
        {
            "text": "memory layout of our enum wow this is",
            "start": 944.88,
            "duration": 5.819
        },
        {
            "text": "super complicated",
            "start": 947.579,
            "duration": 5.82
        },
        {
            "text": "programming this correctly would it",
            "start": 950.699,
            "duration": 6.44
        },
        {
            "text": "feels like an index nightmare",
            "start": 953.399,
            "duration": 3.74
        },
        {
            "text": "it feels like a genuine index nightmare",
            "start": 958.56,
            "duration": 4.079
        },
        {
            "text": "to save all this because there has to be",
            "start": 961.079,
            "duration": 3.301
        },
        {
            "text": "there there has to be one more missing",
            "start": 962.639,
            "duration": 4.2
        },
        {
            "text": "array somewhere that is",
            "start": 964.38,
            "duration": 5.22
        },
        {
            "text": "like this information of which one to",
            "start": 966.839,
            "duration": 5.841
        },
        {
            "text": "access in what order",
            "start": 969.6,
            "duration": 3.08
        },
        {
            "text": "I feel like there's a missing there's",
            "start": 973.56,
            "duration": 4.5
        },
        {
            "text": "one missing piece in here that we're not",
            "start": 975.18,
            "duration": 4.44
        },
        {
            "text": "seeing and that's what I'm worried about",
            "start": 978.06,
            "duration": 3.3
        },
        {
            "text": "which is I I feel like I'm kind of",
            "start": 979.62,
            "duration": 3.42
        },
        {
            "text": "missing",
            "start": 981.36,
            "duration": 3.419
        },
        {
            "text": "um this let's see watching you I get",
            "start": 983.04,
            "duration": 2.88
        },
        {
            "text": "imposterism don't worry about that",
            "start": 984.779,
            "duration": 2.641
        },
        {
            "text": "maintain the same memory boundary maybe",
            "start": 985.92,
            "duration": 3.12
        },
        {
            "text": "so they can be stored inside of Beck as",
            "start": 987.42,
            "duration": 3.419
        },
        {
            "text": "well maybe",
            "start": 989.04,
            "duration": 3.419
        },
        {
            "text": "an array of pointers that are you can't",
            "start": 990.839,
            "duration": 4.74
        },
        {
            "text": "have you can't do that in uh rust",
            "start": 992.459,
            "duration": 4.861
        },
        {
            "text": "or it's very hard to do what you're",
            "start": 995.579,
            "duration": 4.521
        },
        {
            "text": "saying in Rust",
            "start": 997.32,
            "duration": 2.78
        },
        {
            "text": "you know what I mean",
            "start": 1001.639,
            "duration": 2.781
        },
        {
            "text": "uh get work treat I I there's just",
            "start": 1005.38,
            "duration": 4.42
        },
        {
            "text": "nothing that needs to be changed I don't",
            "start": 1008.3,
            "duration": 2.64
        },
        {
            "text": "think",
            "start": 1009.8,
            "duration": 3.3
        },
        {
            "text": "anyways let's keep on going all right so",
            "start": 1010.94,
            "duration": 3.18
        },
        {
            "text": "as you can see there's quite a few",
            "start": 1013.1,
            "duration": 2.22
        },
        {
            "text": "trade-offs that we can make in the space",
            "start": 1014.12,
            "duration": 2.76
        },
        {
            "text": "and they all depend on concrete memory",
            "start": 1015.32,
            "duration": 2.939
        },
        {
            "text": "layout for the cinema while creating",
            "start": 1016.88,
            "duration": 2.459
        },
        {
            "text": "such a data structure is pretty",
            "start": 1018.259,
            "duration": 2.58
        },
        {
            "text": "straightforward and Zig creating any of",
            "start": 1019.339,
            "duration": 3.36
        },
        {
            "text": "these examples in Rust using proc macros",
            "start": 1020.839,
            "duration": 3.541
        },
        {
            "text": "is basically impossible completely",
            "start": 1022.699,
            "duration": 3.961
        },
        {
            "text": "agreed the the moment you enter into",
            "start": 1024.38,
            "duration": 4.079
        },
        {
            "text": "proc macro land you've pretty much",
            "start": 1026.66,
            "duration": 3.659
        },
        {
            "text": "entered into the impossible land so I'm",
            "start": 1028.459,
            "duration": 3.301
        },
        {
            "text": "trying to move something below I think I",
            "start": 1030.319,
            "duration": 3.36
        },
        {
            "text": "just bonked my camera my bad",
            "start": 1031.76,
            "duration": 3.0
        },
        {
            "text": "um",
            "start": 1033.679,
            "duration": 3.541
        },
        {
            "text": "the reasons being that proc macros don't",
            "start": 1034.76,
            "duration": 4.439
        },
        {
            "text": "have access to type information like",
            "start": 1037.22,
            "duration": 3.839
        },
        {
            "text": "size or alignment which could have let's",
            "start": 1039.199,
            "duration": 3.901
        },
        {
            "text": "see while you could have a proc macro",
            "start": 1041.059,
            "duration": 3.841
        },
        {
            "text": "generate a const function that computes",
            "start": 1043.1,
            "duration": 3.3
        },
        {
            "text": "the clusters for particular items this",
            "start": 1044.9,
            "duration": 3.96
        },
        {
            "text": "function cannot be used uh to specify",
            "start": 1046.4,
            "duration": 3.899
        },
        {
            "text": "the length of an array for a generic",
            "start": 1048.86,
            "duration": 3.36
        },
        {
            "text": "type another limit to rust generics is",
            "start": 1050.299,
            "duration": 3.841
        },
        {
            "text": "that the implementation of generic",
            "start": 1052.22,
            "duration": 3.78
        },
        {
            "text": "containers cannot be conditioned or",
            "start": 1054.14,
            "duration": 3.84
        },
        {
            "text": "whether the type the given type is an",
            "start": 1056.0,
            "duration": 3.66
        },
        {
            "text": "enum or a struct in Zig we can",
            "start": 1057.98,
            "duration": 4.939
        },
        {
            "text": "effectively do something like this",
            "start": 1059.66,
            "duration": 3.259
        },
        {
            "text": "that's pretty cool",
            "start": 1063.98,
            "duration": 4.86
        },
        {
            "text": "that's pretty cool again I think Zig has",
            "start": 1066.14,
            "duration": 4.56
        },
        {
            "text": "a bright future I think Zig really does",
            "start": 1068.84,
            "duration": 4.62
        },
        {
            "text": "have a bright future it has and the",
            "start": 1070.7,
            "duration": 5.7
        },
        {
            "text": "thing is it also it prevents you it has",
            "start": 1073.46,
            "duration": 4.92
        },
        {
            "text": "no pointer",
            "start": 1076.4,
            "duration": 5.46
        },
        {
            "text": "safety which I think is like 80 percent",
            "start": 1078.38,
            "duration": 6.299
        },
        {
            "text": "of all the issues is no pointer safety",
            "start": 1081.86,
            "duration": 5.88
        },
        {
            "text": "and so you have nil pointer safety and",
            "start": 1084.679,
            "duration": 4.62
        },
        {
            "text": "then it has a bunch of other safety it",
            "start": 1087.74,
            "duration": 3.66
        },
        {
            "text": "has tagged unions it has errors at",
            "start": 1089.299,
            "duration": 4.74
        },
        {
            "text": "values it has syntax to handle errors so",
            "start": 1091.4,
            "duration": 4.74
        },
        {
            "text": "you don't get the if error equals nil go",
            "start": 1094.039,
            "duration": 4.14
        },
        {
            "text": "problem",
            "start": 1096.14,
            "duration": 4.32
        },
        {
            "text": "it's nice it's like it's a very nice",
            "start": 1098.179,
            "duration": 3.841
        },
        {
            "text": "language",
            "start": 1100.46,
            "duration": 3.839
        },
        {
            "text": "I do want to take see the problem is I'm",
            "start": 1102.02,
            "duration": 4.019
        },
        {
            "text": "stuck between what's my next big",
            "start": 1104.299,
            "duration": 4.141
        },
        {
            "text": "language learn because I finished my you",
            "start": 1106.039,
            "duration": 4.081
        },
        {
            "text": "know I'm in my I'm done with the rust",
            "start": 1108.44,
            "duration": 3.239
        },
        {
            "text": "learning I don't really necessarily need",
            "start": 1110.12,
            "duration": 3.54
        },
        {
            "text": "need more rust learning I'm not going to",
            "start": 1111.679,
            "duration": 3.661
        },
        {
            "text": "benefit a ton by learning the deeper",
            "start": 1113.66,
            "duration": 3.36
        },
        {
            "text": "parts of rust and so my next one is",
            "start": 1115.34,
            "duration": 4.26
        },
        {
            "text": "either Zig or o camel and I just don't",
            "start": 1117.02,
            "duration": 4.14
        },
        {
            "text": "know which one to do",
            "start": 1119.6,
            "duration": 3.24
        },
        {
            "text": "I know people love Elixir they always",
            "start": 1121.16,
            "duration": 3.12
        },
        {
            "text": "want me to learn Elixir I just am not",
            "start": 1122.84,
            "duration": 3.0
        },
        {
            "text": "sure about it I've only dabbled in Zig",
            "start": 1124.28,
            "duration": 3.48
        },
        {
            "text": "I've dabbled in Zig and just kind of",
            "start": 1125.84,
            "duration": 3.18
        },
        {
            "text": "checked it out it has null pointer",
            "start": 1127.76,
            "duration": 4.5
        },
        {
            "text": "safety but you can still leak uh and use",
            "start": 1129.02,
            "duration": 6.659
        },
        {
            "text": "after free Etc sure Pete's C though yeah",
            "start": 1132.26,
            "duration": 5.6
        },
        {
            "text": "it sure does beat C",
            "start": 1135.679,
            "duration": 5.701
        },
        {
            "text": "uh it sure does",
            "start": 1137.86,
            "duration": 5.38
        },
        {
            "text": "why not both because it it's time",
            "start": 1141.38,
            "duration": 3.9
        },
        {
            "text": "consuming it it takes all it's a it",
            "start": 1143.24,
            "duration": 4.559
        },
        {
            "text": "takes a lot of time to learn a new",
            "start": 1145.28,
            "duration": 5.399
        },
        {
            "text": "language and so I don't want to",
            "start": 1147.799,
            "duration": 5.281
        },
        {
            "text": "learn something",
            "start": 1150.679,
            "duration": 4.5
        },
        {
            "text": "I want to really get it oh they're done",
            "start": 1153.08,
            "duration": 5.64
        },
        {
            "text": "well vs chode sorry vs chode AVS chode",
            "start": 1155.179,
            "duration": 5.461
        },
        {
            "text": "thank you for the fifty dollars you're",
            "start": 1158.72,
            "duration": 3.959
        },
        {
            "text": "in a YouTube video now thank you thank",
            "start": 1160.64,
            "duration": 3.72
        },
        {
            "text": "you for that thank you for that all",
            "start": 1162.679,
            "duration": 2.88
        },
        {
            "text": "right let me finish this bonus",
            "start": 1164.36,
            "duration": 3.0
        },
        {
            "text": "determining index bit width at compile",
            "start": 1165.559,
            "duration": 3.601
        },
        {
            "text": "time while implementing my prototype I",
            "start": 1167.36,
            "duration": 3.36
        },
        {
            "text": "notice other ways of saving memory for",
            "start": 1169.16,
            "duration": 3.12
        },
        {
            "text": "instance if you know the maximum",
            "start": 1170.72,
            "duration": 2.94
        },
        {
            "text": "capacity of your data structure at",
            "start": 1172.28,
            "duration": 2.639
        },
        {
            "text": "compile time you can pass that",
            "start": 1173.66,
            "duration": 2.639
        },
        {
            "text": "information to the type constructing",
            "start": 1174.919,
            "duration": 2.88
        },
        {
            "text": "function and let it determine the bit",
            "start": 1176.299,
            "duration": 4.38
        },
        {
            "text": "width of the returned tag index with",
            "start": 1177.799,
            "duration": 4.74
        },
        {
            "text": "this tagged index isn't let's see when",
            "start": 1180.679,
            "duration": 3.541
        },
        {
            "text": "this tag index is included in the",
            "start": 1182.539,
            "duration": 3.0
        },
        {
            "text": "subsequent data structures let's say",
            "start": 1184.22,
            "duration": 3.3
        },
        {
            "text": "another enum this information carries",
            "start": 1185.539,
            "duration": 4.201
        },
        {
            "text": "over naturally and the bits that we",
            "start": 1187.52,
            "duration": 4.26
        },
        {
            "text": "didn't need can be used for uh the",
            "start": 1189.74,
            "duration": 4.26
        },
        {
            "text": "discriminant so Zig gives you the",
            "start": 1191.78,
            "duration": 4.08
        },
        {
            "text": "composable memory efficiency oh that's",
            "start": 1194.0,
            "duration": 3.36
        },
        {
            "text": "pretty cool I don't quite understand",
            "start": 1195.86,
            "duration": 3.9
        },
        {
            "text": "what this means but I like the ending",
            "start": 1197.36,
            "duration": 4.319
        },
        {
            "text": "which is that as you specify things",
            "start": 1199.76,
            "duration": 3.96
        },
        {
            "text": "downwards everything kind of compile to",
            "start": 1201.679,
            "duration": 4.201
        },
        {
            "text": "it and it just makes sense in Zig and",
            "start": 1203.72,
            "duration": 3.78
        },
        {
            "text": "that's pretty cool to have composable",
            "start": 1205.88,
            "duration": 3.12
        },
        {
            "text": "memory efficiency by being specific",
            "start": 1207.5,
            "duration": 2.82
        },
        {
            "text": "about the number of bits you need",
            "start": 1209.0,
            "duration": 2.94
        },
        {
            "text": "different parts of the code can take",
            "start": 1210.32,
            "duration": 3.66
        },
        {
            "text": "advantage of that and with implicit",
            "start": 1211.94,
            "duration": 3.66
        },
        {
            "text": "widening integer coerced and dealing",
            "start": 1213.98,
            "duration": 3.3
        },
        {
            "text": "with apis of different bit with stay",
            "start": 1215.6,
            "duration": 3.9
        },
        {
            "text": "ergonomic yes dude that's one thing rust",
            "start": 1217.28,
            "duration": 5.519
        },
        {
            "text": "I I personally don't like this I don't",
            "start": 1219.5,
            "duration": 4.559
        },
        {
            "text": "like that",
            "start": 1222.799,
            "duration": 3.62
        },
        {
            "text": "you constantly have to specify upward",
            "start": 1224.059,
            "duration": 4.681
        },
        {
            "text": "maybe there's some safety reason that",
            "start": 1226.419,
            "duration": 4.0
        },
        {
            "text": "I'm missing in Rust but I don't like",
            "start": 1228.74,
            "duration": 4.38
        },
        {
            "text": "that a u32 can't be instantaneously",
            "start": 1230.419,
            "duration": 6.721
        },
        {
            "text": "promoted to a u64. like to me that just",
            "start": 1233.12,
            "duration": 6.179
        },
        {
            "text": "feels natural",
            "start": 1237.14,
            "duration": 4.26
        },
        {
            "text": "and it just it does make me a little bit",
            "start": 1239.299,
            "duration": 5.101
        },
        {
            "text": "wonky and using like eye size versus you",
            "start": 1241.4,
            "duration": 3.899
        },
        {
            "text": "size",
            "start": 1244.4,
            "duration": 4.139
        },
        {
            "text": "it feels emotionally painful",
            "start": 1245.299,
            "duration": 4.921
        },
        {
            "text": "yeah but I don't want to have to specify",
            "start": 1248.539,
            "duration": 3.901
        },
        {
            "text": "this right I don't want to have to think",
            "start": 1250.22,
            "duration": 3.72
        },
        {
            "text": "about this whole thing",
            "start": 1252.44,
            "duration": 3.72
        },
        {
            "text": "right like I get that you should never",
            "start": 1253.94,
            "duration": 5.04
        },
        {
            "text": "downcast no no again you're still making",
            "start": 1256.16,
            "duration": 5.84
        },
        {
            "text": "me think about it",
            "start": 1258.98,
            "duration": 3.02
        },
        {
            "text": "why not use U size then well use size",
            "start": 1262.1,
            "duration": 4.92
        },
        {
            "text": "doesn't always work like a Time API time",
            "start": 1264.26,
            "duration": 6.299
        },
        {
            "text": "apis either use u64 or they use u128",
            "start": 1267.02,
            "duration": 6.539
        },
        {
            "text": "right like if you call as milliseconds",
            "start": 1270.559,
            "duration": 6.801
        },
        {
            "text": "you get a 128 back",
            "start": 1273.559,
            "duration": 3.801
        },
        {
            "text": "so then you got this whole",
            "start": 1278.72,
            "duration": 4.199
        },
        {
            "text": "you got this whole thing that goes on of",
            "start": 1281.179,
            "duration": 3.12
        },
        {
            "text": "course but rust already does a bunch of",
            "start": 1282.919,
            "duration": 4.321
        },
        {
            "text": "implicit stuff as it is",
            "start": 1284.299,
            "duration": 3.721
        },
        {
            "text": "yeah",
            "start": 1287.24,
            "duration": 2.939
        },
        {
            "text": "you know what I mean so it's not",
            "start": 1288.02,
            "duration": 3.72
        },
        {
            "text": "straightforward in a way this reminds me",
            "start": 1290.179,
            "duration": 4.261
        },
        {
            "text": "a lot of refinement uh typing and ranged",
            "start": 1291.74,
            "duration": 4.62
        },
        {
            "text": "integers so this ties a lot with my post",
            "start": 1294.44,
            "duration": 5.52
        },
        {
            "text": "on custom integer bit uh on custom bit",
            "start": 1296.36,
            "duration": 5.1
        },
        {
            "text": "with integers by the way Zig allows you",
            "start": 1299.96,
            "duration": 3.24
        },
        {
            "text": "to do custom bit with integers which is",
            "start": 1301.46,
            "duration": 5.699
        },
        {
            "text": "crazy you can do like a i-18",
            "start": 1303.2,
            "duration": 5.04
        },
        {
            "text": "I don't even know what to do with that",
            "start": 1307.159,
            "duration": 3.301
        },
        {
            "text": "writing extremely efficient generic data",
            "start": 1308.24,
            "duration": 4.679
        },
        {
            "text": "structures in Rust is not always easy in",
            "start": 1310.46,
            "duration": 4.5
        },
        {
            "text": "some cases they incur lots of accidental",
            "start": 1312.919,
            "duration": 4.26
        },
        {
            "text": "complexity uh and in some others they're",
            "start": 1314.96,
            "duration": 4.44
        },
        {
            "text": "essentially impossible to implement I",
            "start": 1317.179,
            "duration": 3.421
        },
        {
            "text": "think one of the biggest takeaways for",
            "start": 1319.4,
            "duration": 3.18
        },
        {
            "text": "me with regards to Stage compilation was",
            "start": 1320.6,
            "duration": 4.8
        },
        {
            "text": "the ability to be composable on memory",
            "start": 1322.58,
            "duration": 5.459
        },
        {
            "text": "layout level yeah or to be composable on",
            "start": 1325.4,
            "duration": 3.72
        },
        {
            "text": "a memory layout level if you're",
            "start": 1328.039,
            "duration": 2.76
        },
        {
            "text": "developing a system programming language",
            "start": 1329.12,
            "duration": 4.32
        },
        {
            "text": "that Embraces a braces efficiency and",
            "start": 1330.799,
            "duration": 4.26
        },
        {
            "text": "zero cost abstraction you should",
            "start": 1333.44,
            "duration": 3.42
        },
        {
            "text": "absolutely take another look at staged",
            "start": 1335.059,
            "duration": 4.081
        },
        {
            "text": "programming and in particular ziggs comp",
            "start": 1336.86,
            "duration": 3.36
        },
        {
            "text": "time",
            "start": 1339.14,
            "duration": 3.539
        },
        {
            "text": "this is awesome this is a great this is",
            "start": 1340.22,
            "duration": 5.16
        },
        {
            "text": "just great absolutely love that comp",
            "start": 1342.679,
            "duration": 3.961
        },
        {
            "text": "time is just the greatest I think comp",
            "start": 1345.38,
            "duration": 2.64
        },
        {
            "text": "time is one of the greatest features of",
            "start": 1346.64,
            "duration": 3.48
        },
        {
            "text": "Zig in fact I I'd argue that comp time",
            "start": 1348.02,
            "duration": 3.72
        },
        {
            "text": "is one of the coolest features of any",
            "start": 1350.12,
            "duration": 3.24
        },
        {
            "text": "programming language I agree with that",
            "start": 1351.74,
            "duration": 3.299
        },
        {
            "text": "as well and so that's the one thing I",
            "start": 1353.36,
            "duration": 4.38
        },
        {
            "text": "just love comp time comp time and Zig",
            "start": 1355.039,
            "duration": 5.52
        },
        {
            "text": "effectively allows you to you build",
            "start": 1357.74,
            "duration": 5.34
        },
        {
            "text": "these types it's kind of like generics",
            "start": 1360.559,
            "duration": 3.781
        },
        {
            "text": "you can kind of think of it like",
            "start": 1363.08,
            "duration": 4.079
        },
        {
            "text": "generics except that you're writing code",
            "start": 1364.34,
            "duration": 6.0
        },
        {
            "text": "that executes at compile time",
            "start": 1367.159,
            "duration": 5.221
        },
        {
            "text": "so you write zig",
            "start": 1370.34,
            "duration": 4.98
        },
        {
            "text": "that creates Zig but it doesn't feel",
            "start": 1372.38,
            "duration": 4.62
        },
        {
            "text": "like a proc macro or something that's",
            "start": 1375.32,
            "duration": 4.56
        },
        {
            "text": "really hard to do right it's not like",
            "start": 1377.0,
            "duration": 4.98
        },
        {
            "text": "rust's proc macros virtually impossible",
            "start": 1379.88,
            "duration": 3.96
        },
        {
            "text": "proc macros there's like seven people in",
            "start": 1381.98,
            "duration": 3.36
        },
        {
            "text": "the world that can write proc macros the",
            "start": 1383.84,
            "duration": 3.42
        },
        {
            "text": "rest of us are just too stupid slash",
            "start": 1385.34,
            "duration": 4.14
        },
        {
            "text": "don't have two months of peer study on",
            "start": 1387.26,
            "duration": 4.5
        },
        {
            "text": "proc macros to write them good",
            "start": 1389.48,
            "duration": 5.22
        },
        {
            "text": "I'm glad that this is your first comment",
            "start": 1391.76,
            "duration": 4.44
        },
        {
            "text": "orsgoth",
            "start": 1394.7,
            "duration": 3.42
        },
        {
            "text": "I just want you to know you've made it",
            "start": 1396.2,
            "duration": 3.78
        },
        {
            "text": "into a YouTube video",
            "start": 1398.12,
            "duration": 4.62
        },
        {
            "text": "and that you my friends very first",
            "start": 1399.98,
            "duration": 5.699
        },
        {
            "text": "comment is this okay just want you to",
            "start": 1402.74,
            "duration": 4.5
        },
        {
            "text": "know that right now like And subscribe",
            "start": 1405.679,
            "duration": 4.5
        },
        {
            "text": "like And subscribe like like And",
            "start": 1407.24,
            "duration": 5.24
        },
        {
            "text": "subscribe",
            "start": 1410.179,
            "duration": 2.301
        }
    ],
    "stats": {
        "viewCount": "132949",
        "likeCount": "2892",
        "favoriteCount": "0",
        "commentCount": "328"
    }
}