{
    "id": "qVEEpUvl0Kw",
    "title": "Devops is Terrible",
    "publishedAt": "2023-06-15T11:00:43Z",
    "captions": [
        {
            "text": "a critique of how we fooled ourselves",
            "start": 0.0,
            "duration": 5.339
        },
        {
            "text": "for years devops is ball",
            "start": 2.1,
            "duration": 5.1
        },
        {
            "text": "how do you guys feel type one in the",
            "start": 5.339,
            "duration": 4.441
        },
        {
            "text": "chat if you think Ops is [\u00a0__\u00a0] okay",
            "start": 7.2,
            "duration": 4.2
        },
        {
            "text": "we got a lot of ones in the chat okay",
            "start": 9.78,
            "duration": 3.72
        },
        {
            "text": "let's find out over the years it has",
            "start": 11.4,
            "duration": 3.54
        },
        {
            "text": "developed into an Unholy Beast of",
            "start": 13.5,
            "duration": 3.24
        },
        {
            "text": "division and tunnel vision why did we",
            "start": 14.94,
            "duration": 3.78
        },
        {
            "text": "stop dreaming bigger what happened to",
            "start": 16.74,
            "duration": 3.48
        },
        {
            "text": "tearing down silos increasing",
            "start": 18.72,
            "duration": 3.24
        },
        {
            "text": "engineering velocity and adding value",
            "start": 20.22,
            "duration": 3.479
        },
        {
            "text": "remember the things devops was supposed",
            "start": 21.96,
            "duration": 4.62
        },
        {
            "text": "to do those are also all the sentences I",
            "start": 23.699,
            "duration": 5.101
        },
        {
            "text": "would expect to hear in TechCrunch what",
            "start": 26.58,
            "duration": 4.8
        },
        {
            "text": "are you doing tearing down silos and we",
            "start": 28.8,
            "duration": 5.46
        },
        {
            "text": "are increasing velocity",
            "start": 31.38,
            "duration": 6.3
        },
        {
            "text": "adding value hell yeah uh but the",
            "start": 34.26,
            "duration": 5.52
        },
        {
            "text": "reality is outside of fang and the most",
            "start": 37.68,
            "duration": 3.539
        },
        {
            "text": "well-funded companies your team is",
            "start": 39.78,
            "duration": 2.64
        },
        {
            "text": "probably doing one of the following",
            "start": 41.219,
            "duration": 3.84
        },
        {
            "text": "you've got a devops team congrats that's",
            "start": 42.42,
            "duration": 4.68
        },
        {
            "text": "not devops I'd wager most of what",
            "start": 45.059,
            "duration": 3.66
        },
        {
            "text": "they're doing is using terraform and",
            "start": 47.1,
            "duration": 3.9
        },
        {
            "text": "yaml to do menial tasks for engineering",
            "start": 48.719,
            "duration": 4.5
        },
        {
            "text": "team pick is this true is this what you",
            "start": 51.0,
            "duration": 4.32
        },
        {
            "text": "do pick",
            "start": 53.219,
            "duration": 6.121
        },
        {
            "text": "s like no I used Haskell I no it's",
            "start": 55.32,
            "duration": 6.48
        },
        {
            "text": "Haskell",
            "start": 59.34,
            "duration": 5.7
        },
        {
            "text": "um it's not a lie damn it need a",
            "start": 61.8,
            "duration": 5.52
        },
        {
            "text": "database file a ticket with devops need",
            "start": 65.04,
            "duration": 4.439
        },
        {
            "text": "an I am roll file a ticket with devops",
            "start": 67.32,
            "duration": 3.6
        },
        {
            "text": "before longing your massive team of",
            "start": 69.479,
            "duration": 3.0
        },
        {
            "text": "Engineers has fully saturated your",
            "start": 70.92,
            "duration": 3.84
        },
        {
            "text": "understaffed devops teams backlog this",
            "start": 72.479,
            "duration": 4.441
        },
        {
            "text": "approach does not scale uh you are doing",
            "start": 74.76,
            "duration": 4.8
        },
        {
            "text": "devops but it feels like [\u00a0__\u00a0] I like",
            "start": 76.92,
            "duration": 5.1
        },
        {
            "text": "this article uh devops the free for all",
            "start": 79.56,
            "duration": 4.32
        },
        {
            "text": "where each engineer does it uh the",
            "start": 82.02,
            "duration": 3.419
        },
        {
            "text": "necessary Ops to do their job best",
            "start": 83.88,
            "duration": 3.18
        },
        {
            "text": "practices will invent them along the way",
            "start": 85.439,
            "duration": 4.561
        },
        {
            "text": "sakir I'm too busy increasing conversion",
            "start": 87.06,
            "duration": 7.62
        },
        {
            "text": "rates naming conventions nah",
            "start": 90.0,
            "duration": 4.68
        },
        {
            "text": "okay that's not actually funny that's",
            "start": 96.06,
            "duration": 3.96
        },
        {
            "text": "this is not funny okay there's nothing",
            "start": 98.28,
            "duration": 4.26
        },
        {
            "text": "funny about that I don't think we should",
            "start": 100.02,
            "duration": 3.9
        },
        {
            "text": "laugh about this",
            "start": 102.54,
            "duration": 4.079
        },
        {
            "text": "because it's a real issue that we've all",
            "start": 103.92,
            "duration": 4.98
        },
        {
            "text": "had it's just it's not okay that's not",
            "start": 106.619,
            "duration": 4.801
        },
        {
            "text": "okay cost management deleting unused",
            "start": 108.9,
            "duration": 5.46
        },
        {
            "text": "Cloud resources nope we've got AWS",
            "start": 111.42,
            "duration": 5.699
        },
        {
            "text": "credits to burn the problem is",
            "start": 114.36,
            "duration": 4.5
        },
        {
            "text": "most Engineers don't want to do",
            "start": 117.119,
            "duration": 4.32
        },
        {
            "text": "operations work they want to build the",
            "start": 118.86,
            "duration": 4.2
        },
        {
            "text": "product they want to add tangible value",
            "start": 121.439,
            "duration": 3.36
        },
        {
            "text": "but organizations will force this upon",
            "start": 123.06,
            "duration": 3.419
        },
        {
            "text": "them and Engineers will either work with",
            "start": 124.799,
            "duration": 4.141
        },
        {
            "text": "what they've already got guess their way",
            "start": 126.479,
            "duration": 4.801
        },
        {
            "text": "through some of the new cloud service or",
            "start": 128.94,
            "duration": 4.26
        },
        {
            "text": "the devops task will slowly become the",
            "start": 131.28,
            "duration": 3.48
        },
        {
            "text": "responsibility of a few individuals that",
            "start": 133.2,
            "duration": 3.72
        },
        {
            "text": "become the devops team the worst part of",
            "start": 134.76,
            "duration": 4.08
        },
        {
            "text": "the scenario is that deadlines rule the",
            "start": 136.92,
            "duration": 4.38
        },
        {
            "text": "product stakeholders don't see Ops when",
            "start": 138.84,
            "duration": 4.259
        },
        {
            "text": "was the last time you saw a product",
            "start": 141.3,
            "duration": 3.96
        },
        {
            "text": "manager high five the Ops person say",
            "start": 143.099,
            "duration": 5.28
        },
        {
            "text": "fast [\u00a0__\u00a0] auto scaler",
            "start": 145.26,
            "duration": 5.78
        },
        {
            "text": "an auto scalar",
            "start": 148.379,
            "duration": 5.521
        },
        {
            "text": "[\u00a0__\u00a0] auto scalar where the hell did",
            "start": 151.04,
            "duration": 3.76
        },
        {
            "text": "it go",
            "start": 153.9,
            "duration": 4.64
        },
        {
            "text": "where did Auto scale did I Just Lose It",
            "start": 154.8,
            "duration": 3.74
        },
        {
            "text": "it's real no one high-fives the auto",
            "start": 161.7,
            "duration": 5.46
        },
        {
            "text": "scaler guy it's very very true",
            "start": 164.04,
            "duration": 5.76
        },
        {
            "text": "nobody cares about you I'm sorry slowly",
            "start": 167.16,
            "duration": 5.46
        },
        {
            "text": "your team feels like a malleable a",
            "start": 169.8,
            "duration": 4.62
        },
        {
            "text": "nature of devops stagnant into rigid",
            "start": 172.62,
            "duration": 3.18
        },
        {
            "text": "infrastructure as teams stopped making",
            "start": 174.42,
            "duration": 3.179
        },
        {
            "text": "the harder operation decisions and just",
            "start": 175.8,
            "duration": 3.36
        },
        {
            "text": "bend their software around what they",
            "start": 177.599,
            "duration": 3.061
        },
        {
            "text": "have in the end all infrastructure",
            "start": 179.16,
            "duration": 3.96
        },
        {
            "text": "eventually becomes a platform how easy",
            "start": 180.66,
            "duration": 4.74
        },
        {
            "text": "is yours to change very hard",
            "start": 183.12,
            "duration": 5.22
        },
        {
            "text": "operations is a commodity let's act like",
            "start": 185.4,
            "duration": 4.68
        },
        {
            "text": "it I've been on the operation side of",
            "start": 188.34,
            "duration": 3.72
        },
        {
            "text": "engineering for a long time is this is",
            "start": 190.08,
            "duration": 4.439
        },
        {
            "text": "this going to be a serverless article",
            "start": 192.06,
            "duration": 5.64
        },
        {
            "text": "is this a serverless article",
            "start": 194.519,
            "duration": 5.521
        },
        {
            "text": "have I been bamboozled I think I might",
            "start": 197.7,
            "duration": 4.5
        },
        {
            "text": "be I think I might have been bamboozled",
            "start": 200.04,
            "duration": 5.04
        },
        {
            "text": "right now called it serverless",
            "start": 202.2,
            "duration": 3.78
        },
        {
            "text": "um",
            "start": 205.08,
            "duration": 3.54
        },
        {
            "text": "I've been developing a ruby since uh",
            "start": 205.98,
            "duration": 4.8
        },
        {
            "text": "since rails 1.0 okay well there's your",
            "start": 208.62,
            "duration": 4.02
        },
        {
            "text": "first mistake before that I wrote some",
            "start": 210.78,
            "duration": 3.66
        },
        {
            "text": "of the trashiest PHP in the world that",
            "start": 212.64,
            "duration": 3.239
        },
        {
            "text": "has seen no it just sounds like you",
            "start": 214.44,
            "duration": 4.439
        },
        {
            "text": "wrote PHP uh I've had the I had the",
            "start": 215.879,
            "duration": 4.681
        },
        {
            "text": "opportunity to migrate from a data",
            "start": 218.879,
            "duration": 2.78
        },
        {
            "text": "center to",
            "start": 220.56,
            "duration": 4.92
        },
        {
            "text": "AWS ec2 when it was launched in 2006 and",
            "start": 221.659,
            "duration": 5.201
        },
        {
            "text": "I've become more experienced in",
            "start": 225.48,
            "duration": 3.36
        },
        {
            "text": "operations I was pitch and hold into the",
            "start": 226.86,
            "duration": 4.32
        },
        {
            "text": "devops role to date I've deployed over",
            "start": 228.84,
            "duration": 5.64
        },
        {
            "text": "200 production grade kubernetes clusters",
            "start": 231.18,
            "duration": 5.639
        },
        {
            "text": "across a handful of companies this man",
            "start": 234.48,
            "duration": 5.58
        },
        {
            "text": "kubernetes okay this manned kubernetes",
            "start": 236.819,
            "duration": 5.821
        },
        {
            "text": "want to know the secret all right let's",
            "start": 240.06,
            "duration": 3.899
        },
        {
            "text": "do this you know what I'm talking about",
            "start": 242.64,
            "duration": 3.72
        },
        {
            "text": "I've copied and pasta the same damn",
            "start": 243.959,
            "duration": 4.621
        },
        {
            "text": "terraform module for every single one of",
            "start": 246.36,
            "duration": 4.379
        },
        {
            "text": "them my job felt like a scam but",
            "start": 248.58,
            "duration": 5.1
        },
        {
            "text": "companies pay me to forget to turn off",
            "start": 250.739,
            "duration": 4.86
        },
        {
            "text": "alerts",
            "start": 253.68,
            "duration": 3.42
        },
        {
            "text": "dang it",
            "start": 255.599,
            "duration": 4.161
        },
        {
            "text": "dang it",
            "start": 257.1,
            "duration": 2.66
        },
        {
            "text": "dang it",
            "start": 260.94,
            "duration": 2.299
        },
        {
            "text": "Karen I need an intern yep got an intern",
            "start": 263.54,
            "duration": 5.08
        },
        {
            "text": "roll coming up I need one I need it yeah",
            "start": 266.58,
            "duration": 5.24
        },
        {
            "text": "I need it right now okay",
            "start": 268.62,
            "duration": 3.2
        },
        {
            "text": "the response the responsibility you said",
            "start": 271.86,
            "duration": 4.399
        },
        {
            "text": "um",
            "start": 274.259,
            "duration": 2.0
        },
        {
            "text": "there's just this thing that happens",
            "start": 277.02,
            "duration": 3.179
        },
        {
            "text": "every now and then Karen that might need",
            "start": 278.28,
            "duration": 3.18
        },
        {
            "text": "a little bit of taken care of and I just",
            "start": 280.199,
            "duration": 2.641
        },
        {
            "text": "figured you know maybe you know maybe an",
            "start": 281.46,
            "duration": 3.239
        },
        {
            "text": "intern you know",
            "start": 282.84,
            "duration": 4.139
        },
        {
            "text": "yeah it's about the yeah it's about it's",
            "start": 284.699,
            "duration": 5.06
        },
        {
            "text": "about the alerts",
            "start": 286.979,
            "duration": 2.78
        },
        {
            "text": "hold the copy pasta driven single user",
            "start": 294.479,
            "duration": 3.961
        },
        {
            "text": "platform as a service and no one cared",
            "start": 296.58,
            "duration": 3.78
        },
        {
            "text": "as so long nothing was broken you've",
            "start": 298.44,
            "duration": 4.319
        },
        {
            "text": "made it this far so I'm just going to",
            "start": 300.36,
            "duration": 4.32
        },
        {
            "text": "say it the company's building devops",
            "start": 302.759,
            "duration": 3.72
        },
        {
            "text": "teams are going to uh in the right",
            "start": 304.68,
            "duration": 3.48
        },
        {
            "text": "direction but they need to be moving",
            "start": 306.479,
            "duration": 3.301
        },
        {
            "text": "away from infrastructure configuration",
            "start": 308.16,
            "duration": 2.94
        },
        {
            "text": "management and towards platform",
            "start": 309.78,
            "duration": 3.359
        },
        {
            "text": "engineering and enabling Dev developer",
            "start": 311.1,
            "duration": 4.08
        },
        {
            "text": "self-service okay I like this this kind",
            "start": 313.139,
            "duration": 4.021
        },
        {
            "text": "of what Netflix's way is the knowledge",
            "start": 315.18,
            "duration": 4.2
        },
        {
            "text": "silos are good and silos are a feature",
            "start": 317.16,
            "duration": 4.08
        },
        {
            "text": "not a bug expertise is a good thing",
            "start": 319.38,
            "duration": 5.34
        },
        {
            "text": "devops is [\u00a0__\u00a0] okay okay okay let's",
            "start": 321.24,
            "duration": 5.34
        },
        {
            "text": "see continuous advancements through",
            "start": 324.72,
            "duration": 5.9
        },
        {
            "text": "teamwork efficiency in communication",
            "start": 326.58,
            "duration": 6.899
        },
        {
            "text": "elevated morale leaving the door open to",
            "start": 330.62,
            "duration": 5.019
        },
        {
            "text": "suggestions for betterment sign me up",
            "start": 333.479,
            "duration": 4.261
        },
        {
            "text": "right wait I'm going backwards aren't I",
            "start": 335.639,
            "duration": 4.861
        },
        {
            "text": "test release deploy operate monitor plan",
            "start": 337.74,
            "duration": 5.58
        },
        {
            "text": "code build test release poop I agree",
            "start": 340.5,
            "duration": 4.56
        },
        {
            "text": "this model worked when a cloud was",
            "start": 343.32,
            "duration": 3.78
        },
        {
            "text": "simple and made sense even back when we",
            "start": 345.06,
            "duration": 3.84
        },
        {
            "text": "had a few virtual machines maybe an S3",
            "start": 347.1,
            "duration": 3.72
        },
        {
            "text": "bucket and a couple of cues this Loop",
            "start": 348.9,
            "duration": 4.019
        },
        {
            "text": "was achievable what through wrench and",
            "start": 350.82,
            "duration": 3.599
        },
        {
            "text": "everything was growing complexity of our",
            "start": 352.919,
            "duration": 3.72
        },
        {
            "text": "system the operational burden of those",
            "start": 354.419,
            "duration": 4.081
        },
        {
            "text": "systems and the compliance for many",
            "start": 356.639,
            "duration": 3.421
        },
        {
            "text": "organizations operations teams",
            "start": 358.5,
            "duration": 3.6
        },
        {
            "text": "inevitably became devops Gatekeepers at",
            "start": 360.06,
            "duration": 3.72
        },
        {
            "text": "every phase of the loop planning",
            "start": 362.1,
            "duration": 3.18
        },
        {
            "text": "planning today requires knowledge and",
            "start": 363.78,
            "duration": 3.66
        },
        {
            "text": "trade-offs of the cloud services as the",
            "start": 365.28,
            "duration": 3.9
        },
        {
            "text": "cloud has gotten more complex teams are",
            "start": 367.44,
            "duration": 3.9
        },
        {
            "text": "left with a few options work with what",
            "start": 369.18,
            "duration": 4.26
        },
        {
            "text": "they've got or sync with Ops to see what",
            "start": 371.34,
            "duration": 4.859
        },
        {
            "text": "their backlog looks like yeah I I can",
            "start": 373.44,
            "duration": 3.66
        },
        {
            "text": "feel this",
            "start": 376.199,
            "duration": 2.461
        },
        {
            "text": "I can feel this we've had some similar",
            "start": 377.1,
            "duration": 3.18
        },
        {
            "text": "things at Netflix where we've we've been",
            "start": 378.66,
            "duration": 3.78
        },
        {
            "text": "gated by our ability to interact with",
            "start": 380.28,
            "duration": 3.9
        },
        {
            "text": "other services this is this is real",
            "start": 382.44,
            "duration": 3.72
        },
        {
            "text": "organizations that have invested in a",
            "start": 384.18,
            "duration": 3.42
        },
        {
            "text": "platform engineering have either a",
            "start": 386.16,
            "duration": 3.0
        },
        {
            "text": "golden path already identified or",
            "start": 387.6,
            "duration": 3.0
        },
        {
            "text": "enabled teams to research and develop",
            "start": 389.16,
            "duration": 3.24
        },
        {
            "text": "new golden paths rapidly this",
            "start": 390.6,
            "duration": 3.9
        },
        {
            "text": "flexibility is key to a great platform",
            "start": 392.4,
            "duration": 5.16
        },
        {
            "text": "we aren't uh building golden roads they",
            "start": 394.5,
            "duration": 4.979
        },
        {
            "text": "are paths golden pass should provide",
            "start": 397.56,
            "duration": 3.84
        },
        {
            "text": "Direction and guard rails but they ex",
            "start": 399.479,
            "duration": 3.84
        },
        {
            "text": "but be acceptable when the business",
            "start": 401.4,
            "duration": 4.44
        },
        {
            "text": "needs to change okay coding is becoming",
            "start": 403.319,
            "duration": 4.141
        },
        {
            "text": "more and more of a hodgepodge of cloud",
            "start": 405.84,
            "duration": 3.66
        },
        {
            "text": "apis this is a good thing we should run",
            "start": 407.46,
            "duration": 4.2
        },
        {
            "text": "to run or we should want to write and",
            "start": 409.5,
            "duration": 3.6
        },
        {
            "text": "run less code",
            "start": 411.66,
            "duration": 4.2
        },
        {
            "text": "okay I agree with this yeah I think some",
            "start": 413.1,
            "duration": 4.56
        },
        {
            "text": "of the problems",
            "start": 415.86,
            "duration": 4.2
        },
        {
            "text": "is that",
            "start": 417.66,
            "duration": 4.5
        },
        {
            "text": "like you know like I know we're talking",
            "start": 420.06,
            "duration": 3.419
        },
        {
            "text": "about Golden pass and all this stuff",
            "start": 422.16,
            "duration": 3.0
        },
        {
            "text": "like to even develop some of these",
            "start": 423.479,
            "duration": 3.66
        },
        {
            "text": "things and make this stuff happen just",
            "start": 425.16,
            "duration": 3.96
        },
        {
            "text": "requires such good ability to like",
            "start": 427.139,
            "duration": 5.041
        },
        {
            "text": "foresee what your team needs that one",
            "start": 429.12,
            "duration": 5.16
        },
        {
            "text": "man's golden path is another man's",
            "start": 432.18,
            "duration": 4.38
        },
        {
            "text": "doo-doo path right it's just like I find",
            "start": 434.28,
            "duration": 4.199
        },
        {
            "text": "this to be a very dip like I love the",
            "start": 436.56,
            "duration": 4.919
        },
        {
            "text": "idea I'm just like Curious how",
            "start": 438.479,
            "duration": 6.741
        },
        {
            "text": "well this actually works",
            "start": 441.479,
            "duration": 3.741
        },
        {
            "text": "in realness oh am I saying that this yes",
            "start": 445.259,
            "duration": 3.78
        },
        {
            "text": "the dyslexia is real shut up",
            "start": 447.24,
            "duration": 3.72
        },
        {
            "text": "uh do you know what's worse than waiting",
            "start": 449.039,
            "duration": 4.321
        },
        {
            "text": "uh wading through an Ops backlog during",
            "start": 450.96,
            "duration": 3.959
        },
        {
            "text": "a planning phase missing your deadline",
            "start": 453.36,
            "duration": 3.239
        },
        {
            "text": "and working late because you're waiting",
            "start": 454.919,
            "duration": 3.72
        },
        {
            "text": "for someone on the Ops Team to update",
            "start": 456.599,
            "duration": 4.38
        },
        {
            "text": "the IM policies and create KMS keys",
            "start": 458.639,
            "duration": 4.141
        },
        {
            "text": "because you didn't realize the since",
            "start": 460.979,
            "duration": 3.601
        },
        {
            "text": "topics were in different regions than",
            "start": 462.78,
            "duration": 3.66
        },
        {
            "text": "your squares",
            "start": 464.58,
            "duration": 3.42
        },
        {
            "text": "if you're not sniffing and squishing",
            "start": 466.44,
            "duration": 2.94
        },
        {
            "text": "then you don't know",
            "start": 468.0,
            "duration": 3.06
        },
        {
            "text": "[\u00a0__\u00a0]",
            "start": 469.38,
            "duration": 3.84
        },
        {
            "text": "um a great internal developer platform",
            "start": 471.06,
            "duration": 4.5
        },
        {
            "text": "has conv conventions in place to handle",
            "start": 473.22,
            "duration": 4.62
        },
        {
            "text": "a small tedious bits of the cloud like I",
            "start": 475.56,
            "duration": 5.639
        },
        {
            "text": "am and KMS that take uh the most amount",
            "start": 477.84,
            "duration": 4.74
        },
        {
            "text": "of time to address they focus on",
            "start": 481.199,
            "duration": 2.881
        },
        {
            "text": "Engineers intentions not making",
            "start": 482.58,
            "duration": 3.54
        },
        {
            "text": "Engineers worry about implementation",
            "start": 484.08,
            "duration": 4.64
        },
        {
            "text": "details",
            "start": 486.12,
            "duration": 2.6
        },
        {
            "text": "why can't they just change",
            "start": 488.759,
            "duration": 3.0
        },
        {
            "text": "them jump in there and get some stuff",
            "start": 490.56,
            "duration": 2.52
        },
        {
            "text": "done you know what I mean uh just",
            "start": 491.759,
            "duration": 3.241
        },
        {
            "text": "teasing Brian you know I love you I know",
            "start": 493.08,
            "duration": 3.899
        },
        {
            "text": "you do okay but don't make fun of my",
            "start": 495.0,
            "duration": 5.58
        },
        {
            "text": "dyslexia uh yeah cicd that one term Dave",
            "start": 496.979,
            "duration": 5.16
        },
        {
            "text": "talks about which I don't think he knows",
            "start": 500.58,
            "duration": 3.239
        },
        {
            "text": "what it means but he says he does the",
            "start": 502.139,
            "duration": 3.24
        },
        {
            "text": "fuzzy boundary between development and",
            "start": 503.819,
            "duration": 3.541
        },
        {
            "text": "production these phases are so fraught",
            "start": 505.379,
            "duration": 3.72
        },
        {
            "text": "with [\u00a0__\u00a0] that they have become meme",
            "start": 507.36,
            "duration": 2.88
        },
        {
            "text": "Worthy",
            "start": 509.099,
            "duration": 4.56
        },
        {
            "text": "worked in uh worked fine in Dev Ops is",
            "start": 510.24,
            "duration": 5.28
        },
        {
            "text": "uh Ops problem now this is great this is",
            "start": 513.659,
            "duration": 3.781
        },
        {
            "text": "great but that's",
            "start": 515.52,
            "duration": 4.86
        },
        {
            "text": "oh my can I just zoom out a little bit",
            "start": 517.44,
            "duration": 5.64
        },
        {
            "text": "all right but it's uh an Ops problem is",
            "start": 520.38,
            "duration": 4.5
        },
        {
            "text": "uh it's an entire organization problem",
            "start": 523.08,
            "duration": 4.319
        },
        {
            "text": "I'm convinced that CI CD phase is the",
            "start": 524.88,
            "duration": 4.2
        },
        {
            "text": "root of where frustration divisions grow",
            "start": 527.399,
            "duration": 3.361
        },
        {
            "text": "between operations and Engineering teams",
            "start": 529.08,
            "duration": 3.54
        },
        {
            "text": "so this is actually this is all one",
            "start": 530.76,
            "duration": 4.56
        },
        {
            "text": "phase for each team right there is no",
            "start": 532.62,
            "duration": 5.1
        },
        {
            "text": "the platform at Netflix provides like",
            "start": 535.32,
            "duration": 4.139
        },
        {
            "text": "ways to monitor",
            "start": 537.72,
            "duration": 3.72
        },
        {
            "text": "ways to scale ways to do a lot of stuff",
            "start": 539.459,
            "duration": 3.481
        },
        {
            "text": "but",
            "start": 541.44,
            "duration": 3.3
        },
        {
            "text": "like when we release it's not someone",
            "start": 542.94,
            "duration": 2.76
        },
        {
            "text": "else's",
            "start": 544.74,
            "duration": 2.64
        },
        {
            "text": "item right we actually have to take care",
            "start": 545.7,
            "duration": 2.88
        },
        {
            "text": "of it we have to watch the whole dang",
            "start": 547.38,
            "duration": 2.76
        },
        {
            "text": "thing you know how nervous I was when I",
            "start": 548.58,
            "duration": 4.319
        },
        {
            "text": "was launching our first uh like next-gen",
            "start": 550.14,
            "duration": 4.259
        },
        {
            "text": "Network stack",
            "start": 552.899,
            "duration": 4.5
        },
        {
            "text": "and I put 50 000 people into a new",
            "start": 554.399,
            "duration": 4.5
        },
        {
            "text": "network stack",
            "start": 557.399,
            "duration": 3.961
        },
        {
            "text": "and I just watched it being like",
            "start": 558.899,
            "duration": 5.401
        },
        {
            "text": "please keep playing Netflix and it like",
            "start": 561.36,
            "duration": 4.62
        },
        {
            "text": "Works people kept playing Netflix and",
            "start": 564.3,
            "duration": 4.74
        },
        {
            "text": "I'm like yes we've got it right like",
            "start": 565.98,
            "duration": 4.68
        },
        {
            "text": "until then you know of course you put a",
            "start": 569.04,
            "duration": 2.76
        },
        {
            "text": "bunch of people in there and you're just",
            "start": 570.66,
            "duration": 3.179
        },
        {
            "text": "like yes and then you start monitoring",
            "start": 571.8,
            "duration": 3.479
        },
        {
            "text": "logs and you're seeing what's going on",
            "start": 573.839,
            "duration": 2.94
        },
        {
            "text": "then you realize no one actually got the",
            "start": 575.279,
            "duration": 3.06
        },
        {
            "text": "next Network stack and then you go back",
            "start": 576.779,
            "duration": 3.721
        },
        {
            "text": "to the [\u00a0__\u00a0] your pants problem oh",
            "start": 578.339,
            "duration": 4.44
        },
        {
            "text": "man like like this was just part of",
            "start": 580.5,
            "duration": 3.959
        },
        {
            "text": "Netflix part of being on a team was when",
            "start": 582.779,
            "duration": 3.06
        },
        {
            "text": "you're launching stuff you you did",
            "start": 584.459,
            "duration": 3.0
        },
        {
            "text": "everything you did it from you do the",
            "start": 585.839,
            "duration": 3.301
        },
        {
            "text": "whole souped nuts we just have platforms",
            "start": 587.459,
            "duration": 3.0
        },
        {
            "text": "that are available to make things work",
            "start": 589.14,
            "duration": 3.54
        },
        {
            "text": "right uh in production we are running in",
            "start": 590.459,
            "duration": 4.261
        },
        {
            "text": "containers but developing developing in",
            "start": 592.68,
            "duration": 4.32
        },
        {
            "text": "container is too slow so the team leans",
            "start": 594.72,
            "duration": 5.22
        },
        {
            "text": "towards ASDF and a readme uh full of",
            "start": 597.0,
            "duration": 5.459
        },
        {
            "text": "stuff to copy pasta and pray during a",
            "start": 599.94,
            "duration": 4.56
        },
        {
            "text": "Sprint an engineer ads convert image",
            "start": 602.459,
            "duration": 3.901
        },
        {
            "text": "magic to the mix to support manipulating",
            "start": 604.5,
            "duration": 3.48
        },
        {
            "text": "images and forgets to update the docker",
            "start": 606.36,
            "duration": 3.28
        },
        {
            "text": "file and then production goes down",
            "start": 607.98,
            "duration": 4.78
        },
        {
            "text": "[Laughter]",
            "start": 609.64,
            "duration": 3.12
        },
        {
            "text": "I mean that's",
            "start": 614.519,
            "duration": 7.561
        },
        {
            "text": "how how porque Maria uh this is where",
            "start": 617.6,
            "duration": 5.919
        },
        {
            "text": "trust between developers and operations",
            "start": 622.08,
            "duration": 3.12
        },
        {
            "text": "begins to erode internal developer",
            "start": 623.519,
            "duration": 3.301
        },
        {
            "text": "platforms should allow an engineer to",
            "start": 625.2,
            "duration": 3.24
        },
        {
            "text": "run their applications where they want",
            "start": 626.82,
            "duration": 4.26
        },
        {
            "text": "how they want Lambda and Docker",
            "start": 628.44,
            "duration": 5.339
        },
        {
            "text": "sugarcades build uh build pack sure VMS",
            "start": 631.08,
            "duration": 4.68
        },
        {
            "text": "and tarball sure one thing that they one",
            "start": 633.779,
            "duration": 3.06
        },
        {
            "text": "thing that I noticed that they didn't",
            "start": 635.76,
            "duration": 2.94
        },
        {
            "text": "say in here is canaries right like you",
            "start": 636.839,
            "duration": 3.12
        },
        {
            "text": "wouldn't have really been able to take",
            "start": 638.7,
            "duration": 2.94
        },
        {
            "text": "down production if you would have",
            "start": 639.959,
            "duration": 4.38
        },
        {
            "text": "canaried the first 100 200 300 people go",
            "start": 641.64,
            "duration": 4.8
        },
        {
            "text": "through your stuff will just be getting",
            "start": 644.339,
            "duration": 4.44
        },
        {
            "text": "zeros right and you'd go oh wait a",
            "start": 646.44,
            "duration": 4.86
        },
        {
            "text": "second we've royally screwed this up",
            "start": 648.779,
            "duration": 4.68
        },
        {
            "text": "let's back it up people so canaries are",
            "start": 651.3,
            "duration": 4.26
        },
        {
            "text": "a beautiful canaries",
            "start": 653.459,
            "duration": 4.201
        },
        {
            "text": "always Canary unfortunately many of the",
            "start": 655.56,
            "duration": 3.66
        },
        {
            "text": "platforms today Force developers to run",
            "start": 657.66,
            "duration": 3.84
        },
        {
            "text": "on kubernetes a great developer platform",
            "start": 659.22,
            "duration": 4.26
        },
        {
            "text": "meets Engineers where they are it should",
            "start": 661.5,
            "duration": 3.3
        },
        {
            "text": "be flexible in architecture but",
            "start": 663.48,
            "duration": 3.66
        },
        {
            "text": "opinionated and self-service uh operate",
            "start": 664.8,
            "duration": 3.9
        },
        {
            "text": "and monitor the final stages of this",
            "start": 667.14,
            "duration": 4.08
        },
        {
            "text": "perfect Loop model are arguably where",
            "start": 668.7,
            "duration": 4.86
        },
        {
            "text": "Ops should be that'd be great except for",
            "start": 671.22,
            "duration": 4.739
        },
        {
            "text": "now we've got threes to cover that huh",
            "start": 673.56,
            "duration": 5.04
        },
        {
            "text": "if the devops team ships a postgres RDS",
            "start": 675.959,
            "duration": 4.44
        },
        {
            "text": "instance it will run fine forever that",
            "start": 678.6,
            "duration": 3.54
        },
        {
            "text": "is until the application starts using it",
            "start": 680.399,
            "duration": 4.44
        },
        {
            "text": "all of a sudden a Cascade of n plus ones",
            "start": 682.14,
            "duration": 5.46
        },
        {
            "text": "hit the CPU spikes and queries grind to",
            "start": 684.839,
            "duration": 4.68
        },
        {
            "text": "a halt all of a sudden everyone's using",
            "start": 687.6,
            "duration": 4.56
        },
        {
            "text": "the new react server components and",
            "start": 689.519,
            "duration": 6.481
        },
        {
            "text": "nobody knows why is so chatty but all of",
            "start": 692.16,
            "duration": 6.359
        },
        {
            "text": "a sudden you're making 900 requests just",
            "start": 696.0,
            "duration": 5.64
        },
        {
            "text": "and you have no effing clue why it's so",
            "start": 698.519,
            "duration": 4.32
        },
        {
            "text": "bad oh yeah",
            "start": 701.64,
            "duration": 4.98
        },
        {
            "text": "I love I love it love it I cannot wait I",
            "start": 702.839,
            "duration": 4.861
        },
        {
            "text": "cannot wait",
            "start": 706.62,
            "duration": 2.94
        },
        {
            "text": "for the next year and a half when people",
            "start": 707.7,
            "duration": 3.66
        },
        {
            "text": "come all the way around be like why'd we",
            "start": 709.56,
            "duration": 4.74
        },
        {
            "text": "do that uh who uh who is woken up and",
            "start": 711.36,
            "duration": 5.34
        },
        {
            "text": "why does this always happen at 2 A.M in",
            "start": 714.3,
            "duration": 3.9
        },
        {
            "text": "this scenario there is nothing for",
            "start": 716.7,
            "duration": 4.44
        },
        {
            "text": "operations Personnel to do yet here they",
            "start": 718.2,
            "duration": 4.92
        },
        {
            "text": "are do you think devops is doing what",
            "start": 721.14,
            "duration": 3.6
        },
        {
            "text": "it's supposed to do the expertise that",
            "start": 723.12,
            "duration": 3.899
        },
        {
            "text": "operations and three teams have is",
            "start": 724.74,
            "duration": 4.32
        },
        {
            "text": "critical to developing secure scalable",
            "start": 727.019,
            "duration": 4.38
        },
        {
            "text": "systems but the old idea of devops and",
            "start": 729.06,
            "duration": 4.62
        },
        {
            "text": "the hurdles our industry has turned it",
            "start": 731.399,
            "duration": 5.281
        },
        {
            "text": "into is holding us back I really like",
            "start": 733.68,
            "duration": 5.04
        },
        {
            "text": "the idea of this article which is really",
            "start": 736.68,
            "duration": 3.48
        },
        {
            "text": "you should always be building for a",
            "start": 738.72,
            "duration": 3.66
        },
        {
            "text": "platform you should always provide a we",
            "start": 740.16,
            "duration": 4.32
        },
        {
            "text": "call it like a gray glove approach",
            "start": 742.38,
            "duration": 4.56
        },
        {
            "text": "and agree just blame image magic always",
            "start": 744.48,
            "duration": 4.44
        },
        {
            "text": "blame him image magic image magic is",
            "start": 746.94,
            "duration": 3.899
        },
        {
            "text": "just the worst it's also the best at the",
            "start": 748.92,
            "duration": 3.9
        },
        {
            "text": "exact same time but a gray glove is",
            "start": 750.839,
            "duration": 2.761
        },
        {
            "text": "where",
            "start": 752.82,
            "duration": 3.24
        },
        {
            "text": "it's not white glove but it's also it's",
            "start": 753.6,
            "duration": 4.26
        },
        {
            "text": "not no glove right it's not black glove",
            "start": 756.06,
            "duration": 2.64
        },
        {
            "text": "I'm not sure what the opposite of white",
            "start": 757.86,
            "duration": 1.919
        },
        {
            "text": "Club is I've never even thought about",
            "start": 758.7,
            "duration": 3.48
        },
        {
            "text": "that uh",
            "start": 759.779,
            "duration": 5.041
        },
        {
            "text": "but it allows you to be able to just",
            "start": 762.18,
            "duration": 4.68
        },
        {
            "text": "launch something and have that work",
            "start": 764.82,
            "duration": 4.44
        },
        {
            "text": "or you could just build it yourself",
            "start": 766.86,
            "duration": 3.779
        },
        {
            "text": "you know like you kind of get some",
            "start": 769.26,
            "duration": 3.66
        },
        {
            "text": "options there show of hands how many",
            "start": 770.639,
            "duration": 4.081
        },
        {
            "text": "people in your organization think CI CD",
            "start": 772.92,
            "duration": 4.38
        },
        {
            "text": "is devops I think it's a mix and Netflix",
            "start": 774.72,
            "duration": 4.44
        },
        {
            "text": "it's a little bit more unique",
            "start": 777.3,
            "duration": 3.719
        },
        {
            "text": "in a sense I don't think anyone could",
            "start": 779.16,
            "duration": 3.84
        },
        {
            "text": "say it's any one thing it's like a bunch",
            "start": 781.019,
            "duration": 3.301
        },
        {
            "text": "of people's responses show of hands how",
            "start": 783.0,
            "duration": 2.339
        },
        {
            "text": "many people in your organization think",
            "start": 784.32,
            "duration": 2.4
        },
        {
            "text": "they don't need devops because they run",
            "start": 785.339,
            "duration": 3.421
        },
        {
            "text": "serverless I knew it was a serverless",
            "start": 786.72,
            "duration": 5.76
        },
        {
            "text": "article I knew it I knew it I knew it I",
            "start": 788.76,
            "duration": 6.12
        },
        {
            "text": "knew it uh show of hands how many of you",
            "start": 792.48,
            "duration": 4.62
        },
        {
            "text": "think above two interpretations are a",
            "start": 794.88,
            "duration": 4.98
        },
        {
            "text": "problem yes uh to most the term devops",
            "start": 797.1,
            "duration": 4.02
        },
        {
            "text": "have completely lost its meaning that's",
            "start": 799.86,
            "duration": 2.52
        },
        {
            "text": "I mean it's true I actually don't even",
            "start": 801.12,
            "duration": 3.36
        },
        {
            "text": "know what devops means at this point I",
            "start": 802.38,
            "duration": 3.959
        },
        {
            "text": "just assume platform engineer if you're",
            "start": 804.48,
            "duration": 4.2
        },
        {
            "text": "really really doing devops youth uh do",
            "start": 806.339,
            "duration": 3.601
        },
        {
            "text": "you think Reinventing all of the",
            "start": 808.68,
            "duration": 2.459
        },
        {
            "text": "commodity is really worth your",
            "start": 809.94,
            "duration": 2.94
        },
        {
            "text": "engineering team's time is that good",
            "start": 811.139,
            "duration": 3.601
        },
        {
            "text": "investment for the business you built it",
            "start": 812.88,
            "duration": 4.44
        },
        {
            "text": "run it more like you build it but it",
            "start": 814.74,
            "duration": 4.2
        },
        {
            "text": "takes longer than your Sprint estimates",
            "start": 817.32,
            "duration": 4.319
        },
        {
            "text": "and you cut corners on the off bit that",
            "start": 818.94,
            "duration": 5.1
        },
        {
            "text": "doesn't fit your definition of done",
            "start": 821.639,
            "duration": 4.801
        },
        {
            "text": "isn't that just all engineering can we",
            "start": 824.04,
            "duration": 4.02
        },
        {
            "text": "just apply this to every last bit of",
            "start": 826.44,
            "duration": 4.019
        },
        {
            "text": "engineering ever for all time what'd you",
            "start": 828.06,
            "duration": 4.5
        },
        {
            "text": "do I got some corners",
            "start": 830.459,
            "duration": 4.861
        },
        {
            "text": "and then after cutting Corners I got",
            "start": 832.56,
            "duration": 3.899
        },
        {
            "text": "some more corners you know what I mean",
            "start": 835.32,
            "duration": 2.579
        },
        {
            "text": "know what I mean",
            "start": 836.459,
            "duration": 4.56
        },
        {
            "text": "then I did these nuts joke on Twitter",
            "start": 837.899,
            "duration": 4.981
        },
        {
            "text": "um Legend silo or a mountain Legend",
            "start": 841.019,
            "duration": 4.201
        },
        {
            "text": "silos knowledge silos and expertise are",
            "start": 842.88,
            "duration": 4.259
        },
        {
            "text": "two sides of the same coin from Full",
            "start": 845.22,
            "duration": 3.78
        },
        {
            "text": "stack engineering to devop practitioner",
            "start": 847.139,
            "duration": 3.361
        },
        {
            "text": "our industry loves to pretend everyone",
            "start": 849.0,
            "duration": 3.36
        },
        {
            "text": "can do everything we're an industry of",
            "start": 850.5,
            "duration": 3.959
        },
        {
            "text": "hobbyists we love to Tinker I don't know",
            "start": 852.36,
            "duration": 4.14
        },
        {
            "text": "if we are fooling ourselves or if the",
            "start": 854.459,
            "duration": 4.021
        },
        {
            "text": "industry has been exploiting our hobby",
            "start": 856.5,
            "duration": 3.779
        },
        {
            "text": "driven nature but it's time for devops",
            "start": 858.48,
            "duration": 6.0
        },
        {
            "text": "to get thrown out of the airlock damn",
            "start": 860.279,
            "duration": 6.961
        },
        {
            "text": "pour one out for devops uh the growing",
            "start": 864.48,
            "duration": 4.5
        },
        {
            "text": "Zeitgeist is that platform engineering",
            "start": 867.24,
            "duration": 3.06
        },
        {
            "text": "is the future and given that I",
            "start": 868.98,
            "duration": 3.359
        },
        {
            "text": "co-founded a project a product in the",
            "start": 870.3,
            "duration": 3.9
        },
        {
            "text": "space I sure hope so unfortunately",
            "start": 872.339,
            "duration": 4.021
        },
        {
            "text": "organizations can't get there by",
            "start": 874.2,
            "duration": 4.5
        },
        {
            "text": "expecting the devops team to do it I'm",
            "start": 876.36,
            "duration": 4.68
        },
        {
            "text": "sorry but copy pasting some terraform",
            "start": 878.7,
            "duration": 4.079
        },
        {
            "text": "modules between your git repos is",
            "start": 881.04,
            "duration": 3.78
        },
        {
            "text": "terrible platform your engineers don't",
            "start": 882.779,
            "duration": 3.961
        },
        {
            "text": "want to deal with it and inevitably your",
            "start": 884.82,
            "duration": 3.54
        },
        {
            "text": "Ops team will be on the hook for",
            "start": 886.74,
            "duration": 4.14
        },
        {
            "text": "supporting it hell even if hashicorp is",
            "start": 888.36,
            "duration": 4.5
        },
        {
            "text": "jumping on the no code provision train",
            "start": 890.88,
            "duration": 4.92
        },
        {
            "text": "for their please contact sales plan huh",
            "start": 892.86,
            "duration": 4.56
        },
        {
            "text": "seems like all these companies with",
            "start": 895.8,
            "duration": 5.42
        },
        {
            "text": "Enterprise bucks are struggling too",
            "start": 897.42,
            "duration": 3.8
        },
        {
            "text": "remember that uh so how does the average",
            "start": 901.98,
            "duration": 4.74
        },
        {
            "text": "organization get to the promised land of",
            "start": 904.62,
            "duration": 3.48
        },
        {
            "text": "platform engineering okay good I want to",
            "start": 906.72,
            "duration": 3.54
        },
        {
            "text": "see some action here simple just hire",
            "start": 908.1,
            "duration": 3.72
        },
        {
            "text": "some more front end and back-end",
            "start": 910.26,
            "duration": 3.3
        },
        {
            "text": "Engineers to develop a great internal",
            "start": 911.82,
            "duration": 3.72
        },
        {
            "text": "pass with all the golden pass your",
            "start": 913.56,
            "duration": 3.779
        },
        {
            "text": "operation operations team is",
            "start": 915.54,
            "duration": 3.18
        },
        {
            "text": "architecting while you are trying to",
            "start": 917.339,
            "duration": 3.18
        },
        {
            "text": "build your actual product that runs on",
            "start": 918.72,
            "duration": 5.52
        },
        {
            "text": "top of it it's that simple just pay a",
            "start": 920.519,
            "duration": 5.221
        },
        {
            "text": "couple million",
            "start": 924.24,
            "duration": 4.32
        },
        {
            "text": "okay obviously easier said than done to",
            "start": 925.74,
            "duration": 4.44
        },
        {
            "text": "get there many organizations will need a",
            "start": 928.56,
            "duration": 4.44
        },
        {
            "text": "reality check welcome welcome to reality",
            "start": 930.18,
            "duration": 4.98
        },
        {
            "text": "[\u00a0__\u00a0] uh for every operations person",
            "start": 933.0,
            "duration": 3.6
        },
        {
            "text": "without software development skills",
            "start": 935.16,
            "duration": 3.06
        },
        {
            "text": "there are 40 Engineers without cloud",
            "start": 936.6,
            "duration": 3.599
        },
        {
            "text": "operation skills if you're going to",
            "start": 938.22,
            "duration": 3.78
        },
        {
            "text": "build an internal platform uh you'll",
            "start": 940.199,
            "duration": 3.841
        },
        {
            "text": "need expert experts with overlapping",
            "start": 942.0,
            "duration": 3.36
        },
        {
            "text": "experience in both Fields working",
            "start": 944.04,
            "duration": 4.02
        },
        {
            "text": "together you are also going to need a",
            "start": 945.36,
            "duration": 4.86
        },
        {
            "text": "shitload of time and budget this isn't a",
            "start": 948.06,
            "duration": 4.2
        },
        {
            "text": "hackathon project it isn't a pet project",
            "start": 950.22,
            "duration": 4.799
        },
        {
            "text": "of the new CTO with a wild hair up their",
            "start": 952.26,
            "duration": 6.5
        },
        {
            "text": "ass to plant their flag on the business",
            "start": 955.019,
            "duration": 3.741
        },
        {
            "text": "[\u00a0__\u00a0] you can give a cute Skunk Works",
            "start": 960.0,
            "duration": 5.04
        },
        {
            "text": "name to the show everyone you have",
            "start": 963.12,
            "duration": 4.44
        },
        {
            "text": "access to Wikipedia too but building an",
            "start": 965.04,
            "duration": 4.979
        },
        {
            "text": "internal uh platform is a startup within",
            "start": 967.56,
            "duration": 3.779
        },
        {
            "text": "your primary business building an",
            "start": 970.019,
            "duration": 3.0
        },
        {
            "text": "internal development platform is like",
            "start": 971.339,
            "duration": 3.901
        },
        {
            "text": "changing the tires and engine of a car",
            "start": 973.019,
            "duration": 5.101
        },
        {
            "text": "while it is a hurtling toward a cliff",
            "start": 975.24,
            "duration": 7.099
        },
        {
            "text": "stay agile stay thirsty my friends",
            "start": 978.12,
            "duration": 4.219
        },
        {
            "text": "isn't that magic team called devops",
            "start": 983.82,
            "duration": 4.62
        },
        {
            "text": "you will get that [\u00a0__\u00a0] out of here okay",
            "start": 986.22,
            "duration": 3.239
        },
        {
            "text": "buddy",
            "start": 988.44,
            "duration": 4.8
        },
        {
            "text": "okay buddy okay buddy we're not gonna",
            "start": 989.459,
            "duration": 7.461
        },
        {
            "text": "we're gonna do those around here",
            "start": 993.24,
            "duration": 3.68
        },
        {
            "text": "okay I don't know if you know this but",
            "start": 997.019,
            "duration": 5.641
        },
        {
            "text": "devops is [\u00a0__\u00a0] uh migrate and",
            "start": 999.779,
            "duration": 5.101
        },
        {
            "text": "auxiliary service to get it quickly",
            "start": 1002.66,
            "duration": 5.039
        },
        {
            "text": "wait wait I I dyslexia that one migrate",
            "start": 1004.88,
            "duration": 5.04
        },
        {
            "text": "an auxiliary service to it quickly get",
            "start": 1007.699,
            "duration": 3.841
        },
        {
            "text": "feedback from your engineering customers",
            "start": 1009.92,
            "duration": 4.8
        },
        {
            "text": "yes engineering customers engineering",
            "start": 1011.54,
            "duration": 6.359
        },
        {
            "text": "customers Boomer type they aren't your",
            "start": 1014.72,
            "duration": 5.16
        },
        {
            "text": "team anymore they are your business's",
            "start": 1017.899,
            "duration": 3.601
        },
        {
            "text": "second set of customers and if these",
            "start": 1019.88,
            "duration": 3.18
        },
        {
            "text": "customers aren't buying it you'll end up",
            "start": 1021.5,
            "duration": 3.66
        },
        {
            "text": "with morale problems engineering pinning",
            "start": 1023.06,
            "duration": 4.68
        },
        {
            "text": "for the old ways pining for the old ways",
            "start": 1025.16,
            "duration": 4.5
        },
        {
            "text": "and a boatload of debt and a bunch of",
            "start": 1027.74,
            "duration": 4.679
        },
        {
            "text": "wasted time and effort chin up you are",
            "start": 1029.66,
            "duration": 6.919
        },
        {
            "text": "the new cto's next team can get it done",
            "start": 1032.419,
            "duration": 4.16
        },
        {
            "text": "you hear that people chin up",
            "start": 1037.339,
            "duration": 7.161
        },
        {
            "text": "bootstraps pull them",
            "start": 1041.079,
            "duration": 3.421
        },
        {
            "text": "something about a cowboy cowboy up",
            "start": 1045.02,
            "duration": 4.8
        },
        {
            "text": "ride a horse",
            "start": 1048.14,
            "duration": 3.84
        },
        {
            "text": "wait Ride a Cowboy Save a Horse What's",
            "start": 1049.82,
            "duration": 6.0
        },
        {
            "text": "the phrase I can't remember uh",
            "start": 1051.98,
            "duration": 3.84
        },
        {
            "text": "anyways uh if you're planning to build a",
            "start": 1056.36,
            "duration": 4.559
        },
        {
            "text": "platform there are five core components",
            "start": 1058.76,
            "duration": 3.659
        },
        {
            "text": "that are required but in our experience",
            "start": 1060.919,
            "duration": 2.88
        },
        {
            "text": "there are a few more attributes that",
            "start": 1062.419,
            "duration": 2.941
        },
        {
            "text": "make for a great platform extendable",
            "start": 1063.799,
            "duration": 3.421
        },
        {
            "text": "with open source tooling teams and",
            "start": 1065.36,
            "duration": 3.48
        },
        {
            "text": "workloads are different and will have",
            "start": 1067.22,
            "duration": 4.74
        },
        {
            "text": "different golden paths if an IDP has one",
            "start": 1068.84,
            "duration": 4.92
        },
        {
            "text": "opinion I don't know what an IDP is uh",
            "start": 1071.96,
            "duration": 3.24
        },
        {
            "text": "has one opinion waited to run your",
            "start": 1073.76,
            "duration": 3.419
        },
        {
            "text": "workload it is no better than a pass an",
            "start": 1075.2,
            "duration": 3.479
        },
        {
            "text": "abstraction over kubernetes is not",
            "start": 1077.179,
            "duration": 4.561
        },
        {
            "text": "enough idps must work on all workload",
            "start": 1078.679,
            "duration": 5.341
        },
        {
            "text": "types whether containerized serverless",
            "start": 1081.74,
            "duration": 5.16
        },
        {
            "text": "or virtualized anti-lock in you should",
            "start": 1084.02,
            "duration": 4.98
        },
        {
            "text": "be able to walk away from a bad build or",
            "start": 1086.9,
            "duration": 4.38
        },
        {
            "text": "buy decision without risking production",
            "start": 1089.0,
            "duration": 5.34
        },
        {
            "text": "or having an arduous migration process",
            "start": 1091.28,
            "duration": 4.68
        },
        {
            "text": "I mean you're always locked in at some",
            "start": 1094.34,
            "duration": 3.24
        },
        {
            "text": "level uh security compliance and",
            "start": 1095.96,
            "duration": 3.3
        },
        {
            "text": "guardrails must be built in without them",
            "start": 1097.58,
            "duration": 3.3
        },
        {
            "text": "you are not enabling self-service yeah",
            "start": 1099.26,
            "duration": 3.419
        },
        {
            "text": "this is good you should really security",
            "start": 1100.88,
            "duration": 4.14
        },
        {
            "text": "and stuff should just be in there you",
            "start": 1102.679,
            "duration": 3.841
        },
        {
            "text": "shouldn't you should never have a Dev",
            "start": 1105.02,
            "duration": 3.12
        },
        {
            "text": "work on security do you know the time I",
            "start": 1106.52,
            "duration": 3.42
        },
        {
            "text": "worked on something that involved with",
            "start": 1108.14,
            "duration": 3.899
        },
        {
            "text": "security you know the time that I did I",
            "start": 1109.94,
            "duration": 4.739
        },
        {
            "text": "got I actually built something that got",
            "start": 1112.039,
            "duration": 7.02
        },
        {
            "text": "its own named attack after it okay I got",
            "start": 1114.679,
            "duration": 7.321
        },
        {
            "text": "my own named attack how many of you guys",
            "start": 1119.059,
            "duration": 5.581
        },
        {
            "text": "got that how many of you guys got the uh",
            "start": 1122.0,
            "duration": 4.919
        },
        {
            "text": "the what is it called the uh",
            "start": 1124.64,
            "duration": 4.68
        },
        {
            "text": "something grizzly attack uh gosh what is",
            "start": 1126.919,
            "duration": 3.601
        },
        {
            "text": "it now I can't even remember what it's",
            "start": 1129.32,
            "duration": 3.479
        },
        {
            "text": "called It's called The something grizzly",
            "start": 1130.52,
            "duration": 3.2
        },
        {
            "text": "attack",
            "start": 1132.799,
            "duration": 4.981
        },
        {
            "text": "uh Grizz the grizzly",
            "start": 1133.72,
            "duration": 6.839
        },
        {
            "text": "repulsive grizzly",
            "start": 1137.78,
            "duration": 6.6
        },
        {
            "text": "repulsive grisly denial of service yes I",
            "start": 1140.559,
            "duration": 6.521
        },
        {
            "text": "made this you're you're welcome",
            "start": 1144.38,
            "duration": 8.22
        },
        {
            "text": "I made this article possible okay",
            "start": 1147.08,
            "duration": 7.2
        },
        {
            "text": "I made that",
            "start": 1152.6,
            "duration": 7.38
        },
        {
            "text": "I programmed it it was I it was I who",
            "start": 1154.28,
            "duration": 9.139
        },
        {
            "text": "both discovered and made it",
            "start": 1159.98,
            "duration": 3.439
        },
        {
            "text": "oh NYX would not have helped this",
            "start": 1166.76,
            "duration": 3.84
        },
        {
            "text": "um",
            "start": 1169.46,
            "duration": 3.78
        },
        {
            "text": "but yeah I I made I I made the first one",
            "start": 1170.6,
            "duration": 5.16
        },
        {
            "text": "on Netflix I legitimately took down all",
            "start": 1173.24,
            "duration": 5.22
        },
        {
            "text": "of our non-production services with a",
            "start": 1175.76,
            "duration": 6.779
        },
        {
            "text": "bash while loop that is it",
            "start": 1178.46,
            "duration": 6.839
        },
        {
            "text": "that's it I took down everything I kept",
            "start": 1182.539,
            "duration": 4.621
        },
        {
            "text": "it down for hours",
            "start": 1185.299,
            "duration": 3.841
        },
        {
            "text": "it was simple",
            "start": 1187.16,
            "duration": 3.84
        },
        {
            "text": "I could have taken down entire",
            "start": 1189.14,
            "duration": 5.34
        },
        {
            "text": "production with a thousand requests",
            "start": 1191.0,
            "duration": 6.0
        },
        {
            "text": "that's it one thousand requests would",
            "start": 1194.48,
            "duration": 6.68
        },
        {
            "text": "have just blinked out Netflix forever",
            "start": 1197.0,
            "duration": 4.16
        },
        {
            "text": "I was pretty impressed with myself not",
            "start": 1201.559,
            "duration": 3.36
        },
        {
            "text": "gonna lie uh powerful building blocks",
            "start": 1203.059,
            "duration": 3.36
        },
        {
            "text": "don't worry it's gone now it's all gone",
            "start": 1204.919,
            "duration": 4.081
        },
        {
            "text": "now but uh you know I did that I I did",
            "start": 1206.419,
            "duration": 4.14
        },
        {
            "text": "that I thought blue screens were good",
            "start": 1209.0,
            "duration": 3.299
        },
        {
            "text": "yeah that's pretty much what I did",
            "start": 1210.559,
            "duration": 3.961
        },
        {
            "text": "uh let's see powerful building blocks uh",
            "start": 1212.299,
            "duration": 3.781
        },
        {
            "text": "to increase engineering velocity we have",
            "start": 1214.52,
            "duration": 3.36
        },
        {
            "text": "an industry wide shortage of expert",
            "start": 1216.08,
            "duration": 4.32
        },
        {
            "text": "expertise in the cloud space a great IDP",
            "start": 1217.88,
            "duration": 4.38
        },
        {
            "text": "I still don't know what IDP means should",
            "start": 1220.4,
            "duration": 3.659
        },
        {
            "text": "have safe Dependable building blocks for",
            "start": 1222.26,
            "duration": 5.46
        },
        {
            "text": "Designing cloud services quickly uh",
            "start": 1224.059,
            "duration": 4.921
        },
        {
            "text": "enabling experimentation through",
            "start": 1227.72,
            "duration": 2.699
        },
        {
            "text": "flexibility and extensibility if you",
            "start": 1228.98,
            "duration": 2.699
        },
        {
            "text": "have to reach for another tool or",
            "start": 1230.419,
            "duration": 2.821
        },
        {
            "text": "platform to see how your app would work",
            "start": 1231.679,
            "duration": 3.36
        },
        {
            "text": "in a serverless container or with a",
            "start": 1233.24,
            "duration": 3.299
        },
        {
            "text": "different Pub sub system you are going",
            "start": 1235.039,
            "duration": 2.701
        },
        {
            "text": "to receive pushback from your",
            "start": 1236.539,
            "duration": 3.721
        },
        {
            "text": "stakeholders in your IDP idps must",
            "start": 1237.74,
            "duration": 4.26
        },
        {
            "text": "enable experimentation so the right",
            "start": 1240.26,
            "duration": 2.82
        },
        {
            "text": "decision can be made for our",
            "start": 1242.0,
            "duration": 4.08
        },
        {
            "text": "applications I wonder how how loose can",
            "start": 1243.08,
            "duration": 4.32
        },
        {
            "text": "you really go like how many different",
            "start": 1246.08,
            "duration": 3.36
        },
        {
            "text": "Pub sub systems should you have how many",
            "start": 1247.4,
            "duration": 4.139
        },
        {
            "text": "different like",
            "start": 1249.44,
            "duration": 4.32
        },
        {
            "text": "I don't know that sounds very flexible",
            "start": 1251.539,
            "duration": 3.961
        },
        {
            "text": "ephemeral environments for applications",
            "start": 1253.76,
            "duration": 4.5
        },
        {
            "text": "and infrastructure uh must be supported",
            "start": 1255.5,
            "duration": 4.679
        },
        {
            "text": "our application is becoming so heavily",
            "start": 1258.26,
            "duration": 4.02
        },
        {
            "text": "dependent on cloud services if you can't",
            "start": 1260.179,
            "duration": 3.601
        },
        {
            "text": "provision dependencies like buckets",
            "start": 1262.28,
            "duration": 3.48
        },
        {
            "text": "queues or databases when you open a pull",
            "start": 1263.78,
            "duration": 3.84
        },
        {
            "text": "request you are really getting close to",
            "start": 1265.76,
            "duration": 5.0
        },
        {
            "text": "approximation to production",
            "start": 1267.62,
            "duration": 3.14
        },
        {
            "text": "configuring alerting and monitoring this",
            "start": 1271.039,
            "duration": 3.541
        },
        {
            "text": "is my this this is a sweet this is like",
            "start": 1273.02,
            "duration": 3.06
        },
        {
            "text": "a wheelhouse right here I love this for",
            "start": 1274.58,
            "duration": 3.12
        },
        {
            "text": "provision uh provision infrastructure",
            "start": 1276.08,
            "duration": 3.24
        },
        {
            "text": "and applications with good defaults if",
            "start": 1277.7,
            "duration": 3.24
        },
        {
            "text": "Engineers can deploy their own resources",
            "start": 1279.32,
            "duration": 3.66
        },
        {
            "text": "they must be monitored without requiring",
            "start": 1280.94,
            "duration": 4.32
        },
        {
            "text": "an extra tool to configure otherwise the",
            "start": 1282.98,
            "duration": 3.78
        },
        {
            "text": "likelihood that those resources have",
            "start": 1285.26,
            "duration": 2.7
        },
        {
            "text": "alerts configured will decrease",
            "start": 1286.76,
            "duration": 2.76
        },
        {
            "text": "significantly yeah there's like your",
            "start": 1287.96,
            "duration": 3.839
        },
        {
            "text": "base level alerts like how's the service",
            "start": 1289.52,
            "duration": 3.84
        },
        {
            "text": "doing but then there's also secondary",
            "start": 1291.799,
            "duration": 3.36
        },
        {
            "text": "level alerts like is your service",
            "start": 1293.36,
            "duration": 4.439
        },
        {
            "text": "actually operating correctly has one",
            "start": 1295.159,
            "duration": 4.26
        },
        {
            "text": "change to another actually started",
            "start": 1297.799,
            "duration": 3.541
        },
        {
            "text": "causing real issues and so there is",
            "start": 1299.419,
            "duration": 4.74
        },
        {
            "text": "always going to be a second level hand",
            "start": 1301.34,
            "duration": 4.56
        },
        {
            "text": "bespoke monitoring that must be required",
            "start": 1304.159,
            "duration": 2.941
        },
        {
            "text": "you know what I mean platform",
            "start": 1305.9,
            "duration": 2.94
        },
        {
            "text": "engineering is possible and it is the",
            "start": 1307.1,
            "duration": 3.24
        },
        {
            "text": "future our system are likely more",
            "start": 1308.84,
            "duration": 3.3
        },
        {
            "text": "complicated and higher scale earlier as",
            "start": 1310.34,
            "duration": 3.3
        },
        {
            "text": "more and more parts of the world get",
            "start": 1312.14,
            "duration": 3.36
        },
        {
            "text": "online we're creating a great new",
            "start": 1313.64,
            "duration": 3.779
        },
        {
            "text": "Engineers daily out of a out of boot",
            "start": 1315.5,
            "duration": 3.6
        },
        {
            "text": "camps but we aren't excelling in",
            "start": 1317.419,
            "duration": 3.601
        },
        {
            "text": "operational maturity as an industry we",
            "start": 1319.1,
            "duration": 3.9
        },
        {
            "text": "have a lot of data to protect we are",
            "start": 1321.02,
            "duration": 3.0
        },
        {
            "text": "stewards of personal information",
            "start": 1323.0,
            "duration": 2.88
        },
        {
            "text": "customers assume we have fiduciary",
            "start": 1324.02,
            "duration": 4.74
        },
        {
            "text": "responsibilities we but we mostly act",
            "start": 1325.88,
            "duration": 4.62
        },
        {
            "text": "like hobbyists we need to make sure",
            "start": 1328.76,
            "duration": 3.419
        },
        {
            "text": "platform engineering is the next",
            "start": 1330.5,
            "duration": 4.5
        },
        {
            "text": "[\u00a0__\u00a0] buzzword",
            "start": 1332.179,
            "duration": 4.441
        },
        {
            "text": "I liked it I actually really liked this",
            "start": 1335.0,
            "duration": 2.94
        },
        {
            "text": "article",
            "start": 1336.62,
            "duration": 3.96
        },
        {
            "text": "yeah devops is [\u00a0__\u00a0]",
            "start": 1337.94,
            "duration": 4.72
        },
        {
            "text": "what a crap article",
            "start": 1340.58,
            "duration": 4.32
        },
        {
            "text": "[Laughter]",
            "start": 1342.66,
            "duration": 4.34
        },
        {
            "text": "I mean what I like about the article is",
            "start": 1344.9,
            "duration": 3.72
        },
        {
            "text": "that they're put that they're putting",
            "start": 1347.0,
            "duration": 2.76
        },
        {
            "text": "forth this idea that you should be",
            "start": 1348.62,
            "duration": 3.6
        },
        {
            "text": "building a uh you should be building",
            "start": 1349.76,
            "duration": 4.919
        },
        {
            "text": "platforms which I totally agree with",
            "start": 1352.22,
            "duration": 5.339
        },
        {
            "text": "right I totally agree with you should be",
            "start": 1354.679,
            "duration": 5.761
        },
        {
            "text": "putting together platforms what you",
            "start": 1357.559,
            "duration": 5.041
        },
        {
            "text": "should not be doing is putting together",
            "start": 1360.44,
            "duration": 4.26
        },
        {
            "text": "like you should not have someone just",
            "start": 1362.6,
            "duration": 4.38
        },
        {
            "text": "always doing all the grunt work for",
            "start": 1364.7,
            "duration": 4.14
        },
        {
            "text": "everything at all times because that is",
            "start": 1366.98,
            "duration": 5.819
        },
        {
            "text": "truly unscalable right it is terrible",
            "start": 1368.84,
            "duration": 6.0
        },
        {
            "text": "um",
            "start": 1372.799,
            "duration": 4.88
        },
        {
            "text": "you know what I mean",
            "start": 1374.84,
            "duration": 2.839
        },
        {
            "text": "I mean that like it really makes a big",
            "start": 1377.96,
            "duration": 3.48
        },
        {
            "text": "difference what does he mean by a",
            "start": 1380.179,
            "duration": 2.701
        },
        {
            "text": "platform like the ability internal",
            "start": 1381.44,
            "duration": 3.599
        },
        {
            "text": "development platform okay it's like you",
            "start": 1382.88,
            "duration": 3.6
        },
        {
            "text": "need to be able to launch a service a",
            "start": 1385.039,
            "duration": 2.76
        },
        {
            "text": "micro service it needs to be able to",
            "start": 1386.48,
            "duration": 2.76
        },
        {
            "text": "have databases it needs to be able to",
            "start": 1387.799,
            "duration": 3.061
        },
        {
            "text": "have this that and the other how do you",
            "start": 1389.24,
            "duration": 3.24
        },
        {
            "text": "get that all done internally within your",
            "start": 1390.86,
            "duration": 3.36
        },
        {
            "text": "company well for the most part what",
            "start": 1392.48,
            "duration": 2.819
        },
        {
            "text": "you're going to be doing at any small",
            "start": 1394.22,
            "duration": 2.16
        },
        {
            "text": "companies that you're going to be just",
            "start": 1395.299,
            "duration": 2.76
        },
        {
            "text": "setting all that [\u00a0__\u00a0] up yourself right",
            "start": 1396.38,
            "duration": 2.88
        },
        {
            "text": "you're gonna have your own bespoke",
            "start": 1398.059,
            "duration": 3.12
        },
        {
            "text": "version and the team next door to you is",
            "start": 1399.26,
            "duration": 3.48
        },
        {
            "text": "going to have their own bespoke version",
            "start": 1401.179,
            "duration": 4.021
        },
        {
            "text": "and kind of what the the thesis of this",
            "start": 1402.74,
            "duration": 4.439
        },
        {
            "text": "article is is that you just kind of copy",
            "start": 1405.2,
            "duration": 4.32
        },
        {
            "text": "pasta each other's configs and that's",
            "start": 1407.179,
            "duration": 3.841
        },
        {
            "text": "platform and so when something needs to",
            "start": 1409.52,
            "duration": 3.18
        },
        {
            "text": "change you have this like golden set of",
            "start": 1411.02,
            "duration": 3.48
        },
        {
            "text": "configs that everyone uses to launch all",
            "start": 1412.7,
            "duration": 3.599
        },
        {
            "text": "their crap but then you bespoke it out",
            "start": 1414.5,
            "duration": 3.179
        },
        {
            "text": "yourselves and then everything is hard",
            "start": 1416.299,
            "duration": 3.301
        },
        {
            "text": "to deal with there's no platform there's",
            "start": 1417.679,
            "duration": 4.561
        },
        {
            "text": "just configuration being copied around",
            "start": 1419.6,
            "duration": 5.34
        },
        {
            "text": "right which is total insanity but it",
            "start": 1422.24,
            "duration": 5.7
        },
        {
            "text": "does happen it completely happens uh",
            "start": 1424.94,
            "duration": 4.32
        },
        {
            "text": "uh it's not versioned absolutely",
            "start": 1427.94,
            "duration": 2.94
        },
        {
            "text": "definitely oh I mean it's version by get",
            "start": 1429.26,
            "duration": 2.82
        },
        {
            "text": "peace out Primus and have a great day",
            "start": 1430.88,
            "duration": 2.94
        },
        {
            "text": "after meetings hey have a good one buddy",
            "start": 1432.08,
            "duration": 3.18
        },
        {
            "text": "what is a platform a platform is",
            "start": 1433.82,
            "duration": 3.54
        },
        {
            "text": "something that does this for you",
            "start": 1435.26,
            "duration": 6.96
        },
        {
            "text": "right I need to launch a new service",
            "start": 1437.36,
            "duration": 6.72
        },
        {
            "text": "what are my language choices I have node",
            "start": 1442.22,
            "duration": 3.72
        },
        {
            "text": "or Java at Netflix that's pretty much",
            "start": 1444.08,
            "duration": 3.18
        },
        {
            "text": "what you have you also kind of have go",
            "start": 1445.94,
            "duration": 3.599
        },
        {
            "text": "starting to come up okay I'm gonna have",
            "start": 1447.26,
            "duration": 4.08
        },
        {
            "text": "go I need to be able to communicate with",
            "start": 1449.539,
            "duration": 3.601
        },
        {
            "text": "the database okay communicate with the",
            "start": 1451.34,
            "duration": 3.42
        },
        {
            "text": "database here's how you launch it I need",
            "start": 1453.14,
            "duration": 2.94
        },
        {
            "text": "to be able to do this okay you can do",
            "start": 1454.76,
            "duration": 2.58
        },
        {
            "text": "that this is how you launch it oh you",
            "start": 1456.08,
            "duration": 2.339
        },
        {
            "text": "need to be able to have logging okay",
            "start": 1457.34,
            "duration": 2.459
        },
        {
            "text": "this is how you do it this is how you",
            "start": 1458.419,
            "duration": 3.12
        },
        {
            "text": "launch it right like you kind of have to",
            "start": 1459.799,
            "duration": 3.421
        },
        {
            "text": "enable each one of the things and blah",
            "start": 1461.539,
            "duration": 3.481
        },
        {
            "text": "blah blah blah boom now you have",
            "start": 1463.22,
            "duration": 3.9
        },
        {
            "text": "yourself a service it's that simple but",
            "start": 1465.02,
            "duration": 4.74
        },
        {
            "text": "here's the deal people twitch.tv I need",
            "start": 1467.12,
            "duration": 5.1
        },
        {
            "text": "to go because I I just hear my my little",
            "start": 1469.76,
            "duration": 4.74
        },
        {
            "text": "phones is pinging yep that's like my",
            "start": 1472.22,
            "duration": 5.0
        },
        {
            "text": "fifth ping",
            "start": 1474.5,
            "duration": 2.72
        }
    ],
    "stats": {
        "viewCount": "274752",
        "likeCount": "6353",
        "favoriteCount": "0",
        "commentCount": "464"
    }
}