{
    "id": "qzR-qsg6ycg",
    "title": "Dunking on devs",
    "publishedAt": "2023-12-27T20:26:40Z",
    "captions": [
        {
            "text": "nothing is better than when you have",
            "start": 0.12,
            "duration": 4.0
        },
        {
            "text": "people that have never learned their",
            "start": 2.28,
            "duration": 3.92
        },
        {
            "text": "environment have never really used",
            "start": 4.12,
            "duration": 4.08
        },
        {
            "text": "anything and they come over and ask you",
            "start": 6.2,
            "duration": 4.28
        },
        {
            "text": "question and you just like hit some data",
            "start": 8.2,
            "duration": 4.88
        },
        {
            "text": "from a service pipe it through JQ grab a",
            "start": 10.48,
            "duration": 4.399
        },
        {
            "text": "few arguments out pipe it into something",
            "start": 13.08,
            "duration": 3.56
        },
        {
            "text": "open up Vim jump a couple things around",
            "start": 14.879,
            "duration": 3.361
        },
        {
            "text": "oh people are just like how' you do all",
            "start": 16.64,
            "duration": 2.799
        },
        {
            "text": "that it's just like yo dog they're just",
            "start": 18.24,
            "duration": 2.48
        },
        {
            "text": "like basic tools what do you mean",
            "start": 19.439,
            "duration": 2.68
        },
        {
            "text": "they've been available they're they're",
            "start": 20.72,
            "duration": 3.28
        },
        {
            "text": "just they're just there what do you mean",
            "start": 22.119,
            "duration": 3.32
        },
        {
            "text": "can you send that to me sure I'll send",
            "start": 24.0,
            "duration": 2.8
        },
        {
            "text": "that to can you send me the command it's",
            "start": 25.439,
            "duration": 2.68
        },
        {
            "text": "not going to help you command's not",
            "start": 26.8,
            "duration": 2.44
        },
        {
            "text": "going to help you you know why cuz you",
            "start": 28.119,
            "duration": 4.0
        },
        {
            "text": "don't even know what it does SP",
            "start": 29.24,
            "duration": 2.879
        }
    ],
    "stats": {
        "viewCount": "531392",
        "likeCount": "18061",
        "favoriteCount": "0",
        "commentCount": "628"
    }
}