{
    "id": "Ric2wHzPfcM",
    "title": "Why I Left Nvim | Prime Reacts",
    "publishedAt": "2023-07-05T12:00:16Z",
    "captions": [
        {
            "text": "all right so I'm gonna do something a",
            "start": 0.0,
            "duration": 4.56
        },
        {
            "text": "little bit weird here uh we're not",
            "start": 2.28,
            "duration": 4.44
        },
        {
            "text": "streaming this video got ruined while on",
            "start": 4.56,
            "duration": 5.34
        },
        {
            "text": "stream blah blah blah OBS but I actually",
            "start": 6.72,
            "duration": 5.459
        },
        {
            "text": "really did want to just talk about this",
            "start": 9.9,
            "duration": 5.0
        },
        {
            "text": "article because I think it is an amazing",
            "start": 12.179,
            "duration": 5.041
        },
        {
            "text": "well-written article on why someone",
            "start": 14.9,
            "duration": 5.08
        },
        {
            "text": "should switch from neovim to vs code if",
            "start": 17.22,
            "duration": 4.08
        },
        {
            "text": "you don't know who this is there's me",
            "start": 19.98,
            "duration": 3.24
        },
        {
            "text": "drinking milk just deal with it it's",
            "start": 21.3,
            "duration": 4.08
        },
        {
            "text": "Nexel go check them out follow him I'll",
            "start": 23.22,
            "duration": 3.92
        },
        {
            "text": "put it in the description of the video",
            "start": 25.38,
            "duration": 5.46
        },
        {
            "text": "great amazing death big fan I recently",
            "start": 27.14,
            "duration": 5.56
        },
        {
            "text": "switched back to vs code from Neil them",
            "start": 30.84,
            "duration": 3.78
        },
        {
            "text": "as my primary code editor you may think",
            "start": 32.7,
            "duration": 3.48
        },
        {
            "text": "this is weird because everyone seems to",
            "start": 34.62,
            "duration": 3.959
        },
        {
            "text": "be going the other way around why would",
            "start": 36.18,
            "duration": 4.62
        },
        {
            "text": "anyone want to move away from the most",
            "start": 38.579,
            "duration": 4.32
        },
        {
            "text": "loved editor in this post I'll explain",
            "start": 40.8,
            "duration": 4.8
        },
        {
            "text": "why I made the switch in my experiences",
            "start": 42.899,
            "duration": 6.781
        },
        {
            "text": "so far why I used nivim in the past when",
            "start": 45.6,
            "duration": 5.939
        },
        {
            "text": "I first started the code I used vs code",
            "start": 49.68,
            "duration": 3.24
        },
        {
            "text": "because that's what I saw most people",
            "start": 51.539,
            "duration": 3.18
        },
        {
            "text": "use I think this is totally normal I",
            "start": 52.92,
            "duration": 3.54
        },
        {
            "text": "think everyone should probably start on",
            "start": 54.719,
            "duration": 3.781
        },
        {
            "text": "something like vs code right your goal",
            "start": 56.46,
            "duration": 4.56
        },
        {
            "text": "is to learn programming once you get",
            "start": 58.5,
            "duration": 4.5
        },
        {
            "text": "past that hurdle it's great to just",
            "start": 61.02,
            "duration": 3.779
        },
        {
            "text": "understand and learn your environment",
            "start": 63.0,
            "duration": 4.5
        },
        {
            "text": "become an amazing programmer understand",
            "start": 64.799,
            "duration": 5.281
        },
        {
            "text": "how your computer works great times but",
            "start": 67.5,
            "duration": 4.799
        },
        {
            "text": "you know when you start off here's what",
            "start": 70.08,
            "duration": 3.899
        },
        {
            "text": "you got to use you know but I noticed",
            "start": 72.299,
            "duration": 3.601
        },
        {
            "text": "that on my old laptop vs code was too",
            "start": 73.979,
            "duration": 3.841
        },
        {
            "text": "slow and lagging pretty much unusable",
            "start": 75.9,
            "duration": 4.02
        },
        {
            "text": "while running a side process like a node",
            "start": 77.82,
            "duration": 4.439
        },
        {
            "text": "server my laptop used to get so hot that",
            "start": 79.92,
            "duration": 4.199
        },
        {
            "text": "I couldn't even touch it I was spending",
            "start": 82.259,
            "duration": 4.081
        },
        {
            "text": "more time waiting for intellisense than",
            "start": 84.119,
            "duration": 5.521
        },
        {
            "text": "actually writing code now this is",
            "start": 86.34,
            "duration": 5.34
        },
        {
            "text": "something I I really do understand it",
            "start": 89.64,
            "duration": 4.26
        },
        {
            "text": "actually in fact even to this day if I",
            "start": 91.68,
            "duration": 4.56
        },
        {
            "text": "have enough like Chrome plus slack and",
            "start": 93.9,
            "duration": 5.1
        },
        {
            "text": "all that on my laptop it starts banging",
            "start": 96.24,
            "duration": 5.94
        },
        {
            "text": "on all cylinders and you know I'm using",
            "start": 99.0,
            "duration": 5.88
        },
        {
            "text": "a lemur Pro from system 76 it's a good",
            "start": 102.18,
            "duration": 5.46
        },
        {
            "text": "computer so even then there is problems",
            "start": 104.88,
            "duration": 4.739
        },
        {
            "text": "just with a lot of electrons floating",
            "start": 107.64,
            "duration": 3.9
        },
        {
            "text": "around on your computer so I do get this",
            "start": 109.619,
            "duration": 4.801
        },
        {
            "text": "I I get this argument why you'd want to",
            "start": 111.54,
            "duration": 3.78
        },
        {
            "text": "use something different especially if",
            "start": 114.42,
            "duration": 2.699
        },
        {
            "text": "it's an older laptop I had heard of",
            "start": 115.32,
            "duration": 4.14
        },
        {
            "text": "neovim as it was the most loved editor",
            "start": 117.119,
            "duration": 4.081
        },
        {
            "text": "on stack Overflow survey also from",
            "start": 119.46,
            "duration": 4.619
        },
        {
            "text": "YouTubers like the prime gen got em and",
            "start": 121.2,
            "duration": 5.699
        },
        {
            "text": "TJ oh I heard TJ's as a YouTuber and a",
            "start": 124.079,
            "duration": 5.46
        },
        {
            "text": "twitch streamer did you know that it",
            "start": 126.899,
            "duration": 4.441
        },
        {
            "text": "seemed like a really fun community in",
            "start": 129.539,
            "duration": 4.141
        },
        {
            "text": "the overall Vibe was very positive so I",
            "start": 131.34,
            "duration": 3.96
        },
        {
            "text": "tried it out I learned the vimkey",
            "start": 133.68,
            "duration": 3.779
        },
        {
            "text": "bindings Lua to configure neovim created",
            "start": 135.3,
            "duration": 4.5
        },
        {
            "text": "my own Neo config and started using it",
            "start": 137.459,
            "duration": 4.981
        },
        {
            "text": "as my primary editor I loved it I ran it",
            "start": 139.8,
            "duration": 4.92
        },
        {
            "text": "ran on the terminal no electron apps no",
            "start": 142.44,
            "duration": 3.9
        },
        {
            "text": "lag no waiting for autocomplete",
            "start": 144.72,
            "duration": 4.08
        },
        {
            "text": "everything was as smooth as butter and I",
            "start": 146.34,
            "duration": 5.759
        },
        {
            "text": "felt fast love that feeling it is why I",
            "start": 148.8,
            "duration": 5.519
        },
        {
            "text": "continue to use neovim to this day",
            "start": 152.099,
            "duration": 4.14
        },
        {
            "text": "learning them King buddings was one of",
            "start": 154.319,
            "duration": 3.241
        },
        {
            "text": "the best decisions of my life I actually",
            "start": 156.239,
            "duration": 3.421
        },
        {
            "text": "agree with this statement wholeheartedly",
            "start": 157.56,
            "duration": 4.44
        },
        {
            "text": "if you do not know them bindings the",
            "start": 159.66,
            "duration": 3.78
        },
        {
            "text": "thing is you don't have to know Vim",
            "start": 162.0,
            "duration": 4.5
        },
        {
            "text": "that's okay Vim motions are something",
            "start": 163.44,
            "duration": 5.82
        },
        {
            "text": "you can take with you to every editor it",
            "start": 166.5,
            "duration": 4.379
        },
        {
            "text": "is something that can actually make you",
            "start": 169.26,
            "duration": 3.9
        },
        {
            "text": "edit text faster and not only that even",
            "start": 170.879,
            "duration": 4.44
        },
        {
            "text": "if you don't get much faster or not",
            "start": 173.16,
            "duration": 3.659
        },
        {
            "text": "dramatically faster than it makes a",
            "start": 175.319,
            "duration": 3.661
        },
        {
            "text": "difference you will find it fun there's",
            "start": 176.819,
            "duration": 5.161
        },
        {
            "text": "like a strategy a game you can play it",
            "start": 178.98,
            "duration": 6.479
        },
        {
            "text": "makes programming just fun I know people",
            "start": 181.98,
            "duration": 5.58
        },
        {
            "text": "like to meme about how Vim enthusiasts",
            "start": 185.459,
            "duration": 3.301
        },
        {
            "text": "are always trying to convince people to",
            "start": 187.56,
            "duration": 4.2
        },
        {
            "text": "learn key bindings okay I mean",
            "start": 188.76,
            "duration": 5.22
        },
        {
            "text": "maybe this sentence a little on the nose",
            "start": 191.76,
            "duration": 3.899
        },
        {
            "text": "right now but I truly believe that",
            "start": 193.98,
            "duration": 2.88
        },
        {
            "text": "learning it will not only make you",
            "start": 195.659,
            "duration": 3.0
        },
        {
            "text": "faster but also rekindle your love for",
            "start": 196.86,
            "duration": 4.98
        },
        {
            "text": "programming it did for me",
            "start": 198.659,
            "duration": 5.281
        },
        {
            "text": "you already know how I feel baby you",
            "start": 201.84,
            "duration": 4.679
        },
        {
            "text": "know how I feel any of them had a great",
            "start": 203.94,
            "duration": 4.62
        },
        {
            "text": "plug-in ecosystem almost all the things",
            "start": 206.519,
            "duration": 4.021
        },
        {
            "text": "that I used in vs code were available in",
            "start": 208.56,
            "duration": 4.319
        },
        {
            "text": "neovim it also made me realize that some",
            "start": 210.54,
            "duration": 3.72
        },
        {
            "text": "things aren't necessary at all for",
            "start": 212.879,
            "duration": 3.061
        },
        {
            "text": "example I use the file explorer",
            "start": 214.26,
            "duration": 3.899
        },
        {
            "text": "extensively in vs code but I didn't even",
            "start": 215.94,
            "duration": 4.32
        },
        {
            "text": "install the plugin for it on any of them",
            "start": 218.159,
            "duration": 3.181
        },
        {
            "text": "actually this is one of my big things",
            "start": 220.26,
            "duration": 3.479
        },
        {
            "text": "that I always tell people why it feels",
            "start": 221.34,
            "duration": 6.06
        },
        {
            "text": "so strange to use Neil Vim or Vim for",
            "start": 223.739,
            "duration": 5.461
        },
        {
            "text": "the first time is that in a standard",
            "start": 227.4,
            "duration": 3.96
        },
        {
            "text": "like editor if I jump over here and I go",
            "start": 229.2,
            "duration": 5.7
        },
        {
            "text": "code what you see is a file tree is this",
            "start": 231.36,
            "duration": 8.159
        },
        {
            "text": "necessary no it's not but when you open",
            "start": 234.9,
            "duration": 6.72
        },
        {
            "text": "up Vim for the first time what's gonna",
            "start": 239.519,
            "duration": 5.401
        },
        {
            "text": "happen well you're gonna see not a lot",
            "start": 241.62,
            "duration": 5.22
        },
        {
            "text": "this is my Vim experiencing opening up",
            "start": 244.92,
            "duration": 4.98
        },
        {
            "text": "netrw yours likely looks like this this",
            "start": 246.84,
            "duration": 4.56
        },
        {
            "text": "is different it makes you feel",
            "start": 249.9,
            "duration": 4.14
        },
        {
            "text": "uncomfortable you may not know what to",
            "start": 251.4,
            "duration": 4.86
        },
        {
            "text": "do I started to understand the value of",
            "start": 254.04,
            "duration": 3.84
        },
        {
            "text": "minimalism and how simplifying your",
            "start": 256.26,
            "duration": 3.12
        },
        {
            "text": "setup can make you more productive",
            "start": 257.88,
            "duration": 3.599
        },
        {
            "text": "absolutely configuring neovim was a lot",
            "start": 259.38,
            "duration": 4.02
        },
        {
            "text": "of fun it gives you full control over",
            "start": 261.479,
            "duration": 3.66
        },
        {
            "text": "your editor and how it looks and behaves",
            "start": 263.4,
            "duration": 5.64
        },
        {
            "text": "it allowed to optimize my editor for me",
            "start": 265.139,
            "duration": 6.84
        },
        {
            "text": "tailored to my specific needs I think",
            "start": 269.04,
            "duration": 5.64
        },
        {
            "text": "this is a really underemphasized Point",
            "start": 271.979,
            "duration": 4.921
        },
        {
            "text": "why you should just do something like",
            "start": 274.68,
            "duration": 4.2
        },
        {
            "text": "Vim for even a little bit even if you go",
            "start": 276.9,
            "duration": 3.54
        },
        {
            "text": "back even if you go back to IntelliJ or",
            "start": 278.88,
            "duration": 4.08
        },
        {
            "text": "anything else creating and thinking",
            "start": 280.44,
            "duration": 6.12
        },
        {
            "text": "about what makes you good at your pro",
            "start": 282.96,
            "duration": 5.88
        },
        {
            "text": "like at your system what makes like what",
            "start": 286.56,
            "duration": 4.139
        },
        {
            "text": "inefficiencies exist and like how to",
            "start": 288.84,
            "duration": 3.96
        },
        {
            "text": "solve them you will find even if you use",
            "start": 290.699,
            "duration": 4.081
        },
        {
            "text": "other editors there's a lot of things",
            "start": 292.8,
            "duration": 3.66
        },
        {
            "text": "that can transfer over a lot of things",
            "start": 294.78,
            "duration": 3.419
        },
        {
            "text": "that will just make you faster because",
            "start": 296.46,
            "duration": 4.08
        },
        {
            "text": "you took time to think about it there's",
            "start": 298.199,
            "duration": 3.841
        },
        {
            "text": "also something really satisfying about",
            "start": 300.54,
            "duration": 3.659
        },
        {
            "text": "using an editor you can figure yourself",
            "start": 302.04,
            "duration": 3.96
        },
        {
            "text": "so for me",
            "start": 304.199,
            "duration": 3.601
        },
        {
            "text": "I don't care about that part but all of",
            "start": 306.0,
            "duration": 3.06
        },
        {
            "text": "this made me fall in love with any of",
            "start": 307.8,
            "duration": 3.119
        },
        {
            "text": "him and I can confidently say that it is",
            "start": 309.06,
            "duration": 3.54
        },
        {
            "text": "my favorite editor of all the ones I've",
            "start": 310.919,
            "duration": 4.261
        },
        {
            "text": "used why I switched back to vs code",
            "start": 312.6,
            "duration": 4.64
        },
        {
            "text": "which is I mean this sentence is strange",
            "start": 315.18,
            "duration": 4.44
        },
        {
            "text": "given that sentence right before okay",
            "start": 317.24,
            "duration": 4.54
        },
        {
            "text": "why here are the reasons why switch back",
            "start": 319.62,
            "duration": 3.48
        },
        {
            "text": "to vs code in no particular order",
            "start": 321.78,
            "duration": 3.3
        },
        {
            "text": "co-pilot copilot is an indispensable",
            "start": 323.1,
            "duration": 3.659
        },
        {
            "text": "part of my workflow now I can't imagine",
            "start": 325.08,
            "duration": 3.36
        },
        {
            "text": "writing code without it you know this is",
            "start": 326.759,
            "duration": 3.481
        },
        {
            "text": "actually kind of a funny phrase because",
            "start": 328.44,
            "duration": 3.18
        },
        {
            "text": "I've been thinking about getting rid of",
            "start": 330.24,
            "duration": 3.84
        },
        {
            "text": "copilot lately like it's nice to",
            "start": 331.62,
            "duration": 5.28
        },
        {
            "text": "generate some boilerplate but like a",
            "start": 334.08,
            "duration": 4.86
        },
        {
            "text": "good LSP does pretty much all that like",
            "start": 336.9,
            "duration": 5.1
        },
        {
            "text": "if you have a really good LSP setup you",
            "start": 338.94,
            "duration": 4.38
        },
        {
            "text": "pretty much get the same experience",
            "start": 342.0,
            "duration": 3.3
        },
        {
            "text": "except for you're in a little bit more",
            "start": 343.32,
            "duration": 3.96
        },
        {
            "text": "control I actually haven't found",
            "start": 345.3,
            "duration": 4.32
        },
        {
            "text": "co-pilot to be a big w",
            "start": 347.28,
            "duration": 5.28
        },
        {
            "text": "I found it to mostly get in the way and",
            "start": 349.62,
            "duration": 5.04
        },
        {
            "text": "if you feed it the right things it's",
            "start": 352.56,
            "duration": 4.44
        },
        {
            "text": "pretty good it's it's good enough they",
            "start": 354.66,
            "duration": 3.599
        },
        {
            "text": "have a Neil Van plug-in but my",
            "start": 357.0,
            "duration": 3.18
        },
        {
            "text": "experience with it was not great I",
            "start": 358.259,
            "duration": 4.021
        },
        {
            "text": "wonder why this is because mine is great",
            "start": 360.18,
            "duration": 3.48
        },
        {
            "text": "it was slow and most the time it didn't",
            "start": 362.28,
            "duration": 2.759
        },
        {
            "text": "even work mine is just fine no",
            "start": 363.66,
            "duration": 2.4
        },
        {
            "text": "difference I can't tell the difference",
            "start": 365.039,
            "duration": 3.781
        },
        {
            "text": "between vs code and neovim right now for",
            "start": 366.06,
            "duration": 5.04
        },
        {
            "text": "mine I also use the T popo not the",
            "start": 368.82,
            "duration": 4.319
        },
        {
            "text": "neovim specific one so that might be",
            "start": 371.1,
            "duration": 4.379
        },
        {
            "text": "part of it the LSP used to keep crashing",
            "start": 373.139,
            "duration": 3.661
        },
        {
            "text": "and I had to restart it every few",
            "start": 375.479,
            "duration": 2.94
        },
        {
            "text": "minutes so yeah mine's not even an LSP",
            "start": 376.8,
            "duration": 3.78
        },
        {
            "text": "it's whatever the t-pope thing is so",
            "start": 378.419,
            "duration": 3.601
        },
        {
            "text": "maybe this is just a problem with my",
            "start": 380.58,
            "duration": 2.76
        },
        {
            "text": "setup but I couldn't find a solution",
            "start": 382.02,
            "duration": 3.6
        },
        {
            "text": "okay so okay so maybe maybe on the other",
            "start": 383.34,
            "duration": 3.9
        },
        {
            "text": "hand copilot was built for vs code it",
            "start": 385.62,
            "duration": 3.54
        },
        {
            "text": "works flawlessly and I haven't had any",
            "start": 387.24,
            "duration": 3.48
        },
        {
            "text": "issues with it okay yeah I get that",
            "start": 389.16,
            "duration": 3.78
        },
        {
            "text": "there's also this new GitHub copilot X",
            "start": 390.72,
            "duration": 4.02
        },
        {
            "text": "stuff currently invite only I got invite",
            "start": 392.94,
            "duration": 3.78
        },
        {
            "text": "to test copilot chat which only supports",
            "start": 394.74,
            "duration": 4.739
        },
        {
            "text": "vs code for now",
            "start": 396.72,
            "duration": 6.18
        },
        {
            "text": "yeah yeah I mean copilot X doesn't look",
            "start": 399.479,
            "duration": 5.041
        },
        {
            "text": "very appealing to me doesn't solve any",
            "start": 402.9,
            "duration": 3.299
        },
        {
            "text": "of the problems that I want like I want",
            "start": 404.52,
            "duration": 3.6
        },
        {
            "text": "I don't want something to write tests",
            "start": 406.199,
            "duration": 3.84
        },
        {
            "text": "for me I I don't really need their",
            "start": 408.12,
            "duration": 4.38
        },
        {
            "text": "features what I really want is for stat",
            "start": 410.039,
            "duration": 4.38
        },
        {
            "text": "like good static analysis that's what I",
            "start": 412.5,
            "duration": 3.66
        },
        {
            "text": "want when they have good static analysis",
            "start": 414.419,
            "duration": 3.84
        },
        {
            "text": "I could find myself wanting GitHub",
            "start": 416.16,
            "duration": 4.979
        },
        {
            "text": "copilot more or GitHub copilot X more I",
            "start": 418.259,
            "duration": 6.301
        },
        {
            "text": "may even have vs code available just to",
            "start": 421.139,
            "duration": 6.18
        },
        {
            "text": "do that tiring neovim plug-in ecosystem",
            "start": 424.56,
            "duration": 4.68
        },
        {
            "text": "wait a second yeah okay I just didn't I",
            "start": 427.319,
            "duration": 3.781
        },
        {
            "text": "just say it was a great ecosystem yes it",
            "start": 429.24,
            "duration": 4.32
        },
        {
            "text": "it does but it's also tiring to keep up",
            "start": 431.1,
            "duration": 4.379
        },
        {
            "text": "with it running pack or sync was scary",
            "start": 433.56,
            "duration": 3.18
        },
        {
            "text": "because you never know what plugin",
            "start": 435.479,
            "duration": 3.181
        },
        {
            "text": "introduced a breaking change that you",
            "start": 436.74,
            "duration": 3.179
        },
        {
            "text": "didn't notice and all of a sudden you",
            "start": 438.66,
            "duration": 2.879
        },
        {
            "text": "can't code as your whole config",
            "start": 439.919,
            "duration": 4.62
        },
        {
            "text": "breakdown I I get that I get that I",
            "start": 441.539,
            "duration": 5.701
        },
        {
            "text": "truly truly do get this and it can be",
            "start": 444.539,
            "duration": 4.801
        },
        {
            "text": "very frustrating I'm on that team yep",
            "start": 447.24,
            "duration": 3.72
        },
        {
            "text": "see there's a tweet he's just like what",
            "start": 449.34,
            "duration": 3.299
        },
        {
            "text": "the hell happened right here oh and now",
            "start": 450.96,
            "duration": 2.82
        },
        {
            "text": "there's this new plugin manager that",
            "start": 452.639,
            "duration": 2.881
        },
        {
            "text": "everyone is using called lazy Neil Vim",
            "start": 453.78,
            "duration": 3.479
        },
        {
            "text": "which is probably awesome but now I need",
            "start": 455.52,
            "duration": 3.299
        },
        {
            "text": "to spend time migrating and getting used",
            "start": 457.259,
            "duration": 3.241
        },
        {
            "text": "to it it's kind of like the JavaScript",
            "start": 458.819,
            "duration": 3.121
        },
        {
            "text": "ecosystem there's always something new",
            "start": 460.5,
            "duration": 2.819
        },
        {
            "text": "and shiny and you feel like you're",
            "start": 461.94,
            "duration": 3.72
        },
        {
            "text": "missing out if you don't use it it's",
            "start": 463.319,
            "duration": 4.32
        },
        {
            "text": "tiring to keep up with so this is like I",
            "start": 465.66,
            "duration": 3.36
        },
        {
            "text": "have this whole rant I've always wanted",
            "start": 467.639,
            "duration": 3.541
        },
        {
            "text": "to do called stop racing Linux and this",
            "start": 469.02,
            "duration": 4.019
        },
        {
            "text": "is like pretty much it in a nutshell",
            "start": 471.18,
            "duration": 4.859
        },
        {
            "text": "everything I use is almost exclusively",
            "start": 473.039,
            "duration": 5.94
        },
        {
            "text": "for me to be able to program faster so",
            "start": 476.039,
            "duration": 4.741
        },
        {
            "text": "when I'm over here and I'm in my",
            "start": 478.979,
            "duration": 3.481
        },
        {
            "text": "terminal if I want to open up something",
            "start": 480.78,
            "duration": 4.199
        },
        {
            "text": "I can just go personal YouTube right or",
            "start": 482.46,
            "duration": 4.98
        },
        {
            "text": "react versus wasm you test data right I",
            "start": 484.979,
            "duration": 4.141
        },
        {
            "text": "could just jump to it it is my project",
            "start": 487.44,
            "duration": 3.479
        },
        {
            "text": "it's quick it works really really well",
            "start": 489.12,
            "duration": 4.38
        },
        {
            "text": "and I absolutely love that everything I",
            "start": 490.919,
            "duration": 4.981
        },
        {
            "text": "everything I've set up on my computer is",
            "start": 493.5,
            "duration": 4.919
        },
        {
            "text": "not to make a prettier more amazing",
            "start": 495.9,
            "duration": 4.68
        },
        {
            "text": "experience it is to make the most like",
            "start": 498.419,
            "duration": 4.62
        },
        {
            "text": "creamy smooth developer experience and",
            "start": 500.58,
            "duration": 3.959
        },
        {
            "text": "here's the other thing that I do I don't",
            "start": 503.039,
            "duration": 4.5
        },
        {
            "text": "update I used plug much longer than",
            "start": 504.539,
            "duration": 4.44
        },
        {
            "text": "everybody else everyone migrated to",
            "start": 507.539,
            "duration": 3.961
        },
        {
            "text": "Packer I didn't care I only recently",
            "start": 508.979,
            "duration": 4.98
        },
        {
            "text": "upgraded the plug or a packer and now",
            "start": 511.5,
            "duration": 4.5
        },
        {
            "text": "that there's lazy vid in the oven again",
            "start": 513.959,
            "duration": 5.221
        },
        {
            "text": "I don't care I really don't care what I",
            "start": 516.0,
            "duration": 5.76
        },
        {
            "text": "tend to do is about every six to eight",
            "start": 519.18,
            "duration": 5.52
        },
        {
            "text": "months I restart my config and try to",
            "start": 521.76,
            "duration": 4.74
        },
        {
            "text": "figure out how do I want to reorient it",
            "start": 524.7,
            "duration": 3.48
        },
        {
            "text": "what don't I really like about it what",
            "start": 526.5,
            "duration": 3.54
        },
        {
            "text": "do I want to change about it and spend",
            "start": 528.18,
            "duration": 3.9
        },
        {
            "text": "like one day thinking about my Dev",
            "start": 530.04,
            "duration": 4.08
        },
        {
            "text": "workflow and kind of what has bothered",
            "start": 532.08,
            "duration": 3.6
        },
        {
            "text": "me over the last few months and I do it",
            "start": 534.12,
            "duration": 4.38
        },
        {
            "text": "about once every six to eight months in",
            "start": 535.68,
            "duration": 4.56
        },
        {
            "text": "fact I'm actually due to do one here",
            "start": 538.5,
            "duration": 3.54
        },
        {
            "text": "probably on Twitch again in the next",
            "start": 540.24,
            "duration": 3.36
        },
        {
            "text": "about a month I'm pretty excited about",
            "start": 542.04,
            "duration": 3.299
        },
        {
            "text": "that so at first I was keeping up with",
            "start": 543.6,
            "duration": 3.06
        },
        {
            "text": "the new plugins trying them out and",
            "start": 545.339,
            "duration": 2.641
        },
        {
            "text": "making sure my config was up to date",
            "start": 546.66,
            "duration": 3.06
        },
        {
            "text": "soon I was just tired of it I would be",
            "start": 547.98,
            "duration": 3.84
        },
        {
            "text": "too this sounds awful it would never do",
            "start": 549.72,
            "duration": 3.78
        },
        {
            "text": "that I just wanted the code exactly",
            "start": 551.82,
            "duration": 3.48
        },
        {
            "text": "that's what I do I would never do that",
            "start": 553.5,
            "duration": 3.72
        },
        {
            "text": "vs codes plug-in system is great",
            "start": 555.3,
            "duration": 3.9
        },
        {
            "text": "installing extensions is a breeze and I",
            "start": 557.22,
            "duration": 2.94
        },
        {
            "text": "don't have to worry about anything",
            "start": 559.2,
            "duration": 4.079
        },
        {
            "text": "breaking I can just focus on coding yeah",
            "start": 560.16,
            "duration": 5.16
        },
        {
            "text": "this is interesting because it is it is",
            "start": 563.279,
            "duration": 3.841
        },
        {
            "text": "a great critique I think of just the",
            "start": 565.32,
            "duration": 4.86
        },
        {
            "text": "neovin plug-in ecosystem which is Neil",
            "start": 567.12,
            "duration": 4.56
        },
        {
            "text": "Vim has just been moving really really",
            "start": 570.18,
            "duration": 4.26
        },
        {
            "text": "fast becoming an editor and maybe part",
            "start": 571.68,
            "duration": 4.86
        },
        {
            "text": "of that is causing some problems I get",
            "start": 574.44,
            "duration": 3.48
        },
        {
            "text": "that configuration as I mentioned",
            "start": 576.54,
            "duration": 2.76
        },
        {
            "text": "earlier configuring nilvin was fun but",
            "start": 577.92,
            "duration": 3.359
        },
        {
            "text": "but it also is tiring and time consuming",
            "start": 579.3,
            "duration": 4.02
        },
        {
            "text": "as much as I love tinkering my config",
            "start": 581.279,
            "duration": 3.841
        },
        {
            "text": "every day I realized it was a",
            "start": 583.32,
            "duration": 3.66
        },
        {
            "text": "distraction I haven't touched my config",
            "start": 585.12,
            "duration": 4.44
        },
        {
            "text": "in four to six months I was spending",
            "start": 586.98,
            "duration": 4.02
        },
        {
            "text": "more time configuring my editor than",
            "start": 589.56,
            "duration": 3.24
        },
        {
            "text": "actually coding yep again some people",
            "start": 591.0,
            "duration": 4.56
        },
        {
            "text": "just aren't in control of themselves or",
            "start": 592.8,
            "duration": 4.32
        },
        {
            "text": "they're just they're just so focused on",
            "start": 595.56,
            "duration": 3.959
        },
        {
            "text": "getting something perfect that you lose",
            "start": 597.12,
            "duration": 5.339
        },
        {
            "text": "the point of good enough and I I don't",
            "start": 599.519,
            "duration": 5.341
        },
        {
            "text": "think this just stops at neovim I think",
            "start": 602.459,
            "duration": 3.961
        },
        {
            "text": "that you can actually find this kind of",
            "start": 604.86,
            "duration": 4.14
        },
        {
            "text": "behavior all throughout your life it's",
            "start": 606.42,
            "duration": 4.02
        },
        {
            "text": "okay for something to be good enough",
            "start": 609.0,
            "duration": 3.12
        },
        {
            "text": "there's things that I want to change",
            "start": 610.44,
            "duration": 3.42
        },
        {
            "text": "about my neovim config that I just",
            "start": 612.12,
            "duration": 3.779
        },
        {
            "text": "refuse to do right now because I just",
            "start": 613.86,
            "duration": 4.14
        },
        {
            "text": "want to stay focused and that's okay",
            "start": 615.899,
            "duration": 5.221
        },
        {
            "text": "like it is okay not to have awesome I",
            "start": 618.0,
            "duration": 4.5
        },
        {
            "text": "did love that I had full control over my",
            "start": 621.12,
            "duration": 3.18
        },
        {
            "text": "editor and I think vs code is quite",
            "start": 622.5,
            "duration": 3.66
        },
        {
            "text": "configurable as well yeah but it sucks",
            "start": 624.3,
            "duration": 3.599
        },
        {
            "text": "to configure anyone who's configured vs",
            "start": 626.16,
            "duration": 3.42
        },
        {
            "text": "code Beyond just like some basic stuff",
            "start": 627.899,
            "duration": 4.141
        },
        {
            "text": "knows that like just gallons of Json",
            "start": 629.58,
            "duration": 4.379
        },
        {
            "text": "options just really sucks and when you",
            "start": 632.04,
            "duration": 3.239
        },
        {
            "text": "want to do things that are custom it's",
            "start": 633.959,
            "duration": 4.56
        },
        {
            "text": "like super not awesome and then their",
            "start": 635.279,
            "duration": 5.521
        },
        {
            "text": "version of like they're text made or",
            "start": 638.519,
            "duration": 4.5
        },
        {
            "text": "whatever they're highlighting Rejects",
            "start": 640.8,
            "duration": 5.039
        },
        {
            "text": "and Madness is it's just super in",
            "start": 643.019,
            "duration": 5.641
        },
        {
            "text": "Superior too in in Superior what's the",
            "start": 645.839,
            "duration": 4.861
        },
        {
            "text": "condescending term for in Superior super",
            "start": 648.66,
            "duration": 4.619
        },
        {
            "text": "low bar compared to tree sitter you know",
            "start": 650.7,
            "duration": 4.379
        },
        {
            "text": "probably not as much as Neil Van but",
            "start": 653.279,
            "duration": 3.601
        },
        {
            "text": "it's enough for me and I'm still using",
            "start": 655.079,
            "duration": 4.44
        },
        {
            "text": "the key bindings I have a nice theme I",
            "start": 656.88,
            "duration": 4.38
        },
        {
            "text": "choose what I want in the UI where I",
            "start": 659.519,
            "duration": 3.0
        },
        {
            "text": "want it and how it looks I have a few",
            "start": 661.26,
            "duration": 3.42
        },
        {
            "text": "custom key bindings and Snippets here",
            "start": 662.519,
            "duration": 3.481
        },
        {
            "text": "and there but overall pretty minimal",
            "start": 664.68,
            "duration": 3.659
        },
        {
            "text": "beautiful yeah I mean this is good I",
            "start": 666.0,
            "duration": 4.26
        },
        {
            "text": "like I this what is this is that Rose",
            "start": 668.339,
            "duration": 3.541
        },
        {
            "text": "Pine is that what I'm looking at what",
            "start": 670.26,
            "duration": 4.38
        },
        {
            "text": "what am I looking at here also I never",
            "start": 671.88,
            "duration": 4.38
        },
        {
            "text": "understood this plugin what are you",
            "start": 674.64,
            "duration": 3.24
        },
        {
            "text": "doing with this plugin what are you",
            "start": 676.26,
            "duration": 2.759
        },
        {
            "text": "doing also I don't understand this",
            "start": 677.88,
            "duration": 2.16
        },
        {
            "text": "plugin either",
            "start": 679.019,
            "duration": 2.82
        },
        {
            "text": "all right because I I don't want to have",
            "start": 680.04,
            "duration": 3.359
        },
        {
            "text": "to go searching that's why you know",
            "start": 681.839,
            "duration": 3.301
        },
        {
            "text": "that's why I have Harpoon that's why I",
            "start": 683.399,
            "duration": 3.18
        },
        {
            "text": "have telescope so I don't have to search",
            "start": 685.14,
            "duration": 3.0
        },
        {
            "text": "with my eyeballs in that kind of sense",
            "start": 686.579,
            "duration": 2.76
        },
        {
            "text": "right like I just want to be able to",
            "start": 688.14,
            "duration": 3.0
        },
        {
            "text": "jump to the thing I got a new laptop I",
            "start": 689.339,
            "duration": 3.901
        },
        {
            "text": "recently got a new laptop an M1 MacBook",
            "start": 691.14,
            "duration": 4.8
        },
        {
            "text": "Air it's a beast uh so running vs code",
            "start": 693.24,
            "duration": 3.9
        },
        {
            "text": "is not a problem anymore Everything",
            "start": 695.94,
            "duration": 2.94
        },
        {
            "text": "feels very smooth Apple silicon is",
            "start": 697.14,
            "duration": 3.72
        },
        {
            "text": "amazing and I'm glad I switched so I I",
            "start": 698.88,
            "duration": 3.78
        },
        {
            "text": "don't like this argument because",
            "start": 700.86,
            "duration": 5.159
        },
        {
            "text": "JavaScript will fill up every CPU cycle",
            "start": 702.66,
            "duration": 6.359
        },
        {
            "text": "in a most inefficient way eventually it",
            "start": 706.019,
            "duration": 4.741
        },
        {
            "text": "will take your memory it will take it",
            "start": 709.019,
            "duration": 3.781
        },
        {
            "text": "you better hide your husband hide your",
            "start": 710.76,
            "duration": 3.96
        },
        {
            "text": "wives kids they're taking everything",
            "start": 712.8,
            "duration": 5.34
        },
        {
            "text": "right uh because this is this is only a",
            "start": 714.72,
            "duration": 5.64
        },
        {
            "text": "finite argument that works for now in a",
            "start": 718.14,
            "duration": 3.78
        },
        {
            "text": "little bit that argument stops working",
            "start": 720.36,
            "duration": 3.479
        },
        {
            "text": "uh it's only gotten hot once when",
            "start": 721.92,
            "duration": 3.419
        },
        {
            "text": "running some Docker Dev containers along",
            "start": 723.839,
            "duration": 3.24
        },
        {
            "text": "with Spotify and my browser which is",
            "start": 725.339,
            "duration": 3.721
        },
        {
            "text": "understandable but other than that it's",
            "start": 727.079,
            "duration": 4.621
        },
        {
            "text": "been great vs code only tools some",
            "start": 729.06,
            "duration": 4.14
        },
        {
            "text": "exceptional libraries and Frameworks uh",
            "start": 731.7,
            "duration": 3.72
        },
        {
            "text": "so only support vs code which you could",
            "start": 733.2,
            "duration": 3.54
        },
        {
            "text": "argue is a bad thing but it makes sense",
            "start": 735.42,
            "duration": 2.94
        },
        {
            "text": "vs code is the most popular code editor",
            "start": 736.74,
            "duration": 4.02
        },
        {
            "text": "of all for example Uno CSS only has a vs",
            "start": 738.36,
            "duration": 3.96
        },
        {
            "text": "code extension and it's my favorite way",
            "start": 740.76,
            "duration": 4.74
        },
        {
            "text": "to write CSS this I agree",
            "start": 742.32,
            "duration": 5.16
        },
        {
            "text": "if you love like there's some extensions",
            "start": 745.5,
            "duration": 4.14
        },
        {
            "text": "that people love that only exist and",
            "start": 747.48,
            "duration": 3.479
        },
        {
            "text": "they'll keep on using that I love",
            "start": 749.64,
            "duration": 3.96
        },
        {
            "text": "fugitive I keep using fugitive despite",
            "start": 750.959,
            "duration": 4.861
        },
        {
            "text": "the fact that it's written in Vin script",
            "start": 753.6,
            "duration": 4.56
        },
        {
            "text": "right and it's not really Neil Vim",
            "start": 755.82,
            "duration": 3.959
        },
        {
            "text": "anymore it's it's back to the old vim",
            "start": 758.16,
            "duration": 3.78
        },
        {
            "text": "and blah blah blah blah I just love it I",
            "start": 759.779,
            "duration": 3.541
        },
        {
            "text": "think it's the best one I don't like",
            "start": 761.94,
            "duration": 3.72
        },
        {
            "text": "Neil get I keep trying to love neogood",
            "start": 763.32,
            "duration": 4.319
        },
        {
            "text": "but I don't love it and so I totally get",
            "start": 765.66,
            "duration": 4.38
        },
        {
            "text": "this absolutely Astros and LSP but I",
            "start": 767.639,
            "duration": 3.721
        },
        {
            "text": "found in my experience vs code much",
            "start": 770.04,
            "duration": 2.46
        },
        {
            "text": "better than neofam I had no problems",
            "start": 771.36,
            "duration": 4.02
        },
        {
            "text": "with Astro but I get it awesome let's go",
            "start": 772.5,
            "duration": 5.22
        },
        {
            "text": "I've also noticed that typescript LSP is",
            "start": 775.38,
            "duration": 4.019
        },
        {
            "text": "a bit faster in vs code as well this",
            "start": 777.72,
            "duration": 3.48
        },
        {
            "text": "I've measured it multiple times and I've",
            "start": 779.399,
            "duration": 3.421
        },
        {
            "text": "done a lot of work on this and I don't",
            "start": 781.2,
            "duration": 3.72
        },
        {
            "text": "think that there's anything real going",
            "start": 782.82,
            "duration": 4.62
        },
        {
            "text": "on here there's something goofy probably",
            "start": 784.92,
            "duration": 4.08
        },
        {
            "text": "happening with that one so why not use",
            "start": 787.44,
            "duration": 3.0
        },
        {
            "text": "neovim distro",
            "start": 789.0,
            "duration": 4.2
        },
        {
            "text": "I don't like neovin distributions",
            "start": 790.44,
            "duration": 4.74
        },
        {
            "text": "high five I don't really like them I",
            "start": 793.2,
            "duration": 3.42
        },
        {
            "text": "think they're great starter points if",
            "start": 795.18,
            "duration": 3.48
        },
        {
            "text": "you don't want to start with vs code but",
            "start": 796.62,
            "duration": 5.1
        },
        {
            "text": "the the point of Vim is to have that",
            "start": 798.66,
            "duration": 5.88
        },
        {
            "text": "like personalized experience right it's",
            "start": 801.72,
            "duration": 4.98
        },
        {
            "text": "to have that personal one-to-one",
            "start": 804.54,
            "duration": 4.739
        },
        {
            "text": "connection and so that distribution",
            "start": 806.7,
            "duration": 4.139
        },
        {
            "text": "thing kind of like ruins it you're just",
            "start": 809.279,
            "duration": 3.541
        },
        {
            "text": "learning someone else's connection what",
            "start": 810.839,
            "duration": 4.68
        },
        {
            "text": "makes them like them and for me that's",
            "start": 812.82,
            "duration": 4.98
        },
        {
            "text": "just that ain't it uh let's see I've",
            "start": 815.519,
            "duration": 3.661
        },
        {
            "text": "tried many of them and none of them had",
            "start": 817.8,
            "duration": 3.06
        },
        {
            "text": "the same feel as vanilla Neil them set",
            "start": 819.18,
            "duration": 3.48
        },
        {
            "text": "up most of them are bloated hard to",
            "start": 820.86,
            "duration": 3.479
        },
        {
            "text": "extend and have a lot of things I don't",
            "start": 822.66,
            "duration": 2.94
        },
        {
            "text": "need I don't want to spend time",
            "start": 824.339,
            "duration": 3.3
        },
        {
            "text": "configuring a pre-configured editor I'd",
            "start": 825.6,
            "duration": 3.84
        },
        {
            "text": "rather just configure it myself on that",
            "start": 827.639,
            "duration": 4.2
        },
        {
            "text": "team Nexel on that team conclusion this",
            "start": 829.44,
            "duration": 4.019
        },
        {
            "text": "doesn't mean that I'm never going to use",
            "start": 831.839,
            "duration": 3.601
        },
        {
            "text": "neovim again I still uh it's still my",
            "start": 833.459,
            "duration": 3.301
        },
        {
            "text": "favorite editor and I'll be using it for",
            "start": 835.44,
            "duration": 2.88
        },
        {
            "text": "a minor editing task tinkering stuff",
            "start": 836.76,
            "duration": 3.12
        },
        {
            "text": "here and there on the terminal taking",
            "start": 838.32,
            "duration": 3.24
        },
        {
            "text": "notes Etc but for my main editor I'm",
            "start": 839.88,
            "duration": 3.54
        },
        {
            "text": "going to be using vs code for now let me",
            "start": 841.56,
            "duration": 3.42
        },
        {
            "text": "know if you enjoyed this blog post I did",
            "start": 843.42,
            "duration": 3.539
        },
        {
            "text": "I really enjoyed it Well Done Nextel",
            "start": 844.98,
            "duration": 3.659
        },
        {
            "text": "this was very very good",
            "start": 846.959,
            "duration": 4.32
        },
        {
            "text": "um I actually really I I really liked",
            "start": 848.639,
            "duration": 5.101
        },
        {
            "text": "his arguments other than the cop Pilot",
            "start": 851.279,
            "duration": 3.421
        },
        {
            "text": "One",
            "start": 853.74,
            "duration": 3.18
        },
        {
            "text": "um and I also just feel bad because I",
            "start": 854.7,
            "duration": 5.04
        },
        {
            "text": "see this actually quite a bit right like",
            "start": 856.92,
            "duration": 4.32
        },
        {
            "text": "this this thing where he said every day",
            "start": 859.74,
            "duration": 4.86
        },
        {
            "text": "every day right uh every every what is",
            "start": 861.24,
            "duration": 5.64
        },
        {
            "text": "it oh gosh um",
            "start": 864.6,
            "duration": 3.84
        },
        {
            "text": "something about let's see there we go",
            "start": 866.88,
            "duration": 4.019
        },
        {
            "text": "like every day there we go I feel bad",
            "start": 868.44,
            "duration": 4.92
        },
        {
            "text": "because I see this a lot right like I",
            "start": 870.899,
            "duration": 6.601
        },
        {
            "text": "see people that can't stop racing their",
            "start": 873.36,
            "duration": 6.96
        },
        {
            "text": "experience they're no longer making it",
            "start": 877.5,
            "duration": 4.26
        },
        {
            "text": "actually a better Dev experience they're",
            "start": 880.32,
            "duration": 3.24
        },
        {
            "text": "actually getting the the opposite effect",
            "start": 881.76,
            "duration": 3.84
        },
        {
            "text": "and if you have that you know maybe it",
            "start": 883.56,
            "duration": 4.139
        },
        {
            "text": "is just better to use neovim or to use",
            "start": 885.6,
            "duration": 4.08
        },
        {
            "text": "vs code maybe it is just better to stop",
            "start": 887.699,
            "duration": 4.44
        },
        {
            "text": "because you can't help yourself uh I use",
            "start": 889.68,
            "duration": 3.959
        },
        {
            "text": "almost everything as default because",
            "start": 892.139,
            "duration": 4.56
        },
        {
            "text": "default is usually the best uh that way",
            "start": 893.639,
            "duration": 4.5
        },
        {
            "text": "I don't have to think about it it",
            "start": 896.699,
            "duration": 3.301
        },
        {
            "text": "generally just works if I go use tmux on",
            "start": 898.139,
            "duration": 4.021
        },
        {
            "text": "a server it's pretty much the exact same",
            "start": 900.0,
            "duration": 4.86
        },
        {
            "text": "as if me using tmux on my computer you",
            "start": 902.16,
            "duration": 3.9
        },
        {
            "text": "know just a thought",
            "start": 904.86,
            "duration": 3.0
        },
        {
            "text": "I hope you like this video I know this",
            "start": 906.06,
            "duration": 4.44
        },
        {
            "text": "was strange me without twitch hopefully",
            "start": 907.86,
            "duration": 4.5
        },
        {
            "text": "it was still good I just really loved",
            "start": 910.5,
            "duration": 3.839
        },
        {
            "text": "this article and I really really wanted",
            "start": 912.36,
            "duration": 4.08
        },
        {
            "text": "to read it to you guys because it was",
            "start": 914.339,
            "duration": 4.62
        },
        {
            "text": "just super well done so if you like this",
            "start": 916.44,
            "duration": 4.139
        },
        {
            "text": "video press the like button hit the sub",
            "start": 918.959,
            "duration": 3.601
        },
        {
            "text": "button if you haven't",
            "start": 920.579,
            "duration": 4.981
        },
        {
            "text": "catch me on that twitch stream baby the",
            "start": 922.56,
            "duration": 3.779
        },
        {
            "text": "name",
            "start": 925.56,
            "duration": 3.74
        },
        {
            "text": "is the vimagine",
            "start": 926.339,
            "duration": 2.961
        }
    ],
    "stats": {
        "viewCount": "342013",
        "likeCount": "10812",
        "favoriteCount": "0",
        "commentCount": "755"
    }
}