{
    "id": "rTTsN0grcCs",
    "title": "AT LEAST 500k",
    "publishedAt": "2024-01-11T15:30:11Z",
    "captions": [
        {
            "text": "how easy is it to get another 500k job",
            "start": 0.12,
            "duration": 4.28
        },
        {
            "text": "it's the minimum I can live on I don't",
            "start": 2.72,
            "duration": 3.0
        },
        {
            "text": "even understand why this is",
            "start": 4.4,
            "duration": 3.72
        },
        {
            "text": "controversial like I cannot live without",
            "start": 5.72,
            "duration": 4.48
        },
        {
            "text": "my artisanal fils coffee and weekly",
            "start": 8.12,
            "duration": 5.32
        },
        {
            "text": "Sushi excursions",
            "start": 10.2,
            "duration": 3.24
        }
    ],
    "stats": {
        "viewCount": "153613",
        "likeCount": "3412",
        "favoriteCount": "0",
        "commentCount": "104"
    }
}