{
    "id": "Ryeydn-BO2c",
    "title": "The BEST Feature",
    "publishedAt": "2023-12-22T19:41:49Z",
    "captions": [
        {
            "text": "the greatest feature of go I would have",
            "start": 0.199,
            "duration": 7.52
        },
        {
            "text": "to say has to be the fact that go does",
            "start": 3.28,
            "duration": 7.439
        },
        {
            "text": "not have colored functions cuz when",
            "start": 7.719,
            "duration": 5.281
        },
        {
            "text": "you're doing any other programming you",
            "start": 10.719,
            "duration": 3.8
        },
        {
            "text": "always have this colored function",
            "start": 13.0,
            "duration": 3.08
        },
        {
            "text": "problem as once you get one thing that's",
            "start": 14.519,
            "duration": 3.881
        },
        {
            "text": "async everything becomes async but with",
            "start": 16.08,
            "duration": 5.359
        },
        {
            "text": "go you never have that problem the only",
            "start": 18.4,
            "duration": 4.879
        },
        {
            "text": "thing you'll ever have to deal with is",
            "start": 21.439,
            "duration": 3.6
        },
        {
            "text": "channels and channels are fine to deal",
            "start": 23.279,
            "duration": 3.441
        },
        {
            "text": "with cuz then you get to kind of pull",
            "start": 25.039,
            "duration": 4.08
        },
        {
            "text": "from the async when you need to there's",
            "start": 26.72,
            "duration": 5.6
        },
        {
            "text": "something so incredible about go and how",
            "start": 29.119,
            "duration": 6.44
        },
        {
            "text": "they handle async it's just difficult to",
            "start": 32.32,
            "duration": 6.919
        },
        {
            "text": "understand until you've done it",
            "start": 35.559,
            "duration": 3.68
        }
    ],
    "stats": {
        "viewCount": "125949",
        "likeCount": "4761",
        "favoriteCount": "0",
        "commentCount": "108"
    }
}