{
    "id": "s8Q2aj8YiCY",
    "title": "Rust-Based Linux Scheduler Is Faster | Prime Reacts",
    "publishedAt": "2024-01-18T14:00:43Z",
    "captions": [
        {
            "text": "I mean look at this the rust written",
            "start": 0.52,
            "duration": 4.839
        },
        {
            "text": "Linux scheduler apparently is showing",
            "start": 3.159,
            "duration": 5.041
        },
        {
            "text": "better game performance I mean",
            "start": 5.359,
            "duration": 4.881
        },
        {
            "text": "unfortunately gaming on Linux like kind",
            "start": 8.2,
            "duration": 3.76
        },
        {
            "text": "of a pipe dream but okay I know there's",
            "start": 10.24,
            "duration": 3.319
        },
        {
            "text": "going to be so many people like",
            "start": 11.96,
            "duration": 5.079
        },
        {
            "text": "oh I game all the time on Linux I game",
            "start": 13.559,
            "duration": 5.361
        },
        {
            "text": "all the time it's so great I don't even",
            "start": 17.039,
            "duration": 3.841
        },
        {
            "text": "know steam deck people yeah well I mean",
            "start": 18.92,
            "duration": 4.04
        },
        {
            "text": "I I hope that Linux becomes great for",
            "start": 20.88,
            "duration": 4.159
        },
        {
            "text": "for gaming that'd be great a canonical",
            "start": 22.96,
            "duration": 3.639
        },
        {
            "text": "engineer has been experimenting with",
            "start": 25.039,
            "duration": 3.48
        },
        {
            "text": "implementing a Linux schedule written",
            "start": 26.599,
            "duration": 3.881
        },
        {
            "text": "within the rust programming language his",
            "start": 28.519,
            "duration": 3.24
        },
        {
            "text": "early results are interesting and",
            "start": 30.48,
            "duration": 3.079
        },
        {
            "text": "hopeful around some potential the",
            "start": 31.759,
            "duration": 3.681
        },
        {
            "text": "potential of rust based scheduler that",
            "start": 33.559,
            "duration": 4.401
        },
        {
            "text": "works via skedge X for implementing a",
            "start": 35.44,
            "duration": 3.88
        },
        {
            "text": "scheduler using",
            "start": 37.96,
            "duration": 4.919
        },
        {
            "text": "ebpf that can be loaded during runtime",
            "start": 39.32,
            "duration": 5.68
        },
        {
            "text": "okay I wonder how complete it is",
            "start": 42.879,
            "duration": 3.601
        },
        {
            "text": "interesting though I mean this is very",
            "start": 45.0,
            "duration": 4.039
        },
        {
            "text": "very interesting uh let's see Andre uh",
            "start": 46.48,
            "duration": 4.8
        },
        {
            "text": "who is a Linux kernel engineer at Ubuntu",
            "start": 49.039,
            "duration": 4.241
        },
        {
            "text": "maker canonical tweeted that he has been",
            "start": 51.28,
            "duration": 3.32
        },
        {
            "text": "experimenting with a Russ schedule I",
            "start": 53.28,
            "duration": 3.52
        },
        {
            "text": "ended up writing a Linux uh scheduler in",
            "start": 54.6,
            "duration": 4.2
        },
        {
            "text": "Russ using a skedge x during Christmas",
            "start": 56.8,
            "duration": 3.8
        },
        {
            "text": "break just for fun I'm pretty shocked to",
            "start": 58.8,
            "duration": 3.8
        },
        {
            "text": "see that it doesn't just work but it can",
            "start": 60.6,
            "duration": 4.0
        },
        {
            "text": "even outperform the default Linux",
            "start": 62.6,
            "duration": 4.879
        },
        {
            "text": "scheduler with certain workloads I.E",
            "start": 64.6,
            "duration": 4.6
        },
        {
            "text": "gaming that's really interesting I",
            "start": 67.479,
            "duration": 3.0
        },
        {
            "text": "wonder what it does",
            "start": 69.2,
            "duration": 3.239
        },
        {
            "text": "differently right what does it do",
            "start": 70.479,
            "duration": 3.401
        },
        {
            "text": "differently that causes it to actually",
            "start": 72.439,
            "duration": 3.241
        },
        {
            "text": "perform different is it because it's not",
            "start": 73.88,
            "duration": 3.48
        },
        {
            "text": "as complete or is it actually because it",
            "start": 75.68,
            "duration": 3.28
        },
        {
            "text": "is like genuinely better because I can't",
            "start": 77.36,
            "duration": 4.68
        },
        {
            "text": "imagine that rust by itself is somehow",
            "start": 78.96,
            "duration": 5.88
        },
        {
            "text": "better than C rust magic I don't believe",
            "start": 82.04,
            "duration": 4.16
        },
        {
            "text": "in Rust magic cuz at the end of the day",
            "start": 84.84,
            "duration": 2.76
        },
        {
            "text": "it still has to get compiled it's still",
            "start": 86.2,
            "duration": 3.76
        },
        {
            "text": "it's like still being compiled l",
            "start": 87.6,
            "duration": 4.6
        },
        {
            "text": "offensive that could be true I could buy",
            "start": 89.96,
            "duration": 4.479
        },
        {
            "text": "I could buy that yeah a scheduler",
            "start": 92.2,
            "duration": 3.919
        },
        {
            "text": "written in Rust for fun during Christmas",
            "start": 94.439,
            "duration": 4.081
        },
        {
            "text": "break for Linux he is the alpha of the",
            "start": 96.119,
            "duration": 4.401
        },
        {
            "text": "alphas let's watch it I want to watch",
            "start": 98.52,
            "duration": 4.959
        },
        {
            "text": "this all",
            "start": 100.52,
            "duration": 2.959
        },
        {
            "text": "[Music]",
            "start": 104.43,
            "duration": 3.169
        },
        {
            "text": "right okay",
            "start": 111.56,
            "duration": 3.519
        },
        {
            "text": "okay",
            "start": 118.84,
            "duration": 3.0
        },
        {
            "text": "[Music]",
            "start": 130.4,
            "duration": 3.129
        },
        {
            "text": "holy holy cow this is very misleading",
            "start": 144.56,
            "duration": 5.679
        },
        {
            "text": "the test he did is run Terraria while",
            "start": 147.92,
            "duration": 5.24
        },
        {
            "text": "compiling the kernel uh the kernel I",
            "start": 150.239,
            "duration": 4.841
        },
        {
            "text": "can't tell other than the frame rate I'm",
            "start": 153.16,
            "duration": 3.2
        },
        {
            "text": "still a Nob in Terraria I've never",
            "start": 155.08,
            "duration": 4.76
        },
        {
            "text": "played Terraria um I'm just curious like",
            "start": 156.36,
            "duration": 6.599
        },
        {
            "text": "why is it so so much better right what",
            "start": 159.84,
            "duration": 5.119
        },
        {
            "text": "makes it so much better I mean obviously",
            "start": 162.959,
            "duration": 3.36
        },
        {
            "text": "a super impressive project to be able to",
            "start": 164.959,
            "duration": 3.081
        },
        {
            "text": "build in such a small amount of time but",
            "start": 166.319,
            "duration": 2.521
        },
        {
            "text": "what",
            "start": 168.04,
            "duration": 3.04
        },
        {
            "text": "like what can be done in Rust that",
            "start": 168.84,
            "duration": 5.44
        },
        {
            "text": "cannot be done in C yeah I mean it's",
            "start": 171.08,
            "duration": 4.76
        },
        {
            "text": "quote unquote doubled the performance",
            "start": 174.28,
            "duration": 4.319
        },
        {
            "text": "right it's going from 28 to 30 frames",
            "start": 175.84,
            "duration": 5.8
        },
        {
            "text": "per second to 60 I don't just old code",
            "start": 178.599,
            "duration": 5.081
        },
        {
            "text": "lifetimes I did not see the difference",
            "start": 181.64,
            "duration": 3.8
        },
        {
            "text": "Fearless concurrency well you'll notice",
            "start": 183.68,
            "duration": 4.88
        },
        {
            "text": "that uh if you if you if you watch there",
            "start": 185.44,
            "duration": 4.359
        },
        {
            "text": "you can see a little frame rate counter",
            "start": 188.56,
            "duration": 3.319
        },
        {
            "text": "that's the point scheduling is about uh",
            "start": 189.799,
            "duration": 3.921
        },
        {
            "text": "managing multiple tasks like compiling",
            "start": 191.879,
            "duration": 4.44
        },
        {
            "text": "and playing yeah I guess I don't really",
            "start": 193.72,
            "duration": 4.68
        },
        {
            "text": "understand what was going on there like",
            "start": 196.319,
            "duration": 4.2
        },
        {
            "text": "what was making it better so there was",
            "start": 198.4,
            "duration": 4.119
        },
        {
            "text": "also he was also compiling at the exact",
            "start": 200.519,
            "duration": 4.401
        },
        {
            "text": "same time and then running it I mean if",
            "start": 202.519,
            "duration": 4.36
        },
        {
            "text": "it's better it's better like I I'd be",
            "start": 204.92,
            "duration": 4.12
        },
        {
            "text": "super impressed if it's better I I don't",
            "start": 206.879,
            "duration": 3.44
        },
        {
            "text": "know if it's a fair apples apples",
            "start": 209.04,
            "duration": 2.559
        },
        {
            "text": "comparison I'd like to see something",
            "start": 210.319,
            "duration": 4.521
        },
        {
            "text": "over the time of of uh like I'd like to",
            "start": 211.599,
            "duration": 5.72
        },
        {
            "text": "see it obviously you need a real",
            "start": 214.84,
            "duration": 4.36
        },
        {
            "text": "competition going on here just showing",
            "start": 217.319,
            "duration": 3.761
        },
        {
            "text": "it on some computer running something",
            "start": 219.2,
            "duration": 4.92
        },
        {
            "text": "and doing that I'm not sure exactly how",
            "start": 221.08,
            "duration": 5.64
        },
        {
            "text": "scientific if you will that is uh you",
            "start": 224.12,
            "duration": 4.36
        },
        {
            "text": "need to see it like I would actually be",
            "start": 226.72,
            "duration": 3.56
        },
        {
            "text": "very curious at seeing it I can't look",
            "start": 228.48,
            "duration": 3.599
        },
        {
            "text": "at the code I don't first off I don't",
            "start": 230.28,
            "duration": 4.319
        },
        {
            "text": "know how Linux schedulers work second",
            "start": 232.079,
            "duration": 5.08
        },
        {
            "text": "off just looking at a bunch of lifetimes",
            "start": 234.599,
            "duration": 5.2
        },
        {
            "text": "and traits like what what you're going",
            "start": 237.159,
            "duration": 4.401
        },
        {
            "text": "to be like ooh look at that thing it has",
            "start": 239.799,
            "duration": 4.041
        },
        {
            "text": "tick a and tick B damn that's a double",
            "start": 241.56,
            "duration": 5.0
        },
        {
            "text": "lifetime like no one's going to we're",
            "start": 243.84,
            "duration": 4.72
        },
        {
            "text": "not it's not like we're going to get it",
            "start": 246.56,
            "duration": 3.879
        },
        {
            "text": "uh scheduling using rust acing yeah",
            "start": 248.56,
            "duration": 5.2
        },
        {
            "text": "exactly but you are the expert in Rust",
            "start": 250.439,
            "duration": 4.72
        },
        {
            "text": "I'm first off I wouldn't call myself a",
            "start": 253.76,
            "duration": 3.56
        },
        {
            "text": "rust expert I'm pretty good at it I know",
            "start": 255.159,
            "duration": 4.401
        },
        {
            "text": "how to do traits and lifetimes",
            "start": 257.32,
            "duration": 4.96
        },
        {
            "text": "and a good P portion of the things that",
            "start": 259.56,
            "duration": 4.76
        },
        {
            "text": "are available but that don't mean I I am",
            "start": 262.28,
            "duration": 4.8
        },
        {
            "text": "good like great at it uh 30 to 60",
            "start": 264.32,
            "duration": 4.96
        },
        {
            "text": "doesn't mean it doubled fair is it fair",
            "start": 267.08,
            "duration": 3.64
        },
        {
            "text": "I don't know if that's fair I'm not sure",
            "start": 269.28,
            "duration": 2.72
        },
        {
            "text": "I'd have to think about that I'm not",
            "start": 270.72,
            "duration": 4.08
        },
        {
            "text": "sure I'm not sure what it says it could",
            "start": 272.0,
            "duration": 4.919
        },
        {
            "text": "just be purely a different Schuler",
            "start": 274.8,
            "duration": 4.08
        },
        {
            "text": "altogether maybe it breaks things up",
            "start": 276.919,
            "duration": 3.481
        },
        {
            "text": "faster or does things in a different",
            "start": 278.88,
            "duration": 3.879
        },
        {
            "text": "ordering or a different way that allows",
            "start": 280.4,
            "duration": 4.12
        },
        {
            "text": "for a game as simple as Terraria to be",
            "start": 282.759,
            "duration": 4.081
        },
        {
            "text": "able to run bro got math wrong well I",
            "start": 284.52,
            "duration": 3.48
        },
        {
            "text": "don't know I'd have to I'd have to look",
            "start": 286.84,
            "duration": 2.72
        },
        {
            "text": "at it I don't see oh 57 comments yeah",
            "start": 288.0,
            "duration": 2.88
        },
        {
            "text": "let's see the comments all right all",
            "start": 289.56,
            "duration": 3.12
        },
        {
            "text": "right scheduler seems uh to be hard to",
            "start": 290.88,
            "duration": 3.68
        },
        {
            "text": "get right uh given there's dozens and",
            "start": 292.68,
            "duration": 3.359
        },
        {
            "text": "almost they all seem to be janky hack",
            "start": 294.56,
            "duration": 3.479
        },
        {
            "text": "mate so another one in the mix sounds",
            "start": 296.039,
            "duration": 4.361
        },
        {
            "text": "good to me",
            "start": 298.039,
            "duration": 4.0
        },
        {
            "text": "let's go the problem with schedulers are",
            "start": 300.4,
            "duration": 2.72
        },
        {
            "text": "one they need to be informed in",
            "start": 302.039,
            "duration": 2.681
        },
        {
            "text": "Intelligent Decisions no we cannot put a",
            "start": 303.12,
            "duration": 3.6
        },
        {
            "text": "neural net in there otherwise 90% of the",
            "start": 304.72,
            "duration": 4.039
        },
        {
            "text": "CP would be spent running the neuronet",
            "start": 306.72,
            "duration": 3.64
        },
        {
            "text": "it's actually pretty funny sometimes",
            "start": 308.759,
            "duration": 3.121
        },
        {
            "text": "they uh they need to predict the future",
            "start": 310.36,
            "duration": 3.36
        },
        {
            "text": "but noer damus wasn't a scheduler of",
            "start": 311.88,
            "duration": 3.52
        },
        {
            "text": "course uh so we try to hack something",
            "start": 313.72,
            "duration": 3.36
        },
        {
            "text": "that works uh good when the hardware has",
            "start": 315.4,
            "duration": 2.919
        },
        {
            "text": "plenty of resources available",
            "start": 317.08,
            "duration": 3.2
        },
        {
            "text": "interesting okay is there anything in",
            "start": 318.319,
            "duration": 3.241
        },
        {
            "text": "here that let's see wait a minute",
            "start": 320.28,
            "duration": 3.479
        },
        {
            "text": "performance went from 25 to 60 I'd be",
            "start": 321.56,
            "duration": 3.56
        },
        {
            "text": "more suspicious that something important",
            "start": 323.759,
            "duration": 3.121
        },
        {
            "text": "is being overlooked here yeah I mean",
            "start": 325.12,
            "duration": 4.079
        },
        {
            "text": "that's that's probably a a pretty good",
            "start": 326.88,
            "duration": 4.319
        },
        {
            "text": "indic care that something it's it's",
            "start": 329.199,
            "duration": 5.521
        },
        {
            "text": "incomplete uh let's see am I not wrong",
            "start": 331.199,
            "duration": 5.241
        },
        {
            "text": "uh to think it's not surprising at all",
            "start": 334.72,
            "duration": 3.72
        },
        {
            "text": "that someone can fart out some random",
            "start": 336.44,
            "duration": 3.879
        },
        {
            "text": "scheduler that benchmarks better at",
            "start": 338.44,
            "duration": 4.039
        },
        {
            "text": "certain",
            "start": 340.319,
            "duration": 5.281
        },
        {
            "text": "workloads this guy this guy came in hot",
            "start": 342.479,
            "duration": 4.28
        },
        {
            "text": "let's see let's see if there's anything",
            "start": 345.6,
            "duration": 3.0
        },
        {
            "text": "that's good um a perfect schedule is it",
            "start": 346.759,
            "duration": 3.72
        },
        {
            "text": "probably is probably impossible to build",
            "start": 348.6,
            "duration": 3.439
        },
        {
            "text": "you need one that handles power saving",
            "start": 350.479,
            "duration": 3.481
        },
        {
            "text": "SL performance profiles and low latency",
            "start": 352.039,
            "duration": 4.521
        },
        {
            "text": "for soft uh realtime stuff maximum B",
            "start": 353.96,
            "duration": 4.92
        },
        {
            "text": "yeah blah blah blah blah my guess is",
            "start": 356.56,
            "duration": 3.639
        },
        {
            "text": "that",
            "start": 358.88,
            "duration": 3.56
        },
        {
            "text": "I think I I think everyone is kind of",
            "start": 360.199,
            "duration": 4.201
        },
        {
            "text": "agreeing that it's it's it's not",
            "start": 362.44,
            "duration": 4.159
        },
        {
            "text": "complete until it can do everything and",
            "start": 364.4,
            "duration": 3.76
        },
        {
            "text": "once it can do everything and then it's",
            "start": 366.599,
            "duration": 3.32
        },
        {
            "text": "probably more interesting to see and",
            "start": 368.16,
            "duration": 3.479
        },
        {
            "text": "perhaps it's better under C certain",
            "start": 369.919,
            "duration": 3.481
        },
        {
            "text": "workloads and maybe it's way worse under",
            "start": 371.639,
            "duration": 4.56
        },
        {
            "text": "other workloads right like may maybe it",
            "start": 373.4,
            "duration": 4.32
        },
        {
            "text": "makes something else slower you know",
            "start": 376.199,
            "duration": 3.321
        },
        {
            "text": "just like that person saying that 60 FPS",
            "start": 377.72,
            "duration": 3.64
        },
        {
            "text": "doesn't mean it doubled I didn't",
            "start": 379.52,
            "duration": 3.32
        },
        {
            "text": "understand how that means that well how",
            "start": 381.36,
            "duration": 3.239
        },
        {
            "text": "about this one what if the thing that",
            "start": 382.84,
            "duration": 3.44
        },
        {
            "text": "was being compiled in the background",
            "start": 384.599,
            "duration": 3.801
        },
        {
            "text": "slowed down by",
            "start": 386.28,
            "duration": 4.52
        },
        {
            "text": "50% so all of the sudden something that",
            "start": 388.4,
            "duration": 3.44
        },
        {
            "text": "looks",
            "start": 390.8,
            "duration": 4.36
        },
        {
            "text": "faster something else is getting slower",
            "start": 391.84,
            "duration": 5.04
        },
        {
            "text": "you'd have to you yeah it's just giving",
            "start": 395.16,
            "duration": 3.2
        },
        {
            "text": "the game more bandwidth potentially",
            "start": 396.88,
            "duration": 4.159
        },
        {
            "text": "right and so it's just like what is you",
            "start": 398.36,
            "duration": 4.959
        },
        {
            "text": "know what is the actual thing CU maybe",
            "start": 401.039,
            "duration": 3.841
        },
        {
            "text": "that one thing that's spawning 32",
            "start": 403.319,
            "duration": 3.041
        },
        {
            "text": "threads versus the game that's probably",
            "start": 404.88,
            "duration": 3.439
        },
        {
            "text": "spawning like three or four threads",
            "start": 406.36,
            "duration": 3.44
        },
        {
            "text": "maybe the one that's with three or four",
            "start": 408.319,
            "duration": 2.72
        },
        {
            "text": "and the one that's getting 32 are",
            "start": 409.8,
            "duration": 2.959
        },
        {
            "text": "currently being weighted the same so",
            "start": 411.039,
            "duration": 4.041
        },
        {
            "text": "it's just getting more priority than it",
            "start": 412.759,
            "duration": 4.201
        },
        {
            "text": "probably ever has or who who knows",
            "start": 415.08,
            "duration": 3.399
        },
        {
            "text": "what's actually happening underneath the",
            "start": 416.96,
            "duration": 3.079
        },
        {
            "text": "hood I mean I mean that's the problem",
            "start": 418.479,
            "duration": 3.481
        },
        {
            "text": "with uh with any of these type of",
            "start": 420.039,
            "duration": 3.88
        },
        {
            "text": "measurements is that you need some way",
            "start": 421.96,
            "duration": 6.519
        },
        {
            "text": "to to measure it that's that's more like",
            "start": 423.919,
            "duration": 6.96
        },
        {
            "text": "holistic uh a good example of this would",
            "start": 428.479,
            "duration": 4.4
        },
        {
            "text": "be that if you could just throw the",
            "start": 430.879,
            "duration": 5.361
        },
        {
            "text": "scheduler onto a server and all of your",
            "start": 432.879,
            "duration": 6.241
        },
        {
            "text": "servers just perform 20% better and",
            "start": 436.24,
            "duration": 4.32
        },
        {
            "text": "they're all doing different ones right",
            "start": 439.12,
            "duration": 3.479
        },
        {
            "text": "like if Netflix could just turn on the",
            "start": 440.56,
            "duration": 4.479
        },
        {
            "text": "you know the so-called rust scheduler or",
            "start": 442.599,
            "duration": 4.521
        },
        {
            "text": "Google just turn it on or any of the big",
            "start": 445.039,
            "duration": 3.801
        },
        {
            "text": "companies that get billions of requests",
            "start": 447.12,
            "duration": 4.079
        },
        {
            "text": "and all the sudden everyone's server",
            "start": 448.84,
            "duration": 4.96
        },
        {
            "text": "just gets like 20% faster one could",
            "start": 451.199,
            "duration": 5.521
        },
        {
            "text": "probably say the schuer is fantastic but",
            "start": 453.8,
            "duration": 4.72
        },
        {
            "text": "until you can just magically turn",
            "start": 456.72,
            "duration": 4.84
        },
        {
            "text": "something on and see a vast array of",
            "start": 458.52,
            "duration": 5.359
        },
        {
            "text": "different programming uh models just get",
            "start": 461.56,
            "duration": 4.12
        },
        {
            "text": "faster like it's just hard for me to",
            "start": 463.879,
            "duration": 4.44
        },
        {
            "text": "believe that it's real bun just has so",
            "start": 465.68,
            "duration": 4.4
        },
        {
            "text": "so if you're talking about bun bun has",
            "start": 468.319,
            "duration": 4.121
        },
        {
            "text": "really good",
            "start": 470.08,
            "duration": 5.0
        },
        {
            "text": "integration with the with the OS right",
            "start": 472.44,
            "duration": 4.56
        },
        {
            "text": "that's something that that and when I",
            "start": 475.08,
            "duration": 3.679
        },
        {
            "text": "say really good what I mean is it has no",
            "start": 477.0,
            "duration": 3.12
        },
        {
            "text": "historical",
            "start": 478.759,
            "duration": 4.081
        },
        {
            "text": "requirements like node does node has a",
            "start": 480.12,
            "duration": 4.72
        },
        {
            "text": "huge number of things that it has to",
            "start": 482.84,
            "duration": 4.28
        },
        {
            "text": "back that that it that it has to",
            "start": 484.84,
            "duration": 4.24
        },
        {
            "text": "maintain over many many years so it just",
            "start": 487.12,
            "duration": 5.24
        },
        {
            "text": "has a Hu like just a lot more things now",
            "start": 489.08,
            "duration": 5.32
        },
        {
            "text": "one could say why doesn't no just",
            "start": 492.36,
            "duration": 4.16
        },
        {
            "text": "prioritize the fast path and then make",
            "start": 494.4,
            "duration": 4.72
        },
        {
            "text": "it pretty comparable to bun I think they",
            "start": 496.52,
            "duration": 4.56
        },
        {
            "text": "we will see node get pretty comparable",
            "start": 499.12,
            "duration": 4.96
        },
        {
            "text": "to bun but bun also just got to do a",
            "start": 501.08,
            "duration": 5.64
        },
        {
            "text": "brand new implementation that's not as",
            "start": 504.08,
            "duration": 4.32
        },
        {
            "text": "complete as node so of course it's",
            "start": 506.72,
            "duration": 3.759
        },
        {
            "text": "significantly faster why doesn't node",
            "start": 508.4,
            "duration": 3.84
        },
        {
            "text": "just delete itself if not's so good why",
            "start": 510.479,
            "duration": 3.961
        },
        {
            "text": "did it make electric Baloo so I just",
            "start": 512.24,
            "duration": 4.0
        },
        {
            "text": "don't feel like uh just converted to",
            "start": 514.44,
            "duration": 4.36
        },
        {
            "text": "Harpoon 2 I think Harpoon 2 is great uh",
            "start": 516.24,
            "duration": 4.64
        },
        {
            "text": "there's something I need to work on",
            "start": 518.8,
            "duration": 4.52
        },
        {
            "text": "um yeah but when it comes to any of",
            "start": 520.88,
            "duration": 4.36
        },
        {
            "text": "these like whenever you see something",
            "start": 523.32,
            "duration": 3.72
        },
        {
            "text": "like just just a general rule of thumb",
            "start": 525.24,
            "duration": 3.279
        },
        {
            "text": "whenever you see something that's like",
            "start": 527.04,
            "duration": 3.479
        },
        {
            "text": "this thing is now 10 times faster or",
            "start": 528.519,
            "duration": 4.481
        },
        {
            "text": "five times or 20% faster generally I'm",
            "start": 530.519,
            "duration": 4.961
        },
        {
            "text": "pretty skeptical because that is like a",
            "start": 533.0,
            "duration": 5.2
        },
        {
            "text": "really big performance Improvement and",
            "start": 535.48,
            "duration": 4.039
        },
        {
            "text": "likely there's one of two two things",
            "start": 538.2,
            "duration": 3.36
        },
        {
            "text": "that have happened it's like a new right",
            "start": 539.519,
            "duration": 5.641
        },
        {
            "text": "that's missing some features or B the",
            "start": 541.56,
            "duration": 5.92
        },
        {
            "text": "previous one has had so much Legacy that",
            "start": 545.16,
            "duration": 4.04
        },
        {
            "text": "it's actually just being held down or",
            "start": 547.48,
            "duration": 4.0
        },
        {
            "text": "see the previous one was actually poorly",
            "start": 549.2,
            "duration": 4.24
        },
        {
            "text": "written and a simple change to it will",
            "start": 551.48,
            "duration": 4.919
        },
        {
            "text": "make it in parody with the new one and",
            "start": 553.44,
            "duration": 5.56
        },
        {
            "text": "by simple I mean there's simple you know",
            "start": 556.399,
            "duration": 4.761
        },
        {
            "text": "simple but not easy you know what I mean",
            "start": 559.0,
            "duration": 3.92
        },
        {
            "text": "like I don't think it'd be hard for for",
            "start": 561.16,
            "duration": 5.799
        },
        {
            "text": "no to be able to get uh some of their",
            "start": 562.92,
            "duration": 5.039
        },
        {
            "text": "some of their stuff better like one",
            "start": 566.959,
            "duration": 2.801
        },
        {
            "text": "thing that really holds down node is",
            "start": 567.959,
            "duration": 3.681
        },
        {
            "text": "they have a whole bunch of async utils",
            "start": 569.76,
            "duration": 3.28
        },
        {
            "text": "for",
            "start": 571.64,
            "duration": 3.68
        },
        {
            "text": "inspection and all this async",
            "start": 573.04,
            "duration": 4.64
        },
        {
            "text": "surrounding stuff to make it way faster",
            "start": 575.32,
            "duration": 4.36
        },
        {
            "text": "or to make it to to make it way more",
            "start": 577.68,
            "duration": 6.08
        },
        {
            "text": "inspectable makes it terrifically",
            "start": 579.68,
            "duration": 7.52
        },
        {
            "text": "slower but bun has none of it so bun",
            "start": 583.76,
            "duration": 6.92
        },
        {
            "text": "doesn't have any it it there's no asnc",
            "start": 587.2,
            "duration": 5.759
        },
        {
            "text": "inspection in nearly the same uh you",
            "start": 590.68,
            "duration": 4.52
        },
        {
            "text": "know magnitude now maybe that has",
            "start": 592.959,
            "duration": 3.601
        },
        {
            "text": "changed that could have changed hey I",
            "start": 595.2,
            "duration": 2.879
        },
        {
            "text": "could be wrong I am not saying that it",
            "start": 596.56,
            "duration": 2.92
        },
        {
            "text": "hasn't changed in the last six months or",
            "start": 598.079,
            "duration": 2.841
        },
        {
            "text": "whatever with bun but bun had",
            "start": 599.48,
            "duration": 2.88
        },
        {
            "text": "significantly less inspection around",
            "start": 600.92,
            "duration": 4.32
        },
        {
            "text": "acing stuff so therefore there's if you",
            "start": 602.36,
            "duration": 4.96
        },
        {
            "text": "go profile a note application that's",
            "start": 605.24,
            "duration": 3.88
        },
        {
            "text": "doing some async stuff and you'll see a",
            "start": 607.32,
            "duration": 4.8
        },
        {
            "text": "whole bunch of calls to like async you",
            "start": 609.12,
            "duration": 5.839
        },
        {
            "text": "know promises async something async",
            "start": 612.12,
            "duration": 4.44
        },
        {
            "text": "there's a bunch of handling around it",
            "start": 614.959,
            "duration": 3.0
        },
        {
            "text": "and you can do some inspections and all",
            "start": 616.56,
            "duration": 3.399
        },
        {
            "text": "that and a lot of the um a lot of these",
            "start": 617.959,
            "duration": 3.961
        },
        {
            "text": "like uh data dog and all that that does",
            "start": 619.959,
            "duration": 4.161
        },
        {
            "text": "like run times of what's happening",
            "start": 621.92,
            "duration": 4.64
        },
        {
            "text": "within your system are using those async",
            "start": 624.12,
            "duration": 4.2
        },
        {
            "text": "hooks to hook in and actually measure",
            "start": 626.56,
            "duration": 3.12
        },
        {
            "text": "your system and all the different kind",
            "start": 628.32,
            "duration": 3.959
        },
        {
            "text": "of places whereas you just can't do that",
            "start": 629.68,
            "duration": 6.839
        },
        {
            "text": "today in bun that I know of so it it can",
            "start": 632.279,
            "duration": 6.961
        },
        {
            "text": "things can be deceivingly faster but",
            "start": 636.519,
            "duration": 3.921
        },
        {
            "text": "that's because they just don't have as",
            "start": 639.24,
            "duration": 2.0
        },
        {
            "text": "many",
            "start": 640.44,
            "duration": 3.12
        },
        {
            "text": "features and maybe that's okay maybe you",
            "start": 641.24,
            "duration": 3.96
        },
        {
            "text": "don't need those features and if you",
            "start": 643.56,
            "duration": 3.079
        },
        {
            "text": "don't need those features and you can",
            "start": 645.2,
            "duration": 3.439
        },
        {
            "text": "automatically make something three times",
            "start": 646.639,
            "duration": 5.281
        },
        {
            "text": "faster maybe you should have the control",
            "start": 648.639,
            "duration": 7.32
        },
        {
            "text": "to turn those off and thus become faster",
            "start": 651.92,
            "duration": 6.28
        },
        {
            "text": "now Bun's missing a lot of things that",
            "start": 655.959,
            "duration": 4.041
        },
        {
            "text": "so it is truly an unfair comparison in",
            "start": 658.2,
            "duration": 4.16
        },
        {
            "text": "this current day just like this we we",
            "start": 660.0,
            "duration": 4.12
        },
        {
            "text": "just know that thiser got pooped up",
            "start": 662.36,
            "duration": 6.08
        },
        {
            "text": "farted out over Christmas break so is it",
            "start": 664.12,
            "duration": 6.0
        },
        {
            "text": "as good is it as battle tested does it",
            "start": 668.44,
            "duration": 4.28
        },
        {
            "text": "have edge cases what is it missing right",
            "start": 670.12,
            "duration": 5.04
        },
        {
            "text": "we don't know and so therefore this is",
            "start": 672.72,
            "duration": 4.119
        },
        {
            "text": "cool but I just don't know if it's",
            "start": 675.16,
            "duration": 3.04
        },
        {
            "text": "something you should get terribly",
            "start": 676.839,
            "duration": 2.8
        },
        {
            "text": "excited about I think the reason why",
            "start": 678.2,
            "duration": 3.04
        },
        {
            "text": "people are getting so like horned up",
            "start": 679.639,
            "duration": 4.921
        },
        {
            "text": "about it is because it mentions rust but",
            "start": 681.24,
            "duration": 5.599
        },
        {
            "text": "just because something mentions rust",
            "start": 684.56,
            "duration": 4.079
        },
        {
            "text": "like right away your cackle should",
            "start": 686.839,
            "duration": 4.281
        },
        {
            "text": "always go up when someone says one",
            "start": 688.639,
            "duration": 4.121
        },
        {
            "text": "compiled language using the same",
            "start": 691.12,
            "duration": 3.92
        },
        {
            "text": "compiler runs faster than some other",
            "start": 692.76,
            "duration": 5.44
        },
        {
            "text": "compiled language using the same",
            "start": 695.04,
            "duration": 6.12
        },
        {
            "text": "compiler or your cackle should go up",
            "start": 698.2,
            "duration": 6.72
        },
        {
            "text": "when someone says JavaScript or language",
            "start": 701.16,
            "duration": 6.76
        },
        {
            "text": "with garbage collector is as fast as C",
            "start": 704.92,
            "duration": 6.76
        },
        {
            "text": "in some case again you should go cackle",
            "start": 707.92,
            "duration": 5.479
        },
        {
            "text": "should go up and say whatever I'm being",
            "start": 711.68,
            "duration": 5.56
        },
        {
            "text": "shown is likely some level of deception",
            "start": 713.399,
            "duration": 6.88
        },
        {
            "text": "going on or some tricker ation of how",
            "start": 717.24,
            "duration": 6.0
        },
        {
            "text": "the measurements are being made I say",
            "start": 720.279,
            "duration": 5.281
        },
        {
            "text": "cackles hackles your cackles can go up",
            "start": 723.24,
            "duration": 6.64
        },
        {
            "text": "too your cockles of your heart can flare",
            "start": 725.56,
            "duration": 6.0
        },
        {
            "text": "TR Donald Trump is as fast as Hussein",
            "start": 729.88,
            "duration": 3.639
        },
        {
            "text": "bolt under certain workloads exactly you",
            "start": 731.56,
            "duration": 3.839
        },
        {
            "text": "know that's just you know when you",
            "start": 733.519,
            "duration": 5.041
        },
        {
            "text": "really measure it I literally Brussels I",
            "start": 735.399,
            "duration": 5.361
        },
        {
            "text": "feel like I just got done I I literally",
            "start": 738.56,
            "duration": 5.399
        },
        {
            "text": "just said this I I just like I mean I",
            "start": 740.76,
            "duration": 5.72
        },
        {
            "text": "literally just got done",
            "start": 743.959,
            "duration": 4.961
        },
        {
            "text": "explaining I mean if you're trying to",
            "start": 746.48,
            "duration": 6.479
        },
        {
            "text": "see which one's faster C or zigg or C++",
            "start": 748.92,
            "duration": 6.2
        },
        {
            "text": "or rust and the implementations are",
            "start": 752.959,
            "duration": 4.0
        },
        {
            "text": "identical it's coming down to how the",
            "start": 755.12,
            "duration": 4.279
        },
        {
            "text": "translation going from the language into",
            "start": 756.959,
            "duration": 5.401
        },
        {
            "text": "the compiled code is going okay godbolt",
            "start": 759.399,
            "duration": 4.361
        },
        {
            "text": "to compare them yeah godbolt but then",
            "start": 762.36,
            "duration": 3.279
        },
        {
            "text": "again even with godbolt the problem is",
            "start": 763.76,
            "duration": 4.319
        },
        {
            "text": "is that more instructions does not mean",
            "start": 765.639,
            "duration": 6.681
        },
        {
            "text": "slower an unrolled Loop can quadruple",
            "start": 768.079,
            "duration": 6.081
        },
        {
            "text": "the amount of instructions in a small",
            "start": 772.32,
            "duration": 4.6
        },
        {
            "text": "area but it's significantly faster and",
            "start": 774.16,
            "duration": 5.52
        },
        {
            "text": "so it's just like what are you do like",
            "start": 776.92,
            "duration": 4.599
        },
        {
            "text": "unless if you really know assembly which",
            "start": 779.68,
            "duration": 4.159
        },
        {
            "text": "I don't know assembly I'm just not that",
            "start": 781.519,
            "duration": 3.401
        },
        {
            "text": "person that's going to be able to",
            "start": 783.839,
            "duration": 2.36
        },
        {
            "text": "understand it I don't know if that's",
            "start": 784.92,
            "duration": 3.0
        },
        {
            "text": "true either see like these statements I",
            "start": 786.199,
            "duration": 3.88
        },
        {
            "text": "just simply don't make because I think",
            "start": 787.92,
            "duration": 3.88
        },
        {
            "text": "these statements aren't they're not",
            "start": 790.079,
            "duration": 4.401
        },
        {
            "text": "great statements to make sorry I just",
            "start": 791.8,
            "duration": 5.12
        },
        {
            "text": "don't I just don't know right because I",
            "start": 794.48,
            "duration": 5.4
        },
        {
            "text": "can't I you can't objectively say that",
            "start": 796.92,
            "duration": 5.44
        },
        {
            "text": "now it could be harder granted it could",
            "start": 799.88,
            "duration": 4.519
        },
        {
            "text": "be harder totally on totally on board",
            "start": 802.36,
            "duration": 3.599
        },
        {
            "text": "that writing it in Rust could be way",
            "start": 804.399,
            "duration": 3.601
        },
        {
            "text": "harder to accomplish but to say that",
            "start": 805.959,
            "duration": 5.44
        },
        {
            "text": "it's not possible I don't you know",
            "start": 808.0,
            "duration": 6.079
        },
        {
            "text": "like you know what I mean yeah the",
            "start": 811.399,
            "duration": 5.0
        },
        {
            "text": "average the not even the average uh",
            "start": 814.079,
            "duration": 4.921
        },
        {
            "text": "programmer the 99th percentile",
            "start": 816.399,
            "duration": 4.201
        },
        {
            "text": "programmer will not write as good of",
            "start": 819.0,
            "duration": 3.519
        },
        {
            "text": "code as a compiler the",
            "start": 820.6,
            "duration": 4.88
        },
        {
            "text": "99.99 percentile that",
            "start": 822.519,
            "duration": 5.12
        },
        {
            "text": ".01% still probably won't write it",
            "start": 825.48,
            "duration": 4.799
        },
        {
            "text": "nearly as good Casey Would disagree yeah",
            "start": 827.639,
            "duration": 5.0
        },
        {
            "text": "Casey is is Casey Would disagree with",
            "start": 830.279,
            "duration": 4.92
        },
        {
            "text": "what I'd be curious what Casey disagrees",
            "start": 832.639,
            "duration": 3.841
        },
        {
            "text": "with because we agree with a lot of",
            "start": 835.199,
            "duration": 3.401
        },
        {
            "text": "things I'm pretty sure I've said nothing",
            "start": 836.48,
            "duration": 3.84
        },
        {
            "text": "that Casey Would disagree with that",
            "start": 838.6,
            "duration": 4.64
        },
        {
            "text": "programmers are almost always never good",
            "start": 840.32,
            "duration": 4.6
        },
        {
            "text": "as good as the compiler I'm pretty sure",
            "start": 843.24,
            "duration": 3.399
        },
        {
            "text": "Casey would agree with that okay you got",
            "start": 844.92,
            "duration": 3.2
        },
        {
            "text": "to remember that a huge portion of",
            "start": 846.639,
            "duration": 3.64
        },
        {
            "text": "programmers programm JavaScript yes",
            "start": 848.12,
            "duration": 4.36
        },
        {
            "text": "Casey is not the",
            "start": 850.279,
            "duration": 6.161
        },
        {
            "text": "0.01% programmer Casey is the point0",
            "start": 852.48,
            "duration": 6.359
        },
        {
            "text": "Casey is like one of five",
            "start": 856.44,
            "duration": 4.399
        },
        {
            "text": "programmers okay there's a big",
            "start": 858.839,
            "duration": 5.44
        },
        {
            "text": "difference betwix comparing Casey to",
            "start": 860.839,
            "duration": 6.321
        },
        {
            "text": "randomly pick anybody on Twitter just",
            "start": 864.279,
            "duration": 5.56
        },
        {
            "text": "randomly right you might hit John carac",
            "start": 867.16,
            "duration": 4.919
        },
        {
            "text": "by accident and John carmac may not be",
            "start": 869.839,
            "duration": 4.68
        },
        {
            "text": "great at assembly right just because",
            "start": 872.079,
            "duration": 3.641
        },
        {
            "text": "someone's a great programmer doesn't",
            "start": 874.519,
            "duration": 2.801
        },
        {
            "text": "mean they're great at assembly right",
            "start": 875.72,
            "duration": 4.239
        },
        {
            "text": "that again these these ideas where are",
            "start": 877.32,
            "duration": 4.439
        },
        {
            "text": "you guys comeing from Casey morari Casey",
            "start": 879.959,
            "duration": 3.921
        },
        {
            "text": "moror great first off I love Casey Casey",
            "start": 881.759,
            "duration": 4.2
        },
        {
            "text": "is fantastic second off he's really",
            "start": 883.88,
            "duration": 4.399
        },
        {
            "text": "really smart in his area right like you",
            "start": 885.959,
            "duration": 5.041
        },
        {
            "text": "wouldn't want Casey making a UI a he'd",
            "start": 888.279,
            "duration": 3.881
        },
        {
            "text": "probably get bored and he wouldn't want",
            "start": 891.0,
            "duration": 3.399
        },
        {
            "text": "to do it anyways but B it's like there's",
            "start": 892.16,
            "duration": 3.84
        },
        {
            "text": "some people that are really fast at it",
            "start": 894.399,
            "duration": 3.401
        },
        {
            "text": "that are really really good at it and",
            "start": 896.0,
            "duration": 3.72
        },
        {
            "text": "that's what they do you could you could",
            "start": 897.8,
            "duration": 7.0
        },
        {
            "text": "have specializations okay this does",
            "start": 899.72,
            "duration": 8.32
        },
        {
            "text": "exist right this does exist that's all I",
            "start": 904.8,
            "duration": 5.24
        },
        {
            "text": "have to say he could Pro I mean Casey",
            "start": 908.04,
            "duration": 3.28
        },
        {
            "text": "could probably still make a great UI",
            "start": 910.04,
            "duration": 2.84
        },
        {
            "text": "he's he's very very talented Randy",
            "start": 911.32,
            "duration": 3.72
        },
        {
            "text": "Randy's freaking amazing",
            "start": 912.88,
            "duration": 6.079
        },
        {
            "text": "anyways people people the point",
            "start": 915.04,
            "duration": 8.0
        },
        {
            "text": "is just because somebody say something's",
            "start": 918.959,
            "duration": 7.44
        },
        {
            "text": "faster and that somebody is extremely",
            "start": 923.04,
            "duration": 7.159
        },
        {
            "text": "talented just be careful",
            "start": 926.399,
            "duration": 5.641
        },
        {
            "text": "accepting and regurgitating anything",
            "start": 930.199,
            "duration": 3.281
        },
        {
            "text": "because when it comes to Performance",
            "start": 932.04,
            "duration": 4.719
        },
        {
            "text": "measurements I would approach it as",
            "start": 933.48,
            "duration": 6.039
        },
        {
            "text": "everybody is wrong before you approach",
            "start": 936.759,
            "duration": 4.52
        },
        {
            "text": "it that everybody is",
            "start": 939.519,
            "duration": 3.961
        },
        {
            "text": "Right could Tom do it I'm not even sure",
            "start": 941.279,
            "duration": 6.12
        },
        {
            "text": "if Tom could do it okay that's all I'm",
            "start": 943.48,
            "duration": 7.799
        },
        {
            "text": "saying is most people aren't good at it",
            "start": 947.399,
            "duration": 5.761
        },
        {
            "text": "yeah you should only trust 5% of what I",
            "start": 951.279,
            "duration": 5.68
        },
        {
            "text": "say okay the name is only trust 5% of",
            "start": 953.16,
            "duration": 6.4
        },
        {
            "text": "what I say agen okay okay what about Tim",
            "start": 956.959,
            "duration": 6.521
        },
        {
            "text": "nobody gives a damn about Tim",
            "start": 959.56,
            "duration": 3.92
        }
    ],
    "stats": {
        "viewCount": "95011",
        "likeCount": "2523",
        "favoriteCount": "0",
        "commentCount": "335"
    }
}