{
    "id": "SeYAAIqS0XY",
    "title": "DHH Is Switching To NeoVim???",
    "publishedAt": "2024-02-29T13:37:31Z",
    "captions": [
        {
            "text": "this is from dhh right here finding the",
            "start": 0.08,
            "duration": 5.84
        },
        {
            "text": "last editor no flip cut it out do not",
            "start": 3.36,
            "duration": 5.48
        },
        {
            "text": "put it in don't put it in some",
            "start": 5.92,
            "duration": 4.719
        },
        {
            "text": "programmers can code under any",
            "start": 8.84,
            "duration": 3.719
        },
        {
            "text": "conditions including textmate open",
            "start": 10.639,
            "duration": 4.561
        },
        {
            "text": "Office yes they'll bring in headphones",
            "start": 12.559,
            "duration": 4.281
        },
        {
            "text": "whatever editor is on their system",
            "start": 15.2,
            "duration": 3.239
        },
        {
            "text": "they'll make it work using a different",
            "start": 16.84,
            "duration": 3.88
        },
        {
            "text": "framework or language every few years no",
            "start": 18.439,
            "duration": 5.241
        },
        {
            "text": "problem I envy that level of Versatility",
            "start": 20.72,
            "duration": 5.6
        },
        {
            "text": "but I have come to accept it just isn't",
            "start": 23.68,
            "duration": 5.679
        },
        {
            "text": "me I bond with a quiet room an editor",
            "start": 26.32,
            "duration": 4.959
        },
        {
            "text": "and a program in environment far more",
            "start": 29.359,
            "duration": 3.241
        },
        {
            "text": "deeply than",
            "start": 31.279,
            "duration": 3.921
        },
        {
            "text": "that I I'm going to steal that line it's",
            "start": 32.6,
            "duration": 5.16
        },
        {
            "text": "so be it makes it sound so cool to be",
            "start": 35.2,
            "duration": 4.839
        },
        {
            "text": "programming it's like movie programming",
            "start": 37.76,
            "duration": 4.959
        },
        {
            "text": "instead of like me yelling about that",
            "start": 40.039,
            "duration": 4.2
        },
        {
            "text": "this didn't work and the tests are",
            "start": 42.719,
            "duration": 4.041
        },
        {
            "text": "failing",
            "start": 44.239,
            "duration": 2.521
        },
        {
            "text": "again yes that that's pretty much me me",
            "start": 47.8,
            "duration": 4.439
        },
        {
            "text": "wondering why it takes 12 seconds to run",
            "start": 50.28,
            "duration": 4.56
        },
        {
            "text": "a file just like what the hell's going",
            "start": 52.239,
            "duration": 5.84
        },
        {
            "text": "on here yeah like my wife are you okay",
            "start": 54.84,
            "duration": 5.96
        },
        {
            "text": "down there are you okay it was it was",
            "start": 58.079,
            "duration": 5.761
        },
        {
            "text": "just JavaScript again okay I got I got",
            "start": 60.8,
            "duration": 5.28
        },
        {
            "text": "JavaScript it all right case in point",
            "start": 63.84,
            "duration": 4.04
        },
        {
            "text": "and I've been using textmate this is",
            "start": 66.08,
            "duration": 3.679
        },
        {
            "text": "still the craziest part of this entire",
            "start": 67.88,
            "duration": 3.84
        },
        {
            "text": "article I don't know what the hell",
            "start": 69.759,
            "duration": 4.72
        },
        {
            "text": "happened here how how the emery that's",
            "start": 71.72,
            "duration": 5.8
        },
        {
            "text": "the emergeny anoun just get this get",
            "start": 74.479,
            "duration": 6.201
        },
        {
            "text": "this man something because this is what",
            "start": 77.52,
            "duration": 5.32
        },
        {
            "text": "programming editor since I was first",
            "start": 80.68,
            "duration": 4.2
        },
        {
            "text": "created or since it was first created",
            "start": 82.84,
            "duration": 4.68
        },
        {
            "text": "back in 2004 what did he use before that",
            "start": 84.88,
            "duration": 5.08
        },
        {
            "text": "that's 20 years now almost as long as my",
            "start": 87.52,
            "duration": 4.959
        },
        {
            "text": "time with Ruby working on Rails textmate",
            "start": 89.96,
            "duration": 4.839
        },
        {
            "text": "has been its or has seen its popularity",
            "start": 92.479,
            "duration": 4.801
        },
        {
            "text": "come and go in that time and today few",
            "start": 94.799,
            "duration": 4.32
        },
        {
            "text": "people are still choosing it but I don't",
            "start": 97.28,
            "duration": 4.44
        },
        {
            "text": "care it's damn near finished software as",
            "start": 99.119,
            "duration": 4.04
        },
        {
            "text": "far as I'm concerned and I love",
            "start": 101.72,
            "duration": 3.719
        },
        {
            "text": "programming with textmate I like it it's",
            "start": 103.159,
            "duration": 5.041
        },
        {
            "text": "a good take I like is more people could",
            "start": 105.439,
            "duration": 4.761
        },
        {
            "text": "probably just use the have the",
            "start": 108.2,
            "duration": 3.599
        },
        {
            "text": "confidence to just like keep doing",
            "start": 110.2,
            "duration": 2.879
        },
        {
            "text": "something they're good at instead of",
            "start": 111.799,
            "duration": 3.32
        },
        {
            "text": "being scared and like switching",
            "start": 113.079,
            "duration": 5.96
        },
        {
            "text": "everything every week are you uh are you",
            "start": 115.119,
            "duration": 6.0
        },
        {
            "text": "uh thrown shade right right now",
            "start": 119.039,
            "duration": 4.281
        },
        {
            "text": "teach well was just I was just trying to",
            "start": 121.119,
            "duration": 5.201
        },
        {
            "text": "give advice I wasn't trying to be a burn",
            "start": 123.32,
            "duration": 5.2
        },
        {
            "text": "are you um you trying to are you are you",
            "start": 126.32,
            "duration": 3.96
        },
        {
            "text": "trying to say would you look at me",
            "start": 128.52,
            "duration": 3.92
        },
        {
            "text": "instead of looking over to the no no",
            "start": 130.28,
            "duration": 5.28
        },
        {
            "text": "look at me don't turn your back on me",
            "start": 132.44,
            "duration": 5.56
        },
        {
            "text": "yeah why you say to my face TJ well see",
            "start": 135.56,
            "duration": 3.8
        },
        {
            "text": "now that I'm streaming more and not",
            "start": 138.0,
            "duration": 3.04
        },
        {
            "text": "finishing any projects I'm not going to",
            "start": 139.36,
            "duration": 3.04
        },
        {
            "text": "say like you need to finish your",
            "start": 141.04,
            "duration": 3.32
        },
        {
            "text": "projects but maybe like staying with the",
            "start": 142.4,
            "duration": 4.479
        },
        {
            "text": "same Technologies could be useful but I",
            "start": 144.36,
            "duration": 7.4
        },
        {
            "text": "did I did do python this week",
            "start": 146.879,
            "duration": 4.881
        },
        {
            "text": "that's the text made of programming",
            "start": 151.879,
            "duration": 3.321
        },
        {
            "text": "languages",
            "start": 153.2,
            "duration": 4.28
        },
        {
            "text": "okay it's actually not true at all all",
            "start": 155.2,
            "duration": 4.72
        },
        {
            "text": "right it's all the little things like",
            "start": 157.48,
            "duration": 4.679
        },
        {
            "text": "the algorithm for escape completion of",
            "start": 159.92,
            "duration": 4.12
        },
        {
            "text": "words within the current document the",
            "start": 162.159,
            "duration": 4.481
        },
        {
            "text": "macro recording and replay mechanism",
            "start": 164.04,
            "duration": 4.24
        },
        {
            "text": "that I have used to set up the small",
            "start": 166.64,
            "duration": 3.959
        },
        {
            "text": "handful of automations I use on a daily",
            "start": 168.28,
            "duration": 4.4
        },
        {
            "text": "basis like command return to turn the",
            "start": 170.599,
            "duration": 5.92
        },
        {
            "text": "method into def method new line cursor",
            "start": 172.68,
            "duration": 7.279
        },
        {
            "text": "new new line but wait that's that's the",
            "start": 176.519,
            "duration": 5.241
        },
        {
            "text": "wrong new line that's the wrong new line",
            "start": 179.959,
            "duration": 6.28
        },
        {
            "text": "end or do tab to do cursor new line tab",
            "start": 181.76,
            "duration": 7.479
        },
        {
            "text": "cursor new line end I like you know by",
            "start": 186.239,
            "duration": 4.0
        },
        {
            "text": "the way these little things right here",
            "start": 189.239,
            "duration": 2.521
        },
        {
            "text": "that he's talking about super super",
            "start": 190.239,
            "duration": 3.241
        },
        {
            "text": "duper useful I actually use them quite a",
            "start": 191.76,
            "duration": 3.44
        },
        {
            "text": "bit in fact I have one right here if I",
            "start": 193.48,
            "duration": 4.679
        },
        {
            "text": "do like some sort of go file and I go",
            "start": 195.2,
            "duration": 5.56
        },
        {
            "text": "lader e it just gives me if Air does not",
            "start": 198.159,
            "duration": 5.321
        },
        {
            "text": "equal nil return nil or return err so",
            "start": 200.76,
            "duration": 4.64
        },
        {
            "text": "it's like I I get I'm preceeded I'm",
            "start": 203.48,
            "duration": 4.24
        },
        {
            "text": "ready to go I like it I like that I like",
            "start": 205.4,
            "duration": 4.8
        },
        {
            "text": "that move you know it is good you stay",
            "start": 207.72,
            "duration": 5.4
        },
        {
            "text": "in the zone I think yeah uh it's the",
            "start": 210.2,
            "duration": 6.039
        },
        {
            "text": "superb column mode oh and it's the all",
            "start": 213.12,
            "duration": 6.039
        },
        {
            "text": "Hollows Eve color theme the Perfection",
            "start": 216.239,
            "duration": 6.0
        },
        {
            "text": "with uh which it renders bitstream ver",
            "start": 219.159,
            "duration": 6.121
        },
        {
            "text": "Vera Sans Mano okay so this man really",
            "start": 222.239,
            "duration": 4.56
        },
        {
            "text": "does appreciate the little thing I don't",
            "start": 225.28,
            "duration": 3.84
        },
        {
            "text": "know what all hollow's Eve color SCH is",
            "start": 226.799,
            "duration": 5.16
        },
        {
            "text": "is it Halloween themed that's I mean",
            "start": 229.12,
            "duration": 5.28
        },
        {
            "text": "that's what I'm thinking which is like",
            "start": 231.959,
            "duration": 5.28
        },
        {
            "text": "did just I I'm trying to imagine that",
            "start": 234.4,
            "duration": 5.64
        },
        {
            "text": "it's not just orange what if it was only",
            "start": 237.239,
            "duration": 4.64
        },
        {
            "text": "Orange it's just the only shades of",
            "start": 240.04,
            "duration": 4.36
        },
        {
            "text": "orange I mean apparently it may look",
            "start": 241.879,
            "duration": 3.961
        },
        {
            "text": "like this uh here let's let's throw in",
            "start": 244.4,
            "duration": 2.479
        },
        {
            "text": "the word",
            "start": 245.84,
            "duration": 5.399
        },
        {
            "text": "textmate okay that's all hollow's",
            "start": 246.879,
            "duration": 7.0
        },
        {
            "text": "Eve it's not as orange as I thought it",
            "start": 251.239,
            "duration": 4.72
        },
        {
            "text": "was going to be but it's pretty Orange",
            "start": 253.879,
            "duration": 6.04
        },
        {
            "text": "it's I I can't even think of a word that",
            "start": 255.959,
            "duration": 7.361
        },
        {
            "text": "rhymes specifically there a there is a",
            "start": 259.919,
            "duration": 5.401
        },
        {
            "text": "lot of orange in that one uh probably",
            "start": 263.32,
            "duration": 3.64
        },
        {
            "text": "more orange than I'm comfortable with",
            "start": 265.32,
            "duration": 4.64
        },
        {
            "text": "spooky yeah no uh it's not much because",
            "start": 266.96,
            "duration": 5.92
        },
        {
            "text": "I'm looking I'm sorry go on TJ's scaring",
            "start": 269.96,
            "duration": 5.04
        },
        {
            "text": "away all the javascripts or you with",
            "start": 272.88,
            "duration": 4.72
        },
        {
            "text": "like Ruby he's like I gotta keep my ID",
            "start": 275.0,
            "duration": 4.28
        },
        {
            "text": "spooky we don't want the JavaScript to",
            "start": 277.6,
            "duration": 3.08
        },
        {
            "text": "start creeping",
            "start": 279.28,
            "duration": 3.919
        },
        {
            "text": "in and lo and behold he can't even help",
            "start": 280.68,
            "duration": 5.84
        },
        {
            "text": "it it just keeps coming in it's not much",
            "start": 283.199,
            "duration": 5.681
        },
        {
            "text": "because I'm not looking for an IDE I",
            "start": 286.52,
            "duration": 5.08
        },
        {
            "text": "want to write my code in plain text",
            "start": 288.88,
            "duration": 5.28
        },
        {
            "text": "editor and let that constraint force me",
            "start": 291.6,
            "duration": 4.48
        },
        {
            "text": "to design programs and Frameworks that",
            "start": 294.16,
            "duration": 3.72
        },
        {
            "text": "require nothing more I was actually",
            "start": 296.08,
            "duration": 3.2
        },
        {
            "text": "going to mention this earlier which is",
            "start": 297.88,
            "duration": 4.0
        },
        {
            "text": "something that I I I'm very happy he did",
            "start": 299.28,
            "duration": 5.72
        },
        {
            "text": "which is I wonder how that like not",
            "start": 301.88,
            "duration": 5.36
        },
        {
            "text": "having autocomplete not having co-pilot",
            "start": 305.0,
            "duration": 4.28
        },
        {
            "text": "not having effectively anything other",
            "start": 307.24,
            "duration": 3.88
        },
        {
            "text": "than an editor not even I I don't even",
            "start": 309.28,
            "duration": 4.199
        },
        {
            "text": "know if a textmate has a fuzzy finder",
            "start": 311.12,
            "duration": 4.76
        },
        {
            "text": "I'm just curious if it",
            "start": 313.479,
            "duration": 5.0
        },
        {
            "text": "changes like the shape of software in a",
            "start": 315.88,
            "duration": 3.8
        },
        {
            "text": "dramatic",
            "start": 318.479,
            "duration": 5.041
        },
        {
            "text": "way clearly it's changed his like I mean",
            "start": 319.68,
            "duration": 5.76
        },
        {
            "text": "he's as he says in the next sentence",
            "start": 323.52,
            "duration": 4.239
        },
        {
            "text": "right he's like he's super sensitive to",
            "start": 325.44,
            "duration": 4.36
        },
        {
            "text": "any extra thing he adds to rails cuz he",
            "start": 327.759,
            "duration": 4.401
        },
        {
            "text": "has to type literally all of",
            "start": 329.8,
            "duration": 5.2
        },
        {
            "text": "it yeah I mean it I guess is it that",
            "start": 332.16,
            "duration": 5.0
        },
        {
            "text": "surprising that Hotwire is like a",
            "start": 335.0,
            "duration": 4.479
        },
        {
            "text": "slightly more beefy version than",
            "start": 337.16,
            "duration": 4.92
        },
        {
            "text": "HDMX right yeah like I don't I don't",
            "start": 339.479,
            "duration": 4.761
        },
        {
            "text": "think it is and it's all like",
            "start": 342.08,
            "duration": 4.48
        },
        {
            "text": "about I mean that's why I think he loves",
            "start": 344.24,
            "duration": 4.32
        },
        {
            "text": "Ruby right it's like Ruby you can just",
            "start": 346.56,
            "duration": 4.6
        },
        {
            "text": "do like dot XYZ and it does like 95",
            "start": 348.56,
            "duration": 4.199
        },
        {
            "text": "things right you know what I mean like I",
            "start": 351.16,
            "duration": 3.96
        },
        {
            "text": "feel like it's a very high level",
            "start": 352.759,
            "duration": 4.28
        },
        {
            "text": "language",
            "start": 355.12,
            "duration": 4.919
        },
        {
            "text": "yeah H it's amazing how sensitive you",
            "start": 357.039,
            "duration": 5.201
        },
        {
            "text": "become to extraneous elements when you",
            "start": 360.039,
            "duration": 4.321
        },
        {
            "text": "literally have to type all of them by",
            "start": 362.24,
            "duration": 5.04
        },
        {
            "text": "hand it's surely one of the reasons I",
            "start": 364.36,
            "duration": 5.72
        },
        {
            "text": "never got on with explicitly typed",
            "start": 367.28,
            "duration": 4.8
        },
        {
            "text": "languages which basically required an",
            "start": 370.08,
            "duration": 4.6
        },
        {
            "text": "IDE to flow oh I'm the only one that",
            "start": 372.08,
            "duration": 4.839
        },
        {
            "text": "pre-read now sure sure yeah you just you",
            "start": 374.68,
            "duration": 3.48
        },
        {
            "text": "just happened to predict that he was",
            "start": 376.919,
            "duration": 2.881
        },
        {
            "text": "going to say that you just happened to",
            "start": 378.16,
            "duration": 4.8
        },
        {
            "text": "predict it who me that's literally what",
            "start": 379.8,
            "duration": 6.76
        },
        {
            "text": "you said at the beginning what that he",
            "start": 382.96,
            "duration": 5.239
        },
        {
            "text": "doesn't like type languages because it",
            "start": 386.56,
            "duration": 4.199
        },
        {
            "text": "needs an IDE and he his text mate did",
            "start": 388.199,
            "duration": 4.12
        },
        {
            "text": "you already forget it's it was only like",
            "start": 390.759,
            "duration": 3.84
        },
        {
            "text": "30 seconds ago of course I I literally",
            "start": 392.319,
            "duration": 3.641
        },
        {
            "text": "have I literally have the memory of a",
            "start": 394.599,
            "duration": 2.44
        },
        {
            "text": "goldfish I don't even know what you're",
            "start": 395.96,
            "duration": 2.359
        },
        {
            "text": "talking about but that sounds like",
            "start": 397.039,
            "duration": 2.841
        },
        {
            "text": "something I would say who wrote this",
            "start": 398.319,
            "duration": 5.081
        },
        {
            "text": "article where are we I cannot believe",
            "start": 399.88,
            "duration": 6.84
        },
        {
            "text": "we're reading an article by Joe Biden um",
            "start": 403.4,
            "duration": 5.32
        },
        {
            "text": "this is like because I mean it makes",
            "start": 406.72,
            "duration": 5.199
        },
        {
            "text": "natural sense because the only reason I",
            "start": 408.72,
            "duration": 4.72
        },
        {
            "text": "mean typescript has I guess the side",
            "start": 411.919,
            "duration": 2.72
        },
        {
            "text": "reason is that you could execute",
            "start": 413.44,
            "duration": 2.68
        },
        {
            "text": "something out of band to see if any of",
            "start": 414.639,
            "duration": 3.28
        },
        {
            "text": "your types fail but if you get",
            "start": 416.12,
            "duration": 4.96
        },
        {
            "text": "absolutely no Auto complete and the",
            "start": 417.919,
            "duration": 5.321
        },
        {
            "text": "reality is production software no matter",
            "start": 421.08,
            "duration": 3.799
        },
        {
            "text": "how much typescript you use there's",
            "start": 423.24,
            "duration": 3.799
        },
        {
            "text": "still that 0.1% of request failing due",
            "start": 424.879,
            "duration": 3.681
        },
        {
            "text": "to undefine not being a function or",
            "start": 427.039,
            "duration": 2.961
        },
        {
            "text": "something like that like you just let it",
            "start": 428.56,
            "duration": 3.44
        },
        {
            "text": "through the cracks you naturally will",
            "start": 430.0,
            "duration": 5.0
        },
        {
            "text": "code more defensively is my assumption",
            "start": 432.0,
            "duration": 5.36
        },
        {
            "text": "and thus your software is more resilient",
            "start": 435.0,
            "duration": 5.28
        },
        {
            "text": "mhm I don't know just a guess yeah when",
            "start": 437.36,
            "duration": 5.519
        },
        {
            "text": "I flatter myself I think of it like",
            "start": 440.28,
            "duration": 5.0
        },
        {
            "text": "climbing free solo minus the imminent",
            "start": 442.879,
            "duration": 4.641
        },
        {
            "text": "risk of death it's choosing for",
            "start": 445.28,
            "duration": 4.44
        },
        {
            "text": "something to be harder because the con",
            "start": 447.52,
            "duration": 5.48
        },
        {
            "text": "has value so I I know some people like",
            "start": 449.72,
            "duration": 6.12
        },
        {
            "text": "hate dhh is running but I feel like this",
            "start": 453.0,
            "duration": 4.56
        },
        {
            "text": "this shows that he's not taking himself",
            "start": 455.84,
            "duration": 3.24
        },
        {
            "text": "too seriously right like you wouldn't",
            "start": 457.56,
            "duration": 4.28
        },
        {
            "text": "include minus the imminent risk of death",
            "start": 459.08,
            "duration": 4.839
        },
        {
            "text": "if you literally thought that you were",
            "start": 461.84,
            "duration": 4.56
        },
        {
            "text": "as cool as someone climbing free solo",
            "start": 463.919,
            "duration": 5.801
        },
        {
            "text": "right am am I crazy to think that no",
            "start": 466.4,
            "duration": 5.44
        },
        {
            "text": "because my first thought once I got done",
            "start": 469.72,
            "duration": 3.919
        },
        {
            "text": "reading this was except for the imminent",
            "start": 471.84,
            "duration": 3.56
        },
        {
            "text": "thing of death and then his next",
            "start": 473.639,
            "duration": 3.721
        },
        {
            "text": "sentence was my exact thought which is",
            "start": 475.4,
            "duration": 5.919
        },
        {
            "text": "the whole like immediately dying part",
            "start": 477.36,
            "duration": 3.959
        },
        {
            "text": "he's just he's",
            "start": 482.879,
            "duration": 5.76
        },
        {
            "text": "he's um chat that was not a window sound",
            "start": 485.319,
            "duration": 7.041
        },
        {
            "text": "that that wasn't um that was it was me",
            "start": 488.639,
            "duration": 5.96
        },
        {
            "text": "sorry chat TJ can you turn your windows",
            "start": 492.36,
            "duration": 5.36
        },
        {
            "text": "off please some are trying to",
            "start": 494.599,
            "duration": 6.04
        },
        {
            "text": "stream okay it's off now I love that",
            "start": 497.72,
            "duration": 4.72
        },
        {
            "text": "you're you turn off your windows the",
            "start": 500.639,
            "duration": 5.201
        },
        {
            "text": "same way Donkey Kong does H them mongos",
            "start": 502.44,
            "duration": 5.8
        },
        {
            "text": "I smashed I just smashed the computer",
            "start": 505.84,
            "duration": 5.919
        },
        {
            "text": "completely so I'd long thought that",
            "start": 508.24,
            "duration": 6.12
        },
        {
            "text": "textmate might well be that forever",
            "start": 511.759,
            "duration": 4.72
        },
        {
            "text": "editor for me I've tried all of the",
            "start": 514.36,
            "duration": 4.0
        },
        {
            "text": "major Alternatives but none of them has",
            "start": 516.479,
            "duration": 4.281
        },
        {
            "text": "nailed the basics in the way textmate",
            "start": 518.36,
            "duration": 5.359
        },
        {
            "text": "does for me most of the new stuff they",
            "start": 520.76,
            "duration": 5.519
        },
        {
            "text": "bought or brought to the party was stuff",
            "start": 523.719,
            "duration": 4.56
        },
        {
            "text": "I'd pay to forgo it's such an",
            "start": 526.279,
            "duration": 3.401
        },
        {
            "text": "interesting thought process like maybe",
            "start": 528.279,
            "duration": 2.961
        },
        {
            "text": "you know like I always say that learning",
            "start": 529.68,
            "duration": 3.48
        },
        {
            "text": "a language is best done if you turn off",
            "start": 531.24,
            "duration": 5.0
        },
        {
            "text": "your LSP you will learn significantly",
            "start": 533.16,
            "duration": 5.2
        },
        {
            "text": "better by not having that option and",
            "start": 536.24,
            "duration": 4.08
        },
        {
            "text": "just having to go the slow way having to",
            "start": 538.36,
            "duration": 3.96
        },
        {
            "text": "go and look up every last thing things",
            "start": 540.32,
            "duration": 3.72
        },
        {
            "text": "just stick in your head like same with",
            "start": 542.32,
            "duration": 3.92
        },
        {
            "text": "co-pilot co-pilot largely robs you of",
            "start": 544.04,
            "duration": 4.08
        },
        {
            "text": "the process of learning like a new",
            "start": 546.24,
            "duration": 4.039
        },
        {
            "text": "language though like especially with a",
            "start": 548.12,
            "duration": 3.959
        },
        {
            "text": "language like go it's it's so simple",
            "start": 550.279,
            "duration": 3.0
        },
        {
            "text": "that you can kind of go oh yeah that's",
            "start": 552.079,
            "duration": 2.721
        },
        {
            "text": "correct okay that's correct okay that's",
            "start": 553.279,
            "duration": 4.12
        },
        {
            "text": "correct but I may not be able to write",
            "start": 554.8,
            "duration": 6.24
        },
        {
            "text": "go effectively without yeah co-pilot",
            "start": 557.399,
            "duration": 6.12
        },
        {
            "text": "because I'm just so used to it some of",
            "start": 561.04,
            "duration": 3.919
        },
        {
            "text": "that might too be because you already",
            "start": 563.519,
            "duration": 3.32
        },
        {
            "text": "know a lot of other languages maybe it's",
            "start": 564.959,
            "duration": 4.56
        },
        {
            "text": "easy in go to like recognize the p that",
            "start": 566.839,
            "duration": 4.841
        },
        {
            "text": "you already know yeah you know what I",
            "start": 569.519,
            "duration": 3.681
        },
        {
            "text": "mean so I also would be interested to",
            "start": 571.68,
            "duration": 3.24
        },
        {
            "text": "know like how that feels for someone new",
            "start": 573.2,
            "duration": 3.72
        },
        {
            "text": "starting out like if they used cop would",
            "start": 574.92,
            "duration": 4.08
        },
        {
            "text": "and go would they not get a bunch of the",
            "start": 576.92,
            "duration": 4.039
        },
        {
            "text": "stuff that's happening but yes I I think",
            "start": 579.0,
            "duration": 3.32
        },
        {
            "text": "I think so as well it's occasionally",
            "start": 580.959,
            "duration": 3.721
        },
        {
            "text": "good to maybe turn off a few tools or do",
            "start": 582.32,
            "duration": 3.8
        },
        {
            "text": "a few things different just to sort of",
            "start": 584.68,
            "duration": 3.36
        },
        {
            "text": "like push your brain in a in a different",
            "start": 586.12,
            "duration": 5.08
        },
        {
            "text": "way I like it but here's the problem",
            "start": 588.04,
            "duration": 6.0
        },
        {
            "text": "textmate is tied to the mac and tying",
            "start": 591.2,
            "duration": 4.24
        },
        {
            "text": "myself to the Mac seems like an",
            "start": 594.04,
            "duration": 4.12
        },
        {
            "text": "increasingly bad idea Apple has turned",
            "start": 595.44,
            "duration": 4.8
        },
        {
            "text": "into the kind of company that I just",
            "start": 598.16,
            "duration": 4.28
        },
        {
            "text": "don't want to have to rely on that",
            "start": 600.24,
            "duration": 3.719
        },
        {
            "text": "doesn't mean I can't use any of their",
            "start": 602.44,
            "duration": 3.56
        },
        {
            "text": "products but I absolutely do not want to",
            "start": 603.959,
            "duration": 4.44
        },
        {
            "text": "feel like I have to I want to have the",
            "start": 606.0,
            "duration": 4.16
        },
        {
            "text": "independence where walking away is",
            "start": 608.399,
            "duration": 5.241
        },
        {
            "text": "always an option and it just isn't as",
            "start": 610.16,
            "duration": 5.799
        },
        {
            "text": "long as I'm committed to textmate that's",
            "start": 613.64,
            "duration": 3.92
        },
        {
            "text": "like the funniest sentence in the world",
            "start": 615.959,
            "duration": 3.801
        },
        {
            "text": "not because I disagree but like textmate",
            "start": 617.56,
            "duration": 5.04
        },
        {
            "text": "is the thing that's holding him to",
            "start": 619.76,
            "duration": 5.04
        },
        {
            "text": "Mac like I don't know in my mind it's",
            "start": 622.6,
            "duration": 5.32
        },
        {
            "text": "just like I like literally anything like",
            "start": 624.8,
            "duration": 5.039
        },
        {
            "text": "Google Docs like could you just use",
            "start": 627.92,
            "duration": 4.52
        },
        {
            "text": "Google Docs instead like will that work",
            "start": 629.839,
            "duration": 4.201
        },
        {
            "text": "just as good I",
            "start": 632.44,
            "duration": 4.04
        },
        {
            "text": "don't that is it is funny because I know",
            "start": 634.04,
            "duration": 3.76
        },
        {
            "text": "people that are tied to Mac like",
            "start": 636.48,
            "duration": 2.919
        },
        {
            "text": "especially in the movie production world",
            "start": 637.8,
            "duration": 3.839
        },
        {
            "text": "where they have to use some like Arcane",
            "start": 639.399,
            "duration": 3.921
        },
        {
            "text": "version of Mac cuz this one piece of",
            "start": 641.639,
            "duration": 3.281
        },
        {
            "text": "software that is used in all movie",
            "start": 643.32,
            "duration": 3.24
        },
        {
            "text": "productions only run on this one thing",
            "start": 644.92,
            "duration": 3.08
        },
        {
            "text": "and that's just how it works and that's",
            "start": 646.56,
            "duration": 3.64
        },
        {
            "text": "the industry standard right this is just",
            "start": 648.0,
            "duration": 3.959
        },
        {
            "text": "textmate like you could you can",
            "start": 650.2,
            "duration": 3.879
        },
        {
            "text": "literally just start emx and call it a",
            "start": 651.959,
            "duration": 4.201
        },
        {
            "text": "day right that's the part that that is",
            "start": 654.079,
            "duration": 3.601
        },
        {
            "text": "like throwing me off like I get the",
            "start": 656.16,
            "duration": 3.4
        },
        {
            "text": "sentiment and he's had some run-ins with",
            "start": 657.68,
            "duration": 3.76
        },
        {
            "text": "Mac I guess with their like you know",
            "start": 659.56,
            "duration": 3.48
        },
        {
            "text": "their products on Apple and all this",
            "start": 661.44,
            "duration": 3.0
        },
        {
            "text": "other stuff but I'm just it's just like",
            "start": 663.04,
            "duration": 3.56
        },
        {
            "text": "throwing me off like they just if you",
            "start": 664.44,
            "duration": 4.48
        },
        {
            "text": "could put a word in at the end right and",
            "start": 666.6,
            "duration": 3.919
        },
        {
            "text": "you're guessing the probability of the",
            "start": 668.92,
            "duration": 3.52
        },
        {
            "text": "word and the last word of that paragraph",
            "start": 670.519,
            "duration": 2.88
        },
        {
            "text": "is just",
            "start": 672.44,
            "duration": 3.959
        },
        {
            "text": "textmate you're like that's low probably",
            "start": 673.399,
            "duration": 4.641
        },
        {
            "text": "that's not the thing I'm",
            "start": 676.399,
            "duration": 4.041
        },
        {
            "text": "guessing this this must be some sort of",
            "start": 678.04,
            "duration": 4.32
        },
        {
            "text": "legendary item we just stumbled upon",
            "start": 680.44,
            "duration": 3.32
        },
        {
            "text": "because then the probability is",
            "start": 682.36,
            "duration": 3.8
        },
        {
            "text": "exceptionally low here",
            "start": 683.76,
            "duration": 4.319
        },
        {
            "text": "yeah all right hold on one second I do",
            "start": 686.16,
            "duration": 3.2
        },
        {
            "text": "have to say thank you hey noticed that",
            "start": 688.079,
            "duration": 2.641
        },
        {
            "text": "there's been like some gifted subs and",
            "start": 689.36,
            "duration": 3.08
        },
        {
            "text": "stuff like that hey thank you very much",
            "start": 690.72,
            "duration": 3.359
        },
        {
            "text": "but I'm in the Pro we're in the process",
            "start": 692.44,
            "duration": 3.199
        },
        {
            "text": "of reading something so hey I'll I'll",
            "start": 694.079,
            "duration": 3.601
        },
        {
            "text": "get there oh my gosh what happened dhh",
            "start": 695.639,
            "duration": 4.681
        },
        {
            "text": "is moving away from textmate okay this",
            "start": 697.68,
            "duration": 5.52
        },
        {
            "text": "isn't crazy okay this the crazy part is",
            "start": 700.32,
            "duration": 5.6
        },
        {
            "text": "that he's on textmate yeah all right all",
            "start": 703.2,
            "duration": 4.84
        },
        {
            "text": "right anyways thus began the search for",
            "start": 705.92,
            "duration": 5.0
        },
        {
            "text": "the last editor I do love this idea of",
            "start": 708.04,
            "duration": 4.88
        },
        {
            "text": "finalizing part of your setup a setup",
            "start": 710.92,
            "duration": 3.2
        },
        {
            "text": "that you don't have to touch anymore",
            "start": 712.92,
            "duration": 2.56
        },
        {
            "text": "it's one of the reasons why I try to",
            "start": 714.12,
            "duration": 5.24
        },
        {
            "text": "edit very rarely just in general my my",
            "start": 715.48,
            "duration": 5.44
        },
        {
            "text": "Vim setup is that I just wanted to",
            "start": 719.36,
            "duration": 3.279
        },
        {
            "text": "become more and more the same and even",
            "start": 720.92,
            "duration": 4.08
        },
        {
            "text": "if there's things that bothers Bother Me",
            "start": 722.639,
            "duration": 5.161
        },
        {
            "text": "Maybe I don't need to fix it like maybe",
            "start": 725.0,
            "duration": 5.079
        },
        {
            "text": "I got to like just just having it always",
            "start": 727.8,
            "duration": 3.92
        },
        {
            "text": "the same there is something good about",
            "start": 730.079,
            "duration": 5.0
        },
        {
            "text": "that yeah agreed and just like you can",
            "start": 731.72,
            "duration": 4.96
        },
        {
            "text": "fix it later like you can try for a",
            "start": 735.079,
            "duration": 3.12
        },
        {
            "text": "little bit maybe you were wrong about it",
            "start": 736.68,
            "duration": 3.08
        },
        {
            "text": "being annoying maybe you like changed",
            "start": 738.199,
            "duration": 3.241
        },
        {
            "text": "your brain and then it's good like we",
            "start": 739.76,
            "duration": 3.639
        },
        {
            "text": "were talking about using I don't",
            "start": 741.44,
            "duration": 3.639
        },
        {
            "text": "actually know if you're on the control y",
            "start": 743.399,
            "duration": 5.641
        },
        {
            "text": "for accepting completions train I am",
            "start": 745.079,
            "duration": 6.241
        },
        {
            "text": "that made me switch from tab to contr n",
            "start": 749.04,
            "duration": 4.799
        },
        {
            "text": "and p and instead of enter or whatever",
            "start": 751.32,
            "duration": 6.6
        },
        {
            "text": "it was to uh control y so now I use that",
            "start": 753.839,
            "duration": 5.721
        },
        {
            "text": "and then it's like at at first it feels",
            "start": 757.92,
            "duration": 3.359
        },
        {
            "text": "really weird but then it's at least for",
            "start": 759.56,
            "duration": 3.279
        },
        {
            "text": "me it starts feeling really natural and",
            "start": 761.279,
            "duration": 3.36
        },
        {
            "text": "like it's nice that every key only has",
            "start": 762.839,
            "duration": 3.44
        },
        {
            "text": "one thing that it can do and all this",
            "start": 764.639,
            "duration": 3.44
        },
        {
            "text": "right and you're like oh it actually",
            "start": 766.279,
            "duration": 3.441
        },
        {
            "text": "like works really well in my brain same",
            "start": 768.079,
            "duration": 3.241
        },
        {
            "text": "thing you know I think a similar idea",
            "start": 769.72,
            "duration": 3.08
        },
        {
            "text": "for what you like about Harpoon and what",
            "start": 771.32,
            "duration": 3.16
        },
        {
            "text": "you like about t-u right is that like oh",
            "start": 772.8,
            "duration": 4.159
        },
        {
            "text": "I always know that one does this",
            "start": 774.48,
            "duration": 4.359
        },
        {
            "text": "particular thing right so like tab",
            "start": 776.959,
            "duration": 4.601
        },
        {
            "text": "always puts in a tab or like does a TBL",
            "start": 778.839,
            "duration": 4.161
        },
        {
            "text": "like thing right it doesn't sometimes",
            "start": 781.56,
            "duration": 3.519
        },
        {
            "text": "expand a snippet and sometimes jump to",
            "start": 783.0,
            "duration": 3.68
        },
        {
            "text": "the next thing and sometimes do a",
            "start": 785.079,
            "duration": 3.12
        },
        {
            "text": "completion and sometimes accept the",
            "start": 786.68,
            "duration": 3.64
        },
        {
            "text": "completion right like and so yeah",
            "start": 788.199,
            "duration": 3.401
        },
        {
            "text": "sometimes you pick something and you",
            "start": 790.32,
            "duration": 2.519
        },
        {
            "text": "like try it at first and it's confusing",
            "start": 791.6,
            "duration": 2.799
        },
        {
            "text": "but it gets good after you try it for a",
            "start": 792.839,
            "duration": 4.081
        },
        {
            "text": "while one that isn't tied to a specific",
            "start": 794.399,
            "duration": 5.081
        },
        {
            "text": "platform or preferably even a specific",
            "start": 796.92,
            "duration": 5.159
        },
        {
            "text": "company and that I trust will be around",
            "start": 799.48,
            "duration": 5.56
        },
        {
            "text": "until I'm done programming vs code has",
            "start": 802.079,
            "duration": 4.641
        },
        {
            "text": "become the obvious choice for most of",
            "start": 805.04,
            "duration": 3.44
        },
        {
            "text": "the web world but the longer I spend",
            "start": 806.72,
            "duration": 4.2
        },
        {
            "text": "working with it the more I realize that",
            "start": 808.48,
            "duration": 4.32
        },
        {
            "text": "its heart is beating to become a",
            "start": 810.92,
            "duration": 4.88
        },
        {
            "text": "full-fledged IDE and all I want is a",
            "start": 812.8,
            "duration": 6.279
        },
        {
            "text": "text editor it's true it's fair not WR",
            "start": 815.8,
            "duration": 5.0
        },
        {
            "text": "fair fair statement I don't think we're",
            "start": 819.079,
            "duration": 3.801
        },
        {
            "text": "going in the same direction V code and I",
            "start": 820.8,
            "duration": 4.56
        },
        {
            "text": "and frankly even with their latest",
            "start": 822.88,
            "duration": 5.0
        },
        {
            "text": "Redemption Arc I'm not keen to tie my",
            "start": 825.36,
            "duration": 4.56
        },
        {
            "text": "editor commitment to Microsoft now man",
            "start": 827.88,
            "duration": 4.12
        },
        {
            "text": "after my own heart right here just",
            "start": 829.92,
            "duration": 3.599
        },
        {
            "text": "absolutely love this you knew this you",
            "start": 832.0,
            "duration": 3.04
        },
        {
            "text": "pre-read this TJ and you knew I was",
            "start": 833.519,
            "duration": 2.961
        },
        {
            "text": "going to celebrate this one moment",
            "start": 835.04,
            "duration": 4.2
        },
        {
            "text": "didn't you he's singing Our Song he's",
            "start": 836.48,
            "duration": 5.64
        },
        {
            "text": "singing Our Song not only is he dunking",
            "start": 839.24,
            "duration": 5.719
        },
        {
            "text": "on Apple he's then follow Microsoft's",
            "start": 842.12,
            "duration": 4.76
        },
        {
            "text": "catching Strays as well this is",
            "start": 844.959,
            "duration": 3.961
        },
        {
            "text": "beautiful who knows what kind of",
            "start": 846.88,
            "duration": 4.36
        },
        {
            "text": "villainy they may once again descend",
            "start": 848.92,
            "duration": 5.0
        },
        {
            "text": "into and if you hope to still be writing",
            "start": 851.24,
            "duration": 4.68
        },
        {
            "text": "code for another 20 to 30 years oh if",
            "start": 853.92,
            "duration": 3.44
        },
        {
            "text": "you hope to wait I missed something",
            "start": 855.92,
            "duration": 4.4
        },
        {
            "text": "there who flip take that out who knows",
            "start": 857.36,
            "duration": 4.919
        },
        {
            "text": "what kind of villain they may once again",
            "start": 860.32,
            "duration": 4.759
        },
        {
            "text": "descent into if you hope to still be",
            "start": 862.279,
            "duration": 6.161
        },
        {
            "text": "coding for another 20 to 30 years I feel",
            "start": 865.079,
            "duration": 4.601
        },
        {
            "text": "like I'm still missing something in that",
            "start": 868.44,
            "duration": 2.36
        },
        {
            "text": "sense but I I know what he's trying to",
            "start": 869.68,
            "duration": 4.079
        },
        {
            "text": "say yeah the suggestion I've heard Al",
            "start": 870.8,
            "duration": 4.56
        },
        {
            "text": "yeah yeah the suggestion I've heard a",
            "start": 873.759,
            "duration": 4.241
        },
        {
            "text": "lot is Sublime they have clients on Mac",
            "start": 875.36,
            "duration": 4.479
        },
        {
            "text": "OS windows and Linux I hear a lot of",
            "start": 878.0,
            "duration": 3.0
        },
        {
            "text": "good things about it the spiritual",
            "start": 879.839,
            "duration": 3.44
        },
        {
            "text": "successor to textmate you feel like",
            "start": 881.0,
            "duration": 3.0
        },
        {
            "text": "that's",
            "start": 883.279,
            "duration": 3.441
        },
        {
            "text": "true I think that's a that would be in",
            "start": 884.0,
            "duration": 4.839
        },
        {
            "text": "my it'd be a pretty fair assessment I",
            "start": 886.72,
            "duration": 3.559
        },
        {
            "text": "feel like especially like it is",
            "start": 888.839,
            "duration": 3.041
        },
        {
            "text": "crossplatform in that way and in a lot",
            "start": 890.279,
            "duration": 3.161
        },
        {
            "text": "of ways I do think people who liked",
            "start": 891.88,
            "duration": 3.399
        },
        {
            "text": "textmate probably like Sublime and it's",
            "start": 893.44,
            "duration": 3.759
        },
        {
            "text": "like still getting some new features and",
            "start": 895.279,
            "duration": 3.841
        },
        {
            "text": "stuff and they are focused on like being",
            "start": 897.199,
            "duration": 3.921
        },
        {
            "text": "fast and being a text editor so I think",
            "start": 899.12,
            "duration": 4.639
        },
        {
            "text": "that's I i' say it's fair one thing I",
            "start": 901.12,
            "duration": 4.519
        },
        {
            "text": "like about Sublime is that no matter how",
            "start": 903.759,
            "duration": 5.161
        },
        {
            "text": "big the file it is it is by far the most",
            "start": 905.639,
            "duration": 6.2
        },
        {
            "text": "Snappy editor when it comes to big files",
            "start": 908.92,
            "duration": 5.2
        },
        {
            "text": "yes it is I don't know what it is long",
            "start": 911.839,
            "duration": 4.641
        },
        {
            "text": "lines doesn't boother like neovim can't",
            "start": 914.12,
            "duration": 4.48
        },
        {
            "text": "handle a long line you cross 10,000",
            "start": 916.48,
            "duration": 4.24
        },
        {
            "text": "characters in a single column like game",
            "start": 918.6,
            "duration": 5.32
        },
        {
            "text": "o it's so jover it's it's j big time",
            "start": 920.72,
            "duration": 7.2
        },
        {
            "text": "it's j yep uh but last time I gave it a",
            "start": 923.92,
            "duration": 6.52
        },
        {
            "text": "shot it f felt like uncanny valley very",
            "start": 927.92,
            "duration": 5.159
        },
        {
            "text": "similar to textmate but not quite and",
            "start": 930.44,
            "duration": 4.68
        },
        {
            "text": "all the little differences added up to a",
            "start": 933.079,
            "duration": 4.44
        },
        {
            "text": "shimmer I just couldn't shake that's why",
            "start": 935.12,
            "duration": 3.92
        },
        {
            "text": "I'm thinking it might be better to try",
            "start": 937.519,
            "duration": 3.161
        },
        {
            "text": "something radically",
            "start": 939.04,
            "duration": 4.159
        },
        {
            "text": "different I like Shimmer I just couldn't",
            "start": 940.68,
            "duration": 4.44
        },
        {
            "text": "shake I feel like I want to use that",
            "start": 943.199,
            "duration": 4.44
        },
        {
            "text": "it's pretty fun to say a shimmer I just",
            "start": 945.12,
            "duration": 5.519
        },
        {
            "text": "couldn't shake yeah I like it you know",
            "start": 947.639,
            "duration": 5.76
        },
        {
            "text": "it's funny that dhh doesn't like adding",
            "start": 950.639,
            "duration": 4.521
        },
        {
            "text": "even one iota",
            "start": 953.399,
            "duration": 3.761
        },
        {
            "text": "extra to his",
            "start": 955.16,
            "duration": 6.679
        },
        {
            "text": "code yet the man the man's Pros are very",
            "start": 957.16,
            "duration": 8.039
        },
        {
            "text": "verbose in adjectives yeah I like it",
            "start": 961.839,
            "duration": 8.041
        },
        {
            "text": "though yeah yep uh also uh I actually",
            "start": 965.199,
            "duration": 6.681
        },
        {
            "text": "get this a lot if you use something that",
            "start": 969.88,
            "duration": 4.519
        },
        {
            "text": "is extremely close to something else",
            "start": 971.88,
            "duration": 5.36
        },
        {
            "text": "yeah it's almost worse than just simply",
            "start": 974.399,
            "duration": 4.161
        },
        {
            "text": "doing something different because then",
            "start": 977.24,
            "duration": 3.32
        },
        {
            "text": "you're constantly trying to make it into",
            "start": 978.56,
            "duration": 4.24
        },
        {
            "text": "something you know like how to",
            "start": 980.56,
            "duration": 4.079
        },
        {
            "text": "Communists can never agree what",
            "start": 982.8,
            "duration": 5.479
        },
        {
            "text": "communism is right is I'm glad you know",
            "start": 984.639,
            "duration": 5.44
        },
        {
            "text": "it's not a Prime Time video without",
            "start": 988.279,
            "duration": 4.841
        },
        {
            "text": "communism mentioned at least",
            "start": 990.079,
            "duration": 5.44
        },
        {
            "text": "once hey leave a comment below if you",
            "start": 993.12,
            "duration": 4.519
        },
        {
            "text": "love communism like Prime okay leave a",
            "start": 995.519,
            "duration": 4.0
        },
        {
            "text": "comment",
            "start": 997.639,
            "duration": 5.481
        },
        {
            "text": "below this is ridiculous enter Vim it's",
            "start": 999.519,
            "duration": 6.0
        },
        {
            "text": "part of the ultimate neck beard Duo of",
            "start": 1003.12,
            "duration": 4.56
        },
        {
            "text": "editors together with emac it's an",
            "start": 1005.519,
            "duration": 4.0
        },
        {
            "text": "editor with a history that traces back",
            "start": 1007.68,
            "duration": 4.88
        },
        {
            "text": "to the late 70s and it's iconically",
            "start": 1009.519,
            "duration": 5.44
        },
        {
            "text": "quirky the long running joke is that",
            "start": 1012.56,
            "duration": 4.36
        },
        {
            "text": "nobody knows how to even quit it when",
            "start": 1014.959,
            "duration": 3.8
        },
        {
            "text": "they first start the command is is Right",
            "start": 1016.92,
            "duration": 4.2
        },
        {
            "text": "quit bang but talk about standing the",
            "start": 1018.759,
            "duration": 4.601
        },
        {
            "text": "test of time the modern interpretation",
            "start": 1021.12,
            "duration": 5.319
        },
        {
            "text": "of Vim is called the neovim and it's got",
            "start": 1023.36,
            "duration": 5.199
        },
        {
            "text": "a cult following including people whose",
            "start": 1026.439,
            "duration": 3.961
        },
        {
            "text": "parents weren't even born when VI",
            "start": 1028.559,
            "duration": 4.88
        },
        {
            "text": "originally came about it's still VI it's",
            "start": 1030.4,
            "duration": 5.559
        },
        {
            "text": "still quit bang to quit it's still",
            "start": 1033.439,
            "duration": 4.801
        },
        {
            "text": "quirky but it's also fast modern and",
            "start": 1035.959,
            "duration": 3.72
        },
        {
            "text": "integrates with the latest editor",
            "start": 1038.24,
            "duration": 3.599
        },
        {
            "text": "Evolutions like language servers I",
            "start": 1039.679,
            "duration": 3.441
        },
        {
            "text": "actually spent a summer programming in",
            "start": 1041.839,
            "duration": 3.24
        },
        {
            "text": "Vim prior to learning Ruby and",
            "start": 1043.12,
            "duration": 3.52
        },
        {
            "text": "remarkably a good portion of those",
            "start": 1045.079,
            "duration": 3.521
        },
        {
            "text": "quirky commands have stuck in my brain",
            "start": 1046.64,
            "duration": 4.56
        },
        {
            "text": "partly because the magic of Vim is is",
            "start": 1048.6,
            "duration": 5.92
        },
        {
            "text": "its ubiquity even Linux system has some",
            "start": 1051.2,
            "duration": 5.88
        },
        {
            "text": "version of it installed so whatever or",
            "start": 1054.52,
            "duration": 4.68
        },
        {
            "text": "whenever I'm editing files on a remote",
            "start": 1057.08,
            "duration": 5.36
        },
        {
            "text": "system it's with VI mode by the way this",
            "start": 1059.2,
            "duration": 4.88
        },
        {
            "text": "is one of the greatest reasons it's it's",
            "start": 1062.44,
            "duration": 2.92
        },
        {
            "text": "the reason why I always knock against",
            "start": 1064.08,
            "duration": 5.44
        },
        {
            "text": "Helix is that Vim has such a ubiquitous",
            "start": 1065.36,
            "duration": 7.8
        },
        {
            "text": "set of shortcuts it's AV available like",
            "start": 1069.52,
            "duration": 6.92
        },
        {
            "text": "in every single editor that when you use",
            "start": 1073.16,
            "duration": 6.92
        },
        {
            "text": "it I mean even xcode has it and X Cod I",
            "start": 1076.44,
            "duration": 4.88
        },
        {
            "text": "mean sure their emulation is not that",
            "start": 1080.08,
            "duration": 2.36
        },
        {
            "text": "great but nonetheless they like still",
            "start": 1081.32,
            "duration": 2.88
        },
        {
            "text": "have it and one time I had to be an X",
            "start": 1082.44,
            "duration": 3.8
        },
        {
            "text": "code for like 3 months straight and so",
            "start": 1084.2,
            "duration": 3.839
        },
        {
            "text": "it's just like having the ability to",
            "start": 1086.24,
            "duration": 4.919
        },
        {
            "text": "edit no matter what editor you're in in",
            "start": 1088.039,
            "duration": 6.12
        },
        {
            "text": "decent Comfort is such like a huge it's",
            "start": 1091.159,
            "duration": 6.0
        },
        {
            "text": "just such a huge W it is yeah having",
            "start": 1094.159,
            "duration": 5.721
        },
        {
            "text": "like Vim mode in things is is very nice",
            "start": 1097.159,
            "duration": 4.52
        },
        {
            "text": "I was a little confused did you skip",
            "start": 1099.88,
            "duration": 3.679
        },
        {
            "text": "over the cult stuff like on purpose or",
            "start": 1101.679,
            "duration": 3.521
        },
        {
            "text": "you were just sort of worried",
            "start": 1103.559,
            "duration": 3.521
        },
        {
            "text": "about we didn't want to talk about the",
            "start": 1105.2,
            "duration": 5.2
        },
        {
            "text": "cult thing no ne's got a cult following",
            "start": 1107.08,
            "duration": 4.52
        },
        {
            "text": "from the previous paragraph I didn't",
            "start": 1110.4,
            "duration": 2.92
        },
        {
            "text": "know if you were just like quit skipping",
            "start": 1111.6,
            "duration": 2.68
        },
        {
            "text": "that because we didn't want to talk",
            "start": 1113.32,
            "duration": 3.8
        },
        {
            "text": "about it or no as as as one of the cult",
            "start": 1114.28,
            "duration": 5.8
        },
        {
            "text": "leaders um I I just I accepted that and",
            "start": 1117.12,
            "duration": 4.919
        },
        {
            "text": "it seems actually completely normal when",
            "start": 1120.08,
            "duration": 3.28
        },
        {
            "text": "I read that I was like yeah that seems",
            "start": 1122.039,
            "duration": 4.921
        },
        {
            "text": "about right I actually was like I love I",
            "start": 1123.36,
            "duration": 5.08
        },
        {
            "text": "we should put this we should get this on",
            "start": 1126.96,
            "duration": 4.4
        },
        {
            "text": "neovim doio this needs to be a new",
            "start": 1128.44,
            "duration": 4.84
        },
        {
            "text": "quote it should",
            "start": 1131.36,
            "duration": 4.64
        },
        {
            "text": "be it's a called called following whose",
            "start": 1133.28,
            "duration": 6.24
        },
        {
            "text": "parents were born after VI was created",
            "start": 1136.0,
            "duration": 7.08
        },
        {
            "text": "I do like well it's like you know oh man",
            "start": 1139.52,
            "duration": 5.88
        },
        {
            "text": "it was a video from a while ago but then",
            "start": 1143.08,
            "duration": 4.16
        },
        {
            "text": "they were saying everyone who uses Vim",
            "start": 1145.4,
            "duration": 5.0
        },
        {
            "text": "is of a certain generation and they like",
            "start": 1147.24,
            "duration": 5.84
        },
        {
            "text": "said it really like you know really",
            "start": 1150.4,
            "duration": 4.759
        },
        {
            "text": "implying something but I was like I and",
            "start": 1153.08,
            "duration": 3.56
        },
        {
            "text": "at the time I wasn't even 30 you know",
            "start": 1155.159,
            "duration": 3.321
        },
        {
            "text": "now I'm 30 I'm old you know I get it",
            "start": 1156.64,
            "duration": 4.84
        },
        {
            "text": "that's fine uh but Vim a certain",
            "start": 1158.48,
            "duration": 4.8
        },
        {
            "text": "generation and it oh it's yeah it's the",
            "start": 1161.48,
            "duration": 4.439
        },
        {
            "text": "stack Overflow article stack Overflow",
            "start": 1163.28,
            "duration": 5.279
        },
        {
            "text": "right here certain there we go the",
            "start": 1165.919,
            "duration": 4.88
        },
        {
            "text": "consensus among many vim and emac users",
            "start": 1168.559,
            "duration": 4.281
        },
        {
            "text": "creates a picture that many Tech users",
            "start": 1170.799,
            "duration": 5.321
        },
        {
            "text": "from a certain generation would be",
            "start": 1172.84,
            "duration": 7.28
        },
        {
            "text": "familiar with it is literally the most",
            "start": 1176.12,
            "duration": 7.84
        },
        {
            "text": "like condescending quote that has ever",
            "start": 1180.12,
            "duration": 7.36
        },
        {
            "text": "existed in Tech I mean in tech is is",
            "start": 1183.96,
            "duration": 4.92
        },
        {
            "text": "just one condescending quote after",
            "start": 1187.48,
            "duration": 2.8
        },
        {
            "text": "another and this one might be the worst",
            "start": 1188.88,
            "duration": 4.08
        },
        {
            "text": "one I've ever seen we need to get shirts",
            "start": 1190.28,
            "duration": 5.44
        },
        {
            "text": "that just says certain generation or so",
            "start": 1192.96,
            "duration": 4.32
        },
        {
            "text": "you know what I mean like we need we",
            "start": 1195.72,
            "duration": 3.319
        },
        {
            "text": "need some merch C certain generation",
            "start": 1197.28,
            "duration": 4.0
        },
        {
            "text": "merch I like it it's that certain",
            "start": 1199.039,
            "duration": 4.201
        },
        {
            "text": "generation feel I'm actually getting old",
            "start": 1201.28,
            "duration": 3.04
        },
        {
            "text": "enough that that might be a bit",
            "start": 1203.24,
            "duration": 3.439
        },
        {
            "text": "confusing you know like back kind of",
            "start": 1204.32,
            "duration": 4.2
        },
        {
            "text": "hurts sometimes they be like it doesn't",
            "start": 1206.679,
            "duration": 4.321
        },
        {
            "text": "really go with your blue",
            "start": 1208.52,
            "duration": 5.399
        },
        {
            "text": "hair all right so we will see I'm still",
            "start": 1211.0,
            "duration": 5.679
        },
        {
            "text": "of two minds on of whether I'm going to",
            "start": 1213.919,
            "duration": 4.76
        },
        {
            "text": "allow Apple's villainies separate",
            "start": 1216.679,
            "duration": 4.441
        },
        {
            "text": "separate me from my beloved textmate but",
            "start": 1218.679,
            "duration": 4.441
        },
        {
            "text": "I'm willing to experiment and entertain",
            "start": 1221.12,
            "duration": 5.24
        },
        {
            "text": "the option now let's go neim show me",
            "start": 1223.12,
            "duration": 6.6
        },
        {
            "text": "what you got let's go",
            "start": 1226.36,
            "duration": 5.08
        },
        {
            "text": "BR one thing that you got to appreciate",
            "start": 1229.72,
            "duration": 4.28
        },
        {
            "text": "about neovim is that its ability to uh",
            "start": 1231.44,
            "duration": 4.4
        },
        {
            "text": "highlight and highlight well with tree",
            "start": 1234.0,
            "duration": 4.32
        },
        {
            "text": "sitter uh if you ever wish to dip down",
            "start": 1235.84,
            "duration": 5.36
        },
        {
            "text": "in and use a little bit of Lua honestly",
            "start": 1238.32,
            "duration": 5.68
        },
        {
            "text": "the apis they're pretty dang good TJ",
            "start": 1241.2,
            "duration": 5.04
        },
        {
            "text": "thanks there's very few that I have any",
            "start": 1244.0,
            "duration": 5.44
        },
        {
            "text": "sort of problem with the rest fantastic",
            "start": 1246.24,
            "duration": 4.72
        },
        {
            "text": "you just don't like the ones with lines",
            "start": 1249.44,
            "duration": 3.68
        },
        {
            "text": "cuz it is confusing I won't lie to you",
            "start": 1250.96,
            "duration": 4.28
        },
        {
            "text": "one base versus zero base vers Lua vers",
            "start": 1253.12,
            "duration": 4.559
        },
        {
            "text": "Vim it's those are they're tough but",
            "start": 1255.24,
            "duration": 4.84
        },
        {
            "text": "that's okay otherwise I think they're",
            "start": 1257.679,
            "duration": 5.201
        },
        {
            "text": "good they're tough sometimes buffer",
            "start": 1260.08,
            "duration": 4.52
        },
        {
            "text": "sometimes buffer sometimes buff you know",
            "start": 1262.88,
            "duration": 2.96
        },
        {
            "text": "there's there's a couple that have some",
            "start": 1264.6,
            "duration": 3.28
        },
        {
            "text": "historical difficulties that have",
            "start": 1265.84,
            "duration": 4.68
        },
        {
            "text": "experienced there are no keys that are",
            "start": 1267.88,
            "duration": 6.48
        },
        {
            "text": "not buff all the keys are buff but there",
            "start": 1270.52,
            "duration": 6.519
        },
        {
            "text": "arey that's buffer or maybe they're all",
            "start": 1274.36,
            "duration": 4.16
        },
        {
            "text": "buffer maybe that's what I mean to say I",
            "start": 1277.039,
            "duration": 2.64
        },
        {
            "text": "think you're right they're all buffer",
            "start": 1278.52,
            "duration": 4.84
        },
        {
            "text": "not buff okay okay okay I will I will I",
            "start": 1279.679,
            "duration": 7.281
        },
        {
            "text": "will believe you TJ yeah make sure it",
            "start": 1283.36,
            "duration": 5.559
        },
        {
            "text": "happens to Neo when was the last time",
            "start": 1286.96,
            "duration": 5.079
        },
        {
            "text": "you core contributed to neovim TJ um I",
            "start": 1288.919,
            "duration": 7.601
        },
        {
            "text": "wrote the Vim 9 script to Lua compiler",
            "start": 1292.039,
            "duration": 5.88
        },
        {
            "text": "that was I like how you tried to dodge",
            "start": 1296.52,
            "duration": 2.8
        },
        {
            "text": "my question by saying something that",
            "start": 1297.919,
            "duration": 2.721
        },
        {
            "text": "sounds super impressive but not",
            "start": 1299.32,
            "duration": 2.719
        },
        {
            "text": "answering my question when was the last",
            "start": 1300.64,
            "duration": 2.88
        },
        {
            "text": "time that's what I saying that was it",
            "start": 1302.039,
            "duration": 5.561
        },
        {
            "text": "was last year like in 2023 and then if",
            "start": 1303.52,
            "duration": 6.0
        },
        {
            "text": "we merged several files in that were a",
            "start": 1307.6,
            "duration": 3.48
        },
        {
            "text": "result of the transpiler I don't",
            "start": 1309.52,
            "duration": 3.0
        },
        {
            "text": "remember the month though probably",
            "start": 1311.08,
            "duration": 3.719
        },
        {
            "text": "January or something like that probably",
            "start": 1312.52,
            "duration": 3.72
        },
        {
            "text": "it was pretty early in the year that's",
            "start": 1314.799,
            "duration": 2.48
        },
        {
            "text": "true it was really early I just",
            "start": 1316.24,
            "duration": 3.28
        },
        {
            "text": "remembered being early hey that's pretty",
            "start": 1317.279,
            "duration": 3.241
        },
        {
            "text": "cool though that's pretty cool hey",
            "start": 1319.52,
            "duration": 3.0
        },
        {
            "text": "when's the last time you contributed to",
            "start": 1320.52,
            "duration": 3.519
        },
        {
            "text": "neovim",
            "start": 1322.52,
            "duration": 5.12
        },
        {
            "text": "core I haven't see you flip it was nice",
            "start": 1324.039,
            "duration": 7.161
        },
        {
            "text": "KN flip zoom out flip Zoom way out flip",
            "start": 1327.64,
            "duration": 7.159
        },
        {
            "text": "this is a marker cut this",
            "start": 1331.2,
            "duration": 3.599
        },
        {
            "text": "part oh my goodness anyways no one",
            "start": 1335.039,
            "duration": 4.281
        },
        {
            "text": "really likes DJ anyways so I mean I",
            "start": 1337.559,
            "duration": 3.281
        },
        {
            "text": "think we could all agree to that one",
            "start": 1339.32,
            "duration": 3.959
        },
        {
            "text": "right everybody the name is I wrote",
            "start": 1340.84,
            "duration": 3.88
        },
        {
            "text": "falor",
            "start": 1343.279,
            "duration": 4.081
        },
        {
            "text": "again okay you can't use the word again",
            "start": 1344.72,
            "duration": 4.079
        },
        {
            "text": "cuz that somehow implies that I've",
            "start": 1347.36,
            "duration": 2.919
        },
        {
            "text": "actually done",
            "start": 1348.799,
            "duration": 4.401
        },
        {
            "text": "it and that's",
            "start": 1350.279,
            "duration": 5.481
        },
        {
            "text": "offensive oh man okay so hey final",
            "start": 1353.2,
            "duration": 6.16
        },
        {
            "text": "thoughts a final thoughts on on on Vim",
            "start": 1355.76,
            "duration": 6.279
        },
        {
            "text": "The dhh Arc and really all the things",
            "start": 1359.36,
            "duration": 4.24
        },
        {
            "text": "we've read Because what has dhh done in",
            "start": 1362.039,
            "duration": 4.201
        },
        {
            "text": "the last few months uh let's see from",
            "start": 1363.6,
            "duration": 6.04
        },
        {
            "text": "Cloud to his own self-hosting with hay",
            "start": 1366.24,
            "duration": 8.88
        },
        {
            "text": "yep dropping build with JavaScript yep",
            "start": 1369.64,
            "duration": 7.88
        },
        {
            "text": "uh dropping types and just literally raw",
            "start": 1375.12,
            "duration": 3.36
        },
        {
            "text": "dog and",
            "start": 1377.52,
            "duration": 2.519
        },
        {
            "text": "JavaScript I wonder if there's some js",
            "start": 1378.48,
            "duration": 3.28
        },
        {
            "text": "doc floating around in there or not uh",
            "start": 1380.039,
            "duration": 3.201
        },
        {
            "text": "because that's you know quite useful and",
            "start": 1381.76,
            "duration": 4.799
        },
        {
            "text": "then lastly now apparently upgrading",
            "start": 1383.24,
            "duration": 6.0
        },
        {
            "text": "from textmates to neovim well they also",
            "start": 1386.559,
            "duration": 4.72
        },
        {
            "text": "did uh they released their first like",
            "start": 1389.24,
            "duration": 4.4
        },
        {
            "text": "chat application thingy for their like",
            "start": 1391.279,
            "duration": 4.201
        },
        {
            "text": "once.com you know what I'm talking about",
            "start": 1393.64,
            "duration": 3.08
        },
        {
            "text": "where you just download it and then you",
            "start": 1395.48,
            "duration": 2.439
        },
        {
            "text": "run it which I thought was kind of cool",
            "start": 1396.72,
            "duration": 3.28
        },
        {
            "text": "as well I thought it was really neat",
            "start": 1397.919,
            "duration": 4.36
        },
        {
            "text": "that it was uh it was",
            "start": 1400.0,
            "duration": 5.32
        },
        {
            "text": "done at an exceptionally cheaper cost",
            "start": 1402.279,
            "duration": 4.961
        },
        {
            "text": "than slack and you get to own the data I",
            "start": 1405.32,
            "duration": 3.239
        },
        {
            "text": "think there's a huge",
            "start": 1407.24,
            "duration": 3.48
        },
        {
            "text": "I I think there is like an an I think",
            "start": 1408.559,
            "duration": 3.12
        },
        {
            "text": "he's",
            "start": 1410.72,
            "duration": 3.559
        },
        {
            "text": "leading this idea whether we realize it",
            "start": 1411.679,
            "duration": 4.0
        },
        {
            "text": "or not where people are tired of",
            "start": 1414.279,
            "duration": 3.081
        },
        {
            "text": "subscription services and services",
            "start": 1415.679,
            "duration": 3.88
        },
        {
            "text": "owning your data and the ability as a",
            "start": 1417.36,
            "duration": 4.04
        },
        {
            "text": "company to have your own",
            "start": 1419.559,
            "duration": 4.921
        },
        {
            "text": "data yes for chat I think it's a little",
            "start": 1421.4,
            "duration": 4.68
        },
        {
            "text": "complicated because apparently there's a",
            "start": 1424.48,
            "duration": 3.88
        },
        {
            "text": "million regulations about it but like I",
            "start": 1426.08,
            "duration": 4.839
        },
        {
            "text": "do still like this sort of concept or at",
            "start": 1428.36,
            "duration": 4.28
        },
        {
            "text": "least just the option I mean it would be",
            "start": 1430.919,
            "duration": 4.321
        },
        {
            "text": "cool to like run your own chat for like",
            "start": 1432.64,
            "duration": 4.32
        },
        {
            "text": "your friends or something even you know",
            "start": 1435.24,
            "duration": 4.28
        },
        {
            "text": "what I mean like it's not like on and",
            "start": 1436.96,
            "duration": 4.4
        },
        {
            "text": "like what iford goes down and you like",
            "start": 1439.52,
            "duration": 4.6
        },
        {
            "text": "lose all of your chats forever yeah like",
            "start": 1441.36,
            "duration": 4.12
        },
        {
            "text": "you don't own your chats when they're in",
            "start": 1444.12,
            "duration": 2.96
        },
        {
            "text": "Discord it'd be kind of cool to to be",
            "start": 1445.48,
            "duration": 3.48
        },
        {
            "text": "able to do so I don't know and then now",
            "start": 1447.08,
            "duration": 4.04
        },
        {
            "text": "and now the neovim thing I'm excit I'm I",
            "start": 1448.96,
            "duration": 3.959
        },
        {
            "text": "mean I'm hopeful that he doesn't hate it",
            "start": 1451.12,
            "duration": 3.24
        },
        {
            "text": "you know because then he's gonna write a",
            "start": 1452.919,
            "duration": 4.12
        },
        {
            "text": "really bad article so dhh like I said",
            "start": 1454.36,
            "duration": 4.64
        },
        {
            "text": "reach out we wna we want to help you and",
            "start": 1457.039,
            "duration": 3.441
        },
        {
            "text": "make sure it's good so you write a nice",
            "start": 1459.0,
            "duration": 3.6
        },
        {
            "text": "article about it next time it wouldn't",
            "start": 1460.48,
            "duration": 3.92
        },
        {
            "text": "be a bad article it'd be beautifully",
            "start": 1462.6,
            "duration": 4.12
        },
        {
            "text": "written dunking on neovim no that's what",
            "start": 1464.4,
            "duration": 5.399
        },
        {
            "text": "that's what I'm worried about",
            "start": 1466.72,
            "duration": 3.079
        },
        {
            "text": "we will read it either way on stre worri",
            "start": 1470.0,
            "duration": 5.559
        },
        {
            "text": "I'm worried I'll agree by the end you",
            "start": 1473.6,
            "duration": 3.88
        },
        {
            "text": "know like what if what if what if he",
            "start": 1475.559,
            "duration": 3.561
        },
        {
            "text": "changes my mind again and now I hate",
            "start": 1477.48,
            "duration": 4.12
        },
        {
            "text": "neovim what if you're using textmate by",
            "start": 1479.12,
            "duration": 5.08
        },
        {
            "text": "the end of his",
            "start": 1481.6,
            "duration": 2.6
        },
        {
            "text": "Arc I've actually I've actually started",
            "start": 1484.24,
            "duration": 5.679
        },
        {
            "text": "I've used textmate and I was wrong LSP",
            "start": 1486.799,
            "duration": 6.681
        },
        {
            "text": "useless types useless typing",
            "start": 1489.919,
            "duration": 6.88
        },
        {
            "text": "useful boom can't argue with that one",
            "start": 1493.48,
            "duration": 6.28
        },
        {
            "text": "the name",
            "start": 1496.799,
            "duration": 2.961
        },
        {
            "text": "I'm fulltime streaming on Twitch now on",
            "start": 1500.799,
            "duration": 5.721
        },
        {
            "text": "twitch.tv teore DV because I quit my job",
            "start": 1503.6,
            "duration": 4.439
        },
        {
            "text": "to trying this and hopefully Prime will",
            "start": 1506.52,
            "duration": 2.879
        },
        {
            "text": "do it too",
            "start": 1508.039,
            "duration": 5.081
        },
        {
            "text": "bye accurate",
            "start": 1509.399,
            "duration": 3.721
        }
    ],
    "stats": {
        "viewCount": "113343",
        "likeCount": "2917",
        "favoriteCount": "0",
        "commentCount": "211"
    }
}