{
    "id": "SKG7PKYyRsw",
    "title": "The Worst Tech Interview Ever | Prime Reacts",
    "publishedAt": "2023-09-22T16:00:22Z",
    "captions": [
        {
            "text": "you ready for this bad boy my worst Tech",
            "start": 0.0,
            "duration": 6.12
        },
        {
            "text": "interview experience okay this is fresh",
            "start": 3.179,
            "duration": 5.041
        },
        {
            "text": "off the presses okay this guy had three",
            "start": 6.12,
            "duration": 5.16
        },
        {
            "text": "aces in his hand levitating and somehow",
            "start": 8.22,
            "duration": 4.379
        },
        {
            "text": "screwed it all up let's find out what",
            "start": 11.28,
            "duration": 2.46
        },
        {
            "text": "happened here",
            "start": 12.599,
            "duration": 3.421
        },
        {
            "text": "uh my worst Tech interview was with me",
            "start": 13.74,
            "duration": 5.299
        },
        {
            "text": "as the interviewer",
            "start": 16.02,
            "duration": 3.019
        },
        {
            "text": "okay I didn't see this one coming HR",
            "start": 19.08,
            "duration": 4.02
        },
        {
            "text": "told me the applicant was a co-worker's",
            "start": 21.119,
            "duration": 4.141
        },
        {
            "text": "friend with 10 years of experience so I",
            "start": 23.1,
            "duration": 3.66
        },
        {
            "text": "better be prepared to ask some tough",
            "start": 25.26,
            "duration": 3.74
        },
        {
            "text": "questions",
            "start": 26.76,
            "duration": 2.24
        },
        {
            "text": "a little fun fact by the way just",
            "start": 29.099,
            "duration": 4.741
        },
        {
            "text": "because somebody has a live I cannot",
            "start": 31.679,
            "duration": 3.121
        },
        {
            "text": "tell you how many people I've",
            "start": 33.84,
            "duration": 2.52
        },
        {
            "text": "interviewed they're like 10 years",
            "start": 34.8,
            "duration": 4.32
        },
        {
            "text": "experience I'm like hey can you just uh",
            "start": 36.36,
            "duration": 4.74
        },
        {
            "text": "can you make a basic query parameter",
            "start": 39.12,
            "duration": 3.0
        },
        {
            "text": "parser",
            "start": 41.1,
            "duration": 2.459
        },
        {
            "text": "and they're just like",
            "start": 42.12,
            "duration": 3.48
        },
        {
            "text": "huh I'm like yeah yeah just like a basic",
            "start": 43.559,
            "duration": 4.081
        },
        {
            "text": "one could you could you take care of",
            "start": 45.6,
            "duration": 4.86
        },
        {
            "text": "this and they're they're just like I uh",
            "start": 47.64,
            "duration": 5.52
        },
        {
            "text": "and it goes on for like 30 minutes of",
            "start": 50.46,
            "duration": 4.02
        },
        {
            "text": "not even getting",
            "start": 53.16,
            "duration": 4.2
        },
        {
            "text": "anywhere near done it's shocking I was",
            "start": 54.48,
            "duration": 6.3
        },
        {
            "text": "shook okay shook this happens more than",
            "start": 57.36,
            "duration": 5.039
        },
        {
            "text": "once and then when you explain the",
            "start": 60.78,
            "duration": 2.579
        },
        {
            "text": "problem you're like maybe you don't",
            "start": 62.399,
            "duration": 2.461
        },
        {
            "text": "understand the universal resource",
            "start": 63.359,
            "duration": 3.541
        },
        {
            "text": "locator fair enough not everybody works",
            "start": 64.86,
            "duration": 4.079
        },
        {
            "text": "with URLs let me help you out so we",
            "start": 66.9,
            "duration": 3.539
        },
        {
            "text": "start going through it and they're just",
            "start": 68.939,
            "duration": 3.481
        },
        {
            "text": "like I I don't know how to parse a",
            "start": 70.439,
            "duration": 3.841
        },
        {
            "text": "string and we're just like what it the",
            "start": 72.42,
            "duration": 3.54
        },
        {
            "text": "hell is how have you been programming",
            "start": 74.28,
            "duration": 3.72
        },
        {
            "text": "for 10 years and you don't know how to",
            "start": 75.96,
            "duration": 5.46
        },
        {
            "text": "do split just tell me how to split uh",
            "start": 78.0,
            "duration": 5.46
        },
        {
            "text": "when I ask the applicant to walk towards",
            "start": 81.42,
            "duration": 3.9
        },
        {
            "text": "the Whiteboard he clapped twice and said",
            "start": 83.46,
            "duration": 4.68
        },
        {
            "text": "bring the white board love him I would",
            "start": 85.32,
            "duration": 4.74
        },
        {
            "text": "have just hired him right there right",
            "start": 88.14,
            "duration": 3.42
        },
        {
            "text": "there this seems like the greatest thing",
            "start": 90.06,
            "duration": 3.239
        },
        {
            "text": "ever dude if",
            "start": 91.56,
            "duration": 3.9
        },
        {
            "text": "if you're like may you please enter",
            "start": 93.299,
            "duration": 3.421
        },
        {
            "text": "towards the Whiteboard they're like",
            "start": 95.46,
            "duration": 4.26
        },
        {
            "text": "let's go dude I love this I thought he",
            "start": 96.72,
            "duration": 4.8
        },
        {
            "text": "was talking to me but a greasy looking",
            "start": 99.72,
            "duration": 4.079
        },
        {
            "text": "guy wearing a beret uh came in the",
            "start": 101.52,
            "duration": 5.04
        },
        {
            "text": "candidate introduced him as uh as his",
            "start": 103.799,
            "duration": 4.561
        },
        {
            "text": "scrum Marine",
            "start": 106.56,
            "duration": 3.059
        },
        {
            "text": "wait",
            "start": 108.36,
            "duration": 3.119
        },
        {
            "text": "I can read trust me",
            "start": 109.619,
            "duration": 4.021
        },
        {
            "text": "scrum Mainer",
            "start": 111.479,
            "duration": 5.041
        },
        {
            "text": "is that what it is Scrum Mainer",
            "start": 113.64,
            "duration": 5.82
        },
        {
            "text": "is that is that kind of like Tow Mater",
            "start": 116.52,
            "duration": 5.279
        },
        {
            "text": "what the hell is that is that like toe",
            "start": 119.46,
            "duration": 3.119
        },
        {
            "text": "Mater",
            "start": 121.799,
            "duration": 3.541
        },
        {
            "text": "specifically in Cars 2 uh who then",
            "start": 122.579,
            "duration": 4.86
        },
        {
            "text": "produced the tiniest whiteboard from a",
            "start": 125.34,
            "duration": 3.18
        },
        {
            "text": "backpack",
            "start": 127.439,
            "duration": 3.781
        },
        {
            "text": "okay hold on hold on I'm super confused",
            "start": 128.52,
            "duration": 4.92
        },
        {
            "text": "can we just walk back what the hell just",
            "start": 131.22,
            "duration": 4.68
        },
        {
            "text": "happened okay hold on hold on when I",
            "start": 133.44,
            "duration": 3.96
        },
        {
            "text": "asked the applicant to walk towards the",
            "start": 135.9,
            "duration": 3.18
        },
        {
            "text": "Whiteboard he clapped twice and said",
            "start": 137.4,
            "duration": 3.18
        },
        {
            "text": "bring the Whiteboard",
            "start": 139.08,
            "duration": 3.239
        },
        {
            "text": "I thought he was talking to me but a",
            "start": 140.58,
            "duration": 4.14
        },
        {
            "text": "greasy looking guy wearing a beret came",
            "start": 142.319,
            "duration": 4.681
        },
        {
            "text": "in the candidate introduced him as his",
            "start": 144.72,
            "duration": 4.68
        },
        {
            "text": "scrum Marine Mariner scrum Mainer",
            "start": 147.0,
            "duration": 4.92
        },
        {
            "text": "scrumaner still waiter uh who then",
            "start": 149.4,
            "duration": 4.559
        },
        {
            "text": "produced the tiniest white okay dude so",
            "start": 151.92,
            "duration": 3.899
        },
        {
            "text": "hold on this guy hold on have you seen",
            "start": 153.959,
            "duration": 3.661
        },
        {
            "text": "dodgeball",
            "start": 155.819,
            "duration": 3.181
        },
        {
            "text": "when",
            "start": 157.62,
            "duration": 3.24
        },
        {
            "text": "the main guy forget his name gets",
            "start": 159.0,
            "duration": 5.16
        },
        {
            "text": "punched and he's just like Michelle",
            "start": 160.86,
            "duration": 5.04
        },
        {
            "text": "is that what just happened here is that",
            "start": 164.16,
            "duration": 3.18
        },
        {
            "text": "what we're reading here is the is the",
            "start": 165.9,
            "duration": 2.4
        },
        {
            "text": "shell",
            "start": 167.34,
            "duration": 3.0
        },
        {
            "text": "and just came in",
            "start": 168.3,
            "duration": 4.019
        },
        {
            "text": "ripped out a little white despite having",
            "start": 170.34,
            "duration": 4.32
        },
        {
            "text": "a full whiteboard behind him",
            "start": 172.319,
            "duration": 5.401
        },
        {
            "text": "size size Matters not truth value let's",
            "start": 174.66,
            "duration": 4.74
        },
        {
            "text": "see truth value is everything the",
            "start": 177.72,
            "duration": 4.56
        },
        {
            "text": "candidate whispered what",
            "start": 179.4,
            "duration": 5.52
        },
        {
            "text": "size does not matter while holding his",
            "start": 182.28,
            "duration": 4.86
        },
        {
            "text": "tiny one size does not this can't be",
            "start": 184.92,
            "duration": 3.66
        },
        {
            "text": "real I actually believe this has to be",
            "start": 187.14,
            "duration": 3.12
        },
        {
            "text": "fake at this point at that point I",
            "start": 188.58,
            "duration": 2.76
        },
        {
            "text": "wondered if I was dealing with someone",
            "start": 190.26,
            "duration": 4.46
        },
        {
            "text": "going through a psychotic break",
            "start": 191.34,
            "duration": 3.38
        },
        {
            "text": "of the many questions that popped into",
            "start": 195.36,
            "duration": 3.48
        },
        {
            "text": "my mind most of which remained",
            "start": 197.04,
            "duration": 3.8
        },
        {
            "text": "unanswered",
            "start": 198.84,
            "duration": 6.06
        },
        {
            "text": "well I asked what's a scrum Mainer I",
            "start": 200.84,
            "duration": 5.319
        },
        {
            "text": "don't think I'm even saying this correct",
            "start": 204.9,
            "duration": 2.94
        },
        {
            "text": "okay I don't even think I'm saying this",
            "start": 206.159,
            "duration": 3.601
        },
        {
            "text": "correct the candidate went into an a",
            "start": 207.84,
            "duration": 3.539
        },
        {
            "text": "politically charged rant about the",
            "start": 209.76,
            "duration": 3.08
        },
        {
            "text": "founding fathers and the need for",
            "start": 211.379,
            "duration": 3.601
        },
        {
            "text": "post-structuralist symbols in these dark",
            "start": 212.84,
            "duration": 5.259
        },
        {
            "text": "times I to tell you the truth I don't",
            "start": 214.98,
            "duration": 4.619
        },
        {
            "text": "even know what a post-structuralist",
            "start": 218.099,
            "duration": 2.761
        },
        {
            "text": "symbol is",
            "start": 219.599,
            "duration": 3.06
        },
        {
            "text": "like I I know what all those words are",
            "start": 220.86,
            "duration": 3.72
        },
        {
            "text": "individually",
            "start": 222.659,
            "duration": 3.601
        },
        {
            "text": "but like when you put them all together",
            "start": 224.58,
            "duration": 4.5
        },
        {
            "text": "like that I genuinely have no idea what",
            "start": 226.26,
            "duration": 4.619
        },
        {
            "text": "is going on",
            "start": 229.08,
            "duration": 3.96
        },
        {
            "text": "he interpreted himself and apologized",
            "start": 230.879,
            "duration": 4.14
        },
        {
            "text": "for using the term nation state since",
            "start": 233.04,
            "duration": 4.5
        },
        {
            "text": "the British proved they weren't real in",
            "start": 235.019,
            "duration": 5.3
        },
        {
            "text": "1951",
            "start": 237.54,
            "duration": 2.779
        },
        {
            "text": "last 200 years hasn't been good for the",
            "start": 247.98,
            "duration": 3.6
        },
        {
            "text": "British okay they've just they've been",
            "start": 249.84,
            "duration": 3.599
        },
        {
            "text": "losing ground I didn't push the topic",
            "start": 251.58,
            "duration": 5.339
        },
        {
            "text": "smart play you know smart play",
            "start": 253.439,
            "duration": 5.281
        },
        {
            "text": "I figured the quickest way to end my",
            "start": 256.919,
            "duration": 3.181
        },
        {
            "text": "torment would be to continue the",
            "start": 258.72,
            "duration": 3.12
        },
        {
            "text": "interview as if nothing happened and",
            "start": 260.1,
            "duration": 4.14
        },
        {
            "text": "ignore the scrub Mainer who at that",
            "start": 261.84,
            "duration": 4.139
        },
        {
            "text": "point started to shuffle the deck of",
            "start": 264.24,
            "duration": 4.04
        },
        {
            "text": "cards",
            "start": 265.979,
            "duration": 2.301
        },
        {
            "text": "I stated the problem inverting a binary",
            "start": 269.52,
            "duration": 3.84
        },
        {
            "text": "tree",
            "start": 271.68,
            "duration": 5.34
        },
        {
            "text": "uh try you mean uh the candidate said no",
            "start": 273.36,
            "duration": 6.059
        },
        {
            "text": "I mean tree but you do know what a tree",
            "start": 277.02,
            "duration": 3.48
        },
        {
            "text": "is",
            "start": 279.419,
            "duration": 3.84
        },
        {
            "text": "the candidate uh asked knowingly yes the",
            "start": 280.5,
            "duration": 4.86
        },
        {
            "text": "scrum uh Mainer shot double finger guns",
            "start": 283.259,
            "duration": 4.741
        },
        {
            "text": "at both of us I'm not joking here this",
            "start": 285.36,
            "duration": 5.1
        },
        {
            "text": "cannot be real this cannot be real he",
            "start": 288.0,
            "duration": 4.08
        },
        {
            "text": "immediately pulled out a prayer mat and",
            "start": 290.46,
            "duration": 4.28
        },
        {
            "text": "kneeled on it",
            "start": 292.08,
            "duration": 2.66
        },
        {
            "text": "I regret not going uh more often to",
            "start": 295.08,
            "duration": 4.44
        },
        {
            "text": "church as I feared the Lord had forsaken",
            "start": 297.6,
            "duration": 4.099
        },
        {
            "text": "me",
            "start": 299.52,
            "duration": 2.179
        },
        {
            "text": "be it a tree or a tree I have the",
            "start": 302.36,
            "duration": 4.96
        },
        {
            "text": "algorithm for every data structure I can",
            "start": 305.46,
            "duration": 4.2
        },
        {
            "text": "give you uh the Big O the little Omega",
            "start": 307.32,
            "duration": 5.36
        },
        {
            "text": "and the rare W the candidate said oh wow",
            "start": 309.66,
            "duration": 5.819
        },
        {
            "text": "sketching on the Whiteboard a lot of",
            "start": 312.68,
            "duration": 4.12
        },
        {
            "text": "people think that the universe is some",
            "start": 315.479,
            "duration": 3.66
        },
        {
            "text": "sort of simulation he continued but what",
            "start": 316.8,
            "duration": 3.98
        },
        {
            "text": "if we are all",
            "start": 319.139,
            "duration": 4.56
        },
        {
            "text": "to rooted running inside a higher level",
            "start": 320.78,
            "duration": 5.139
        },
        {
            "text": "Universe with a similar structure that",
            "start": 323.699,
            "duration": 5.521
        },
        {
            "text": "we can't CD back out of maybe all the",
            "start": 325.919,
            "duration": 5.0
        },
        {
            "text": "answers lay outside of the charout",
            "start": 329.22,
            "duration": 4.94
        },
        {
            "text": "waiting for us",
            "start": 330.919,
            "duration": 3.241
        },
        {
            "text": "he handed me the white board and I was",
            "start": 334.62,
            "duration": 4.019
        },
        {
            "text": "surprised to see 20 something lines of",
            "start": 336.36,
            "duration": 4.26
        },
        {
            "text": "syntactically corrected bash code which",
            "start": 338.639,
            "duration": 4.021
        },
        {
            "text": "performed a zero day Linux to root break",
            "start": 340.62,
            "duration": 4.859
        },
        {
            "text": "ending with the line cat inverted binary",
            "start": 342.66,
            "duration": 5.94
        },
        {
            "text": "tree Schrodinger it was unfortunately it",
            "start": 345.479,
            "duration": 5.28
        },
        {
            "text": "was unfortunate that my face my face",
            "start": 348.6,
            "duration": 5.22
        },
        {
            "text": "expressed approval as as that gave the",
            "start": 350.759,
            "duration": 6.421
        },
        {
            "text": "scrub Mainer the cue to shout charoot",
            "start": 353.82,
            "duration": 5.219
        },
        {
            "text": "and so",
            "start": 357.18,
            "duration": 4.26
        },
        {
            "text": "I can't my brain actually can't",
            "start": 359.039,
            "duration": 4.561
        },
        {
            "text": "comprehend this whatever I'm reading my",
            "start": 361.44,
            "duration": 4.86
        },
        {
            "text": "brain just does not it's not it's not",
            "start": 363.6,
            "duration": 5.52
        },
        {
            "text": "working right now sure",
            "start": 366.3,
            "duration": 5.82
        },
        {
            "text": "like dude I why could this this had to",
            "start": 369.12,
            "duration": 4.799
        },
        {
            "text": "be fake this has to like not that the",
            "start": 372.12,
            "duration": 4.68
        },
        {
            "text": "article's fake they had to hire an actor",
            "start": 373.919,
            "duration": 5.041
        },
        {
            "text": "or something because how do you not",
            "start": 376.8,
            "duration": 3.6
        },
        {
            "text": "break a character",
            "start": 378.96,
            "duration": 3.299
        },
        {
            "text": "and I also believe this person doesn't",
            "start": 380.4,
            "duration": 3.96
        },
        {
            "text": "exist in reality",
            "start": 382.259,
            "duration": 4.081
        },
        {
            "text": "but he didn't stop he stood up and",
            "start": 384.36,
            "duration": 4.32
        },
        {
            "text": "continued chanting charout charout",
            "start": 386.34,
            "duration": 5.28
        },
        {
            "text": "charoot and some sort of Mystic trance",
            "start": 388.68,
            "duration": 5.1
        },
        {
            "text": "mystical trance the candidate soon",
            "start": 391.62,
            "duration": 3.359
        },
        {
            "text": "joined",
            "start": 393.78,
            "duration": 2.94
        },
        {
            "text": "I was relieved to notice that they were",
            "start": 394.979,
            "duration": 3.301
        },
        {
            "text": "dancing very slowly towards the door",
            "start": 396.72,
            "duration": 3.72
        },
        {
            "text": "halfway out a drum beat started playing",
            "start": 398.28,
            "duration": 4.62
        },
        {
            "text": "out of the backpack the scrum made her",
            "start": 400.44,
            "duration": 4.74
        },
        {
            "text": "threw a card backwards between his legs",
            "start": 402.9,
            "duration": 5.4
        },
        {
            "text": "just before disappearing it landed on my",
            "start": 405.18,
            "duration": 6.78
        },
        {
            "text": "laptop it contained a QR code invite for",
            "start": 408.3,
            "duration": 6.06
        },
        {
            "text": "a Discord server I never scanned it",
            "start": 411.96,
            "duration": 4.62
        },
        {
            "text": "thanks for reading it if you enjoyed",
            "start": 414.36,
            "duration": 4.2
        },
        {
            "text": "humorous Tech stories like these",
            "start": 416.58,
            "duration": 3.78
        },
        {
            "text": "and you want to support me by consider",
            "start": 418.56,
            "duration": 2.94
        },
        {
            "text": "buying some coffee do that I will",
            "start": 420.36,
            "duration": 2.88
        },
        {
            "text": "literally buy coffee every time I",
            "start": 421.5,
            "duration": 3.12
        },
        {
            "text": "literally you can also follow me on",
            "start": 423.24,
            "duration": 3.78
        },
        {
            "text": "medium or Twitter look at that",
            "start": 424.62,
            "duration": 4.32
        },
        {
            "text": "is this real",
            "start": 427.02,
            "duration": 4.08
        },
        {
            "text": "is this real or is this fake because I",
            "start": 428.94,
            "duration": 4.5
        },
        {
            "text": "don't necessarily I I mean the thing is",
            "start": 431.1,
            "duration": 4.02
        },
        {
            "text": "is I could actually see this happening",
            "start": 433.44,
            "duration": 4.199
        },
        {
            "text": "this has to be a fever dream DM the guy",
            "start": 435.12,
            "duration": 4.859
        },
        {
            "text": "and invite him on stream I demand I",
            "start": 437.639,
            "duration": 4.141
        },
        {
            "text": "demand you tell me right now if this is",
            "start": 439.979,
            "duration": 4.021
        },
        {
            "text": "real follows me I want to follow him",
            "start": 441.78,
            "duration": 4.46
        },
        {
            "text": "back",
            "start": 444.0,
            "duration": 2.24
        },
        {
            "text": "you must explain yourself is this real",
            "start": 446.88,
            "duration": 9.3
        },
        {
            "text": "charoot charoot charoot to root true",
            "start": 452.22,
            "duration": 6.96
        },
        {
            "text": "root",
            "start": 456.18,
            "duration": 3.0
        }
    ],
    "stats": {
        "viewCount": "59621",
        "likeCount": "1986",
        "favoriteCount": "0",
        "commentCount": "203"
    }
}