{
    "id": "SPaeA8shXFg",
    "title": "ExFAANG Engineer Watches ExFAANG Take JavaScript Quiz | Prime Reacts",
    "publishedAt": "2024-04-03T11:12:08Z",
    "captions": [
        {
            "text": "I recently took a JavaScript quiz and I",
            "start": 0.12,
            "duration": 5.04
        },
        {
            "text": "myself did not get them right so let's",
            "start": 3.0,
            "duration": 4.68
        },
        {
            "text": "see this new quiz here by an xfang",
            "start": 5.16,
            "duration": 4.28
        },
        {
            "text": "developer I am currently a Fang",
            "start": 7.68,
            "duration": 3.64
        },
        {
            "text": "developer at this moment few of you sent",
            "start": 9.44,
            "duration": 4.0
        },
        {
            "text": "me this JavaScript quiz and said it's",
            "start": 11.32,
            "duration": 3.72
        },
        {
            "text": "absolutely impossible to get all the",
            "start": 13.44,
            "duration": 3.88
        },
        {
            "text": "questions right so let's try it out see",
            "start": 15.04,
            "duration": 3.84
        },
        {
            "text": "what I already know the answer to this",
            "start": 17.32,
            "duration": 3.92
        },
        {
            "text": "one man this is the Classic octal this",
            "start": 18.88,
            "duration": 4.719
        },
        {
            "text": "is the classic octal bamboozle going on",
            "start": 21.24,
            "duration": 4.76
        },
        {
            "text": "right here okay so I don't I think this",
            "start": 23.599,
            "duration": 7.76
        },
        {
            "text": "is 18 minus 15 in octal which is 13 this",
            "start": 26.0,
            "duration": 8.0
        },
        {
            "text": "is five is my guess we can get correct",
            "start": 31.359,
            "duration": 4.36
        },
        {
            "text": "and if we can learn something new along",
            "start": 34.0,
            "duration": 4.48
        },
        {
            "text": "the way as well so the first question do",
            "start": 35.719,
            "duration": 4.401
        },
        {
            "text": "you know what will be the output of this",
            "start": 38.48,
            "duration": 5.32
        },
        {
            "text": "code console log 018 minus",
            "start": 40.12,
            "duration": 6.4
        },
        {
            "text": "015 okay so I believe if you start with",
            "start": 43.8,
            "duration": 6.079
        },
        {
            "text": "a zero the number becomes base eight",
            "start": 46.52,
            "duration": 5.16
        },
        {
            "text": "what is that I guess octal is probably",
            "start": 49.879,
            "duration": 4.121
        },
        {
            "text": "what that's called go",
            "start": 51.68,
            "duration": 6.559
        },
        {
            "text": "number 18 but the digits that are valid",
            "start": 54.0,
            "duration": 6.879
        },
        {
            "text": "in octal I think are just",
            "start": 58.239,
            "duration": 6.56
        },
        {
            "text": "right in the same like 10 is 09 the",
            "start": 60.879,
            "duration": 6.6
        },
        {
            "text": "valid digit is the B knew so I don't",
            "start": 64.799,
            "duration": 4.481
        },
        {
            "text": "know what it's going to do if it's I",
            "start": 67.479,
            "duration": 5.081
        },
        {
            "text": "just knew this was but why octal but why",
            "start": 69.28,
            "duration": 8.28
        },
        {
            "text": "male models this is a JavaScript",
            "start": 72.56,
            "duration": 5.0
        },
        {
            "text": "[Laughter]",
            "start": 79.05,
            "duration": 5.91
        },
        {
            "text": "challenge pre-experience it's not a",
            "start": 81.759,
            "duration": 5.121
        },
        {
            "text": "valid number by the way this is this",
            "start": 84.96,
            "duration": 3.28
        },
        {
            "text": "would exist in like any language that",
            "start": 86.88,
            "duration": 3.64
        },
        {
            "text": "allows you to do this I don't think this",
            "start": 88.24,
            "duration": 4.76
        },
        {
            "text": "is specifically a JavaScript problem I",
            "start": 90.52,
            "duration": 4.32
        },
        {
            "text": "would assume it's either na in or it",
            "start": 93.0,
            "duration": 3.52
        },
        {
            "text": "just converts it back to decimal and it",
            "start": 94.84,
            "duration": 4.44
        },
        {
            "text": "just becomes 18 so this is either an or",
            "start": 96.52,
            "duration": 5.84
        },
        {
            "text": "18 then we have minus 015 so this is",
            "start": 99.28,
            "duration": 5.439
        },
        {
            "text": "going to be an actual valid octal number",
            "start": 102.36,
            "duration": 4.68
        },
        {
            "text": "so we have five eight",
            "start": 104.719,
            "duration": 6.161
        },
        {
            "text": "essentially job one in the e place and",
            "start": 107.04,
            "duration": 7.2
        },
        {
            "text": "in the one place so 8 + 5 is 13 so this",
            "start": 110.88,
            "duration": 7.04
        },
        {
            "text": "is 13 this is either 18 or na my guess",
            "start": 114.24,
            "duration": 6.6
        },
        {
            "text": "would be it's probably 18 because n is",
            "start": 117.92,
            "duration": 4.479
        },
        {
            "text": "sort of a last resort and there's",
            "start": 120.84,
            "duration": 3.48
        },
        {
            "text": "something else that sort of makes sense",
            "start": 122.399,
            "duration": 3.36
        },
        {
            "text": "here so I would assume JavaScript makes",
            "start": 124.32,
            "duration": 3.28
        },
        {
            "text": "this eight by the way calling it n",
            "start": 125.759,
            "duration": 3.081
        },
        {
            "text": "that's a little weird okay we just call",
            "start": 127.6,
            "duration": 4.8
        },
        {
            "text": "it Nan okay not a number Nan okay either",
            "start": 128.84,
            "duration": 6.24
        },
        {
            "text": "call it that or trip iple",
            "start": 132.4,
            "duration": 7.44
        },
        {
            "text": "e754 okay 18 1",
            "start": 135.08,
            "duration": 4.76
        },
        {
            "text": "1985 so let's go with 18 minus 13 which",
            "start": 139.92,
            "duration": 6.44
        },
        {
            "text": "would be five cool let's go I'm a genius",
            "start": 142.72,
            "duration": 6.08
        },
        {
            "text": "we look at this yep blah blah blah blah",
            "start": 146.36,
            "duration": 4.48
        },
        {
            "text": "leading zero is octal number we were",
            "start": 148.8,
            "duration": 5.519
        },
        {
            "text": "correct about that and let's",
            "start": 150.84,
            "duration": 5.84
        },
        {
            "text": "see number can't actually be an octal",
            "start": 154.319,
            "duration": 4.081
        },
        {
            "text": "number quick question I'm actually now",
            "start": 156.68,
            "duration": 3.32
        },
        {
            "text": "I'm actually now I'm actually curious",
            "start": 158.4,
            "duration": 3.32
        },
        {
            "text": "can you do",
            "start": 160.0,
            "duration": 3.72
        },
        {
            "text": "08 or does",
            "start": 161.72,
            "duration": 5.0
        },
        {
            "text": "that that's right that's right but you",
            "start": 163.72,
            "duration": 5.4
        },
        {
            "text": "can do 07 so Z will actually cause a",
            "start": 166.72,
            "duration": 4.159
        },
        {
            "text": "syntax error because this is a nonv",
            "start": 169.12,
            "duration": 5.119
        },
        {
            "text": "valid octal okay awesome kids always use",
            "start": 170.879,
            "duration": 6.841
        },
        {
            "text": "Z when doing octal never forget about",
            "start": 174.239,
            "duration": 5.881
        },
        {
            "text": "that so it does this and it just treats",
            "start": 177.72,
            "duration": 4.0
        },
        {
            "text": "it as 18 and",
            "start": 180.12,
            "duration": 6.72
        },
        {
            "text": "then so 18us 13 is 5 awesome okay next",
            "start": 181.72,
            "duration": 6.2
        },
        {
            "text": "type",
            "start": 186.84,
            "duration": 5.08
        },
        {
            "text": "of string type of one okay so I think",
            "start": 187.92,
            "duration": 5.48
        },
        {
            "text": "we're going to essentially go right to",
            "start": 191.92,
            "duration": 3.28
        },
        {
            "text": "left here and we have type of one which",
            "start": 193.4,
            "duration": 4.479
        },
        {
            "text": "is going to be number but like as a",
            "start": 195.2,
            "duration": 5.319
        },
        {
            "text": "string and then we have type of the",
            "start": 197.879,
            "duration": 5.521
        },
        {
            "text": "string number which is going to be a",
            "start": 200.519,
            "duration": 4.601
        },
        {
            "text": "string so it's going to return the",
            "start": 203.4,
            "duration": 5.36
        },
        {
            "text": "string of string I hope it's true I hope",
            "start": 205.12,
            "duration": 5.479
        },
        {
            "text": "like we're all wrong and it's true and I",
            "start": 208.76,
            "duration": 4.839
        },
        {
            "text": "hate my life so I guess they want string",
            "start": 210.599,
            "duration": 6.521
        },
        {
            "text": "here I that looks to be correct too so I",
            "start": 213.599,
            "duration": 5.84
        },
        {
            "text": "knew it yeah the string of string and",
            "start": 217.12,
            "duration": 4.319
        },
        {
            "text": "it's right to left type of one is going",
            "start": 219.439,
            "duration": 4.201
        },
        {
            "text": "to be string of number type of number is",
            "start": 221.439,
            "duration": 4.16
        },
        {
            "text": "string yeah yeah yeah yeah yeah okay",
            "start": 223.64,
            "duration": 4.56
        },
        {
            "text": "okay next",
            "start": 225.599,
            "duration": 2.601
        },
        {
            "text": "up 2 338 numbers 33 28 sort the numbers",
            "start": 228.4,
            "duration": 6.6
        },
        {
            "text": "return numbers at one which is the",
            "start": 233.4,
            "duration": 3.559
        },
        {
            "text": "middle number so the middle of these",
            "start": 235.0,
            "duration": 5.439
        },
        {
            "text": "sorted as eight although",
            "start": 236.959,
            "duration": 5.64
        },
        {
            "text": "s although this is a JavaScript",
            "start": 240.439,
            "duration": 3.961
        },
        {
            "text": "challenge so you better put your stupid",
            "start": 242.599,
            "duration": 3.56
        },
        {
            "text": "cap on and think what's the worst way",
            "start": 244.4,
            "duration": 4.119
        },
        {
            "text": "this could be sorted bada bing bada",
            "start": 246.159,
            "duration": 4.881
        },
        {
            "text": "numbers using the default sort or when",
            "start": 248.519,
            "duration": 4.321
        },
        {
            "text": "you sort anything with default sort it's",
            "start": 251.04,
            "duration": 4.199
        },
        {
            "text": "going to I think convert it to a string",
            "start": 252.84,
            "duration": 5.359
        },
        {
            "text": "first so we're actually sorting strings",
            "start": 255.239,
            "duration": 6.041
        },
        {
            "text": "and the string of 33 is less than the",
            "start": 258.199,
            "duration": 5.321
        },
        {
            "text": "string of eight so I think 33 is",
            "start": 261.28,
            "duration": 4.68
        },
        {
            "text": "actually the middle most number here and",
            "start": 263.52,
            "duration": 5.32
        },
        {
            "text": "it is I do love that chat right now is",
            "start": 265.96,
            "duration": 6.28
        },
        {
            "text": "an absolute sh exles where was this one",
            "start": 268.84,
            "duration": 6.48
        },
        {
            "text": "this one is so good why theck is it why",
            "start": 272.24,
            "duration": 5.56
        },
        {
            "text": "the [\u00a0__\u00a0] is it in eight well you",
            "start": 275.32,
            "duration": 4.96
        },
        {
            "text": "know Marcus by the way could see but",
            "start": 277.8,
            "duration": 4.32
        },
        {
            "text": "fantastic absolutely one of the best see",
            "start": 280.28,
            "duration": 2.88
        },
        {
            "text": "the",
            "start": 282.12,
            "duration": 4.799
        },
        {
            "text": "explanation so this is a valid array sh",
            "start": 283.16,
            "duration": 6.44
        },
        {
            "text": "aray sort needs to make a decision on",
            "start": 286.919,
            "duration": 5.12
        },
        {
            "text": "how to handle the scenarios and it",
            "start": 289.6,
            "duration": 4.84
        },
        {
            "text": "decides to convert all values to Strings",
            "start": 292.039,
            "duration": 4.081
        },
        {
            "text": "okay so we were correct about this we",
            "start": 294.44,
            "duration": 4.08
        },
        {
            "text": "have this beautiful array string and we",
            "start": 296.12,
            "duration": 5.88
        },
        {
            "text": "end up with two 33 create as strings",
            "start": 298.52,
            "duration": 8.32
        },
        {
            "text": "okay next up false is Loosely equal to",
            "start": 302.0,
            "duration": 7.52
        },
        {
            "text": "the string",
            "start": 306.84,
            "duration": 2.68
        },
        {
            "text": "of",
            "start": 309.72,
            "duration": 6.88
        },
        {
            "text": "okay so if it if if false gets converted",
            "start": 312.199,
            "duration": 5.481
        },
        {
            "text": "to a",
            "start": 316.6,
            "duration": 3.48
        },
        {
            "text": "number that would get converted to a",
            "start": 317.68,
            "duration": 5.12
        },
        {
            "text": "string to be equal but if false just",
            "start": 320.08,
            "duration": 4.48
        },
        {
            "text": "gets converted to a string then it would",
            "start": 322.8,
            "duration": 5.2
        },
        {
            "text": "be not equal my guess is that false is",
            "start": 324.56,
            "duration": 6.72
        },
        {
            "text": "converted to a string and skips the",
            "start": 328.0,
            "duration": 6.16
        },
        {
            "text": "numeric type conversion",
            "start": 331.28,
            "duration": 6.479
        },
        {
            "text": "first that's how I would assume it",
            "start": 334.16,
            "duration": 7.24
        },
        {
            "text": "does how it does it right because string",
            "start": 337.759,
            "duration": 8.121
        },
        {
            "text": "zero string is true in in all aspects of",
            "start": 341.4,
            "duration": 8.2
        },
        {
            "text": "it now if false was first converted to a",
            "start": 345.88,
            "duration": 5.64
        },
        {
            "text": "number which would be zero then",
            "start": 349.6,
            "duration": 4.2
        },
        {
            "text": "converted to a string this would be the",
            "start": 351.52,
            "duration": 5.84
        },
        {
            "text": "stupidest thing of all time if it's true",
            "start": 353.8,
            "duration": 4.839
        },
        {
            "text": "I'm going to commit",
            "start": 357.36,
            "duration": 6.119
        },
        {
            "text": "soku zero okay so I believe what going",
            "start": 358.639,
            "duration": 6.641
        },
        {
            "text": "to do here is coarse both of these",
            "start": 363.479,
            "duration": 4.521
        },
        {
            "text": "values into numbers so false as a number",
            "start": 365.28,
            "duration": 5.639
        },
        {
            "text": "is zero and zero so it doesn't actually",
            "start": 368.0,
            "duration": 5.08
        },
        {
            "text": "ever coers things into numbers it it",
            "start": 370.919,
            "duration": 4.441
        },
        {
            "text": "coerces them up the type chain so it' Be",
            "start": 373.08,
            "duration": 4.76
        },
        {
            "text": "Strings as a number is also zero which",
            "start": 375.36,
            "duration": 3.88
        },
        {
            "text": "would give us zero but if this doesn't",
            "start": 377.84,
            "duration": 4.12
        },
        {
            "text": "happen I'm confused true if I'm wrong oh",
            "start": 379.24,
            "duration": 4.359
        },
        {
            "text": "my goodness first off I'm wrong on it if",
            "start": 381.96,
            "duration": 5.44
        },
        {
            "text": "it I cannot okay maybe May",
            "start": 383.599,
            "duration": 7.04
        },
        {
            "text": "okay what okay",
            "start": 387.4,
            "duration": 5.32
        },
        {
            "text": "got me time to commit some sedus we're",
            "start": 390.639,
            "duration": 5.0
        },
        {
            "text": "gonna do it it's soku time that is",
            "start": 392.72,
            "duration": 5.759
        },
        {
            "text": "correct so let's see false equals zero",
            "start": 395.639,
            "duration": 5.601
        },
        {
            "text": "and it does take it to a number oh my",
            "start": 398.479,
            "duration": 5.12
        },
        {
            "text": "goodness it takes it to a",
            "start": 401.24,
            "duration": 4.84
        },
        {
            "text": "number no but it also doesn't convert",
            "start": 403.599,
            "duration": 4.081
        },
        {
            "text": "this to a number it converts it converts",
            "start": 406.08,
            "duration": 3.399
        },
        {
            "text": "zero to a",
            "start": 407.68,
            "duration": 5.28
        },
        {
            "text": "string into a number so zero is zero",
            "start": 409.479,
            "duration": 5.881
        },
        {
            "text": "then we have this converted to a number",
            "start": 412.96,
            "duration": 3.6
        },
        {
            "text": "as well I think the third step is",
            "start": 415.36,
            "duration": 3.8
        },
        {
            "text": "actually incorrect which is true I'm",
            "start": 416.56,
            "duration": 4.16
        },
        {
            "text": "quite positive string is the highest",
            "start": 419.16,
            "duration": 2.84
        },
        {
            "text": "type not",
            "start": 420.72,
            "duration": 4.159
        },
        {
            "text": "number or like the leest the loosest",
            "start": 422.0,
            "duration": 4.68
        },
        {
            "text": "type it's the type that all things can",
            "start": 424.879,
            "duration": 3.801
        },
        {
            "text": "go into is a string what about triple",
            "start": 426.68,
            "duration": 3.239
        },
        {
            "text": "equals of course Triple equals is",
            "start": 428.68,
            "duration": 2.519
        },
        {
            "text": "different because triple equals does not",
            "start": 429.919,
            "duration": 3.521
        },
        {
            "text": "do type coercion I don't know how to",
            "start": 431.199,
            "duration": 3.961
        },
        {
            "text": "test it does that make sense try gun",
            "start": 433.44,
            "duration": 3.759
        },
        {
            "text": "like I I you'd have to go read up on the",
            "start": 435.16,
            "duration": 4.2
        },
        {
            "text": "specification engine what the f is",
            "start": 437.199,
            "duration": 4.161
        },
        {
            "text": "triple equal trip in JavaScript for",
            "start": 439.36,
            "duration": 5.16
        },
        {
            "text": "those that don't know if you do this it",
            "start": 441.36,
            "duration": 5.679
        },
        {
            "text": "will convert this to a",
            "start": 444.52,
            "duration": 7.0
        },
        {
            "text": "string so if I go",
            "start": 447.039,
            "duration": 4.481
        },
        {
            "text": "okay this is why I believe that I am",
            "start": 455.52,
            "duration": 4.959
        },
        {
            "text": "correct wait what you don't because it",
            "start": 457.84,
            "duration": 4.479
        },
        {
            "text": "converts it to a string it doesn't",
            "start": 460.479,
            "duration": 3.4
        },
        {
            "text": "convert it to a number it converts it to",
            "start": 462.319,
            "duration": 3.361
        },
        {
            "text": "a",
            "start": 463.879,
            "duration": 4.201
        },
        {
            "text": "string just JS things if you don't if",
            "start": 465.68,
            "duration": 6.239
        },
        {
            "text": "you don't get it you don't get it all",
            "start": 468.08,
            "duration": 3.839
        },
        {
            "text": "right oh",
            "start": 472.56,
            "duration": 5.88
        },
        {
            "text": "no oh no I don't know if I can do this",
            "start": 475.52,
            "duration": 5.16
        },
        {
            "text": "one I'm going to go with",
            "start": 478.44,
            "duration": 4.479
        },
        {
            "text": "false I'm going to go with false because",
            "start": 480.68,
            "duration": 6.88
        },
        {
            "text": "the classic one 0.1 plus. 2 is",
            "start": 482.919,
            "duration": 9.201
        },
        {
            "text": "3 n right and but if you literally",
            "start": 487.56,
            "duration": 7.28
        },
        {
            "text": "represent three it must work so this",
            "start": 492.12,
            "duration": 3.72
        },
        {
            "text": "must be",
            "start": 494.84,
            "duration": 5.759
        },
        {
            "text": "false .1 plus 2 equal. 3 okay so this is",
            "start": 495.84,
            "duration": 6.56
        },
        {
            "text": "one of those fun questions that people",
            "start": 500.599,
            "duration": 3.481
        },
        {
            "text": "talk about a lot as like a quirk of",
            "start": 502.4,
            "duration": 3.359
        },
        {
            "text": "JavaScript like a lot of people will",
            "start": 504.08,
            "duration": 4.239
        },
        {
            "text": "point to this exact example as to why",
            "start": 505.759,
            "duration": 4.56
        },
        {
            "text": "JavaScript is such a bad language but",
            "start": 508.319,
            "duration": 3.6
        },
        {
            "text": "actually this has nothing to do with",
            "start": 510.319,
            "duration": 3.52
        },
        {
            "text": "JavaScript at all it's actually a quirk",
            "start": 511.919,
            "duration": 4.401
        },
        {
            "text": "of arithmetic and you'll see the exact",
            "start": 513.839,
            "duration": 4.161
        },
        {
            "text": "same result in a ton of different",
            "start": 516.32,
            "duration": 3.76
        },
        {
            "text": "languages but essentially the issue here",
            "start": 518.0,
            "duration": 4.56
        },
        {
            "text": "is that floating Point arithmetic is not",
            "start": 520.08,
            "duration": 5.319
        },
        {
            "text": "super precise so 0.1 plus 2 is going to",
            "start": 522.56,
            "duration": 4.719
        },
        {
            "text": "be like",
            "start": 525.399,
            "duration": 4.88
        },
        {
            "text": "300 a bunch of zeros and then like one",
            "start": 527.279,
            "duration": 5.441
        },
        {
            "text": "2 so these numbers aren't exactly the",
            "start": 530.279,
            "duration": 5.161
        },
        {
            "text": "same so this is going to be false and it",
            "start": 532.72,
            "duration": 4.92
        },
        {
            "text": "is yep that's why he's right this is",
            "start": 535.44,
            "duration": 4.519
        },
        {
            "text": "this this this is this is in many",
            "start": 537.64,
            "duration": 4.319
        },
        {
            "text": "languages I believe we reproduced it in",
            "start": 539.959,
            "duration": 5.801
        },
        {
            "text": "go before so false and we can see yep1",
            "start": 541.959,
            "duration": 7.0
        },
        {
            "text": "plus 2 is O someone is saying that um",
            "start": 545.76,
            "duration": 4.36
        },
        {
            "text": "false",
            "start": 548.959,
            "duration": 5.361
        },
        {
            "text": "equals is true",
            "start": 550.12,
            "duration": 4.2
        },
        {
            "text": "okay is there a point where sometimes",
            "start": 554.519,
            "duration": 4.161
        },
        {
            "text": "these things break at longer lines okay",
            "start": 556.76,
            "duration": 3.8
        },
        {
            "text": "so it does convert to a number now",
            "start": 558.68,
            "duration": 3.68
        },
        {
            "text": "that's not what I was expecting I was",
            "start": 560.56,
            "duration": 5.839
        },
        {
            "text": "not expecting that okay I'm",
            "start": 562.36,
            "duration": 4.039
        },
        {
            "text": "wrong okay",
            "start": 567.56,
            "duration": 4.76
        },
        {
            "text": "I was wrong this number here with a four",
            "start": 570.04,
            "duration": 4.52
        },
        {
            "text": "at the",
            "start": 572.32,
            "duration": 2.24
        },
        {
            "text": "end it is it does converted to a number",
            "start": 583.56,
            "duration": 5.48
        },
        {
            "text": "okay I was wrong I'm the wrong one wow",
            "start": 586.32,
            "duration": 4.92
        },
        {
            "text": "that's a very confusing conversion",
            "start": 589.04,
            "duration": 5.479
        },
        {
            "text": "system so they are not actually equal",
            "start": 591.24,
            "duration": 5.039
        },
        {
            "text": "and yes so it's not a JavaScript Quirk",
            "start": 594.519,
            "duration": 3.161
        },
        {
            "text": "it has to do with floating Point",
            "start": 596.279,
            "duration": 4.721
        },
        {
            "text": "arithmetic exactly so that means okay so",
            "start": 597.68,
            "duration": 5.44
        },
        {
            "text": "that means that the false is technically",
            "start": 601.0,
            "duration": 5.2
        },
        {
            "text": "a a zero underneath the hood it a false",
            "start": 603.12,
            "duration": 4.959
        },
        {
            "text": "is always a number because I don't think",
            "start": 606.2,
            "duration": 4.68
        },
        {
            "text": "a false is converted into a number in my",
            "start": 608.079,
            "duration": 6.401
        },
        {
            "text": "head it just it must be a zero therefore",
            "start": 610.88,
            "duration": 5.76
        },
        {
            "text": "the string it doesn't go to the loosest",
            "start": 614.48,
            "duration": 4.96
        },
        {
            "text": "type it goes to the strictest type maybe",
            "start": 616.64,
            "duration": 4.92
        },
        {
            "text": "we said I don't even know okay whatever",
            "start": 619.44,
            "duration": 4.24
        },
        {
            "text": "next up what would be the output of this",
            "start": 621.56,
            "duration": 5.279
        },
        {
            "text": "code array one two I know what it is do",
            "start": 623.68,
            "duration": 6.56
        },
        {
            "text": "you know what it is undefined",
            "start": 626.839,
            "duration": 7.641
        },
        {
            "text": "array at six is nine log array at five",
            "start": 630.24,
            "duration": 6.0
        },
        {
            "text": "okay so this is like out of bounds for",
            "start": 634.48,
            "duration": 3.68
        },
        {
            "text": "the array but unlike Java where you get",
            "start": 636.24,
            "duration": 4.12
        },
        {
            "text": "like an index out of bounds error in",
            "start": 638.16,
            "duration": 5.0
        },
        {
            "text": "JavaScript all we do is just extend the",
            "start": 640.36,
            "duration": 4.599
        },
        {
            "text": "array and add that value in and we get",
            "start": 643.16,
            "duration": 4.239
        },
        {
            "text": "these sort of like empty slots show it",
            "start": 644.959,
            "duration": 4.081
        },
        {
            "text": "if you like log it out in the Chrome Dev",
            "start": 647.399,
            "duration": 3.56
        },
        {
            "text": "tools so we just have a bunch of empty",
            "start": 649.04,
            "duration": 3.56
        },
        {
            "text": "slots and we're logging out one of those",
            "start": 650.959,
            "duration": 3.481
        },
        {
            "text": "empty slots which I assume just gives",
            "start": 652.6,
            "duration": 4.76
        },
        {
            "text": "you undefined so let's go with undefined",
            "start": 654.44,
            "duration": 5.32
        },
        {
            "text": "yeah so it does give you undefined I",
            "start": 657.36,
            "duration": 4.12
        },
        {
            "text": "think what's even more exciting is when",
            "start": 659.76,
            "duration": 4.12
        },
        {
            "text": "you go like this when you go uh when you",
            "start": 661.48,
            "duration": 5.88
        },
        {
            "text": "go const a equals new array",
            "start": 663.88,
            "duration": 6.32
        },
        {
            "text": "5 you actually have five empty items",
            "start": 667.36,
            "duration": 5.96
        },
        {
            "text": "which is a very special I this this is a",
            "start": 670.2,
            "duration": 6.12
        },
        {
            "text": "special special one okay you know why",
            "start": 673.32,
            "duration": 4.84
        },
        {
            "text": "it's special do you know why it's",
            "start": 676.32,
            "duration": 5.639
        },
        {
            "text": "special because if you go like this a",
            "start": 678.16,
            "duration": 6.679
        },
        {
            "text": "map we'll go like this underscore and go",
            "start": 681.959,
            "duration": 4.361
        },
        {
            "text": "like",
            "start": 684.839,
            "duration": 5.56
        },
        {
            "text": "69 it didn't it didn't work out",
            "start": 686.32,
            "duration": 7.6
        },
        {
            "text": "how great is that how great is that five",
            "start": 690.399,
            "duration": 5.161
        },
        {
            "text": "special",
            "start": 693.92,
            "duration": 5.96
        },
        {
            "text": "items a do uh length is five a z is",
            "start": 695.56,
            "duration": 7.519
        },
        {
            "text": "undefined A3 is undefined but it's a",
            "start": 699.88,
            "duration": 4.72
        },
        {
            "text": "special type of undefined called The",
            "start": 703.079,
            "duration": 4.361
        },
        {
            "text": "Empty item special it's the empty items",
            "start": 704.6,
            "duration": 4.84
        },
        {
            "text": "it only exists here and then if you do",
            "start": 707.44,
            "duration": 5.16
        },
        {
            "text": "something like this 3 equal 69 and then",
            "start": 709.44,
            "duration": 5.079
        },
        {
            "text": "you hit them with the old map look at",
            "start": 712.6,
            "duration": 4.479
        },
        {
            "text": "that now it kind of works out like this",
            "start": 714.519,
            "duration": 3.841
        },
        {
            "text": "is one of those this is one of those",
            "start": 717.079,
            "duration": 4.161
        },
        {
            "text": "special places that",
            "start": 718.36,
            "duration": 2.88
        },
        {
            "text": "has screwed me more times than anything",
            "start": 779.399,
            "duration": 7.44
        },
        {
            "text": "else equals z is going to be false and",
            "start": 782.76,
            "duration": 9.319
        },
        {
            "text": "then we have true equals not array so",
            "start": 786.839,
            "duration": 8.56
        },
        {
            "text": "first we do not array so this is going",
            "start": 792.079,
            "duration": 5.0
        },
        {
            "text": "to convert it to a bolean and then",
            "start": 795.399,
            "duration": 4.081
        },
        {
            "text": "invert it so I would assume I think an",
            "start": 797.079,
            "duration": 4.88
        },
        {
            "text": "empty array is going to be truthy I",
            "start": 799.48,
            "duration": 4.96
        },
        {
            "text": "would imagine although it's empty which",
            "start": 801.959,
            "duration": 4.081
        },
        {
            "text": "could make it falsey but I'm pretty sure",
            "start": 804.44,
            "duration": 5.92
        },
        {
            "text": "all arrays are truthy so TR true and",
            "start": 806.04,
            "duration": 6.12
        },
        {
            "text": "then it becomes false when you invert it",
            "start": 810.36,
            "duration": 5.88
        },
        {
            "text": "so now we have true I false which is I",
            "start": 812.16,
            "duration": 5.799
        },
        {
            "text": "don't know what the bang believe array",
            "start": 816.24,
            "duration": 4.56
        },
        {
            "text": "does this is false and I don't know what",
            "start": 817.959,
            "duration": 4.921
        },
        {
            "text": "bang array does this is also false so",
            "start": 820.8,
            "duration": 5.08
        },
        {
            "text": "now we have false plus false which would",
            "start": 822.88,
            "duration": 7.12
        },
        {
            "text": "be0 plus Z essentially so we have zero",
            "start": 825.88,
            "duration": 6.079
        },
        {
            "text": "damn okay let's see did we actually do",
            "start": 830.0,
            "duration": 5.079
        },
        {
            "text": "that correctly or did we just get lucky",
            "start": 831.959,
            "duration": 4.201
        },
        {
            "text": "so we",
            "start": 835.079,
            "duration": 3.721
        },
        {
            "text": "have the first parameter is a Boolean",
            "start": 836.16,
            "duration": 5.44
        },
        {
            "text": "the follow rule applies if Type X is a",
            "start": 838.8,
            "duration": 4.279
        },
        {
            "text": "Boolean return the result of the",
            "start": 841.6,
            "duration": 5.44
        },
        {
            "text": "comparison damn uh oh yeah I know why",
            "start": 843.079,
            "duration": 6.921
        },
        {
            "text": "okay okay yeah when you bang an array",
            "start": 847.04,
            "duration": 4.88
        },
        {
            "text": "because it's an object it's true",
            "start": 850.0,
            "duration": 5.0
        },
        {
            "text": "therefore it's false but if you let the",
            "start": 851.92,
            "duration": 6.2
        },
        {
            "text": "type converter convert on a Boolean",
            "start": 855.0,
            "duration": 5.36
        },
        {
            "text": "expression it becomes the emptiest",
            "start": 858.12,
            "duration": 4.159
        },
        {
            "text": "string because it does a join operation",
            "start": 860.36,
            "duration": 4.159
        },
        {
            "text": "so it does an array. join the",
            "start": 862.279,
            "duration": 4.48
        },
        {
            "text": "oldfashioned banging arrays problem two",
            "start": 864.519,
            "duration": 4.601
        },
        {
            "text": "number equals y so yeah we are",
            "start": 866.759,
            "duration": 3.961
        },
        {
            "text": "converting to numbers essential so",
            "start": 869.12,
            "duration": 4.6
        },
        {
            "text": "number true equals number array and we",
            "start": 870.72,
            "duration": 6.6
        },
        {
            "text": "end up with uh obviously I'm so stupid",
            "start": 873.72,
            "duration": 6.72
        },
        {
            "text": "Loosely equals dang it zero which is",
            "start": 877.32,
            "duration": 5.879
        },
        {
            "text": "going to be P pain and then we",
            "start": 880.44,
            "duration": 6.12
        },
        {
            "text": "have this one down here an empty array",
            "start": 883.199,
            "duration": 6.041
        },
        {
            "text": "is truthy so we convert it and negate it",
            "start": 886.56,
            "duration": 4.719
        },
        {
            "text": "and it becomes false so true equals",
            "start": 889.24,
            "duration": 4.519
        },
        {
            "text": "false so the it's so funny that empty",
            "start": 891.279,
            "duration": 6.281
        },
        {
            "text": "array is truthy sort of it depends on",
            "start": 893.759,
            "duration": 5.52
        },
        {
            "text": "how you use it you know it's not the",
            "start": 897.56,
            "duration": 3.719
        },
        {
            "text": "size of your empty array that",
            "start": 899.279,
            "duration": 5.521
        },
        {
            "text": "matters it's how you use it okay because",
            "start": 901.279,
            "duration": 7.441
        },
        {
            "text": "sometimes it is true and sometimes it's",
            "start": 904.8,
            "duration": 6.8
        },
        {
            "text": "not true you know what I mean way too",
            "start": 908.72,
            "duration": 4.799
        },
        {
            "text": "dank yeah yeah like real talk because",
            "start": 911.6,
            "duration": 3.56
        },
        {
            "text": "like like let's pretend I have an empty",
            "start": 913.519,
            "duration": 5.0
        },
        {
            "text": "array like this size that's huge right",
            "start": 915.16,
            "duration": 6.16
        },
        {
            "text": "that's like huge",
            "start": 918.519,
            "duration": 5.44
        },
        {
            "text": "so can I do that no I can't but I can do",
            "start": 921.32,
            "duration": 6.04
        },
        {
            "text": "this true right boom got him right I can",
            "start": 923.959,
            "duration": 5.641
        },
        {
            "text": "do false true so there you go",
            "start": 927.36,
            "duration": 6.0
        },
        {
            "text": "so an empty array is",
            "start": 929.6,
            "duration": 7.28
        },
        {
            "text": "falsy a very big empty array very it's",
            "start": 933.36,
            "duration": 7.159
        },
        {
            "text": "very falsy see it depends on how you use",
            "start": 936.88,
            "duration": 6.6
        },
        {
            "text": "it both false then false plus false we",
            "start": 940.519,
            "duration": 4.601
        },
        {
            "text": "convert both to numbers which are both",
            "start": 943.48,
            "duration": 5.08
        },
        {
            "text": "zero and we get zero okay that was a",
            "start": 945.12,
            "duration": 6.839
        },
        {
            "text": "difficult one next up we have one plus",
            "start": 948.56,
            "duration": 5.399
        },
        {
            "text": "the string of two plus the string of two",
            "start": 951.959,
            "duration": 4.521
        },
        {
            "text": "okay so I would imagine this is just 12",
            "start": 953.959,
            "duration": 5.44
        },
        {
            "text": "+ 2 is 122 as a string what are the",
            "start": 956.48,
            "duration": 4.2
        },
        {
            "text": "other answers we're definitely not",
            "start": 959.399,
            "duration": 3.201
        },
        {
            "text": "getting na in because we're either just",
            "start": 960.68,
            "duration": 4.159
        },
        {
            "text": "doing addition or concatenation I assume",
            "start": 962.6,
            "duration": 4.719
        },
        {
            "text": "that it's it's we're going to op we're",
            "start": 964.839,
            "duration": 4.401
        },
        {
            "text": "going to we're going to execute in this",
            "start": 967.319,
            "duration": 4.361
        },
        {
            "text": "order I want to say it's",
            "start": 969.24,
            "duration": 4.719
        },
        {
            "text": "122 because I can't think about how you",
            "start": 971.68,
            "duration": 4.959
        },
        {
            "text": "get 32 32 is the only one that wouldn't",
            "start": 973.959,
            "duration": 4.32
        },
        {
            "text": "make any sense right because then 1 plus",
            "start": 976.639,
            "duration": 3.721
        },
        {
            "text": "2 would have been three which is a",
            "start": 978.279,
            "duration": 4.401
        },
        {
            "text": "number thus then it would have been five",
            "start": 980.36,
            "duration": 4.64
        },
        {
            "text": "right so you can't make 32 if you just",
            "start": 982.68,
            "duration": 5.68
        },
        {
            "text": "apply any sort of logic I think 23 would",
            "start": 985.0,
            "duration": 5.04
        },
        {
            "text": "have been a good one right cuz then you",
            "start": 988.36,
            "duration": 3.279
        },
        {
            "text": "could have Bamboozled people by thinking",
            "start": 990.04,
            "duration": 3.2
        },
        {
            "text": "that it would have executed the",
            "start": 991.639,
            "duration": 4.601
        },
        {
            "text": "stringing due to Crazy operator",
            "start": 993.24,
            "duration": 5.079
        },
        {
            "text": "precedence but no that would make that",
            "start": 996.24,
            "duration": 3.959
        },
        {
            "text": "would also not make any sense right it",
            "start": 998.319,
            "duration": 4.041
        },
        {
            "text": "has to be 122 and I don't think there's",
            "start": 1000.199,
            "duration": 3.681
        },
        {
            "text": "a way to get in I bet it's 32 it can't",
            "start": 1002.36,
            "duration": 3.76
        },
        {
            "text": "be 32 32 I guess would be if we treated",
            "start": 1003.88,
            "duration": 4.199
        },
        {
            "text": "this as numbers so this would be three",
            "start": 1006.12,
            "duration": 5.399
        },
        {
            "text": "and then we concatenate three two but I",
            "start": 1008.079,
            "duration": 5.68
        },
        {
            "text": "I don't understand why that would be",
            "start": 1011.519,
            "duration": 4.0
        },
        {
            "text": "case I think if there's a string in it",
            "start": 1013.759,
            "duration": 3.841
        },
        {
            "text": "we just do string concatenation so this",
            "start": 1015.519,
            "duration": 4.841
        },
        {
            "text": "is going to be so you're saying it's",
            "start": 1017.6,
            "duration": 7.0
        },
        {
            "text": "y 122 yeah the has tot is defined for",
            "start": 1020.36,
            "duration": 5.679
        },
        {
            "text": "numbers and strings and the expression",
            "start": 1024.6,
            "duration": 5.52
        },
        {
            "text": "is evaluated from left to right so it's",
            "start": 1026.039,
            "duration": 5.601
        },
        {
            "text": "that' be the other possible answer five",
            "start": 1030.12,
            "duration": 2.48
        },
        {
            "text": "would have been a better answer to put",
            "start": 1031.64,
            "duration": 3.199
        },
        {
            "text": "it in the better answer to put in would",
            "start": 1032.6,
            "duration": 5.839
        },
        {
            "text": "have been 122 or five either treat it as",
            "start": 1034.839,
            "duration": 6.521
        },
        {
            "text": "all numbers or treat it as all string",
            "start": 1038.439,
            "duration": 4.321
        },
        {
            "text": "right that's that's the two options you",
            "start": 1041.36,
            "duration": 3.4
        },
        {
            "text": "have right side contains a string",
            "start": 1042.76,
            "duration": 3.88
        },
        {
            "text": "concatenation will be made which results",
            "start": 1044.76,
            "duration": 6.159
        },
        {
            "text": "in 12 and then we do 12",
            "start": 1046.64,
            "duration": 4.279
        },
        {
            "text": "does I feel like I've seen this before",
            "start": 1109.44,
            "duration": 6.0
        },
        {
            "text": "but I yeah I don't actually know these",
            "start": 1113.08,
            "duration": 3.56
        },
        {
            "text": "other two made no sense right like how",
            "start": 1115.44,
            "duration": 2.8
        },
        {
            "text": "would it insert a space between hello",
            "start": 1116.64,
            "duration": 4.36
        },
        {
            "text": "and Twitter that's crazy okay so this is",
            "start": 1118.24,
            "duration": 4.48
        },
        {
            "text": "the same thing as just what's already in",
            "start": 1121.0,
            "duration": 3.559
        },
        {
            "text": "there which would make sense it's raw",
            "start": 1122.72,
            "duration": 4.28
        },
        {
            "text": "we're raw in which is the new line",
            "start": 1124.559,
            "duration": 5.0
        },
        {
            "text": "character being used as a new line and",
            "start": 1127.0,
            "duration": 5.52
        },
        {
            "text": "then we have hello Twitter space world",
            "start": 1129.559,
            "duration": 5.36
        },
        {
            "text": "so new line converting to a space for",
            "start": 1132.52,
            "duration": 4.08
        },
        {
            "text": "some reason which maybe is the answer",
            "start": 1134.919,
            "duration": 3.721
        },
        {
            "text": "maybe it ends up sort of like HTML R too",
            "start": 1136.6,
            "duration": 3.959
        },
        {
            "text": "crazy all spaces get condensed into a",
            "start": 1138.64,
            "duration": 4.159
        },
        {
            "text": "single space no matter how much but it's",
            "start": 1140.559,
            "duration": 3.521
        },
        {
            "text": "called raw we already know that when",
            "start": 1142.799,
            "duration": 2.76
        },
        {
            "text": "you're raw dogging it it's either",
            "start": 1144.08,
            "duration": 2.92
        },
        {
            "text": "completely letting it go straight",
            "start": 1145.559,
            "duration": 3.681
        },
        {
            "text": "through and you get the new line or it's",
            "start": 1147.0,
            "duration": 4.44
        },
        {
            "text": "saying that the string will be treated",
            "start": 1149.24,
            "duration": 4.799
        },
        {
            "text": "as like literally what it is thus it",
            "start": 1151.44,
            "duration": 5.08
        },
        {
            "text": "will get escaped which space it is like",
            "start": 1154.039,
            "duration": 4.441
        },
        {
            "text": "new lines and things and then we have",
            "start": 1156.52,
            "duration": 4.68
        },
        {
            "text": "hello space Twitter unforunately raw has",
            "start": 1158.48,
            "duration": 6.28
        },
        {
            "text": "two possibly be a space here think of",
            "start": 1161.2,
            "duration": 5.08
        },
        {
            "text": "any way that string. raw would know to",
            "start": 1164.76,
            "duration": 4.56
        },
        {
            "text": "do that so I think this is wrong so it's",
            "start": 1166.28,
            "duration": 5.279
        },
        {
            "text": "one of these three this one feels too",
            "start": 1169.32,
            "duration": 5.12
        },
        {
            "text": "easy like hello Twitter new line world",
            "start": 1171.559,
            "duration": 4.401
        },
        {
            "text": "is like what you would expect and I know",
            "start": 1174.44,
            "duration": 3.32
        },
        {
            "text": "this quiz is supposed to be hard so I",
            "start": 1175.96,
            "duration": 3.44
        },
        {
            "text": "feel like it's either this one or this",
            "start": 1177.76,
            "duration": 4.159
        },
        {
            "text": "one raw feels like it could go by like",
            "start": 1179.4,
            "duration": 5.04
        },
        {
            "text": "HTML rules so let's go with this one",
            "start": 1181.919,
            "duration": 4.601
        },
        {
            "text": "okay so that was wrong it was the first",
            "start": 1184.44,
            "duration": 3.76
        },
        {
            "text": "one so let's see what this actually does",
            "start": 1186.52,
            "duration": 3.36
        },
        {
            "text": "yeah it just raw dogs do so it takes a",
            "start": 1188.2,
            "duration": 3.44
        },
        {
            "text": "template literal and processes",
            "start": 1189.88,
            "duration": 4.44
        },
        {
            "text": "substitutions but it ignores well-known",
            "start": 1191.64,
            "duration": 6.159
        },
        {
            "text": "Escape sequences okay so it ignores the",
            "start": 1194.32,
            "duration": 5.28
        },
        {
            "text": "by the way that sounds awful well-known",
            "start": 1197.799,
            "duration": 3.601
        },
        {
            "text": "Escape sequences like what does that",
            "start": 1199.6,
            "duration": 4.319
        },
        {
            "text": "even mean to what level are what is",
            "start": 1201.4,
            "duration": 4.24
        },
        {
            "text": "wellknown",
            "start": 1203.919,
            "duration": 5.12
        },
        {
            "text": "what who who voted on what's welln I",
            "start": 1205.64,
            "duration": 4.96
        },
        {
            "text": "would have loved to been okay actually I",
            "start": 1209.039,
            "duration": 2.64
        },
        {
            "text": "would have hated to been in the meeting",
            "start": 1210.6,
            "duration": 2.72
        },
        {
            "text": "but I would have loved to just see a",
            "start": 1211.679,
            "duration": 3.761
        },
        {
            "text": "condensed version of what went on in",
            "start": 1213.32,
            "duration": 4.839
        },
        {
            "text": "tc39 for being like you know what we",
            "start": 1215.44,
            "duration": 7.0
        },
        {
            "text": "need we need to be Rod doing all of our",
            "start": 1218.159,
            "duration": 7.041
        },
        {
            "text": "strengths right and and they're like",
            "start": 1222.44,
            "duration": 4.8
        },
        {
            "text": "well we can't Rod Dog all the escapes",
            "start": 1225.2,
            "duration": 3.839
        },
        {
            "text": "there's no way we could know them all we",
            "start": 1227.24,
            "duration": 3.919
        },
        {
            "text": "will only Escape wellknown",
            "start": 1229.039,
            "duration": 6.841
        },
        {
            "text": "ones yikes welln okay um in my head",
            "start": 1231.159,
            "duration": 9.961
        },
        {
            "text": "wellknown is of course sln slash",
            "start": 1235.88,
            "duration": 7.48
        },
        {
            "text": "SLT",
            "start": 1241.12,
            "duration": 5.4
        },
        {
            "text": "SLB who used this",
            "start": 1243.36,
            "duration": 6.16
        },
        {
            "text": "SLB",
            "start": 1246.52,
            "duration": 5.039
        },
        {
            "text": "SLV yeah well by the way for those that",
            "start": 1249.52,
            "duration": 4.44
        },
        {
            "text": "don't know if you're ever doing HTML uh",
            "start": 1251.559,
            "duration": 5.48
        },
        {
            "text": "the new line separators /rn which stands",
            "start": 1253.96,
            "duration": 5.48
        },
        {
            "text": "for registered nurse",
            "start": 1257.039,
            "duration": 4.401
        },
        {
            "text": "uh I I I would imagine it doesn't do",
            "start": 1259.44,
            "duration": 3.92
        },
        {
            "text": "tick it wouldn't do this because that",
            "start": 1261.44,
            "duration": 5.16
        },
        {
            "text": "makes no sense right this makes no this",
            "start": 1263.36,
            "duration": 4.4
        },
        {
            "text": "is what you would put in the string",
            "start": 1266.6,
            "duration": 3.6
        },
        {
            "text": "itself",
            "start": 1267.76,
            "duration": 2.44
        },
        {
            "text": "right I never remembered as crlf I",
            "start": 1270.559,
            "duration": 5.841
        },
        {
            "text": "remembered as registered",
            "start": 1274.6,
            "duration": 4.04
        },
        {
            "text": "nurse if you want a registered nurse you",
            "start": 1276.4,
            "duration": 3.759
        },
        {
            "text": "got to you got to toss it on down okay",
            "start": 1278.64,
            "duration": 3.399
        },
        {
            "text": "it's the only way to remember it I use",
            "start": 1280.159,
            "duration": 4.041
        },
        {
            "text": "slf all the time what the hell",
            "start": 1282.039,
            "duration": 5.041
        },
        {
            "text": "slf what in the heavens is slf hit me",
            "start": 1284.2,
            "duration": 5.479
        },
        {
            "text": "with the slf somehow I actually",
            "start": 1287.08,
            "duration": 5.04
        },
        {
            "text": "understand it in so it just prints out",
            "start": 1289.679,
            "duration": 4.081
        },
        {
            "text": "what we gave",
            "start": 1292.12,
            "duration": 4.799
        },
        {
            "text": "it okay so here's an example string. raw",
            "start": 1293.76,
            "duration": 7.039
        },
        {
            "text": "VAR one is hey VAR 2 is there so we",
            "start": 1296.919,
            "duration": 6.321
        },
        {
            "text": "include hey there but the back slash T",
            "start": 1300.799,
            "duration": 4.521
        },
        {
            "text": "and back slash in which is Tab and new",
            "start": 1303.24,
            "duration": 5.24
        },
        {
            "text": "line just get left in interesting I",
            "start": 1305.32,
            "duration": 5.4
        },
        {
            "text": "don't think I've ever seen this actually",
            "start": 1308.48,
            "duration": 3.64
        },
        {
            "text": "used like I think I've seen it in like",
            "start": 1310.72,
            "duration": 3.52
        },
        {
            "text": "documentation somewhere but I'm curious",
            "start": 1312.12,
            "duration": 3.72
        },
        {
            "text": "if anybody's actually used this before",
            "start": 1314.24,
            "duration": 3.72
        },
        {
            "text": "like if you I have no idea how to use",
            "start": 1315.84,
            "duration": 7.36
        },
        {
            "text": "this real talk I have no idea how to use",
            "start": 1317.96,
            "duration": 5.24
        },
        {
            "text": "this I have none like I I I don't think",
            "start": 1323.559,
            "duration": 6.521
        },
        {
            "text": "I could use it bro you do you doing",
            "start": 1327.08,
            "duration": 6.0
        },
        {
            "text": "JavaScript with serial ports I don't",
            "start": 1330.08,
            "duration": 4.88
        },
        {
            "text": "know about this what is JS doing in",
            "start": 1333.08,
            "duration": 4.92
        },
        {
            "text": "serial communication okay I got a lot of",
            "start": 1334.96,
            "duration": 5.36
        },
        {
            "text": "questions like I",
            "start": 1338.0,
            "duration": 5.32
        },
        {
            "text": "feel are you serial right now is is Cal",
            "start": 1340.32,
            "duration": 7.12
        },
        {
            "text": "in the house right now form feeding",
            "start": 1343.32,
            "duration": 4.12
        },
        {
            "text": "cereal",
            "start": 1347.64,
            "duration": 3.0
        },
        {
            "text": "we got it's it's 2024 we got USB access",
            "start": 1352.279,
            "duration": 7.64
        },
        {
            "text": "now oh [\u00a0__\u00a0] me have a use case what it",
            "start": 1355.96,
            "duration": 5.88
        },
        {
            "text": "is because I can't think of why I would",
            "start": 1359.919,
            "duration": 3.64
        },
        {
            "text": "need this but either way kind of",
            "start": 1361.84,
            "duration": 4.36
        },
        {
            "text": "interesting learned something new today",
            "start": 1363.559,
            "duration": 4.201
        },
        {
            "text": "and final question what's going to be",
            "start": 1366.2,
            "duration": 5.2
        },
        {
            "text": "the output I want so bad in my heart",
            "start": 1367.76,
            "duration": 5.84
        },
        {
            "text": "that a string is not an instance of a",
            "start": 1371.4,
            "duration": 4.8
        },
        {
            "text": "capital S string so I am personally",
            "start": 1373.6,
            "duration": 4.76
        },
        {
            "text": "going to go with false I want it so bad",
            "start": 1376.2,
            "duration": 3.68
        },
        {
            "text": "my heart heart just to be true I want it",
            "start": 1378.36,
            "duration": 4.679
        },
        {
            "text": "to be true this is a string instance of",
            "start": 1379.88,
            "duration": 5.64
        },
        {
            "text": "string yes come on it is it's so true",
            "start": 1383.039,
            "duration": 5.081
        },
        {
            "text": "yes because a capital B",
            "start": 1385.52,
            "duration": 4.68
        },
        {
            "text": "Boolean",
            "start": 1388.12,
            "duration": 6.08
        },
        {
            "text": "booon is not the same as a Boolean right",
            "start": 1390.2,
            "duration": 5.92
        },
        {
            "text": "yeah so a string which makes me want to",
            "start": 1394.2,
            "duration": 5.719
        },
        {
            "text": "put true but let's see instance of",
            "start": 1396.12,
            "duration": 6.799
        },
        {
            "text": "string so instance of what it actually",
            "start": 1399.919,
            "duration": 5.36
        },
        {
            "text": "does is it looks up the Prototype chain",
            "start": 1402.919,
            "duration": 3.801
        },
        {
            "text": "can we take a quick second and realize",
            "start": 1405.279,
            "duration": 3.321
        },
        {
            "text": "that this is a product of the day from",
            "start": 1406.72,
            "duration": 3.76
        },
        {
            "text": "product hunt got second place",
            "start": 1408.6,
            "duration": 3.319
        },
        {
            "text": "congratulations whoever got second place",
            "start": 1410.48,
            "duration": 3.12
        },
        {
            "text": "but I do have to like a quick question",
            "start": 1411.919,
            "duration": 4.401
        },
        {
            "text": "which is what's the",
            "start": 1413.6,
            "duration": 6.959
        },
        {
            "text": "product emotional abuse so it looks to",
            "start": 1416.32,
            "duration": 7.08
        },
        {
            "text": "see is this",
            "start": 1420.559,
            "duration": 6.48
        },
        {
            "text": "object like above whatever this value is",
            "start": 1423.4,
            "duration": 5.92
        },
        {
            "text": "in the Prototype chain but this is a",
            "start": 1427.039,
            "duration": 5.12
        },
        {
            "text": "string literal shut up and take that but",
            "start": 1429.32,
            "duration": 5.08
        },
        {
            "text": "I don't think you can actually like do",
            "start": 1432.159,
            "duration": 3.921
        },
        {
            "text": "that like I don't think it's going to be",
            "start": 1434.4,
            "duration": 5.0
        },
        {
            "text": "an instance of the string object CU",
            "start": 1436.08,
            "duration": 5.44
        },
        {
            "text": "it's here you actually have to use like",
            "start": 1439.4,
            "duration": 4.12
        },
        {
            "text": "the string Constructor but when you just",
            "start": 1441.52,
            "duration": 4.159
        },
        {
            "text": "use a literal like this I think you",
            "start": 1443.52,
            "duration": 4.399
        },
        {
            "text": "might actually get false we prefer to",
            "start": 1445.679,
            "duration": 3.961
        },
        {
            "text": "call it raw dogging going to go with",
            "start": 1447.919,
            "duration": 4.36
        },
        {
            "text": "false although I'm not 100% sure okay",
            "start": 1449.64,
            "duration": 5.12
        },
        {
            "text": "yeah it is false let's see okay yeah so",
            "start": 1452.279,
            "duration": 5.64
        },
        {
            "text": "if it was a string literal you would get",
            "start": 1454.76,
            "duration": 4.84
        },
        {
            "text": "the result you expected at the beginning",
            "start": 1457.919,
            "duration": 5.081
        },
        {
            "text": "which I guess I want to see a piece of",
            "start": 1459.6,
            "duration": 6.12
        },
        {
            "text": "code that uses a string literal or a",
            "start": 1463.0,
            "duration": 4.399
        },
        {
            "text": "string Constructor is there any reason",
            "start": 1465.72,
            "duration": 3.64
        },
        {
            "text": "to use a string Constructor at any point",
            "start": 1467.399,
            "duration": 6.921
        },
        {
            "text": "ever for any reason like what am I",
            "start": 1469.36,
            "duration": 8.16
        },
        {
            "text": "missing I use string Constructor for fun",
            "start": 1474.32,
            "duration": 7.359
        },
        {
            "text": "a job interview to write that",
            "start": 1477.52,
            "duration": 4.159
        },
        {
            "text": "example to make it an instance",
            "start": 1481.919,
            "duration": 4.281
        },
        {
            "text": "of did I just ask why did the chicken",
            "start": 1489.159,
            "duration": 5.0
        },
        {
            "text": "cross the",
            "start": 1491.76,
            "duration": 2.399
        },
        {
            "text": "road Dr instructors for real Enterprise",
            "start": 1494.72,
            "duration": 4.839
        },
        {
            "text": "why the chicken cross the road to get to",
            "start": 1497.84,
            "duration": 4.12
        },
        {
            "text": "the other side dummy just like ah yeah",
            "start": 1499.559,
            "duration": 4.12
        },
        {
            "text": "you're right we use string Constructors",
            "start": 1501.96,
            "duration": 4.56
        },
        {
            "text": "because we wanted a string a constructed",
            "start": 1503.679,
            "duration": 4.6
        },
        {
            "text": "string okay he's",
            "start": 1506.52,
            "duration": 4.24
        },
        {
            "text": "right the fact that you have coded JS a",
            "start": 1508.279,
            "duration": 4.481
        },
        {
            "text": "lot explains some things I have coded a",
            "start": 1510.76,
            "duration": 4.159
        },
        {
            "text": "lot of JS and I have no idea what I have",
            "start": 1512.76,
            "duration": 4.279
        },
        {
            "text": "never once used a capital ass string",
            "start": 1514.919,
            "duration": 3.921
        },
        {
            "text": "Constructor like ever for any reason",
            "start": 1517.039,
            "duration": 4.041
        },
        {
            "text": "assuming you expected it to be true but",
            "start": 1518.84,
            "duration": 3.92
        },
        {
            "text": "what it does is it checks if the string",
            "start": 1521.08,
            "duration": 3.199
        },
        {
            "text": "Constructor is nested within the",
            "start": 1522.76,
            "duration": 3.6
        },
        {
            "text": "Prototype chain of the value provided in",
            "start": 1524.279,
            "duration": 4.721
        },
        {
            "text": "this case it isn't okay yep so that's",
            "start": 1526.36,
            "duration": 4.72
        },
        {
            "text": "sort of so string doesn't have string",
            "start": 1529.0,
            "duration": 5.679
        },
        {
            "text": "Methods well it's funny you should say",
            "start": 1531.08,
            "duration": 6.92
        },
        {
            "text": "that because I'm pretty sure they do",
            "start": 1534.679,
            "duration": 6.681
        },
        {
            "text": "they do is it uh isn't it uh Java that",
            "start": 1538.0,
            "duration": 4.88
        },
        {
            "text": "forces you to check string equality with",
            "start": 1541.36,
            "duration": 4.559
        },
        {
            "text": "some method yes uh Java required oh",
            "start": 1542.88,
            "duration": 4.679
        },
        {
            "text": "which is not wrong so Java's actually",
            "start": 1545.919,
            "duration": 3.441
        },
        {
            "text": "not wrong with that the reason why",
            "start": 1547.559,
            "duration": 3.48
        },
        {
            "text": "they're not wrong with it you have to do",
            "start": 1549.36,
            "duration": 5.12
        },
        {
            "text": "uh string. two equal some string right",
            "start": 1551.039,
            "duration": 5.721
        },
        {
            "text": "right is equal right you know you have",
            "start": 1554.48,
            "duration": 4.4
        },
        {
            "text": "to do you know Fu which is a capital S",
            "start": 1556.76,
            "duration": 3.96
        },
        {
            "text": "string is equal you have to do that the",
            "start": 1558.88,
            "duration": 6.32
        },
        {
            "text": "reason why you have to do that is",
            "start": 1560.72,
            "duration": 8.439
        },
        {
            "text": "because it treats strings as",
            "start": 1565.2,
            "duration": 6.479
        },
        {
            "text": "objects and so objects when you do a",
            "start": 1569.159,
            "duration": 4.921
        },
        {
            "text": "check or is it equals yeah it's equals",
            "start": 1571.679,
            "duration": 3.761
        },
        {
            "text": "or is equals I can't",
            "start": 1574.08,
            "duration": 4.199
        },
        {
            "text": "remember it doesn't walk the string to",
            "start": 1575.44,
            "duration": 5.2
        },
        {
            "text": "see if it is right it just checks to see",
            "start": 1578.279,
            "duration": 4.481
        },
        {
            "text": "is it the same ref it doesn't has the",
            "start": 1580.64,
            "duration": 4.8
        },
        {
            "text": "same referential value and if it does",
            "start": 1582.76,
            "duration": 4.32
        },
        {
            "text": "then yeah then it's like okay these are",
            "start": 1585.44,
            "duration": 4.64
        },
        {
            "text": "equal at a referential level",
            "start": 1587.08,
            "duration": 4.44
        },
        {
            "text": "I still hate it regardless of it's",
            "start": 1590.08,
            "duration": 3.44
        },
        {
            "text": "technically correct oh I'm on your team",
            "start": 1591.52,
            "duration": 5.24
        },
        {
            "text": "I me and all my homies hate Java but I",
            "start": 1593.52,
            "duration": 7.279
        },
        {
            "text": "totally get it at least the rules",
            "start": 1596.76,
            "duration": 6.72
        },
        {
            "text": "consistent what we thought so we got it",
            "start": 1600.799,
            "duration": 4.12
        },
        {
            "text": "right all right so overall got a nine",
            "start": 1603.48,
            "duration": 3.04
        },
        {
            "text": "out of 10 got one question wrong and we",
            "start": 1604.919,
            "duration": 2.921
        },
        {
            "text": "learned some new stuff so I would call",
            "start": 1606.52,
            "duration": 2.879
        },
        {
            "text": "this a success let me know if you want",
            "start": 1607.84,
            "duration": 3.28
        },
        {
            "text": "to see more videos like this and how you",
            "start": 1609.399,
            "duration": 3.601
        },
        {
            "text": "did on this quiz as well otherwise I",
            "start": 1611.12,
            "duration": 3.72
        },
        {
            "text": "will see you in the next",
            "start": 1613.0,
            "duration": 6.08
        },
        {
            "text": "video I got them all right and got",
            "start": 1614.84,
            "duration": 8.959
        },
        {
            "text": "immediately hired by a Fang company and",
            "start": 1619.08,
            "duration": 6.92
        },
        {
            "text": "comment that was great that was great I",
            "start": 1623.799,
            "duration": 4.12
        },
        {
            "text": "going to subscribe to you too that was",
            "start": 1626.0,
            "duration": 4.799
        },
        {
            "text": "fantastic absolutely nice video",
            "start": 1627.919,
            "duration": 6.161
        },
        {
            "text": "fantastic fantastic fantastic go give",
            "start": 1630.799,
            "duration": 5.961
        },
        {
            "text": "that guy like this isn't Twitter this",
            "start": 1634.08,
            "duration": 4.8
        },
        {
            "text": "isn't Twitter what do you mean of course",
            "start": 1636.76,
            "duration": 3.44
        },
        {
            "text": "this is",
            "start": 1638.88,
            "duration": 4.08
        },
        {
            "text": "Twitter you got a [\u00a0__\u00a0] post everywhere",
            "start": 1640.2,
            "duration": 6.56
        },
        {
            "text": "[\u00a0__\u00a0] posting is a way of life okay I",
            "start": 1642.96,
            "duration": 6.16
        },
        {
            "text": "think that this my friends is the",
            "start": 1646.76,
            "duration": 5.48
        },
        {
            "text": "perfect example of Twitter [\u00a0__\u00a0] posting",
            "start": 1649.12,
            "duration": 6.32
        },
        {
            "text": "right here it's beautiful people are",
            "start": 1652.24,
            "duration": 6.2
        },
        {
            "text": "liking it let's Circle back on this so",
            "start": 1655.44,
            "duration": 5.64
        },
        {
            "text": "you work with",
            "start": 1658.44,
            "duration": 2.64
        },
        {
            "text": "everyone oh my goodness it just means I",
            "start": 1667.559,
            "duration": 6.851
        },
        {
            "text": "don't like to work with so",
            "start": 1670.44,
            "duration": 6.8
        },
        {
            "text": "[Laughter]",
            "start": 1674.41,
            "duration": 6.19
        },
        {
            "text": "iconic got him all right the name the",
            "start": 1677.24,
            "duration": 5.0
        },
        {
            "text": "name the",
            "start": 1680.6,
            "duration": 4.64
        },
        {
            "text": "name it's taking down soy chaotic one",
            "start": 1682.24,
            "duration": 6.6
        },
        {
            "text": "tweet at a time a Jen",
            "start": 1685.24,
            "duration": 3.6
        }
    ],
    "stats": {
        "viewCount": "207097",
        "likeCount": "4436",
        "favoriteCount": "0",
        "commentCount": "505"
    }
}