{
    "id": "sQJlG_72rsQ",
    "title": "Measuring Software Developer Productivity???  | Prime Reacts",
    "publishedAt": "2023-09-06T16:00:41Z",
    "captions": [
        {
            "text": "yes you can measure software developer",
            "start": 0.0,
            "duration": 6.24
        },
        {
            "text": "productivity also apparently this",
            "start": 4.14,
            "duration": 5.039
        },
        {
            "text": "company uh is quite in trouble they're",
            "start": 6.24,
            "duration": 4.08
        },
        {
            "text": "they're known for some pretty shady",
            "start": 9.179,
            "duration": 3.061
        },
        {
            "text": "business practices is it shocking that",
            "start": 10.32,
            "duration": 3.899
        },
        {
            "text": "they're also attempting to measure uh",
            "start": 12.24,
            "duration": 3.72
        },
        {
            "text": "this so let's find out okay we're going",
            "start": 14.219,
            "duration": 2.82
        },
        {
            "text": "to take a little we're gonna take a",
            "start": 15.96,
            "duration": 2.76
        },
        {
            "text": "little looksy Lou into the future and",
            "start": 17.039,
            "duration": 3.421
        },
        {
            "text": "see can we actually measure software",
            "start": 18.72,
            "duration": 3.84
        },
        {
            "text": "developer productivity all right measure",
            "start": 20.46,
            "duration": 3.659
        },
        {
            "text": "tracking and benchmarking developer",
            "start": 22.56,
            "duration": 3.54
        },
        {
            "text": "productivity has long been uh considered",
            "start": 24.119,
            "duration": 4.381
        },
        {
            "text": "a black box it doesn't have to be that",
            "start": 26.1,
            "duration": 4.439
        },
        {
            "text": "way man I don't want to work at this",
            "start": 28.5,
            "duration": 3.84
        },
        {
            "text": "place let's find out what they do to",
            "start": 30.539,
            "duration": 3.241
        },
        {
            "text": "make this place a horrible place to work",
            "start": 32.34,
            "duration": 3.3
        },
        {
            "text": "at compared with other critical business",
            "start": 33.78,
            "duration": 3.36
        },
        {
            "text": "functions such as sales or customer",
            "start": 35.64,
            "duration": 3.18
        },
        {
            "text": "operations software development is",
            "start": 37.14,
            "duration": 4.259
        },
        {
            "text": "perennially under measured the long-held",
            "start": 38.82,
            "duration": 4.559
        },
        {
            "text": "belief by many in Tech is that it's not",
            "start": 41.399,
            "duration": 4.5
        },
        {
            "text": "possible to do it correctly and that in",
            "start": 43.379,
            "duration": 4.561
        },
        {
            "text": "any case only trained Engineers any",
            "start": 45.899,
            "duration": 3.901
        },
        {
            "text": "knowledgeable enough to assess the",
            "start": 47.94,
            "duration": 4.2
        },
        {
            "text": "performance of their peers okay",
            "start": 49.8,
            "duration": 6.18
        },
        {
            "text": "okay so that's me let's let's prove you",
            "start": 52.14,
            "duration": 5.22
        },
        {
            "text": "know what I mean let's let's find out I",
            "start": 55.98,
            "duration": 3.18
        },
        {
            "text": "don't know I don't believe it yes that",
            "start": 57.36,
            "duration": 3.719
        },
        {
            "text": "status quo is no longer sustainable",
            "start": 59.16,
            "duration": 4.92
        },
        {
            "text": "really uh now that most companies are",
            "start": 61.079,
            "duration": 4.26
        },
        {
            "text": "becoming to one degree or another",
            "start": 64.08,
            "duration": 3.0
        },
        {
            "text": "software companies regardless of",
            "start": 65.339,
            "duration": 4.261
        },
        {
            "text": "Industry leaders need to know they are",
            "start": 67.08,
            "duration": 4.98
        },
        {
            "text": "uh deploying their most valuable Talent",
            "start": 69.6,
            "duration": 4.92
        },
        {
            "text": "as successfully as possible all right",
            "start": 72.06,
            "duration": 4.68
        },
        {
            "text": "this is going to be fun people I can I",
            "start": 74.52,
            "duration": 4.8
        },
        {
            "text": "can feel myself so willing to disagree",
            "start": 76.74,
            "duration": 5.28
        },
        {
            "text": "that it's just shocking it's absolutely",
            "start": 79.32,
            "duration": 4.38
        },
        {
            "text": "shocking how much I feel like I can",
            "start": 82.02,
            "duration": 3.72
        },
        {
            "text": "disagree with this statement uh anyways",
            "start": 83.7,
            "duration": 4.14
        },
        {
            "text": "let's keep on going there is no denying",
            "start": 85.74,
            "duration": 3.72
        },
        {
            "text": "that measuring developer productivity is",
            "start": 87.84,
            "duration": 3.24
        },
        {
            "text": "difficult other functions can be",
            "start": 89.46,
            "duration": 4.019
        },
        {
            "text": "measured reasonably well some even with",
            "start": 91.08,
            "duration": 4.38
        },
        {
            "text": "just a single metric where let's see",
            "start": 93.479,
            "duration": 3.541
        },
        {
            "text": "whereas in software development the link",
            "start": 95.46,
            "duration": 2.82
        },
        {
            "text": "between inputs and output is",
            "start": 97.02,
            "duration": 3.059
        },
        {
            "text": "considerably less clear software",
            "start": 98.28,
            "duration": 3.6
        },
        {
            "text": "development is also highly collaborative",
            "start": 100.079,
            "duration": 3.72
        },
        {
            "text": "complex and creative work that requires",
            "start": 101.88,
            "duration": 3.3
        },
        {
            "text": "different metrics for different levels",
            "start": 103.799,
            "duration": 3.541
        },
        {
            "text": "such as systems teams and individuals",
            "start": 105.18,
            "duration": 4.399
        },
        {
            "text": "what's more and also software choices",
            "start": 107.34,
            "duration": 4.8
        },
        {
            "text": "Legacy uh",
            "start": 109.579,
            "duration": 4.18
        },
        {
            "text": "type of features you're developing like",
            "start": 112.14,
            "duration": 4.14
        },
        {
            "text": "there's a whole slew of things that you",
            "start": 113.759,
            "duration": 4.5
        },
        {
            "text": "may not even be able to get who you're",
            "start": 116.28,
            "duration": 3.36
        },
        {
            "text": "hiring and what are they good at versus",
            "start": 118.259,
            "duration": 3.301
        },
        {
            "text": "anything else I don't know I don't know",
            "start": 119.64,
            "duration": 4.019
        },
        {
            "text": "feels feels feels fake okay what's more",
            "start": 121.56,
            "duration": 3.9
        },
        {
            "text": "even if there is genuine commitment to",
            "start": 123.659,
            "duration": 3.42
        },
        {
            "text": "track productivity properly traditional",
            "start": 125.46,
            "duration": 3.299
        },
        {
            "text": "metrics can require systems and software",
            "start": 127.079,
            "duration": 3.66
        },
        {
            "text": "that are set up to allow more nuanced",
            "start": 128.759,
            "duration": 3.84
        },
        {
            "text": "and comprehensive measurement for some",
            "start": 130.739,
            "duration": 4.14
        },
        {
            "text": "standard metrics entire Tech stacks and",
            "start": 132.599,
            "duration": 3.541
        },
        {
            "text": "development pipelines need to be",
            "start": 134.879,
            "duration": 3.301
        },
        {
            "text": "reconfigured to enable tracking and",
            "start": 136.14,
            "duration": 3.239
        },
        {
            "text": "putting in place the necessary",
            "start": 138.18,
            "duration": 2.58
        },
        {
            "text": "instruments and tools to yield",
            "start": 139.379,
            "duration": 2.94
        },
        {
            "text": "meaningful insights can require",
            "start": 140.76,
            "duration": 3.72
        },
        {
            "text": "significant long-term investment what",
            "start": 142.319,
            "duration": 3.841
        },
        {
            "text": "I'm hearing at least is all you need to",
            "start": 144.48,
            "duration": 4.8
        },
        {
            "text": "do is just hire like 10 Engineers to set",
            "start": 146.16,
            "duration": 4.92
        },
        {
            "text": "up everything to measure all the",
            "start": 149.28,
            "duration": 3.9
        },
        {
            "text": "engineers to prove you are deploying",
            "start": 151.08,
            "duration": 4.799
        },
        {
            "text": "your engineering stuff correctly is that",
            "start": 153.18,
            "duration": 3.96
        },
        {
            "text": "what I'm hearing does that mean you have",
            "start": 155.879,
            "duration": 3.601
        },
        {
            "text": "to hire Engineers to hire Engineers to",
            "start": 157.14,
            "duration": 4.02
        },
        {
            "text": "hire engine like how many how many",
            "start": 159.48,
            "duration": 3.6
        },
        {
            "text": "turtles do we get before we're all the",
            "start": 161.16,
            "duration": 3.78
        },
        {
            "text": "way there let's find out let's see the",
            "start": 163.08,
            "duration": 3.239
        },
        {
            "text": "furthermore the landscape of software",
            "start": 164.94,
            "duration": 2.519
        },
        {
            "text": "development is changing quickly as",
            "start": 166.319,
            "duration": 3.42
        },
        {
            "text": "generative AI tools such as copilot X",
            "start": 167.459,
            "duration": 4.081
        },
        {
            "text": "and chat GPT have potential to enable",
            "start": 169.739,
            "duration": 3.841
        },
        {
            "text": "developers to complete tasks up to two",
            "start": 171.54,
            "duration": 4.38
        },
        {
            "text": "times faster yeah this this thing I",
            "start": 173.58,
            "duration": 3.659
        },
        {
            "text": "think it's from GitHub oh this is",
            "start": 175.92,
            "duration": 3.24
        },
        {
            "text": "another one of them this is just like",
            "start": 177.239,
            "duration": 4.561
        },
        {
            "text": "such a metric it it only works",
            "start": 179.16,
            "duration": 4.26
        },
        {
            "text": "in software in which you're a consultant",
            "start": 181.8,
            "duration": 3.299
        },
        {
            "text": "and you want and you want to Simply",
            "start": 183.42,
            "duration": 4.38
        },
        {
            "text": "produce it as fast as possible and you",
            "start": 185.099,
            "duration": 4.681
        },
        {
            "text": "give literally two about its",
            "start": 187.8,
            "duration": 3.719
        },
        {
            "text": "maintainability and you just want to get",
            "start": 189.78,
            "duration": 3.9
        },
        {
            "text": "that done right like any person",
            "start": 191.519,
            "duration": 4.681
        },
        {
            "text": "that I know that uses co-pilot to",
            "start": 193.68,
            "duration": 5.58
        },
        {
            "text": "complete logic is absolutely and",
            "start": 196.2,
            "duration": 6.36
        },
        {
            "text": "outstanding nuts right I don't know why",
            "start": 199.26,
            "duration": 5.16
        },
        {
            "text": "you would ever do that it completely",
            "start": 202.56,
            "duration": 3.36
        },
        {
            "text": "breaks your Flow State it completely",
            "start": 204.42,
            "duration": 3.72
        },
        {
            "text": "breaks everything I love copilot for for",
            "start": 205.92,
            "duration": 5.039
        },
        {
            "text": "like uh logical boilerplate right when",
            "start": 208.14,
            "duration": 5.94
        },
        {
            "text": "I'm like struck video has timestamp has",
            "start": 210.959,
            "duration": 6.0
        },
        {
            "text": "this has this has this struct audio",
            "start": 214.08,
            "duration": 6.0
        },
        {
            "text": "frame has this this this good job",
            "start": 216.959,
            "duration": 5.521
        },
        {
            "text": "co-pilot you do right like I like that",
            "start": 220.08,
            "duration": 4.62
        },
        {
            "text": "that makes sense but anything beyond",
            "start": 222.48,
            "duration": 5.16
        },
        {
            "text": "that you are being crazy to help",
            "start": 224.7,
            "duration": 4.44
        },
        {
            "text": "overcome these challenges and make this",
            "start": 227.64,
            "duration": 3.06
        },
        {
            "text": "critical test by the way it is a w take",
            "start": 229.14,
            "duration": 4.019
        },
        {
            "text": "I think personally um I don't think",
            "start": 230.7,
            "duration": 5.099
        },
        {
            "text": "generative AI is there uh I really don't",
            "start": 233.159,
            "duration": 4.44
        },
        {
            "text": "think it is there I like copilot I use",
            "start": 235.799,
            "duration": 3.181
        },
        {
            "text": "it all the time for for any sort of",
            "start": 237.599,
            "duration": 3.901
        },
        {
            "text": "boilerplate uh completion is it faster",
            "start": 238.98,
            "duration": 4.619
        },
        {
            "text": "than just using your LSP I would say",
            "start": 241.5,
            "duration": 5.94
        },
        {
            "text": "it's a minor bit faster just like a hint",
            "start": 243.599,
            "duration": 6.481
        },
        {
            "text": "faster but if you have good strong LSP",
            "start": 247.44,
            "duration": 5.219
        },
        {
            "text": "understanding and completion setup I",
            "start": 250.08,
            "duration": 5.28
        },
        {
            "text": "think that the LSP can almost be as good",
            "start": 252.659,
            "duration": 4.681
        },
        {
            "text": "and if you're using languages like go go",
            "start": 255.36,
            "duration": 3.9
        },
        {
            "text": "already does most of what co-pilot",
            "start": 257.34,
            "duration": 4.619
        },
        {
            "text": "effectively does for me right goes LSP",
            "start": 259.26,
            "duration": 6.24
        },
        {
            "text": "is like top of the market",
            "start": 261.959,
            "duration": 5.701
        },
        {
            "text": "um anyways to help overcome these",
            "start": 265.5,
            "duration": 3.36
        },
        {
            "text": "challenges and make this critical task",
            "start": 267.66,
            "duration": 2.94
        },
        {
            "text": "more feasible we developed an approach",
            "start": 268.86,
            "duration": 3.18
        },
        {
            "text": "to measuring software develop okay this",
            "start": 270.6,
            "duration": 3.06
        },
        {
            "text": "is like the longest foreplay I've ever",
            "start": 272.04,
            "duration": 3.42
        },
        {
            "text": "read just give me the meat and give it",
            "start": 273.66,
            "duration": 4.2
        },
        {
            "text": "to me raw okay a new approach has been",
            "start": 275.46,
            "duration": 4.799
        },
        {
            "text": "implemented at nearly 10 20 Tech Finance",
            "start": 277.86,
            "duration": 4.5
        },
        {
            "text": "and pharmaceuticals companies and the",
            "start": 280.259,
            "duration": 3.72
        },
        {
            "text": "initial results are promising they",
            "start": 282.36,
            "duration": 3.6
        },
        {
            "text": "include the following improvements 20 to",
            "start": 283.979,
            "duration": 3.72
        },
        {
            "text": "30 percent reduction in customer",
            "start": 285.96,
            "duration": 4.739
        },
        {
            "text": "reported product defects okay I mean",
            "start": 287.699,
            "duration": 4.381
        },
        {
            "text": "that's good",
            "start": 290.699,
            "duration": 4.321
        },
        {
            "text": "uh 20 Improvement in employee experience",
            "start": 292.08,
            "duration": 4.86
        },
        {
            "text": "scores I'm not sure what that means but",
            "start": 295.02,
            "duration": 5.16
        },
        {
            "text": "okay 60 point Improvement in customer",
            "start": 296.94,
            "duration": 6.78
        },
        {
            "text": "satisfaction ratings okay okay let's",
            "start": 300.18,
            "duration": 5.459
        },
        {
            "text": "find out it's a consulting company what",
            "start": 303.72,
            "duration": 3.84
        },
        {
            "text": "do you expect I know so this all sounds",
            "start": 305.639,
            "duration": 3.901
        },
        {
            "text": "like honestly when I hear this there's",
            "start": 307.56,
            "duration": 3.72
        },
        {
            "text": "an old phrase that we all like to say",
            "start": 309.54,
            "duration": 3.78
        },
        {
            "text": "right which is there's lies there's",
            "start": 311.28,
            "duration": 4.08
        },
        {
            "text": "damned lies and then there's statistics",
            "start": 313.32,
            "duration": 4.74
        },
        {
            "text": "and so I feel like we might be Beyond",
            "start": 315.36,
            "duration": 4.559
        },
        {
            "text": "damn lies I know made up metrics right",
            "start": 318.06,
            "duration": 3.6
        },
        {
            "text": "you can make up these things so easily",
            "start": 319.919,
            "duration": 3.481
        },
        {
            "text": "you can drop certain things you can take",
            "start": 321.66,
            "duration": 4.319
        },
        {
            "text": "out outliers right like people do this",
            "start": 323.4,
            "duration": 4.079
        },
        {
            "text": "crap all the time when they tell you a",
            "start": 325.979,
            "duration": 3.121
        },
        {
            "text": "statistic you don't know how many",
            "start": 327.479,
            "duration": 4.201
        },
        {
            "text": "outliers have been removed uh yeah if",
            "start": 329.1,
            "duration": 5.28
        },
        {
            "text": "you just remove the outliers and normal",
            "start": 331.68,
            "duration": 4.859
        },
        {
            "text": "you normalize the data you know you",
            "start": 334.38,
            "duration": 4.259
        },
        {
            "text": "normalize it is this a normal",
            "start": 336.539,
            "duration": 4.561
        },
        {
            "text": "distribution is it some sort of alpha",
            "start": 338.639,
            "duration": 4.021
        },
        {
            "text": "beta distribution that's happening right",
            "start": 341.1,
            "duration": 3.24
        },
        {
            "text": "now right because here's the problem",
            "start": 342.66,
            "duration": 3.42
        },
        {
            "text": "let's just say you have a you have an",
            "start": 344.34,
            "duration": 3.06
        },
        {
            "text": "alpha beta distribution for those that",
            "start": 346.08,
            "duration": 2.64
        },
        {
            "text": "don't know an alpha beta distribution",
            "start": 347.4,
            "duration": 2.96
        },
        {
            "text": "looks something like",
            "start": 348.72,
            "duration": 4.68
        },
        {
            "text": "ah it's like the internet right a lot of",
            "start": 350.36,
            "duration": 4.779
        },
        {
            "text": "Internet packets fall into here and then",
            "start": 353.4,
            "duration": 4.079
        },
        {
            "text": "there's just like this giant tale of",
            "start": 355.139,
            "duration": 5.461
        },
        {
            "text": "just slow ass data and so all you have",
            "start": 357.479,
            "duration": 5.401
        },
        {
            "text": "to do to get a 20 Improvement",
            "start": 360.6,
            "duration": 4.02
        },
        {
            "text": "is you just have one person that",
            "start": 362.88,
            "duration": 5.22
        },
        {
            "text": "improves like 90 out of 20 companies and",
            "start": 364.62,
            "duration": 4.68
        },
        {
            "text": "then you have a bunch of people that",
            "start": 368.1,
            "duration": 3.18
        },
        {
            "text": "have improvements of like two to four",
            "start": 369.3,
            "duration": 5.06
        },
        {
            "text": "percent and you're just like stop",
            "start": 371.28,
            "duration": 6.72
        },
        {
            "text": "testing tell me what the median is okay",
            "start": 374.36,
            "duration": 6.399
        },
        {
            "text": "with the median I don't care about your",
            "start": 378.0,
            "duration": 6.36
        },
        {
            "text": "avarages nobody cares uh leveraging",
            "start": 380.759,
            "duration": 5.88
        },
        {
            "text": "productivity insights with the access to",
            "start": 384.36,
            "duration": 4.08
        },
        {
            "text": "richer productivity data and insights",
            "start": 386.639,
            "duration": 3.421
        },
        {
            "text": "leaders can begin to answer pressing",
            "start": 388.44,
            "duration": 3.12
        },
        {
            "text": "questions about the software engineering",
            "start": 390.06,
            "duration": 3.0
        },
        {
            "text": "Talent they fought so hard to attract",
            "start": 391.56,
            "duration": 3.78
        },
        {
            "text": "and retain such as the following what",
            "start": 393.06,
            "duration": 3.72
        },
        {
            "text": "are the impediments to Engineers working",
            "start": 395.34,
            "duration": 4.139
        },
        {
            "text": "uh at their best level react how much",
            "start": 396.78,
            "duration": 4.259
        },
        {
            "text": "does culture and organization affect",
            "start": 399.479,
            "duration": 3.601
        },
        {
            "text": "their ability to produce uh their best",
            "start": 401.039,
            "duration": 4.44
        },
        {
            "text": "work so we're gonna micromanage all",
            "start": 403.08,
            "duration": 4.08
        },
        {
            "text": "their tasks to find out how effective",
            "start": 405.479,
            "duration": 4.381
        },
        {
            "text": "they are so that we know how does",
            "start": 407.16,
            "duration": 4.44
        },
        {
            "text": "culture and organization affect their",
            "start": 409.86,
            "duration": 4.26
        },
        {
            "text": "ability to do tasks how do we know if",
            "start": 411.6,
            "duration": 4.319
        },
        {
            "text": "they're using their time on activities",
            "start": 414.12,
            "duration": 4.859
        },
        {
            "text": "that truly Drive value if you look at",
            "start": 415.919,
            "duration": 7.321
        },
        {
            "text": "Facebook or Twitter or threads or Reddit",
            "start": 418.979,
            "duration": 7.56
        },
        {
            "text": "you're not driving value you're an",
            "start": 423.24,
            "duration": 5.76
        },
        {
            "text": " uh how can we know if we have",
            "start": 426.539,
            "duration": 5.401
        },
        {
            "text": "all the software engineer Talent we need",
            "start": 429.0,
            "duration": 4.44
        },
        {
            "text": "well that's kind of like an impossible",
            "start": 431.94,
            "duration": 3.539
        },
        {
            "text": "question right",
            "start": 433.44,
            "duration": 3.3
        },
        {
            "text": "all right understanding the foundation",
            "start": 435.479,
            "duration": 3.421
        },
        {
            "text": "can you just tell me what it is stop",
            "start": 436.74,
            "duration": 4.56
        },
        {
            "text": "with the foreplay let's get to it to use",
            "start": 438.9,
            "duration": 4.98
        },
        {
            "text": "uh a sufficiently nuanced system if I",
            "start": 441.3,
            "duration": 3.42
        },
        {
            "text": "hear",
            "start": 443.88,
            "duration": 3.06
        },
        {
            "text": "how complex the system is one more damn",
            "start": 444.72,
            "duration": 4.62
        },
        {
            "text": "time without telling me what it is I'm",
            "start": 446.94,
            "duration": 4.5
        },
        {
            "text": "gonna lose my okay of measuring",
            "start": 449.34,
            "duration": 3.66
        },
        {
            "text": "developer productivity it's essential to",
            "start": 451.44,
            "duration": 3.0
        },
        {
            "text": "understand the three types of metrics",
            "start": 453.0,
            "duration": 3.12
        },
        {
            "text": "that need to be tracked those at the",
            "start": 454.44,
            "duration": 3.0
        },
        {
            "text": "system level the team level and the",
            "start": 456.12,
            "duration": 3.06
        },
        {
            "text": "individual level didn't you literally",
            "start": 457.44,
            "duration": 2.94
        },
        {
            "text": "just say it right up here in the",
            "start": 459.18,
            "duration": 2.88
        },
        {
            "text": "parenthetical group where's the",
            "start": 460.38,
            "duration": 3.48
        },
        {
            "text": "parenthetical group systems teams",
            "start": 462.06,
            "duration": 4.56
        },
        {
            "text": "individuals look at that okay we got it",
            "start": 463.86,
            "duration": 5.1
        },
        {
            "text": "we understand we understand you got",
            "start": 466.62,
            "duration": 4.199
        },
        {
            "text": "metrics at different levels just give us",
            "start": 468.96,
            "duration": 3.9
        },
        {
            "text": "the meat people unlike a function such",
            "start": 470.819,
            "duration": 4.261
        },
        {
            "text": "as a sales uh where a system level",
            "start": 472.86,
            "duration": 4.32
        },
        {
            "text": "metric of dollar earned or deals close",
            "start": 475.08,
            "duration": 4.2
        },
        {
            "text": "could be used to measure the work of",
            "start": 477.18,
            "duration": 3.6
        },
        {
            "text": "both teams and individuals software",
            "start": 479.28,
            "duration": 3.359
        },
        {
            "text": "development is collaborative in a",
            "start": 480.78,
            "duration": 3.72
        },
        {
            "text": "distinctive way that requires different",
            "start": 482.639,
            "duration": 4.441
        },
        {
            "text": "lenses for instance while deployment",
            "start": 484.5,
            "duration": 6.0
        },
        {
            "text": "frequency is a perfectly good uh metric",
            "start": 487.08,
            "duration": 6.3
        },
        {
            "text": "to assess systems or teams it depends on",
            "start": 490.5,
            "duration": 4.8
        },
        {
            "text": "all team members doing their respective",
            "start": 493.38,
            "duration": 4.08
        },
        {
            "text": "tasks and is therefore not a useful way",
            "start": 495.3,
            "duration": 4.56
        },
        {
            "text": "to track individual performance it also",
            "start": 497.46,
            "duration": 4.98
        },
        {
            "text": "is completely the dumbest metric I have",
            "start": 499.86,
            "duration": 4.08
        },
        {
            "text": "ever heard my lifetime if you think",
            "start": 502.44,
            "duration": 3.78
        },
        {
            "text": "deployment frequent Quincy is a good",
            "start": 503.94,
            "duration": 4.92
        },
        {
            "text": "metric well guess what you could deploy",
            "start": 506.22,
            "duration": 5.099
        },
        {
            "text": "every single commit that passes some big",
            "start": 508.86,
            "duration": 5.28
        },
        {
            "text": "old cic the CD Pipeline and it doesn't",
            "start": 511.319,
            "duration": 4.861
        },
        {
            "text": "matter now you have Infinity commands",
            "start": 514.14,
            "duration": 3.48
        },
        {
            "text": "but what you're doing to your production",
            "start": 516.18,
            "duration": 3.419
        },
        {
            "text": "system what are you doing you're cash",
            "start": 517.62,
            "duration": 4.979
        },
        {
            "text": "busting every single time thus lowering",
            "start": 519.599,
            "duration": 6.36
        },
        {
            "text": "your time to first whatever render good",
            "start": 522.599,
            "duration": 6.121
        },
        {
            "text": "gosh it's like why would you do this why",
            "start": 525.959,
            "duration": 5.281
        },
        {
            "text": "would you do this why update the readme",
            "start": 528.72,
            "duration": 4.2
        },
        {
            "text": "like this is just oh my goodness it's so",
            "start": 531.24,
            "duration": 3.06
        },
        {
            "text": "frustrating another critical Dimension",
            "start": 532.92,
            "duration": 3.419
        },
        {
            "text": "to recognize is what the various metrics",
            "start": 534.3,
            "duration": 4.74
        },
        {
            "text": "do and do not tell you if you of course",
            "start": 536.339,
            "duration": 4.021
        },
        {
            "text": "for example measuring deployment",
            "start": 539.04,
            "duration": 3.18
        },
        {
            "text": "frequency or lead time for changes can",
            "start": 540.36,
            "duration": 3.12
        },
        {
            "text": "give you a clear view of certain",
            "start": 542.22,
            "duration": 2.94
        },
        {
            "text": "outcomes but not of whether the",
            "start": 543.48,
            "duration": 3.66
        },
        {
            "text": "engineering organization is optimized",
            "start": 545.16,
            "duration": 3.96
        },
        {
            "text": "and while metrics such as story points",
            "start": 547.14,
            "duration": 3.72
        },
        {
            "text": "completed or interruptions I have not",
            "start": 549.12,
            "duration": 5.76
        },
        {
            "text": "put down story points in 10 years or",
            "start": 550.86,
            "duration": 6.599
        },
        {
            "text": "interruptions can help determine opt uh",
            "start": 554.88,
            "duration": 4.5
        },
        {
            "text": "determine optimization they require more",
            "start": 557.459,
            "duration": 4.201
        },
        {
            "text": "investigation to identify improvements",
            "start": 559.38,
            "duration": 4.26
        },
        {
            "text": "that might be beneficial okay all of",
            "start": 561.66,
            "duration": 2.7
        },
        {
            "text": "that",
            "start": 563.64,
            "duration": 2.52
        },
        {
            "text": "didn't mean anything to me in building",
            "start": 564.36,
            "duration": 3.539
        },
        {
            "text": "our set of metrics we looked to expand",
            "start": 566.16,
            "duration": 3.54
        },
        {
            "text": "on two sets of metrics already developed",
            "start": 567.899,
            "duration": 3.601
        },
        {
            "text": "by the software industry the first is",
            "start": 569.7,
            "duration": 5.88
        },
        {
            "text": "the Dora Dora the Explorer metrics named",
            "start": 571.5,
            "duration": 5.58
        },
        {
            "text": "for Google's devops research and",
            "start": 575.58,
            "duration": 2.699
        },
        {
            "text": "assessment team I don't even know what",
            "start": 577.08,
            "duration": 2.52
        },
        {
            "text": "this is these are the what are they",
            "start": 578.279,
            "duration": 3.361
        },
        {
            "text": "these are the closest a tech sector has",
            "start": 579.6,
            "duration": 3.54
        },
        {
            "text": "to a standard and they are great for",
            "start": 581.64,
            "duration": 3.72
        },
        {
            "text": "measuring outcomes when a Dora metric",
            "start": 583.14,
            "duration": 4.62
        },
        {
            "text": "returns a subpar outcome it is a signal",
            "start": 585.36,
            "duration": 3.9
        },
        {
            "text": "to investigate what has gone wrong which",
            "start": 587.76,
            "duration": 3.62
        },
        {
            "text": "can often involve a protracting",
            "start": 589.26,
            "duration": 4.86
        },
        {
            "text": "protracted sleuthing they just make up",
            "start": 591.38,
            "duration": 4.78
        },
        {
            "text": "something by putting two words together",
            "start": 594.12,
            "duration": 4.32
        },
        {
            "text": "uh for example if such a metric as",
            "start": 596.16,
            "duration": 4.32
        },
        {
            "text": "deploy frequency increases or decreases",
            "start": 598.44,
            "duration": 4.38
        },
        {
            "text": "there can be multiple causes thank you",
            "start": 600.48,
            "duration": 3.6
        },
        {
            "text": "you could have just said that to begin",
            "start": 602.82,
            "duration": 2.76
        },
        {
            "text": "with this whole paragraph could have",
            "start": 604.08,
            "duration": 2.819
        },
        {
            "text": "been that determining what they are and",
            "start": 605.58,
            "duration": 2.46
        },
        {
            "text": "how to resolve them is often not",
            "start": 606.899,
            "duration": 3.841
        },
        {
            "text": "straightforward if you",
            "start": 608.04,
            "duration": 4.919
        },
        {
            "text": "who suggested this article who suggest",
            "start": 610.74,
            "duration": 3.599
        },
        {
            "text": "who's going to get banned today who's",
            "start": 612.959,
            "duration": 2.88
        },
        {
            "text": "getting banned okay we got another we",
            "start": 614.339,
            "duration": 2.881
        },
        {
            "text": "got another one what is this the",
            "start": 615.839,
            "duration": 5.161
        },
        {
            "text": "government we have Dora space metrics",
            "start": 617.22,
            "duration": 6.059
        },
        {
            "text": "uh the second set of Industry developed",
            "start": 621.0,
            "duration": 4.019
        },
        {
            "text": "measurements is space metrics",
            "start": 623.279,
            "duration": 3.541
        },
        {
            "text": "satisfaction and well-being performance",
            "start": 625.019,
            "duration": 3.361
        },
        {
            "text": "activity communication and collaboration",
            "start": 626.82,
            "duration": 3.54
        },
        {
            "text": "how does that spell space and efficiency",
            "start": 628.38,
            "duration": 4.74
        },
        {
            "text": "and workflow what how does that spell",
            "start": 630.36,
            "duration": 6.24
        },
        {
            "text": "space I'm super confused satisfaction",
            "start": 633.12,
            "duration": 6.42
        },
        {
            "text": "and well-being performance at activity",
            "start": 636.6,
            "duration": 5.22
        },
        {
            "text": "communication and collaboration and",
            "start": 639.54,
            "duration": 4.2
        },
        {
            "text": "efficiency and flow that is the greatest",
            "start": 641.82,
            "duration": 3.78
        },
        {
            "text": "abuse I've ever seen in my lifetime",
            "start": 643.74,
            "duration": 4.5
        },
        {
            "text": "that's the greatest abuse ever for",
            "start": 645.6,
            "duration": 4.44
        },
        {
            "text": "creating an acronym",
            "start": 648.24,
            "duration": 4.26
        },
        {
            "text": "greatest ever uh which GitHub and",
            "start": 650.04,
            "duration": 4.02
        },
        {
            "text": "Microsoft research development to",
            "start": 652.5,
            "duration": 4.68
        },
        {
            "text": "augment Dora metrics by adopting an",
            "start": 654.06,
            "duration": 4.62
        },
        {
            "text": "individual lens particularly around",
            "start": 657.18,
            "duration": 4.2
        },
        {
            "text": "developer well-being space metrics are",
            "start": 658.68,
            "duration": 4.44
        },
        {
            "text": "great at clarifying whether an engineer",
            "start": 661.38,
            "duration": 4.56
        },
        {
            "text": "organization is optimized for example an",
            "start": 663.12,
            "duration": 4.44
        },
        {
            "text": "increase in interruptions that",
            "start": 665.94,
            "duration": 3.3
        },
        {
            "text": "developers experience indicate a need",
            "start": 667.56,
            "duration": 3.779
        },
        {
            "text": "for optimization on top of these already",
            "start": 669.24,
            "duration": 3.96
        },
        {
            "text": "powerful metrics our approach seeks to",
            "start": 671.339,
            "duration": 4.261
        },
        {
            "text": "identify okay just get give me the meat",
            "start": 673.2,
            "duration": 3.84
        },
        {
            "text": "okay here we go",
            "start": 675.6,
            "duration": 3.72
        },
        {
            "text": "Dora metrics this one",
            "start": 677.04,
            "duration": 5.82
        },
        {
            "text": "space metrics that one opportunity Focus",
            "start": 679.32,
            "duration": 5.88
        },
        {
            "text": "metrics deployment frequency stupid",
            "start": 682.86,
            "duration": 5.039
        },
        {
            "text": "customer satisfaction reliability uptime",
            "start": 685.2,
            "duration": 7.079
        },
        {
            "text": "okay I mean again customer satisfaction",
            "start": 687.899,
            "duration": 6.06
        },
        {
            "text": "like I just want you to think about this",
            "start": 692.279,
            "duration": 3.541
        },
        {
            "text": "for a second okay I want you to think",
            "start": 693.959,
            "duration": 3.661
        },
        {
            "text": "about this for a second okay there exist",
            "start": 695.82,
            "duration": 4.079
        },
        {
            "text": "this there exists",
            "start": 697.62,
            "duration": 5.279
        },
        {
            "text": "there exists a curve like the IQ bell",
            "start": 699.899,
            "duration": 5.341
        },
        {
            "text": "curve okay there's really smart guy over",
            "start": 702.899,
            "duration": 3.661
        },
        {
            "text": "here right we all know about really",
            "start": 705.24,
            "duration": 3.659
        },
        {
            "text": "smart guy in the hood right then we got",
            "start": 706.56,
            "duration": 3.42
        },
        {
            "text": "you know",
            "start": 708.899,
            "duration": 3.44
        },
        {
            "text": "the the Midway right we got the Midway",
            "start": 709.98,
            "duration": 5.76
        },
        {
            "text": "and then we got like the the five head",
            "start": 712.339,
            "duration": 5.62
        },
        {
            "text": "space station guy right",
            "start": 715.74,
            "duration": 4.38
        },
        {
            "text": "okay each of them",
            "start": 717.959,
            "duration": 4.021
        },
        {
            "text": "not looking too good no Tom is actually",
            "start": 720.12,
            "duration": 4.08
        },
        {
            "text": "the point one percent Cube brain then",
            "start": 721.98,
            "duration": 4.44
        },
        {
            "text": "there's Tom right right and his brain's",
            "start": 724.2,
            "duration": 4.199
        },
        {
            "text": "just huge right he's like he's really",
            "start": 726.42,
            "duration": 4.859
        },
        {
            "text": "far out there okay uh he's way far out",
            "start": 728.399,
            "duration": 4.5
        },
        {
            "text": "there he's he's uh he's the next level",
            "start": 731.279,
            "duration": 5.641
        },
        {
            "text": "he's the 0.01 and at Netflix",
            "start": 732.899,
            "duration": 5.88
        },
        {
            "text": "we've developed I work on Netflix by the",
            "start": 736.92,
            "duration": 2.94
        },
        {
            "text": "way just in case you're wondering uh",
            "start": 738.779,
            "duration": 2.701
        },
        {
            "text": "We've developed many of things that make",
            "start": 739.86,
            "duration": 3.539
        },
        {
            "text": "people watch more Netflix and enjoy more",
            "start": 741.48,
            "duration": 3.479
        },
        {
            "text": "shows and thus give us higher",
            "start": 743.399,
            "duration": 3.541
        },
        {
            "text": "favorability ratings now here's the",
            "start": 744.959,
            "duration": 3.661
        },
        {
            "text": "problem we've developed things that also",
            "start": 746.94,
            "duration": 3.36
        },
        {
            "text": "make people really upset and don't like",
            "start": 748.62,
            "duration": 3.899
        },
        {
            "text": "it and so that's a whole product manager",
            "start": 750.3,
            "duration": 4.74
        },
        {
            "text": "thing going on here and so if you are",
            "start": 752.519,
            "duration": 5.401
        },
        {
            "text": "just simply you know here's the deal is",
            "start": 755.04,
            "duration": 4.919
        },
        {
            "text": "that you're targeting this group you're",
            "start": 757.92,
            "duration": 4.26
        },
        {
            "text": "saying what do the midwits love because",
            "start": 759.959,
            "duration": 3.781
        },
        {
            "text": "that's most people most people are",
            "start": 762.18,
            "duration": 4.14
        },
        {
            "text": "midwits okay now these people are like I",
            "start": 763.74,
            "duration": 5.099
        },
        {
            "text": "hate automatic playing shows I hate",
            "start": 766.32,
            "duration": 4.86
        },
        {
            "text": "automatic playing shows",
            "start": 768.839,
            "duration": 4.921
        },
        {
            "text": "but these people are like Ah that's what",
            "start": 771.18,
            "duration": 4.08
        },
        {
            "text": "I want to watch",
            "start": 773.76,
            "duration": 3.96
        },
        {
            "text": "right and so we developed these features",
            "start": 775.26,
            "duration": 4.019
        },
        {
            "text": "where everyone on Twitter which is",
            "start": 777.72,
            "duration": 3.6
        },
        {
            "text": "pretty much these people are like I hate",
            "start": 779.279,
            "duration": 4.441
        },
        {
            "text": "this and everybody right here loves it",
            "start": 781.32,
            "duration": 4.319
        },
        {
            "text": "and everybody that's on Reddit which",
            "start": 783.72,
            "duration": 3.059
        },
        {
            "text": "thinks they're smart they might fall",
            "start": 785.639,
            "duration": 3.361
        },
        {
            "text": "into this or they don't well actually uh",
            "start": 786.779,
            "duration": 3.841
        },
        {
            "text": "they're over there like I hate it so",
            "start": 789.0,
            "duration": 4.32
        },
        {
            "text": "this is what happens and so when you're",
            "start": 790.62,
            "duration": 4.74
        },
        {
            "text": "like hey customer satisfaction",
            "start": 793.32,
            "duration": 4.079
        },
        {
            "text": "how can you measure that right it's it's",
            "start": 795.36,
            "duration": 4.44
        },
        {
            "text": "not just Engineers it's also product",
            "start": 797.399,
            "duration": 4.081
        },
        {
            "text": "managers it's also what you're building",
            "start": 799.8,
            "duration": 3.479
        },
        {
            "text": "it's also your Market you're trying to",
            "start": 801.48,
            "duration": 4.26
        },
        {
            "text": "like",
            "start": 803.279,
            "duration": 4.141
        },
        {
            "text": "you know like think about VRBO versus",
            "start": 805.74,
            "duration": 4.26
        },
        {
            "text": "Airbnb VRBO was the thing everyone liked",
            "start": 807.42,
            "duration": 4.859
        },
        {
            "text": "VRBO it sucks it's not a great piece of",
            "start": 810.0,
            "duration": 4.26
        },
        {
            "text": "software they were satisfied and then",
            "start": 812.279,
            "duration": 3.421
        },
        {
            "text": "Airbnb came along and made better",
            "start": 814.26,
            "duration": 3.36
        },
        {
            "text": "software and now people are unsatisfied",
            "start": 815.7,
            "duration": 4.52
        },
        {
            "text": "with VRBO right",
            "start": 817.62,
            "duration": 4.86
        },
        {
            "text": "are you having did you change something",
            "start": 820.22,
            "duration": 4.119
        },
        {
            "text": "no the market changed underneath anyways",
            "start": 822.48,
            "duration": 2.88
        },
        {
            "text": "it's just stupid the whole thing's",
            "start": 824.339,
            "duration": 3.0
        },
        {
            "text": "stupid uh these opportunity focused",
            "start": 825.36,
            "duration": 3.659
        },
        {
            "text": "productivity metrics use a few different",
            "start": 827.339,
            "duration": 4.201
        },
        {
            "text": "lenses to generate a nuanced view of",
            "start": 829.019,
            "duration": 4.081
        },
        {
            "text": "complex range of activities involved",
            "start": 831.54,
            "duration": 3.479
        },
        {
            "text": "with software product development inner",
            "start": 833.1,
            "duration": 4.2
        },
        {
            "text": "outer loop uh time spent to identify",
            "start": 835.019,
            "duration": 4.141
        },
        {
            "text": "specific areas for improvement it's",
            "start": 837.3,
            "duration": 3.659
        },
        {
            "text": "helpful to think of the activities",
            "start": 839.16,
            "duration": 3.179
        },
        {
            "text": "involved in software development as",
            "start": 840.959,
            "duration": 4.141
        },
        {
            "text": "being arranged in two Loops uh an inner",
            "start": 842.339,
            "duration": 4.201
        },
        {
            "text": "loop comprised of activities directly",
            "start": 845.1,
            "duration": 2.82
        },
        {
            "text": "related to creating the product coding",
            "start": 846.54,
            "duration": 3.419
        },
        {
            "text": "building and unit testing and outer loop",
            "start": 847.92,
            "duration": 3.78
        },
        {
            "text": "comprised of task developers must do to",
            "start": 849.959,
            "duration": 2.641
        },
        {
            "text": "push their code to production",
            "start": 851.7,
            "duration": 2.34
        },
        {
            "text": "integration integration testing",
            "start": 852.6,
            "duration": 4.38
        },
        {
            "text": "releasing and deployment uh from both a",
            "start": 854.04,
            "duration": 4.14
        },
        {
            "text": "productivity and personal experience",
            "start": 856.98,
            "duration": 2.7
        },
        {
            "text": "standpoint maximizing the amount of time",
            "start": 858.18,
            "duration": 2.88
        },
        {
            "text": "developers spend in the Inner Loop is",
            "start": 859.68,
            "duration": 3.899
        },
        {
            "text": "desirable products so again this is just",
            "start": 861.06,
            "duration": 4.74
        },
        {
            "text": "like building out a nice streamlined",
            "start": 863.579,
            "duration": 3.301
        },
        {
            "text": "place",
            "start": 865.8,
            "duration": 2.219
        },
        {
            "text": "right like I don't think there's",
            "start": 866.88,
            "duration": 3.38
        },
        {
            "text": "anything",
            "start": 868.019,
            "duration": 2.241
        },
        {
            "text": "nice Loop dog",
            "start": 883.019,
            "duration": 5.601
        },
        {
            "text": "um nice Loop",
            "start": 885.3,
            "duration": 3.32
        },
        {
            "text": "anyways uh cool that was cool I'm not",
            "start": 889.62,
            "duration": 5.159
        },
        {
            "text": "even gonna continue to read this at this",
            "start": 892.98,
            "duration": 5.7
        },
        {
            "text": "point uh it seems like mostly crap my",
            "start": 894.779,
            "duration": 5.341
        },
        {
            "text": "general rule of thumb",
            "start": 898.68,
            "duration": 3.839
        },
        {
            "text": "is that how do you know an organization",
            "start": 900.12,
            "duration": 3.779
        },
        {
            "text": "is healthy",
            "start": 902.519,
            "duration": 3.901
        },
        {
            "text": "you make time and you hire talent to",
            "start": 903.899,
            "duration": 3.781
        },
        {
            "text": "take care",
            "start": 906.42,
            "duration": 3.719
        },
        {
            "text": "of the quote unquote outer loop right I",
            "start": 907.68,
            "duration": 4.26
        },
        {
            "text": "measure things not by individuals but",
            "start": 910.139,
            "duration": 4.081
        },
        {
            "text": "mostly by or organization Health right",
            "start": 911.94,
            "duration": 6.42
        },
        {
            "text": "so this outer loop deployment CI testing",
            "start": 914.22,
            "duration": 6.419
        },
        {
            "text": "infrastructure all that stuff how",
            "start": 918.36,
            "duration": 4.2
        },
        {
            "text": "important does your company take that do",
            "start": 920.639,
            "duration": 3.721
        },
        {
            "text": "they hire the right people does every",
            "start": 922.56,
            "duration": 3.54
        },
        {
            "text": "single engineer have to think about that",
            "start": 924.36,
            "duration": 3.3
        },
        {
            "text": "do they have to take their time and",
            "start": 926.1,
            "duration": 3.539
        },
        {
            "text": "understand what's happening how fast can",
            "start": 927.66,
            "duration": 5.1
        },
        {
            "text": "they put up new CI CD how fast can they",
            "start": 929.639,
            "duration": 4.861
        },
        {
            "text": "do all these things how good is your",
            "start": 932.76,
            "duration": 3.3
        },
        {
            "text": "production measurement like how much",
            "start": 934.5,
            "duration": 3.42
        },
        {
            "text": "time and stuff have you set up to be",
            "start": 936.06,
            "duration": 3.6
        },
        {
            "text": "able to understand when production fails",
            "start": 937.92,
            "duration": 4.02
        },
        {
            "text": "when a when a when a commits bad all",
            "start": 939.66,
            "duration": 3.96
        },
        {
            "text": "that kind of stuff like if you don't",
            "start": 941.94,
            "duration": 4.199
        },
        {
            "text": "have a really great thing right here it",
            "start": 943.62,
            "duration": 3.959
        },
        {
            "text": "kind of seems like the rest of metrics",
            "start": 946.139,
            "duration": 2.7
        },
        {
            "text": "are stupid and every way you're trying",
            "start": 947.579,
            "duration": 3.181
        },
        {
            "text": "to measure people and all that is just",
            "start": 948.839,
            "duration": 4.321
        },
        {
            "text": "dumb to me the sign of a good working",
            "start": 950.76,
            "duration": 5.22
        },
        {
            "text": "place is how good is this box because",
            "start": 953.16,
            "duration": 4.979
        },
        {
            "text": "the next box that's inside of it will be",
            "start": 955.98,
            "duration": 3.599
        },
        {
            "text": "able to move fast based on a couple",
            "start": 958.139,
            "duration": 3.841
        },
        {
            "text": "decisions technology you previously",
            "start": 959.579,
            "duration": 4.94
        },
        {
            "text": "chosen to base your entire life on and B",
            "start": 961.98,
            "duration": 6.18
        },
        {
            "text": "uh and B how good this outer box is and",
            "start": 964.519,
            "duration": 6.701
        },
        {
            "text": "so it's like yeah you chose angular 1.6",
            "start": 968.16,
            "duration": 4.799
        },
        {
            "text": "and the whole place moved on from you",
            "start": 971.22,
            "duration": 3.72
        },
        {
            "text": "and now you can only hire angular 1.6",
            "start": 972.959,
            "duration": 3.421
        },
        {
            "text": "people which you have no idea what their",
            "start": 974.94,
            "duration": 3.24
        },
        {
            "text": "kind of level of proficiency is and so",
            "start": 976.38,
            "duration": 3.24
        },
        {
            "text": "you kind of made a bad decision now you",
            "start": 978.18,
            "duration": 2.82
        },
        {
            "text": "either have to stop you have to burn the",
            "start": 979.62,
            "duration": 3.24
        },
        {
            "text": "ship down or you have to or you have to",
            "start": 981.0,
            "duration": 3.6
        },
        {
            "text": "just deal with what you've created but",
            "start": 982.86,
            "duration": 2.7
        },
        {
            "text": "you can still have a really great",
            "start": 984.6,
            "duration": 2.46
        },
        {
            "text": "experience here where you're releasing",
            "start": 985.56,
            "duration": 2.76
        },
        {
            "text": "and doing all the right things right",
            "start": 987.06,
            "duration": 3.779
        },
        {
            "text": "here so it's like there's no way I I",
            "start": 988.32,
            "duration": 4.079
        },
        {
            "text": "just think that anyone who attempts to",
            "start": 990.839,
            "duration": 4.201
        },
        {
            "text": "measure software as like some sort of",
            "start": 992.399,
            "duration": 5.821
        },
        {
            "text": "scientific way is just doing the wrong",
            "start": 995.04,
            "duration": 5.46
        },
        {
            "text": "thing I think their intentions are bad I",
            "start": 998.22,
            "duration": 4.08
        },
        {
            "text": "know that's a pretty bold statement to",
            "start": 1000.5,
            "duration": 2.94
        },
        {
            "text": "say their intentions are bad either",
            "start": 1002.3,
            "duration": 3.479
        },
        {
            "text": "their their intentions are naive or",
            "start": 1003.44,
            "duration": 4.56
        },
        {
            "text": "their intentions are bad because at this",
            "start": 1005.779,
            "duration": 3.601
        },
        {
            "text": "point it's been tried a hundred times",
            "start": 1008.0,
            "duration": 2.579
        },
        {
            "text": "and if you think for whatever reason",
            "start": 1009.38,
            "duration": 3.42
        },
        {
            "text": "that you can do it",
            "start": 1010.579,
            "duration": 4.26
        },
        {
            "text": "I think you're wrong I think you're just",
            "start": 1012.8,
            "duration": 3.539
        },
        {
            "text": "simply wrong they're measuring the wrong",
            "start": 1014.839,
            "duration": 2.521
        },
        {
            "text": "thing of course they're measuring the",
            "start": 1016.339,
            "duration": 2.94
        },
        {
            "text": "wrong thing right it's really hard to",
            "start": 1017.36,
            "duration": 4.32
        },
        {
            "text": "blame one individual and less if that",
            "start": 1019.279,
            "duration": 4.201
        },
        {
            "text": "one individual is always at the center",
            "start": 1021.68,
            "duration": 3.48
        },
        {
            "text": "of everything going wrong then you can",
            "start": 1023.48,
            "duration": 4.62
        },
        {
            "text": "start to blame an individual right that",
            "start": 1025.16,
            "duration": 5.039
        },
        {
            "text": "can happen but I think it takes time to",
            "start": 1028.1,
            "duration": 3.3
        },
        {
            "text": "kind of get like you really have to",
            "start": 1030.199,
            "duration": 2.88
        },
        {
            "text": "measure over a long period of time and",
            "start": 1031.4,
            "duration": 3.48
        },
        {
            "text": "you usually usually before any of those",
            "start": 1033.079,
            "duration": 3.48
        },
        {
            "text": "things happen all the co-workers are",
            "start": 1034.88,
            "duration": 3.84
        },
        {
            "text": "like hey this guy he ain't cutting it",
            "start": 1036.559,
            "duration": 4.441
        },
        {
            "text": "this has been this has been awful you",
            "start": 1038.72,
            "duration": 3.719
        },
        {
            "text": "know and then usually you know that",
            "start": 1041.0,
            "duration": 4.319
        },
        {
            "text": "quite you know that way earlier you know",
            "start": 1042.439,
            "duration": 4.681
        },
        {
            "text": "what I mean you know that way way way",
            "start": 1045.319,
            "duration": 4.381
        },
        {
            "text": "way earlier anyways",
            "start": 1047.12,
            "duration": 4.26
        },
        {
            "text": "just some thoughts I have what can you",
            "start": 1049.7,
            "duration": 4.38
        },
        {
            "text": "do I would suggest not measuring uh",
            "start": 1051.38,
            "duration": 4.62
        },
        {
            "text": "productivity in that kind of sense I",
            "start": 1054.08,
            "duration": 3.06
        },
        {
            "text": "think that your co-workers and everyone",
            "start": 1056.0,
            "duration": 2.46
        },
        {
            "text": "around you can kind of sense the",
            "start": 1057.14,
            "duration": 3.419
        },
        {
            "text": "productivity of the team and you can",
            "start": 1058.46,
            "duration": 3.599
        },
        {
            "text": "sense what is going wrong and long as",
            "start": 1060.559,
            "duration": 3.0
        },
        {
            "text": "you do those things I think that you'll",
            "start": 1062.059,
            "duration": 3.36
        },
        {
            "text": "get a lot more out of this than some",
            "start": 1063.559,
            "duration": 3.901
        },
        {
            "text": "nonsense whatever",
            "start": 1065.419,
            "duration": 4.861
        },
        {
            "text": "blah blah blah blah blah blah",
            "start": 1067.46,
            "duration": 5.48
        },
        {
            "text": "the name",
            "start": 1070.28,
            "duration": 2.66
        },
        {
            "text": "I don't have a good one so the primogen",
            "start": 1075.5,
            "duration": 3.799
        }
    ],
    "stats": {
        "viewCount": "79691",
        "likeCount": "2137",
        "favoriteCount": "0",
        "commentCount": "231"
    }
}