{
    "id": "SRWKQnz5v9Y",
    "title": "Prime Reacts: Creating JSF#*!",
    "publishedAt": "2023-02-09T15:00:30Z",
    "captions": [
        {
            "text": "all right all right all right all right",
            "start": 0.0,
            "duration": 3.36
        },
        {
            "text": "js's weird extreme edition let's go this",
            "start": 1.079,
            "duration": 4.381
        },
        {
            "text": "is a big one this is a big one marker",
            "start": 3.36,
            "duration": 7.58
        },
        {
            "text": "okay marker JS is weird extreme",
            "start": 5.46,
            "duration": 5.48
        },
        {
            "text": "hello and welcome to low level",
            "start": 14.519,
            "duration": 2.221
        },
        {
            "text": "JavaScript today we're going to be",
            "start": 15.78,
            "duration": 1.98
        },
        {
            "text": "talking about the biggest reason the",
            "start": 16.74,
            "duration": 2.82
        },
        {
            "text": "people okay this video does not start",
            "start": 17.76,
            "duration": 4.98
        },
        {
            "text": "off on the best foot",
            "start": 19.56,
            "duration": 6.24
        },
        {
            "text": "using this idea of low level",
            "start": 22.74,
            "duration": 5.52
        },
        {
            "text": "and JavaScript in the same sentence just",
            "start": 25.8,
            "duration": 4.38
        },
        {
            "text": "somehow feels",
            "start": 28.26,
            "duration": 3.12
        },
        {
            "text": "you know what I mean you know what I",
            "start": 30.18,
            "duration": 3.539
        },
        {
            "text": "mean like just just right out the gate",
            "start": 31.38,
            "duration": 5.54
        },
        {
            "text": "just right out the gate",
            "start": 33.719,
            "duration": 3.201
        },
        {
            "text": "when you allocate a string and you call",
            "start": 37.14,
            "duration": 5.16
        },
        {
            "text": "substring are those two separate strings",
            "start": 39.78,
            "duration": 5.279
        },
        {
            "text": "or one string with a internal reference",
            "start": 42.3,
            "duration": 4.259
        },
        {
            "text": "to just part of the other string could",
            "start": 45.059,
            "duration": 3.601
        },
        {
            "text": "anyone can anybody answer me that",
            "start": 46.559,
            "duration": 3.0
        },
        {
            "text": "question",
            "start": 48.66,
            "duration": 2.28
        },
        {
            "text": "if you can't answer that question",
            "start": 49.559,
            "duration": 4.16
        },
        {
            "text": "confidently",
            "start": 50.94,
            "duration": 2.779
        },
        {
            "text": "then that's not low level okay that is",
            "start": 58.739,
            "duration": 5.46
        },
        {
            "text": "just as easy as it gets",
            "start": 60.96,
            "duration": 6.08
        },
        {
            "text": "reference",
            "start": 64.199,
            "duration": 2.841
        },
        {
            "text": "say the JavaScript is weird which is",
            "start": 67.26,
            "duration": 3.3
        },
        {
            "text": "implicit type coercion now at least once",
            "start": 68.88,
            "duration": 2.7
        },
        {
            "text": "a year there's a new wave of sort of",
            "start": 70.56,
            "duration": 2.58
        },
        {
            "text": "JavaScript is weird posts that Circle",
            "start": 71.58,
            "duration": 2.82
        },
        {
            "text": "the internet and they always use tight",
            "start": 73.14,
            "duration": 2.58
        },
        {
            "text": "coercion in some weird looking way to",
            "start": 74.4,
            "duration": 2.52
        },
        {
            "text": "produce some unexpected results which",
            "start": 75.72,
            "duration": 2.88
        },
        {
            "text": "produces the unusual string banana now",
            "start": 76.92,
            "duration": 3.54
        },
        {
            "text": "this is a toy example of how far this",
            "start": 78.6,
            "duration": 3.42
        },
        {
            "text": "type coercion idea can actually be taken",
            "start": 80.46,
            "duration": 2.88
        },
        {
            "text": "and in today's episode we're going to go",
            "start": 82.02,
            "duration": 3.419
        },
        {
            "text": "to an extreme now disclaimer uh it goes",
            "start": 83.34,
            "duration": 3.0
        },
        {
            "text": "without saying that you should",
            "start": 85.439,
            "duration": 1.981
        },
        {
            "text": "absolutely not write code like this in a",
            "start": 86.34,
            "duration": 1.98
        },
        {
            "text": "professional environment but that",
            "start": 87.42,
            "duration": 1.739
        },
        {
            "text": "doesn't mean that you shouldn't be able",
            "start": 88.32,
            "duration": 2.4
        },
        {
            "text": "to understand it and explore it so with",
            "start": 89.159,
            "duration": 3.0
        },
        {
            "text": "all of that mind let's continue so what",
            "start": 90.72,
            "duration": 2.7
        },
        {
            "text": "if I told you that you can write",
            "start": 92.159,
            "duration": 2.701
        },
        {
            "text": "completely valid JavaScript that can do",
            "start": 93.42,
            "duration": 2.94
        },
        {
            "text": "anything but only uses the following",
            "start": 94.86,
            "duration": 3.48
        },
        {
            "text": "characters not only that but we can",
            "start": 96.36,
            "duration": 3.18
        },
        {
            "text": "easily write a compiler that takes",
            "start": 98.34,
            "duration": 2.58
        },
        {
            "text": "regular JavaScript and turns it into",
            "start": 99.54,
            "duration": 2.82
        },
        {
            "text": "this weird version in something like 45",
            "start": 100.92,
            "duration": 3.42
        },
        {
            "text": "lines of code or so I have always been",
            "start": 102.36,
            "duration": 3.6
        },
        {
            "text": "curious about this and I've wanted to",
            "start": 104.34,
            "duration": 4.739
        },
        {
            "text": "try to write something with it",
            "start": 105.96,
            "duration": 5.82
        },
        {
            "text": "I've always wanted to do this",
            "start": 109.079,
            "duration": 4.741
        },
        {
            "text": "this is very exciting well that's",
            "start": 111.78,
            "duration": 3.06
        },
        {
            "text": "exactly what we're gonna do here today",
            "start": 113.82,
            "duration": 2.7
        },
        {
            "text": "so the basic idea here is really simple",
            "start": 114.84,
            "duration": 3.36
        },
        {
            "text": "JavaScript only has a few basic types",
            "start": 116.52,
            "duration": 3.48
        },
        {
            "text": "like strings numbers booleans or recent",
            "start": 118.2,
            "duration": 3.54
        },
        {
            "text": "objects among some others when you try",
            "start": 120.0,
            "duration": 2.759
        },
        {
            "text": "to do things like adding two different",
            "start": 121.74,
            "duration": 2.76
        },
        {
            "text": "types together JavaScript uses some",
            "start": 122.759,
            "duration": 3.301
        },
        {
            "text": "rules that it has a quarter language to",
            "start": 124.5,
            "duration": 3.18
        },
        {
            "text": "decide how it's going to coerce one of",
            "start": 126.06,
            "duration": 3.119
        },
        {
            "text": "those types into it into the other type",
            "start": 127.68,
            "duration": 2.82
        },
        {
            "text": "so that it can actually add them",
            "start": 129.179,
            "duration": 2.941
        },
        {
            "text": "together so if I try to add a string",
            "start": 130.5,
            "duration": 3.36
        },
        {
            "text": "coercion",
            "start": 132.12,
            "duration": 4.199
        },
        {
            "text": "I hardly even know her to a number the",
            "start": 133.86,
            "duration": 4.08
        },
        {
            "text": "number is going to get coerced into a",
            "start": 136.319,
            "duration": 3.621
        },
        {
            "text": "string if I try and add a number Google",
            "start": 137.94,
            "duration": 5.28
        },
        {
            "text": "I love you I love you too baby is going",
            "start": 139.94,
            "duration": 4.6
        },
        {
            "text": "to get coerced into a number and we can",
            "start": 143.22,
            "duration": 3.36
        },
        {
            "text": "see that we can take the number two and",
            "start": 144.54,
            "duration": 3.48
        },
        {
            "text": "add it to the Boolean value true which",
            "start": 146.58,
            "duration": 2.76
        },
        {
            "text": "will give us the number three because",
            "start": 148.02,
            "duration": 2.7
        },
        {
            "text": "true is coerced into the number one",
            "start": 149.34,
            "duration": 2.88
        },
        {
            "text": "whereas false would be coerced into the",
            "start": 150.72,
            "duration": 3.98
        },
        {
            "text": "number zero",
            "start": 152.22,
            "duration": 2.48
        },
        {
            "text": "so you can also use addition or",
            "start": 156.48,
            "duration": 2.88
        },
        {
            "text": "subtraction with an expression to just",
            "start": 157.92,
            "duration": 2.94
        },
        {
            "text": "cast one thing into a number if we have",
            "start": 159.36,
            "duration": 2.76
        },
        {
            "text": "just plus with an array that's actually",
            "start": 160.86,
            "duration": 3.18
        },
        {
            "text": "going to give us zero this is called a",
            "start": 162.12,
            "duration": 3.3
        },
        {
            "text": "unary expression because you only have",
            "start": 164.04,
            "duration": 3.059
        },
        {
            "text": "one thing acting on word plus if we were",
            "start": 165.42,
            "duration": 3.42
        },
        {
            "text": "to use a Boolean value instead like plus",
            "start": 167.099,
            "duration": 4.081
        },
        {
            "text": "true we would see it turn into a one so",
            "start": 168.84,
            "duration": 3.78
        },
        {
            "text": "we can kind of transform one kind of",
            "start": 171.18,
            "duration": 2.88
        },
        {
            "text": "value into another so the banana example",
            "start": 172.62,
            "duration": 2.52
        },
        {
            "text": "that you see all over the Internet which",
            "start": 174.06,
            "duration": 2.22
        },
        {
            "text": "is uh something a little bit more like",
            "start": 175.14,
            "duration": 4.08
        },
        {
            "text": "can we wind back up there did I just",
            "start": 176.28,
            "duration": 4.86
        },
        {
            "text": "hear banana",
            "start": 179.22,
            "duration": 5.4
        },
        {
            "text": "did we have a Niner in there",
            "start": 181.14,
            "duration": 6.0
        },
        {
            "text": "so we can kind of transform one kind of",
            "start": 184.62,
            "duration": 4.56
        },
        {
            "text": "value into another so the banana example",
            "start": 187.14,
            "duration": 3.78
        },
        {
            "text": "did you see yeah he definitely tossed",
            "start": 189.18,
            "duration": 3.3
        },
        {
            "text": "out a banana in there that's that's full",
            "start": 190.92,
            "duration": 3.12
        },
        {
            "text": "banana I don't know but I don't know",
            "start": 192.48,
            "duration": 3.24
        },
        {
            "text": "about this banana I don't see the Yar in",
            "start": 194.04,
            "duration": 3.059
        },
        {
            "text": "there I don't know if I like that I",
            "start": 195.72,
            "duration": 3.599
        },
        {
            "text": "don't know if I like it",
            "start": 197.099,
            "duration": 3.601
        },
        {
            "text": "you'll over the Internet which is uh",
            "start": 199.319,
            "duration": 2.7
        },
        {
            "text": "something a little bit more like this uh",
            "start": 200.7,
            "duration": 3.539
        },
        {
            "text": "British people learn to speak English",
            "start": 202.019,
            "duration": 4.08
        },
        {
            "text": "okay it sucks to invent something and",
            "start": 204.239,
            "duration": 3.241
        },
        {
            "text": "all",
            "start": 206.099,
            "duration": 3.601
        },
        {
            "text": "okay it's always",
            "start": 207.48,
            "duration": 3.96
        },
        {
            "text": "looks in the Stars you know five stars",
            "start": 209.7,
            "duration": 3.6
        },
        {
            "text": "we got that wrong you just happen to get",
            "start": 211.44,
            "duration": 4.14
        },
        {
            "text": "a whole language wrong yes uh we have",
            "start": 213.3,
            "duration": 4.74
        },
        {
            "text": "the string B plus a and then plus and",
            "start": 215.58,
            "duration": 4.98
        },
        {
            "text": "then a space plus and then a plus a and",
            "start": 218.04,
            "duration": 4.08
        },
        {
            "text": "then we do a two lowercase on that we",
            "start": 220.56,
            "duration": 2.819
        },
        {
            "text": "should see this come out with the string",
            "start": 222.12,
            "duration": 3.42
        },
        {
            "text": "banana and that is because what we're",
            "start": 223.379,
            "duration": 3.72
        },
        {
            "text": "trying to do here the root of it is that",
            "start": 225.54,
            "duration": 3.3
        },
        {
            "text": "we're trying to take the character a and",
            "start": 227.099,
            "duration": 3.541
        },
        {
            "text": "convert into a number plus which of",
            "start": 228.84,
            "duration": 2.819
        },
        {
            "text": "course is going to result in not a",
            "start": 230.64,
            "duration": 2.34
        },
        {
            "text": "number because a is not a number and",
            "start": 231.659,
            "duration": 2.821
        },
        {
            "text": "cannot be sensibly transformed into a",
            "start": 232.98,
            "duration": 2.58
        },
        {
            "text": "number and if you're too lowercase that",
            "start": 234.48,
            "duration": 1.979
        },
        {
            "text": "you'll get the middle part of the string",
            "start": 235.56,
            "duration": 1.8
        },
        {
            "text": "and if we look at what it was before",
            "start": 236.459,
            "duration": 3.601
        },
        {
            "text": "you'll see that this is really this so",
            "start": 237.36,
            "duration": 3.9
        },
        {
            "text": "what we're actually doing is saying B",
            "start": 240.06,
            "duration": 3.36
        },
        {
            "text": "plus a plus not a number plus a",
            "start": 241.26,
            "duration": 4.259
        },
        {
            "text": "lowercase it's actually fairly simple",
            "start": 243.42,
            "duration": 3.959
        },
        {
            "text": "this is the set of basic things that",
            "start": 245.519,
            "duration": 3.3
        },
        {
            "text": "we're going to use in order to don't",
            "start": 247.379,
            "duration": 3.301
        },
        {
            "text": "tell Matt podcock I said this okay or",
            "start": 248.819,
            "duration": 3.901
        },
        {
            "text": "matt polcock",
            "start": 250.68,
            "duration": 4.74
        },
        {
            "text": "don't tell Matt peacock okay we're not",
            "start": 252.72,
            "duration": 4.139
        },
        {
            "text": "going to talk about that okay just don't",
            "start": 255.42,
            "duration": 5.76
        },
        {
            "text": "tweet that don't tweak this moment",
            "start": 256.859,
            "duration": 6.12
        },
        {
            "text": "there's English and then there are",
            "start": 261.18,
            "duration": 3.299
        },
        {
            "text": "mistakes this is true thank you for",
            "start": 262.979,
            "duration": 3.78
        },
        {
            "text": "recognizing that",
            "start": 264.479,
            "duration": 4.5
        },
        {
            "text": "I think way cooler so first of all let's",
            "start": 266.759,
            "duration": 3.541
        },
        {
            "text": "figure out how we can get numbers we've",
            "start": 268.979,
            "duration": 2.461
        },
        {
            "text": "already seen that we can get number zero",
            "start": 270.3,
            "duration": 3.3
        },
        {
            "text": "so zero then is just plus empty array",
            "start": 271.44,
            "duration": 3.36
        },
        {
            "text": "now I'm going to store that way in a",
            "start": 273.6,
            "duration": 2.879
        },
        {
            "text": "string so we can reference it later so",
            "start": 274.8,
            "duration": 2.94
        },
        {
            "text": "we need to get to the Value Plus true",
            "start": 276.479,
            "duration": 2.94
        },
        {
            "text": "but we can't use true because it's not",
            "start": 277.74,
            "duration": 2.7
        },
        {
            "text": "in our list of value characters what we",
            "start": 279.419,
            "duration": 2.34
        },
        {
            "text": "actually need to do is to get it somehow",
            "start": 280.44,
            "duration": 3.42
        },
        {
            "text": "from from our main type so let's stop an",
            "start": 281.759,
            "duration": 3.121
        },
        {
            "text": "empty array and if we use the",
            "start": 283.86,
            "duration": 2.279
        },
        {
            "text": "exclamation mark we'll cast that to a",
            "start": 284.88,
            "duration": 2.28
        },
        {
            "text": "Boolean don't end up being the value",
            "start": 286.139,
            "duration": 2.401
        },
        {
            "text": "false but we can get it to be true by",
            "start": 287.16,
            "duration": 2.7
        },
        {
            "text": "just using one more exclamation mark",
            "start": 288.54,
            "duration": 2.879
        },
        {
            "text": "which don't want it to be true and then",
            "start": 289.86,
            "duration": 2.52
        },
        {
            "text": "we already know that if we just put a",
            "start": 291.419,
            "duration": 2.101
        },
        {
            "text": "plus in front of this we'll turn that",
            "start": 292.38,
            "duration": 2.4
        },
        {
            "text": "into a number and so now we have the",
            "start": 293.52,
            "duration": 2.399
        },
        {
            "text": "number one again I'm going to wrap it up",
            "start": 294.78,
            "duration": 3.359
        },
        {
            "text": "in a string now how could we get any",
            "start": 295.919,
            "duration": 3.901
        },
        {
            "text": "number well pretty obviously we could we",
            "start": 298.139,
            "duration": 2.761
        },
        {
            "text": "could just sort of keep adding these to",
            "start": 299.82,
            "duration": 2.64
        },
        {
            "text": "each other so let's say we wanted to we",
            "start": 300.9,
            "duration": 3.019
        },
        {
            "text": "could take this value",
            "start": 302.46,
            "duration": 4.56
        },
        {
            "text": "that would give us the number two",
            "start": 303.919,
            "duration": 4.181
        },
        {
            "text": "um and clearly we could do this on into",
            "start": 307.02,
            "duration": 2.459
        },
        {
            "text": "infinity and so let's just write a",
            "start": 308.1,
            "duration": 2.34
        },
        {
            "text": "general way of doing that let's write a",
            "start": 309.479,
            "duration": 2.28
        },
        {
            "text": "function chord number is going to take",
            "start": 310.44,
            "duration": 2.4
        },
        {
            "text": "an n",
            "start": 311.759,
            "duration": 2.88
        },
        {
            "text": "and basically all we're going to do is",
            "start": 312.84,
            "duration": 3.78
        },
        {
            "text": "to create an array we can do that with",
            "start": 314.639,
            "duration": 3.78
        },
        {
            "text": "the array.front we provide a length",
            "start": 316.62,
            "duration": 3.24
        },
        {
            "text": "which is n because we want n elements",
            "start": 318.419,
            "duration": 2.461
        },
        {
            "text": "and then we can use the second argument",
            "start": 319.86,
            "duration": 2.52
        },
        {
            "text": "to say that that should always be the",
            "start": 320.88,
            "duration": 2.58
        },
        {
            "text": "number one and then we join them all",
            "start": 322.38,
            "duration": 2.879
        },
        {
            "text": "together with a plus now we can return",
            "start": 323.46,
            "duration": 3.72
        },
        {
            "text": "that and so let's see if this works the",
            "start": 325.259,
            "duration": 3.481
        },
        {
            "text": "way we expect it to if we want the",
            "start": 327.18,
            "duration": 3.18
        },
        {
            "text": "number seven we should be able to say",
            "start": 328.74,
            "duration": 4.019
        },
        {
            "text": "number seven and we get this kind of",
            "start": 330.36,
            "duration": 3.779
        },
        {
            "text": "expression and if we take that out and",
            "start": 332.759,
            "duration": 3.121
        },
        {
            "text": "we run that here in the debugger we'll",
            "start": 334.139,
            "duration": 3.481
        },
        {
            "text": "see the number seven perfect so now we",
            "start": 335.88,
            "duration": 3.3
        },
        {
            "text": "have a way to get any normal number",
            "start": 337.62,
            "duration": 3.419
        },
        {
            "text": "turned into our Strange sequence of",
            "start": 339.18,
            "duration": 3.18
        },
        {
            "text": "characters so now that we have these",
            "start": 341.039,
            "duration": 2.641
        },
        {
            "text": "numbers our goal is going to be they're",
            "start": 342.36,
            "duration": 5.88
        },
        {
            "text": "following letters that is most certainly",
            "start": 343.68,
            "duration": 7.079
        },
        {
            "text": "how brain [\u00a0__\u00a0] was discovered is that",
            "start": 348.24,
            "duration": 3.78
        },
        {
            "text": "somebody discovered that you can",
            "start": 350.759,
            "duration": 3.061
        },
        {
            "text": "actually write a subset of the",
            "start": 352.02,
            "duration": 3.239
        },
        {
            "text": "JavaScript programming language like",
            "start": 353.82,
            "duration": 3.3
        },
        {
            "text": "this okay so",
            "start": 355.259,
            "duration": 3.421
        },
        {
            "text": "doing these strange operations I'm gonna",
            "start": 357.12,
            "duration": 2.88
        },
        {
            "text": "write down here",
            "start": 358.68,
            "duration": 2.72
        },
        {
            "text": "from",
            "start": 360.0,
            "duration": 4.74
        },
        {
            "text": "c-h-a-d-e-t capital s i n g small c u p",
            "start": 361.4,
            "duration": 4.6
        },
        {
            "text": "the character space which I'll represent",
            "start": 364.74,
            "duration": 3.06
        },
        {
            "text": "here with the square bracket",
            "start": 366.0,
            "duration": 3.139
        },
        {
            "text": "from",
            "start": 367.8,
            "duration": 5.28
        },
        {
            "text": "what word is that from Cadet sing cup",
            "start": 369.139,
            "duration": 5.801
        },
        {
            "text": "what does that mean",
            "start": 373.08,
            "duration": 3.119
        },
        {
            "text": "I don't even get I don't even know",
            "start": 374.94,
            "duration": 2.699
        },
        {
            "text": "what's this what's this function we need",
            "start": 376.199,
            "duration": 2.881
        },
        {
            "text": "a backslash",
            "start": 377.639,
            "duration": 3.06
        },
        {
            "text": "now what exactly do we need these",
            "start": 379.08,
            "duration": 2.52
        },
        {
            "text": "characters you might ask well that's",
            "start": 380.699,
            "duration": 1.681
        },
        {
            "text": "gonna become clear as we progress",
            "start": 381.6,
            "duration": 2.159
        },
        {
            "text": "through the Journey but by the end if we",
            "start": 382.38,
            "duration": 2.64
        },
        {
            "text": "have these characters we will be able to",
            "start": 383.759,
            "duration": 3.66
        },
        {
            "text": "encode anything in JavaScript and I keep",
            "start": 385.02,
            "duration": 4.32
        },
        {
            "text": "seeing Chad I don't know how Chad has",
            "start": 387.419,
            "duration": 4.441
        },
        {
            "text": "ruined me when I see it all I see is",
            "start": 389.34,
            "duration": 6.26
        },
        {
            "text": "Chad and I don't know how to spell it",
            "start": 391.86,
            "duration": 3.74
        },
        {
            "text": "God regrets free will after this",
            "start": 396.12,
            "duration": 6.38
        },
        {
            "text": "Chad at sing cup",
            "start": 398.94,
            "duration": 3.56
        },
        {
            "text": "let's get to it the first thing I'm",
            "start": 404.22,
            "duration": 2.759
        },
        {
            "text": "going to do is I believe this actually",
            "start": 405.479,
            "duration": 3.121
        },
        {
            "text": "was one of the Twitter users or one of",
            "start": 406.979,
            "duration": 2.881
        },
        {
            "text": "the Twitter devs that Elon was",
            "start": 408.6,
            "duration": 2.7
        },
        {
            "text": "complaining about I'm gonna write an",
            "start": 409.86,
            "duration": 2.399
        },
        {
            "text": "object here I'm going to call it map",
            "start": 411.3,
            "duration": 1.679
        },
        {
            "text": "we're going to store all the characters",
            "start": 412.259,
            "duration": 2.16
        },
        {
            "text": "that we collect up in here and the first",
            "start": 412.979,
            "duration": 3.181
        },
        {
            "text": "one we're gonna get is a now we can get",
            "start": 414.419,
            "duration": 3.301
        },
        {
            "text": "a by using the famous not the number",
            "start": 416.16,
            "duration": 2.879
        },
        {
            "text": "example so there's many ways you can get",
            "start": 417.72,
            "duration": 3.18
        },
        {
            "text": "another number we can cast a letter to a",
            "start": 419.039,
            "duration": 3.0
        },
        {
            "text": "number but we don't have a in our",
            "start": 420.9,
            "duration": 2.34
        },
        {
            "text": "disposal but what we do have is an",
            "start": 422.039,
            "duration": 3.241
        },
        {
            "text": "object if we run this then we'll see",
            "start": 423.24,
            "duration": 3.299
        },
        {
            "text": "that we get another number but we",
            "start": 425.28,
            "duration": 2.639
        },
        {
            "text": "actually need a string and a good way",
            "start": 426.539,
            "duration": 2.701
        },
        {
            "text": "and the way we'll use for all of these",
            "start": 427.919,
            "duration": 2.701
        },
        {
            "text": "things to convert something which is not",
            "start": 429.24,
            "duration": 2.459
        },
        {
            "text": "yet a string but we want a string",
            "start": 430.62,
            "duration": 2.579
        },
        {
            "text": "version of it is to Simply add an empty",
            "start": 431.699,
            "duration": 3.12
        },
        {
            "text": "array so in the JavaScript typo version",
            "start": 433.199,
            "duration": 2.581
        },
        {
            "text": "rules that's going to force this thing",
            "start": 434.819,
            "duration": 2.22
        },
        {
            "text": "to be a string and we're going to be",
            "start": 435.78,
            "duration": 2.52
        },
        {
            "text": "able to get the string not the number",
            "start": 437.039,
            "duration": 2.521
        },
        {
            "text": "and strings have the property in",
            "start": 438.3,
            "duration": 2.399
        },
        {
            "text": "JavaScript that you can index them like",
            "start": 439.56,
            "duration": 3.12
        },
        {
            "text": "their arrays so we can uh we can provide",
            "start": 440.699,
            "duration": 3.421
        },
        {
            "text": "an index and extract the character of",
            "start": 442.68,
            "duration": 3.0
        },
        {
            "text": "that index so if I wrap this up in",
            "start": 444.12,
            "duration": 2.519
        },
        {
            "text": "parentheses and then we use square",
            "start": 445.68,
            "duration": 2.7
        },
        {
            "text": "brackets the second character in here so",
            "start": 446.639,
            "duration": 3.361
        },
        {
            "text": "the index number one is is the letter A",
            "start": 448.38,
            "duration": 3.3
        },
        {
            "text": "so we can put in here the number one and",
            "start": 450.0,
            "duration": 2.759
        },
        {
            "text": "we should see the letter A but we can't",
            "start": 451.68,
            "duration": 2.4
        },
        {
            "text": "use the number one uh we need to use our",
            "start": 452.759,
            "duration": 3.0
        },
        {
            "text": "special number encoding so we can",
            "start": 454.08,
            "duration": 3.36
        },
        {
            "text": "actually just use number and one but",
            "start": 455.759,
            "duration": 2.641
        },
        {
            "text": "this whole thing we're going to store it",
            "start": 457.44,
            "duration": 1.86
        },
        {
            "text": "as a string because we're going to look",
            "start": 458.4,
            "duration": 1.799
        },
        {
            "text": "back at it later so what I'm going to do",
            "start": 459.3,
            "duration": 1.739
        },
        {
            "text": "is I'm going to put this in a template",
            "start": 460.199,
            "duration": 1.921
        },
        {
            "text": "string and we can evaluate the number",
            "start": 461.039,
            "duration": 2.28
        },
        {
            "text": "inside and if we take a look at this",
            "start": 462.12,
            "duration": 2.699
        },
        {
            "text": "we'll see this strange little concoction",
            "start": 463.319,
            "duration": 3.121
        },
        {
            "text": "we'll just verify that we do it get the",
            "start": 464.819,
            "duration": 3.78
        },
        {
            "text": "letter A if we try to add an empty array",
            "start": 466.44,
            "duration": 3.84
        },
        {
            "text": "to an object it's going to force the",
            "start": 468.599,
            "duration": 3.481
        },
        {
            "text": "object to be interpreted as a string and",
            "start": 470.28,
            "duration": 3.3
        },
        {
            "text": "an object when it types A String always",
            "start": 472.08,
            "duration": 2.76
        },
        {
            "text": "yields the same results we take an empty",
            "start": 473.58,
            "duration": 2.76
        },
        {
            "text": "object we add an array and we take a",
            "start": 474.84,
            "duration": 2.52
        },
        {
            "text": "look we're going to see the value object",
            "start": 476.34,
            "duration": 2.04
        },
        {
            "text": "objects but we can use this to our",
            "start": 477.36,
            "duration": 2.1
        },
        {
            "text": "advantage because this contains quite a",
            "start": 478.38,
            "duration": 2.4
        },
        {
            "text": "lot of characters we need for instance",
            "start": 479.46,
            "duration": 3.12
        },
        {
            "text": "it contains the character o it contains",
            "start": 480.78,
            "duration": 3.84
        },
        {
            "text": "e c t the space and so let's just go",
            "start": 482.58,
            "duration": 4.26
        },
        {
            "text": "expecting these exactly even though even",
            "start": 484.62,
            "duration": 3.78
        },
        {
            "text": "the person the background was like it",
            "start": 486.84,
            "duration": 3.06
        },
        {
            "text": "was angry about this okay if you can't",
            "start": 488.4,
            "duration": 3.72
        },
        {
            "text": "use one you should use a number",
            "start": 489.9,
            "duration": 4.26
        },
        {
            "text": "I like the idea",
            "start": 492.12,
            "duration": 3.54
        },
        {
            "text": "that this is how I'm going to program",
            "start": 494.16,
            "duration": 4.7
        },
        {
            "text": "JavaScript from here on out",
            "start": 495.66,
            "duration": 3.2
        },
        {
            "text": "okay there we go",
            "start": 501.66,
            "duration": 2.78
        },
        {
            "text": "let's check all the things and when I",
            "start": 508.319,
            "duration": 2.82
        },
        {
            "text": "shortcut we can use for this is eval",
            "start": 509.94,
            "duration": 2.58
        },
        {
            "text": "which will let us just run this s code",
            "start": 511.139,
            "duration": 3.96
        },
        {
            "text": "these strings so if we have o we have e",
            "start": 512.52,
            "duration": 6.48
        },
        {
            "text": "we have e c t but oh all right the",
            "start": 515.099,
            "duration": 5.581
        },
        {
            "text": "boolean's true and false are also a nice",
            "start": 519.0,
            "duration": 3.0
        },
        {
            "text": "source of characters we know we can get",
            "start": 520.68,
            "duration": 2.64
        },
        {
            "text": "a Boolean with an exclamation mark",
            "start": 522.0,
            "duration": 3.06
        },
        {
            "text": "square brackets and then we can add so",
            "start": 523.32,
            "duration": 3.78
        },
        {
            "text": "you can't quite write anything you're",
            "start": 525.06,
            "duration": 3.839
        },
        {
            "text": "kind of restricted to the amount of uh",
            "start": 527.1,
            "duration": 5.299
        },
        {
            "text": "strings you can create in the beginning",
            "start": 528.899,
            "duration": 3.5
        },
        {
            "text": "is that fair",
            "start": 532.68,
            "duration": 2.839
        },
        {
            "text": "Another Empty way to cause that to a",
            "start": 536.58,
            "duration": 2.16
        },
        {
            "text": "string that's going to give us the",
            "start": 538.08,
            "duration": 1.92
        },
        {
            "text": "string false and from there we can",
            "start": 538.74,
            "duration": 4.98
        },
        {
            "text": "extract F in zeroth position",
            "start": 540.0,
            "duration": 5.82
        },
        {
            "text": "and we can extract s in the in the third",
            "start": 543.72,
            "duration": 3.36
        },
        {
            "text": "position",
            "start": 545.82,
            "duration": 2.88
        },
        {
            "text": "if we cast this to true then we can get",
            "start": 547.08,
            "duration": 4.02
        },
        {
            "text": "R in the first position",
            "start": 548.7,
            "duration": 3.84
        },
        {
            "text": "and we can get u in the second position",
            "start": 551.1,
            "duration": 3.66
        },
        {
            "text": "okay well if you let this I and N we can",
            "start": 552.54,
            "duration": 3.78
        },
        {
            "text": "use the special floating Point numerical",
            "start": 554.76,
            "duration": 3.48
        },
        {
            "text": "value Infinity can be obtained in many",
            "start": 556.32,
            "duration": 3.0
        },
        {
            "text": "ways but one simple way is just to",
            "start": 558.24,
            "duration": 2.58
        },
        {
            "text": "divide a non-zero number by zero let's",
            "start": 559.32,
            "duration": 2.699
        },
        {
            "text": "take what we have here we know we can",
            "start": 560.82,
            "duration": 2.82
        },
        {
            "text": "get one and we know we can get zero in",
            "start": 562.019,
            "duration": 3.481
        },
        {
            "text": "this way we should get infinity and then",
            "start": 563.64,
            "duration": 5.28
        },
        {
            "text": "if we add to this an empty array",
            "start": 565.5,
            "duration": 6.44
        },
        {
            "text": "we'll get the string",
            "start": 568.92,
            "duration": 3.02
        },
        {
            "text": "okay and here actually I've just",
            "start": 574.74,
            "duration": 2.58
        },
        {
            "text": "realized there's a small mistake uh on",
            "start": 576.0,
            "duration": 2.82
        },
        {
            "text": "the F because we're providing zero in",
            "start": 577.32,
            "duration": 2.76
        },
        {
            "text": "here and there's no way for us to get",
            "start": 578.82,
            "duration": 2.519
        },
        {
            "text": "zero from our current function so what",
            "start": 580.08,
            "duration": 2.34
        },
        {
            "text": "we should actually do is add in a little",
            "start": 581.339,
            "duration": 2.461
        },
        {
            "text": "condition here which says if n is zero",
            "start": 582.42,
            "duration": 3.18
        },
        {
            "text": "then just return zero",
            "start": 583.8,
            "duration": 3.0
        },
        {
            "text": "Okay so we've already got a good portion",
            "start": 585.6,
            "duration": 2.34
        },
        {
            "text": "of what we need but in order to get the",
            "start": 586.8,
            "duration": 1.92
        },
        {
            "text": "rest of the characters we're gonna need",
            "start": 587.94,
            "duration": 1.98
        },
        {
            "text": "to crank the crazy ratchet a little bit",
            "start": 588.72,
            "duration": 2.7
        },
        {
            "text": "if you're all good at anagrams you might",
            "start": 589.92,
            "duration": 2.7
        },
        {
            "text": "have noticed that the letters we have so",
            "start": 591.42,
            "duration": 2.82
        },
        {
            "text": "far can spell out some words one such",
            "start": 592.62,
            "duration": 3.24
        },
        {
            "text": "word is Constructor now all values in",
            "start": 594.24,
            "duration": 2.76
        },
        {
            "text": "JavaScript are technically a kind of",
            "start": 595.86,
            "duration": 1.979
        },
        {
            "text": "object and you can always access",
            "start": 597.0,
            "duration": 2.1
        },
        {
            "text": "properties on them with square bracket",
            "start": 597.839,
            "duration": 2.94
        },
        {
            "text": "syntax the following are quite valid in",
            "start": 599.1,
            "duration": 3.239
        },
        {
            "text": "JavaScript we can actually open up",
            "start": 600.779,
            "duration": 4.021
        },
        {
            "text": "square brackets with a string and C the",
            "start": 602.339,
            "duration": 4.5
        },
        {
            "text": "tostring function simply by adding a",
            "start": 604.8,
            "duration": 3.659
        },
        {
            "text": "string in here and likewise we can use",
            "start": 606.839,
            "duration": 3.241
        },
        {
            "text": "the Constructor function which will",
            "start": 608.459,
            "duration": 3.181
        },
        {
            "text": "provide us back the Constructor so how",
            "start": 610.08,
            "duration": 3.12
        },
        {
            "text": "can we use this to our advantage if we",
            "start": 611.64,
            "duration": 3.42
        },
        {
            "text": "were to use this on string so we can",
            "start": 613.2,
            "duration": 3.18
        },
        {
            "text": "make a simple string just by adding two",
            "start": 615.06,
            "duration": 2.58
        },
        {
            "text": "empty arrays together we would now",
            "start": 616.38,
            "duration": 2.459
        },
        {
            "text": "actually be able to write this uh this",
            "start": 617.64,
            "duration": 3.3
        },
        {
            "text": "word construct out using our map um but",
            "start": 618.839,
            "duration": 3.601
        },
        {
            "text": "it might be nice to have a sort of uh oh",
            "start": 620.94,
            "duration": 2.64
        },
        {
            "text": "a more convenient way of doing that so",
            "start": 622.44,
            "duration": 1.74
        },
        {
            "text": "what I'm going to do is I'm going to",
            "start": 623.58,
            "duration": 2.28
        },
        {
            "text": "write a function called from string from",
            "start": 624.18,
            "duration": 2.82
        },
        {
            "text": "string is going to take a variable s",
            "start": 625.86,
            "duration": 2.22
        },
        {
            "text": "which we're going to immediately split",
            "start": 627.0,
            "duration": 2.58
        },
        {
            "text": "into an array of characters and then",
            "start": 628.08,
            "duration": 3.06
        },
        {
            "text": "we're going to map each character to be",
            "start": 629.58,
            "duration": 3.5
        },
        {
            "text": "the fan",
            "start": 631.14,
            "duration": 4.74
        },
        {
            "text": "oh my goodness",
            "start": 633.08,
            "duration": 5.199
        },
        {
            "text": "I never even thought about that",
            "start": 635.88,
            "duration": 6.84
        },
        {
            "text": "oh it's so right of course you could",
            "start": 638.279,
            "duration": 6.781
        },
        {
            "text": "I okay so I went through this exercise a",
            "start": 642.72,
            "duration": 3.48
        },
        {
            "text": "while ago",
            "start": 645.06,
            "duration": 3.3
        },
        {
            "text": "where I tried to make the dumbest",
            "start": 646.2,
            "duration": 5.699
        },
        {
            "text": "JavaScript program ever print out",
            "start": 648.36,
            "duration": 6.78
        },
        {
            "text": "use rust instead",
            "start": 651.899,
            "duration": 7.281
        },
        {
            "text": "but I couldn't figure out how to do it",
            "start": 655.14,
            "duration": 4.04
        },
        {
            "text": "because I couldn't get all the letters",
            "start": 659.76,
            "duration": 3.8
        },
        {
            "text": "and look at that",
            "start": 664.2,
            "duration": 3.199
        },
        {
            "text": "uh huh",
            "start": 670.68,
            "duration": 5.54
        },
        {
            "text": "um",
            "start": 674.04,
            "duration": 2.18
        },
        {
            "text": "I can't believe this",
            "start": 677.16,
            "duration": 5.359
        },
        {
            "text": "I can't even believe it",
            "start": 679.32,
            "duration": 3.199
        },
        {
            "text": "let's keep on going your Insight on map",
            "start": 689.519,
            "duration": 3.361
        },
        {
            "text": "and then we're going to join it all back",
            "start": 691.8,
            "duration": 3.42
        },
        {
            "text": "together with pluses and so this front",
            "start": 692.88,
            "duration": 4.56
        },
        {
            "text": "string if we were to use it uh and",
            "start": 695.22,
            "duration": 4.619
        },
        {
            "text": "provided the string construct them",
            "start": 697.44,
            "duration": 3.72
        },
        {
            "text": "and then run this piece of code we're",
            "start": 699.839,
            "duration": 3.18
        },
        {
            "text": "going to get quite an elaborate string",
            "start": 701.16,
            "duration": 3.299
        },
        {
            "text": "and I'm going to cut and paste this into",
            "start": 703.019,
            "duration": 2.76
        },
        {
            "text": "the debugger so we can see it what we",
            "start": 704.459,
            "duration": 2.041
        },
        {
            "text": "actually get here is the string",
            "start": 705.779,
            "duration": 2.581
        },
        {
            "text": "Constructor and if we take that one step",
            "start": 706.5,
            "duration": 3.959
        },
        {
            "text": "further and we take all of what we just",
            "start": 708.36,
            "duration": 4.08
        },
        {
            "text": "got we add an empty array to it we'll",
            "start": 710.459,
            "duration": 3.12
        },
        {
            "text": "have that as a string where we can",
            "start": 712.44,
            "duration": 4.2
        },
        {
            "text": "extract the large capital S there so",
            "start": 713.579,
            "duration": 5.461
        },
        {
            "text": "let's try that",
            "start": 716.64,
            "duration": 3.96
        },
        {
            "text": "I just held my breath I just held my",
            "start": 719.04,
            "duration": 3.419
        },
        {
            "text": "breath",
            "start": 720.6,
            "duration": 4.44
        },
        {
            "text": "oh gosh I just I I actually just held my",
            "start": 722.459,
            "duration": 3.601
        },
        {
            "text": "breath now there are a couple more",
            "start": 725.04,
            "duration": 2.28
        },
        {
            "text": "Constructors that we can abuse in the",
            "start": 726.06,
            "duration": 3.42
        },
        {
            "text": "same way uh namely The regex Constructor",
            "start": 727.32,
            "duration": 3.72
        },
        {
            "text": "we can we can get that to get the letter",
            "start": 729.48,
            "duration": 2.46
        },
        {
            "text": "P",
            "start": 731.04,
            "duration": 2.22
        },
        {
            "text": "um and all we have to do is to create a",
            "start": 731.94,
            "duration": 3.6
        },
        {
            "text": "minimal regex something like this and",
            "start": 733.26,
            "duration": 4.44
        },
        {
            "text": "get the function Constructor and we",
            "start": 735.54,
            "duration": 3.359
        },
        {
            "text": "should be able to I'm still holding my",
            "start": 737.7,
            "duration": 3.92
        },
        {
            "text": "breath oh gosh",
            "start": 738.899,
            "duration": 2.721
        },
        {
            "text": "now we have one more easy character that",
            "start": 745.32,
            "duration": 3.3
        },
        {
            "text": "we can extract without too much hassle",
            "start": 747.36,
            "duration": 2.76
        },
        {
            "text": "which is the backslash so we have to",
            "start": 748.62,
            "duration": 2.76
        },
        {
            "text": "escape the backslash of course and the",
            "start": 750.12,
            "duration": 3.24
        },
        {
            "text": "way we can get it is to just um again",
            "start": 751.38,
            "duration": 3.12
        },
        {
            "text": "create a regular expression but we'll",
            "start": 753.36,
            "duration": 2.82
        },
        {
            "text": "put a backslash in there and in order",
            "start": 754.5,
            "duration": 2.82
        },
        {
            "text": "for this to work because of the way that",
            "start": 756.18,
            "duration": 2.339
        },
        {
            "text": "string escaping works we need to put two",
            "start": 757.32,
            "duration": 2.78
        },
        {
            "text": "backslashes in there",
            "start": 758.519,
            "duration": 3.781
        },
        {
            "text": "and we need there to be two backslashes",
            "start": 760.1,
            "duration": 4.5
        },
        {
            "text": "when we evaluate it",
            "start": 762.3,
            "duration": 4.92
        },
        {
            "text": "actually in order to cast it to a string",
            "start": 764.6,
            "duration": 4.0
        },
        {
            "text": "and then we can look up the index which",
            "start": 767.22,
            "duration": 4.76
        },
        {
            "text": "is simply the number",
            "start": 768.6,
            "duration": 3.38
        },
        {
            "text": "things are about to get tricky again",
            "start": 777.24,
            "duration": 1.98
        },
        {
            "text": "because the characters that we have left",
            "start": 778.32,
            "duration": 2.1
        },
        {
            "text": "over now are not gonna be found in this",
            "start": 779.22,
            "duration": 2.1
        },
        {
            "text": "way we're gonna have to get them another",
            "start": 780.42,
            "duration": 2.159
        },
        {
            "text": "way the two-string function of numbers",
            "start": 781.32,
            "duration": 2.639
        },
        {
            "text": "is actually quite interesting because it",
            "start": 782.579,
            "duration": 3.541
        },
        {
            "text": "takes okay this this is gonna blow me I",
            "start": 783.959,
            "duration": 4.021
        },
        {
            "text": "already feel like I'm gonna lose my [\u00a0__\u00a0]",
            "start": 786.12,
            "duration": 4.2
        },
        {
            "text": "when I see this I'm",
            "start": 787.98,
            "duration": 4.859
        },
        {
            "text": "I am genuinely excited right now",
            "start": 790.32,
            "duration": 4.38
        },
        {
            "text": "this can't",
            "start": 792.839,
            "duration": 3.841
        },
        {
            "text": "this can't be real",
            "start": 794.7,
            "duration": 3.66
        },
        {
            "text": "this can't it can't be real this can't",
            "start": 796.68,
            "duration": 3.659
        },
        {
            "text": "actually exist I",
            "start": 798.36,
            "duration": 3.719
        },
        {
            "text": "it's an extra argument and that says",
            "start": 800.339,
            "duration": 3.361
        },
        {
            "text": "which base the number that stream should",
            "start": 802.079,
            "duration": 3.361
        },
        {
            "text": "eventually be converted to um so if we",
            "start": 803.7,
            "duration": 3.78
        },
        {
            "text": "would have the number 170 let's say and",
            "start": 805.44,
            "duration": 3.0
        },
        {
            "text": "we would convert that through a string",
            "start": 807.48,
            "duration": 2.4
        },
        {
            "text": "by default that's going to be converted",
            "start": 808.44,
            "duration": 2.94
        },
        {
            "text": "in base 10. so we're going to get the",
            "start": 809.88,
            "duration": 3.24
        },
        {
            "text": "string 170. but if we were to provide a",
            "start": 811.38,
            "duration": 3.24
        },
        {
            "text": "different base say base two we're going",
            "start": 813.12,
            "duration": 2.76
        },
        {
            "text": "to get the binary representation of that",
            "start": 814.62,
            "duration": 4.08
        },
        {
            "text": "if we were to use base 16 we would get",
            "start": 815.88,
            "duration": 4.92
        },
        {
            "text": "the hexadecimal representation and the",
            "start": 818.7,
            "duration": 3.06
        },
        {
            "text": "nice thing is that bases which are",
            "start": 820.8,
            "duration": 2.219
        },
        {
            "text": "larger than 10 they begin to use the",
            "start": 821.76,
            "duration": 2.579
        },
        {
            "text": "alphabet in order to index the numbers",
            "start": 823.019,
            "duration": 3.06
        },
        {
            "text": "so we can use that to our advantages we",
            "start": 824.339,
            "duration": 2.94
        },
        {
            "text": "can now actually make the string to",
            "start": 826.079,
            "duration": 3.481
        },
        {
            "text": "string we can get the letter d by saying",
            "start": 827.279,
            "duration": 4.381
        },
        {
            "text": "that well D would be in a number system",
            "start": 829.56,
            "duration": 3.48
        },
        {
            "text": "D would be the value",
            "start": 831.66,
            "duration": 3.6
        },
        {
            "text": "um 14 let's say in hexadecimal sorry 13",
            "start": 833.04,
            "duration": 4.56
        },
        {
            "text": "D would be value 13. um but it would be",
            "start": 835.26,
            "duration": 4.44
        },
        {
            "text": "the value 13 in any number system that",
            "start": 837.6,
            "duration": 3.479
        },
        {
            "text": "let us get up to a character which would",
            "start": 839.7,
            "duration": 2.759
        },
        {
            "text": "be D so we can actually even say 14 here",
            "start": 841.079,
            "duration": 2.76
        },
        {
            "text": "before we would get a weird result like",
            "start": 842.459,
            "duration": 3.361
        },
        {
            "text": "this so if we can encode this which now",
            "start": 843.839,
            "duration": 5.421
        },
        {
            "text": "we easily can um we can get the letter d",
            "start": 845.82,
            "duration": 6.54
        },
        {
            "text": "oh my goodness",
            "start": 849.26,
            "duration": 5.139
        },
        {
            "text": "and it's quite interesting to see uh",
            "start": 852.36,
            "duration": 3.12
        },
        {
            "text": "what this comes up with this should just",
            "start": 854.399,
            "duration": 2.101
        },
        {
            "text": "be validity",
            "start": 855.48,
            "duration": 2.82
        },
        {
            "text": "and this should be from string rather",
            "start": 856.5,
            "duration": 4.2
        },
        {
            "text": "than form string",
            "start": 858.3,
            "duration": 4.02
        },
        {
            "text": "but this kind of monstrosity is what is",
            "start": 860.7,
            "duration": 3.24
        },
        {
            "text": "output by this but if we run this we",
            "start": 862.32,
            "duration": 2.579
        },
        {
            "text": "should see",
            "start": 863.94,
            "duration": 2.76
        },
        {
            "text": "the letter D pop out great how we can",
            "start": 864.899,
            "duration": 2.821
        },
        {
            "text": "get the other three letters this way as",
            "start": 866.7,
            "duration": 2.34
        },
        {
            "text": "well the other three lowercase letters",
            "start": 867.72,
            "duration": 3.559
        },
        {
            "text": "at least",
            "start": 869.04,
            "duration": 2.239
        },
        {
            "text": "yeah you can just get all the letters",
            "start": 874.38,
            "duration": 2.759
        },
        {
            "text": "now to anyone that has used the language",
            "start": 875.82,
            "duration": 2.819
        },
        {
            "text": "of the same name it should come as no",
            "start": 877.139,
            "duration": 2.7
        },
        {
            "text": "surprise but the letter c is going to",
            "start": 878.639,
            "duration": 2.341
        },
        {
            "text": "pose some problems and it's going to",
            "start": 879.839,
            "duration": 3.0
        },
        {
            "text": "force us to do some really weird stuff",
            "start": 880.98,
            "duration": 3.0
        },
        {
            "text": "um it requires some lateral thinking and",
            "start": 882.839,
            "duration": 1.8
        },
        {
            "text": "I'm actually going to leave a moment",
            "start": 883.98,
            "duration": 2.159
        },
        {
            "text": "here to pause uh perhaps you might want",
            "start": 884.639,
            "duration": 2.88
        },
        {
            "text": "to think about how you might make this",
            "start": 886.139,
            "duration": 3.56
        },
        {
            "text": "work",
            "start": 887.519,
            "duration": 2.18
        },
        {
            "text": "okay if you didn't get it don't worry",
            "start": 890.519,
            "duration": 3.301
        },
        {
            "text": "it's not obvious we're gonna need to",
            "start": 892.32,
            "duration": 2.699
        },
        {
            "text": "access a Constructor again and let's",
            "start": 893.82,
            "duration": 3.18
        },
        {
            "text": "build this up piece by piece so we're",
            "start": 895.019,
            "duration": 3.12
        },
        {
            "text": "gonna need a Constructor but we're gonna",
            "start": 897.0,
            "duration": 3.3
        },
        {
            "text": "need the function Constructor uh so",
            "start": 898.139,
            "duration": 5.121
        },
        {
            "text": "let's just evaluate",
            "start": 900.3,
            "duration": 2.96
        },
        {
            "text": "I am really impressed right now I just",
            "start": 916.139,
            "duration": 5.541
        },
        {
            "text": "want you to know that",
            "start": 919.019,
            "duration": 2.661
        },
        {
            "text": "I don't even know what to do with this",
            "start": 924.899,
            "duration": 5.12
        },
        {
            "text": "information but I feel",
            "start": 926.639,
            "duration": 3.38
        },
        {
            "text": "I feel",
            "start": 932.1,
            "duration": 5.359
        },
        {
            "text": "like I want to know more",
            "start": 933.839,
            "duration": 3.62
        },
        {
            "text": "I want to know I want to know what's",
            "start": 941.639,
            "duration": 2.94
        },
        {
            "text": "happening",
            "start": 943.56,
            "duration": 2.639
        },
        {
            "text": "this in line so we can easily read it",
            "start": 944.579,
            "duration": 2.94
        },
        {
            "text": "and we'll take it away I'll do it we can",
            "start": 946.199,
            "duration": 2.58
        },
        {
            "text": "get the function Constructor by",
            "start": 947.519,
            "duration": 3.0
        },
        {
            "text": "producing an empty Arrow function and",
            "start": 948.779,
            "duration": 4.86
        },
        {
            "text": "then if we wrap that up we use our from",
            "start": 950.519,
            "duration": 5.281
        },
        {
            "text": "string",
            "start": 953.639,
            "duration": 3.661
        },
        {
            "text": "with the Constructor string so when",
            "start": 955.8,
            "duration": 2.399
        },
        {
            "text": "we've wrapped all of that up we should",
            "start": 957.3,
            "duration": 2.82
        },
        {
            "text": "see that we have access to the function",
            "start": 958.199,
            "duration": 3.241
        },
        {
            "text": "Constructor but this time we don't want",
            "start": 960.12,
            "duration": 3.0
        },
        {
            "text": "to cast it into a string we actually",
            "start": 961.44,
            "duration": 3.3
        },
        {
            "text": "want to call this Constructor we want to",
            "start": 963.12,
            "duration": 2.76
        },
        {
            "text": "be able to use the function that this",
            "start": 964.74,
            "duration": 2.159
        },
        {
            "text": "provides to us and if you don't know",
            "start": 965.88,
            "duration": 2.04
        },
        {
            "text": "what the function Constructor actually",
            "start": 966.899,
            "duration": 2.581
        },
        {
            "text": "does as a function what it does is it",
            "start": 967.92,
            "duration": 2.94
        },
        {
            "text": "takes a string that represents some",
            "start": 969.48,
            "duration": 3.06
        },
        {
            "text": "JavaScript code and it it turns that",
            "start": 970.86,
            "duration": 3.0
        },
        {
            "text": "into a function that can be caused that",
            "start": 972.54,
            "duration": 2.82
        },
        {
            "text": "will actually run the code inside it's a",
            "start": 973.86,
            "duration": 3.839
        },
        {
            "text": "lot like eval in that way but in some",
            "start": 975.36,
            "duration": 4.02
        },
        {
            "text": "ways it's uh it has a little bit more",
            "start": 977.699,
            "duration": 2.82
        },
        {
            "text": "constraint which can be applied to it",
            "start": 979.38,
            "duration": 2.88
        },
        {
            "text": "please don't take that as a testament to",
            "start": 980.519,
            "duration": 3.0
        },
        {
            "text": "its safety it's it's basically still",
            "start": 982.26,
            "duration": 4.28
        },
        {
            "text": "like running untrusted codes",
            "start": 983.519,
            "duration": 3.021
        },
        {
            "text": "everything that we've put together from",
            "start": 986.72,
            "duration": 2.679
        },
        {
            "text": "here is we're going to be able to use",
            "start": 988.56,
            "duration": 3.0
        },
        {
            "text": "the string return Escape",
            "start": 989.399,
            "duration": 3.721
        },
        {
            "text": "so what we're actually doing here is",
            "start": 991.56,
            "duration": 2.639
        },
        {
            "text": "we're we're going to get a function that",
            "start": 993.12,
            "duration": 2.399
        },
        {
            "text": "when we run it is going to return to us",
            "start": 994.199,
            "duration": 2.7
        },
        {
            "text": "the built-in standard Library function",
            "start": 995.519,
            "duration": 2.82
        },
        {
            "text": "Escape which just like the name applies",
            "start": 996.899,
            "duration": 3.18
        },
        {
            "text": "performs a string escaping uh to the",
            "start": 998.339,
            "duration": 3.3
        },
        {
            "text": "ASCII value of certain symbols if we",
            "start": 1000.079,
            "duration": 3.06
        },
        {
            "text": "call this function in line and I run",
            "start": 1001.639,
            "duration": 2.94
        },
        {
            "text": "this hopefully we'll see that we have",
            "start": 1003.139,
            "duration": 2.94
        },
        {
            "text": "here the function escape and if we call",
            "start": 1004.579,
            "duration": 3.18
        },
        {
            "text": "Escape and we pass that string then we",
            "start": 1006.079,
            "duration": 3.18
        },
        {
            "text": "should be able to see an escape value so",
            "start": 1007.759,
            "duration": 3.121
        },
        {
            "text": "what can we escape well what we're going",
            "start": 1009.259,
            "duration": 4.08
        },
        {
            "text": "to escape is",
            "start": 1010.88,
            "duration": 4.74
        },
        {
            "text": "the map and then the backslash just the",
            "start": 1013.339,
            "duration": 3.481
        },
        {
            "text": "backslash let's run that and see what we",
            "start": 1015.62,
            "duration": 3.54
        },
        {
            "text": "get we have an escape backslash which is",
            "start": 1016.82,
            "duration": 4.68
        },
        {
            "text": "the hexadecimal number 5C and it's",
            "start": 1019.16,
            "duration": 4.32
        },
        {
            "text": "helpfully capitalize the C for us so we",
            "start": 1021.5,
            "duration": 4.38
        },
        {
            "text": "can now take that whole expression",
            "start": 1023.48,
            "duration": 4.26
        },
        {
            "text": "and index it as a string and we have a",
            "start": 1025.88,
            "duration": 4.34
        },
        {
            "text": "Capital C",
            "start": 1027.74,
            "duration": 2.48
        },
        {
            "text": "actually the game is pretty much over",
            "start": 1030.679,
            "duration": 2.821
        },
        {
            "text": "now we've got our ultimate escape hatch",
            "start": 1031.88,
            "duration": 2.819
        },
        {
            "text": "now what we can do is we can scroll back",
            "start": 1033.5,
            "duration": 2.819
        },
        {
            "text": "up to the from string function and",
            "start": 1034.699,
            "duration": 3.541
        },
        {
            "text": "before if we had a key that was not in",
            "start": 1036.319,
            "duration": 2.941
        },
        {
            "text": "this map then we were just going to get",
            "start": 1038.24,
            "duration": 2.459
        },
        {
            "text": "undefined and that's no good um if we",
            "start": 1039.26,
            "duration": 2.52
        },
        {
            "text": "have a key that we haven't defined here",
            "start": 1040.699,
            "duration": 2.22
        },
        {
            "text": "we should be able to find a way to",
            "start": 1041.78,
            "duration": 2.58
        },
        {
            "text": "reduce that strength so we can say if X",
            "start": 1042.919,
            "duration": 2.821
        },
        {
            "text": "is not in map",
            "start": 1044.36,
            "duration": 3.059
        },
        {
            "text": "then we want to get the character code",
            "start": 1045.74,
            "duration": 3.179
        },
        {
            "text": "of X the numerical encoding of this",
            "start": 1047.419,
            "duration": 2.701
        },
        {
            "text": "character and we want to get into the",
            "start": 1048.919,
            "duration": 2.821
        },
        {
            "text": "string Constructor and we know how to do",
            "start": 1050.12,
            "duration": 3.6
        },
        {
            "text": "that we add two empty arrays together we",
            "start": 1051.74,
            "duration": 3.48
        },
        {
            "text": "use from string so we do a sort of",
            "start": 1053.72,
            "duration": 2.699
        },
        {
            "text": "recursive call here and the string we",
            "start": 1055.22,
            "duration": 2.459
        },
        {
            "text": "want to get of course is the Constructor",
            "start": 1056.419,
            "duration": 2.461
        },
        {
            "text": "this is going to give us the string",
            "start": 1057.679,
            "duration": 2.041
        },
        {
            "text": "Constructor and on the string",
            "start": 1058.88,
            "duration": 2.46
        },
        {
            "text": "Constructor we have a static method and",
            "start": 1059.72,
            "duration": 2.819
        },
        {
            "text": "that static method is called from",
            "start": 1061.34,
            "duration": 3.719
        },
        {
            "text": "charcode and then to this we can simply",
            "start": 1062.539,
            "duration": 4.26
        },
        {
            "text": "pass our character code but we need to",
            "start": 1065.059,
            "duration": 3.061
        },
        {
            "text": "encode it in our Strange number system",
            "start": 1066.799,
            "duration": 3.661
        },
        {
            "text": "so this is our final output and now we",
            "start": 1068.12,
            "duration": 4.14
        },
        {
            "text": "have a way to get every single character",
            "start": 1070.46,
            "duration": 3.36
        },
        {
            "text": "oh why didn't you just do that to begin",
            "start": 1072.26,
            "duration": 3.299
        },
        {
            "text": "with right because I was wondering how",
            "start": 1073.82,
            "duration": 3.18
        },
        {
            "text": "we got that Capital C but you could just",
            "start": 1075.559,
            "duration": 2.881
        },
        {
            "text": "get Capital C from the shower code I",
            "start": 1077.0,
            "duration": 3.48
        },
        {
            "text": "forget what Capital C is in the Char",
            "start": 1078.44,
            "duration": 5.46
        },
        {
            "text": "system the system of chars what do you",
            "start": 1080.48,
            "duration": 5.76
        },
        {
            "text": "think it is uh quick math quick math I'm",
            "start": 1083.9,
            "duration": 5.46
        },
        {
            "text": "gonna go with 63.",
            "start": 1086.24,
            "duration": 5.7
        },
        {
            "text": "63 quick math quick math",
            "start": 1089.36,
            "duration": 4.199
        },
        {
            "text": "uh",
            "start": 1091.94,
            "duration": 6.119
        },
        {
            "text": "see or your string from Char code",
            "start": 1093.559,
            "duration": 7.62
        },
        {
            "text": "63. oh man I was way off",
            "start": 1098.059,
            "duration": 4.801
        },
        {
            "text": "that must mean we're really close five",
            "start": 1101.179,
            "duration": 3.961
        },
        {
            "text": "there dang it",
            "start": 1102.86,
            "duration": 5.28
        },
        {
            "text": "67 67.",
            "start": 1105.14,
            "duration": 5.1
        },
        {
            "text": "so stupid",
            "start": 1108.14,
            "duration": 5.76
        },
        {
            "text": "so stupid I didn't know I thought a 61",
            "start": 1110.24,
            "duration": 6.12
        },
        {
            "text": "was the starting or 60 was starting I",
            "start": 1113.9,
            "duration": 3.36
        },
        {
            "text": "don't know what happened out there",
            "start": 1116.36,
            "duration": 3.24
        },
        {
            "text": "anyways that we cannot actually access",
            "start": 1117.26,
            "duration": 4.02
        },
        {
            "text": "through some other strange Way by using",
            "start": 1119.6,
            "duration": 3.24
        },
        {
            "text": "all from chocolate let's actually see if",
            "start": 1121.28,
            "duration": 3.24
        },
        {
            "text": "this works the way it should so I'm",
            "start": 1122.84,
            "duration": 2.94
        },
        {
            "text": "going to run here",
            "start": 1124.52,
            "duration": 2.46
        },
        {
            "text": "the front string function I'm going to",
            "start": 1125.78,
            "duration": 2.22
        },
        {
            "text": "give it a character we definitely don't",
            "start": 1126.98,
            "duration": 2.64
        },
        {
            "text": "have capital Z that's going to give us",
            "start": 1128.0,
            "duration": 4.799
        },
        {
            "text": "an enormous ridiculous set of characters",
            "start": 1129.62,
            "duration": 5.16
        },
        {
            "text": "and let's run eval on that and when we",
            "start": 1132.799,
            "duration": 4.021
        },
        {
            "text": "run eval net we can see the capital Z so",
            "start": 1134.78,
            "duration": 3.72
        },
        {
            "text": "that's it we're pretty much done but",
            "start": 1136.82,
            "duration": 3.42
        },
        {
            "text": "we're not quite done because the best we",
            "start": 1138.5,
            "duration": 2.7
        },
        {
            "text": "could do now is we could take some",
            "start": 1140.24,
            "duration": 2.4
        },
        {
            "text": "JavaScript code in and we can convert it",
            "start": 1141.2,
            "duration": 3.0
        },
        {
            "text": "into this strange set of symbols but it",
            "start": 1142.64,
            "duration": 2.76
        },
        {
            "text": "would still only be a string how do we",
            "start": 1144.2,
            "duration": 2.28
        },
        {
            "text": "get that code to run well of course we",
            "start": 1145.4,
            "duration": 2.76
        },
        {
            "text": "already know how to get code to run here",
            "start": 1146.48,
            "duration": 2.88
        },
        {
            "text": "for C we need to just use the function",
            "start": 1148.16,
            "duration": 2.16
        },
        {
            "text": "Constructor so what we're going to do is",
            "start": 1149.36,
            "duration": 1.8
        },
        {
            "text": "we're going to write a function called",
            "start": 1150.32,
            "duration": 2.76
        },
        {
            "text": "compile that's going to take some code",
            "start": 1151.16,
            "duration": 3.48
        },
        {
            "text": "and all we're going to do with that is",
            "start": 1153.08,
            "duration": 3.12
        },
        {
            "text": "return a string which will be the",
            "start": 1154.64,
            "duration": 4.74
        },
        {
            "text": "function we know how to get that",
            "start": 1156.2,
            "duration": 6.12
        },
        {
            "text": "and then we need to call from string",
            "start": 1159.38,
            "duration": 4.2
        },
        {
            "text": "just the code",
            "start": 1162.32,
            "duration": 3.239
        },
        {
            "text": "and then this is just now a function but",
            "start": 1163.58,
            "duration": 3.599
        },
        {
            "text": "we need to run that function so we just",
            "start": 1165.559,
            "duration": 4.941
        },
        {
            "text": "immediately come on okay",
            "start": 1167.179,
            "duration": 5.581
        },
        {
            "text": "the results are calling compiler look at",
            "start": 1170.5,
            "duration": 3.82
        },
        {
            "text": "that everyone's laughing at him not even",
            "start": 1172.76,
            "duration": 3.06
        },
        {
            "text": "seeing the X he doesn't even know about",
            "start": 1174.32,
            "duration": 3.479
        },
        {
            "text": "it on the string and in the string let's",
            "start": 1175.82,
            "duration": 3.3
        },
        {
            "text": "actually do a consulted log let's say",
            "start": 1177.799,
            "duration": 3.12
        },
        {
            "text": "hello world so this is the world's most",
            "start": 1179.12,
            "duration": 3.059
        },
        {
            "text": "ridiculous hello world program and it",
            "start": 1180.919,
            "duration": 2.88
        },
        {
            "text": "will of course help to not have uh the",
            "start": 1182.179,
            "duration": 2.761
        },
        {
            "text": "letter X there instead of the letter c",
            "start": 1183.799,
            "duration": 2.701
        },
        {
            "text": "which this should be let's change to the",
            "start": 1184.94,
            "duration": 2.94
        },
        {
            "text": "terminal let's bring this terminal to",
            "start": 1186.5,
            "duration": 2.94
        },
        {
            "text": "the bottom and let's run this crazy",
            "start": 1187.88,
            "duration": 2.76
        },
        {
            "text": "program it's like looking at some sort",
            "start": 1189.44,
            "duration": 2.46
        },
        {
            "text": "of with Matrix let's plug that into a",
            "start": 1190.64,
            "duration": 2.64
        },
        {
            "text": "file called output.js and if we open",
            "start": 1191.9,
            "duration": 2.58
        },
        {
            "text": "that up and take a look at it my syntax",
            "start": 1193.28,
            "duration": 2.82
        },
        {
            "text": "highlighter is going to struggle to try",
            "start": 1194.48,
            "duration": 3.42
        },
        {
            "text": "and pass this file oh my gosh so it goes",
            "start": 1196.1,
            "duration": 3.12
        },
        {
            "text": "on for pages and pages and there's",
            "start": 1197.9,
            "duration": 3.24
        },
        {
            "text": "really there's no sense in there um but",
            "start": 1199.22,
            "duration": 3.42
        },
        {
            "text": "hopefully if we run this",
            "start": 1201.14,
            "duration": 5.159
        },
        {
            "text": "we actually see our message hello world",
            "start": 1202.64,
            "duration": 5.76
        },
        {
            "text": "so now the next time someone shows you a",
            "start": 1206.299,
            "duration": 3.961
        },
        {
            "text": "toy example of the banana that's blowing",
            "start": 1208.4,
            "duration": 3.18
        },
        {
            "text": "their mind I hope you point them to this",
            "start": 1210.26,
            "duration": 2.58
        },
        {
            "text": "video and show them what can really be",
            "start": 1211.58,
            "duration": 2.52
        },
        {
            "text": "done if you mess with typo version big",
            "start": 1212.84,
            "duration": 2.76
        },
        {
            "text": "shout out to Martin Cleber who is the",
            "start": 1214.1,
            "duration": 2.52
        },
        {
            "text": "guy who figured all of this out a few",
            "start": 1215.6,
            "duration": 2.04
        },
        {
            "text": "years ago I'm gonna put a link below to",
            "start": 1216.62,
            "duration": 2.34
        },
        {
            "text": "his website also the GitHub repository",
            "start": 1217.64,
            "duration": 2.22
        },
        {
            "text": "where I'm going to put the code of",
            "start": 1218.96,
            "duration": 2.4
        },
        {
            "text": "today's video I hope you've enjoyed this",
            "start": 1219.86,
            "duration": 3.98
        },
        {
            "text": "load of jazz",
            "start": 1221.36,
            "duration": 2.48
        },
        {
            "text": "oh",
            "start": 1232.34,
            "duration": 2.719
        },
        {
            "text": "what the hell is even that",
            "start": 1236.38,
            "duration": 6.7
        },
        {
            "text": "well what the f uh I don't even know",
            "start": 1239.86,
            "duration": 4.0
        },
        {
            "text": "what to do with this information",
            "start": 1243.08,
            "duration": 1.979
        },
        {
            "text": "honestly I don't even know what to do",
            "start": 1243.86,
            "duration": 3.66
        },
        {
            "text": "with this I don't I don't even know what",
            "start": 1245.059,
            "duration": 5.061
        },
        {
            "text": "to do with this",
            "start": 1247.52,
            "duration": 2.6
        },
        {
            "text": "other than I wanted",
            "start": 1252.62,
            "duration": 3.02
        },
        {
            "text": "somehow use at least zero or one in",
            "start": 1258.02,
            "duration": 3.899
        },
        {
            "text": "production I I don't even know what to",
            "start": 1260.179,
            "duration": 3.901
        },
        {
            "text": "do here all I know is I'm so happy I",
            "start": 1261.919,
            "duration": 4.681
        },
        {
            "text": "feel so weird right now",
            "start": 1264.08,
            "duration": 4.74
        },
        {
            "text": "yeah this yes I've seen I've seen this I",
            "start": 1266.6,
            "duration": 4.8
        },
        {
            "text": "I I've seen this I've I've heard about",
            "start": 1268.82,
            "duration": 4.88
        },
        {
            "text": "this",
            "start": 1271.4,
            "duration": 2.3
        },
        {
            "text": "right so you can encode this beautiful",
            "start": 1274.52,
            "duration": 6.32
        },
        {
            "text": "thing and Bam and then just",
            "start": 1276.08,
            "duration": 4.76
        },
        {
            "text": "look at that",
            "start": 1281.299,
            "duration": 6.26
        },
        {
            "text": "just works it just works",
            "start": 1283.34,
            "duration": 4.219
        },
        {
            "text": "that was it's so beautiful I don't even",
            "start": 1289.76,
            "duration": 2.88
        },
        {
            "text": "know what to do with I don't even know",
            "start": 1291.559,
            "duration": 2.221
        },
        {
            "text": "what to do with this information other",
            "start": 1292.64,
            "duration": 3.38
        },
        {
            "text": "than",
            "start": 1293.78,
            "duration": 2.24
        },
        {
            "text": "I",
            "start": 1305.72,
            "duration": 2.6
        },
        {
            "text": "what the f i how does someone",
            "start": 1308.72,
            "duration": 5.16
        },
        {
            "text": "okay so just can we all take a second",
            "start": 1312.08,
            "duration": 5.28
        },
        {
            "text": "here there was somebody's life",
            "start": 1313.88,
            "duration": 6.36
        },
        {
            "text": "that spent",
            "start": 1317.36,
            "duration": 5.34
        },
        {
            "text": "likely days",
            "start": 1320.24,
            "duration": 5.78
        },
        {
            "text": "trying to make this work out",
            "start": 1322.7,
            "duration": 3.32
        },
        {
            "text": "now I would like to make fun of the guy",
            "start": 1326.419,
            "duration": 3.921
        },
        {
            "text": "but truly",
            "start": 1330.38,
            "duration": 4.7
        },
        {
            "text": "I can't",
            "start": 1332.299,
            "duration": 2.781
        },
        {
            "text": "because I am that guy",
            "start": 1336.559,
            "duration": 3.081
        },
        {
            "text": "I am that guy",
            "start": 1340.46,
            "duration": 3.199
        },
        {
            "text": "maybe it was an accident you don't",
            "start": 1347.539,
            "duration": 5.281
        },
        {
            "text": "you don't make a compiler on accident",
            "start": 1350.659,
            "duration": 4.081
        },
        {
            "text": "okay",
            "start": 1352.82,
            "duration": 3.599
        },
        {
            "text": "you know how many stupid things I've",
            "start": 1354.74,
            "duration": 5.419
        },
        {
            "text": "made just because I felt like I could",
            "start": 1356.419,
            "duration": 3.74
        },
        {
            "text": "I don't know it just feels right you",
            "start": 1365.299,
            "duration": 4.62
        },
        {
            "text": "know like in the moment",
            "start": 1367.28,
            "duration": 4.5
        },
        {
            "text": "it feels like",
            "start": 1369.919,
            "duration": 3.901
        },
        {
            "text": "you just need to do that",
            "start": 1371.78,
            "duration": 5.06
        },
        {
            "text": "this is one of those times",
            "start": 1373.82,
            "duration": 3.02
        }
    ],
    "stats": {
        "viewCount": "65196",
        "likeCount": "2429",
        "favoriteCount": "0",
        "commentCount": "127"
    }
}