{
    "id": "tj5VW2xJsqU",
    "title": "Javascript To Typescript",
    "publishedAt": "2024-03-28T16:11:16Z",
    "captions": [
        {
            "text": "you want my favorite tip about moving",
            "start": 0.24,
            "duration": 4.32
        },
        {
            "text": "from JavaScript to typescript it's this",
            "start": 2.44,
            "duration": 3.72
        },
        {
            "text": "simple are you ready for this so think",
            "start": 4.56,
            "duration": 3.88
        },
        {
            "text": "about it this way you have a big code",
            "start": 6.16,
            "duration": 4.88
        },
        {
            "text": "base filled with JavaScript likely and",
            "start": 8.44,
            "duration": 4.52
        },
        {
            "text": "now you've just introduced a small",
            "start": 11.04,
            "duration": 3.479
        },
        {
            "text": "amount of typescript right and you're",
            "start": 12.96,
            "duration": 3.48
        },
        {
            "text": "just like ah yeah but now you've",
            "start": 14.519,
            "duration": 3.721
        },
        {
            "text": "introduced a whole new build step this",
            "start": 16.44,
            "duration": 3.88
        },
        {
            "text": "build step will get significantly more",
            "start": 18.24,
            "duration": 3.959
        },
        {
            "text": "complicated as you get more and more of",
            "start": 20.32,
            "duration": 3.799
        },
        {
            "text": "this project over you're going to spend",
            "start": 22.199,
            "duration": 3.0
        },
        {
            "text": "more and more time you're going to",
            "start": 24.119,
            "duration": 2.721
        },
        {
            "text": "probably have a whole dedicated build",
            "start": 25.199,
            "duration": 3.32
        },
        {
            "text": "team you're just an entire thing is",
            "start": 26.84,
            "duration": 3.32
        },
        {
            "text": "going to happen but hear me out you know",
            "start": 28.519,
            "duration": 3.481
        },
        {
            "text": "what you could do you could have type",
            "start": 30.16,
            "duration": 3.2
        },
        {
            "text": "files for where you have all your",
            "start": 32.0,
            "duration": 3.879
        },
        {
            "text": "complicated types and they're ints you",
            "start": 33.36,
            "duration": 4.92
        },
        {
            "text": "could have Js doc specify those types on",
            "start": 35.879,
            "duration": 4.041
        },
        {
            "text": "various items so that you can have all",
            "start": 38.28,
            "duration": 3.48
        },
        {
            "text": "the type safety you just need to use",
            "start": 39.92,
            "duration": 5.2
        },
        {
            "text": "allowjs if you use allowjs it will use",
            "start": 41.76,
            "duration": 6.04
        },
        {
            "text": "JS Doc and these types files as you",
            "start": 45.12,
            "duration": 4.64
        },
        {
            "text": "import them in and use them for type",
            "start": 47.8,
            "duration": 3.96
        },
        {
            "text": "safety you can have all the benefits of",
            "start": 49.76,
            "duration": 3.76
        },
        {
            "text": "typescript while not having to go",
            "start": 51.76,
            "duration": 3.4
        },
        {
            "text": "through the world's greatest emotional",
            "start": 53.52,
            "duration": 3.679
        },
        {
            "text": "pain which is updating a JavaScript",
            "start": 55.16,
            "duration": 5.719
        },
        {
            "text": "library into a typescript library",
            "start": 57.199,
            "duration": 3.68
        }
    ],
    "stats": {
        "viewCount": "227563",
        "likeCount": "8998",
        "favoriteCount": "0",
        "commentCount": "220"
    }
}