{
    "id": "tyE_d5XuG2U",
    "title": "Why Jarred Created Bun | Prime Reacts",
    "publishedAt": "2023-10-03T12:00:45Z",
    "captions": [
        {
            "text": "I actually can't get this off my mind",
            "start": 0.08,
            "duration": 4.44
        },
        {
            "text": "and I keep thinking about this cuz the",
            "start": 2.28,
            "duration": 4.28
        },
        {
            "text": "problem is is I see this all the time",
            "start": 4.52,
            "duration": 4.24
        },
        {
            "text": "there's something I really like or",
            "start": 6.56,
            "duration": 4.48
        },
        {
            "text": "something that I use and you have to ask",
            "start": 8.76,
            "duration": 5.16
        },
        {
            "text": "yourself can the ship be steered enough",
            "start": 11.04,
            "duration": 4.679
        },
        {
            "text": "to make it into something I like I",
            "start": 13.92,
            "duration": 4.76
        },
        {
            "text": "really really like or does it simply",
            "start": 15.719,
            "duration": 5.441
        },
        {
            "text": "need to be redone and I think this is",
            "start": 18.68,
            "duration": 4.839
        },
        {
            "text": "the heart of this post that Jared made",
            "start": 21.16,
            "duration": 5.039
        },
        {
            "text": "he filed this issue and then started",
            "start": 23.519,
            "duration": 4.641
        },
        {
            "text": "working on bun and during this little",
            "start": 26.199,
            "duration": 4.201
        },
        {
            "text": "little exchange right here mato said I",
            "start": 28.16,
            "duration": 3.519
        },
        {
            "text": "imagine a different world if you sent a",
            "start": 30.4,
            "duration": 2.76
        },
        {
            "text": "PR to fix it and became a node.js",
            "start": 31.679,
            "duration": 3.801
        },
        {
            "text": "collaborator making it faster and then",
            "start": 33.16,
            "duration": 4.399
        },
        {
            "text": "bu then Jared responded with buns",
            "start": 35.48,
            "duration": 4.0
        },
        {
            "text": "existence is inspiring node and the",
            "start": 37.559,
            "duration": 3.561
        },
        {
            "text": "broader ecosystem far more than me",
            "start": 39.48,
            "duration": 3.599
        },
        {
            "text": "contributing to bun or to node would",
            "start": 41.12,
            "duration": 4.56
        },
        {
            "text": "have and so is that is that true is that",
            "start": 43.079,
            "duration": 5.721
        },
        {
            "text": "fair I don't know if that's true but I'm",
            "start": 45.68,
            "duration": 6.24
        },
        {
            "text": "also curious because node will never",
            "start": 48.8,
            "duration": 5.52
        },
        {
            "text": "take in typescript as part of their",
            "start": 51.92,
            "duration": 4.76
        },
        {
            "text": "build system node's probably not going",
            "start": 54.32,
            "duration": 4.919
        },
        {
            "text": "to provide a bundler node probably won't",
            "start": 56.68,
            "duration": 6.08
        },
        {
            "text": "wrap NP M for installing packages node",
            "start": 59.239,
            "duration": 5.88
        },
        {
            "text": "probably won't do any of those things",
            "start": 62.76,
            "duration": 4.52
        },
        {
            "text": "you know node hasn't really made the",
            "start": 65.119,
            "duration": 5.601
        },
        {
            "text": "attempt to solve the esm versus commonjs",
            "start": 67.28,
            "duration": 5.32
        },
        {
            "text": "problem and instead it's just emotional",
            "start": 70.72,
            "duration": 6.36
        },
        {
            "text": "bruising the entire way it feels like",
            "start": 72.6,
            "duration": 6.4
        },
        {
            "text": "even though this is about performance",
            "start": 77.08,
            "duration": 4.44
        },
        {
            "text": "and what he said is about performance",
            "start": 79.0,
            "duration": 5.4
        },
        {
            "text": "it's not about performance right to me",
            "start": 81.52,
            "duration": 4.88
        },
        {
            "text": "it said to me it seems like even if he",
            "start": 84.4,
            "duration": 4.44
        },
        {
            "text": "did fix this we would still be in the",
            "start": 86.4,
            "duration": 4.759
        },
        {
            "text": "same situation and he would have created",
            "start": 88.84,
            "duration": 5.88
        },
        {
            "text": "bun anyways yeah bun creates an",
            "start": 91.159,
            "duration": 7.64
        },
        {
            "text": "ecosystem node is just one tool within",
            "start": 94.72,
            "duration": 4.88
        },
        {
            "text": "an",
            "start": 98.799,
            "duration": 3.64
        },
        {
            "text": "ecosystem I think that's fair I think",
            "start": 99.6,
            "duration": 5.08
        },
        {
            "text": "Neo so so I I do relate this a lot to",
            "start": 102.439,
            "duration": 6.201
        },
        {
            "text": "Neo NE Vim was the response because Bram",
            "start": 104.68,
            "duration": 6.84
        },
        {
            "text": "bless his soul uh it was bram's Vim is",
            "start": 108.64,
            "duration": 6.32
        },
        {
            "text": "just bram's project right that's all it",
            "start": 111.52,
            "duration": 6.12
        },
        {
            "text": "was he gave all of his money he made on",
            "start": 114.96,
            "duration": 6.24
        },
        {
            "text": "Vim to charity he was a a genuinely nice",
            "start": 117.64,
            "duration": 6.28
        },
        {
            "text": "guy and he did all of that but it was",
            "start": 121.2,
            "duration": 5.16
        },
        {
            "text": "still just his project if he wanted to",
            "start": 123.92,
            "duration": 6.0
        },
        {
            "text": "work on X that's just what he worked on",
            "start": 126.36,
            "duration": 6.56
        },
        {
            "text": "it didn't matter anything about what you",
            "start": 129.92,
            "duration": 5.039
        },
        {
            "text": "wanted in I'm sure it did right he read",
            "start": 132.92,
            "duration": 3.84
        },
        {
            "text": "feedback and he tried to make what he",
            "start": 134.959,
            "duration": 3.881
        },
        {
            "text": "could the best but it wasn't the",
            "start": 136.76,
            "duration": 4.92
        },
        {
            "text": "communities it was Bram and Neil viim",
            "start": 138.84,
            "duration": 6.0
        },
        {
            "text": "was what the community wanted not what",
            "start": 141.68,
            "duration": 7.48
        },
        {
            "text": "Bram wanted and so this just reminds me",
            "start": 144.84,
            "duration": 6.16
        },
        {
            "text": "so much of which is there's there's a",
            "start": 149.16,
            "duration": 3.359
        },
        {
            "text": "breaking point that we come across and",
            "start": 151.0,
            "duration": 4.08
        },
        {
            "text": "we do that and then this post came right",
            "start": 152.519,
            "duration": 4.321
        },
        {
            "text": "afterwards so if you don't know this one",
            "start": 155.08,
            "duration": 5.6
        },
        {
            "text": "this is the creator of uh low Dash Okay",
            "start": 156.84,
            "duration": 6.56
        },
        {
            "text": "that one project that every single uh",
            "start": 160.68,
            "duration": 4.4
        },
        {
            "text": "every single repo in the world has a",
            "start": 163.4,
            "duration": 3.72
        },
        {
            "text": "reference to yet I'm not even sure if",
            "start": 165.08,
            "duration": 5.159
        },
        {
            "text": "anyone actually uses it uh I had folks",
            "start": 167.12,
            "duration": 4.72
        },
        {
            "text": "uh tell me during the days of low Dash",
            "start": 170.239,
            "duration": 3.201
        },
        {
            "text": "development that I should have opened",
            "start": 171.84,
            "duration": 4.96
        },
        {
            "text": "PRS to underscores those trash takes",
            "start": 173.44,
            "duration": 5.56
        },
        {
            "text": "were shortsighted let me break it down",
            "start": 176.8,
            "duration": 5.88
        },
        {
            "text": "for you um I can get why Mato did not",
            "start": 179.0,
            "duration": 7.319
        },
        {
            "text": "like this response in the sense that",
            "start": 182.68,
            "duration": 6.559
        },
        {
            "text": "those trash takes right what he's saying",
            "start": 186.319,
            "duration": 4.961
        },
        {
            "text": "is that this response right here is a",
            "start": 189.239,
            "duration": 4.041
        },
        {
            "text": "trash take I don't think this is a trash",
            "start": 191.28,
            "duration": 3.08
        },
        {
            "text": "take because it could have been a",
            "start": 193.28,
            "duration": 4.28
        },
        {
            "text": "different world would have node allowed",
            "start": 194.36,
            "duration": 6.48
        },
        {
            "text": "bun would would node have moved in the",
            "start": 197.56,
            "duration": 6.16
        },
        {
            "text": "direction that bun is or isn't I don't",
            "start": 200.84,
            "duration": 4.8
        },
        {
            "text": "know and so he goes on and he talks",
            "start": 203.72,
            "duration": 4.68
        },
        {
            "text": "about uh let's see assumes a oneoff PR",
            "start": 205.64,
            "duration": 4.56
        },
        {
            "text": "and not a larger issue this is very very",
            "start": 208.4,
            "duration": 5.24
        },
        {
            "text": "true fixing the fs would not have been",
            "start": 210.2,
            "duration": 5.56
        },
        {
            "text": "the only thing Jared was upset about it",
            "start": 213.64,
            "duration": 3.92
        },
        {
            "text": "is very interesting though right and so",
            "start": 215.76,
            "duration": 3.559
        },
        {
            "text": "you can see that it just keeps on going",
            "start": 217.56,
            "duration": 4.08
        },
        {
            "text": "all these stuff and like is bun making",
            "start": 219.319,
            "duration": 4.64
        },
        {
            "text": "it a better place right the response to",
            "start": 221.64,
            "duration": 3.72
        },
        {
            "text": "this right where he says this Bun's",
            "start": 223.959,
            "duration": 2.681
        },
        {
            "text": "existence is inspiring node in the",
            "start": 225.36,
            "duration": 3.2
        },
        {
            "text": "broader ecosystem I think it's putting",
            "start": 226.64,
            "duration": 3.4
        },
        {
            "text": "pressure on node to become more",
            "start": 228.56,
            "duration": 4.16
        },
        {
            "text": "performance focused and really to ask",
            "start": 230.04,
            "duration": 5.64
        },
        {
            "text": "ourselves why hasn't the",
            "start": 232.72,
            "duration": 5.96
        },
        {
            "text": "tooling around JavaScript changed in the",
            "start": 235.68,
            "duration": 5.399
        },
        {
            "text": "last 10 years why is it still just a",
            "start": 238.68,
            "duration": 6.08
        },
        {
            "text": "piece of crap right every six months a",
            "start": 241.079,
            "duration": 6.08
        },
        {
            "text": "new bundler comes out every six months",
            "start": 244.76,
            "duration": 4.119
        },
        {
            "text": "you're told that this is the newest",
            "start": 247.159,
            "duration": 4.08
        },
        {
            "text": "greatest thing that has ever come along",
            "start": 248.879,
            "duration": 4.881
        },
        {
            "text": "every six months you have to change all",
            "start": 251.239,
            "duration": 4.96
        },
        {
            "text": "of your crap to be in line with the",
            "start": 253.76,
            "duration": 4.8
        },
        {
            "text": "greatest thing ever to be created and",
            "start": 256.199,
            "duration": 4.681
        },
        {
            "text": "then bun kind of comes along and tries",
            "start": 258.56,
            "duration": 4.52
        },
        {
            "text": "to like change that no we will do the",
            "start": 260.88,
            "duration": 5.879
        },
        {
            "text": "bundling no we will do like everything",
            "start": 263.08,
            "duration": 5.04
        },
        {
            "text": "no we're going to do all of it I mean",
            "start": 266.759,
            "duration": 2.681
        },
        {
            "text": "obviously the secret lie is they don't",
            "start": 268.12,
            "duration": 3.079
        },
        {
            "text": "do at all right they're still formatting",
            "start": 269.44,
            "duration": 3.16
        },
        {
            "text": "there's es lint there's prettier right",
            "start": 271.199,
            "duration": 2.641
        },
        {
            "text": "so unless if they're getting prettier",
            "start": 272.6,
            "duration": 3.0
        },
        {
            "text": "and Es lint rules and all that put into",
            "start": 273.84,
            "duration": 3.199
        },
        {
            "text": "place they're not quite doing it all",
            "start": 275.6,
            "duration": 2.84
        },
        {
            "text": "there's still a ton of configuration",
            "start": 277.039,
            "duration": 3.0
        },
        {
            "text": "right there's still a TSC there's still",
            "start": 278.44,
            "duration": 4.199
        },
        {
            "text": "a package. jesson there's still all",
            "start": 280.039,
            "duration": 4.16
        },
        {
            "text": "these things you still need a prettier",
            "start": 282.639,
            "duration": 4.361
        },
        {
            "text": "RC you still need a Tailwind thing right",
            "start": 284.199,
            "duration": 6.56
        },
        {
            "text": "like to do all of web development",
            "start": 287.0,
            "duration": 6.44
        },
        {
            "text": "there's just so much dependencies and so",
            "start": 290.759,
            "duration": 5.16
        },
        {
            "text": "much incremental building that needs to",
            "start": 293.44,
            "duration": 4.8
        },
        {
            "text": "happen I mean can bun truly fix it all",
            "start": 295.919,
            "duration": 4.921
        },
        {
            "text": "and make it into the ultimate bun",
            "start": 298.24,
            "duration": 5.28
        },
        {
            "text": "maybe but imagine like the undo burden",
            "start": 300.84,
            "duration": 5.88
        },
        {
            "text": "on bun to make it into an uh the",
            "start": 303.52,
            "duration": 5.48
        },
        {
            "text": "ultimate bundler right I mean they're",
            "start": 306.72,
            "duration": 4.08
        },
        {
            "text": "going to have to support so much crap",
            "start": 309.0,
            "duration": 3.44
        },
        {
            "text": "like that's why null LS right we read",
            "start": 310.8,
            "duration": 4.72
        },
        {
            "text": "this not too long ago no null LS is",
            "start": 312.44,
            "duration": 5.319
        },
        {
            "text": "being archived and the reason why it's",
            "start": 315.52,
            "duration": 5.959
        },
        {
            "text": "being archived is because null LS like",
            "start": 317.759,
            "duration": 5.521
        },
        {
            "text": "there just comes a point where you",
            "start": 321.479,
            "duration": 5.801
        },
        {
            "text": "cannot maintain all of it right like",
            "start": 323.28,
            "duration": 6.32
        },
        {
            "text": "that's my worry about bun is that",
            "start": 327.28,
            "duration": 5.039
        },
        {
            "text": "they're going the direction of NLS like",
            "start": 329.6,
            "duration": 6.28
        },
        {
            "text": "we must actually make the all OneStop",
            "start": 332.319,
            "duration": 5.641
        },
        {
            "text": "ecosystem to build this in I just don't",
            "start": 335.88,
            "duration": 3.84
        },
        {
            "text": "know if I don't know if web development",
            "start": 337.96,
            "duration": 4.72
        },
        {
            "text": "is fixable like I don't know if we could",
            "start": 339.72,
            "duration": 4.96
        },
        {
            "text": "really make it in such a way that makes",
            "start": 342.68,
            "duration": 3.959
        },
        {
            "text": "sense and a lot of that just comes down",
            "start": 344.68,
            "duration": 5.079
        },
        {
            "text": "to the insatiable need to not use the",
            "start": 346.639,
            "duration": 6.521
        },
        {
            "text": "standard or what's available but instead",
            "start": 349.759,
            "duration": 5.681
        },
        {
            "text": "continuously elaborate on what is",
            "start": 353.16,
            "duration": 4.92
        },
        {
            "text": "currently uh there and to make it into",
            "start": 355.44,
            "duration": 4.24
        },
        {
            "text": "like more abstracted like Tailwind",
            "start": 358.08,
            "duration": 3.2
        },
        {
            "text": "Tailwind is great but it's just an",
            "start": 359.68,
            "duration": 3.519
        },
        {
            "text": "abstraction over CSS it requires a build",
            "start": 361.28,
            "duration": 5.039
        },
        {
            "text": "step typescript is great it's it has a",
            "start": 363.199,
            "duration": 5.321
        },
        {
            "text": "great little LSP again you need an",
            "start": 366.319,
            "duration": 4.32
        },
        {
            "text": "abstraction you need a build step over",
            "start": 368.52,
            "duration": 4.04
        },
        {
            "text": "JavaScript bun made that a little bit",
            "start": 370.639,
            "duration": 4.361
        },
        {
            "text": "better prettier es lint like everything",
            "start": 372.56,
            "duration": 3.919
        },
        {
            "text": "it's just there's always some other",
            "start": 375.0,
            "duration": 3.36
        },
        {
            "text": "thing you have to add and it's like",
            "start": 376.479,
            "duration": 4.321
        },
        {
            "text": "emotionally draining how many are they",
            "start": 378.36,
            "duration": 3.8
        },
        {
            "text": "going to go before they say this is all",
            "start": 380.8,
            "duration": 4.76
        },
        {
            "text": "worth supporting what if types come out",
            "start": 382.16,
            "duration": 5.08
        },
        {
            "text": "and now you have this whole type problem",
            "start": 385.56,
            "duration": 4.199
        },
        {
            "text": "going on along with typescript when do",
            "start": 387.24,
            "duration": 4.04
        },
        {
            "text": "you stop supporting typescript what",
            "start": 389.759,
            "duration": 3.681
        },
        {
            "text": "happened if typescript fundamentally",
            "start": 391.28,
            "duration": 5.319
        },
        {
            "text": "deviates from JavaScript types and you",
            "start": 393.44,
            "duration": 6.12
        },
        {
            "text": "have this at ends kind of thing going on",
            "start": 396.599,
            "duration": 4.561
        },
        {
            "text": "like what do you do then do you support",
            "start": 399.56,
            "duration": 3.24
        },
        {
            "text": "typescript or do you",
            "start": 401.16,
            "duration": 4.159
        },
        {
            "text": "support JavaScript with types from the",
            "start": 402.8,
            "duration": 4.88
        },
        {
            "text": "committee a lot of yeah I mean and",
            "start": 405.319,
            "duration": 4.081
        },
        {
            "text": "that's the biggest thing is that you go",
            "start": 407.68,
            "duration": 5.079
        },
        {
            "text": "to any other language you go to rust you",
            "start": 409.4,
            "duration": 6.32
        },
        {
            "text": "got cargo you go to go you got go you go",
            "start": 412.759,
            "duration": 6.201
        },
        {
            "text": "to Zig you got Zig you go to O camel you",
            "start": 415.72,
            "duration": 5.4
        },
        {
            "text": "got kind of of Dune and and it's coming",
            "start": 418.96,
            "duration": 4.72
        },
        {
            "text": "together it's almost complete and it's O",
            "start": 421.12,
            "duration": 4.32
        },
        {
            "text": "camel like nobody works on o camel",
            "start": 423.68,
            "duration": 4.32
        },
        {
            "text": "there's like 17 o camel influencers and",
            "start": 425.44,
            "duration": 3.96
        },
        {
            "text": "they're all working on tooling and the",
            "start": 428.0,
            "duration": 3.68
        },
        {
            "text": "tooling starting to get pretty good it's",
            "start": 429.4,
            "duration": 4.12
        },
        {
            "text": "just an interesting World honestly it's",
            "start": 431.68,
            "duration": 4.079
        },
        {
            "text": "just an interesting world uh PHP you",
            "start": 433.52,
            "duration": 3.679
        },
        {
            "text": "don't like it but it it is the right",
            "start": 435.759,
            "duration": 3.72
        },
        {
            "text": "tool they are all TJ and Jane Street",
            "start": 437.199,
            "duration": 3.84
        },
        {
            "text": "literally it's just TJ and Jane Street",
            "start": 439.479,
            "duration": 3.321
        },
        {
            "text": "putting it all together anyways I still",
            "start": 441.039,
            "duration": 3.6
        },
        {
            "text": "can't for whatever reason I can't shake",
            "start": 442.8,
            "duration": 4.36
        },
        {
            "text": "this and I can't quite figure out why",
            "start": 444.639,
            "duration": 4.801
        },
        {
            "text": "this exch this exchange bothered me so",
            "start": 447.16,
            "duration": 4.479
        },
        {
            "text": "much cuz I don't think Matteo's wrong",
            "start": 449.44,
            "duration": 4.879
        },
        {
            "text": "and I don't think Bun's wrong I am",
            "start": 451.639,
            "duration": 6.721
        },
        {
            "text": "unsure if Jared could have made node",
            "start": 454.319,
            "duration": 6.481
        },
        {
            "text": "into something that looks like bun and I",
            "start": 458.36,
            "duration": 6.239
        },
        {
            "text": "am unsure if node would have had as much",
            "start": 460.8,
            "duration": 6.72
        },
        {
            "text": "appetite to change as Jared wanted and",
            "start": 464.599,
            "duration": 5.361
        },
        {
            "text": "my biggest concern right now is that",
            "start": 467.52,
            "duration": 5.44
        },
        {
            "text": "we've just fractured the system even",
            "start": 469.96,
            "duration": 7.239
        },
        {
            "text": "more every Library all 100,000 node",
            "start": 472.96,
            "duration": 5.44
        },
        {
            "text": "packages by the way every time you say",
            "start": 477.199,
            "duration": 4.641
        },
        {
            "text": "npm a new npm module is created so just",
            "start": 478.4,
            "duration": 6.359
        },
        {
            "text": "so you know we've just created several",
            "start": 481.84,
            "duration": 5.44
        },
        {
            "text": "thus far but think about the amount of",
            "start": 484.759,
            "duration": 5.481
        },
        {
            "text": "PRS right now that have if is bun and",
            "start": 487.28,
            "duration": 6.44
        },
        {
            "text": "unironically or ironically I'm not sure",
            "start": 490.24,
            "duration": 6.88
        },
        {
            "text": "if uh ly created this but there is an",
            "start": 493.72,
            "duration": 7.08
        },
        {
            "text": "npm is bun module dang it why is this so",
            "start": 497.12,
            "duration": 7.0
        },
        {
            "text": "hard to find uh what is it is it npm uh",
            "start": 500.8,
            "duration": 4.839
        },
        {
            "text": "js.",
            "start": 504.12,
            "duration": 5.519
        },
        {
            "text": "what yes I was looking at butt plug okay",
            "start": 505.639,
            "duration": 5.601
        },
        {
            "text": "this is hilarious to me that there's a",
            "start": 509.639,
            "duration": 4.88
        },
        {
            "text": "buttt plug development guide on NP on",
            "start": 511.24,
            "duration": 5.32
        },
        {
            "text": "npm and I think it's funny that there's",
            "start": 514.519,
            "duration": 5.161
        },
        {
            "text": "also react butt plug as well react butt",
            "start": 516.56,
            "duration": 4.76
        },
        {
            "text": "plug JS I okay I can't remember what it",
            "start": 519.68,
            "duration": 6.279
        },
        {
            "text": "is anyways is uh is bun look at this it",
            "start": 521.32,
            "duration": 6.72
        },
        {
            "text": "was published eight days ago how much do",
            "start": 525.959,
            "duration": 4.041
        },
        {
            "text": "you want to bet you're going to see this",
            "start": 528.04,
            "duration": 6.919
        },
        {
            "text": "thing start to explode right it's just G",
            "start": 530.0,
            "duration": 7.279
        },
        {
            "text": "to right because everybody's going to",
            "start": 534.959,
            "duration": 4.88
        },
        {
            "text": "want that bun fast path so I'm going to",
            "start": 537.279,
            "duration": 5.161
        },
        {
            "text": "have the is bun they're going to hack",
            "start": 539.839,
            "duration": 3.801
        },
        {
            "text": "your ass they literally are going to",
            "start": 542.44,
            "duration": 3.28
        },
        {
            "text": "hack your ass oh the reason why I",
            "start": 543.64,
            "duration": 3.0
        },
        {
            "text": "thought it was funny is cuz there is",
            "start": 545.72,
            "duration": 3.359
        },
        {
            "text": "something called react butt",
            "start": 546.64,
            "duration": 4.4
        },
        {
            "text": "plug",
            "start": 549.079,
            "duration": 5.0
        },
        {
            "text": "um and and it literally has vibrator",
            "start": 551.04,
            "duration": 5.32
        },
        {
            "text": "search buttons vibrator controls you can",
            "start": 554.079,
            "duration": 4.281
        },
        {
            "text": "make a UI for your butt plug so that way",
            "start": 556.36,
            "duration": 4.32
        },
        {
            "text": "you can control it from your phone just",
            "start": 558.36,
            "duration": 3.719
        },
        {
            "text": "in case you know you don't want to have",
            "start": 560.68,
            "duration": 3.599
        },
        {
            "text": "to be fangling jangling back there you",
            "start": 562.079,
            "duration": 4.801
        },
        {
            "text": "can just turn it on with your little",
            "start": 564.279,
            "duration": 6.401
        },
        {
            "text": "phone laugh now well guess what won't be",
            "start": 566.88,
            "duration": 5.48
        },
        {
            "text": "laughing when you get that telephone app",
            "start": 570.68,
            "duration": 4.04
        },
        {
            "text": "now will you typical JavaScript have",
            "start": 572.36,
            "duration": 4.8
        },
        {
            "text": "anyways now that we've completely ruined",
            "start": 574.72,
            "duration": 4.04
        },
        {
            "text": "the stream and my point is completely",
            "start": 577.16,
            "duration": 3.56
        },
        {
            "text": "gone but I'm going to hot take this one",
            "start": 578.76,
            "duration": 5.0
        },
        {
            "text": "which is I think bun is a really",
            "start": 580.72,
            "duration": 6.52
        },
        {
            "text": "incredible product made with Incredible",
            "start": 583.76,
            "duration": 6.759
        },
        {
            "text": "effort that was a technically incredible",
            "start": 587.24,
            "duration": 5.76
        },
        {
            "text": "piece that I think will be",
            "start": 590.519,
            "duration": 4.961
        },
        {
            "text": "deprecated I know it's a little bit",
            "start": 593.0,
            "duration": 4.839
        },
        {
            "text": "spicy the best part about bun is that I",
            "start": 595.48,
            "duration": 5.479
        },
        {
            "text": "get to forget about Dino yeah they said",
            "start": 597.839,
            "duration": 5.881
        },
        {
            "text": "that about react look at where we are",
            "start": 600.959,
            "duration": 4.081
        },
        {
            "text": "yeah I'm not saying that the world can",
            "start": 603.72,
            "duration": 4.28
        },
        {
            "text": "be a worse place react made more sense",
            "start": 605.04,
            "duration": 5.28
        },
        {
            "text": "because we were un we were unn",
            "start": 608.0,
            "duration": 4.6
        },
        {
            "text": "knowledgeable about what it's like",
            "start": 610.32,
            "duration": 5.8
        },
        {
            "text": "having uh having template engine and Dom",
            "start": 612.6,
            "duration": 6.56
        },
        {
            "text": "bindings in the same area right I think",
            "start": 616.12,
            "duration": 5.399
        },
        {
            "text": "we are unaware of the downfalls of that",
            "start": 619.16,
            "duration": 3.56
        },
        {
            "text": "just something to think about and I",
            "start": 621.519,
            "duration": 2.521
        },
        {
            "text": "think you guys should also think about",
            "start": 622.72,
            "duration": 3.2
        },
        {
            "text": "this uh which",
            "start": 624.04,
            "duration": 4.479
        },
        {
            "text": "is when do you create when do you",
            "start": 625.92,
            "duration": 5.72
        },
        {
            "text": "contribute versus when do you uh when do",
            "start": 628.519,
            "duration": 4.961
        },
        {
            "text": "you burn it down and create your own I",
            "start": 631.64,
            "duration": 3.759
        },
        {
            "text": "don't know I still I I and by the way I",
            "start": 633.48,
            "duration": 3.599
        },
        {
            "text": "still think that bun should have used",
            "start": 635.399,
            "duration": 3.841
        },
        {
            "text": "Hermes I honestly think that it's it's",
            "start": 637.079,
            "duration": 4.241
        },
        {
            "text": "that that's the reason I think that's",
            "start": 639.24,
            "duration": 4.0
        },
        {
            "text": "truly the reason why it's not gonna it's",
            "start": 641.32,
            "duration": 3.88
        },
        {
            "text": "not going to win because JSC is not",
            "start": 643.24,
            "duration": 5.399
        },
        {
            "text": "compelling zigg is not compelling right",
            "start": 645.2,
            "duration": 6.52
        },
        {
            "text": "zigg and Zig and JSC aren't a compelling",
            "start": 648.639,
            "duration": 6.361
        },
        {
            "text": "difference between C++ and JS and and V8",
            "start": 651.72,
            "duration": 5.679
        },
        {
            "text": "Hermes is very exciting every time I say",
            "start": 655.0,
            "duration": 4.8
        },
        {
            "text": "Hermes I swear you guys say her pie it's",
            "start": 657.399,
            "duration": 5.281
        },
        {
            "text": "just such a stupid joke guys stop being",
            "start": 659.8,
            "duration": 5.68
        },
        {
            "text": "so stupid why you got to make such",
            "start": 662.68,
            "duration": 6.64
        },
        {
            "text": "stupid jokes all right the",
            "start": 665.48,
            "duration": 3.84
        },
        {
            "text": "name is I actually don't use JavaScript",
            "start": 669.959,
            "duration": 9.281
        },
        {
            "text": "on the server a suck on that a jet",
            "start": 673.68,
            "duration": 7.599
        },
        {
            "text": "again got",
            "start": 679.24,
            "duration": 5.039
        },
        {
            "text": "him",
            "start": 681.279,
            "duration": 3.0
        }
    ],
    "stats": {
        "viewCount": "51205",
        "likeCount": "1620",
        "favoriteCount": "0",
        "commentCount": "152"
    }
}