{
    "id": "u1WmiqlrqL0",
    "title": "2 ways TypeScript LIES to you",
    "publishedAt": "2023-03-05T15:30:16Z",
    "captions": [
        {
            "text": "so I wanted to take a moment and show",
            "start": 0.48,
            "duration": 4.319
        },
        {
            "text": "you two things in typescript that",
            "start": 2.58,
            "duration": 5.04
        },
        {
            "text": "actually are pretty dang dangerous uh if",
            "start": 4.799,
            "duration": 4.38
        },
        {
            "text": "you have any cool things you know about",
            "start": 7.62,
            "duration": 3.36
        },
        {
            "text": "typescript that actually causes really",
            "start": 9.179,
            "duration": 3.481
        },
        {
            "text": "wonky Behavior let me know I'd love to",
            "start": 10.98,
            "duration": 3.36
        },
        {
            "text": "make like a full length video out of",
            "start": 12.66,
            "duration": 3.3
        },
        {
            "text": "this uh be able to get a few more at",
            "start": 14.34,
            "duration": 3.6
        },
        {
            "text": "least I'd like to at least have three of",
            "start": 15.96,
            "duration": 3.72
        },
        {
            "text": "them I don't have it five would be ideal",
            "start": 17.94,
            "duration": 3.48
        },
        {
            "text": "but here we go so the first one is this",
            "start": 19.68,
            "duration": 4.98
        },
        {
            "text": "function uh change array and I'm gonna",
            "start": 21.42,
            "duration": 5.939
        },
        {
            "text": "pass into here say uh items and it's",
            "start": 24.66,
            "duration": 5.1
        },
        {
            "text": "gonna be a number or a string this is",
            "start": 27.359,
            "duration": 4.621
        },
        {
            "text": "just this can be extended to any kind of",
            "start": 29.76,
            "duration": 4.02
        },
        {
            "text": "Union type item okay I'm just doing",
            "start": 31.98,
            "duration": 3.18
        },
        {
            "text": "number and string here to make it really",
            "start": 33.78,
            "duration": 3.2
        },
        {
            "text": "obvious and go",
            "start": 35.16,
            "duration": 4.5
        },
        {
            "text": "items.push69. all right so all we did is",
            "start": 36.98,
            "duration": 4.48
        },
        {
            "text": "just mutate the array a little bit",
            "start": 39.66,
            "duration": 3.36
        },
        {
            "text": "change the array you're like well it",
            "start": 41.46,
            "duration": 2.939
        },
        {
            "text": "didn't really technically do that okay",
            "start": 43.02,
            "duration": 4.199
        },
        {
            "text": "here mutate array is the name better for",
            "start": 44.399,
            "duration": 4.441
        },
        {
            "text": "you there we go so now I'm gonna go like",
            "start": 47.219,
            "duration": 4.441
        },
        {
            "text": "this const items equals is going to be a",
            "start": 48.84,
            "duration": 6.5
        },
        {
            "text": "string array equals hello uh world",
            "start": 51.66,
            "duration": 8.039
        },
        {
            "text": "uh please sub there we go and like the",
            "start": 55.34,
            "duration": 6.52
        },
        {
            "text": "video my right hey",
            "start": 59.699,
            "duration": 4.741
        },
        {
            "text": "sorry uh anyways so let's go like this",
            "start": 61.86,
            "duration": 5.579
        },
        {
            "text": "mutate array items now that we have that",
            "start": 64.44,
            "duration": 5.1
        },
        {
            "text": "yes we can jump over here and I can",
            "start": 67.439,
            "duration": 3.781
        },
        {
            "text": "actually execute read numbers and it",
            "start": 69.54,
            "duration": 3.8
        },
        {
            "text": "will do nothing because I didn't simply",
            "start": 71.22,
            "duration": 5.399
        },
        {
            "text": "console.log items out but if I were to",
            "start": 73.34,
            "duration": 5.92
        },
        {
            "text": "do that well guess what it would put a",
            "start": 76.619,
            "duration": 4.801
        },
        {
            "text": "number in a string array now that could",
            "start": 79.26,
            "duration": 3.84
        },
        {
            "text": "be kind of dangerous right because later",
            "start": 81.42,
            "duration": 3.54
        },
        {
            "text": "on you could have something like do",
            "start": 83.1,
            "duration": 4.92
        },
        {
            "text": "something two strings only and inside of",
            "start": 84.96,
            "duration": 4.74
        },
        {
            "text": "here we have items which is only a",
            "start": 88.02,
            "duration": 4.38
        },
        {
            "text": "string array and guess what this uh does",
            "start": 89.7,
            "duration": 5.22
        },
        {
            "text": "something that could blow up on numbers",
            "start": 92.4,
            "duration": 4.62
        },
        {
            "text": "and then in here you're like do",
            "start": 94.92,
            "duration": 4.92
        },
        {
            "text": "something two strings only items and",
            "start": 97.02,
            "duration": 5.16
        },
        {
            "text": "guess what kab boom boom goes the",
            "start": 99.84,
            "duration": 4.26
        },
        {
            "text": "dynamite you don't even realize that",
            "start": 102.18,
            "duration": 3.72
        },
        {
            "text": "function could throw due to a series of",
            "start": 104.1,
            "duration": 3.36
        },
        {
            "text": "operations before you so really Union",
            "start": 105.9,
            "duration": 4.859
        },
        {
            "text": "types with mutations in a race can be",
            "start": 107.46,
            "duration": 6.299
        },
        {
            "text": "quite tricky with typescript okay but",
            "start": 110.759,
            "duration": 4.621
        },
        {
            "text": "here's the second one now the second one",
            "start": 113.759,
            "duration": 3.72
        },
        {
            "text": "is a ringer are you ready for this one",
            "start": 115.38,
            "duration": 5.16
        },
        {
            "text": "type uh we'll call this thing read only",
            "start": 117.479,
            "duration": 4.981
        },
        {
            "text": "result it really does doesn't matter",
            "start": 120.54,
            "duration": 3.84
        },
        {
            "text": "it's any object you want right so this",
            "start": 122.46,
            "duration": 4.979
        },
        {
            "text": "thing is a read only Foo which is a",
            "start": 124.38,
            "duration": 6.719
        },
        {
            "text": "number a read-only uh bar which is a",
            "start": 127.439,
            "duration": 5.281
        },
        {
            "text": "number there you go huh this looks",
            "start": 131.099,
            "duration": 3.0
        },
        {
            "text": "pretty good now we're going to have the",
            "start": 132.72,
            "duration": 2.94
        },
        {
            "text": "exact same thing except for we're going",
            "start": 134.099,
            "duration": 3.421
        },
        {
            "text": "to take off that thing and we're going",
            "start": 135.66,
            "duration": 3.78
        },
        {
            "text": "to take off these right here there we go",
            "start": 137.52,
            "duration": 3.719
        },
        {
            "text": "so we just have resulted they're the",
            "start": 139.44,
            "duration": 4.019
        },
        {
            "text": "same object one is read only one is not",
            "start": 141.239,
            "duration": 4.14
        },
        {
            "text": "read only and we're gonna have this one",
            "start": 143.459,
            "duration": 5.401
        },
        {
            "text": "uh produce read only result and this",
            "start": 145.379,
            "duration": 5.281
        },
        {
            "text": "thing is just going to Simply produce a",
            "start": 148.86,
            "duration": 5.42
        },
        {
            "text": "read only result right read only result",
            "start": 150.66,
            "duration": 6.719
        },
        {
            "text": "so let's return that and let's have Foo",
            "start": 154.28,
            "duration": 6.819
        },
        {
            "text": "at 69 bar as 420 the only two numbers in",
            "start": 157.379,
            "duration": 6.421
        },
        {
            "text": "any good example and so now oh my",
            "start": 161.099,
            "duration": 4.561
        },
        {
            "text": "goodness now that we have that let's",
            "start": 163.8,
            "duration": 3.36
        },
        {
            "text": "produce ourselves a read-only results",
            "start": 165.66,
            "duration": 5.159
        },
        {
            "text": "const item equals produce read only",
            "start": 167.16,
            "duration": 6.54
        },
        {
            "text": "result and look at it it's a read only",
            "start": 170.819,
            "duration": 4.861
        },
        {
            "text": "result now let's have another another",
            "start": 173.7,
            "duration": 5.1
        },
        {
            "text": "function mutate result and this thing is",
            "start": 175.68,
            "duration": 5.4
        },
        {
            "text": "going to take in a result a result a",
            "start": 178.8,
            "duration": 4.56
        },
        {
            "text": "result I know I keep saying that right",
            "start": 181.08,
            "duration": 5.28
        },
        {
            "text": "and uh we will do something to it what",
            "start": 183.36,
            "duration": 4.98
        },
        {
            "text": "can we do here well let's just go like",
            "start": 186.36,
            "duration": 5.22
        },
        {
            "text": "this uh how about a result dot Foo uh",
            "start": 188.34,
            "duration": 5.039
        },
        {
            "text": "plus equals one three three seven boom",
            "start": 191.58,
            "duration": 3.48
        },
        {
            "text": "do the same thing with bar look at that",
            "start": 193.379,
            "duration": 3.181
        },
        {
            "text": "just did a quick mutation now I'm going",
            "start": 195.06,
            "duration": 3.42
        },
        {
            "text": "to take my read only item right here",
            "start": 196.56,
            "duration": 5.399
        },
        {
            "text": "mutate result and just throw in item",
            "start": 198.48,
            "duration": 5.1
        },
        {
            "text": "okay so now",
            "start": 201.959,
            "duration": 3.721
        },
        {
            "text": "first off what is item item is a",
            "start": 203.58,
            "duration": 3.84
        },
        {
            "text": "read-only result you can't mutate this",
            "start": 205.68,
            "duration": 3.6
        },
        {
            "text": "thing okay we have specified you can't",
            "start": 207.42,
            "duration": 4.08
        },
        {
            "text": "mutate this thing so what is going to",
            "start": 209.28,
            "duration": 4.08
        },
        {
            "text": "happen here is typescript gonna barf",
            "start": 211.5,
            "duration": 4.26
        },
        {
            "text": "what is it gonna do here well let's find",
            "start": 213.36,
            "duration": 6.36
        },
        {
            "text": "out it uh doesn't do anything okay at",
            "start": 215.76,
            "duration": 6.78
        },
        {
            "text": "all it just lets you mutate it it just",
            "start": 219.72,
            "duration": 6.42
        },
        {
            "text": "straight up mutates it right like to me",
            "start": 222.54,
            "duration": 5.46
        },
        {
            "text": "this is even the more dangerous item",
            "start": 226.14,
            "duration": 5.159
        },
        {
            "text": "read only on properties on types are",
            "start": 228.0,
            "duration": 8.58
        },
        {
            "text": "completely disregarded due to uh typing",
            "start": 231.299,
            "duration": 7.261
        },
        {
            "text": "it's I mean it's quacking like a duck",
            "start": 236.58,
            "duration": 3.78
        },
        {
            "text": "but it's not a duck that's the problem",
            "start": 238.56,
            "duration": 4.259
        },
        {
            "text": "uh anyways so I hope you enjoyed this if",
            "start": 240.36,
            "duration": 4.459
        },
        {
            "text": "you have more of these type of things",
            "start": 242.819,
            "duration": 5.401
        },
        {
            "text": "toss them to me I'll be glad to make a",
            "start": 244.819,
            "duration": 4.661
        },
        {
            "text": "full length video on this because I",
            "start": 248.22,
            "duration": 3.239
        },
        {
            "text": "think this is just amazing so please",
            "start": 249.48,
            "duration": 4.619
        },
        {
            "text": "comment section make it happen and if",
            "start": 251.459,
            "duration": 4.981
        },
        {
            "text": "you enjoyed this you know what you need",
            "start": 254.099,
            "duration": 4.081
        },
        {
            "text": "to press the like button or something I",
            "start": 256.44,
            "duration": 3.06
        },
        {
            "text": "don't know what do people do on YouTube",
            "start": 258.18,
            "duration": 4.76
        },
        {
            "text": "anyways the name",
            "start": 259.5,
            "duration": 3.44
        },
        {
            "text": "foreign",
            "start": 263.22,
            "duration": 2.9
        },
        {
            "text": "I gotta press stop now",
            "start": 266.28,
            "duration": 3.32
        }
    ],
    "stats": {
        "viewCount": "44022",
        "likeCount": "2861",
        "favoriteCount": "0",
        "commentCount": "266"
    }
}