{
    "id": "U2xHdvvDQyI",
    "title": "1 TRILLION Messages on Discord | Prime Reacts",
    "publishedAt": "2023-03-19T12:00:30Z",
    "captions": [
        {
            "text": "uh how Discord",
            "start": 0.42,
            "duration": 5.399
        },
        {
            "text": "stores trillions of messages this is",
            "start": 2.82,
            "duration": 4.32
        },
        {
            "text": "actually pretty exciting let's see let's",
            "start": 5.819,
            "duration": 3.061
        },
        {
            "text": "find out I'm actually curious about that",
            "start": 7.14,
            "duration": 3.419
        },
        {
            "text": "I I have not read this",
            "start": 8.88,
            "duration": 3.6
        },
        {
            "text": "this seems exciting can we all agree",
            "start": 10.559,
            "duration": 4.141
        },
        {
            "text": "this could be exciting in 2017 we wrote",
            "start": 12.48,
            "duration": 3.78
        },
        {
            "text": "a blog post about how we store billions",
            "start": 14.7,
            "duration": 4.26
        },
        {
            "text": "of messages uh Checkmate atheists we",
            "start": 16.26,
            "duration": 4.2
        },
        {
            "text": "shared of our journey and how we let's",
            "start": 18.96,
            "duration": 4.159
        },
        {
            "text": "see started out using mongodb",
            "start": 20.46,
            "duration": 4.979
        },
        {
            "text": "and then migrated to Cassandra because",
            "start": 23.119,
            "duration": 3.941
        },
        {
            "text": "we were looking for databases that were",
            "start": 25.439,
            "duration": 3.301
        },
        {
            "text": "scalable fault tolerant and relatively",
            "start": 27.06,
            "duration": 3.719
        },
        {
            "text": "low maintenance we knew he'd be growing",
            "start": 28.74,
            "duration": 5.7
        },
        {
            "text": "and we did okay good I like it we wanted",
            "start": 30.779,
            "duration": 5.881
        },
        {
            "text": "a database That Grew alongside us but",
            "start": 34.44,
            "duration": 3.72
        },
        {
            "text": "hopefully its maintenance wouldn't grow",
            "start": 36.66,
            "duration": 2.82
        },
        {
            "text": "alongside our storage needs",
            "start": 38.16,
            "duration": 2.579
        },
        {
            "text": "unfortunately we found that not to be",
            "start": 39.48,
            "duration": 2.64
        },
        {
            "text": "our case our Cassandra clusters",
            "start": 40.739,
            "duration": 2.881
        },
        {
            "text": "exhibited serious performance issues",
            "start": 42.12,
            "duration": 2.759
        },
        {
            "text": "that required increasing amounts of",
            "start": 43.62,
            "duration": 3.24
        },
        {
            "text": "efforts just to maintain that improve I",
            "start": 44.879,
            "duration": 3.601
        },
        {
            "text": "would love to hear more about that",
            "start": 46.86,
            "duration": 3.12
        },
        {
            "text": "because you know I don't know a lot",
            "start": 48.48,
            "duration": 2.88
        },
        {
            "text": "about Cassandra other than it's like",
            "start": 49.98,
            "duration": 3.96
        },
        {
            "text": "that eyeball with like a little",
            "start": 51.36,
            "duration": 4.92
        },
        {
            "text": "for its logo but that's all I know about",
            "start": 53.94,
            "duration": 4.58
        },
        {
            "text": "it",
            "start": 56.28,
            "duration": 2.24
        },
        {
            "text": "Netflix uses Cassandra for some stuff or",
            "start": 58.92,
            "duration": 5.52
        },
        {
            "text": "did maybe they've changed I have no idea",
            "start": 62.52,
            "duration": 4.74
        },
        {
            "text": "I've never actually used Cassandra",
            "start": 64.44,
            "duration": 5.039
        },
        {
            "text": "it could be fun though eventually",
            "start": 67.26,
            "duration": 4.2
        },
        {
            "text": "consistent I feel like you know that",
            "start": 69.479,
            "duration": 3.841
        },
        {
            "text": "programmers are humans too Channel where",
            "start": 71.46,
            "duration": 3.6
        },
        {
            "text": "they do like interview with the senior",
            "start": 73.32,
            "duration": 3.36
        },
        {
            "text": "JS person it'd be great to have a",
            "start": 75.06,
            "duration": 3.239
        },
        {
            "text": "database guy on there and he just says",
            "start": 76.68,
            "duration": 3.24
        },
        {
            "text": "the term eventually consistent like 17",
            "start": 78.299,
            "duration": 4.261
        },
        {
            "text": "times great almost six years later we've",
            "start": 79.92,
            "duration": 4.62
        },
        {
            "text": "changed a lot and how we store messages",
            "start": 82.56,
            "duration": 3.96
        },
        {
            "text": "as well okay our Cassandra troubles well",
            "start": 84.54,
            "duration": 3.899
        },
        {
            "text": "look at that looks like he looks like it",
            "start": 86.52,
            "duration": 3.12
        },
        {
            "text": "was right there the whole time I should",
            "start": 88.439,
            "duration": 2.641
        },
        {
            "text": "have just read forward a little bit all",
            "start": 89.64,
            "duration": 3.42
        },
        {
            "text": "right we store messages in a database",
            "start": 91.08,
            "duration": 3.84
        },
        {
            "text": "called Cassandra messages",
            "start": 93.06,
            "duration": 4.14
        },
        {
            "text": "as the same suggests it ran Cassandra",
            "start": 94.92,
            "duration": 5.059
        },
        {
            "text": "and stored messages",
            "start": 97.2,
            "duration": 2.779
        },
        {
            "text": "thank you for thank you for saying that",
            "start": 112.02,
            "duration": 3.779
        },
        {
            "text": "to me I'm just happy I read that out",
            "start": 114.18,
            "duration": 4.14
        },
        {
            "text": "loud in 2017 we ran 12 Cassandra nodes",
            "start": 115.799,
            "duration": 3.841
        },
        {
            "text": "storing billions of messages at the",
            "start": 118.32,
            "duration": 5.159
        },
        {
            "text": "beginning of 2022 we had 177 nodes with",
            "start": 119.64,
            "duration": 7.1
        },
        {
            "text": "trillions of messages to our Chagrin",
            "start": 123.479,
            "duration": 7.461
        },
        {
            "text": "it was a high toil system",
            "start": 126.74,
            "duration": 4.2
        },
        {
            "text": "you know what never thought in 10 years",
            "start": 133.26,
            "duration": 5.4
        },
        {
            "text": "that reason I'd read this sentence",
            "start": 136.92,
            "duration": 4.98
        },
        {
            "text": "honestly if you asked Chad GPT to say",
            "start": 138.66,
            "duration": 5.88
        },
        {
            "text": "what what sentence would Prime not think",
            "start": 141.9,
            "duration": 4.86
        },
        {
            "text": "of it wouldn't even come up with this to",
            "start": 144.54,
            "duration": 4.14
        },
        {
            "text": "our Chagrin it was a hot toil system",
            "start": 146.76,
            "duration": 3.72
        },
        {
            "text": "this sounds like something somebody",
            "start": 148.68,
            "duration": 5.22
        },
        {
            "text": "would write in like the 1700s or on call",
            "start": 150.48,
            "duration": 5.28
        },
        {
            "text": "team was frequently paced for issues",
            "start": 153.9,
            "duration": 3.12
        },
        {
            "text": "with the database latency was",
            "start": 155.76,
            "duration": 3.059
        },
        {
            "text": "unpredictable and we were having to cut",
            "start": 157.02,
            "duration": 3.359
        },
        {
            "text": "down on maintenance operations that",
            "start": 158.819,
            "duration": 3.901
        },
        {
            "text": "became too expensive to run",
            "start": 160.379,
            "duration": 4.44
        },
        {
            "text": "all right what was causing these issues",
            "start": 162.72,
            "duration": 3.54
        },
        {
            "text": "first let's take a look at our messages",
            "start": 164.819,
            "duration": 4.2
        },
        {
            "text": "all right oh this is exciting",
            "start": 166.26,
            "duration": 5.46
        },
        {
            "text": "uh the cql statement above is a minimal",
            "start": 169.019,
            "duration": 4.681
        },
        {
            "text": "version of our message schema every ID",
            "start": 171.72,
            "duration": 4.799
        },
        {
            "text": "we use is a snowflake oh gosh we all",
            "start": 173.7,
            "duration": 5.28
        },
        {
            "text": "know no one likes snowflakes okay",
            "start": 176.519,
            "duration": 4.141
        },
        {
            "text": "nobody likes snowflakes they're always",
            "start": 178.98,
            "duration": 3.42
        },
        {
            "text": "complaining",
            "start": 180.66,
            "duration": 3.0
        },
        {
            "text": "always",
            "start": 182.4,
            "duration": 5.72
        },
        {
            "text": "making a Chrono chronologically sortable",
            "start": 183.66,
            "duration": 4.46
        },
        {
            "text": "we partitioned our messages by the",
            "start": 188.94,
            "duration": 3.78
        },
        {
            "text": "channel they're sent in along with a",
            "start": 190.86,
            "duration": 3.959
        },
        {
            "text": "bucket which is a static time window",
            "start": 192.72,
            "duration": 4.379
        },
        {
            "text": "this partitioning means that in",
            "start": 194.819,
            "duration": 3.961
        },
        {
            "text": "Cassandra all messages for a given",
            "start": 197.099,
            "duration": 3.241
        },
        {
            "text": "Channel and bucket will be stored",
            "start": 198.78,
            "duration": 3.36
        },
        {
            "text": "together and replicated across three",
            "start": 200.34,
            "duration": 4.08
        },
        {
            "text": "nodes or whatever you've replica set the",
            "start": 202.14,
            "duration": 4.26
        },
        {
            "text": "replication Factor okay",
            "start": 204.42,
            "duration": 3.78
        },
        {
            "text": "within this partitioning lies the",
            "start": 206.4,
            "duration": 3.78
        },
        {
            "text": "potential performance Pitfall a server",
            "start": 208.2,
            "duration": 3.959
        },
        {
            "text": "with just a small group of friends tends",
            "start": 210.18,
            "duration": 4.199
        },
        {
            "text": "to send orders of magnitude fewer",
            "start": 212.159,
            "duration": 3.72
        },
        {
            "text": "messages than a server with hundreds of",
            "start": 214.379,
            "duration": 4.101
        },
        {
            "text": "thousands of people",
            "start": 215.879,
            "duration": 2.601
        },
        {
            "text": "it's true it's true statement can't",
            "start": 220.2,
            "duration": 5.099
        },
        {
            "text": "argue it honestly uh and Cassandra reads",
            "start": 222.36,
            "duration": 6.439
        },
        {
            "text": "are more expensive than rights",
            "start": 225.299,
            "duration": 3.5
        },
        {
            "text": "I didn't know that",
            "start": 235.26,
            "duration": 2.899
        },
        {
            "text": "it kind of seems like this would have",
            "start": 239.159,
            "duration": 2.701
        },
        {
            "text": "been an obvious",
            "start": 240.48,
            "duration": 3.539
        },
        {
            "text": "issue going on here rights are appended",
            "start": 241.86,
            "duration": 4.98
        },
        {
            "text": "to a commit log and written to an",
            "start": 244.019,
            "duration": 4.5
        },
        {
            "text": "in-memory structure called a mem table",
            "start": 246.84,
            "duration": 3.479
        },
        {
            "text": "that is eventually flushed to disk reads",
            "start": 248.519,
            "duration": 3.841
        },
        {
            "text": "however need to query the mem table and",
            "start": 250.319,
            "duration": 5.64
        },
        {
            "text": "potentially multiple SS tables on disk",
            "start": 252.36,
            "duration": 6.599
        },
        {
            "text": "files a more expensive operation lots of",
            "start": 255.959,
            "duration": 4.74
        },
        {
            "text": "concurrent reads as a user interacts",
            "start": 258.959,
            "duration": 3.661
        },
        {
            "text": "with servers can hotspot a partition",
            "start": 260.699,
            "duration": 5.341
        },
        {
            "text": "which is referred to imaginatively as a",
            "start": 262.62,
            "duration": 4.579
        },
        {
            "text": "hot partition",
            "start": 266.04,
            "duration": 4.26
        },
        {
            "text": "okay personal pet peeve I never correct",
            "start": 267.199,
            "duration": 4.901
        },
        {
            "text": "somebody on English but I'm not going to",
            "start": 270.3,
            "duration": 4.2
        },
        {
            "text": "lie to you the period outside the",
            "start": 272.1,
            "duration": 5.22
        },
        {
            "text": "quotation marks drives me nuts okay",
            "start": 274.5,
            "duration": 5.94
        },
        {
            "text": "I'm like the worst at English in writing",
            "start": 277.32,
            "duration": 5.34
        },
        {
            "text": "but when I know something like that",
            "start": 280.44,
            "duration": 3.479
        },
        {
            "text": "should happen",
            "start": 282.66,
            "duration": 3.12
        },
        {
            "text": "you should be in you should feel bad",
            "start": 283.919,
            "duration": 4.741
        },
        {
            "text": "about yourself uh the size of our data",
            "start": 285.78,
            "duration": 3.96
        },
        {
            "text": "set when combined with the access",
            "start": 288.66,
            "duration": 2.58
        },
        {
            "text": "patterns led to struggles for our",
            "start": 289.74,
            "duration": 3.179
        },
        {
            "text": "clusters",
            "start": 291.24,
            "duration": 3.72
        },
        {
            "text": "um it is the worst English rule it is it",
            "start": 292.919,
            "duration": 4.141
        },
        {
            "text": "pains me every time but I do it",
            "start": 294.96,
            "duration": 4.32
        },
        {
            "text": "I do it every time and I hate it all",
            "start": 297.06,
            "duration": 4.5
        },
        {
            "text": "right when we encounter a hot partition",
            "start": 299.28,
            "duration": 7.34
        },
        {
            "text": "Oh Daddy Daddy loves odd partition",
            "start": 301.56,
            "duration": 5.06
        },
        {
            "text": "[\u00a0__\u00a0] uh it frequently affected latency",
            "start": 306.78,
            "duration": 5.22
        },
        {
            "text": "across our entire database cluster the",
            "start": 309.96,
            "duration": 3.959
        },
        {
            "text": "one channel in bucket pair received a",
            "start": 312.0,
            "duration": 3.54
        },
        {
            "text": "large amount of traffic and latency and",
            "start": 313.919,
            "duration": 3.06
        },
        {
            "text": "the node would increase as the node",
            "start": 315.54,
            "duration": 3.12
        },
        {
            "text": "tried harder and harder to serve traffic",
            "start": 316.979,
            "duration": 3.66
        },
        {
            "text": "and fell further and further behind what",
            "start": 318.66,
            "duration": 4.02
        },
        {
            "text": "a try hard don't be a tryhard everyone",
            "start": 320.639,
            "duration": 5.06
        },
        {
            "text": "knows not to be a tryhard",
            "start": 322.68,
            "duration": 3.019
        },
        {
            "text": "other queries to this node were affected",
            "start": 326.16,
            "duration": 3.9
        },
        {
            "text": "as the node couldn't keep up since we",
            "start": 327.84,
            "duration": 4.98
        },
        {
            "text": "perform reads and writes with Quorum",
            "start": 330.06,
            "duration": 5.579
        },
        {
            "text": "consistency levels all queries to the",
            "start": 332.82,
            "duration": 4.8
        },
        {
            "text": "node that serve the hot partitions",
            "start": 335.639,
            "duration": 3.961
        },
        {
            "text": "suffer latency increases resulting in",
            "start": 337.62,
            "duration": 6.019
        },
        {
            "text": "bro broader end user impact",
            "start": 339.6,
            "duration": 4.039
        },
        {
            "text": "I feel like they've already said this",
            "start": 344.4,
            "duration": 4.2
        },
        {
            "text": "are we hearing the same thing again is",
            "start": 346.38,
            "duration": 4.14
        },
        {
            "text": "that what is happening here what's going",
            "start": 348.6,
            "duration": 3.96
        },
        {
            "text": "on here cluster maintenance tasks also",
            "start": 350.52,
            "duration": 3.899
        },
        {
            "text": "frequently cause troubles we were prone",
            "start": 352.56,
            "duration": 3.72
        },
        {
            "text": "to falling behind on compactions where",
            "start": 354.419,
            "duration": 4.5
        },
        {
            "text": "Cassandra would compact compact compact",
            "start": 356.28,
            "duration": 4.56
        },
        {
            "text": "I think you can it's called compact I",
            "start": 358.919,
            "duration": 3.241
        },
        {
            "text": "somehow tried to make it into some sort",
            "start": 360.84,
            "duration": 3.199
        },
        {
            "text": "of like action",
            "start": 362.16,
            "duration": 4.979
        },
        {
            "text": "incorrectly I put the wrong emphasis on",
            "start": 364.039,
            "duration": 4.541
        },
        {
            "text": "the wrong syllable",
            "start": 367.139,
            "duration": 3.481
        },
        {
            "text": "um for more performant reads not only",
            "start": 368.58,
            "duration": 4.02
        },
        {
            "text": "are reads but then more expensive but",
            "start": 370.62,
            "duration": 4.5
        },
        {
            "text": "we'd also be seeing consent or cascading",
            "start": 372.6,
            "duration": 6.3
        },
        {
            "text": "latency as the node tries to compact",
            "start": 375.12,
            "duration": 7.199
        },
        {
            "text": "wait compact compact",
            "start": 378.9,
            "duration": 5.22
        },
        {
            "text": "I am reading this I have just I've",
            "start": 382.319,
            "duration": 4.44
        },
        {
            "text": "reached like visual satiation on the",
            "start": 384.12,
            "duration": 5.22
        },
        {
            "text": "word compact uh we frequently performed",
            "start": 386.759,
            "duration": 4.761
        },
        {
            "text": "an operation we called the gossip dance",
            "start": 389.34,
            "duration": 4.799
        },
        {
            "text": "where we take a note out of the rotation",
            "start": 391.52,
            "duration": 4.899
        },
        {
            "text": "to let it compact compact compact",
            "start": 394.139,
            "duration": 5.041
        },
        {
            "text": "without taking traffic bring it back in",
            "start": 396.419,
            "duration": 4.441
        },
        {
            "text": "pick up the hints from Cassandra's",
            "start": 399.18,
            "duration": 3.48
        },
        {
            "text": "hinted handoff and then repeat until the",
            "start": 400.86,
            "duration": 4.74
        },
        {
            "text": "compaction backlog was com emptied we",
            "start": 402.66,
            "duration": 4.86
        },
        {
            "text": "also spent a large amount of time tuning",
            "start": 405.6,
            "duration": 3.96
        },
        {
            "text": "the jvm's garbage collector and Heap",
            "start": 407.52,
            "duration": 3.959
        },
        {
            "text": "settings because GC pauses would",
            "start": 409.56,
            "duration": 4.32
        },
        {
            "text": "significantly or would cause significant",
            "start": 411.479,
            "duration": 4.5
        },
        {
            "text": "latency Spikes all right come on I hope",
            "start": 413.88,
            "duration": 4.379
        },
        {
            "text": "it's rust is it rust",
            "start": 415.979,
            "duration": 4.5
        },
        {
            "text": "our message cluster wasn't our only",
            "start": 418.259,
            "duration": 3.901
        },
        {
            "text": "Cassandra databases we had several other",
            "start": 420.479,
            "duration": 4.861
        },
        {
            "text": "clusters uh and exhibited similar uh",
            "start": 422.16,
            "duration": 6.0
        },
        {
            "text": "though perhaps not a severe false okay",
            "start": 425.34,
            "duration": 5.04
        },
        {
            "text": "okay this is getting exciting people",
            "start": 428.16,
            "duration": 4.08
        },
        {
            "text": "here we go this is where we're gonna",
            "start": 430.38,
            "duration": 3.659
        },
        {
            "text": "mention rust here we go I'm ready for",
            "start": 432.24,
            "duration": 4.5
        },
        {
            "text": "some Rust in our previous iteration of",
            "start": 434.039,
            "duration": 4.741
        },
        {
            "text": "this post we mentioned being intrigued",
            "start": 436.74,
            "duration": 6.679
        },
        {
            "text": "by Sila is that pronounced Sila or skila",
            "start": 438.78,
            "duration": 7.979
        },
        {
            "text": "or is it Sila uh DB a Cassandra",
            "start": 443.419,
            "duration": 6.661
        },
        {
            "text": "compatible database written in",
            "start": 446.759,
            "duration": 3.321
        },
        {
            "text": "C plus plus",
            "start": 450.78,
            "duration": 2.84
        },
        {
            "text": "I am visibly agitated right now",
            "start": 460.08,
            "duration": 4.94
        },
        {
            "text": "this is a plot twist no one wanted okay",
            "start": 466.5,
            "duration": 4.979
        },
        {
            "text": "no one wanted this plot twist all right",
            "start": 468.66,
            "duration": 4.5
        },
        {
            "text": "it's promise of a better performance",
            "start": 471.479,
            "duration": 4.22
        },
        {
            "text": "faster repair stronger workload",
            "start": 473.16,
            "duration": 5.759
        },
        {
            "text": "isolation via its Shard per core Arc",
            "start": 475.699,
            "duration": 4.72
        },
        {
            "text": "architecture you know when I first heard",
            "start": 478.919,
            "duration": 2.941
        },
        {
            "text": "the term Shard I thought the person said",
            "start": 480.419,
            "duration": 5.101
        },
        {
            "text": "shart and I just felt a lot of feelings",
            "start": 481.86,
            "duration": 5.52
        },
        {
            "text": "and I was trying not to laugh and I was",
            "start": 485.52,
            "duration": 5.78
        },
        {
            "text": "in a meeting and you know",
            "start": 487.38,
            "duration": 3.92
        },
        {
            "text": "but somehow more Disturbed the fact that",
            "start": 491.4,
            "duration": 3.66
        },
        {
            "text": "I just heard C plus plus okay I just",
            "start": 493.319,
            "duration": 3.421
        },
        {
            "text": "heard",
            "start": 495.06,
            "duration": 4.8
        },
        {
            "text": "C plus oh gosh a garbage collection free",
            "start": 496.74,
            "duration": 5.399
        },
        {
            "text": "life sounds quite appealing although",
            "start": 499.86,
            "duration": 3.899
        },
        {
            "text": "Sila",
            "start": 502.139,
            "duration": 4.62
        },
        {
            "text": "is the definitely not void of issues it",
            "start": 503.759,
            "duration": 4.801
        },
        {
            "text": "is void of garbage collector since it's",
            "start": 506.759,
            "duration": 4.5
        },
        {
            "text": "written in Rust minus minus rather than",
            "start": 508.56,
            "duration": 4.56
        },
        {
            "text": "Java historically our team has many",
            "start": 511.259,
            "duration": 3.541
        },
        {
            "text": "issues with the garbage collection on",
            "start": 513.12,
            "duration": 3.779
        },
        {
            "text": "Cassandra from GC pauses affecting",
            "start": 514.8,
            "duration": 3.479
        },
        {
            "text": "latency all the way to super long",
            "start": 516.899,
            "duration": 3.661
        },
        {
            "text": "consecutive GC pauses that got so bad",
            "start": 518.279,
            "duration": 4.741
        },
        {
            "text": "that on that an operator wouldn't have",
            "start": 520.56,
            "duration": 4.62
        },
        {
            "text": "to manually reboot and babysit the node",
            "start": 523.02,
            "duration": 5.36
        },
        {
            "text": "in question back to health",
            "start": 525.18,
            "duration": 3.2
        },
        {
            "text": "damn imagine being on call at one in the",
            "start": 530.06,
            "duration": 5.26
        },
        {
            "text": "morning and you are restarting a",
            "start": 533.279,
            "duration": 5.521
        },
        {
            "text": "Cassandra node in production",
            "start": 535.32,
            "duration": 8.04
        },
        {
            "text": "oh imagine how bad that would be waiting",
            "start": 538.8,
            "duration": 7.08
        },
        {
            "text": "for it to start back up do all the",
            "start": 543.36,
            "duration": 6.659
        },
        {
            "text": "sinking oh my goodness these issues were",
            "start": 545.88,
            "duration": 6.12
        },
        {
            "text": "a huge source of on-call toil there's",
            "start": 550.019,
            "duration": 3.901
        },
        {
            "text": "that toil word again",
            "start": 552.0,
            "duration": 4.38
        },
        {
            "text": "uh and the root of many stability issues",
            "start": 553.92,
            "duration": 4.26
        },
        {
            "text": "within our message cluster after",
            "start": 556.38,
            "duration": 4.32
        },
        {
            "text": "experimenting with Sila DB and observing",
            "start": 558.18,
            "duration": 4.02
        },
        {
            "text": "improvements and testing we made a",
            "start": 560.7,
            "duration": 3.36
        },
        {
            "text": "decision to migrate all of our data all",
            "start": 562.2,
            "duration": 3.72
        },
        {
            "text": "of our databases while the decision",
            "start": 564.06,
            "duration": 3.959
        },
        {
            "text": "could be a blog post in of itself the",
            "start": 565.92,
            "duration": 4.68
        },
        {
            "text": "short version of that by 2020 we had",
            "start": 568.019,
            "duration": 4.861
        },
        {
            "text": "migrated every database but one to Silo",
            "start": 570.6,
            "duration": 4.98
        },
        {
            "text": "DB the last one our friend",
            "start": 572.88,
            "duration": 5.84
        },
        {
            "text": "Cassandra messages",
            "start": 575.58,
            "duration": 3.14
        },
        {
            "text": "that [\u00a0__\u00a0] how dare you Cassandra",
            "start": 582.959,
            "duration": 6.181
        },
        {
            "text": "messages uh why Henley migrated yet well",
            "start": 586.26,
            "duration": 4.98
        },
        {
            "text": "to start with it's a big ass cluster",
            "start": 589.14,
            "duration": 7.139
        },
        {
            "text": "what some people call that a cluster",
            "start": 591.24,
            "duration": 5.039
        },
        {
            "text": "that's what I would have said right",
            "start": 596.94,
            "duration": 2.899
        },
        {
            "text": "there okay",
            "start": 598.44,
            "duration": 4.38
        },
        {
            "text": "uh with trillions of messages and nearly",
            "start": 599.839,
            "duration": 5.5
        },
        {
            "text": "200 nodes any migration was going to be",
            "start": 602.82,
            "duration": 4.92
        },
        {
            "text": "an involved effort additionally we",
            "start": 605.339,
            "duration": 3.841
        },
        {
            "text": "wanted to make sure our new database",
            "start": 607.74,
            "duration": 4.02
        },
        {
            "text": "could be the best it could be with as we",
            "start": 609.18,
            "duration": 4.8
        },
        {
            "text": "worked to tune its performance we also",
            "start": 611.76,
            "duration": 3.9
        },
        {
            "text": "wanted to gain more experience with Silo",
            "start": 613.98,
            "duration": 4.14
        },
        {
            "text": "DB and production using it in anger and",
            "start": 615.66,
            "duration": 5.48
        },
        {
            "text": "learning its pitfalls",
            "start": 618.12,
            "duration": 3.02
        },
        {
            "text": "what",
            "start": 622.68,
            "duration": 3.0
        },
        {
            "text": "what the hell did I just read",
            "start": 625.74,
            "duration": 3.38
        },
        {
            "text": "what's using something in Anger can",
            "start": 632.6,
            "duration": 4.54
        },
        {
            "text": "someone just tell me like normally I use",
            "start": 635.1,
            "duration": 3.84
        },
        {
            "text": "Cobalt",
            "start": 637.14,
            "duration": 4.319
        },
        {
            "text": "as like my thing I use in Anger",
            "start": 638.94,
            "duration": 3.72
        },
        {
            "text": "um",
            "start": 641.459,
            "duration": 2.82
        },
        {
            "text": "I can't say",
            "start": 642.66,
            "duration": 3.359
        },
        {
            "text": "is this",
            "start": 644.279,
            "duration": 4.441
        },
        {
            "text": "what is this",
            "start": 646.019,
            "duration": 4.38
        },
        {
            "text": "anyways we wanted the to gain more",
            "start": 648.72,
            "duration": 3.119
        },
        {
            "text": "experience with silent DB in production",
            "start": 650.399,
            "duration": 3.541
        },
        {
            "text": "using it in anger and learning its",
            "start": 651.839,
            "duration": 4.641
        },
        {
            "text": "pitfalls",
            "start": 653.94,
            "duration": 2.54
        },
        {
            "text": "oh my goodness we were suspicious that",
            "start": 660.18,
            "duration": 4.38
        },
        {
            "text": "slapping a new database on our system",
            "start": 662.94,
            "duration": 2.7
        },
        {
            "text": "wasn't going to make everything",
            "start": 664.56,
            "duration": 3.3
        },
        {
            "text": "magically better hot partitions can",
            "start": 665.64,
            "duration": 3.9
        },
        {
            "text": "still be a thing in Silo DB and so we",
            "start": 667.86,
            "duration": 3.06
        },
        {
            "text": "also wanted to invest in proving our",
            "start": 669.54,
            "duration": 3.12
        },
        {
            "text": "systems Upstream of the database to help",
            "start": 670.92,
            "duration": 3.359
        },
        {
            "text": "shield and facilitate better database",
            "start": 672.66,
            "duration": 2.94
        },
        {
            "text": "performance okay",
            "start": 674.279,
            "duration": 4.5
        },
        {
            "text": "okay with Cassandra we struggled on hot",
            "start": 675.6,
            "duration": 4.859
        },
        {
            "text": "partitions high traffic to a given",
            "start": 678.779,
            "duration": 3.12
        },
        {
            "text": "partition resulted in an unbounded",
            "start": 680.459,
            "duration": 3.241
        },
        {
            "text": "concurrency leading to cascading latency",
            "start": 681.899,
            "duration": 3.301
        },
        {
            "text": "in which subsequent queries would",
            "start": 683.7,
            "duration": 3.66
        },
        {
            "text": "continue to grow in latency if we could",
            "start": 685.2,
            "duration": 3.66
        },
        {
            "text": "control the amount of concurrent traffic",
            "start": 687.36,
            "duration": 3.659
        },
        {
            "text": "to hot partitions we could protect the",
            "start": 688.86,
            "duration": 5.599
        },
        {
            "text": "database from being overwhelmed",
            "start": 691.019,
            "duration": 3.44
        },
        {
            "text": "I have no idea what they're even trying",
            "start": 696.959,
            "duration": 2.94
        },
        {
            "text": "to say right now all I know is I'm",
            "start": 698.579,
            "duration": 3.361
        },
        {
            "text": "getting hot and bothered by it uh let's",
            "start": 699.899,
            "duration": 3.481
        },
        {
            "text": "see to accomplish this task we wrote",
            "start": 701.94,
            "duration": 3.2
        },
        {
            "text": "what we refer to as data services",
            "start": 703.38,
            "duration": 3.78
        },
        {
            "text": "intermediary services that sit between",
            "start": 705.14,
            "duration": 3.639
        },
        {
            "text": "our API monolith and our database",
            "start": 707.16,
            "duration": 4.08
        },
        {
            "text": "clusters please tell me you called a",
            "start": 708.779,
            "duration": 3.421
        },
        {
            "text": "cluster",
            "start": 711.24,
            "duration": 3.0
        },
        {
            "text": "when writing our data services we chose",
            "start": 712.2,
            "duration": 3.6
        },
        {
            "text": "languages that we've been using more and",
            "start": 714.24,
            "duration": 6.44
        },
        {
            "text": "more at Discord rust let's go",
            "start": 715.8,
            "duration": 4.88
        },
        {
            "text": "all right well we knew we knew it we",
            "start": 720.779,
            "duration": 4.921
        },
        {
            "text": "knew we were going to get rust we knew",
            "start": 724.079,
            "duration": 4.141
        },
        {
            "text": "it we could feel it everybody come on",
            "start": 725.7,
            "duration": 5.22
        },
        {
            "text": "clappies let's go clappies clappies for",
            "start": 728.22,
            "duration": 4.32
        },
        {
            "text": "the rest",
            "start": 730.92,
            "duration": 3.359
        },
        {
            "text": "we've used it for a few projects",
            "start": 732.54,
            "duration": 3.6
        },
        {
            "text": "previously and it lived up for the hype",
            "start": 734.279,
            "duration": 4.74
        },
        {
            "text": "for us it gave us as fast C plus",
            "start": 736.14,
            "duration": 4.8
        },
        {
            "text": "speeds without having to sacrifice",
            "start": 739.019,
            "duration": 4.461
        },
        {
            "text": "safety",
            "start": 740.94,
            "duration": 2.54
        },
        {
            "text": "or say mental happiness of your",
            "start": 744.12,
            "duration": 4.56
        },
        {
            "text": "employees hey kids",
            "start": 746.399,
            "duration": 5.761
        },
        {
            "text": "you're gonna go from java what to C plus",
            "start": 748.68,
            "duration": 5.7
        },
        {
            "text": "plus they're like what what",
            "start": 752.16,
            "duration": 4.56
        },
        {
            "text": "I don't feel I'm not sure things are",
            "start": 754.38,
            "duration": 4.98
        },
        {
            "text": "getting better here at Discord at the",
            "start": 756.72,
            "duration": 4.799
        },
        {
            "text": "current moment I'm glad at least there's",
            "start": 759.36,
            "duration": 4.82
        },
        {
            "text": "rust in here",
            "start": 761.519,
            "duration": 2.661
        },
        {
            "text": "at least there's rust for a little bit",
            "start": 765.66,
            "duration": 2.82
        },
        {
            "text": "but literally they're going for",
            "start": 767.22,
            "duration": 3.119
        },
        {
            "text": "Cassandra to a c plus okay rust house",
            "start": 768.48,
            "duration": 4.74
        },
        {
            "text": "Fearless concurrency I",
            "start": 770.339,
            "duration": 4.56
        },
        {
            "text": "when I hear the term Fearless",
            "start": 773.22,
            "duration": 3.48
        },
        {
            "text": "concurrency I just want to just like",
            "start": 774.899,
            "duration": 3.24
        },
        {
            "text": "Drop Kick",
            "start": 776.7,
            "duration": 4.319
        },
        {
            "text": "you know you can still screw it up I had",
            "start": 778.139,
            "duration": 5.76
        },
        {
            "text": "so many times I deadlocked myself in",
            "start": 781.019,
            "duration": 4.5
        },
        {
            "text": "Tokyo because I didn't know what I was",
            "start": 783.899,
            "duration": 3.481
        },
        {
            "text": "doing okay it's not Fearless you still",
            "start": 785.519,
            "duration": 4.76
        },
        {
            "text": "have to know things",
            "start": 787.38,
            "duration": 2.899
        },
        {
            "text": "right uh the first language should make",
            "start": 790.74,
            "duration": 3.599
        },
        {
            "text": "it easy to write safe concurrent code",
            "start": 792.72,
            "duration": 3.72
        },
        {
            "text": "it's Library also a great match for what",
            "start": 794.339,
            "duration": 5.0
        },
        {
            "text": "we are intending to accomplish",
            "start": 796.44,
            "duration": 5.699
        },
        {
            "text": "I love Tokyo is a tremendous foundation",
            "start": 799.339,
            "duration": 4.841
        },
        {
            "text": "for building a system on asynchronous iO",
            "start": 802.139,
            "duration": 3.541
        },
        {
            "text": "hey by the way can everybody in here I",
            "start": 804.18,
            "duration": 3.24
        },
        {
            "text": "saw that flip edits was in here flip",
            "start": 805.68,
            "duration": 2.88
        },
        {
            "text": "could you say something for a quick",
            "start": 807.42,
            "duration": 3.3
        },
        {
            "text": "second clip flip edits flip edits could",
            "start": 808.56,
            "duration": 3.42
        },
        {
            "text": "you say something for a quick second",
            "start": 810.72,
            "duration": 5.58
        },
        {
            "text": "flip hey flip hey flippity flip",
            "start": 811.98,
            "duration": 7.02
        },
        {
            "text": "could you speak up for a quick moment",
            "start": 816.3,
            "duration": 4.68
        },
        {
            "text": "okay hey flip now that I have you here",
            "start": 819.0,
            "duration": 3.6
        },
        {
            "text": "hey flip remember that one time we had",
            "start": 820.98,
            "duration": 4.74
        },
        {
            "text": "this idea for a t-shirt that said Tokyo",
            "start": 822.6,
            "duration": 7.5
        },
        {
            "text": "what happened flip where did it go did",
            "start": 825.72,
            "duration": 7.7
        },
        {
            "text": "you drop the ball",
            "start": 830.1,
            "duration": 3.32
        },
        {
            "text": "everyone's disappointed right now flip",
            "start": 847.8,
            "duration": 4.92
        },
        {
            "text": "okay we could have all had Tokyo",
            "start": 849.66,
            "duration": 5.46
        },
        {
            "text": "t-shirts on we could have had tucked",
            "start": 852.72,
            "duration": 3.9
        },
        {
            "text": "talking",
            "start": 855.12,
            "duration": 3.06
        },
        {
            "text": "we could have been screaming Tokyo",
            "start": 856.62,
            "duration": 4.62
        },
        {
            "text": "together instead look at us",
            "start": 858.18,
            "duration": 6.08
        },
        {
            "text": "look at us",
            "start": 861.24,
            "duration": 3.02
        },
        {
            "text": "additionally in front of the uh a joy to",
            "start": 870.2,
            "duration": 4.54
        },
        {
            "text": "code in with the help of a compiler",
            "start": 872.76,
            "duration": 4.019
        },
        {
            "text": "gives you the Claire dude I love this we",
            "start": 874.74,
            "duration": 4.02
        },
        {
            "text": "have got we have gone from a database",
            "start": 876.779,
            "duration": 4.8
        },
        {
            "text": "problem into the joys of rust I kid you",
            "start": 878.76,
            "duration": 5.759
        },
        {
            "text": "not people who like rust I ca just every",
            "start": 881.579,
            "duration": 4.56
        },
        {
            "text": "single time no matter what you're",
            "start": 884.519,
            "duration": 4.141
        },
        {
            "text": "talking about we've managed to take the",
            "start": 886.139,
            "duration": 5.281
        },
        {
            "text": "conversation that is about databases and",
            "start": 888.66,
            "duration": 4.26
        },
        {
            "text": "the problem with the C plus plus",
            "start": 891.42,
            "duration": 6.359
        },
        {
            "text": "database and God from that into Russ the",
            "start": 892.92,
            "duration": 6.779
        },
        {
            "text": "greatest programming language of all",
            "start": 897.779,
            "duration": 3.841
        },
        {
            "text": "time oh what are you doing over there oh",
            "start": 899.699,
            "duration": 3.721
        },
        {
            "text": "you're using JavaScript have you thought",
            "start": 901.62,
            "duration": 3.3
        },
        {
            "text": "about rust",
            "start": 903.42,
            "duration": 3.359
        },
        {
            "text": "let's see anyways",
            "start": 904.92,
            "duration": 3.3
        },
        {
            "text": "um the language constructs and its",
            "start": 906.779,
            "duration": 3.36
        },
        {
            "text": "emphasis on safety we became quite fond",
            "start": 908.22,
            "duration": 4.739
        },
        {
            "text": "of uh of once let's see of how once it",
            "start": 910.139,
            "duration": 4.5
        },
        {
            "text": "compiled It generally works most",
            "start": 912.959,
            "duration": 3.961
        },
        {
            "text": "importantly however it lets us say we",
            "start": 914.639,
            "duration": 5.101
        },
        {
            "text": "rewrote it in Rust",
            "start": 916.92,
            "duration": 5.539
        },
        {
            "text": "yes",
            "start": 919.74,
            "duration": 2.719
        },
        {
            "text": "yes",
            "start": 924.36,
            "duration": 2.06
        },
        {
            "text": "yes",
            "start": 928.56,
            "duration": 5.339
        },
        {
            "text": "let's go oh this is so good this is",
            "start": 930.38,
            "duration": 4.959
        },
        {
            "text": "everything I've ever wanted in an",
            "start": 933.899,
            "duration": 2.581
        },
        {
            "text": "article",
            "start": 935.339,
            "duration": 3.421
        },
        {
            "text": "our data services sit between the API",
            "start": 936.48,
            "duration": 4.56
        },
        {
            "text": "and our Sila clusters they contain",
            "start": 938.76,
            "duration": 4.98
        },
        {
            "text": "roughly one grpc endpoint which grpc is",
            "start": 941.04,
            "duration": 4.14
        },
        {
            "text": "historically one of the worst performing",
            "start": 943.74,
            "duration": 2.94
        },
        {
            "text": "ways to communicate with a rust thing",
            "start": 945.18,
            "duration": 4.14
        },
        {
            "text": "right doesn't Ser day Saturday have some",
            "start": 946.68,
            "duration": 4.38
        },
        {
            "text": "sort of problem with grpc and all that",
            "start": 949.32,
            "duration": 4.819
        },
        {
            "text": "isn't it like really poor",
            "start": 951.06,
            "duration": 3.079
        },
        {
            "text": "it's because you have to have an",
            "start": 955.86,
            "duration": 3.96
        },
        {
            "text": "underlying source",
            "start": 957.54,
            "duration": 4.44
        },
        {
            "text": "if I remember correctly",
            "start": 959.82,
            "duration": 4.019
        },
        {
            "text": "uh",
            "start": 961.98,
            "duration": 3.659
        },
        {
            "text": "it is yeah if I remember correctly I",
            "start": 963.839,
            "duration": 3.421
        },
        {
            "text": "can't I don't know why but I know it's",
            "start": 965.639,
            "duration": 4.32
        },
        {
            "text": "like really bad uh endpoint per database",
            "start": 967.26,
            "duration": 4.319
        },
        {
            "text": "query and intentionally contains no",
            "start": 969.959,
            "duration": 3.661
        },
        {
            "text": "business Logic the big features are data",
            "start": 971.579,
            "duration": 3.301
        },
        {
            "text": "services provide is requesting",
            "start": 973.62,
            "duration": 3.36
        },
        {
            "text": "coalescing if multiple users are",
            "start": 974.88,
            "duration": 3.6
        },
        {
            "text": "requesting the same row at the same time",
            "start": 976.98,
            "duration": 3.24
        },
        {
            "text": "we only query the database once the",
            "start": 978.48,
            "duration": 3.96
        },
        {
            "text": "first user that makes a request causes a",
            "start": 980.22,
            "duration": 3.72
        },
        {
            "text": "worker test to spin up at the service",
            "start": 982.44,
            "duration": 3.6
        },
        {
            "text": "subsequent requests will check for the",
            "start": 983.94,
            "duration": 3.72
        },
        {
            "text": "existence of the test and subscribe to",
            "start": 986.04,
            "duration": 4.08
        },
        {
            "text": "it that worker task will query the",
            "start": 987.66,
            "duration": 4.14
        },
        {
            "text": "database okay this makes perfect sense",
            "start": 990.12,
            "duration": 3.48
        },
        {
            "text": "do you know why this makes sense it",
            "start": 991.8,
            "duration": 3.24
        },
        {
            "text": "makes such good sense because you can",
            "start": 993.6,
            "duration": 3.06
        },
        {
            "text": "imagine that if we were to jump right",
            "start": 995.04,
            "duration": 3.719
        },
        {
            "text": "now into Discord right last time I did",
            "start": 996.66,
            "duration": 3.66
        },
        {
            "text": "this someone posted a peen so we're",
            "start": 998.759,
            "duration": 3.181
        },
        {
            "text": "going to be quick here and we say",
            "start": 1000.32,
            "duration": 4.5
        },
        {
            "text": "something hi Mom so many people at the",
            "start": 1001.94,
            "duration": 5.04
        },
        {
            "text": "exact same time are gonna see this thing",
            "start": 1004.82,
            "duration": 3.54
        },
        {
            "text": "from happening and so many people going",
            "start": 1006.98,
            "duration": 2.88
        },
        {
            "text": "there right now are going to see this",
            "start": 1008.36,
            "duration": 4.14
        },
        {
            "text": "thing happening so therefore what",
            "start": 1009.86,
            "duration": 4.26
        },
        {
            "text": "happens",
            "start": 1012.5,
            "duration": 4.92
        },
        {
            "text": "when we do this right which is well a",
            "start": 1014.12,
            "duration": 5.159
        },
        {
            "text": "lot of people are causing reads if a lot",
            "start": 1017.42,
            "duration": 4.56
        },
        {
            "text": "of people cause reads",
            "start": 1019.279,
            "duration": 5.4
        },
        {
            "text": "why query the database 900 times right",
            "start": 1021.98,
            "duration": 4.14
        },
        {
            "text": "it makes perfect sense this is great",
            "start": 1024.679,
            "duration": 3.061
        },
        {
            "text": "this is a great great thing right here",
            "start": 1026.12,
            "duration": 4.62
        },
        {
            "text": "this is the power of rust in action it",
            "start": 1027.74,
            "duration": 4.74
        },
        {
            "text": "made it easy to write safe concurrent",
            "start": 1030.74,
            "duration": 4.5
        },
        {
            "text": "code let's go rust oh it feels good to",
            "start": 1032.48,
            "duration": 4.8
        },
        {
            "text": "be a rust Asian doesn't it oh man you",
            "start": 1035.24,
            "duration": 4.319
        },
        {
            "text": "and your pathetic C plus plus or rust",
            "start": 1037.28,
            "duration": 4.019
        },
        {
            "text": "minus minus or whatever we call it and",
            "start": 1039.559,
            "duration": 3.02
        },
        {
            "text": "Java",
            "start": 1041.299,
            "duration": 4.921
        },
        {
            "text": "right seriously I'd rather write",
            "start": 1042.579,
            "duration": 5.98
        },
        {
            "text": "JavaScript than Java",
            "start": 1046.22,
            "duration": 4.56
        },
        {
            "text": "uh let's imagine a big announcement on a",
            "start": 1048.559,
            "duration": 3.841
        },
        {
            "text": "large server that notifies at everyone",
            "start": 1050.78,
            "duration": 3.54
        },
        {
            "text": "users are going to open the app and read",
            "start": 1052.4,
            "duration": 3.6
        },
        {
            "text": "the messages sending tons of traffic to",
            "start": 1054.32,
            "duration": 2.94
        },
        {
            "text": "the database",
            "start": 1056.0,
            "duration": 4.5
        },
        {
            "text": "boom I called it called it ad everybody",
            "start": 1057.26,
            "duration": 4.919
        },
        {
            "text": "called it",
            "start": 1060.5,
            "duration": 3.66
        },
        {
            "text": "previously this might lead to a hot",
            "start": 1062.179,
            "duration": 3.721
        },
        {
            "text": "partition an on-call would potentially",
            "start": 1064.16,
            "duration": 3.18
        },
        {
            "text": "need to be page to help the system",
            "start": 1065.9,
            "duration": 3.06
        },
        {
            "text": "recover with our data services we're",
            "start": 1067.34,
            "duration": 2.88
        },
        {
            "text": "able to significantly reduce traffic",
            "start": 1068.96,
            "duration": 3.24
        },
        {
            "text": "spikes against the database the second",
            "start": 1070.22,
            "duration": 3.54
        },
        {
            "text": "part of the magic here is the Upstream",
            "start": 1072.2,
            "duration": 3.0
        },
        {
            "text": "of our data services we Implement a",
            "start": 1073.76,
            "duration": 3.36
        },
        {
            "text": "consistent hashing based routing to our",
            "start": 1075.2,
            "duration": 5.88
        },
        {
            "text": "yes yes dude I love this okay this is so",
            "start": 1077.12,
            "duration": 6.66
        },
        {
            "text": "good consistent hashing for routing is",
            "start": 1081.08,
            "duration": 4.32
        },
        {
            "text": "so beautiful we don't use it at Netflix",
            "start": 1083.78,
            "duration": 3.6
        },
        {
            "text": "which I I honestly think that if we",
            "start": 1085.4,
            "duration": 4.86
        },
        {
            "text": "started using this we could save a",
            "start": 1087.38,
            "duration": 4.74
        },
        {
            "text": "bajillion dollars",
            "start": 1090.26,
            "duration": 4.32
        },
        {
            "text": "hash routing is amazing I think uh at",
            "start": 1092.12,
            "duration": 3.96
        },
        {
            "text": "one point it was called Ring Pop I don't",
            "start": 1094.58,
            "duration": 2.88
        },
        {
            "text": "know what they call it now but that's",
            "start": 1096.08,
            "duration": 3.479
        },
        {
            "text": "effectively the same idea for each",
            "start": 1097.46,
            "duration": 3.78
        },
        {
            "text": "message a request to our data services",
            "start": 1099.559,
            "duration": 3.421
        },
        {
            "text": "we provide a routing key for messages",
            "start": 1101.24,
            "duration": 3.36
        },
        {
            "text": "this was a channel ID so all the",
            "start": 1102.98,
            "duration": 3.54
        },
        {
            "text": "requests for the same channel go to the",
            "start": 1104.6,
            "duration": 3.84
        },
        {
            "text": "same instance of the server yes yes this",
            "start": 1106.52,
            "duration": 3.539
        },
        {
            "text": "routing further helps reduce load yes",
            "start": 1108.44,
            "duration": 3.479
        },
        {
            "text": "yes",
            "start": 1110.059,
            "duration": 3.421
        },
        {
            "text": "these improvements help a lot but they",
            "start": 1111.919,
            "duration": 2.701
        },
        {
            "text": "don't solve all of our problems we're",
            "start": 1113.48,
            "duration": 2.34
        },
        {
            "text": "still seeing hot partitions and",
            "start": 1114.62,
            "duration": 2.52
        },
        {
            "text": "increased latency on our Cassandra",
            "start": 1115.82,
            "duration": 4.38
        },
        {
            "text": "clusters just not quite as frequently it",
            "start": 1117.14,
            "duration": 4.38
        },
        {
            "text": "buys us some time that we can prepare",
            "start": 1120.2,
            "duration": 4.02
        },
        {
            "text": "our new optimal scila cluster and",
            "start": 1121.52,
            "duration": 5.779
        },
        {
            "text": "execute the migration",
            "start": 1124.22,
            "duration": 3.079
        },
        {
            "text": "Let's go people are you ready for it our",
            "start": 1127.4,
            "duration": 4.139
        },
        {
            "text": "requirements for our migration are quite",
            "start": 1130.1,
            "duration": 2.699
        },
        {
            "text": "straightforward we need to migrate",
            "start": 1131.539,
            "duration": 2.941
        },
        {
            "text": "trillions of messages with no downtime",
            "start": 1132.799,
            "duration": 2.941
        },
        {
            "text": "and we need to do it quickly because",
            "start": 1134.48,
            "duration": 2.76
        },
        {
            "text": "while the Cassandra situation has",
            "start": 1135.74,
            "duration": 2.58
        },
        {
            "text": "somewhat improved we're frequently",
            "start": 1137.24,
            "duration": 3.059
        },
        {
            "text": "firefighting Step One is easy we",
            "start": 1138.32,
            "duration": 4.44
        },
        {
            "text": "provision a new silent cluster using our",
            "start": 1140.299,
            "duration": 5.401
        },
        {
            "text": "super disk storage topology by using",
            "start": 1142.76,
            "duration": 5.039
        },
        {
            "text": "local ssds for Speed and leveraging raid",
            "start": 1145.7,
            "duration": 4.38
        },
        {
            "text": "to mirror our data to persistent uh to",
            "start": 1147.799,
            "duration": 4.5
        },
        {
            "text": "persistent disk we get the speed of",
            "start": 1150.08,
            "duration": 4.14
        },
        {
            "text": "attached local discs with the durability",
            "start": 1152.299,
            "duration": 3.961
        },
        {
            "text": "of persistent disk with our cluster",
            "start": 1154.22,
            "duration": 3.959
        },
        {
            "text": "stood up we can begin migraine gosh that",
            "start": 1156.26,
            "duration": 5.419
        },
        {
            "text": "step one does not sound easy",
            "start": 1158.179,
            "duration": 3.5
        },
        {
            "text": "that sounds like a lot of effort that",
            "start": 1162.26,
            "duration": 3.72
        },
        {
            "text": "sounds like years of engineering went",
            "start": 1164.299,
            "duration": 3.481
        },
        {
            "text": "into that step one simple we're just",
            "start": 1165.98,
            "duration": 5.4
        },
        {
            "text": "gonna do magic okay sure ten years ago",
            "start": 1167.78,
            "duration": 5.04
        },
        {
            "text": "people would have never thought to do",
            "start": 1171.38,
            "duration": 5.22
        },
        {
            "text": "such a thing but today easy magic step",
            "start": 1172.82,
            "duration": 8.34
        },
        {
            "text": "one make it magic local speed persistent",
            "start": 1176.6,
            "duration": 9.5
        },
        {
            "text": "data storage raid right okay",
            "start": 1181.16,
            "duration": 4.94
        },
        {
            "text": "our first draft of our migration plan",
            "start": 1193.22,
            "duration": 3.66
        },
        {
            "text": "was designed uh designed to get value",
            "start": 1194.96,
            "duration": 3.839
        },
        {
            "text": "quickly we started using our shiny new",
            "start": 1196.88,
            "duration": 4.62
        },
        {
            "text": "Sila DB cluster for new data using cut",
            "start": 1198.799,
            "duration": 5.041
        },
        {
            "text": "over time then migrated historical data",
            "start": 1201.5,
            "duration": 3.96
        },
        {
            "text": "behind it okay this that seems like the",
            "start": 1203.84,
            "duration": 3.3
        },
        {
            "text": "right move though honestly that seems",
            "start": 1205.46,
            "duration": 2.7
        },
        {
            "text": "like the right move and you're fine",
            "start": 1207.14,
            "duration": 2.58
        },
        {
            "text": "doing slower requests because within a",
            "start": 1208.16,
            "duration": 3.06
        },
        {
            "text": "small period of time people don't I",
            "start": 1209.72,
            "duration": 3.36
        },
        {
            "text": "assume the amount of messages being",
            "start": 1211.22,
            "duration": 3.66
        },
        {
            "text": "viewed Beyond it like",
            "start": 1213.08,
            "duration": 4.08
        },
        {
            "text": "a certain time frame gets really small",
            "start": 1214.88,
            "duration": 4.02
        },
        {
            "text": "right",
            "start": 1217.16,
            "duration": 3.78
        },
        {
            "text": "uh it adds more complexity but what",
            "start": 1218.9,
            "duration": 3.42
        },
        {
            "text": "every large project needs is an",
            "start": 1220.94,
            "duration": 3.06
        },
        {
            "text": "additional complexity right absolutely",
            "start": 1222.32,
            "duration": 3.66
        },
        {
            "text": "but that's why I use rust",
            "start": 1224.0,
            "duration": 4.2
        },
        {
            "text": "uh we begin dual writing new data to",
            "start": 1225.98,
            "duration": 4.02
        },
        {
            "text": "Cassandra and Silo DB and can currently",
            "start": 1228.2,
            "duration": 3.96
        },
        {
            "text": "begin provisioning Sila uh DB's spark",
            "start": 1230.0,
            "duration": 4.32
        },
        {
            "text": "migrator uh it requires a lot of tuning",
            "start": 1232.16,
            "duration": 3.36
        },
        {
            "text": "and once we get it set up we have",
            "start": 1234.32,
            "duration": 3.3
        },
        {
            "text": "estimated time to completion three",
            "start": 1235.52,
            "duration": 4.76
        },
        {
            "text": "months",
            "start": 1237.62,
            "duration": 2.66
        },
        {
            "text": "yeah a trillion's a lot you forget how",
            "start": 1246.28,
            "duration": 6.04
        },
        {
            "text": "much a trillion is right people forget",
            "start": 1250.16,
            "duration": 4.139
        },
        {
            "text": "that if you're doing a trillion from one",
            "start": 1252.32,
            "duration": 4.56
        },
        {
            "text": "large DB service to another it is like",
            "start": 1254.299,
            "duration": 4.62
        },
        {
            "text": "insane the amount of time",
            "start": 1256.88,
            "duration": 3.48
        },
        {
            "text": "that time frame doesn't make us feel",
            "start": 1258.919,
            "duration": 3.0
        },
        {
            "text": "warm and fuzzy inside and we'd prefer to",
            "start": 1260.36,
            "duration": 3.48
        },
        {
            "text": "get value faster we'd sit down as a",
            "start": 1261.919,
            "duration": 3.241
        },
        {
            "text": "demon brainstorm ways we can speed",
            "start": 1263.84,
            "duration": 2.88
        },
        {
            "text": "things up until we remember that we've",
            "start": 1265.16,
            "duration": 3.3
        },
        {
            "text": "written as fast and perform a database",
            "start": 1266.72,
            "duration": 3.839
        },
        {
            "text": "Library as we could potentially extend",
            "start": 1268.46,
            "duration": 4.74
        },
        {
            "text": "we neglect to engage in some meme driven",
            "start": 1270.559,
            "duration": 4.021
        },
        {
            "text": "engineering and rewrite the data",
            "start": 1273.2,
            "duration": 3.839
        },
        {
            "text": "migrator in Rust no shut shut the [\u00a0__\u00a0]",
            "start": 1274.58,
            "duration": 6.0
        },
        {
            "text": "door no way are we doing it in an",
            "start": 1277.039,
            "duration": 4.861
        },
        {
            "text": "afternoon we extend our data service",
            "start": 1280.58,
            "duration": 3.06
        },
        {
            "text": "library to perform large-scale data",
            "start": 1281.9,
            "duration": 3.54
        },
        {
            "text": "migrations it reads token ranges from",
            "start": 1283.64,
            "duration": 3.3
        },
        {
            "text": "the database checkpoints them locally",
            "start": 1285.44,
            "duration": 4.08
        },
        {
            "text": "via a squeal light and then fire hose",
            "start": 1286.94,
            "duration": 5.94
        },
        {
            "text": "them into Silo DB we hook up our new and",
            "start": 1289.52,
            "duration": 5.22
        },
        {
            "text": "improved migrator and get new estimate",
            "start": 1292.88,
            "duration": 6.12
        },
        {
            "text": "nine days let's go oh my goodness rust",
            "start": 1294.74,
            "duration": 6.179
        },
        {
            "text": "is coming in again oh this is too good",
            "start": 1299.0,
            "duration": 4.919
        },
        {
            "text": "it's too good it's too good",
            "start": 1300.919,
            "duration": 5.101
        },
        {
            "text": "if we can migrate data this quickly then",
            "start": 1303.919,
            "duration": 3.901
        },
        {
            "text": "we can forget our complicated time Bros",
            "start": 1306.02,
            "duration": 4.32
        },
        {
            "text": "to a Time based approach instead flip",
            "start": 1307.82,
            "duration": 4.68
        },
        {
            "text": "the switch for everything at once",
            "start": 1310.34,
            "duration": 3.839
        },
        {
            "text": "we turn it on and leave it running",
            "start": 1312.5,
            "duration": 4.2
        },
        {
            "text": "migrating messages at the speed of 3.2",
            "start": 1314.179,
            "duration": 5.281
        },
        {
            "text": "million per second several days later We",
            "start": 1316.7,
            "duration": 5.04
        },
        {
            "text": "Gather to watch it hit 100 and then we",
            "start": 1319.46,
            "duration": 4.68
        },
        {
            "text": "realized it's stuck at 99 and a bunch of",
            "start": 1321.74,
            "duration": 5.88
        },
        {
            "text": "other nines complete no really",
            "start": 1324.14,
            "duration": 5.88
        },
        {
            "text": "our migrator is timing out reading the",
            "start": 1327.62,
            "duration": 4.26
        },
        {
            "text": "last few token ranges of data because",
            "start": 1330.02,
            "duration": 3.659
        },
        {
            "text": "they contain gigantic ranges of",
            "start": 1331.88,
            "duration": 3.72
        },
        {
            "text": "tombstones that were never compacted",
            "start": 1333.679,
            "duration": 3.961
        },
        {
            "text": "away in Cassandra",
            "start": 1335.6,
            "duration": 4.02
        },
        {
            "text": "ha ha",
            "start": 1337.64,
            "duration": 4.039
        },
        {
            "text": "ha ha ha",
            "start": 1339.62,
            "duration": 2.059
        },
        {
            "text": "you don't mess with oh no oh no when you",
            "start": 1346.1,
            "duration": 5.459
        },
        {
            "text": "don't measure things by the space they",
            "start": 1349.7,
            "duration": 3.479
        },
        {
            "text": "take but by like how many have you ever",
            "start": 1351.559,
            "duration": 3.12
        },
        {
            "text": "done that with Git You download",
            "start": 1353.179,
            "duration": 6.36
        },
        {
            "text": "something it's like 20 40 60 80 percent",
            "start": 1354.679,
            "duration": 7.201
        },
        {
            "text": "81 and you're like dude I only have five",
            "start": 1359.539,
            "duration": 5.041
        },
        {
            "text": "left 85 you're like what the hell is",
            "start": 1361.88,
            "duration": 4.74
        },
        {
            "text": "happening and then it just like just",
            "start": 1364.58,
            "duration": 4.62
        },
        {
            "text": "stops because it can't count the size it",
            "start": 1366.62,
            "duration": 4.38
        },
        {
            "text": "can only count like how many units there",
            "start": 1369.2,
            "duration": 4.92
        },
        {
            "text": "are oh ah this is a beautiful problem",
            "start": 1371.0,
            "duration": 5.64
        },
        {
            "text": "our migrator is timing out reading the",
            "start": 1374.12,
            "duration": 4.2
        },
        {
            "text": "last few token ranges of data because",
            "start": 1376.64,
            "duration": 3.419
        },
        {
            "text": "they contain gigantic ranges of",
            "start": 1378.32,
            "duration": 2.82
        },
        {
            "text": "tombstones that were never compacted",
            "start": 1380.059,
            "duration": 2.521
        },
        {
            "text": "away in Cassandra we compact the token",
            "start": 1381.14,
            "duration": 3.0
        },
        {
            "text": "range then seconds later the migration",
            "start": 1382.58,
            "duration": 4.079
        },
        {
            "text": "is completed we performed automated data",
            "start": 1384.14,
            "duration": 4.14
        },
        {
            "text": "validation by sending a small percentage",
            "start": 1386.659,
            "duration": 3.121
        },
        {
            "text": "of reads to both databases comparing",
            "start": 1388.28,
            "duration": 2.879
        },
        {
            "text": "results and everything looked great the",
            "start": 1389.78,
            "duration": 3.6
        },
        {
            "text": "Clusters held up as well with full",
            "start": 1391.159,
            "duration": 4.02
        },
        {
            "text": "production traffic whereas Cassandra was",
            "start": 1393.38,
            "duration": 3.72
        },
        {
            "text": "suffering increasingly frequent latency",
            "start": 1395.179,
            "duration": 4.081
        },
        {
            "text": "issues we gathered together as a team on",
            "start": 1397.1,
            "duration": 4.559
        },
        {
            "text": "site flip the switch to make Silo DB the",
            "start": 1399.26,
            "duration": 4.62
        },
        {
            "text": "primary database and eight celebratory",
            "start": 1401.659,
            "duration": 3.421
        },
        {
            "text": "cake",
            "start": 1403.88,
            "duration": 3.72
        },
        {
            "text": "I hear cakes a lie okay personally I've",
            "start": 1405.08,
            "duration": 3.78
        },
        {
            "text": "heard that",
            "start": 1407.6,
            "duration": 3.059
        },
        {
            "text": "I've heard this",
            "start": 1408.86,
            "duration": 4.559
        },
        {
            "text": "several months later",
            "start": 1410.659,
            "duration": 4.621
        },
        {
            "text": "let's hear this is where everything went",
            "start": 1413.419,
            "duration": 3.181
        },
        {
            "text": "bad because they're going to rewrite it",
            "start": 1415.28,
            "duration": 2.519
        },
        {
            "text": "and come on they're going to rewrite it",
            "start": 1416.6,
            "duration": 3.24
        },
        {
            "text": "they're rewriting it rust here we go we",
            "start": 1417.799,
            "duration": 3.36
        },
        {
            "text": "switched our message to messages",
            "start": 1419.84,
            "duration": 4.44
        },
        {
            "text": "database over in May 2022 but how's it",
            "start": 1421.159,
            "duration": 4.561
        },
        {
            "text": "held up since then it's been quite",
            "start": 1424.28,
            "duration": 3.24
        },
        {
            "text": "well-behaved database it's okay to say",
            "start": 1425.72,
            "duration": 4.98
        },
        {
            "text": "this because I'm not on call this week",
            "start": 1427.52,
            "duration": 5.34
        },
        {
            "text": "we're not having weak and long fire",
            "start": 1430.7,
            "duration": 4.26
        },
        {
            "text": "fights nor are we juggling nodes in a",
            "start": 1432.86,
            "duration": 4.14
        },
        {
            "text": "cluster to attempt uh to preserve uptime",
            "start": 1434.96,
            "duration": 4.079
        },
        {
            "text": "it's much more efficient database we're",
            "start": 1437.0,
            "duration": 4.62
        },
        {
            "text": "going from running 177 plus Cassandra",
            "start": 1439.039,
            "duration": 5.161
        },
        {
            "text": "nodes to just 72 Silo DB notes man the",
            "start": 1441.62,
            "duration": 4.919
        },
        {
            "text": "power of garbage collection",
            "start": 1444.2,
            "duration": 4.56
        },
        {
            "text": "this is actually super cool the power of",
            "start": 1446.539,
            "duration": 3.541
        },
        {
            "text": "garbage collection is out of this world",
            "start": 1448.76,
            "duration": 3.779
        },
        {
            "text": "each style of DB node has nine terabyte",
            "start": 1450.08,
            "duration": 4.74
        },
        {
            "text": "of disk space up from the average of",
            "start": 1452.539,
            "duration": 6.0
        },
        {
            "text": "four terabyte on Cassandra node wow",
            "start": 1454.82,
            "duration": 5.76
        },
        {
            "text": "our tail latencies have improved",
            "start": 1458.539,
            "duration": 3.481
        },
        {
            "text": "drastically for example fetching",
            "start": 1460.58,
            "duration": 4.079
        },
        {
            "text": "historic messages had a P99 of somewhere",
            "start": 1462.02,
            "duration": 4.74
        },
        {
            "text": "between 40 to 125 milliseconds on",
            "start": 1464.659,
            "duration": 4.5
        },
        {
            "text": "Cassandra with Sila having a nice and",
            "start": 1466.76,
            "duration": 6.56
        },
        {
            "text": "chill 15 millisecond P99",
            "start": 1469.159,
            "duration": 8.461
        },
        {
            "text": "she that is out of control",
            "start": 1473.32,
            "duration": 6.64
        },
        {
            "text": "and message insert performance has gone",
            "start": 1477.62,
            "duration": 4.679
        },
        {
            "text": "from 5 to 70 milliseconds P99 and",
            "start": 1479.96,
            "duration": 4.38
        },
        {
            "text": "Cassandra to a steady five milliseconds",
            "start": 1482.299,
            "duration": 4.441
        },
        {
            "text": "on P wow",
            "start": 1484.34,
            "duration": 5.16
        },
        {
            "text": "dude that is insane",
            "start": 1486.74,
            "duration": 5.1
        },
        {
            "text": "thanks to the aforementioned performance",
            "start": 1489.5,
            "duration": 3.9
        },
        {
            "text": "improvements we've unlocked new products",
            "start": 1491.84,
            "duration": 3.12
        },
        {
            "text": "use cases now that we have confidence in",
            "start": 1493.4,
            "duration": 4.38
        },
        {
            "text": "our message database wow at the end of",
            "start": 1494.96,
            "duration": 4.62
        },
        {
            "text": "2022 people all over the world tuned in",
            "start": 1497.78,
            "duration": 3.6
        },
        {
            "text": "to watch the World Cup one thing we",
            "start": 1499.58,
            "duration": 3.42
        },
        {
            "text": "discovered very quickly was our goals",
            "start": 1501.38,
            "duration": 4.679
        },
        {
            "text": "scored showed up in our monitoring uh",
            "start": 1503.0,
            "duration": 5.58
        },
        {
            "text": "graphs this was very cool because not",
            "start": 1506.059,
            "duration": 4.86
        },
        {
            "text": "only is it neat to see real world events",
            "start": 1508.58,
            "duration": 4.14
        },
        {
            "text": "show up in your systems but this gave",
            "start": 1510.919,
            "duration": 3.721
        },
        {
            "text": "our team an excuse to watch soccer",
            "start": 1512.72,
            "duration": 3.9
        },
        {
            "text": "during the meetings we weren't watching",
            "start": 1514.64,
            "duration": 3.419
        },
        {
            "text": "soccer during meetings we were",
            "start": 1516.62,
            "duration": 3.299
        },
        {
            "text": "proactively monitoring our system's",
            "start": 1518.059,
            "duration": 4.281
        },
        {
            "text": "performance",
            "start": 1519.919,
            "duration": 2.421
        },
        {
            "text": "that period made it inside the quotes",
            "start": 1523.52,
            "duration": 3.6
        },
        {
            "text": "people you see that that one made it",
            "start": 1525.14,
            "duration": 3.18
        },
        {
            "text": "inside but look at that that's actually",
            "start": 1527.12,
            "duration": 4.32
        },
        {
            "text": "that's super cool you can see the goals",
            "start": 1528.32,
            "duration": 4.859
        },
        {
            "text": "being scored ah I love it we actually",
            "start": 1531.44,
            "duration": 3.359
        },
        {
            "text": "tell the story of the World Cup final",
            "start": 1533.179,
            "duration": 4.5
        },
        {
            "text": "via our message uh send graph the match",
            "start": 1534.799,
            "duration": 6.661
        },
        {
            "text": "was tremendous uh Lionel Messier I was",
            "start": 1537.679,
            "duration": 5.161
        },
        {
            "text": "uh let's see it was trying to check off",
            "start": 1541.46,
            "duration": 3.24
        },
        {
            "text": "the last message accomplishment or the",
            "start": 1542.84,
            "duration": 3.36
        },
        {
            "text": "last accomplishment in his career and",
            "start": 1544.7,
            "duration": 2.94
        },
        {
            "text": "cement his claim to being the greatest",
            "start": 1546.2,
            "duration": 3.959
        },
        {
            "text": "of all time and Lead Argentina to the",
            "start": 1547.64,
            "duration": 4.8
        },
        {
            "text": "championship but in his ways to the",
            "start": 1550.159,
            "duration": 5.041
        },
        {
            "text": "massively talented ezekillian kylian",
            "start": 1552.44,
            "duration": 5.099
        },
        {
            "text": "kylian I don't know how to say this uh",
            "start": 1555.2,
            "duration": 3.74
        },
        {
            "text": "um",
            "start": 1557.539,
            "duration": 3.481
        },
        {
            "text": "parlez-vous Francais I don't watch",
            "start": 1558.94,
            "duration": 3.219
        },
        {
            "text": "soccer so I don't know any of the soccer",
            "start": 1561.02,
            "duration": 2.46
        },
        {
            "text": "names it's football I don't watch",
            "start": 1562.159,
            "duration": 4.201
        },
        {
            "text": "football okay I don't uh each of the",
            "start": 1563.48,
            "duration": 4.559
        },
        {
            "text": "nine spikes in this graph represents an",
            "start": 1566.36,
            "duration": 4.14
        },
        {
            "text": "event in the match Messe hits a penalty",
            "start": 1568.039,
            "duration": 4.62
        },
        {
            "text": "Argentina goes one one zero let's go",
            "start": 1570.5,
            "duration": 4.26
        },
        {
            "text": "Argentina anytime Argentina can beat",
            "start": 1572.659,
            "duration": 4.62
        },
        {
            "text": "France I'm I'm in for it uh Argentina",
            "start": 1574.76,
            "duration": 4.62
        },
        {
            "text": "scores again let's go it's halftime",
            "start": 1577.279,
            "duration": 4.321
        },
        {
            "text": "they're sustained 15-minute Plateau as",
            "start": 1579.38,
            "duration": 4.08
        },
        {
            "text": "users chat about the match",
            "start": 1581.6,
            "duration": 3.9
        },
        {
            "text": "okay yeah I can see that",
            "start": 1583.46,
            "duration": 4.26
        },
        {
            "text": "the big spike occurs when",
            "start": 1585.5,
            "duration": 4.26
        },
        {
            "text": "I'll just call him bappy when bappy",
            "start": 1587.72,
            "duration": 3.9
        },
        {
            "text": "scores for a parlay Buffon say it scores",
            "start": 1589.76,
            "duration": 3.96
        },
        {
            "text": "again in 90 seconds later to tie it up",
            "start": 1591.62,
            "duration": 4.86
        },
        {
            "text": "damn the back to back",
            "start": 1593.72,
            "duration": 4.439
        },
        {
            "text": "it's the end of regulation this is a",
            "start": 1596.48,
            "duration": 4.199
        },
        {
            "text": "huge map or Mash is going to extra time",
            "start": 1598.159,
            "duration": 3.961
        },
        {
            "text": "not much happens for the first half of",
            "start": 1600.679,
            "duration": 2.581
        },
        {
            "text": "the time but we reach the end users",
            "start": 1602.12,
            "duration": 2.76
        },
        {
            "text": "chatting Messi scores again and",
            "start": 1603.26,
            "duration": 3.72
        },
        {
            "text": "Argentina takes the lead bappy Stripes",
            "start": 1604.88,
            "duration": 3.84
        },
        {
            "text": "again ties it up it's the end of the",
            "start": 1606.98,
            "duration": 3.059
        },
        {
            "text": "extra time we're heading to penalty",
            "start": 1608.72,
            "duration": 2.64
        },
        {
            "text": "kicks excitement and stress grows",
            "start": 1610.039,
            "duration": 2.581
        },
        {
            "text": "throughout the shout out until France",
            "start": 1611.36,
            "duration": 3.98
        },
        {
            "text": "misses and Argentina doesn't uh",
            "start": 1612.62,
            "duration": 6.72
        },
        {
            "text": "Argentina let's go I never even watched",
            "start": 1615.34,
            "duration": 5.74
        },
        {
            "text": "this this is fantastic this probably was",
            "start": 1619.34,
            "duration": 3.66
        },
        {
            "text": "a lot of fun to watch",
            "start": 1621.08,
            "duration": 3.839
        },
        {
            "text": "that was cool people all over the world",
            "start": 1623.0,
            "duration": 3.299
        },
        {
            "text": "stressed watching this incredible match",
            "start": 1624.919,
            "duration": 2.821
        },
        {
            "text": "but meanwhile Discord and the message",
            "start": 1626.299,
            "duration": 3.901
        },
        {
            "text": "database aren't breaking a sweat we're",
            "start": 1627.74,
            "duration": 4.2
        },
        {
            "text": "way up on messages send and handling it",
            "start": 1630.2,
            "duration": 3.54
        },
        {
            "text": "perfectly with our rust-based data",
            "start": 1631.94,
            "duration": 4.68
        },
        {
            "text": "services let's go rust and Silent EB",
            "start": 1633.74,
            "duration": 4.74
        },
        {
            "text": "we're able to shoulder this traffic and",
            "start": 1636.62,
            "duration": 3.36
        },
        {
            "text": "provide platform for our users to",
            "start": 1638.48,
            "duration": 3.299
        },
        {
            "text": "communicate we've built a system that",
            "start": 1639.98,
            "duration": 3.24
        },
        {
            "text": "can handle trillions of messages and if",
            "start": 1641.779,
            "duration": 3.541
        },
        {
            "text": "it works and if this work is something",
            "start": 1643.22,
            "duration": 4.38
        },
        {
            "text": "that excites you check out",
            "start": 1645.32,
            "duration": 5.54
        },
        {
            "text": "our career page",
            "start": 1647.6,
            "duration": 3.26
        },
        {
            "text": "check it out if you like rust okay uh by",
            "start": 1653.0,
            "duration": 7.679
        },
        {
            "text": "the way this bow fella right here hey Bo",
            "start": 1656.9,
            "duration": 5.1
        },
        {
            "text": "I would just like to let you know",
            "start": 1660.679,
            "duration": 3.841
        },
        {
            "text": "personally that I genuinely enjoyed",
            "start": 1662.0,
            "duration": 5.34
        },
        {
            "text": "reading this article it was great",
            "start": 1664.52,
            "duration": 5.519
        },
        {
            "text": "and I'm very happy that you rewrote it",
            "start": 1667.34,
            "duration": 5.06
        },
        {
            "text": "in Rust",
            "start": 1670.039,
            "duration": 2.361
        },
        {
            "text": "Honestly made me happy everyone give",
            "start": 1673.6,
            "duration": 3.579
        },
        {
            "text": "them a clap give them a clap give boat",
            "start": 1675.799,
            "duration": 5.661
        },
        {
            "text": "clap say nice job Bo W for Bo",
            "start": 1677.179,
            "duration": 4.281
        }
    ],
    "stats": {
        "viewCount": "151350",
        "likeCount": "5078",
        "favoriteCount": "0",
        "commentCount": "368"
    }
}