{
    "id": "UzGUjCjGyp8",
    "title": "LMAOLang   The Greatest Programming Language in 2024",
    "publishedAt": "2024-01-29T14:00:32Z",
    "captions": [
        {
            "text": "this is a brand new way to write HTML",
            "start": 0.359,
            "duration": 4.44
        },
        {
            "text": "with Millennial clappy by the way this",
            "start": 3.12,
            "duration": 3.44
        },
        {
            "text": "is the most Millennial ass thing you can",
            "start": 4.799,
            "duration": 4.241
        },
        {
            "text": "possibly do is add clappy in between",
            "start": 6.56,
            "duration": 4.44
        },
        {
            "text": "every word you say this is this is",
            "start": 9.04,
            "duration": 4.44
        },
        {
            "text": "Millennial code right here there is no",
            "start": 11.0,
            "duration": 4.44
        },
        {
            "text": "more Millennial thing to do than than",
            "start": 13.48,
            "duration": 4.879
        },
        {
            "text": "clappy all right let's check this out",
            "start": 15.44,
            "duration": 5.8
        },
        {
            "text": "Lal Lang number one new programming",
            "start": 18.359,
            "duration": 4.76
        },
        {
            "text": "language in the world award",
            "start": 21.24,
            "duration": 7.4
        },
        {
            "text": "2024 revolution in HTML Lalo is a unique",
            "start": 23.119,
            "duration": 7.48
        },
        {
            "text": "programming language",
            "start": 28.64,
            "duration": 3.639
        },
        {
            "text": "okay again I've said this before and",
            "start": 30.599,
            "duration": 3.041
        },
        {
            "text": "people didn't like it but I'll say it",
            "start": 32.279,
            "duration": 4.001
        },
        {
            "text": "again if emojis are part of your culture",
            "start": 33.64,
            "duration": 5.04
        },
        {
            "text": "you have an objectively bad culture Lal",
            "start": 36.28,
            "duration": 4.48
        },
        {
            "text": "Lang is a unique programming language",
            "start": 38.68,
            "duration": 4.08
        },
        {
            "text": "that uses emojis to represent HTML",
            "start": 40.76,
            "duration": 5.439
        },
        {
            "text": "elements it's design it's designed for",
            "start": 42.76,
            "duration": 5.959
        },
        {
            "text": "those who love to mix creativity and",
            "start": 46.199,
            "duration": 4.921
        },
        {
            "text": "coding okay I hope everyone's excited",
            "start": 48.719,
            "duration": 5.84
        },
        {
            "text": "about this we got a trailer video so",
            "start": 51.12,
            "duration": 5.759
        },
        {
            "text": "politeness you have added so much to the",
            "start": 54.559,
            "duration": 5.401
        },
        {
            "text": "world of programming but do you believe",
            "start": 56.879,
            "duration": 5.48
        },
        {
            "text": "in the Next Generation what are some of",
            "start": 59.96,
            "duration": 4.12
        },
        {
            "text": "the interesting projects that you might",
            "start": 62.359,
            "duration": 4.12
        },
        {
            "text": "have seen recently that gave you hope in",
            "start": 64.08,
            "duration": 6.84
        },
        {
            "text": "the future I believe uh laau Lang is the",
            "start": 66.479,
            "duration": 7.801
        },
        {
            "text": "single most Innovative and most genius",
            "start": 70.92,
            "duration": 5.239
        },
        {
            "text": "project to have been released in the",
            "start": 74.28,
            "duration": 4.24
        },
        {
            "text": "past",
            "start": 76.159,
            "duration": 2.361
        },
        {
            "text": "decade and people thought AI was a",
            "start": 84.759,
            "duration": 5.881
        },
        {
            "text": "mistake okay it's clearly not",
            "start": 87.56,
            "duration": 6.839
        },
        {
            "text": "this was so good let's go let's go that",
            "start": 90.64,
            "duration": 6.759
        },
        {
            "text": "was so good lonus approved lonus",
            "start": 94.399,
            "duration": 4.161
        },
        {
            "text": "approved all right all right all right",
            "start": 97.399,
            "duration": 4.68
        },
        {
            "text": "lineus torval on Lal Lang nice um acing",
            "start": 98.56,
            "duration": 7.559
        },
        {
            "text": "Dev dependencies MacBook with touchpad",
            "start": 102.079,
            "duration": 4.04
        },
        {
            "text": "keyboard I think everyone Lo everyone",
            "start": 110.28,
            "duration": 5.799
        },
        {
            "text": "loves touchpad uh keys right cuz I mean",
            "start": 112.68,
            "duration": 4.96
        },
        {
            "text": "why would you put a touchpad on",
            "start": 116.079,
            "duration": 5.761
        },
        {
            "text": "something just to make the touchpad keys",
            "start": 117.64,
            "duration": 4.2
        },
        {
            "text": "right how great is that that they",
            "start": 122.039,
            "duration": 4.44
        },
        {
            "text": "literally put a touch bar there just for",
            "start": 123.68,
            "duration": 4.279
        },
        {
            "text": "them to be more",
            "start": 126.479,
            "duration": 3.601
        },
        {
            "text": "keys let's see if you use Windows or",
            "start": 127.959,
            "duration": 3.601
        },
        {
            "text": "Linux you can try this",
            "start": 130.08,
            "duration": 3.4
        },
        {
            "text": "keyboard oh that's a good keyboard",
            "start": 131.56,
            "duration": 3.8
        },
        {
            "text": "that's a good looking one official Lang",
            "start": 133.48,
            "duration": 3.52
        },
        {
            "text": "playlist I'm not going to listen to that",
            "start": 135.36,
            "duration": 3.599
        },
        {
            "text": "quick start all right make sure you have",
            "start": 137.0,
            "duration": 5.04
        },
        {
            "text": "node installed run npmi in the terminal",
            "start": 138.959,
            "duration": 7.441
        },
        {
            "text": "uh to type npm run star in a console",
            "start": 142.04,
            "duration": 7.36
        },
        {
            "text": "that's it Lal file wait documentation",
            "start": 146.4,
            "duration": 5.199
        },
        {
            "text": "okay okay whoa whoa whoa whoa whoa whoa",
            "start": 149.4,
            "duration": 4.04
        },
        {
            "text": "whoa whoa whoa whoa whoa whoa whoa whoa",
            "start": 151.599,
            "duration": 4.36
        },
        {
            "text": "let's try this okay whoa whoa whoa whoa",
            "start": 153.44,
            "duration": 6.64
        },
        {
            "text": "whoa let's try this out um I did just do",
            "start": 155.959,
            "duration": 6.64
        },
        {
            "text": "that",
            "start": 160.08,
            "duration": 2.519
        },
        {
            "text": "um let's clone it",
            "start": 163.319,
            "duration": 6.401
        },
        {
            "text": "in uh npm wait hold on how the hell how",
            "start": 166.4,
            "duration": 5.0
        },
        {
            "text": "the hell do I do",
            "start": 169.72,
            "duration": 4.64
        },
        {
            "text": "this or is is this is he trying to get",
            "start": 171.4,
            "duration": 6.04
        },
        {
            "text": "me to okay npmi npmi and then I have to",
            "start": 174.36,
            "duration": 5.159
        },
        {
            "text": "do npm run heart that's the one I need",
            "start": 177.44,
            "duration": 4.24
        },
        {
            "text": "where's 's the heart okay I I don't have",
            "start": 179.519,
            "duration": 5.8
        },
        {
            "text": "I don't know how to type",
            "start": 181.68,
            "duration": 3.639
        },
        {
            "text": "emojis yeah let's install it why not why",
            "start": 190.879,
            "duration": 5.0
        },
        {
            "text": "not install a global dependency or",
            "start": 194.28,
            "duration": 3.599
        },
        {
            "text": "whatever is Just Happening Here here is",
            "start": 195.879,
            "duration": 5.64
        },
        {
            "text": "your HTML code huge slay article list of",
            "start": 197.879,
            "duration": 6.481
        },
        {
            "text": "responses it's a good start it's a good",
            "start": 201.519,
            "duration": 6.761
        },
        {
            "text": "start all right let let me try it",
            "start": 204.36,
            "duration": 3.92
        },
        {
            "text": "again uh could not read configuration",
            "start": 208.68,
            "duration": 6.4
        },
        {
            "text": "file from dist index serve uh",
            "start": 211.239,
            "duration": 7.041
        },
        {
            "text": "dist yeah that's because index is like",
            "start": 215.08,
            "duration": 6.439
        },
        {
            "text": "that's not a folder dog index.html ain't",
            "start": 218.28,
            "duration": 4.0
        },
        {
            "text": "no",
            "start": 221.519,
            "duration": 3.241
        },
        {
            "text": "folder hate to tell you this but that",
            "start": 222.28,
            "duration": 6.72
        },
        {
            "text": "ain't no folder bro okay",
            "start": 224.76,
            "duration": 8.28
        },
        {
            "text": "well we got I got skill issued maybe try",
            "start": 229.0,
            "duration": 5.84
        },
        {
            "text": "those ones I could try them command",
            "start": 233.04,
            "duration": 4.88
        },
        {
            "text": "copied uh your command copied something",
            "start": 234.84,
            "duration": 6.64
        },
        {
            "text": "else all right",
            "start": 237.92,
            "duration": 5.159
        },
        {
            "text": "I don't think my command copied that",
            "start": 241.48,
            "duration": 4.599
        },
        {
            "text": "much of something different",
            "start": 243.079,
            "duration": 4.961
        },
        {
            "text": "okay wamp",
            "start": 246.079,
            "duration": 4.201
        },
        {
            "text": "W Linux",
            "start": 248.04,
            "duration": 5.119
        },
        {
            "text": "issues I've been Linux maybe I don't",
            "start": 250.28,
            "duration": 5.56
        },
        {
            "text": "even know all right well let's see some",
            "start": 253.159,
            "duration": 7.121
        },
        {
            "text": "stuff okay so API reference HTML body o",
            "start": 255.84,
            "duration": 6.359
        },
        {
            "text": "good choice with the double thumb there",
            "start": 260.28,
            "duration": 4.199
        },
        {
            "text": "uh dude that is such an H1 if I've ever",
            "start": 262.199,
            "duration": 4.321
        },
        {
            "text": "seen an H1 in my lifetime this is it",
            "start": 264.479,
            "duration": 4.56
        },
        {
            "text": "look at that that is that is H1 material",
            "start": 266.52,
            "duration": 4.84
        },
        {
            "text": "if we've ever seen it in our lifetime",
            "start": 269.039,
            "duration": 4.321
        },
        {
            "text": "every time I see an H1 that's the exact",
            "start": 271.36,
            "duration": 6.88
        },
        {
            "text": "same face I make oh so sexy a",
            "start": 273.36,
            "duration": 8.44
        },
        {
            "text": "div it's actually Fair span this is also",
            "start": 278.24,
            "duration": 4.56
        },
        {
            "text": "somehow",
            "start": 281.8,
            "duration": 4.959
        },
        {
            "text": "Fair okay okay has does do I know anyone",
            "start": 282.8,
            "duration": 5.72
        },
        {
            "text": "that's ever used an ordered list how",
            "start": 286.759,
            "duration": 3.44
        },
        {
            "text": "come can someone explain to me for just",
            "start": 288.52,
            "duration": 4.959
        },
        {
            "text": "a quick second how come we have ordered",
            "start": 290.199,
            "duration": 5.72
        },
        {
            "text": "list and unordered list but we use",
            "start": 293.479,
            "duration": 5.0
        },
        {
            "text": "ordered we don't use ordered list but we",
            "start": 295.919,
            "duration": 4.521
        },
        {
            "text": "used unordered",
            "start": 298.479,
            "duration": 5.321
        },
        {
            "text": "list to display our ordered",
            "start": 300.44,
            "duration": 6.64
        },
        {
            "text": "lists can someone answer me",
            "start": 303.8,
            "duration": 6.36
        },
        {
            "text": "that second off why does an unordered",
            "start": 307.08,
            "duration": 5.839
        },
        {
            "text": "list always order itself according to",
            "start": 310.16,
            "duration": 3.96
        },
        {
            "text": "its initial",
            "start": 312.919,
            "duration": 3.441
        },
        {
            "text": "ordering",
            "start": 314.12,
            "duration": 5.24
        },
        {
            "text": "huh these are questions I need",
            "start": 316.36,
            "duration": 5.52
        },
        {
            "text": "answered because like an unordered map",
            "start": 319.36,
            "duration": 5.839
        },
        {
            "text": "you can't rely on the ordering but all",
            "start": 321.88,
            "duration": 5.64
        },
        {
            "text": "of a sudden unordered list you can rely",
            "start": 325.199,
            "duration": 3.28
        },
        {
            "text": "on its",
            "start": 327.52,
            "duration": 3.119
        },
        {
            "text": "ordering",
            "start": 328.479,
            "duration": 4.0
        },
        {
            "text": "and you thought HTML was going to save",
            "start": 330.639,
            "duration": 4.321
        },
        {
            "text": "you where's your God now",
            "start": 332.479,
            "duration": 5.56
        },
        {
            "text": "programmers go back to react all right",
            "start": 334.96,
            "duration": 5.799
        },
        {
            "text": "article okay these are pretty good",
            "start": 338.039,
            "duration": 6.081
        },
        {
            "text": "that's it testing philosophy uh run that",
            "start": 340.759,
            "duration": 6.601
        },
        {
            "text": "to test uh let's see at Emoji Lang we",
            "start": 344.12,
            "duration": 4.96
        },
        {
            "text": "believe that the test should be quick to",
            "start": 347.36,
            "duration": 3.559
        },
        {
            "text": "write that's why we opted for a simple",
            "start": 349.08,
            "duration": 3.16
        },
        {
            "text": "yet powerful testing approach we've",
            "start": 350.919,
            "duration": 4.081
        },
        {
            "text": "minimized boiler play COD code to the",
            "start": 352.24,
            "duration": 5.04
        },
        {
            "text": "purely necessary write the input and",
            "start": 355.0,
            "duration": 3.96
        },
        {
            "text": "write the expected output write a title",
            "start": 357.28,
            "duration": 4.359
        },
        {
            "text": "for the tag you testing done all tests",
            "start": 358.96,
            "duration": 5.64
        },
        {
            "text": "live in a single file tests separated uh",
            "start": 361.639,
            "duration": 4.601
        },
        {
            "text": "by comments why all right well let's",
            "start": 364.6,
            "duration": 3.12
        },
        {
            "text": "check out let's hey let's check out that",
            "start": 366.24,
            "duration": 2.88
        },
        {
            "text": "code",
            "start": 367.72,
            "duration": 4.36
        },
        {
            "text": "tests it must be this one because that's",
            "start": 369.12,
            "duration": 4.84
        },
        {
            "text": "the one that's certainly not showing up",
            "start": 372.08,
            "duration": 4.36
        },
        {
            "text": "in my editor",
            "start": 373.96,
            "duration": 5.679
        },
        {
            "text": "correctly I can't I literally can't I",
            "start": 376.44,
            "duration": 5.4
        },
        {
            "text": "can't even open it all right let me try",
            "start": 379.639,
            "duration": 4.0
        },
        {
            "text": "again all right all right all right",
            "start": 381.84,
            "duration": 4.199
        },
        {
            "text": "there we go oh we got it we got it we're",
            "start": 383.639,
            "duration": 4.441
        },
        {
            "text": "so in I just can't use",
            "start": 386.039,
            "duration": 4.481
        },
        {
            "text": "telescope all right the M",
            "start": 388.08,
            "duration": 5.76
        },
        {
            "text": "code look at",
            "start": 390.52,
            "duration": 3.32
        },
        {
            "text": "that these are see this is",
            "start": 394.599,
            "duration": 7.401
        },
        {
            "text": "true wait what's the",
            "start": 398.319,
            "duration": 3.681
        },
        {
            "text": "skull uh skull is a universal closing",
            "start": 402.16,
            "duration": 5.28
        },
        {
            "text": "tag Clos by let's see close any tag by",
            "start": 404.72,
            "duration": 8.08
        },
        {
            "text": "adding a skull uh modifier to it oh nice",
            "start": 407.44,
            "duration": 7.96
        },
        {
            "text": "okay okay that's pretty good I can see",
            "start": 412.8,
            "duration": 3.799
        },
        {
            "text": "that yeah you can see it right there you",
            "start": 415.4,
            "duration": 2.32
        },
        {
            "text": "got a lot of skull you got a lot of",
            "start": 416.599,
            "duration": 6.88
        },
        {
            "text": "skull closes okay okay okay",
            "start": 417.72,
            "duration": 5.759
        },
        {
            "text": "clever I'm not a div and you can escape",
            "start": 423.68,
            "duration": 7.0
        },
        {
            "text": "escapes oh what's the",
            "start": 428.479,
            "duration": 5.12
        },
        {
            "text": "parachute easy to use emojis uh for",
            "start": 430.68,
            "duration": 5.6
        },
        {
            "text": "escape emojis uh let's see okay Escape",
            "start": 433.599,
            "duration": 5.561
        },
        {
            "text": "emojis can escape itself too you can it",
            "start": 436.28,
            "duration": 5.12
        },
        {
            "text": "can also escape the skull modifier too I",
            "start": 439.16,
            "duration": 7.2
        },
        {
            "text": "am not a div okay nice okay oh nice oh",
            "start": 441.4,
            "duration": 7.199
        },
        {
            "text": "they thought of everything the language",
            "start": 446.36,
            "duration": 3.839
        },
        {
            "text": "is complete",
            "start": 448.599,
            "duration": 2.921
        },
        {
            "text": "I cannot believe how complete this",
            "start": 450.199,
            "duration": 4.28
        },
        {
            "text": "language is I'm sold I'm ready to I'm",
            "start": 451.52,
            "duration": 4.239
        },
        {
            "text": "ready to build I'm ready to build a",
            "start": 454.479,
            "duration": 4.4
        },
        {
            "text": "server with Emoji language all right oh",
            "start": 455.759,
            "duration": 6.44
        },
        {
            "text": "oh nice nice nice nice okay good uh this",
            "start": 458.879,
            "duration": 5.401
        },
        {
            "text": "is good anytime you can use uh Theos",
            "start": 462.199,
            "duration": 4.241
        },
        {
            "text": "Lady Elizabeth Holmes this is good first",
            "start": 464.28,
            "duration": 3.8
        },
        {
            "text": "they think you're crazy then they fight",
            "start": 466.44,
            "duration": 3.439
        },
        {
            "text": "you and then all of a sudden you change",
            "start": 468.08,
            "duration": 3.92
        },
        {
            "text": "the",
            "start": 469.879,
            "duration": 2.121
        },
        {
            "text": "world Theos Lady Elizabeth Holmes",
            "start": 472.08,
            "duration": 5.32
        },
        {
            "text": "honestly this",
            "start": 475.84,
            "duration": 4.6
        },
        {
            "text": "is it's a great quote",
            "start": 477.4,
            "duration": 6.359
        },
        {
            "text": "it's a great quote boom times cover true",
            "start": 480.44,
            "duration": 6.96
        },
        {
            "text": "it's true it's absolutely true sure did",
            "start": 483.759,
            "duration": 5.241
        },
        {
            "text": "she happen to accidentally ruin some",
            "start": 487.4,
            "duration": 4.04
        },
        {
            "text": "people's lives yeah but what she said",
            "start": 489.0,
            "duration": 4.68
        },
        {
            "text": "was correct her hair's not blue don't",
            "start": 491.44,
            "duration": 4.8
        },
        {
            "text": "trust her aged great she did she changed",
            "start": 493.68,
            "duration": 6.079
        },
        {
            "text": "the world she changed the world so quick",
            "start": 496.24,
            "duration": 5.359
        },
        {
            "text": "it'll make her time in prison easier it",
            "start": 499.759,
            "duration": 5.16
        },
        {
            "text": "will originally posted by Gandhi facts",
            "start": 501.599,
            "duration": 6.201
        },
        {
            "text": "all right um I think I might no I'm not",
            "start": 504.919,
            "duration": 5.641
        },
        {
            "text": "going to but find myself wanting to not",
            "start": 507.8,
            "duration": 5.08
        },
        {
            "text": "going to do it I'm not I'm not I'm not",
            "start": 510.56,
            "duration": 4.159
        },
        {
            "text": "going to build something with Emoji Lang",
            "start": 512.88,
            "duration": 3.599
        },
        {
            "text": "okay we're already building something",
            "start": 514.719,
            "duration": 4.401
        },
        {
            "text": "with charm next okay",
            "start": 516.479,
            "duration": 4.721
        },
        {
            "text": "charm I can't wait we're going to build",
            "start": 519.12,
            "duration": 3.359
        },
        {
            "text": "something with wish and it's going to be",
            "start": 521.2,
            "duration": 2.399
        },
        {
            "text": "fantastic I'm not going to get",
            "start": 522.479,
            "duration": 3.081
        },
        {
            "text": "bamboozled and get distracted we're",
            "start": 523.599,
            "duration": 3.961
        },
        {
            "text": "going so good right now I'm not doing it",
            "start": 525.56,
            "duration": 3.48
        },
        {
            "text": "not doing it I'm not changing the world",
            "start": 527.56,
            "duration": 3.24
        },
        {
            "text": "we're not changing the world people we",
            "start": 529.04,
            "duration": 4.04
        },
        {
            "text": "are not changing the world the name is I",
            "start": 530.8,
            "duration": 3.44
        },
        {
            "text": "actually kind of think Emoji Lang's",
            "start": 533.08,
            "duration": 2.56
        },
        {
            "text": "pretty sweet I'm not going to lie to you",
            "start": 534.24,
            "duration": 2.84
        },
        {
            "text": "Emoji Lang is pretty dang sweet and",
            "start": 535.64,
            "duration": 3.04
        },
        {
            "text": "honestly their intro video with with",
            "start": 537.08,
            "duration": 3.36
        },
        {
            "text": "lonus",
            "start": 538.68,
            "duration": 3.399
        },
        {
            "text": "lonus",
            "start": 540.44,
            "duration": 4.16
        },
        {
            "text": "like specifically calling them out it's",
            "start": 542.079,
            "duration": 4.641
        },
        {
            "text": "pretty incredible it's pretty",
            "start": 544.6,
            "duration": 5.96
        },
        {
            "text": "incredible a Jen",
            "start": 546.72,
            "duration": 3.84
        }
    ],
    "stats": {
        "viewCount": "89858",
        "likeCount": "2816",
        "favoriteCount": "0",
        "commentCount": "152"
    }
}