{
    "id": "VZ0n7ZKzrnE",
    "title": "PHP 8 3 Released",
    "publishedAt": "2023-11-27T13:43:23Z",
    "captions": [
        {
            "text": "so I still have the stereotype in my",
            "start": 0.199,
            "duration": 4.521
        },
        {
            "text": "head that PHP is just doooo garbage but",
            "start": 2.159,
            "duration": 4.16
        },
        {
            "text": "I know it's changing and I know it's",
            "start": 4.72,
            "duration": 3.32
        },
        {
            "text": "changing fast so let's check out what's",
            "start": 6.319,
            "duration": 4.001
        },
        {
            "text": "new in PHP 8.3 and here's the best part",
            "start": 8.04,
            "duration": 4.92
        },
        {
            "text": "is that the old code to the new code",
            "start": 10.32,
            "duration": 4.319
        },
        {
            "text": "will also probably give you some good",
            "start": 12.96,
            "duration": 3.92
        },
        {
            "text": "ideas as to what's happening in the last",
            "start": 14.639,
            "duration": 4.841
        },
        {
            "text": "wild okay PHP is a major update of the",
            "start": 16.88,
            "duration": 5.239
        },
        {
            "text": "PHP language then why isn't it not",
            "start": 19.48,
            "duration": 5.719
        },
        {
            "text": "called PHP 9 why is it 8.3 if it's major",
            "start": 22.119,
            "duration": 4.841
        },
        {
            "text": "it contains many new features such as",
            "start": 25.199,
            "duration": 4.4
        },
        {
            "text": "explicit typing of class constants deep",
            "start": 26.96,
            "duration": 5.119
        },
        {
            "text": "clone of read only properties and",
            "start": 29.599,
            "duration": 4.161
        },
        {
            "text": "additions to the randomness",
            "start": 32.079,
            "duration": 3.64
        },
        {
            "text": "functionality as always it always",
            "start": 33.76,
            "duration": 3.84
        },
        {
            "text": "includes performance improvements bug",
            "start": 35.719,
            "duration": 4.16
        },
        {
            "text": "fixes and general",
            "start": 37.6,
            "duration": 6.479
        },
        {
            "text": "cleanup okay interface I uh we uh",
            "start": 39.879,
            "duration": 6.441
        },
        {
            "text": "naively assume that PHP constants are",
            "start": 44.079,
            "duration": 3.361
        },
        {
            "text": "always a",
            "start": 46.32,
            "duration": 3.8
        },
        {
            "text": "string but now I can hit that as a",
            "start": 47.44,
            "duration": 6.2
        },
        {
            "text": "string okay okay fatal error cannot do",
            "start": 50.12,
            "duration": 6.439
        },
        {
            "text": "that not an",
            "start": 53.64,
            "duration": 5.52
        },
        {
            "text": "error okay hey this is a positive move",
            "start": 56.559,
            "duration": 5.121
        },
        {
            "text": "forward positive move forward I like",
            "start": 59.16,
            "duration": 4.44
        },
        {
            "text": "this why would you want to deep clone",
            "start": 61.68,
            "duration": 4.68
        },
        {
            "text": "readon properties that's a good question",
            "start": 63.6,
            "duration": 4.72
        },
        {
            "text": "okay that that's a fair question why",
            "start": 66.36,
            "duration": 3.84
        },
        {
            "text": "would you ever deep clone read",
            "start": 68.32,
            "duration": 4.119
        },
        {
            "text": "only I don't know maybe there's more to",
            "start": 70.2,
            "duration": 4.12
        },
        {
            "text": "the story that we don't understand all",
            "start": 72.439,
            "duration": 4.881
        },
        {
            "text": "right Dynamic class constants fetch okay",
            "start": 74.32,
            "duration": 5.24
        },
        {
            "text": "so we got a little bit of this V dump",
            "start": 77.32,
            "duration": 5.439
        },
        {
            "text": "constants Fu class searchable contents",
            "start": 79.56,
            "duration": 5.32
        },
        {
            "text": "okay hold on hold on hold",
            "start": 82.759,
            "duration": 4.801
        },
        {
            "text": "on I don't I don't get this I don't get",
            "start": 84.88,
            "duration": 6.199
        },
        {
            "text": "what's Happening Here Conant oh",
            "start": 87.56,
            "duration": 6.12
        },
        {
            "text": "oh",
            "start": 91.079,
            "duration": 5.36
        },
        {
            "text": "oh",
            "start": 93.68,
            "duration": 4.32
        },
        {
            "text": "oh",
            "start": 96.439,
            "duration": 5.0
        },
        {
            "text": "oh I don't know if I like that I don't",
            "start": 98.0,
            "duration": 5.479
        },
        {
            "text": "know if I want to read code that does",
            "start": 101.439,
            "duration": 4.441
        },
        {
            "text": "this you know what I mean maybe there's",
            "start": 103.479,
            "duration": 5.24
        },
        {
            "text": "more to it that's nice maybe I'm being",
            "start": 105.88,
            "duration": 5.44
        },
        {
            "text": "ignorant but whenever I see two colons",
            "start": 108.719,
            "duration": 4.72
        },
        {
            "text": "that's that's like static access right",
            "start": 111.32,
            "duration": 4.2
        },
        {
            "text": "right so that's like access to outside",
            "start": 113.439,
            "duration": 3.481
        },
        {
            "text": "class I mean I know we can do it in",
            "start": 115.52,
            "duration": 2.879
        },
        {
            "text": "JavaScript I'm not saying that",
            "start": 116.92,
            "duration": 3.559
        },
        {
            "text": "javascript's good okay I get that we can",
            "start": 118.399,
            "duration": 4.32
        },
        {
            "text": "just take a class and for each over some",
            "start": 120.479,
            "duration": 4.28
        },
        {
            "text": "keys and see if they exist on a class",
            "start": 122.719,
            "duration": 5.441
        },
        {
            "text": "okay I understand that uh no it's not",
            "start": 124.759,
            "duration": 6.681
        },
        {
            "text": "it's dynamic dynamic static access okay",
            "start": 128.16,
            "duration": 5.36
        },
        {
            "text": "it's class level access can I just can",
            "start": 131.44,
            "duration": 4.4
        },
        {
            "text": "is is that a phrase I can say accessing",
            "start": 133.52,
            "duration": 3.88
        },
        {
            "text": "things that appear on the class not on",
            "start": 135.84,
            "duration": 4.8
        },
        {
            "text": "the instance is that fair new override",
            "start": 137.4,
            "duration": 6.68
        },
        {
            "text": "attribute okay use PHP okay I don't know",
            "start": 140.64,
            "duration": 5.52
        },
        {
            "text": "what these backslashes are but this",
            "start": 144.08,
            "duration": 3.56
        },
        {
            "text": "person must be working on Windows that's",
            "start": 146.16,
            "duration": 3.84
        },
        {
            "text": "my only possibility here all right final",
            "start": 147.64,
            "duration": 4.2
        },
        {
            "text": "class my test extends test case",
            "start": 150.0,
            "duration": 4.04
        },
        {
            "text": "protected log file do all this do all",
            "start": 151.84,
            "duration": 5.88
        },
        {
            "text": "this nice tear down tear tear down tear",
            "start": 154.04,
            "duration": 5.76
        },
        {
            "text": "down boy we're gonna tear it down we're",
            "start": 157.72,
            "duration": 6.2
        },
        {
            "text": "gonna tear it down boy okay okay calm",
            "start": 159.8,
            "duration": 7.56
        },
        {
            "text": "down um let's see the log file will",
            "start": 163.92,
            "duration": 5.319
        },
        {
            "text": "never be removed because the method was",
            "start": 167.36,
            "duration": 7.56
        },
        {
            "text": "mistyped oh nice ooh ooh this is nice uh",
            "start": 169.239,
            "duration": 9.041
        },
        {
            "text": "F fatal tear down has",
            "start": 174.92,
            "duration": 6.48
        },
        {
            "text": "override okay I can like that I do like",
            "start": 178.28,
            "duration": 3.959
        },
        {
            "text": "this",
            "start": 181.4,
            "duration": 3.88
        },
        {
            "text": "idea it's kind of rather an old idea I",
            "start": 182.239,
            "duration": 5.481
        },
        {
            "text": "mean PHP is catching up to Java",
            "start": 185.28,
            "duration": 4.92
        },
        {
            "text": "1.4 I don't know if you really like want",
            "start": 187.72,
            "duration": 4.84
        },
        {
            "text": "to brag about that one you know what I",
            "start": 190.2,
            "duration": 5.08
        },
        {
            "text": "mean because I'm pretty sure Java 1.4",
            "start": 192.56,
            "duration": 5.679
        },
        {
            "text": "had this I know it had it in 1.5 hands",
            "start": 195.28,
            "duration": 8.44
        },
        {
            "text": "down used it all the time but 1.4",
            "start": 198.239,
            "duration": 7.08
        },
        {
            "text": "maybe",
            "start": 203.72,
            "duration": 3.72
        },
        {
            "text": "1.3 but it prevents you from breaking",
            "start": 205.319,
            "duration": 4.48
        },
        {
            "text": "stuff so love it absolutely good stuff",
            "start": 207.44,
            "duration": 3.799
        },
        {
            "text": "okay deep cloning okay I want to know",
            "start": 209.799,
            "duration": 3.401
        },
        {
            "text": "this what is this why would you deep",
            "start": 211.239,
            "duration": 3.72
        },
        {
            "text": "clone cuz I do like that I do like what",
            "start": 213.2,
            "duration": 3.239
        },
        {
            "text": "someone said why would you deep clone",
            "start": 214.959,
            "duration": 4.0
        },
        {
            "text": "read only stuff because shouldn't you",
            "start": 216.439,
            "duration": 3.961
        },
        {
            "text": "just pass references around at that",
            "start": 218.959,
            "duration": 2.601
        },
        {
            "text": "point you know no one can change",
            "start": 220.4,
            "duration": 3.16
        },
        {
            "text": "anything it just is what it is let's we",
            "start": 221.56,
            "duration": 4.16
        },
        {
            "text": "got a little class we got a little read",
            "start": 223.56,
            "duration": 4.879
        },
        {
            "text": "only right here public function clone P",
            "start": 225.72,
            "duration": 6.519
        },
        {
            "text": "this. PHP equals clone this. PHP PHP is",
            "start": 228.439,
            "duration": 6.601
        },
        {
            "text": "what public PHP construct this bad boy",
            "start": 232.239,
            "duration": 6.481
        },
        {
            "text": "okay so it's some it's it's this class",
            "start": 235.04,
            "duration": 6.199
        },
        {
            "text": "all right readon properties may now be",
            "start": 238.72,
            "duration": 5.359
        },
        {
            "text": "modified once within the magic clone",
            "start": 241.239,
            "duration": 5.041
        },
        {
            "text": "method to enable deep cloning of readon",
            "start": 244.079,
            "duration": 5.961
        },
        {
            "text": "properties I mean modified once so does",
            "start": 246.28,
            "duration": 8.36
        },
        {
            "text": "that mean cloned can't be re like set",
            "start": 250.04,
            "duration": 6.36
        },
        {
            "text": "i'm I I'm a little bit confused as to",
            "start": 254.64,
            "duration": 4.24
        },
        {
            "text": "this line right here like what's what is",
            "start": 256.4,
            "duration": 3.72
        },
        {
            "text": "happening here what am I what am I",
            "start": 258.88,
            "duration": 3.199
        },
        {
            "text": "missing because it said because it says",
            "start": 260.12,
            "duration": 3.92
        },
        {
            "text": "read readon properties may be let's he",
            "start": 262.079,
            "duration": 4.161
        },
        {
            "text": "may be modified once within the magic",
            "start": 264.04,
            "duration": 4.599
        },
        {
            "text": "clone method okay but this is not in the",
            "start": 266.24,
            "duration": 4.36
        },
        {
            "text": "magic clone method right this is outside",
            "start": 268.639,
            "duration": 4.56
        },
        {
            "text": "the magic clone method right here I know",
            "start": 270.6,
            "duration": 4.68
        },
        {
            "text": "clone calls it right here which I get",
            "start": 273.199,
            "duration": 4.121
        },
        {
            "text": "that it it calls this underlying clone",
            "start": 275.28,
            "duration": 4.759
        },
        {
            "text": "function okay it provides obviously this",
            "start": 277.32,
            "duration": 5.2
        },
        {
            "text": "becomes it must clone the magic clone",
            "start": 280.039,
            "duration": 5.761
        },
        {
            "text": "method must instantiate a new object no",
            "start": 282.52,
            "duration": 5.44
        },
        {
            "text": "I actually don't get this at all I don't",
            "start": 285.8,
            "duration": 4.399
        },
        {
            "text": "get it at all I'm not sure what's",
            "start": 287.96,
            "duration": 4.48
        },
        {
            "text": "happening here okay I I don't think I",
            "start": 290.199,
            "duration": 6.0
        },
        {
            "text": "get this uh the food class is readon so",
            "start": 292.44,
            "duration": 8.56
        },
        {
            "text": "why so so isn't PHP readon then oh I",
            "start": 296.199,
            "duration": 7.44
        },
        {
            "text": "think I see it oh I okay so this is a",
            "start": 301.0,
            "duration": 5.039
        },
        {
            "text": "huge distraction right here okay this is",
            "start": 303.639,
            "duration": 5.761
        },
        {
            "text": "a huge distraction I see I see I see I",
            "start": 306.039,
            "duration": 6.641
        },
        {
            "text": "see this function right here cannot be",
            "start": 309.4,
            "duration": 5.079
        },
        {
            "text": "modified that's why we're getting this",
            "start": 312.68,
            "duration": 4.799
        },
        {
            "text": "error therefore in this one we're able",
            "start": 314.479,
            "duration": 5.481
        },
        {
            "text": "to do it therefore we're able to",
            "start": 317.479,
            "duration": 5.361
        },
        {
            "text": "exercise this upcoming line which is we",
            "start": 319.96,
            "duration": 7.88
        },
        {
            "text": "are now using PHP 8.3 I see I see I see",
            "start": 322.84,
            "duration": 8.04
        },
        {
            "text": "I see okay I get it I get it I get it I",
            "start": 327.84,
            "duration": 5.799
        },
        {
            "text": "get it I get it I get it I get it so you",
            "start": 330.88,
            "duration": 5.319
        },
        {
            "text": "get one chance a readon class you get a",
            "start": 333.639,
            "duration": 4.441
        },
        {
            "text": "chance to alter some of its properties",
            "start": 336.199,
            "duration": 4.961
        },
        {
            "text": "on a clone I'm not exactly sure why you",
            "start": 338.08,
            "duration": 4.04
        },
        {
            "text": "would do",
            "start": 341.16,
            "duration": 4.0
        },
        {
            "text": "this can we agree to that for me that's",
            "start": 342.12,
            "duration": 6.04
        },
        {
            "text": "hard to understand wh why this would",
            "start": 345.16,
            "duration": 6.68
        },
        {
            "text": "exist but I can total I I just don't",
            "start": 348.16,
            "duration": 6.92
        },
        {
            "text": "understand why okay that's it new J",
            "start": 351.84,
            "duration": 7.32
        },
        {
            "text": "Jason validate okay cool okay okay cool",
            "start": 355.08,
            "duration": 7.839
        },
        {
            "text": "cool cool cool all",
            "start": 359.16,
            "duration": 6.56
        },
        {
            "text": "right let's see Jason validates string",
            "start": 362.919,
            "duration": 5.12
        },
        {
            "text": "string bull",
            "start": 365.72,
            "duration": 5.36
        },
        {
            "text": "decode last Jason air okay V dump Jason",
            "start": 368.039,
            "duration": 7.401
        },
        {
            "text": "validate true V dump Jason validate true",
            "start": 371.08,
            "duration": 6.28
        },
        {
            "text": "Json validate allows you to uh check if",
            "start": 375.44,
            "duration": 4.28
        },
        {
            "text": "the string is syntactically valid Json",
            "start": 377.36,
            "duration": 5.64
        },
        {
            "text": "while be more efficient than Json decode",
            "start": 379.72,
            "duration": 6.199
        },
        {
            "text": "nice",
            "start": 383.0,
            "duration": 5.4
        },
        {
            "text": "nice",
            "start": 385.919,
            "duration": 4.481
        },
        {
            "text": "nice that's actually really nice that's",
            "start": 388.4,
            "duration": 4.88
        },
        {
            "text": "a that's a great feature right because",
            "start": 390.4,
            "duration": 4.44
        },
        {
            "text": "checking to see if something's a Json",
            "start": 393.28,
            "duration": 3.199
        },
        {
            "text": "string is significantly cheaper than",
            "start": 394.84,
            "duration": 6.04
        },
        {
            "text": "attempting to De decode a Jon you know",
            "start": 396.479,
            "duration": 6.601
        },
        {
            "text": "what I",
            "start": 400.88,
            "duration": 2.2
        },
        {
            "text": "mean no need Json if you use hmx this is",
            "start": 403.639,
            "duration": 5.201
        },
        {
            "text": "a fact unless if of course you have",
            "start": 406.599,
            "duration": 3.761
        },
        {
            "text": "other servers giving you Json then",
            "start": 408.84,
            "duration": 3.52
        },
        {
            "text": "you're totally screwed uh new randomizer",
            "start": 410.36,
            "duration": 4.92
        },
        {
            "text": "get bites from string okay oh yeah you",
            "start": 412.36,
            "duration": 4.279
        },
        {
            "text": "just get random bites from a string this",
            "start": 415.28,
            "duration": 3.359
        },
        {
            "text": "just grabs random thing you can do this",
            "start": 416.639,
            "duration": 4.24
        },
        {
            "text": "now you can just go randomizer I really",
            "start": 418.639,
            "duration": 4.801
        },
        {
            "text": "don't understand these slashes is this a",
            "start": 420.879,
            "duration": 4.801
        },
        {
            "text": "thing in PHP these slashes I have",
            "start": 423.44,
            "duration": 4.28
        },
        {
            "text": "clearly not been in PHP for a long ass",
            "start": 425.68,
            "duration": 5.48
        },
        {
            "text": "time to not realize that there's slashes",
            "start": 427.72,
            "duration": 4.96
        },
        {
            "text": "okay it's namespace I understand that",
            "start": 431.16,
            "duration": 4.52
        },
        {
            "text": "it's a names space but what why why why",
            "start": 432.68,
            "duration": 5.72
        },
        {
            "text": "did they choose that why did they choose",
            "start": 435.68,
            "duration": 5.76
        },
        {
            "text": "that I don't know why why okay so they",
            "start": 438.4,
            "duration": 4.72
        },
        {
            "text": "have this new randomizer okay that's",
            "start": 441.44,
            "duration": 3.039
        },
        {
            "text": "cool you know how many times I've",
            "start": 443.12,
            "duration": 4.359
        },
        {
            "text": "written this exact line of",
            "start": 444.479,
            "duration": 3.0
        },
        {
            "text": "code you want want to know how many",
            "start": 448.039,
            "duration": 3.681
        },
        {
            "text": "times I've written that line of code a",
            "start": 449.84,
            "duration": 5.84
        },
        {
            "text": "lot of times okay A lot of times I've",
            "start": 451.72,
            "duration": 6.68
        },
        {
            "text": "written this line of code a lot of times",
            "start": 455.68,
            "duration": 5.4
        },
        {
            "text": "the amount of time really you zero times",
            "start": 458.4,
            "duration": 4.799
        },
        {
            "text": "you're telling me you've never jumped",
            "start": 461.08,
            "duration": 4.399
        },
        {
            "text": "over to some code I'm in Lua apparently",
            "start": 463.199,
            "duration": 5.081
        },
        {
            "text": "and had some sort of function like uh uh",
            "start": 465.479,
            "duration": 5.881
        },
        {
            "text": "you know uh Rando list right and you",
            "start": 468.28,
            "duration": 4.84
        },
        {
            "text": "take in a list item I don't know how to",
            "start": 471.36,
            "duration": 3.839
        },
        {
            "text": "do a random number is it is it math.",
            "start": 473.12,
            "duration": 5.28
        },
        {
            "text": "random random okay can I just do that",
            "start": 475.199,
            "duration": 5.28
        },
        {
            "text": "yeah and have you ever not done this",
            "start": 478.4,
            "duration": 8.359
        },
        {
            "text": "return uh list math. floor math. random.",
            "start": 480.479,
            "duration": 7.961
        },
        {
            "text": "uh list length like you're telling me",
            "start": 486.759,
            "duration": 4.601
        },
        {
            "text": "you've never done where am I yeah this",
            "start": 488.44,
            "duration": 5.0
        },
        {
            "text": "thing and then you build like a string",
            "start": 491.36,
            "duration": 3.08
        },
        {
            "text": "from it you know how many times I've",
            "start": 493.44,
            "duration": 3.52
        },
        {
            "text": "written this this",
            "start": 494.44,
            "duration": 5.96
        },
        {
            "text": "thing a countless number of times",
            "start": 496.96,
            "duration": 6.4
        },
        {
            "text": "countless number of",
            "start": 500.4,
            "duration": 2.96
        },
        {
            "text": "times infinity",
            "start": 504.319,
            "duration": 4.681
        },
        {
            "text": "times that's how we generate passwords",
            "start": 506.919,
            "duration": 2.96
        },
        {
            "text": "at",
            "start": 509.0,
            "duration": 3.76
        },
        {
            "text": "nice okay well whatever uh anyways",
            "start": 509.879,
            "duration": 4.6
        },
        {
            "text": "randomizer get float and get uh next",
            "start": 512.76,
            "duration": 4.759
        },
        {
            "text": "float oh interesting uh returns a random",
            "start": 514.479,
            "duration": 5.601
        },
        {
            "text": "float between Min and Max both including",
            "start": 517.519,
            "duration": 5.041
        },
        {
            "text": "okay this algorithm is biased for",
            "start": 520.08,
            "duration": 4.4
        },
        {
            "text": "specific inputs and may return values",
            "start": 522.56,
            "duration": 6.56
        },
        {
            "text": "outside the given range what it's",
            "start": 524.48,
            "duration": 4.64
        },
        {
            "text": "what I don't even know what that means",
            "start": 530.959,
            "duration": 3.281
        },
        {
            "text": "uh",
            "start": 533.48,
            "duration": 3.84
        },
        {
            "text": "anyways there we go uh let's see uh CH",
            "start": 534.24,
            "duration": 4.96
        },
        {
            "text": "uh chance for True uh might return and",
            "start": 537.32,
            "duration": 4.4
        },
        {
            "text": "an upper bound Okay small bits what what",
            "start": 539.2,
            "duration": 4.56
        },
        {
            "text": "does that even mean I'm not even sure",
            "start": 541.72,
            "duration": 4.239
        },
        {
            "text": "what that even means randomizer get",
            "start": 543.76,
            "duration": 6.0
        },
        {
            "text": "randomizer boom get it got",
            "start": 545.959,
            "duration": 7.841
        },
        {
            "text": "it looks good next next float okay uh",
            "start": 549.76,
            "duration": 6.28
        },
        {
            "text": "userland they think they're operating uh",
            "start": 553.8,
            "duration": 4.92
        },
        {
            "text": "system I know random stuff is uh hard it",
            "start": 556.04,
            "duration": 4.479
        },
        {
            "text": "is hard random stuff is super hard",
            "start": 558.72,
            "duration": 3.44
        },
        {
            "text": "command line multiple files all right",
            "start": 560.519,
            "duration": 3.601
        },
        {
            "text": "command line lter supports multiple",
            "start": 562.16,
            "duration": 5.48
        },
        {
            "text": "fires nice nice I like",
            "start": 564.12,
            "duration": 5.52
        },
        {
            "text": "it nice",
            "start": 567.64,
            "duration": 6.199
        },
        {
            "text": "nice random is fake yeah Dev Dev random",
            "start": 569.64,
            "duration": 7.319
        },
        {
            "text": "yeah it's fake this is great this is",
            "start": 573.839,
            "duration": 6.321
        },
        {
            "text": "fantastic I am happy that PHP in some",
            "start": 576.959,
            "duration": 4.801
        },
        {
            "text": "sense are catching up to Modern",
            "start": 580.16,
            "duration": 5.64
        },
        {
            "text": "programming languages of of 2015 like",
            "start": 581.76,
            "duration": 5.56
        },
        {
            "text": "this is good I mean I'm seeing I'm",
            "start": 585.8,
            "duration": 4.08
        },
        {
            "text": "seeing 2004 stuff coming in I'm seeing",
            "start": 587.32,
            "duration": 6.959
        },
        {
            "text": "2015 stuff coming in also innovating",
            "start": 589.88,
            "duration": 7.199
        },
        {
            "text": "innovating right here I like it I like",
            "start": 594.279,
            "duration": 5.601
        },
        {
            "text": "this Innovation okay this is good new",
            "start": 597.079,
            "duration": 5.681
        },
        {
            "text": "classes deprecation of uh and backwards",
            "start": 599.88,
            "duration": 5.0
        },
        {
            "text": "compatibility breaks interesting they're",
            "start": 602.76,
            "duration": 4.24
        },
        {
            "text": "Brave they break stuff I didn't realize",
            "start": 604.88,
            "duration": 5.04
        },
        {
            "text": "PHP broke backwards okay let's go",
            "start": 607.0,
            "duration": 4.64
        },
        {
            "text": "calling get class and get parent class",
            "start": 609.92,
            "duration": 3.8
        },
        {
            "text": "without arguments are deprecated why",
            "start": 611.64,
            "duration": 5.36
        },
        {
            "text": "would you do that why would you call get",
            "start": 613.72,
            "duration": 5.52
        },
        {
            "text": "class oh do you do it inside of a class",
            "start": 617.0,
            "duration": 5.399
        },
        {
            "text": "and just knows it does a lot okay nice",
            "start": 619.24,
            "duration": 6.159
        },
        {
            "text": "anyways well well done PHP 8.3 you",
            "start": 622.399,
            "duration": 5.601
        },
        {
            "text": "deserve all of these little fire",
            "start": 625.399,
            "duration": 4.721
        },
        {
            "text": "firecracker effects creating here I",
            "start": 628.0,
            "duration": 4.399
        },
        {
            "text": "appreciate that I I don't know PHP is",
            "start": 630.12,
            "duration": 4.0
        },
        {
            "text": "kind of nice I could I could use PHP",
            "start": 632.399,
            "duration": 3.12
        },
        {
            "text": "like honestly if I had to use PHP it",
            "start": 634.12,
            "duration": 2.64
        },
        {
            "text": "wouldn't it wouldn't be a gam stopper",
            "start": 635.519,
            "duration": 2.921
        },
        {
            "text": "for me I could just use it I could just",
            "start": 636.76,
            "duration": 3.44
        },
        {
            "text": "do it I feel like I could just just do",
            "start": 638.44,
            "duration": 3.8
        },
        {
            "text": "it you know what I mean like I could get",
            "start": 640.2,
            "duration": 3.639
        },
        {
            "text": "there if someone's like hey you need to",
            "start": 642.24,
            "duration": 3.32
        },
        {
            "text": "build this in laravel I think I could",
            "start": 643.839,
            "duration": 3.841
        },
        {
            "text": "read the docs and you know like I",
            "start": 645.56,
            "duration": 4.399
        },
        {
            "text": "wouldn't I wouldn't be stoked to do it",
            "start": 647.68,
            "duration": 3.76
        },
        {
            "text": "but I wouldn't be unhappy you know",
            "start": 649.959,
            "duration": 3.44
        },
        {
            "text": "there's worse things you can build in",
            "start": 651.44,
            "duration": 4.04
        },
        {
            "text": "absolutely I mean have you have you",
            "start": 653.399,
            "duration": 3.481
        },
        {
            "text": "built with",
            "start": 655.48,
            "duration": 5.479
        },
        {
            "text": "react got him got him so good the name",
            "start": 656.88,
            "duration": 7.639
        },
        {
            "text": "is the PHP aen",
            "start": 660.959,
            "duration": 3.56
        }
    ],
    "stats": {
        "viewCount": "99539",
        "likeCount": "2758",
        "favoriteCount": "0",
        "commentCount": "333"
    }
}