{
    "id": "wu2pi8R277M",
    "title": "Passion",
    "publishedAt": "2023-12-24T19:53:50Z",
    "captions": [
        {
            "text": "you don't have to be passionate about",
            "start": 0.08,
            "duration": 3.48
        },
        {
            "text": "coding to make money you don't have to",
            "start": 1.64,
            "duration": 4.119
        },
        {
            "text": "be passionate about coding to become",
            "start": 3.56,
            "duration": 3.96
        },
        {
            "text": "something but I would say at some point",
            "start": 5.759,
            "duration": 3.601
        },
        {
            "text": "you have to become passionate about",
            "start": 7.52,
            "duration": 3.6
        },
        {
            "text": "something right are you passionate about",
            "start": 9.36,
            "duration": 3.199
        },
        {
            "text": "your job are you passionate about taking",
            "start": 11.12,
            "duration": 2.76
        },
        {
            "text": "the product out to people are you",
            "start": 12.559,
            "duration": 3.16
        },
        {
            "text": "passionate about what makes people take",
            "start": 13.88,
            "duration": 3.84
        },
        {
            "text": "like you have to become something at",
            "start": 15.719,
            "duration": 4.601
        },
        {
            "text": "some point cuz if you're just always in",
            "start": 17.72,
            "duration": 4.52
        },
        {
            "text": "and that is it what do you think's going",
            "start": 20.32,
            "duration": 3.119
        },
        {
            "text": "to happen do you think you're going to",
            "start": 22.24,
            "duration": 2.84
        },
        {
            "text": "really be that useful at your job do you",
            "start": 23.439,
            "duration": 3.08
        },
        {
            "text": "think you're going to really create a",
            "start": 25.08,
            "duration": 3.119
        },
        {
            "text": "really amazing product like at some",
            "start": 26.519,
            "duration": 4.961
        },
        {
            "text": "point something has to happen for you to",
            "start": 28.199,
            "duration": 5.601
        },
        {
            "text": "become great at anything like you can't",
            "start": 31.48,
            "duration": 5.079
        },
        {
            "text": "just NPC life you think that with no",
            "start": 33.8,
            "duration": 4.64
        },
        {
            "text": "passion you're going to be able to go",
            "start": 36.559,
            "duration": 3.881
        },
        {
            "text": "through the last 10 years of hell that's",
            "start": 38.44,
            "duration": 4.16
        },
        {
            "text": "been web development jumping from",
            "start": 40.44,
            "duration": 4.32
        },
        {
            "text": "framework to framework to technology to",
            "start": 42.6,
            "duration": 3.88
        },
        {
            "text": "technology to the thousands of different",
            "start": 44.76,
            "duration": 3.119
        },
        {
            "text": "back ends to the different ways we're",
            "start": 46.48,
            "duration": 2.599
        },
        {
            "text": "doing deployment to going from",
            "start": 47.879,
            "duration": 3.441
        },
        {
            "text": "serverless to to Edge based stuff to",
            "start": 49.079,
            "duration": 4.0
        },
        {
            "text": "having all these Services now hosted",
            "start": 51.32,
            "duration": 3.68
        },
        {
            "text": "somewhere else like the amount of crap",
            "start": 53.079,
            "duration": 4.521
        },
        {
            "text": "you have to learn and to keep up with I",
            "start": 55.0,
            "duration": 4.32
        },
        {
            "text": "don't see how you get there without",
            "start": 57.6,
            "duration": 4.2
        },
        {
            "text": "passion",
            "start": 59.32,
            "duration": 2.48
        }
    ],
    "stats": {
        "viewCount": "81611",
        "likeCount": "4836",
        "favoriteCount": "0",
        "commentCount": "101"
    }
}