{
    "id": "xKsBEuoelpc",
    "title": "Prettier Makes Ternaries Pretty | Prime Reacts",
    "publishedAt": "2023-12-10T14:00:38Z",
    "captions": [
        {
            "text": "so I'm going to be real with you guys I",
            "start": 0.28,
            "duration": 4.2
        },
        {
            "text": "don't like Turner statements I've never",
            "start": 2.32,
            "duration": 5.079
        },
        {
            "text": "liked Turner statements specifically a",
            "start": 4.48,
            "duration": 4.36
        },
        {
            "text": "bunch of how much you want to bet",
            "start": 7.399,
            "duration": 2.961
        },
        {
            "text": "there's a Hu huge number of them",
            "start": 8.84,
            "duration": 3.12
        },
        {
            "text": "specifically a bunch of these like when",
            "start": 10.36,
            "duration": 3.68
        },
        {
            "text": "I see a statement like this I think that",
            "start": 11.96,
            "duration": 4.48
        },
        {
            "text": "you've done messed up I think that you",
            "start": 14.04,
            "duration": 4.52
        },
        {
            "text": "have greatly screwed up your code and",
            "start": 16.44,
            "duration": 4.32
        },
        {
            "text": "whatever shortcuts you think you're",
            "start": 18.56,
            "duration": 4.2
        },
        {
            "text": "taking you're just not taking the right",
            "start": 20.76,
            "duration": 3.08
        },
        {
            "text": "shortcuts I already knew that was going",
            "start": 22.76,
            "duration": 2.279
        },
        {
            "text": "to be in here because of course it's",
            "start": 23.84,
            "duration": 3.48
        },
        {
            "text": "about turn Aries right and so when I see",
            "start": 25.039,
            "duration": 5.48
        },
        {
            "text": "that and we try to make it more excess",
            "start": 27.32,
            "duration": 6.0
        },
        {
            "text": "to use turn Aries to me this feels like",
            "start": 30.519,
            "duration": 6.481
        },
        {
            "text": "we've gone the wrong direction okay I'm",
            "start": 33.32,
            "duration": 5.88
        },
        {
            "text": "just throwing that out there now let's",
            "start": 37.0,
            "duration": 4.32
        },
        {
            "text": "read this article so that's the",
            "start": 39.2,
            "duration": 4.199
        },
        {
            "text": "mentality I'm coming in with okay it's",
            "start": 41.32,
            "duration": 3.96
        },
        {
            "text": "the mentality I'm coming in with all",
            "start": 43.399,
            "duration": 4.0
        },
        {
            "text": "right just so you know November 13th",
            "start": 45.28,
            "duration": 7.599
        },
        {
            "text": "2023 Alex rray rat rat tray rat tray",
            "start": 47.399,
            "duration": 7.721
        },
        {
            "text": "rray I'm going to say rray because it",
            "start": 52.879,
            "duration": 4.601
        },
        {
            "text": "feels like when you say rat tray it",
            "start": 55.12,
            "duration": 5.2
        },
        {
            "text": "feels just like can't be that can it can",
            "start": 57.48,
            "duration": 5.28
        },
        {
            "text": "it uh tary formatting has always been a",
            "start": 60.32,
            "duration": 3.879
        },
        {
            "text": "challenge and we finally addressing it",
            "start": 62.76,
            "duration": 4.08
        },
        {
            "text": "in 3.1.0 with the introduction of Novel",
            "start": 64.199,
            "duration": 5.001
        },
        {
            "text": "formatting style all right read on for",
            "start": 66.84,
            "duration": 3.72
        },
        {
            "text": "the journey and the motivation behind",
            "start": 69.2,
            "duration": 2.8
        },
        {
            "text": "this change along with early developer",
            "start": 70.56,
            "duration": 3.4
        },
        {
            "text": "feedback and an overview of curious tary",
            "start": 72.0,
            "duration": 3.88
        },
        {
            "text": "style okay okay please give us the",
            "start": 73.96,
            "duration": 3.64
        },
        {
            "text": "experim please give the experimental",
            "start": 75.88,
            "duration": 3.48
        },
        {
            "text": "turn Aries a try option a try and let us",
            "start": 77.6,
            "duration": 3.479
        },
        {
            "text": "know what you think all right okay",
            "start": 79.36,
            "duration": 3.399
        },
        {
            "text": "introduction formatting nested turn",
            "start": 81.079,
            "duration": 3.481
        },
        {
            "text": "Aries nicely in a wide variety of",
            "start": 82.759,
            "duration": 3.241
        },
        {
            "text": "scenarios is surprisingly tricky",
            "start": 84.56,
            "duration": 3.44
        },
        {
            "text": "challenge absolutely developers have",
            "start": 86.0,
            "duration": 3.6
        },
        {
            "text": "long found them so confusing to read",
            "start": 88.0,
            "duration": 3.04
        },
        {
            "text": "that they end up just refactoring the",
            "start": 89.6,
            "duration": 3.879
        },
        {
            "text": "code into an ugly series of if else",
            "start": 91.04,
            "duration": 4.28
        },
        {
            "text": "statements I don't know if I believe",
            "start": 93.479,
            "duration": 4.161
        },
        {
            "text": "this statement so I'm just going to just",
            "start": 95.32,
            "duration": 4.28
        },
        {
            "text": "I'm again I'm going to lean into this",
            "start": 97.64,
            "duration": 5.519
        },
        {
            "text": "okay is a series of if else statements",
            "start": 99.6,
            "duration": 6.44
        },
        {
            "text": "ugly compared to turnar I just don't",
            "start": 103.159,
            "duration": 4.801
        },
        {
            "text": "know if I buy that because what it says",
            "start": 106.04,
            "duration": 4.64
        },
        {
            "text": "to me is that if you have a ton of if",
            "start": 107.96,
            "duration": 5.199
        },
        {
            "text": "else statements perhaps there's a better",
            "start": 110.68,
            "duration": 4.759
        },
        {
            "text": "way to organize your code and that",
            "start": 113.159,
            "duration": 4.841
        },
        {
            "text": "you're kind of hiding the problem by",
            "start": 115.439,
            "duration": 6.121
        },
        {
            "text": "having pretty turn statements and so",
            "start": 118.0,
            "duration": 5.52
        },
        {
            "text": "this is my big worry is that it just",
            "start": 121.56,
            "duration": 5.32
        },
        {
            "text": "leads people to just crazy code as",
            "start": 123.52,
            "duration": 5.599
        },
        {
            "text": "opposed to more maybe different thought",
            "start": 126.88,
            "duration": 4.24
        },
        {
            "text": "about code like what is the core problem",
            "start": 129.119,
            "duration": 4.241
        },
        {
            "text": "here what are we doing wrong are we",
            "start": 131.12,
            "duration": 4.56
        },
        {
            "text": "effectively needing some like a bje a",
            "start": 133.36,
            "duration": 4.56
        },
        {
            "text": "map that makes more sense to kind of",
            "start": 135.68,
            "duration": 4.279
        },
        {
            "text": "Reason about our code than whatever",
            "start": 137.92,
            "duration": 3.8
        },
        {
            "text": "we're about to get so I'm a little bit",
            "start": 139.959,
            "duration": 3.92
        },
        {
            "text": "worried early returns great way to kind",
            "start": 141.72,
            "duration": 4.12
        },
        {
            "text": "of simplify",
            "start": 143.879,
            "duration": 5.601
        },
        {
            "text": "code I don't know thoughts thoughts",
            "start": 145.84,
            "duration": 4.72
        },
        {
            "text": "really",
            "start": 149.48,
            "duration": 3.16
        },
        {
            "text": "okay okay okay okay hold on hold on hold",
            "start": 150.56,
            "duration": 4.36
        },
        {
            "text": "on just beautiful thoughts all right uh",
            "start": 152.64,
            "duration": 3.92
        },
        {
            "text": "let's see according to the beta testers",
            "start": 154.92,
            "duration": 5.08
        },
        {
            "text": "oh sorry often with a let declaration an",
            "start": 156.56,
            "duration": 6.28
        },
        {
            "text": "immediately evoked or immediately evoked",
            "start": 160.0,
            "duration": 6.239
        },
        {
            "text": "function ex ex expression or a separate",
            "start": 162.84,
            "duration": 6.64
        },
        {
            "text": "function entirely now that also seems",
            "start": 166.239,
            "duration": 6.041
        },
        {
            "text": "kind of that seems wild uh I would also",
            "start": 169.48,
            "duration": 4.759
        },
        {
            "text": "argue that if you're doing an if you're",
            "start": 172.28,
            "duration": 5.84
        },
        {
            "text": "doing an i if at any point within your",
            "start": 174.239,
            "duration": 7.441
        },
        {
            "text": "code to me you've already goofed up like",
            "start": 178.12,
            "duration": 5.32
        },
        {
            "text": "this should be a good example that you",
            "start": 181.68,
            "duration": 3.72
        },
        {
            "text": "already are kind of on the wrong side of",
            "start": 183.44,
            "duration": 3.76
        },
        {
            "text": "things that should be a really just a",
            "start": 185.4,
            "duration": 3.72
        },
        {
            "text": "strong indicator that's why again this",
            "start": 187.2,
            "duration": 3.959
        },
        {
            "text": "is actually I make this strong argument",
            "start": 189.12,
            "duration": 3.64
        },
        {
            "text": "a lot of times and I really want you to",
            "start": 191.159,
            "duration": 3.64
        },
        {
            "text": "think about this argument which is",
            "start": 192.76,
            "duration": 4.52
        },
        {
            "text": "should you have two or four spaced",
            "start": 194.799,
            "duration": 4.281
        },
        {
            "text": "indenting now maybe you like two space",
            "start": 197.28,
            "duration": 3.599
        },
        {
            "text": "you feel better about it but there's a",
            "start": 199.08,
            "duration": 3.92
        },
        {
            "text": "reason why when I program I have kind of",
            "start": 200.879,
            "duration": 5.36
        },
        {
            "text": "a strong 80 column line right here",
            "start": 203.0,
            "duration": 5.84
        },
        {
            "text": "that's not a requirement but it's an",
            "start": 206.239,
            "duration": 4.0
        },
        {
            "text": "indicator to me",
            "start": 208.84,
            "duration": 3.8
        },
        {
            "text": "and I go with four space indenting the",
            "start": 210.239,
            "duration": 6.121
        },
        {
            "text": "reason why I do that is so that I can",
            "start": 212.64,
            "duration": 6.519
        },
        {
            "text": "kind of signal to myself when I've",
            "start": 216.36,
            "duration": 5.32
        },
        {
            "text": "goofed up a little bit when I've gone a",
            "start": 219.159,
            "duration": 4.64
        },
        {
            "text": "little too far on my indenting so by",
            "start": 221.68,
            "duration": 4.559
        },
        {
            "text": "having a four space indent I'm able to",
            "start": 223.799,
            "duration": 4.481
        },
        {
            "text": "early signal myself along with an ad",
            "start": 226.239,
            "duration": 3.521
        },
        {
            "text": "column that I'm just creating really",
            "start": 228.28,
            "duration": 4.159
        },
        {
            "text": "long code and really long code I feel is",
            "start": 229.76,
            "duration": 4.08
        },
        {
            "text": "a lot harder to",
            "start": 232.439,
            "duration": 5.72
        },
        {
            "text": "follow than very vertical code",
            "start": 233.84,
            "duration": 7.599
        },
        {
            "text": "again that is my take you can have your",
            "start": 238.159,
            "duration": 4.561
        },
        {
            "text": "take okay I don't care if you think",
            "start": 241.439,
            "duration": 2.761
        },
        {
            "text": "vertical code is harder I think it's",
            "start": 242.72,
            "duration": 3.0
        },
        {
            "text": "easier I think it's easier to debug I",
            "start": 244.2,
            "duration": 2.52
        },
        {
            "text": "think it's easier to step through I",
            "start": 245.72,
            "duration": 1.96
        },
        {
            "text": "think it's easier to add print",
            "start": 246.72,
            "duration": 3.28
        },
        {
            "text": "statements in okay personal opinion so",
            "start": 247.68,
            "duration": 4.639
        },
        {
            "text": "shut",
            "start": 250.0,
            "duration": 2.319
        },
        {
            "text": "up 80 column is not enough for four",
            "start": 254.799,
            "duration": 4.761
        },
        {
            "text": "space and denting that's the point I'm",
            "start": 257.28,
            "duration": 5.199
        },
        {
            "text": "keeping it between one to two",
            "start": 259.56,
            "duration": 7.32
        },
        {
            "text": "levels right that's why I do it like",
            "start": 262.479,
            "duration": 7.361
        },
        {
            "text": "that's precisely why I do it is Because",
            "start": 266.88,
            "duration": 5.039
        },
        {
            "text": "by the time I get to a third indent I'm",
            "start": 269.84,
            "duration": 4.88
        },
        {
            "text": "now going I've goofed up a little bit",
            "start": 271.919,
            "duration": 5.681
        },
        {
            "text": "now granted I don't write Java facts",
            "start": 274.72,
            "duration": 6.12
        },
        {
            "text": "facts of life I don't write",
            "start": 277.6,
            "duration": 3.24
        },
        {
            "text": "Java all right historical background",
            "start": 281.0,
            "duration": 4.4
        },
        {
            "text": "prettier original naive approach just",
            "start": 283.16,
            "duration": 3.96
        },
        {
            "text": "added indentation to each level of the",
            "start": 285.4,
            "duration": 3.4
        },
        {
            "text": "nested taries worked fine in simple",
            "start": 287.12,
            "duration": 2.96
        },
        {
            "text": "cases but obviously doesn't scale with",
            "start": 288.8,
            "duration": 2.76
        },
        {
            "text": "long chain of nested taries and had",
            "start": 290.08,
            "duration": 3.119
        },
        {
            "text": "other problems I would say that you've",
            "start": 291.56,
            "duration": 4.04
        },
        {
            "text": "the problem doesn't exist the problem",
            "start": 293.199,
            "duration": 3.761
        },
        {
            "text": "exists because we're solving the wrong",
            "start": 295.6,
            "duration": 2.96
        },
        {
            "text": "thing that's oopsies I just clicked the",
            "start": 296.96,
            "duration": 3.4
        },
        {
            "text": "link",
            "start": 298.56,
            "duration": 3.479
        },
        {
            "text": "that's still my that's still my take so",
            "start": 300.36,
            "duration": 3.72
        },
        {
            "text": "in 2018 we replaced the flat uh with",
            "start": 302.039,
            "duration": 3.44
        },
        {
            "text": "that with flat turn Aries which seemed",
            "start": 304.08,
            "duration": 3.52
        },
        {
            "text": "like a good idea at the time but it was",
            "start": 305.479,
            "duration": 4.56
        },
        {
            "text": "not well received the issue was uh let's",
            "start": 307.6,
            "duration": 4.48
        },
        {
            "text": "see the issue asking it to be reverted",
            "start": 310.039,
            "duration": 4.321
        },
        {
            "text": "had well over 500 up votes while we did",
            "start": 312.08,
            "duration": 4.32
        },
        {
            "text": "ultimately revert back to int uh",
            "start": 314.36,
            "duration": 3.959
        },
        {
            "text": "indented turn Aries we wanted to find a",
            "start": 316.4,
            "duration": 3.68
        },
        {
            "text": "better way by the way I'm going to throw",
            "start": 318.319,
            "duration": 3.6
        },
        {
            "text": "something out here okay I know this is a",
            "start": 320.08,
            "duration": 4.959
        },
        {
            "text": "complete ADHD moment but I want I want",
            "start": 321.919,
            "duration": 5.12
        },
        {
            "text": "to say something",
            "start": 325.039,
            "duration": 4.921
        },
        {
            "text": "okay right now we are reading a about",
            "start": 327.039,
            "duration": 4.6
        },
        {
            "text": "nested turn okay you know what I'm",
            "start": 329.96,
            "duration": 2.64
        },
        {
            "text": "actually going to save I'm going to save",
            "start": 331.639,
            "duration": 2.12
        },
        {
            "text": "this take okay I'm going to save it I'm",
            "start": 332.6,
            "duration": 2.24
        },
        {
            "text": "going to save it because I feel like",
            "start": 333.759,
            "duration": 2.361
        },
        {
            "text": "there's a better place for it I feel",
            "start": 334.84,
            "duration": 2.4
        },
        {
            "text": "like there's a better place when we get",
            "start": 336.12,
            "duration": 2.639
        },
        {
            "text": "down to here okay when we get down to",
            "start": 337.24,
            "duration": 3.28
        },
        {
            "text": "here I'll come back I'm coming back I'm",
            "start": 338.759,
            "duration": 5.88
        },
        {
            "text": "coming back ADHD reback in we're Reb",
            "start": 340.52,
            "duration": 6.28
        },
        {
            "text": "backing in over the last few years we've",
            "start": 344.639,
            "duration": 3.881
        },
        {
            "text": "explored the and experimented with many",
            "start": 346.8,
            "duration": 3.119
        },
        {
            "text": "many possible solutions which would be",
            "start": 348.52,
            "duration": 3.399
        },
        {
            "text": "as readable as indented taries in common",
            "start": 349.919,
            "duration": 5.361
        },
        {
            "text": "cases but would scale well uh in a wider",
            "start": 351.919,
            "duration": 5.481
        },
        {
            "text": "variety of situations okay challenging",
            "start": 355.28,
            "duration": 4.24
        },
        {
            "text": "criteria ideally we find one scheme of",
            "start": 357.4,
            "duration": 3.519
        },
        {
            "text": "that would meet our criteria in all",
            "start": 359.52,
            "duration": 3.679
        },
        {
            "text": "cases it should be easy to follow what's",
            "start": 360.919,
            "duration": 5.041
        },
        {
            "text": "the if what's the then and then what's",
            "start": 363.199,
            "duration": 4.801
        },
        {
            "text": "the else that they ma to okay this is",
            "start": 365.96,
            "duration": 4.04
        },
        {
            "text": "good criteria I like this the code",
            "start": 368.0,
            "duration": 4.16
        },
        {
            "text": "should fluidly flow from a single Turner",
            "start": 370.0,
            "duration": 4.4
        },
        {
            "text": "to a chain of two to a long chain of",
            "start": 372.16,
            "duration": 4.4
        },
        {
            "text": "simple cases to something more complex",
            "start": 374.4,
            "duration": 4.0
        },
        {
            "text": "with a few nested conditions most",
            "start": 376.56,
            "duration": 3.72
        },
        {
            "text": "Alternatives we explored failed this",
            "start": 378.4,
            "duration": 4.68
        },
        {
            "text": "test okay okay the syntax in jss",
            "start": 380.28,
            "duration": 4.4
        },
        {
            "text": "typescript conditional Expressions which",
            "start": 383.08,
            "duration": 3.6
        },
        {
            "text": "cannot be expressed with if and normal",
            "start": 384.68,
            "duration": 4.84
        },
        {
            "text": "JS should all feel free uh or should all",
            "start": 386.68,
            "duration": 5.2
        },
        {
            "text": "look and feel the same again this right",
            "start": 389.52,
            "duration": 4.399
        },
        {
            "text": "here should be the greatest ident this",
            "start": 391.88,
            "duration": 5.319
        },
        {
            "text": "is one of react's worst gifts to mankind",
            "start": 393.919,
            "duration": 6.241
        },
        {
            "text": "is to normalize using multi-change turn",
            "start": 397.199,
            "duration": 7.201
        },
        {
            "text": "Aries use a function people okay a",
            "start": 400.16,
            "duration": 6.759
        },
        {
            "text": "function can return null you could think",
            "start": 404.4,
            "duration": 5.6
        },
        {
            "text": "of a better way to do this it's wild",
            "start": 406.919,
            "duration": 4.961
        },
        {
            "text": "okay it's wild that you're doing this",
            "start": 410.0,
            "duration": 7.039
        },
        {
            "text": "okay stop it stop it use a function",
            "start": 411.88,
            "duration": 7.24
        },
        {
            "text": "figure it out all right it should scale",
            "start": 417.039,
            "duration": 4.0
        },
        {
            "text": "to nested tary chains of arbitrary",
            "start": 419.12,
            "duration": 3.88
        },
        {
            "text": "length imagine typescript conditional",
            "start": 421.039,
            "duration": 4.481
        },
        {
            "text": "types with a dozen of alternative cases",
            "start": 423.0,
            "duration": 5.0
        },
        {
            "text": "indented taries clearly failed arguably",
            "start": 425.52,
            "duration": 5.079
        },
        {
            "text": "one and even three have always almost",
            "start": 428.0,
            "duration": 4.599
        },
        {
            "text": "always printed jsx taries in flat but",
            "start": 430.599,
            "duration": 3.841
        },
        {
            "text": "readable format with unfortunately felt",
            "start": 432.599,
            "duration": 4.28
        },
        {
            "text": "unnatural outside of jsx many people in",
            "start": 434.44,
            "duration": 4.0
        },
        {
            "text": "the community were excited about case",
            "start": 436.879,
            "duration": 4.241
        },
        {
            "text": "style drawing inspiration from the match",
            "start": 438.44,
            "duration": 5.879
        },
        {
            "text": "uh syntax from languages like rust or o",
            "start": 441.12,
            "duration": 6.079
        },
        {
            "text": "camel o camel mentioned can we get an O",
            "start": 444.319,
            "duration": 5.16
        },
        {
            "text": "camel mentioned o camel mentioned",
            "start": 447.199,
            "duration": 4.601
        },
        {
            "text": "December 1st Advent of code o camel",
            "start": 449.479,
            "duration": 5.28
        },
        {
            "text": "getting excited December 6th TJ will be",
            "start": 451.8,
            "duration": 6.76
        },
        {
            "text": "at my house te the O camel second most",
            "start": 454.759,
            "duration": 6.801
        },
        {
            "text": "influential o camel streamer on uh",
            "start": 458.56,
            "duration": 5.52
        },
        {
            "text": "twitch will be here and we're going to O",
            "start": 461.56,
            "duration": 6.88
        },
        {
            "text": "camel together o camel our camel",
            "start": 464.08,
            "duration": 6.48
        },
        {
            "text": "okay but it did not mean number two and",
            "start": 468.44,
            "duration": 3.68
        },
        {
            "text": "other goals okay a surprising solution",
            "start": 470.56,
            "duration": 2.56
        },
        {
            "text": "the good news is that we found a",
            "start": 472.12,
            "duration": 2.68
        },
        {
            "text": "formatting algorithm that met our",
            "start": 473.12,
            "duration": 3.72
        },
        {
            "text": "criteria the bad news is that it's novel",
            "start": 474.8,
            "duration": 3.92
        },
        {
            "text": "and thus unfamiliar to most developers",
            "start": 476.84,
            "duration": 3.12
        },
        {
            "text": "in beta test testing this feature we",
            "start": 478.72,
            "duration": 2.64
        },
        {
            "text": "found developers were quite skeptical",
            "start": 479.96,
            "duration": 4.0
        },
        {
            "text": "when they first saw it okay but then",
            "start": 481.36,
            "duration": 4.08
        },
        {
            "text": "after using it for a bit they didn't",
            "start": 483.96,
            "duration": 3.199
        },
        {
            "text": "want to go back all right all right this",
            "start": 485.44,
            "duration": 4.4
        },
        {
            "text": "is good so everyone's saying Oh yay nice",
            "start": 487.159,
            "duration": 4.961
        },
        {
            "text": "uh not convinced okay anyways another",
            "start": 489.84,
            "duration": 3.68
        },
        {
            "text": "developer had to say this my first few",
            "start": 492.12,
            "duration": 2.88
        },
        {
            "text": "hours on the rule I felt a little odd",
            "start": 493.52,
            "duration": 3.679
        },
        {
            "text": "but by hour two I'd used it a few times",
            "start": 495.0,
            "duration": 3.639
        },
        {
            "text": "to solve problems that otherwise would",
            "start": 497.199,
            "duration": 3.56
        },
        {
            "text": "been uh would have been ugly uh would",
            "start": 498.639,
            "duration": 3.52
        },
        {
            "text": "have been ugly refactors to if",
            "start": 500.759,
            "duration": 3.321
        },
        {
            "text": "statements that I'm not going back man",
            "start": 502.159,
            "duration": 3.72
        },
        {
            "text": "this is worrying me so much the state of",
            "start": 504.08,
            "duration": 3.36
        },
        {
            "text": "JavaScript is just I'm I'm actually",
            "start": 505.879,
            "duration": 3.521
        },
        {
            "text": "getting anxiety over what I'm going to",
            "start": 507.44,
            "duration": 3.959
        },
        {
            "text": "have to",
            "start": 509.4,
            "duration": 4.6
        },
        {
            "text": "read I used to hate nested",
            "start": 511.399,
            "duration": 6.481
        },
        {
            "text": "taries good good feelings but I have",
            "start": 514.0,
            "duration": 6.08
        },
        {
            "text": "let's see but I also hate re uh",
            "start": 517.88,
            "duration": 4.56
        },
        {
            "text": "structuring a nice line of code",
            "start": 520.08,
            "duration": 5.64
        },
        {
            "text": "to uh if El statements uh the new rules",
            "start": 522.44,
            "duration": 5.399
        },
        {
            "text": "add an understandable linear if else if",
            "start": 525.72,
            "duration": 3.799
        },
        {
            "text": "else expression to the language and is",
            "start": 527.839,
            "duration": 3.721
        },
        {
            "text": "much nicer than multiple turn Aries as",
            "start": 529.519,
            "duration": 3.681
        },
        {
            "text": "nested branches",
            "start": 531.56,
            "duration": 4.52
        },
        {
            "text": "okay so we felt we had a winning formula",
            "start": 533.2,
            "duration": 3.92
        },
        {
            "text": "but we knew it could be jarring",
            "start": 536.08,
            "duration": 2.319
        },
        {
            "text": "introduction to the community as a",
            "start": 537.12,
            "duration": 2.8
        },
        {
            "text": "result we're formatting behind a",
            "start": 538.399,
            "duration": 3.0
        },
        {
            "text": "temporary experimental okay let's see it",
            "start": 539.92,
            "duration": 3.0
        },
        {
            "text": "just let's just see it styling overview",
            "start": 541.399,
            "duration": 2.68
        },
        {
            "text": "so what does the new style look like",
            "start": 542.92,
            "duration": 3.4
        },
        {
            "text": "here's a quick contrived example uh and",
            "start": 544.079,
            "duration": 4.161
        },
        {
            "text": "the thinking behind curious turn Aries",
            "start": 546.32,
            "duration": 7.639
        },
        {
            "text": "okay uh pet can bark is scary wolf else",
            "start": 548.24,
            "duration": 9.0
        },
        {
            "text": "dog else outer else can",
            "start": 553.959,
            "duration": 8.041
        },
        {
            "text": "meow inner then cat inner else of the",
            "start": 557.24,
            "duration": 7.039
        },
        {
            "text": "outer else probably a",
            "start": 562.0,
            "duration": 5.279
        },
        {
            "text": "bunny okay every line with the uh",
            "start": 564.279,
            "duration": 5.961
        },
        {
            "text": "question mark is an if if you see Fu",
            "start": 567.279,
            "duration": 5.201
        },
        {
            "text": "question mark it's like asking if Fu",
            "start": 570.24,
            "duration": 3.68
        },
        {
            "text": "then every line that starts with the",
            "start": 572.48,
            "duration": 3.28
        },
        {
            "text": "colon is an else if you see colon that",
            "start": 573.92,
            "duration": 5.24
        },
        {
            "text": "means else Fu yes if you see else if you",
            "start": 575.76,
            "duration": 6.6
        },
        {
            "text": "see this that means else if Fu every",
            "start": 579.16,
            "duration": 6.0
        },
        {
            "text": "line with this or this is a then yes",
            "start": 582.36,
            "duration": 4.12
        },
        {
            "text": "okay yes these are all rules of turn",
            "start": 585.16,
            "duration": 3.88
        },
        {
            "text": "Aries uh here's the code RR to",
            "start": 586.48,
            "duration": 4.359
        },
        {
            "text": "demonstrate K style turn",
            "start": 589.04,
            "duration": 7.08
        },
        {
            "text": "Aries all right animal well hold on dang",
            "start": 590.839,
            "duration": 7.801
        },
        {
            "text": "it I mean you inverted the logic though",
            "start": 596.12,
            "duration": 4.08
        },
        {
            "text": "this dang it I really wish you would",
            "start": 598.64,
            "duration": 3.28
        },
        {
            "text": "have kept the same structure notice that",
            "start": 600.2,
            "duration": 4.04
        },
        {
            "text": "he flipped it inside out is scary is now",
            "start": 601.92,
            "duration": 4.479
        },
        {
            "text": "on the inside as opposed to the as",
            "start": 604.24,
            "duration": 4.76
        },
        {
            "text": "opposed to the outside in",
            "start": 606.399,
            "duration": 4.56
        },
        {
            "text": "fact I'm not even sure if they they",
            "start": 609.0,
            "duration": 3.44
        },
        {
            "text": "yield the same results do they yield the",
            "start": 610.959,
            "duration": 3.681
        },
        {
            "text": "same",
            "start": 612.44,
            "duration": 2.2
        },
        {
            "text": "results they don't yield the same",
            "start": 616.76,
            "duration": 4.0
        },
        {
            "text": "results I don't think",
            "start": 622.959,
            "duration": 3.721
        },
        {
            "text": "so if it so so okay so look at this this",
            "start": 627.68,
            "duration": 6.48
        },
        {
            "text": "statement right here if I'm not mistaken",
            "start": 631.88,
            "duration": 6.16
        },
        {
            "text": "if the pet is not scary but can meow you",
            "start": 634.16,
            "duration": 8.119
        },
        {
            "text": "will get this you can only",
            "start": 638.04,
            "duration": 4.239
        },
        {
            "text": "meow no wait that's not it at all",
            "start": 642.32,
            "duration": 5.639
        },
        {
            "text": "okay",
            "start": 646.279,
            "duration": 4.161
        },
        {
            "text": "damn okay yeah okay this is the same",
            "start": 647.959,
            "duration": 3.961
        },
        {
            "text": "this is this does yield the same thing",
            "start": 650.44,
            "duration": 3.04
        },
        {
            "text": "but it's just organized different okay I",
            "start": 651.92,
            "duration": 4.08
        },
        {
            "text": "see it turnar suck I see what's going on",
            "start": 653.48,
            "duration": 4.359
        },
        {
            "text": "here you can see this is a nice concise",
            "start": 656.0,
            "duration": 3.44
        },
        {
            "text": "way to uh to get something approaching",
            "start": 657.839,
            "duration": 3.12
        },
        {
            "text": "matched out I don't think this is nice I",
            "start": 659.44,
            "duration": 4.079
        },
        {
            "text": "think this is if I saw I I would say",
            "start": 660.959,
            "duration": 4.761
        },
        {
            "text": "that you done effed up rethink how",
            "start": 663.519,
            "duration": 4.76
        },
        {
            "text": "you're doing things it's just how I feel",
            "start": 665.72,
            "duration": 4.52
        },
        {
            "text": "our new formatting is fluid a blend of",
            "start": 668.279,
            "duration": 3.601
        },
        {
            "text": "curious turn Aries where the question",
            "start": 670.24,
            "duration": 2.92
        },
        {
            "text": "mark is always at the end of the line",
            "start": 671.88,
            "duration": 3.759
        },
        {
            "text": "and K style turn Aries where the",
            "start": 673.16,
            "duration": 6.0
        },
        {
            "text": "question mark uh is in the middle of the",
            "start": 675.639,
            "duration": 3.521
        },
        {
            "text": "line yeah see the problem here I have is",
            "start": 687.959,
            "duration": 4.44
        },
        {
            "text": "I really have no idea where I'm going",
            "start": 690.72,
            "duration": 3.6
        },
        {
            "text": "with",
            "start": 692.399,
            "duration": 7.88
        },
        {
            "text": "it right this is if this mouse else if",
            "start": 694.32,
            "duration": 10.16
        },
        {
            "text": "can bark else inner if scary wolf dog",
            "start": 700.279,
            "duration": 8.601
        },
        {
            "text": "else if can meow cat Els if can squeak",
            "start": 704.48,
            "duration": 4.4
        },
        {
            "text": "Mouse I mean you have it twice here uh",
            "start": 710.519,
            "duration": 5.56
        },
        {
            "text": "else bunny you",
            "start": 713.24,
            "duration": 5.32
        },
        {
            "text": "know I just don't think we want to write",
            "start": 716.079,
            "duration": 3.961
        },
        {
            "text": "this kind of code I really think we",
            "start": 718.56,
            "duration": 3.12
        },
        {
            "text": "should try to do something a little",
            "start": 720.04,
            "duration": 3.56
        },
        {
            "text": "different you know like if you're doing",
            "start": 721.68,
            "duration": 4.88
        },
        {
            "text": "all of this one would have to ask you've",
            "start": 723.6,
            "duration": 5.44
        },
        {
            "text": "messed up a lot of things right if",
            "start": 726.56,
            "duration": 4.04
        },
        {
            "text": "you're doing this many checks I feel",
            "start": 729.04,
            "duration": 3.4
        },
        {
            "text": "like you've you've goofed up somewhere",
            "start": 730.6,
            "duration": 4.76
        },
        {
            "text": "else right like I feel like maybe you",
            "start": 732.44,
            "duration": 5.72
        },
        {
            "text": "need a function or an interface that's",
            "start": 735.36,
            "duration": 5.159
        },
        {
            "text": "going to say like if only there was a",
            "start": 738.16,
            "duration": 5.679
        },
        {
            "text": "pattern that existed in which normalizes",
            "start": 740.519,
            "duration": 6.56
        },
        {
            "text": "this like say two string or something",
            "start": 743.839,
            "duration": 4.601
        },
        {
            "text": "that you can call on the object to",
            "start": 747.079,
            "duration": 4.32
        },
        {
            "text": "produce this as opposed to whatever this",
            "start": 748.44,
            "duration": 4.839
        },
        {
            "text": "is like I don't like that you're",
            "start": 751.399,
            "duration": 3.521
        },
        {
            "text": "inverting the responsibility to some",
            "start": 753.279,
            "duration": 4.321
        },
        {
            "text": "function on the outside to like",
            "start": 754.92,
            "duration": 6.159
        },
        {
            "text": "determine like stringified type like",
            "start": 757.6,
            "duration": 5.599
        },
        {
            "text": "something about",
            "start": 761.079,
            "duration": 4.2
        },
        {
            "text": "this something about this just really",
            "start": 763.199,
            "duration": 4.121
        },
        {
            "text": "bothers me strategy strategy pattern",
            "start": 765.279,
            "duration": 3.321
        },
        {
            "text": "meant yeah I know it was a strategy",
            "start": 767.32,
            "duration": 2.6
        },
        {
            "text": "pattern that's what I'm saying is that",
            "start": 768.6,
            "duration": 3.84
        },
        {
            "text": "there is a strategy in which makes this",
            "start": 769.92,
            "duration": 4.76
        },
        {
            "text": "easy to pattern out I like it it's a",
            "start": 772.44,
            "duration": 4.68
        },
        {
            "text": "quick brain dump but the problem is is",
            "start": 774.68,
            "duration": 4.92
        },
        {
            "text": "that the problem here is is that every",
            "start": 777.12,
            "duration": 5.079
        },
        {
            "text": "time you add any sort of variation on",
            "start": 779.6,
            "duration": 4.64
        },
        {
            "text": "this you must alter this ever growing",
            "start": 782.199,
            "duration": 4.361
        },
        {
            "text": "line of Turner statements what happened",
            "start": 784.24,
            "duration": 3.88
        },
        {
            "text": "if each one of these functions are",
            "start": 786.56,
            "duration": 4.16
        },
        {
            "text": "expensive this also means that if you",
            "start": 788.12,
            "duration": 6.68
        },
        {
            "text": "have this thing that exists you can't",
            "start": 790.72,
            "duration": 7.28
        },
        {
            "text": "have a variation of types right your",
            "start": 794.8,
            "duration": 5.56
        },
        {
            "text": "type every time you want to add a type",
            "start": 798.0,
            "duration": 4.959
        },
        {
            "text": "it has to be can squeak it has to have",
            "start": 800.36,
            "duration": 5.12
        },
        {
            "text": "can bark it has to have is scary it has",
            "start": 802.959,
            "duration": 4.841
        },
        {
            "text": "to have can meow it has to have can",
            "start": 805.48,
            "duration": 5.24
        },
        {
            "text": "squeak twice right like it has to have",
            "start": 807.8,
            "duration": 5.92
        },
        {
            "text": "all of these things existing on",
            "start": 810.72,
            "duration": 5.72
        },
        {
            "text": "it whereas if you invert it and try to",
            "start": 813.72,
            "duration": 4.919
        },
        {
            "text": "do more of a composition version you",
            "start": 816.44,
            "duration": 5.959
        },
        {
            "text": "just have to have the thing right so to",
            "start": 818.639,
            "duration": 5.841
        },
        {
            "text": "me this is solving a problem I know this",
            "start": 822.399,
            "duration": 4.0
        },
        {
            "text": "is a meant to be an example I understand",
            "start": 824.48,
            "duration": 3.76
        },
        {
            "text": "this but when I see code like this as an",
            "start": 826.399,
            "duration": 3.321
        },
        {
            "text": "example what I'm kind of getting fixated",
            "start": 828.24,
            "duration": 3.039
        },
        {
            "text": "on is that if you're writing all these",
            "start": 829.72,
            "duration": 4.799
        },
        {
            "text": "IFL statements are you sure you're not",
            "start": 831.279,
            "duration": 6.24
        },
        {
            "text": "just doing",
            "start": 834.519,
            "duration": 3.0
        },
        {
            "text": "bad typing are you sure you're not",
            "start": 837.759,
            "duration": 5.2
        },
        {
            "text": "messing up",
            "start": 840.279,
            "duration": 2.68
        },
        {
            "text": "composition that's what I'm saying maybe",
            "start": 843.839,
            "duration": 4.12
        },
        {
            "text": "there's a composition pattern that just",
            "start": 846.24,
            "duration": 4.2
        },
        {
            "text": "works better here as opposed to whatever",
            "start": 847.959,
            "duration": 4.201
        },
        {
            "text": "we have going",
            "start": 850.44,
            "duration": 5.079
        },
        {
            "text": "on does that make",
            "start": 852.16,
            "duration": 5.88
        },
        {
            "text": "sense okay just something give us your",
            "start": 855.519,
            "duration": 4.721
        },
        {
            "text": "feedback we uh we we we like the more",
            "start": 858.04,
            "duration": 4.0
        },
        {
            "text": "readable new default we really hope you",
            "start": 860.24,
            "duration": 5.12
        },
        {
            "text": "can give us the experimental turn Aries",
            "start": 862.04,
            "duration": 5.96
        },
        {
            "text": "um I feel like I'd rather have an es",
            "start": 865.36,
            "duration": 5.12
        },
        {
            "text": "lint rule that's like you can only use a",
            "start": 868.0,
            "duration": 5.16
        },
        {
            "text": "turn AR in a return statement and that",
            "start": 870.48,
            "duration": 6.159
        },
        {
            "text": "turn AR can only have uh like single",
            "start": 873.16,
            "duration": 6.359
        },
        {
            "text": "member call expressions and constants or",
            "start": 876.639,
            "duration": 5.161
        },
        {
            "text": "constant variable return right like I",
            "start": 879.519,
            "duration": 4.041
        },
        {
            "text": "would want it so constrained it's like",
            "start": 881.8,
            "duration": 4.719
        },
        {
            "text": "the complete opposite right I would",
            "start": 883.56,
            "duration": 5.199
        },
        {
            "text": "rather have it so that it's just like",
            "start": 886.519,
            "duration": 5.0
        },
        {
            "text": "brutal brutally tiny where you can use",
            "start": 888.759,
            "duration": 4.601
        },
        {
            "text": "and how you can use a Turner I would",
            "start": 891.519,
            "duration": 4.041
        },
        {
            "text": "want the exact opposite",
            "start": 893.36,
            "duration": 5.599
        },
        {
            "text": "honestly so do I think this is beautiful",
            "start": 895.56,
            "duration": 4.8
        },
        {
            "text": "do I think it's more readable I",
            "start": 898.959,
            "duration": 3.401
        },
        {
            "text": "absolutely think this is more readable",
            "start": 900.36,
            "duration": 4.08
        },
        {
            "text": "this is many times more readable than",
            "start": 902.36,
            "duration": 4.52
        },
        {
            "text": "how people organize turnar today I like",
            "start": 904.44,
            "duration": 4.88
        },
        {
            "text": "what they have done this is good do I",
            "start": 906.88,
            "duration": 5.68
        },
        {
            "text": "like the outcome of this no I don't like",
            "start": 909.32,
            "duration": 5.8
        },
        {
            "text": "the outcome of this at",
            "start": 912.56,
            "duration": 5.76
        },
        {
            "text": "all the",
            "start": 915.12,
            "duration": 3.2
        },
        {
            "text": "name don't give me turn Aries boy okay I",
            "start": 920.399,
            "duration": 6.521
        },
        {
            "text": "don't want it a jet",
            "start": 923.8,
            "duration": 3.12
        }
    ],
    "stats": {
        "viewCount": "66416",
        "likeCount": "2087",
        "favoriteCount": "0",
        "commentCount": "463"
    }
}