{
    "id": "XxoXP32Xne0",
    "title": "TypeScript 5.3 Beta | Prime Reacts",
    "publishedAt": "2023-10-10T16:00:22Z",
    "captions": [
        {
            "text": "typescript 5.3 let's do this are you",
            "start": 0.16,
            "duration": 4.639
        },
        {
            "text": "guys excited are you guys excited man I",
            "start": 2.52,
            "duration": 5.64
        },
        {
            "text": "have never been more excited to continue",
            "start": 4.799,
            "duration": 5.161
        },
        {
            "text": "to not like something in my entire",
            "start": 8.16,
            "duration": 3.519
        },
        {
            "text": "lifetime let's see what's new okay",
            "start": 9.96,
            "duration": 3.24
        },
        {
            "text": "here's the quick list of it import",
            "start": 11.679,
            "duration": 3.401
        },
        {
            "text": "attributes stable support resolution",
            "start": 13.2,
            "duration": 3.96
        },
        {
            "text": "mode on in import type switch true",
            "start": 15.08,
            "duration": 4.92
        },
        {
            "text": "narrowing narrowing on comparison switch",
            "start": 17.16,
            "duration": 5.119
        },
        {
            "text": "true I feel like if I saw the term",
            "start": 20.0,
            "duration": 4.0
        },
        {
            "text": "switch true I would want to punch",
            "start": 22.279,
            "duration": 3.92
        },
        {
            "text": "somebody in the face uh narrowing on",
            "start": 24.0,
            "duration": 5.359
        },
        {
            "text": "comparisons to booing in uh instance of",
            "start": 26.199,
            "duration": 4.84
        },
        {
            "text": "narrowing through symbol has instance",
            "start": 29.359,
            "duration": 4.321
        },
        {
            "text": "checks of super uh interactivity inlay",
            "start": 31.039,
            "duration": 4.721
        },
        {
            "text": "hints okay interesting I like I like",
            "start": 33.68,
            "duration": 4.719
        },
        {
            "text": "inlay hints optimizations by skipping JS",
            "start": 35.76,
            "duration": 4.72
        },
        {
            "text": "do parsing what happened if I want JS do",
            "start": 38.399,
            "duration": 4.041
        },
        {
            "text": "parsing by the way I wrote my first",
            "start": 40.48,
            "duration": 4.759
        },
        {
            "text": "JavaScript plug-in yesterday and it used",
            "start": 42.44,
            "duration": 6.68
        },
        {
            "text": "JS do and guess what it was great dude I",
            "start": 45.239,
            "duration": 4.96
        },
        {
            "text": "was sitting there trying to figure out",
            "start": 49.12,
            "duration": 2.56
        },
        {
            "text": "how to run this and then I had to like",
            "start": 50.199,
            "duration": 3.441
        },
        {
            "text": "run this entire thing and then I had to",
            "start": 51.68,
            "duration": 3.24
        },
        {
            "text": "figure out how am I going to run this",
            "start": 53.64,
            "duration": 2.84
        },
        {
            "text": "thing in JavaScript I had to created an",
            "start": 54.92,
            "duration": 3.52
        },
        {
            "text": "entire build system just for this stupid",
            "start": 56.48,
            "duration": 3.96
        },
        {
            "text": "file I don't want to deal with any of it",
            "start": 58.44,
            "duration": 3.88
        },
        {
            "text": "so instead of doing with any of it I",
            "start": 60.44,
            "duration": 4.16
        },
        {
            "text": "just used JS Doc and called it a day I",
            "start": 62.32,
            "duration": 4.839
        },
        {
            "text": "defined like two variables bada bing",
            "start": 64.6,
            "duration": 5.08
        },
        {
            "text": "bada boom it was more than enough called",
            "start": 67.159,
            "duration": 6.0
        },
        {
            "text": "it a day it was so effing awesome I",
            "start": 69.68,
            "duration": 5.04
        },
        {
            "text": "literally wrote a script I can call in",
            "start": 73.159,
            "duration": 4.841
        },
        {
            "text": "node in three seconds with virtually no",
            "start": 74.72,
            "duration": 5.359
        },
        {
            "text": "effort sorry anyways optimizations by",
            "start": 78.0,
            "duration": 3.72
        },
        {
            "text": "comparing non-normalized intersections",
            "start": 80.079,
            "duration": 3.4
        },
        {
            "text": "CU I don't know what that means oh who",
            "start": 81.72,
            "duration": 3.56
        },
        {
            "text": "whose intersections aren't normalized",
            "start": 83.479,
            "duration": 3.521
        },
        {
            "text": "consolidation between TS server Library",
            "start": 85.28,
            "duration": 3.4
        },
        {
            "text": "JS and typescript JS breaking changes",
            "start": 87.0,
            "duration": 3.2
        },
        {
            "text": "and correctness improvements okay what",
            "start": 88.68,
            "duration": 3.0
        },
        {
            "text": "is import attributes I don't know what",
            "start": 90.2,
            "duration": 4.919
        },
        {
            "text": "this means um oh great does this I can",
            "start": 91.68,
            "duration": 5.399
        },
        {
            "text": "can you guys hear it right now can you",
            "start": 95.119,
            "duration": 3.68
        },
        {
            "text": "guys hey guys can you hear that right",
            "start": 97.079,
            "duration": 5.161
        },
        {
            "text": "now I can hear it that's bun crying a",
            "start": 98.799,
            "duration": 5.761
        },
        {
            "text": "little bit why do we got to support",
            "start": 102.24,
            "duration": 5.839
        },
        {
            "text": "another thing why why don't they just",
            "start": 104.56,
            "duration": 5.68
        },
        {
            "text": "now dude we got so many sweet standards",
            "start": 108.079,
            "duration": 4.64
        },
        {
            "text": "for importing stuff I love it I love it",
            "start": 110.24,
            "duration": 5.559
        },
        {
            "text": "I'm so excited I'm so excited for more",
            "start": 112.719,
            "duration": 4.801
        },
        {
            "text": "stuff uh we only want this to be",
            "start": 115.799,
            "duration": 3.28
        },
        {
            "text": "interpreted as Json not runnable",
            "start": 117.52,
            "duration": 4.72
        },
        {
            "text": "malicious Javas script file with a Json",
            "start": 119.079,
            "duration": 5.441
        },
        {
            "text": "extension the thing malicious about",
            "start": 122.24,
            "duration": 4.44
        },
        {
            "text": "JavaScript is how much memory and CPU it",
            "start": 124.52,
            "duration": 4.92
        },
        {
            "text": "uses all right anyways I mean I guess I",
            "start": 126.68,
            "duration": 4.44
        },
        {
            "text": "get this but I just don't understand",
            "start": 129.44,
            "duration": 3.64
        },
        {
            "text": "this uh put it in your browser probably",
            "start": 131.12,
            "duration": 3.44
        },
        {
            "text": "not typescript is fine with this put it",
            "start": 133.08,
            "duration": 2.96
        },
        {
            "text": "in your browser probably not let's see",
            "start": 134.56,
            "duration": 3.52
        },
        {
            "text": "the contents of these uh attributes are",
            "start": 136.04,
            "duration": 3.76
        },
        {
            "text": "not checked by typescript since the uh",
            "start": 138.08,
            "duration": 3.84
        },
        {
            "text": "they are host specific and are simply",
            "start": 139.8,
            "duration": 3.4
        },
        {
            "text": "left alone so that the browser and",
            "start": 141.92,
            "duration": 3.48
        },
        {
            "text": "runtimes can handle uh them possibly",
            "start": 143.2,
            "duration": 5.399
        },
        {
            "text": "error Dynamic import calls uh calls can",
            "start": 145.4,
            "duration": 5.36
        },
        {
            "text": "also use import through a second",
            "start": 148.599,
            "duration": 4.481
        },
        {
            "text": "argument okay uh the expected type of",
            "start": 150.76,
            "duration": 4.16
        },
        {
            "text": "the second argument is defined by the",
            "start": 153.08,
            "duration": 4.96
        },
        {
            "text": "type called import call options which by",
            "start": 154.92,
            "duration": 5.76
        },
        {
            "text": "default just expects a property uh",
            "start": 158.04,
            "duration": 4.16
        },
        {
            "text": "called with",
            "start": 160.68,
            "duration": 4.32
        },
        {
            "text": "Note uh the import uh attributes are an",
            "start": 162.2,
            "duration": 4.48
        },
        {
            "text": "evolution of an earlier proposal called",
            "start": 165.0,
            "duration": 3.28
        },
        {
            "text": "import assertions which are implemented",
            "start": 166.68,
            "duration": 3.68
        },
        {
            "text": "in typescript 4.5 the most obvious",
            "start": 168.28,
            "duration": 4.039
        },
        {
            "text": "difference is uh the use of the wi",
            "start": 170.36,
            "duration": 3.68
        },
        {
            "text": "keyword which by the way the word the",
            "start": 172.319,
            "duration": 4.84
        },
        {
            "text": "with keyword uh wi is already a keyword",
            "start": 174.04,
            "duration": 6.0
        },
        {
            "text": "in typescript and with is the devil with",
            "start": 177.159,
            "duration": 5.921
        },
        {
            "text": "is single-handedly the worst keyword and",
            "start": 180.04,
            "duration": 5.88
        },
        {
            "text": "idea ever created in any language and if",
            "start": 183.08,
            "duration": 5.079
        },
        {
            "text": "you don't know what JavaScript with is",
            "start": 185.92,
            "duration": 5.0
        },
        {
            "text": "go take a moment go check it out I okay",
            "start": 188.159,
            "duration": 4.961
        },
        {
            "text": "so my big worry here is just like I",
            "start": 190.92,
            "duration": 4.959
        },
        {
            "text": "don't want more stuff right first off",
            "start": 193.12,
            "duration": 6.24
        },
        {
            "text": "who something has to say I I assume Json",
            "start": 195.879,
            "duration": 5.28
        },
        {
            "text": "is like a known one so it treats it like",
            "start": 199.36,
            "duration": 3.599
        },
        {
            "text": "Json but how do you extend this what",
            "start": 201.159,
            "duration": 3.8
        },
        {
            "text": "does this mean what is fluffy bunny can",
            "start": 202.959,
            "duration": 4.28
        },
        {
            "text": "you define fluffy bunny is it purely up",
            "start": 204.959,
            "duration": 3.441
        },
        {
            "text": "to the vendors or are there going to be",
            "start": 207.239,
            "duration": 2.601
        },
        {
            "text": "client side things are we going to now",
            "start": 208.4,
            "duration": 3.52
        },
        {
            "text": "get typescript interacting with bundlers",
            "start": 209.84,
            "duration": 4.0
        },
        {
            "text": "what's going to happen with this I don't",
            "start": 211.92,
            "duration": 3.76
        },
        {
            "text": "know interesting stable support",
            "start": 213.84,
            "duration": 3.52
        },
        {
            "text": "resolution mode in import types I'm not",
            "start": 215.68,
            "duration": 3.759
        },
        {
            "text": "sure what that means all right 47 uh",
            "start": 217.36,
            "duration": 3.959
        },
        {
            "text": "typescript added support for resolution",
            "start": 219.439,
            "duration": 5.08
        },
        {
            "text": "mode I honestly never use these let's",
            "start": 221.319,
            "duration": 5.0
        },
        {
            "text": "see resolve package as if we are",
            "start": 224.519,
            "duration": 3.44
        },
        {
            "text": "importing with",
            "start": 226.319,
            "duration": 6.521
        },
        {
            "text": "require bun is so screwed bun is so",
            "start": 227.959,
            "duration": 7.12
        },
        {
            "text": "screwed how were you ever going to",
            "start": 232.84,
            "duration": 4.84
        },
        {
            "text": "support this imagine how many different",
            "start": 235.079,
            "duration": 4.921
        },
        {
            "text": "versions of s like stuff you have to dud",
            "start": 237.68,
            "duration": 4.919
        },
        {
            "text": "dude this is insane I don't know how I",
            "start": 240.0,
            "duration": 4.92
        },
        {
            "text": "feel about this one okay so you import",
            "start": 242.599,
            "duration": 5.801
        },
        {
            "text": "from package but using the resolution of",
            "start": 244.92,
            "duration": 6.0
        },
        {
            "text": "uh of require this one you do use it but",
            "start": 248.4,
            "duration": 4.6
        },
        {
            "text": "you're using it with the resolution mode",
            "start": 250.92,
            "duration": 5.039
        },
        {
            "text": "of import uh those import attributes can",
            "start": 253.0,
            "duration": 4.6
        },
        {
            "text": "also be used with import types okay so",
            "start": 255.959,
            "duration": 3.321
        },
        {
            "text": "you can still do the with resolution",
            "start": 257.6,
            "duration": 5.56
        },
        {
            "text": "mode ah I mean again I'm not I just",
            "start": 259.28,
            "duration": 5.84
        },
        {
            "text": "maybe I don't understand okay so so",
            "start": 263.16,
            "duration": 3.88
        },
        {
            "text": "completely Fair statement is that I can",
            "start": 265.12,
            "duration": 4.84
        },
        {
            "text": "see why this is nice but can I also just",
            "start": 267.04,
            "duration": 5.599
        },
        {
            "text": "argue that maybe if it ends with Json",
            "start": 269.96,
            "duration": 5.0
        },
        {
            "text": "you just force it to parse it as Json",
            "start": 272.639,
            "duration": 4.12
        },
        {
            "text": "and you don't allow runnable malicious",
            "start": 274.96,
            "duration": 3.72
        },
        {
            "text": "JavaScript files hiding themselves as",
            "start": 276.759,
            "duration": 4.801
        },
        {
            "text": "Json right I mean is that fair just have",
            "start": 278.68,
            "duration": 5.56
        },
        {
            "text": "the extension be the thing that denotes",
            "start": 281.56,
            "duration": 5.199
        },
        {
            "text": "how you treat it uh because something.",
            "start": 284.24,
            "duration": 4.519
        },
        {
            "text": "Json oh I guess you could because",
            "start": 286.759,
            "duration": 3.44
        },
        {
            "text": "because of how import works you have",
            "start": 288.759,
            "duration": 4.601
        },
        {
            "text": "something. json. JavaScript right and so",
            "start": 290.199,
            "duration": 4.84
        },
        {
            "text": "you've been lied to and they don't they",
            "start": 293.36,
            "duration": 3.92
        },
        {
            "text": "they're none the they're none the wiser",
            "start": 295.039,
            "duration": 4.041
        },
        {
            "text": "I mean I understand I guess I do",
            "start": 297.28,
            "duration": 2.759
        },
        {
            "text": "understand this but but I guess I have a",
            "start": 299.08,
            "duration": 2.44
        },
        {
            "text": "couple follow-up questions which is a",
            "start": 300.039,
            "duration": 2.481
        },
        {
            "text": "how did you get this malicious",
            "start": 301.52,
            "duration": 2.8
        },
        {
            "text": "JavaScript on your stuff at all I mean",
            "start": 302.52,
            "duration": 4.36
        },
        {
            "text": "this is a local file import right here",
            "start": 304.32,
            "duration": 5.0
        },
        {
            "text": "like how did you even get this okay how",
            "start": 306.88,
            "duration": 4.159
        },
        {
            "text": "how did you even get this this local",
            "start": 309.32,
            "duration": 3.96
        },
        {
            "text": "maliciousness on your but anyways I get",
            "start": 311.039,
            "duration": 4.841
        },
        {
            "text": "the idea but still it just feels all",
            "start": 313.28,
            "duration": 4.72
        },
        {
            "text": "upsetting if you program like this I",
            "start": 315.88,
            "duration": 3.68
        },
        {
            "text": "think you deserve to be fired we're just",
            "start": 318.0,
            "duration": 2.919
        },
        {
            "text": "going to move on we're just going to get",
            "start": 319.56,
            "duration": 3.28
        },
        {
            "text": "moved on if I see this if I see this",
            "start": 320.919,
            "duration": 5.4
        },
        {
            "text": "code I'm firing you okay use a gosh darn",
            "start": 322.84,
            "duration": 5.16
        },
        {
            "text": "if statement for this who would do that",
            "start": 326.319,
            "duration": 5.041
        },
        {
            "text": "would you really do this straight to",
            "start": 328.0,
            "duration": 6.759
        },
        {
            "text": "jail that's crazy all right narrowing on",
            "start": 331.36,
            "duration": 5.6
        },
        {
            "text": "comparisons to boings occasionally you",
            "start": 334.759,
            "duration": 3.761
        },
        {
            "text": "may find yourself performing a direct",
            "start": 336.96,
            "duration": 3.239
        },
        {
            "text": "comparison with true or false",
            "start": 338.52,
            "duration": 3.679
        },
        {
            "text": "occasionally that's like 80% of",
            "start": 340.199,
            "duration": 4.201
        },
        {
            "text": "programming is just if statements I mean",
            "start": 342.199,
            "duration": 4.401
        },
        {
            "text": "a for Loop is just that uh in a",
            "start": 344.4,
            "duration": 3.96
        },
        {
            "text": "condition let's see usually uh these are",
            "start": 346.6,
            "duration": 3.48
        },
        {
            "text": "unnecessary comparisons but you might",
            "start": 348.36,
            "duration": 4.36
        },
        {
            "text": "prefer it uh as a point of style or to",
            "start": 350.08,
            "duration": 4.52
        },
        {
            "text": "avoid certain issues around JavaScript",
            "start": 352.72,
            "duration": 4.68
        },
        {
            "text": "truthiness regardless previous uh type",
            "start": 354.6,
            "duration": 4.92
        },
        {
            "text": "oh they just mean literally having true",
            "start": 357.4,
            "duration": 3.6
        },
        {
            "text": "or false yeah I don't mind that it",
            "start": 359.52,
            "duration": 3.84
        },
        {
            "text": "happens um all right so what's the deal",
            "start": 361.0,
            "duration": 4.68
        },
        {
            "text": "let's see JavaScript or typescript 53",
            "start": 363.36,
            "duration": 4.76
        },
        {
            "text": "now keeps up and understands uh these",
            "start": 365.68,
            "duration": 4.959
        },
        {
            "text": "expressions in narrowing variables all",
            "start": 368.12,
            "duration": 9.0
        },
        {
            "text": "right function is a x my type X is a a",
            "start": 370.639,
            "duration": 12.641
        },
        {
            "text": "in x if x is true it works oh nice I'm",
            "start": 377.12,
            "duration": 7.56
        },
        {
            "text": "happy about that is there a deer Prime",
            "start": 383.28,
            "duration": 3.24
        },
        {
            "text": "engine no not in this one this is vs",
            "start": 384.68,
            "duration": 3.919
        },
        {
            "text": "this is Microsoft Microsoft do not like",
            "start": 386.52,
            "duration": 4.16
        },
        {
            "text": "me that's that's good okay hey that's",
            "start": 388.599,
            "duration": 4.6
        },
        {
            "text": "good good job I I'm happy I'm happy with",
            "start": 390.68,
            "duration": 5.12
        },
        {
            "text": "this uh instance of uh narrowing through",
            "start": 393.199,
            "duration": 5.321
        },
        {
            "text": "symbol has instance new thing instance",
            "start": 395.8,
            "duration": 6.119
        },
        {
            "text": "of weirdo undefined instance of weirdo",
            "start": 398.52,
            "duration": 6.36
        },
        {
            "text": "true oh interesting okay so you can do",
            "start": 401.919,
            "duration": 5.201
        },
        {
            "text": "type narrowing through has instance by",
            "start": 404.88,
            "duration": 3.56
        },
        {
            "text": "the way this is such a weird example",
            "start": 407.12,
            "duration": 2.6
        },
        {
            "text": "that they're doing like why would you do",
            "start": 408.44,
            "duration": 3.28
        },
        {
            "text": "this this is just like painful to even",
            "start": 409.72,
            "duration": 3.879
        },
        {
            "text": "look at okay but why would you do this",
            "start": 411.72,
            "duration": 3.199
        },
        {
            "text": "give me like an example of where this is",
            "start": 413.599,
            "duration": 3.561
        },
        {
            "text": "very nice all right static simple",
            "start": 414.919,
            "duration": 5.201
        },
        {
            "text": "instance has instance vow is Point like",
            "start": 417.16,
            "duration": 5.879
        },
        {
            "text": "Point like has X and Y okay so if it has",
            "start": 420.12,
            "duration": 3.84
        },
        {
            "text": "these two",
            "start": 423.039,
            "duration": 5.0
        },
        {
            "text": "things all right wow that is such a deep",
            "start": 423.96,
            "duration": 6.799
        },
        {
            "text": "dude look at this has",
            "start": 428.039,
            "duration": 6.081
        },
        {
            "text": "instance it's crazy if in if value",
            "start": 430.759,
            "duration": 6.16
        },
        {
            "text": "instance of point we can get X and Y we",
            "start": 434.12,
            "duration": 4.479
        },
        {
            "text": "don't have access to this because we",
            "start": 436.919,
            "duration": 4.641
        },
        {
            "text": "have a point like but we don't actually",
            "start": 438.599,
            "duration": 6.761
        },
        {
            "text": "have a point why would you ever want to",
            "start": 441.56,
            "duration": 6.359
        },
        {
            "text": "programmatically override has instance",
            "start": 445.36,
            "duration": 4.839
        },
        {
            "text": "of a class that has functions such as",
            "start": 447.919,
            "duration": 5.441
        },
        {
            "text": "distance from origin and then only allow",
            "start": 450.199,
            "duration": 6.081
        },
        {
            "text": "access to the variables at this point",
            "start": 453.36,
            "duration": 4.679
        },
        {
            "text": "this is the only time an abstract class",
            "start": 456.28,
            "duration": 3.12
        },
        {
            "text": "makes any sense you'd have to have an",
            "start": 458.039,
            "duration": 2.761
        },
        {
            "text": "abstract class with these two things",
            "start": 459.4,
            "duration": 2.6
        },
        {
            "text": "then you're going to have to extend",
            "start": 460.8,
            "duration": 2.6
        },
        {
            "text": "because there's no reason in the world",
            "start": 462.0,
            "duration": 3.639
        },
        {
            "text": "why you want to have Point resolved to a",
            "start": 463.4,
            "duration": 4.359
        },
        {
            "text": "point like whereas you should be able to",
            "start": 465.639,
            "duration": 5.52
        },
        {
            "text": "use Point like as an instance of check",
            "start": 467.759,
            "duration": 6.44
        },
        {
            "text": "it just it just feels kind of cray okay",
            "start": 471.159,
            "duration": 5.561
        },
        {
            "text": "it just feels kind of cray can we extend",
            "start": 474.199,
            "duration": 6.56
        },
        {
            "text": "car into a cow type Maybe we could yes",
            "start": 476.72,
            "duration": 5.08
        },
        {
            "text": "that means you could you could do",
            "start": 480.759,
            "duration": 2.84
        },
        {
            "text": "whatever you want here oh yeah",
            "start": 481.8,
            "duration": 4.0
        },
        {
            "text": "let's try that right now pick pick good",
            "start": 483.599,
            "duration": 4.56
        },
        {
            "text": "all oh crap we don't we don't quite have",
            "start": 485.8,
            "duration": 4.0
        },
        {
            "text": "it I don't have I I'd have to install",
            "start": 488.159,
            "duration": 3.521
        },
        {
            "text": "this I actually do want to try that can",
            "start": 489.8,
            "duration": 5.16
        },
        {
            "text": "we do that let's find out okay uh let's",
            "start": 491.68,
            "duration": 5.56
        },
        {
            "text": "go like this uh let's back it up let's",
            "start": 494.96,
            "duration": 7.079
        },
        {
            "text": "go like this makeer uh Fufu uh Fufu npm",
            "start": 497.24,
            "duration": 7.88
        },
        {
            "text": "uhit y uh let's in let's get the",
            "start": 502.039,
            "duration": 5.761
        },
        {
            "text": "typescript beta just in here just strong",
            "start": 505.12,
            "duration": 5.079
        },
        {
            "text": "beta mail Vibes going on right here uh",
            "start": 507.8,
            "duration": 6.76
        },
        {
            "text": "let's go TSC a nit all right Vim uh test",
            "start": 510.199,
            "duration": 7.681
        },
        {
            "text": "TS and uh dddd give me the D give me the",
            "start": 514.56,
            "duration": 5.279
        },
        {
            "text": "D give me the D let's just grab this",
            "start": 517.88,
            "duration": 4.12
        },
        {
            "text": "thing really quickly let's yank this",
            "start": 519.839,
            "duration": 5.201
        },
        {
            "text": "thing uh let's put this in here and then",
            "start": 522.0,
            "duration": 5.04
        },
        {
            "text": "let's go like this uh let's have a cow",
            "start": 525.04,
            "duration": 5.479
        },
        {
            "text": "return a point like uh return true right",
            "start": 527.04,
            "duration": 5.44
        },
        {
            "text": "close enough right so that means I",
            "start": 530.519,
            "duration": 4.161
        },
        {
            "text": "should be able to go like",
            "start": 532.48,
            "duration": 5.799
        },
        {
            "text": "this uh function let's see hold on oh F",
            "start": 534.68,
            "duration": 7.32
        },
        {
            "text": "uh F let's see see a new",
            "start": 538.279,
            "duration": 3.721
        },
        {
            "text": "cow all right there we go",
            "start": 542.279,
            "duration": 3.841
        },
        {
            "text": "beautiful you you can just return",
            "start": 553.48,
            "duration": 6.44
        },
        {
            "text": "whatever the hell you want who cares I",
            "start": 556.76,
            "duration": 4.84
        },
        {
            "text": "don't even I don't even inherit from",
            "start": 559.92,
            "duration": 4.84
        },
        {
            "text": "point like I don't even have an X or a",
            "start": 561.6,
            "duration": 6.52
        },
        {
            "text": "y I can just make it whatever the hell I",
            "start": 564.76,
            "duration": 5.36
        },
        {
            "text": "want type",
            "start": 568.12,
            "duration": 4.32
        },
        {
            "text": "safety uh anyways okay checks from the",
            "start": 570.12,
            "duration": 4.279
        },
        {
            "text": "super property access on instance field",
            "start": 572.44,
            "duration": 5.04
        },
        {
            "text": "okay let's see super method uh base call",
            "start": 574.399,
            "duration": 5.241
        },
        {
            "text": "um derived method call Su method there",
            "start": 577.48,
            "duration": 4.919
        },
        {
            "text": "we go derived see this is the diff let's",
            "start": 579.64,
            "duration": 3.759
        },
        {
            "text": "see this is different from writing",
            "start": 582.399,
            "duration": 3.641
        },
        {
            "text": "something like this. Su method uh since",
            "start": 583.399,
            "duration": 4.88
        },
        {
            "text": "it could invoke an overridden uh method",
            "start": 586.04,
            "duration": 4.28
        },
        {
            "text": "okay I'm confused a little bit here okay",
            "start": 588.279,
            "duration": 3.68
        },
        {
            "text": "hold on JavaScript it's possible to",
            "start": 590.32,
            "duration": 3.68
        },
        {
            "text": "access declaration in a base class",
            "start": 591.959,
            "duration": 4.481
        },
        {
            "text": "through the super keyword okay fair this",
            "start": 594.0,
            "duration": 3.76
        },
        {
            "text": "is different from writing something like",
            "start": 596.44,
            "duration": 3.36
        },
        {
            "text": "this. meth uh some method me since it",
            "start": 597.76,
            "duration": 3.8
        },
        {
            "text": "could invoke an overridden method this",
            "start": 599.8,
            "duration": 3.76
        },
        {
            "text": "is a subtle distinction made more subtle",
            "start": 601.56,
            "duration": 4.48
        },
        {
            "text": "by the fact that often the two can be",
            "start": 603.56,
            "duration": 4.08
        },
        {
            "text": "interchangeable if the Declaration is",
            "start": 606.04,
            "duration": 4.68
        },
        {
            "text": "never overwritten at all okay yes okay",
            "start": 607.64,
            "duration": 5.08
        },
        {
            "text": "that makes sense this since there is no",
            "start": 610.72,
            "duration": 3.44
        },
        {
            "text": "this here it goes all the way up to the",
            "start": 612.72,
            "duration": 3.799
        },
        {
            "text": "base yeah okay the problem with using",
            "start": 614.16,
            "duration": 4.04
        },
        {
            "text": "them interchangeably is that super only",
            "start": 616.519,
            "duration": 3.281
        },
        {
            "text": "works on members declared on the",
            "start": 618.2,
            "duration": 4.079
        },
        {
            "text": "Prototype not instance properties that",
            "start": 619.8,
            "duration": 4.08
        },
        {
            "text": "means if you wrote something like super",
            "start": 622.279,
            "duration": 3.881
        },
        {
            "text": "uh Super SU method but some method was",
            "start": 623.88,
            "duration": 4.639
        },
        {
            "text": "defined as a field you'd get a runtime",
            "start": 626.16,
            "duration": 3.4
        },
        {
            "text": "error",
            "start": 628.519,
            "duration": 3.32
        },
        {
            "text": "if you wrote a field that is a function",
            "start": 629.56,
            "duration": 4.64
        },
        {
            "text": "again the neck punching should just like",
            "start": 631.839,
            "duration": 5.24
        },
        {
            "text": "you deserve you deserve the neck punch",
            "start": 634.2,
            "duration": 6.439
        },
        {
            "text": "okay why why are you writing why are you",
            "start": 637.079,
            "duration": 7.841
        },
        {
            "text": "writing a a field as a function okay it",
            "start": 640.639,
            "duration": 7.161
        },
        {
            "text": "makes no sense what the hell's happening",
            "start": 644.92,
            "duration": 4.84
        },
        {
            "text": "what the hell's happening in JavaScript",
            "start": 647.8,
            "duration": 4.599
        },
        {
            "text": "every time I see this I just it just is",
            "start": 649.76,
            "duration": 5.759
        },
        {
            "text": "emotionally painful tesp 53 now uh more",
            "start": 652.399,
            "duration": 4.961
        },
        {
            "text": "closely inspects super property access",
            "start": 655.519,
            "duration": 3.12
        },
        {
            "text": "methods calls to see if they are",
            "start": 657.36,
            "duration": 2.36
        },
        {
            "text": "corresponding responding to a class",
            "start": 658.639,
            "duration": 3.361
        },
        {
            "text": "Fields if they do we'll now get a type",
            "start": 659.72,
            "duration": 4.6
        },
        {
            "text": "checked there oh okay well I mean that's",
            "start": 662.0,
            "duration": 5.56
        },
        {
            "text": "neat but still interesting all right",
            "start": 664.32,
            "duration": 5.199
        },
        {
            "text": "interactive inlay hints for types by the",
            "start": 667.56,
            "duration": 5.04
        },
        {
            "text": "way I hate inlay hints in the code I",
            "start": 669.519,
            "duration": 4.641
        },
        {
            "text": "think neovim does it right they put the",
            "start": 672.6,
            "duration": 3.64
        },
        {
            "text": "inlay hints on the outside I honestly",
            "start": 674.16,
            "duration": 4.76
        },
        {
            "text": "think that's way better and it it's",
            "start": 676.24,
            "duration": 4.279
        },
        {
            "text": "really great in Rust my strategy is to",
            "start": 678.92,
            "duration": 3.44
        },
        {
            "text": "be blind to all of these it helps me a",
            "start": 680.519,
            "duration": 4.481
        },
        {
            "text": "little yeah these are all these all seem",
            "start": 682.36,
            "duration": 4.24
        },
        {
            "text": "really kind of",
            "start": 685.0,
            "duration": 4.16
        },
        {
            "text": "wild I'm a little bit confused I think",
            "start": 686.6,
            "duration": 5.56
        },
        {
            "text": "right I think you should just never ever",
            "start": 689.16,
            "duration": 5.6
        },
        {
            "text": "rely on any of anything that's been said",
            "start": 692.16,
            "duration": 4.119
        },
        {
            "text": "up until this",
            "start": 694.76,
            "duration": 4.12
        },
        {
            "text": "point all of these just seem like crazy",
            "start": 696.279,
            "duration": 4.961
        },
        {
            "text": "features to me things that I I I mean",
            "start": 698.88,
            "duration": 3.759
        },
        {
            "text": "the import one maybe I just don't",
            "start": 701.24,
            "duration": 3.56
        },
        {
            "text": "understand fair fair but everything else",
            "start": 702.639,
            "duration": 4.241
        },
        {
            "text": "seems a little wild typescript now",
            "start": 704.8,
            "duration": 4.24
        },
        {
            "text": "supports inlay uh now supports jumping",
            "start": 706.88,
            "duration": 4.88
        },
        {
            "text": "to definition of types",
            "start": 709.04,
            "duration": 5.919
        },
        {
            "text": "oh cool I mean except for the whole",
            "start": 711.76,
            "duration": 6.24
        },
        {
            "text": "Mouse thing loser um everything else",
            "start": 714.959,
            "duration": 5.12
        },
        {
            "text": "pretty cool op optimizations by skipping",
            "start": 718.0,
            "duration": 4.32
        },
        {
            "text": "JS deck parsing when uh when running",
            "start": 720.079,
            "duration": 4.641
        },
        {
            "text": "typescript via TSC the compiler will now",
            "start": 722.32,
            "duration": 5.28
        },
        {
            "text": "avoid parsing JS docs this drops parsing",
            "start": 724.72,
            "duration": 5.28
        },
        {
            "text": "time on its own but also reduces memory",
            "start": 727.6,
            "duration": 4.32
        },
        {
            "text": "usage to store comments along with time",
            "start": 730.0,
            "duration": 4.48
        },
        {
            "text": "spent in garbage collection I would make",
            "start": 731.92,
            "duration": 5.68
        },
        {
            "text": "an alternative which is you could always",
            "start": 734.48,
            "duration": 5.88
        },
        {
            "text": "just write it in not JavaScript right",
            "start": 737.6,
            "duration": 4.64
        },
        {
            "text": "like if you just wrote TSC and just not",
            "start": 740.36,
            "duration": 5.4
        },
        {
            "text": "using JavaScript it would just be fast",
            "start": 742.24,
            "duration": 4.839
        },
        {
            "text": "you know what I mean it would just be",
            "start": 745.76,
            "duration": 3.16
        },
        {
            "text": "really fast and and everyone's life",
            "start": 747.079,
            "duration": 4.281
        },
        {
            "text": "would be better um instead of having es",
            "start": 748.92,
            "duration": 5.359
        },
        {
            "text": "build and S swc and having hundreds of",
            "start": 751.36,
            "duration": 4.919
        },
        {
            "text": "different new ones coming out I swear",
            "start": 754.279,
            "duration": 3.321
        },
        {
            "text": "there's going to be another one there's",
            "start": 756.279,
            "duration": 2.68
        },
        {
            "text": "going to be another one there's going to",
            "start": 757.6,
            "duration": 3.0
        },
        {
            "text": "be another one after the another one",
            "start": 758.959,
            "duration": 3.24
        },
        {
            "text": "just it's a Non-Stop fever dream of",
            "start": 760.6,
            "duration": 3.32
        },
        {
            "text": "creating new JavaScript tools why don't",
            "start": 762.199,
            "duration": 2.88
        },
        {
            "text": "you just make the one tool that",
            "start": 763.92,
            "duration": 2.76
        },
        {
            "text": "everybody's relying on just make it",
            "start": 765.079,
            "duration": 2.921
        },
        {
            "text": "correctly just make the effing thing in",
            "start": 766.68,
            "duration": 3.56
        },
        {
            "text": "the correct thing okay just just write",
            "start": 768.0,
            "duration": 5.04
        },
        {
            "text": "it in Rust and then this is just not a",
            "start": 770.24,
            "duration": 5.159
        },
        {
            "text": "problem write it and see write it in go",
            "start": 773.04,
            "duration": 5.44
        },
        {
            "text": "write it in any write it in PHP just",
            "start": 775.399,
            "duration": 4.921
        },
        {
            "text": "write it in",
            "start": 778.48,
            "duration": 3.88
        },
        {
            "text": "anything but the language it's currently",
            "start": 780.32,
            "duration": 4.56
        },
        {
            "text": "written in cuz it's crazy it's just not",
            "start": 782.36,
            "duration": 4.279
        },
        {
            "text": "what javascript's good at that's all it",
            "start": 784.88,
            "duration": 4.04
        },
        {
            "text": "is like javascript's graded a lot of",
            "start": 786.639,
            "duration": 4.841
        },
        {
            "text": "things being fast is just not one of",
            "start": 788.92,
            "duration": 5.4
        },
        {
            "text": "them every day a new JJs framework is",
            "start": 791.48,
            "duration": 4.799
        },
        {
            "text": "born yes well there's also every day a",
            "start": 794.32,
            "duration": 5.44
        },
        {
            "text": "new tool is uh written in JavaScript and",
            "start": 796.279,
            "duration": 6.0
        },
        {
            "text": "it's coraly which is that tool will",
            "start": 799.76,
            "duration": 5.16
        },
        {
            "text": "eventually be Rewritten two times once",
            "start": 802.279,
            "duration": 5.0
        },
        {
            "text": "in go and then once in Rust it's part of",
            "start": 804.92,
            "duration": 4.4
        },
        {
            "text": "the JavaScript rule set you just got to",
            "start": 807.279,
            "duration": 4.201
        },
        {
            "text": "know let's see optimization by comparing",
            "start": 809.32,
            "duration": 3.759
        },
        {
            "text": "non-normalized intersections in",
            "start": 811.48,
            "duration": 3.0
        },
        {
            "text": "typescript unions and intersections",
            "start": 813.079,
            "duration": 3.961
        },
        {
            "text": "always follow a specific form uh where",
            "start": 814.48,
            "duration": 5.2
        },
        {
            "text": "intersections can contain uh Union types",
            "start": 817.04,
            "duration": 4.32
        },
        {
            "text": "this means we can create intersections",
            "start": 819.68,
            "duration": 5.599
        },
        {
            "text": "uh like this okay a uh a is a union or",
            "start": 821.36,
            "duration": 6.88
        },
        {
            "text": "it's a a union B or C that will be the",
            "start": 825.279,
            "duration": 4.721
        },
        {
            "text": "intersection type of this okay fair",
            "start": 828.24,
            "duration": 3.2
        },
        {
            "text": "still in some cases the type systems",
            "start": 830.0,
            "duration": 3.12
        },
        {
            "text": "maintain the original form for display",
            "start": 831.44,
            "duration": 3.56
        },
        {
            "text": "purposes it turns out that the original",
            "start": 833.12,
            "duration": 3.519
        },
        {
            "text": "form can be used for some clever fast-",
            "start": 835.0,
            "duration": 3.16
        },
        {
            "text": "path comparisons between types for",
            "start": 836.639,
            "duration": 3.521
        },
        {
            "text": "example some type and type one to the",
            "start": 838.16,
            "duration": 3.72
        },
        {
            "text": "99th bajillion you want to see if it's",
            "start": 840.16,
            "duration": 3.119
        },
        {
            "text": "assignable to some type recall that we",
            "start": 841.88,
            "duration": 3.56
        },
        {
            "text": "don't really have an intersection uh oh",
            "start": 843.279,
            "duration": 3.68
        },
        {
            "text": "I see why this is a fast type because",
            "start": 845.44,
            "duration": 4.48
        },
        {
            "text": "you have some type off the rip uh we",
            "start": 846.959,
            "duration": 4.481
        },
        {
            "text": "have unions that look like some type one",
            "start": 849.92,
            "duration": 3.12
        },
        {
            "text": "some type two some type three some type",
            "start": 851.44,
            "duration": 3.199
        },
        {
            "text": "all the way up to the 99 when checking",
            "start": 853.04,
            "duration": 3.159
        },
        {
            "text": "if a union is assignable to the Target",
            "start": 854.639,
            "duration": 4.0
        },
        {
            "text": "type we have to check every member of",
            "start": 856.199,
            "duration": 6.08
        },
        {
            "text": "the Union yep okay that's I mean clever",
            "start": 858.639,
            "duration": 5.2
        },
        {
            "text": "clever keep it in its original form",
            "start": 862.279,
            "duration": 3.641
        },
        {
            "text": "because then you only have one check for",
            "start": 863.839,
            "duration": 4.24
        },
        {
            "text": "the sum type if it's at least a sum type",
            "start": 865.92,
            "duration": 3.839
        },
        {
            "text": "we know that then all we have to do is",
            "start": 868.079,
            "duration": 5.12
        },
        {
            "text": "check these ones right in typescript 53",
            "start": 869.759,
            "duration": 5.041
        },
        {
            "text": "we Peak at the original intersection",
            "start": 873.199,
            "duration": 3.56
        },
        {
            "text": "form uh that we were able to tuck away",
            "start": 874.8,
            "duration": 3.52
        },
        {
            "text": "when we compare these types we okay",
            "start": 876.759,
            "duration": 3.801
        },
        {
            "text": "that's good like that Consolidated uh",
            "start": 878.32,
            "duration": 3.48
        },
        {
            "text": "between these two I don't think this one",
            "start": 880.56,
            "duration": 3.0
        },
        {
            "text": "will be very useful I don't think types",
            "start": 881.8,
            "duration": 3.959
        },
        {
            "text": "script itself ships to uh Library files",
            "start": 883.56,
            "duration": 4.839
        },
        {
            "text": "uh TS server library and typescript JS",
            "start": 885.759,
            "duration": 4.44
        },
        {
            "text": "there are certain apis available only in",
            "start": 888.399,
            "duration": 5.321
        },
        {
            "text": "TS uh Library okay okay so this is just",
            "start": 890.199,
            "duration": 5.2
        },
        {
            "text": "a bunch of internal stuff not really for",
            "start": 893.72,
            "duration": 3.32
        },
        {
            "text": "me all right breaking changes and",
            "start": 895.399,
            "duration": 4.44
        },
        {
            "text": "correctness improvements uh lib DTS I",
            "start": 897.04,
            "duration": 4.599
        },
        {
            "text": "still can't ever get DTS files to work",
            "start": 899.839,
            "duration": 3.321
        },
        {
            "text": "the way I want them to uh types",
            "start": 901.639,
            "duration": 3.361
        },
        {
            "text": "generated for Dom may have an impact on",
            "start": 903.16,
            "duration": 4.76
        },
        {
            "text": "your code base okay checks for super",
            "start": 905.0,
            "duration": 5.32
        },
        {
            "text": "access okay so just a bunch of little",
            "start": 907.92,
            "duration": 4.44
        },
        {
            "text": "bit and what's next at this point",
            "start": 910.32,
            "duration": 3.68
        },
        {
            "text": "typescript 53 is what we'd call feature",
            "start": 912.36,
            "duration": 4.12
        },
        {
            "text": "stable the focus on 53 will be bug fixes",
            "start": 914.0,
            "duration": 4.6
        },
        {
            "text": "and polish and certain lowrisk editor",
            "start": 916.48,
            "duration": 5.32
        },
        {
            "text": "features okay cool well uh I'm not going",
            "start": 918.6,
            "duration": 5.0
        },
        {
            "text": "to lie to you everything that they've",
            "start": 921.8,
            "duration": 5.12
        },
        {
            "text": "they've made better also seems crazy uh",
            "start": 923.6,
            "duration": 5.32
        },
        {
            "text": "this just is crazy I I don't know why",
            "start": 926.92,
            "duration": 3.399
        },
        {
            "text": "anyone would do this I'm still",
            "start": 928.92,
            "duration": 2.839
        },
        {
            "text": "completely confused why anyone would",
            "start": 930.319,
            "duration": 4.481
        },
        {
            "text": "want to write code like this um",
            "start": 931.759,
            "duration": 5.44
        },
        {
            "text": "this I'm I'm emotionally in pain why",
            "start": 934.8,
            "duration": 4.2
        },
        {
            "text": "you'd want two different import systems",
            "start": 937.199,
            "duration": 4.841
        },
        {
            "text": "going on I just don't get it I I guess",
            "start": 939.0,
            "duration": 4.959
        },
        {
            "text": "uh also this I I really am not too sure",
            "start": 942.04,
            "duration": 4.0
        },
        {
            "text": "about this in conclusion to write type",
            "start": 943.959,
            "duration": 5.921
        },
        {
            "text": "JS we write rescript uh at the",
            "start": 946.04,
            "duration": 6.599
        },
        {
            "text": "end I I guess I I mean I I'm glad that",
            "start": 949.88,
            "duration": 4.16
        },
        {
            "text": "they're making typescript better in the",
            "start": 952.639,
            "duration": 2.841
        },
        {
            "text": "sense that this now has better type",
            "start": 954.04,
            "duration": 4.2
        },
        {
            "text": "narrowing okay awesome I like to see",
            "start": 955.48,
            "duration": 4.64
        },
        {
            "text": "that I'm just struggling you know what I",
            "start": 958.24,
            "duration": 4.24
        },
        {
            "text": "mean I'm just struggling struggling to",
            "start": 960.12,
            "duration": 4.24
        },
        {
            "text": "see why struggling to understand why",
            "start": 962.48,
            "duration": 4.32
        },
        {
            "text": "this would why you'd want this um type",
            "start": 964.36,
            "duration": 3.599
        },
        {
            "text": "getting better we're trying to say it's",
            "start": 966.8,
            "duration": 3.839
        },
        {
            "text": "better anyways uh I guess this La this",
            "start": 967.959,
            "duration": 4.521
        },
        {
            "text": "one's really cool I'd say that if you",
            "start": 970.639,
            "duration": 5.081
        },
        {
            "text": "use your mouse as in your editor then",
            "start": 972.48,
            "duration": 5.4
        },
        {
            "text": "this is a really cool feature I can",
            "start": 975.72,
            "duration": 4.16
        },
        {
            "text": "completely agree with this that's a",
            "start": 977.88,
            "duration": 6.6
        },
        {
            "text": "super cool feature inside of your um",
            "start": 979.88,
            "duration": 6.68
        },
        {
            "text": "your mouse based editor right that seems",
            "start": 984.48,
            "duration": 4.919
        },
        {
            "text": "pretty cool all right hey I guess the",
            "start": 986.56,
            "duration": 3.92
        },
        {
            "text": "name",
            "start": 989.399,
            "duration": 3.44
        },
        {
            "text": "is I'm still use I'm still gonna use",
            "start": 990.48,
            "duration": 6.159
        },
        {
            "text": "goer rust a Jen",
            "start": 992.839,
            "duration": 3.8
        }
    ],
    "stats": {
        "viewCount": "49169",
        "likeCount": "1182",
        "favoriteCount": "0",
        "commentCount": "146"
    }
}