{
    "id": "yD2JaAnMMo0",
    "title": "$400,000 a Year and 10 Hours A Week At GOOGLE",
    "publishedAt": "2023-10-05T12:00:50Z",
    "captions": [
        {
            "text": "so I had this message privately sent to",
            "start": 0.06,
            "duration": 6.12
        },
        {
            "text": "me from a Google employee telling me",
            "start": 3.06,
            "duration": 6.66
        },
        {
            "text": "about their experience at Google of",
            "start": 6.18,
            "duration": 5.22
        },
        {
            "text": "course I had to read this because this",
            "start": 9.72,
            "duration": 3.539
        },
        {
            "text": "just seems crazy I have not read through",
            "start": 11.4,
            "duration": 3.96
        },
        {
            "text": "pretty much any of it other than I just",
            "start": 13.259,
            "duration": 4.681
        },
        {
            "text": "read this part right here which feels",
            "start": 15.36,
            "duration": 4.2
        },
        {
            "text": "wild and it gave me kind of a little bit",
            "start": 17.94,
            "duration": 3.72
        },
        {
            "text": "of like hey this is what's happening so",
            "start": 19.56,
            "duration": 4.74
        },
        {
            "text": "let's do this tldr uh I wrote this whole",
            "start": 21.66,
            "duration": 6.119
        },
        {
            "text": "thing as a tldr but now it's this size",
            "start": 24.3,
            "duration": 6.299
        },
        {
            "text": "oopsies pre-watched I pre-watched this",
            "start": 27.779,
            "duration": 4.98
        },
        {
            "text": "text I did format it in Tech I did",
            "start": 30.599,
            "duration": 3.901
        },
        {
            "text": "format it so I do know how the ending",
            "start": 32.759,
            "duration": 3.121
        },
        {
            "text": "goes because I was formatting it and I",
            "start": 34.5,
            "duration": 4.02
        },
        {
            "text": "read the ending on accent how to work 10",
            "start": 35.88,
            "duration": 5.58
        },
        {
            "text": "hours a week as a software engineer for",
            "start": 38.52,
            "duration": 5.46
        },
        {
            "text": "seven years for four hundred thousand",
            "start": 41.46,
            "duration": 5.52
        },
        {
            "text": "dollars a year everybody take I I was",
            "start": 43.98,
            "duration": 5.28
        },
        {
            "text": "expecting to see a bunch of Pepe notes",
            "start": 46.98,
            "duration": 4.559
        },
        {
            "text": "going on where's the puppet notes all",
            "start": 49.26,
            "duration": 4.38
        },
        {
            "text": "right anyways engineering estimates are",
            "start": 51.539,
            "duration": 5.04
        },
        {
            "text": "so fuzzy and the orgs so broad that's",
            "start": 53.64,
            "duration": 4.68
        },
        {
            "text": "not really used as the measure of",
            "start": 56.579,
            "duration": 5.16
        },
        {
            "text": "productivity okay for flat teams 12 uh",
            "start": 58.32,
            "duration": 6.18
        },
        {
            "text": "12 per manager 70 per skip at the",
            "start": 61.739,
            "duration": 4.56
        },
        {
            "text": "company without micromanagement If your",
            "start": 64.5,
            "duration": 3.78
        },
        {
            "text": "manager is too busy to know exactly what",
            "start": 66.299,
            "duration": 4.741
        },
        {
            "text": "your day today is it's easy to pass off",
            "start": 68.28,
            "duration": 5.519
        },
        {
            "text": "slow work as challenging work okay yup",
            "start": 71.04,
            "duration": 4.8
        },
        {
            "text": "thank you for the essays so first off",
            "start": 73.799,
            "duration": 3.781
        },
        {
            "text": "this is actually kind of wild 12 people",
            "start": 75.84,
            "duration": 4.68
        },
        {
            "text": "per manager 70 per skip there's like a",
            "start": 77.58,
            "duration": 5.64
        },
        {
            "text": "prescribed amount for every six managers",
            "start": 80.52,
            "duration": 5.22
        },
        {
            "text": "there's a skip level for every 12",
            "start": 83.22,
            "duration": 4.5
        },
        {
            "text": "employees there's one man there's one",
            "start": 85.74,
            "duration": 4.5
        },
        {
            "text": "manager kind of wild it helps with your",
            "start": 87.72,
            "duration": 4.98
        },
        {
            "text": "manager has a disconnect stopping them",
            "start": 90.24,
            "duration": 4.8
        },
        {
            "text": "from fully understanding your work are",
            "start": 92.7,
            "duration": 4.68
        },
        {
            "text": "they a PhD who mainly reads ml research",
            "start": 95.04,
            "duration": 4.38
        },
        {
            "text": "papers and worked on ML Theory doesn't",
            "start": 97.38,
            "duration": 3.84
        },
        {
            "text": "code never really did it only works on",
            "start": 99.42,
            "duration": 3.12
        },
        {
            "text": "cross-team collaborations with other",
            "start": 101.22,
            "duration": 3.66
        },
        {
            "text": "managers and doesn't have a good idea of",
            "start": 102.54,
            "duration": 4.2
        },
        {
            "text": "the part of the code base you work in",
            "start": 104.88,
            "duration": 5.4
        },
        {
            "text": "okay a lot of the work is ml modeling",
            "start": 106.74,
            "duration": 6.12
        },
        {
            "text": "based and requires experiments that may",
            "start": 110.28,
            "duration": 5.339
        },
        {
            "text": "or may not pan out not launching is a",
            "start": 112.86,
            "duration": 4.68
        },
        {
            "text": "presumed risk of any experiment plus",
            "start": 115.619,
            "duration": 4.46
        },
        {
            "text": "many ml data analysis slash investor",
            "start": 117.54,
            "duration": 4.5
        },
        {
            "text": "investigatory work doesn't require",
            "start": 120.079,
            "duration": 4.481
        },
        {
            "text": "checking in much code document trail of",
            "start": 122.04,
            "duration": 4.439
        },
        {
            "text": "artifacts by the way you can really tell",
            "start": 124.56,
            "duration": 4.619
        },
        {
            "text": "this is Google when they say artifacts",
            "start": 126.479,
            "duration": 5.221
        },
        {
            "text": "Google is all about technical artifacts",
            "start": 129.179,
            "duration": 4.64
        },
        {
            "text": "they want you writing up everything",
            "start": 131.7,
            "duration": 5.7
        },
        {
            "text": "everything needs to be written to T",
            "start": 133.819,
            "duration": 6.041
        },
        {
            "text": "alright the promo system rewards impact",
            "start": 137.4,
            "duration": 4.86
        },
        {
            "text": "and complexity and Leadership which is",
            "start": 139.86,
            "duration": 4.739
        },
        {
            "text": "easier to claim when you were the sole",
            "start": 142.26,
            "duration": 4.44
        },
        {
            "text": "owner of a project so many projects are",
            "start": 144.599,
            "duration": 4.321
        },
        {
            "text": "designed to be highly into dependent so",
            "start": 146.7,
            "duration": 4.08
        },
        {
            "text": "often your teammates don't know how much",
            "start": 148.92,
            "duration": 4.44
        },
        {
            "text": "or don't know much about your work this",
            "start": 150.78,
            "duration": 4.2
        },
        {
            "text": "does actually make sense",
            "start": 153.36,
            "duration": 4.62
        },
        {
            "text": "I love I mean just throw in leadership",
            "start": 154.98,
            "duration": 6.0
        },
        {
            "text": "in there lead your own personal project",
            "start": 157.98,
            "duration": 5.94
        },
        {
            "text": "complexity unknown this sounds like the",
            "start": 160.98,
            "duration": 5.1
        },
        {
            "text": "dream given the old promo system in quid",
            "start": 163.92,
            "duration": 3.899
        },
        {
            "text": "pro quo solicitation of performance",
            "start": 166.08,
            "duration": 4.019
        },
        {
            "text": "feedback everybody's too scared to give",
            "start": 167.819,
            "duration": 4.14
        },
        {
            "text": "anyone else negative feedback at the",
            "start": 170.099,
            "duration": 3.78
        },
        {
            "text": "peer level oh yeah because if your",
            "start": 171.959,
            "duration": 4.441
        },
        {
            "text": "promos are directly tied to peer",
            "start": 173.879,
            "duration": 5.701
        },
        {
            "text": "feedback then you have like you have",
            "start": 176.4,
            "duration": 5.88
        },
        {
            "text": "it's like it's like the it's like the",
            "start": 179.58,
            "duration": 4.92
        },
        {
            "text": "inverse prisoner dilemma",
            "start": 182.28,
            "duration": 4.92
        },
        {
            "text": "like no one wants to tell because you're",
            "start": 184.5,
            "duration": 5.4
        },
        {
            "text": "gonna know and then everybody else oh",
            "start": 187.2,
            "duration": 4.259
        },
        {
            "text": "baby why would you give critical",
            "start": 189.9,
            "duration": 3.3
        },
        {
            "text": "feedback to someone which they can read",
            "start": 191.459,
            "duration": 3.661
        },
        {
            "text": "after when you will get the peer",
            "start": 193.2,
            "duration": 3.84
        },
        {
            "text": "reference from them and given how little",
            "start": 195.12,
            "duration": 3.78
        },
        {
            "text": "they know if you are nice and help them",
            "start": 197.04,
            "duration": 3.96
        },
        {
            "text": "with their bugs reviews quickly or just",
            "start": 198.9,
            "duration": 3.839
        },
        {
            "text": "rubber stamp they often mistake that for",
            "start": 201.0,
            "duration": 4.56
        },
        {
            "text": "doing a good job at your own job this is",
            "start": 202.739,
            "duration": 6.121
        },
        {
            "text": "a very true statement a quid pro quo of",
            "start": 205.56,
            "duration": 5.459
        },
        {
            "text": "some sorts if you will anyways",
            "start": 208.86,
            "duration": 4.56
        },
        {
            "text": "at the manager calibration committee",
            "start": 211.019,
            "duration": 4.14
        },
        {
            "text": "level If your manager doesn't even know",
            "start": 213.42,
            "duration": 3.06
        },
        {
            "text": "what you're doing the other managers",
            "start": 215.159,
            "duration": 3.36
        },
        {
            "text": "have no clue whatsoever so given only",
            "start": 216.48,
            "duration": 4.14
        },
        {
            "text": "positive peer feedback plus clueless",
            "start": 218.519,
            "duration": 4.321
        },
        {
            "text": "manager managers argue arguing",
            "start": 220.62,
            "duration": 4.619
        },
        {
            "text": "calibration with their gut instinct so",
            "start": 222.84,
            "duration": 4.56
        },
        {
            "text": "your manager feeling you are smart uh",
            "start": 225.239,
            "duration": 5.28
        },
        {
            "text": "smart can be enough plus your manager is",
            "start": 227.4,
            "duration": 5.04
        },
        {
            "text": "incentivized to argue for you since",
            "start": 230.519,
            "duration": 3.961
        },
        {
            "text": "having a low performer looks poorly on",
            "start": 232.44,
            "duration": 4.439
        },
        {
            "text": "him I could see that managers pre-bucket",
            "start": 234.48,
            "duration": 4.319
        },
        {
            "text": "all employees into say bottom five",
            "start": 236.879,
            "duration": 4.741
        },
        {
            "text": "percent and those going up for promo top",
            "start": 238.799,
            "duration": 5.701
        },
        {
            "text": "10 to 20 and then only those two groups",
            "start": 241.62,
            "duration": 4.56
        },
        {
            "text": "are scrutinized and fought over and",
            "start": 244.5,
            "duration": 3.18
        },
        {
            "text": "maybe people who haven't been promoted",
            "start": 246.18,
            "duration": 4.02
        },
        {
            "text": "in a long time so if your manager likes",
            "start": 247.68,
            "duration": 4.44
        },
        {
            "text": "you more than other teammates you'll get",
            "start": 250.2,
            "duration": 4.259
        },
        {
            "text": "a rubber stamp performance rating with",
            "start": 252.12,
            "duration": 4.019
        },
        {
            "text": "no debate from others in the",
            "start": 254.459,
            "duration": 3.12
        },
        {
            "text": "collaboration committee",
            "start": 256.139,
            "duration": 3.06
        },
        {
            "text": "damn",
            "start": 257.579,
            "duration": 3.84
        },
        {
            "text": "adding the constant churn of re-orgs and",
            "start": 259.199,
            "duration": 4.56
        },
        {
            "text": "new manager skips teammates and you'll",
            "start": 261.419,
            "duration": 3.901
        },
        {
            "text": "constantly get a fresh start for their",
            "start": 263.759,
            "duration": 4.321
        },
        {
            "text": "impression of you so it's often so it's",
            "start": 265.32,
            "duration": 4.439
        },
        {
            "text": "often about everyone's first impression",
            "start": 268.08,
            "duration": 5.22
        },
        {
            "text": "of you oh my goodness it",
            "start": 269.759,
            "duration": 5.461
        },
        {
            "text": "historically we only need one real",
            "start": 273.3,
            "duration": 4.2
        },
        {
            "text": "mandatory annual review the mid-year",
            "start": 275.22,
            "duration": 4.08
        },
        {
            "text": "review was mainly for those going for",
            "start": 277.5,
            "duration": 4.02
        },
        {
            "text": "promo this system can be heavily gamed",
            "start": 279.3,
            "duration": 4.98
        },
        {
            "text": "by recency bias by working harder in two",
            "start": 281.52,
            "duration": 4.56
        },
        {
            "text": "to three months before the review let's",
            "start": 284.28,
            "duration": 3.78
        },
        {
            "text": "see our I don't know has a really low",
            "start": 286.08,
            "duration": 4.32
        },
        {
            "text": "fire rate uh compared to other companies",
            "start": 288.06,
            "duration": 4.44
        },
        {
            "text": "historically they felt they only hired",
            "start": 290.4,
            "duration": 4.079
        },
        {
            "text": "the best so we're nicer than other",
            "start": 292.5,
            "duration": 3.54
        },
        {
            "text": "companies and we're more willing to give",
            "start": 294.479,
            "duration": 3.66
        },
        {
            "text": "more chances plus lowered their allowed",
            "start": 296.04,
            "duration": 4.68
        },
        {
            "text": "Plateau level from five to four though",
            "start": 298.139,
            "duration": 4.261
        },
        {
            "text": "recently they've changed the percent of",
            "start": 300.72,
            "duration": 3.539
        },
        {
            "text": "people who get the lowest two buckets in",
            "start": 302.4,
            "duration": 3.18
        },
        {
            "text": "perf reviews",
            "start": 304.259,
            "duration": 3.241
        },
        {
            "text": "okay yeah so if you don't know what a",
            "start": 305.58,
            "duration": 3.96
        },
        {
            "text": "plateau level is there's this idea that",
            "start": 307.5,
            "duration": 3.78
        },
        {
            "text": "you could work at a company",
            "start": 309.54,
            "duration": 4.56
        },
        {
            "text": "and you don't have to excel past that",
            "start": 311.28,
            "duration": 4.5
        },
        {
            "text": "level they're okay with you just",
            "start": 314.1,
            "duration": 5.28
        },
        {
            "text": "coasting at that level so they allow L4",
            "start": 315.78,
            "duration": 6.18
        },
        {
            "text": "coasting and if I'm not mistaken an L4",
            "start": 319.38,
            "duration": 4.259
        },
        {
            "text": "is not a senior engineer at that point",
            "start": 321.96,
            "duration": 4.56
        },
        {
            "text": "an L4 is just an engineer and L5 would",
            "start": 323.639,
            "duration": 6.241
        },
        {
            "text": "be a senior engineer so they allow an L4",
            "start": 326.52,
            "duration": 6.06
        },
        {
            "text": "a engineer coasting",
            "start": 329.88,
            "duration": 4.44
        },
        {
            "text": "while the bar to get promoted is pretty",
            "start": 332.58,
            "duration": 3.36
        },
        {
            "text": "high and has been competing with lots of",
            "start": 334.32,
            "duration": 4.56
        },
        {
            "text": "tryhards the bar to not get fired is so",
            "start": 335.94,
            "duration": 5.88
        },
        {
            "text": "so low the flexible work hours manager",
            "start": 338.88,
            "duration": 4.259
        },
        {
            "text": "constantly in meetings independent",
            "start": 341.82,
            "duration": 2.64
        },
        {
            "text": "projects ability to work from home",
            "start": 343.139,
            "duration": 3.481
        },
        {
            "text": "mandatory coveted work from home current",
            "start": 344.46,
            "duration": 4.44
        },
        {
            "text": "hybrid work week make so you don't even",
            "start": 346.62,
            "duration": 4.919
        },
        {
            "text": "have to go to work and slack you can be",
            "start": 348.9,
            "duration": 4.139
        },
        {
            "text": "at home playing video games and dial",
            "start": 351.539,
            "duration": 5.421
        },
        {
            "text": "into meetings or two each week",
            "start": 353.039,
            "duration": 3.921
        },
        {
            "text": "keep in mind you're still getting better",
            "start": 357.72,
            "duration": 4.319
        },
        {
            "text": "at your job every year so if you truly",
            "start": 359.58,
            "duration": 4.14
        },
        {
            "text": "don't care about getting promoted you",
            "start": 362.039,
            "duration": 3.541
        },
        {
            "text": "can work for fewer and fewer hours each",
            "start": 363.72,
            "duration": 4.56
        },
        {
            "text": "week as the years go on the Crux of the",
            "start": 365.58,
            "duration": 4.8
        },
        {
            "text": "issue is managers hate spending time on",
            "start": 368.28,
            "duration": 4.44
        },
        {
            "text": "perf reviews so ignore it all year and",
            "start": 370.38,
            "duration": 4.08
        },
        {
            "text": "then have to decide everyone rating in a",
            "start": 372.72,
            "duration": 3.3
        },
        {
            "text": "single eight hour day of calibration",
            "start": 374.46,
            "duration": 3.959
        },
        {
            "text": "maybe an extra half day is used before",
            "start": 376.02,
            "duration": 4.5
        },
        {
            "text": "the pre-sort and the half day after the",
            "start": 378.419,
            "duration": 4.321
        },
        {
            "text": "tough cases they can actually deeply",
            "start": 380.52,
            "duration": 4.14
        },
        {
            "text": "read and understand everyone's acl's",
            "start": 382.74,
            "duration": 4.38
        },
        {
            "text": "design docs bugs design challenges to",
            "start": 384.66,
            "duration": 3.84
        },
        {
            "text": "truly understand complexity and hard",
            "start": 387.12,
            "duration": 4.019
        },
        {
            "text": "work in eight hours no every manager is",
            "start": 388.5,
            "duration": 4.199
        },
        {
            "text": "biased and says their reports are",
            "start": 391.139,
            "duration": 3.481
        },
        {
            "text": "performing better than other managers",
            "start": 392.699,
            "duration": 4.801
        },
        {
            "text": "reports it's too subjective so how do",
            "start": 394.62,
            "duration": 4.859
        },
        {
            "text": "they break the tie amongst themselves do",
            "start": 397.5,
            "duration": 3.6
        },
        {
            "text": "they use objective numbers like Revenue",
            "start": 399.479,
            "duration": 5.101
        },
        {
            "text": "no they argue that they can uh that that",
            "start": 401.1,
            "duration": 5.46
        },
        {
            "text": "can be biased per team so what do they",
            "start": 404.58,
            "duration": 5.1
        },
        {
            "text": "use they use artifacts the technical",
            "start": 406.56,
            "duration": 5.16
        },
        {
            "text": "artifacts I've heard of these being just",
            "start": 409.68,
            "duration": 4.26
        },
        {
            "text": "fantastic you just gotta write about",
            "start": 411.72,
            "duration": 4.08
        },
        {
            "text": "what you do you don't actually do",
            "start": 413.94,
            "duration": 4.979
        },
        {
            "text": "anything you just write it",
            "start": 415.8,
            "duration": 5.16
        },
        {
            "text": "so you're not actually elevating on if",
            "start": 418.919,
            "duration": 3.9
        },
        {
            "text": "you worked hard you're elevating on if",
            "start": 420.96,
            "duration": 3.12
        },
        {
            "text": "you made it look like you worked hard",
            "start": 422.819,
            "duration": 4.801
        },
        {
            "text": "employee checked in 100 line uh cl to",
            "start": 424.08,
            "duration": 5.459
        },
        {
            "text": "implement a feature and marked the bug",
            "start": 427.62,
            "duration": 3.72
        },
        {
            "text": "as done and then they played video games",
            "start": 429.539,
            "duration": 4.261
        },
        {
            "text": "all month employee B had to do the same",
            "start": 431.34,
            "duration": 4.68
        },
        {
            "text": "project but row 10 000 word design dock",
            "start": 433.8,
            "duration": 3.6
        },
        {
            "text": "to explain the hundred lines of code",
            "start": 436.02,
            "duration": 3.179
        },
        {
            "text": "they planned to write checked in their",
            "start": 437.4,
            "duration": 3.359
        },
        {
            "text": "20 broken iterations of that code",
            "start": 439.199,
            "duration": 3.481
        },
        {
            "text": "created a tracking bug with 40 sub",
            "start": 440.759,
            "duration": 3.481
        },
        {
            "text": "tracking bugs partnered with one",
            "start": 442.68,
            "duration": 3.0
        },
        {
            "text": "engineer who Robert stamped all the code",
            "start": 444.24,
            "duration": 3.42
        },
        {
            "text": "reviews faster iteration time caused",
            "start": 445.68,
            "duration": 3.72
        },
        {
            "text": "production outage wrote a postmortem",
            "start": 447.66,
            "duration": 3.84
        },
        {
            "text": "logged more bugs had no idea how the",
            "start": 449.4,
            "duration": 3.54
        },
        {
            "text": "system worked and wrote a thousand lines",
            "start": 451.5,
            "duration": 3.599
        },
        {
            "text": "of technical debt Laden hacks instead of",
            "start": 452.94,
            "duration": 3.659
        },
        {
            "text": "100 lines of code for their",
            "start": 455.099,
            "duration": 3.301
        },
        {
            "text": "implementation launch something that may",
            "start": 456.599,
            "duration": 3.961
        },
        {
            "text": "or may not be working skipped adding any",
            "start": 458.4,
            "duration": 5.579
        },
        {
            "text": "instrumentation or spending anytime",
            "start": 460.56,
            "duration": 6.24
        },
        {
            "text": "to look up or use existing metrics but",
            "start": 463.979,
            "duration": 4.741
        },
        {
            "text": "it must be fine because nobody asked",
            "start": 466.8,
            "duration": 4.2
        },
        {
            "text": "them to write another postmortem yet as",
            "start": 468.72,
            "duration": 4.979
        },
        {
            "text": "uh and As Trump says if we stop testing",
            "start": 471.0,
            "duration": 5.28
        },
        {
            "text": "we'd have fewer failing cases then wrote",
            "start": 473.699,
            "duration": 5.041
        },
        {
            "text": "an elaborative 10 000 word launch doc",
            "start": 476.28,
            "duration": 4.199
        },
        {
            "text": "touting their success",
            "start": 478.74,
            "duration": 4.019
        },
        {
            "text": "obviously employee B performed better",
            "start": 480.479,
            "duration": 4.321
        },
        {
            "text": "look at the complexity of that project",
            "start": 482.759,
            "duration": 3.84
        },
        {
            "text": "and how much they did",
            "start": 484.8,
            "duration": 5.16
        },
        {
            "text": "I mean it's",
            "start": 486.599,
            "duration": 5.88
        },
        {
            "text": "it's a really good point consistent",
            "start": 489.96,
            "duration": 3.84
        },
        {
            "text": "churn will always look more impressive",
            "start": 492.479,
            "duration": 3.66
        },
        {
            "text": "than inconsistent Excellence your job is",
            "start": 493.8,
            "duration": 3.899
        },
        {
            "text": "not really to write good code for the",
            "start": 496.139,
            "duration": 3.301
        },
        {
            "text": "company or increase company Revenue",
            "start": 497.699,
            "duration": 3.601
        },
        {
            "text": "though that may happen incidentally",
            "start": 499.44,
            "duration": 4.199
        },
        {
            "text": "sometimes it's really to construct an",
            "start": 501.3,
            "duration": 4.079
        },
        {
            "text": "array of artifacts that look impressive",
            "start": 503.639,
            "duration": 4.62
        },
        {
            "text": "to the bosses upon cursory glance",
            "start": 505.379,
            "duration": 5.16
        },
        {
            "text": "and on many teams including mine that",
            "start": 508.259,
            "duration": 4.441
        },
        {
            "text": "can be vastly different",
            "start": 510.539,
            "duration": 3.841
        },
        {
            "text": "than what's aligned with the company's",
            "start": 512.7,
            "duration": 3.48
        },
        {
            "text": "interests oh",
            "start": 514.38,
            "duration": 3.599
        },
        {
            "text": "and don't forget to throw in good",
            "start": 516.18,
            "duration": 4.26
        },
        {
            "text": "measure of self-aggrandizing",
            "start": 517.979,
            "duration": 5.701
        },
        {
            "text": "this is one step a plan over document",
            "start": 520.44,
            "duration": 5.22
        },
        {
            "text": "and bloat everything every company has",
            "start": 523.68,
            "duration": 4.38
        },
        {
            "text": "gaming of the performance evaluation",
            "start": 525.66,
            "duration": 4.38
        },
        {
            "text": "metrics so why fight it instead use it",
            "start": 528.06,
            "duration": 4.32
        },
        {
            "text": "to your advantage Pro tips code be sure",
            "start": 530.04,
            "duration": 5.16
        },
        {
            "text": "to check in in at any random time",
            "start": 532.38,
            "duration": 5.04
        },
        {
            "text": "scripts oh hold on be sure to check in",
            "start": 535.2,
            "duration": 4.5
        },
        {
            "text": "any random one-time scripts like bass",
            "start": 537.42,
            "duration": 4.38
        },
        {
            "text": "scripts and squeal queries to bump your",
            "start": 539.7,
            "duration": 4.259
        },
        {
            "text": "change count a random utils directory",
            "start": 541.8,
            "duration": 4.2
        },
        {
            "text": "nobody cares about scrutinizing Works a",
            "start": 543.959,
            "duration": 4.801
        },
        {
            "text": "great place to toss these into the void",
            "start": 546.0,
            "duration": 5.279
        },
        {
            "text": "bug notes split all bugs until at least",
            "start": 548.76,
            "duration": 4.019
        },
        {
            "text": "10. it's more impressive when your five",
            "start": 551.279,
            "duration": 4.321
        },
        {
            "text": "line CL fixes fix five bucks be sure to",
            "start": 552.779,
            "duration": 5.041
        },
        {
            "text": "add copious notes and screenshots all",
            "start": 555.6,
            "duration": 3.84
        },
        {
            "text": "the images are great but it's often",
            "start": 557.82,
            "duration": 3.48
        },
        {
            "text": "easiest to use screenshots of plain text",
            "start": 559.44,
            "duration": 4.44
        },
        {
            "text": "and code as it increases the vertical",
            "start": 561.3,
            "duration": 4.86
        },
        {
            "text": "scroll bar of your bugs",
            "start": 563.88,
            "duration": 4.56
        },
        {
            "text": "therefore the complexity of problems you",
            "start": 566.16,
            "duration": 4.76
        },
        {
            "text": "are solving",
            "start": 568.44,
            "duration": 2.48
        },
        {
            "text": "my goodness it's so true vertical",
            "start": 575.22,
            "duration": 8.1
        },
        {
            "text": "complexity is a real thing oh no design",
            "start": 579.3,
            "duration": 6.12
        },
        {
            "text": "launch docs first steps of course split",
            "start": 583.32,
            "duration": 4.019
        },
        {
            "text": "your uh your work into multiple launches",
            "start": 585.42,
            "duration": 3.419
        },
        {
            "text": "that have to go out each with their own",
            "start": 587.339,
            "duration": 3.841
        },
        {
            "text": "specific design slash launch doc second",
            "start": 588.839,
            "duration": 4.44
        },
        {
            "text": "repeat ninety percent of what you put in",
            "start": 591.18,
            "duration": 3.9
        },
        {
            "text": "the design dock in the launch dock don't",
            "start": 593.279,
            "duration": 4.441
        },
        {
            "text": "forget to two to three x these in size a",
            "start": 595.08,
            "duration": 4.92
        },
        {
            "text": "month after the launch before perf",
            "start": 597.72,
            "duration": 5.76
        },
        {
            "text": "it's so good it's so true",
            "start": 600.0,
            "duration": 8.1
        },
        {
            "text": "post facto edit them to be bigger so",
            "start": 603.48,
            "duration": 7.56
        },
        {
            "text": "that as launch. as launch time comes",
            "start": 608.1,
            "duration": 5.46
        },
        {
            "text": "closer or as promo time comes closer",
            "start": 611.04,
            "duration": 5.76
        },
        {
            "text": "it's even bigger this is death death",
            "start": 613.56,
            "duration": 5.339
        },
        {
            "text": "note level I know",
            "start": 616.8,
            "duration": 3.719
        },
        {
            "text": "of course it varies from Team to team",
            "start": 618.899,
            "duration": 4.021
        },
        {
            "text": "but if you have a LAX let's see but if",
            "start": 620.519,
            "duration": 4.32
        },
        {
            "text": "you have a LAX view close teammates and",
            "start": 622.92,
            "duration": 4.14
        },
        {
            "text": "a LAX manager you can call you can all",
            "start": 624.839,
            "duration": 4.321
        },
        {
            "text": "enable each other in your laziness I",
            "start": 627.06,
            "duration": 3.66
        },
        {
            "text": "once worked with the division 40 plus",
            "start": 629.16,
            "duration": 3.6
        },
        {
            "text": "where I was shocked none other Engineers",
            "start": 630.72,
            "duration": 4.739
        },
        {
            "text": "except one who was always too busy to",
            "start": 632.76,
            "duration": 4.62
        },
        {
            "text": "meet knew anything about their systems",
            "start": 635.459,
            "duration": 3.241
        },
        {
            "text": "they couldn't even answer simple",
            "start": 637.38,
            "duration": 2.94
        },
        {
            "text": "questions like how a user might trigger",
            "start": 638.7,
            "duration": 3.84
        },
        {
            "text": "their code in real life or how to force",
            "start": 640.32,
            "duration": 4.139
        },
        {
            "text": "their code to run internally none of",
            "start": 642.54,
            "duration": 3.66
        },
        {
            "text": "them could debug anything they literally",
            "start": 644.459,
            "duration": 4.201
        },
        {
            "text": "checked in with unit tests only or maybe",
            "start": 646.2,
            "duration": 4.259
        },
        {
            "text": "they skipped those two and got back",
            "start": 648.66,
            "duration": 3.9
        },
        {
            "text": "aggregate statistics but knew nothing",
            "start": 650.459,
            "duration": 4.32
        },
        {
            "text": "else in one day I understood and could",
            "start": 652.56,
            "duration": 3.839
        },
        {
            "text": "debug their system better than any of",
            "start": 654.779,
            "duration": 3.961
        },
        {
            "text": "them but those same people are still",
            "start": 656.399,
            "duration": 4.261
        },
        {
            "text": "getting promoted at the exact same rate",
            "start": 658.74,
            "duration": 4.74
        },
        {
            "text": "as our team obviously each team should",
            "start": 660.66,
            "duration": 5.76
        },
        {
            "text": "have 10 promotion promoted equally each",
            "start": 663.48,
            "duration": 4.56
        },
        {
            "text": "cycle",
            "start": 666.42,
            "duration": 3.479
        },
        {
            "text": "so if you if you don't get fired in the",
            "start": 668.04,
            "duration": 3.359
        },
        {
            "text": "first six months and Coast for a few",
            "start": 669.899,
            "duration": 2.88
        },
        {
            "text": "years eventually someone will notice you",
            "start": 671.399,
            "duration": 2.761
        },
        {
            "text": "haven't been promoted for a while and",
            "start": 672.779,
            "duration": 3.601
        },
        {
            "text": "you'll get scrutinized but with only one",
            "start": 674.16,
            "duration": 4.739
        },
        {
            "text": "year annual reviews and other",
            "start": 676.38,
            "duration": 4.32
        },
        {
            "text": "deficiencies it's pretty easy to get",
            "start": 678.899,
            "duration": 3.481
        },
        {
            "text": "here and you should just change",
            "start": 680.7,
            "duration": 3.84
        },
        {
            "text": "companies because getting promotion via",
            "start": 682.38,
            "duration": 3.72
        },
        {
            "text": "an interview is way easier than getting",
            "start": 684.54,
            "duration": 4.52
        },
        {
            "text": "an internal promotion",
            "start": 686.1,
            "duration": 2.96
        },
        {
            "text": "so let's say you've coasted for a while",
            "start": 689.22,
            "duration": 3.48
        },
        {
            "text": "and for whatever reason demotivation",
            "start": 690.839,
            "duration": 3.901
        },
        {
            "text": "medical addiction focusing on marriage",
            "start": 692.7,
            "duration": 3.96
        },
        {
            "text": "and family you got a low rating at any",
            "start": 694.74,
            "duration": 4.14
        },
        {
            "text": "point or a long Plateau you can still do",
            "start": 696.66,
            "duration": 4.14
        },
        {
            "text": "all of the above and not get fired but",
            "start": 698.88,
            "duration": 4.079
        },
        {
            "text": "it's really not worth it if you don't",
            "start": 700.8,
            "duration": 3.659
        },
        {
            "text": "have consistent upwards trajectory",
            "start": 702.959,
            "duration": 3.901
        },
        {
            "text": "consider your job a dead end because it",
            "start": 704.459,
            "duration": 3.781
        },
        {
            "text": "will take longer to change people's",
            "start": 706.86,
            "duration": 4.14
        },
        {
            "text": "opinion opinions of you and you are",
            "start": 708.24,
            "duration": 5.339
        },
        {
            "text": "being way underpaid in the meantime then",
            "start": 711.0,
            "duration": 4.079
        },
        {
            "text": "just get a new job at a different",
            "start": 713.579,
            "duration": 3.961
        },
        {
            "text": "company work just as hard or less hard",
            "start": 715.079,
            "duration": 5.401
        },
        {
            "text": "even and then get your promotion you are",
            "start": 717.54,
            "duration": 5.1
        },
        {
            "text": "only working your way up from zero to n",
            "start": 720.48,
            "duration": 4.62
        },
        {
            "text": "instead of negative n to n especially if",
            "start": 722.64,
            "duration": 4.5
        },
        {
            "text": "you're offered money to quit take the",
            "start": 725.1,
            "duration": 3.78
        },
        {
            "text": "money and use your additional years of",
            "start": 727.14,
            "duration": 3.6
        },
        {
            "text": "experience for promo at the new place",
            "start": 728.88,
            "duration": 3.78
        },
        {
            "text": "it's just not worth the uphill battle to",
            "start": 730.74,
            "duration": 4.92
        },
        {
            "text": "stay PS I'm still I'm jealous of the",
            "start": 732.66,
            "duration": 5.58
        },
        {
            "text": "genius who got uh who got accepted or",
            "start": 735.66,
            "duration": 4.679
        },
        {
            "text": "okay here it is here's the line are you",
            "start": 738.24,
            "duration": 2.94
        },
        {
            "text": "ready",
            "start": 740.339,
            "duration": 3.781
        },
        {
            "text": "I am P.S I'm still jealous of the genius",
            "start": 741.18,
            "duration": 5.52
        },
        {
            "text": "who got accepted who got accepted or who",
            "start": 744.12,
            "duration": 4.56
        },
        {
            "text": "accepted the job at Google and Facebook",
            "start": 746.7,
            "duration": 4.92
        },
        {
            "text": "during covid simultaneously worked both",
            "start": 748.68,
            "duration": 6.12
        },
        {
            "text": "2x salary will always Trump even three",
            "start": 751.62,
            "duration": 5.64
        },
        {
            "text": "promos",
            "start": 754.8,
            "duration": 4.74
        },
        {
            "text": "legendary I actually really liked number",
            "start": 757.26,
            "duration": 3.72
        },
        {
            "text": "21 right here",
            "start": 759.54,
            "duration": 3.9
        },
        {
            "text": "this is actually really good advice",
            "start": 760.98,
            "duration": 4.919
        },
        {
            "text": "this is actually Stellar advice right",
            "start": 763.44,
            "duration": 3.54
        },
        {
            "text": "here",
            "start": 765.899,
            "duration": 2.581
        },
        {
            "text": "which is",
            "start": 766.98,
            "duration": 3.539
        },
        {
            "text": "if you do have a negative perception",
            "start": 768.48,
            "duration": 5.34
        },
        {
            "text": "that fight that fight back is all but",
            "start": 770.519,
            "duration": 4.56
        },
        {
            "text": "impossible",
            "start": 773.82,
            "duration": 3.24
        },
        {
            "text": "you know uh because sometimes things",
            "start": 775.079,
            "duration": 3.421
        },
        {
            "text": "happen right you focus on family and",
            "start": 777.06,
            "duration": 2.88
        },
        {
            "text": "marriage you do things differently and",
            "start": 778.5,
            "duration": 3.54
        },
        {
            "text": "you really do just you you gain a",
            "start": 779.94,
            "duration": 3.3
        },
        {
            "text": "negative perception because of outside",
            "start": 782.04,
            "duration": 2.82
        },
        {
            "text": "influences because of things that you're",
            "start": 783.24,
            "duration": 3.779
        },
        {
            "text": "taking differently or say you used to",
            "start": 784.86,
            "duration": 4.32
        },
        {
            "text": "work 60 hours a week and now you're just",
            "start": 787.019,
            "duration": 3.421
        },
        {
            "text": "like hey I really want to take family",
            "start": 789.18,
            "duration": 2.64
        },
        {
            "text": "important and all that so you start",
            "start": 790.44,
            "duration": 3.899
        },
        {
            "text": "working 30 to 40. and everyone notices",
            "start": 791.82,
            "duration": 4.199
        },
        {
            "text": "you're not delivering as fast as you",
            "start": 794.339,
            "duration": 3.421
        },
        {
            "text": "used to so but now you're just",
            "start": 796.019,
            "duration": 5.701
        },
        {
            "text": "delivering at a more normal level and so",
            "start": 797.76,
            "duration": 6.18
        },
        {
            "text": "what do you do here do you just jump out",
            "start": 801.72,
            "duration": 4.08
        },
        {
            "text": "anyways",
            "start": 803.94,
            "duration": 4.019
        },
        {
            "text": "I can't give any details on to who gave",
            "start": 805.8,
            "duration": 6.0
        },
        {
            "text": "this or why uh but this was a a set of",
            "start": 807.959,
            "duration": 6.661
        },
        {
            "text": "notes handed to me by someone who works",
            "start": 811.8,
            "duration": 4.86
        },
        {
            "text": "at Google and wanted to kind of give me",
            "start": 814.62,
            "duration": 5.64
        },
        {
            "text": "the down low on what's going on and",
            "start": 816.66,
            "duration": 6.9
        },
        {
            "text": "that was incredibly revealing the thing",
            "start": 820.26,
            "duration": 5.22
        },
        {
            "text": "I hate about it is that I wanna I wanna",
            "start": 823.56,
            "duration": 4.5
        },
        {
            "text": "I want to feel satisfied at the end of",
            "start": 825.48,
            "duration": 4.38
        },
        {
            "text": "the day I want to go work and make",
            "start": 828.06,
            "duration": 4.8
        },
        {
            "text": "something awesome and though that",
            "start": 829.86,
            "duration": 4.919
        },
        {
            "text": "lifestyle sounds amazing 10 hours a week",
            "start": 832.86,
            "duration": 4.2
        },
        {
            "text": "four hundred thousand dollars a year I'm",
            "start": 834.779,
            "duration": 4.381
        },
        {
            "text": "worried what it would do to my soul you",
            "start": 837.06,
            "duration": 5.339
        },
        {
            "text": "know what I mean great money amazing",
            "start": 839.16,
            "duration": 6.78
        },
        {
            "text": "benefits amazing stock",
            "start": 842.399,
            "duration": 6.481
        },
        {
            "text": "but like coasting kills me I just don't",
            "start": 845.94,
            "duration": 4.5
        },
        {
            "text": "think it's worth it now obviously it's",
            "start": 848.88,
            "duration": 4.139
        },
        {
            "text": "very easy for me to say that because you",
            "start": 850.44,
            "duration": 3.959
        },
        {
            "text": "know I already get to work at Netflix",
            "start": 853.019,
            "duration": 3.601
        },
        {
            "text": "I've I've established and made great",
            "start": 854.399,
            "duration": 3.601
        },
        {
            "text": "things",
            "start": 856.62,
            "duration": 2.82
        },
        {
            "text": "um I've done good things that I really",
            "start": 858.0,
            "duration": 2.88
        },
        {
            "text": "am happy about",
            "start": 859.44,
            "duration": 4.019
        },
        {
            "text": "the point is is that even if I didn't",
            "start": 860.88,
            "duration": 4.68
        },
        {
            "text": "have a lot of money I'm pretty confident",
            "start": 863.459,
            "duration": 3.961
        },
        {
            "text": "I would still continue to say the same",
            "start": 865.56,
            "duration": 4.8
        },
        {
            "text": "thing I want to be able to make good",
            "start": 867.42,
            "duration": 5.4
        },
        {
            "text": "things you know what I mean I want to",
            "start": 870.36,
            "duration": 4.02
        },
        {
            "text": "accomplish things",
            "start": 872.82,
            "duration": 3.54
        },
        {
            "text": "he established great things called it",
            "start": 874.38,
            "duration": 4.079
        },
        {
            "text": "you know like I don't want to just be",
            "start": 876.36,
            "duration": 4.08
        },
        {
            "text": "someone that just kind of works and gets",
            "start": 878.459,
            "duration": 3.601
        },
        {
            "text": "by in life like I want to actually",
            "start": 880.44,
            "duration": 3.54
        },
        {
            "text": "Master it",
            "start": 882.06,
            "duration": 3.66
        },
        {
            "text": "you know like I really loved when I used",
            "start": 883.98,
            "duration": 3.0
        },
        {
            "text": "to play I used to play the guitar for",
            "start": 885.72,
            "duration": 3.479
        },
        {
            "text": "four to six hours a day and like as I",
            "start": 886.98,
            "duration": 4.68
        },
        {
            "text": "got better and better and better it just",
            "start": 889.199,
            "duration": 4.681
        },
        {
            "text": "it was such an incredible experience you",
            "start": 891.66,
            "duration": 4.5
        },
        {
            "text": "know what I mean like I really felt",
            "start": 893.88,
            "duration": 4.319
        },
        {
            "text": "awesome at it and it really made me",
            "start": 896.16,
            "duration": 4.38
        },
        {
            "text": "happy and so the same thing with coding",
            "start": 898.199,
            "duration": 5.521
        },
        {
            "text": "is that like it really makes me happy",
            "start": 900.54,
            "duration": 6.599
        },
        {
            "text": "when I build good things you know hey",
            "start": 903.72,
            "duration": 5.16
        },
        {
            "text": "the name",
            "start": 907.139,
            "duration": 4.461
        },
        {
            "text": "is the prime imagine",
            "start": 908.88,
            "duration": 2.72
        }
    ],
    "stats": {
        "viewCount": "371328",
        "likeCount": "9122",
        "favoriteCount": "0",
        "commentCount": "570"
    }
}