{
    "id": "YPw4XYyY7jA",
    "title": "Why They Called It Java | Prime Reacts",
    "publishedAt": "2023-08-10T12:00:34Z",
    "captions": [
        {
            "text": "so why did they decide to call it Java",
            "start": 0.0,
            "duration": 5.7
        },
        {
            "text": "the technology is legendary okay can we",
            "start": 3.0,
            "duration": 4.319
        },
        {
            "text": "just take a moment and maybe not put",
            "start": 5.7,
            "duration": 4.74
        },
        {
            "text": "Java like that I mean legendary",
            "start": 7.319,
            "duration": 5.24
        },
        {
            "text": "um",
            "start": 10.44,
            "duration": 2.119
        },
        {
            "text": "I don't know about that but how and why",
            "start": 13.16,
            "duration": 4.78
        },
        {
            "text": "Sun Microsystems eventually settled on",
            "start": 15.96,
            "duration": 4.2
        },
        {
            "text": "the name Java was always something of a",
            "start": 17.94,
            "duration": 4.679
        },
        {
            "text": "mystery even to those involved okay when",
            "start": 20.16,
            "duration": 4.379
        },
        {
            "text": "Time magazine called Java one of the 10",
            "start": 22.619,
            "duration": 5.041
        },
        {
            "text": "best products of 1995. what does that",
            "start": 24.539,
            "duration": 5.761
        },
        {
            "text": "even mean okay this is the oh this might",
            "start": 27.66,
            "duration": 4.26
        },
        {
            "text": "be the craziest sentence okay I thought",
            "start": 30.3,
            "duration": 4.38
        },
        {
            "text": "calling Java legendary having Time",
            "start": 31.92,
            "duration": 5.52
        },
        {
            "text": "Magazine calling it one of the best 10",
            "start": 34.68,
            "duration": 6.379
        },
        {
            "text": "products what what does that even mean",
            "start": 37.44,
            "duration": 6.36
        },
        {
            "text": "uh a new American Marketing Legend was",
            "start": 41.059,
            "duration": 5.441
        },
        {
            "text": "born who said let's see who's to say",
            "start": 43.8,
            "duration": 4.14
        },
        {
            "text": "whether Sun Microsystems price",
            "start": 46.5,
            "duration": 3.66
        },
        {
            "text": "technology would have fared so well if",
            "start": 47.94,
            "duration": 4.02
        },
        {
            "text": "its name had been renamed to Oak or",
            "start": 50.16,
            "duration": 4.5
        },
        {
            "text": "green talk two of the earlier choices",
            "start": 51.96,
            "duration": 4.739
        },
        {
            "text": "ah green talk a little iteration on",
            "start": 54.66,
            "duration": 4.62
        },
        {
            "text": "small talk huh uh we all know the story",
            "start": 56.699,
            "duration": 4.68
        },
        {
            "text": "a giveaway An Elegant open source",
            "start": 59.28,
            "duration": 3.299
        },
        {
            "text": "programming environment and the world",
            "start": 61.379,
            "duration": 3.721
        },
        {
            "text": "will beat a path to your door no sweat",
            "start": 62.579,
            "duration": 4.621
        },
        {
            "text": "no matter what you decide to call it the",
            "start": 65.1,
            "duration": 4.14
        },
        {
            "text": "people charged with establishing a brand",
            "start": 67.2,
            "duration": 3.66
        },
        {
            "text": "identity for Sun's programming language",
            "start": 69.24,
            "duration": 3.18
        },
        {
            "text": "for Next Generation application",
            "start": 70.86,
            "duration": 3.72
        },
        {
            "text": "developers though decided upon a coffee",
            "start": 72.42,
            "duration": 4.68
        },
        {
            "text": "metaphor for their trademark Oak the",
            "start": 74.58,
            "duration": 5.76
        },
        {
            "text": "previous name was taken damn classic",
            "start": 77.1,
            "duration": 3.839
        },
        {
            "text": "um",
            "start": 80.34,
            "duration": 3.06
        },
        {
            "text": "let's see but why choose Java by their",
            "start": 80.939,
            "duration": 4.801
        },
        {
            "text": "own accounts something of a mystery this",
            "start": 83.4,
            "duration": 4.14
        },
        {
            "text": "group interview originally published in",
            "start": 85.74,
            "duration": 4.019
        },
        {
            "text": "Java World 1996 offers a fascinating",
            "start": 87.54,
            "duration": 4.439
        },
        {
            "text": "look back on how Java got its name okay",
            "start": 89.759,
            "duration": 5.341
        },
        {
            "text": "so how Java became Java the lawyer okay",
            "start": 91.979,
            "duration": 5.28
        },
        {
            "text": "quote we're doing a quote here oh from",
            "start": 95.1,
            "duration": 4.8
        },
        {
            "text": "Oak Technologies lawyers had told us we",
            "start": 97.259,
            "duration": 5.101
        },
        {
            "text": "couldn't name it Oak said Frank yellin",
            "start": 99.9,
            "duration": 4.8
        },
        {
            "text": "the senior engineer at Sun the name was",
            "start": 102.36,
            "duration": 4.32
        },
        {
            "text": "already trademarked by Oak Technologies",
            "start": 104.7,
            "duration": 4.5
        },
        {
            "text": "so a brainstorming session was held to",
            "start": 106.68,
            "duration": 4.92
        },
        {
            "text": "come up with ideas for a new name the",
            "start": 109.2,
            "duration": 4.559
        },
        {
            "text": "session was attack attended by a small",
            "start": 111.6,
            "duration": 4.92
        },
        {
            "text": "uh small Oh by all oh my goodness the",
            "start": 113.759,
            "duration": 4.621
        },
        {
            "text": "session was attended by okay TJ's making",
            "start": 116.52,
            "duration": 3.66
        },
        {
            "text": "fun of me I can hear him laughing at me",
            "start": 118.38,
            "duration": 3.96
        },
        {
            "text": "being unable to read the session was",
            "start": 120.18,
            "duration": 4.799
        },
        {
            "text": "attended by all members of what was uh",
            "start": 122.34,
            "duration": 5.099
        },
        {
            "text": "then called the Live Oak group damn",
            "start": 124.979,
            "duration": 5.041
        },
        {
            "text": "feels bad those of us actively working",
            "start": 127.439,
            "duration": 4.44
        },
        {
            "text": "on the new language the end result was",
            "start": 130.02,
            "duration": 4.32
        },
        {
            "text": "about 10 possible names uh",
            "start": 131.879,
            "duration": 4.381
        },
        {
            "text": "oh my goodness the end result was that",
            "start": 134.34,
            "duration": 3.78
        },
        {
            "text": "about 10 possible names that were chosen",
            "start": 136.26,
            "duration": 3.839
        },
        {
            "text": "they were then submitted to the legal",
            "start": 138.12,
            "duration": 4.22
        },
        {
            "text": "department",
            "start": 140.099,
            "duration": 2.241
        },
        {
            "text": "oh no we've chosen 10 names legal legal",
            "start": 144.56,
            "duration": 6.7
        },
        {
            "text": "department which one can we do",
            "start": 148.8,
            "duration": 5.7
        },
        {
            "text": "three of them came back clean Java DNA",
            "start": 151.26,
            "duration": 6.54
        },
        {
            "text": "and silk oh man imagine if Java was",
            "start": 154.5,
            "duration": 6.84
        },
        {
            "text": "named silk just imagine for a second if",
            "start": 157.8,
            "duration": 4.62
        },
        {
            "text": "silk",
            "start": 161.34,
            "duration": 3.72
        },
        {
            "text": "was the name no one remembers who first",
            "start": 162.42,
            "duration": 4.62
        },
        {
            "text": "came up with the name Java only one",
            "start": 165.06,
            "duration": 3.66
        },
        {
            "text": "person to my best knowledge has ever",
            "start": 167.04,
            "duration": 3.479
        },
        {
            "text": "suggested in public to being the creator",
            "start": 168.72,
            "duration": 5.099
        },
        {
            "text": "of the name Kim police who was the oak",
            "start": 170.519,
            "duration": 4.8
        },
        {
            "text": "product manager at the time remembers",
            "start": 173.819,
            "duration": 4.801
        },
        {
            "text": "things differently I named Java she I",
            "start": 175.319,
            "duration": 4.92
        },
        {
            "text": "mean that's what she said that's what",
            "start": 178.62,
            "duration": 2.699
        },
        {
            "text": "she said",
            "start": 180.239,
            "duration": 3.36
        },
        {
            "text": "I spent a lot of time and energy on",
            "start": 181.319,
            "duration": 4.14
        },
        {
            "text": "naming Java because I wanted to get",
            "start": 183.599,
            "duration": 3.72
        },
        {
            "text": "precisely the right name I wanted",
            "start": 185.459,
            "duration": 3.78
        },
        {
            "text": "something that reflected the essence of",
            "start": 187.319,
            "duration": 4.14
        },
        {
            "text": "the technology Dynamic revolutionary",
            "start": 189.239,
            "duration": 5.161
        },
        {
            "text": "Lively fun because this programming",
            "start": 191.459,
            "duration": 4.86
        },
        {
            "text": "language was so unique I was determined",
            "start": 194.4,
            "duration": 4.979
        },
        {
            "text": "to avoid nerdy names I also didn't want",
            "start": 196.319,
            "duration": 5.821
        },
        {
            "text": "anything with net or web in it because I",
            "start": 199.379,
            "duration": 4.86
        },
        {
            "text": "find those names very forgettable I",
            "start": 202.14,
            "duration": 4.019
        },
        {
            "text": "wanted something that was cool unique",
            "start": 204.239,
            "duration": 4.741
        },
        {
            "text": "and easy to spell and fun to say you",
            "start": 206.159,
            "duration": 5.341
        },
        {
            "text": "know history always provides us such a",
            "start": 208.98,
            "duration": 5.339
        },
        {
            "text": "fun look into the past not only do you",
            "start": 211.5,
            "duration": 4.44
        },
        {
            "text": "type the word calm",
            "start": 214.319,
            "duration": 3.361
        },
        {
            "text": "constantly",
            "start": 215.94,
            "duration": 6.6
        },
        {
            "text": "in Java but Java is now synonymous with",
            "start": 217.68,
            "duration": 7.8
        },
        {
            "text": "not fun how great is that",
            "start": 222.54,
            "duration": 7.619
        },
        {
            "text": "that somehow cool unique three of its",
            "start": 225.48,
            "duration": 7.14
        },
        {
            "text": "apparent two out of three of its goals",
            "start": 230.159,
            "duration": 5.821
        },
        {
            "text": "are now considered defeated",
            "start": 232.62,
            "duration": 5.339
        },
        {
            "text": "I love that I love being able to look",
            "start": 235.98,
            "duration": 4.14
        },
        {
            "text": "back into history and see someone's",
            "start": 237.959,
            "duration": 4.521
        },
        {
            "text": "intention and just see that intention",
            "start": 240.12,
            "duration": 6.119
        },
        {
            "text": "crumble before your eyes public static",
            "start": 242.48,
            "duration": 6.339
        },
        {
            "text": "void main this sucks",
            "start": 246.239,
            "duration": 4.801
        },
        {
            "text": "which is string arms of course uh I",
            "start": 248.819,
            "duration": 3.721
        },
        {
            "text": "gathered the team together in a room or",
            "start": 251.04,
            "duration": 3.18
        },
        {
            "text": "wrote up the on the Whiteboard words",
            "start": 252.54,
            "duration": 4.8
        },
        {
            "text": "like Dynamic alive jolt can we go back",
            "start": 254.22,
            "duration": 5.16
        },
        {
            "text": "to what she said uh or who she is",
            "start": 257.34,
            "duration": 4.079
        },
        {
            "text": "product manager okay this makes sense",
            "start": 259.38,
            "duration": 3.599
        },
        {
            "text": "because",
            "start": 261.419,
            "duration": 6.121
        },
        {
            "text": "this this fear this feels this",
            "start": 262.979,
            "duration": 6.981
        },
        {
            "text": "this",
            "start": 267.54,
            "duration": 4.56
        },
        {
            "text": "feels like what a product manager would",
            "start": 269.96,
            "duration": 4.6
        },
        {
            "text": "do everybody sit down write stuff on the",
            "start": 272.1,
            "duration": 4.86
        },
        {
            "text": "board dynamic",
            "start": 274.56,
            "duration": 5.579
        },
        {
            "text": "there's probably a pause alive",
            "start": 276.96,
            "duration": 5.94
        },
        {
            "text": "maybe a deep breath",
            "start": 280.139,
            "duration": 6.901
        },
        {
            "text": "jolt what is that soda Jolt Cola yeah I",
            "start": 282.9,
            "duration": 5.04
        },
        {
            "text": "want it",
            "start": 287.04,
            "duration": 3.78
        },
        {
            "text": "I want Snappy like jolt impact",
            "start": 287.94,
            "duration": 5.64
        },
        {
            "text": "revolutionary",
            "start": 290.82,
            "duration": 3.8
        },
        {
            "text": "Etc",
            "start": 293.58,
            "duration": 4.38
        },
        {
            "text": "and led the group in brainstorming I can",
            "start": 294.62,
            "duration": 5.74
        },
        {
            "text": "hear my kids don't don't mind them uh",
            "start": 297.96,
            "duration": 4.14
        },
        {
            "text": "police said the name Java emerged during",
            "start": 300.36,
            "duration": 3.24
        },
        {
            "text": "that session the other names included",
            "start": 302.1,
            "duration": 4.14
        },
        {
            "text": "DNA silk Ruby",
            "start": 303.6,
            "duration": 5.7
        },
        {
            "text": "huh and whirl",
            "start": 306.24,
            "duration": 6.66
        },
        {
            "text": "for Web Runner language yuck Sammy show",
            "start": 309.3,
            "duration": 8.28
        },
        {
            "text": "you this Shale I do not say that name uh",
            "start": 312.9,
            "duration": 6.6
        },
        {
            "text": "then a sun engineer recalls a brainstorm",
            "start": 317.58,
            "duration": 3.78
        },
        {
            "text": "meeting held sometime around January of",
            "start": 319.5,
            "duration": 3.96
        },
        {
            "text": "1995. it's actually hard to say where",
            "start": 321.36,
            "duration": 4.08
        },
        {
            "text": "Java first came from but it ended up on",
            "start": 323.46,
            "duration": 3.6
        },
        {
            "text": "the list of candidates we chose along",
            "start": 325.44,
            "duration": 6.0
        },
        {
            "text": "with silk lyric pepper net Pros neon man",
            "start": 327.06,
            "duration": 7.56
        },
        {
            "text": "neon is everywhere and a host of others",
            "start": 331.44,
            "duration": 5.22
        },
        {
            "text": "too embarrassing to mention some other",
            "start": 334.62,
            "duration": 4.2
        },
        {
            "text": "candidates were a web dancer and web",
            "start": 336.66,
            "duration": 5.16
        },
        {
            "text": "spinner said Chris worth who was an",
            "start": 338.82,
            "duration": 4.439
        },
        {
            "text": "engineer on the project from its",
            "start": 341.82,
            "duration": 3.78
        },
        {
            "text": "Inception yeah web dancer sounds just",
            "start": 343.259,
            "duration": 3.841
        },
        {
            "text": "genuinely the worst thing I've ever",
            "start": 345.6,
            "duration": 3.72
        },
        {
            "text": "heard in my life Dodge Neon still out",
            "start": 347.1,
            "duration": 3.36
        },
        {
            "text": "there on the road somewhere there's a",
            "start": 349.32,
            "duration": 3.18
        },
        {
            "text": "Dodge Neon driving right now going I'm",
            "start": 350.46,
            "duration": 3.959
        },
        {
            "text": "the true Neon",
            "start": 352.5,
            "duration": 3.72
        },
        {
            "text": "although marketing wanted a name that",
            "start": 354.419,
            "duration": 4.321
        },
        {
            "text": "implied an association with the web or",
            "start": 356.22,
            "duration": 4.44
        },
        {
            "text": "the net I think we did a very I think we",
            "start": 358.74,
            "duration": 3.66
        },
        {
            "text": "did very well to pick a name that wasn't",
            "start": 360.66,
            "duration": 3.84
        },
        {
            "text": "associated with either one Java is",
            "start": 362.4,
            "duration": 3.54
        },
        {
            "text": "likely to find a true home in",
            "start": 364.5,
            "duration": 3.24
        },
        {
            "text": "applications far from the internet so",
            "start": 365.94,
            "duration": 3.479
        },
        {
            "text": "it's so it's best that it wasn't",
            "start": 367.74,
            "duration": 4.5
        },
        {
            "text": "pigeonholed early get it as far away as",
            "start": 369.419,
            "duration": 6.301
        },
        {
            "text": "possible please James Gosling do you",
            "start": 372.24,
            "duration": 6.06
        },
        {
            "text": "think he's related to any other goslings",
            "start": 375.72,
            "duration": 4.56
        },
        {
            "text": "you think maybe do you think his brother",
            "start": 378.3,
            "duration": 4.2
        },
        {
            "text": "Ryan you know could also comment on this",
            "start": 380.28,
            "duration": 4.32
        },
        {
            "text": "uh Java's Creator remembers uh that the",
            "start": 382.5,
            "duration": 3.539
        },
        {
            "text": "name originated in a meeting where about",
            "start": 384.6,
            "duration": 2.76
        },
        {
            "text": "a dozen people got together to",
            "start": 386.039,
            "duration": 2.401
        },
        {
            "text": "brainstorm",
            "start": 387.36,
            "duration": 2.76
        },
        {
            "text": "they love this term brain there's a lot",
            "start": 388.44,
            "duration": 3.0
        },
        {
            "text": "of brainstorming you know I actually did",
            "start": 390.12,
            "duration": 3.6
        },
        {
            "text": "a brainstorm meeting one time so we had",
            "start": 391.44,
            "duration": 4.379
        },
        {
            "text": "this project called Falcor Falcor was",
            "start": 393.72,
            "duration": 3.96
        },
        {
            "text": "named after the luck dragon in",
            "start": 395.819,
            "duration": 4.981
        },
        {
            "text": "never-ending story and Falcor we thought",
            "start": 397.68,
            "duration": 5.34
        },
        {
            "text": "since we're a movie company and we're",
            "start": 400.8,
            "duration": 3.78
        },
        {
            "text": "releasing this open source product maybe",
            "start": 403.02,
            "duration": 4.08
        },
        {
            "text": "we should uh uh maybe we should have",
            "start": 404.58,
            "duration": 4.38
        },
        {
            "text": "like a different name for it so we had a",
            "start": 407.1,
            "duration": 3.0
        },
        {
            "text": "brainstorming meeting and by",
            "start": 408.96,
            "duration": 2.82
        },
        {
            "text": "brainstorming what we did is we went to",
            "start": 410.1,
            "duration": 3.84
        },
        {
            "text": "the pub across the street ordered",
            "start": 411.78,
            "duration": 4.199
        },
        {
            "text": "several beers and drank for the evening",
            "start": 413.94,
            "duration": 4.74
        },
        {
            "text": "until somebody came up with a name and",
            "start": 415.979,
            "duration": 5.101
        },
        {
            "text": "you know after six hours of drinking and",
            "start": 418.68,
            "duration": 4.44
        },
        {
            "text": "all that we actually came up with the",
            "start": 421.08,
            "duration": 6.119
        },
        {
            "text": "name Falcor spell with a K that's not a",
            "start": 423.12,
            "duration": 6.84
        },
        {
            "text": "joke that legitimately happened and then",
            "start": 427.199,
            "duration": 4.801
        },
        {
            "text": "that became this whole like era of",
            "start": 429.96,
            "duration": 3.72
        },
        {
            "text": "Netflix which was there's Falcor with",
            "start": 432.0,
            "duration": 4.259
        },
        {
            "text": "the c then there was Falcon with a K and",
            "start": 433.68,
            "duration": 4.739
        },
        {
            "text": "then there's Falcon with a c again and",
            "start": 436.259,
            "duration": 4.141
        },
        {
            "text": "there's like this this thing that",
            "start": 438.419,
            "duration": 4.141
        },
        {
            "text": "happened we called it middle Falcor okay",
            "start": 440.4,
            "duration": 4.739
        },
        {
            "text": "middle Falcor was such a train wreck but",
            "start": 442.56,
            "duration": 5.4
        },
        {
            "text": "Falcor with the K so beautiful uh and",
            "start": 445.139,
            "duration": 4.981
        },
        {
            "text": "then after all of that here's the best",
            "start": 447.96,
            "duration": 4.44
        },
        {
            "text": "part of the whole situation",
            "start": 450.12,
            "duration": 3.9
        },
        {
            "text": "um during that evening you know what I",
            "start": 452.4,
            "duration": 3.48
        },
        {
            "text": "wanted to call it okay this was during",
            "start": 454.02,
            "duration": 3.899
        },
        {
            "text": "the height of House of Cards so House of",
            "start": 455.88,
            "duration": 3.78
        },
        {
            "text": "Cards season one was out at this point",
            "start": 457.919,
            "duration": 4.62
        },
        {
            "text": "okay so people loved House of Cards",
            "start": 459.66,
            "duration": 5.4
        },
        {
            "text": "Right House of Cards was an amazing show",
            "start": 462.539,
            "duration": 5.821
        },
        {
            "text": "season one it was super cool and I",
            "start": 465.06,
            "duration": 5.4
        },
        {
            "text": "wanted to call it Stamper I thought",
            "start": 468.36,
            "duration": 5.04
        },
        {
            "text": "Stamper was a great name",
            "start": 470.46,
            "duration": 5.28
        },
        {
            "text": "for a project",
            "start": 473.4,
            "duration": 4.5
        },
        {
            "text": "that was my goal was to call it Stamper",
            "start": 475.74,
            "duration": 4.44
        },
        {
            "text": "I didn't get it I didn't get it we",
            "start": 477.9,
            "duration": 4.44
        },
        {
            "text": "called it Falcor with a k",
            "start": 480.18,
            "duration": 4.62
        },
        {
            "text": "Stamper yeah dude Stamper was a great",
            "start": 482.34,
            "duration": 4.32
        },
        {
            "text": "one Stamper was like my favorite",
            "start": 484.8,
            "duration": 3.839
        },
        {
            "text": "character can we all agree that in that",
            "start": 486.66,
            "duration": 3.84
        },
        {
            "text": "show Stamper was the best",
            "start": 488.639,
            "duration": 4.741
        },
        {
            "text": "if alcoholic I love Stamper everybody",
            "start": 490.5,
            "duration": 5.22
        },
        {
            "text": "loves Stamper Java is an island yes it",
            "start": 493.38,
            "duration": 5.099
        },
        {
            "text": "is Douglas Stamper yeah it is an OG he",
            "start": 495.72,
            "duration": 3.84
        },
        {
            "text": "is",
            "start": 498.479,
            "duration": 3.481
        },
        {
            "text": "get stuck exactly that was that was",
            "start": 499.56,
            "duration": 4.259
        },
        {
            "text": "literally my tagline",
            "start": 501.96,
            "duration": 3.6
        },
        {
            "text": "that was my tagline they're like why",
            "start": 503.819,
            "duration": 3.66
        },
        {
            "text": "Stamper I'm like it gets done",
            "start": 505.56,
            "duration": 4.319
        },
        {
            "text": "everybody else is talking",
            "start": 507.479,
            "duration": 5.641
        },
        {
            "text": "Stamper does the work right that was my",
            "start": 509.879,
            "duration": 5.16
        },
        {
            "text": "whole point I thought it was a great",
            "start": 513.12,
            "duration": 3.839
        },
        {
            "text": "name should have called it Indonesia",
            "start": 515.039,
            "duration": 4.081
        },
        {
            "text": "well anyways okay there's my naming",
            "start": 516.959,
            "duration": 3.901
        },
        {
            "text": "story I think everybody has a naming",
            "start": 519.12,
            "duration": 3.539
        },
        {
            "text": "story if you've ever worked in open",
            "start": 520.86,
            "duration": 3.78
        },
        {
            "text": "source you have a naming sort a story",
            "start": 522.659,
            "duration": 3.481
        },
        {
            "text": "and it's a lot of fun it's honestly",
            "start": 524.64,
            "duration": 4.5
        },
        {
            "text": "really fun uh",
            "start": 526.14,
            "duration": 5.04
        },
        {
            "text": "it's just a lot of fun to do uh the",
            "start": 529.14,
            "duration": 3.72
        },
        {
            "text": "meeting arranged by Kim police was",
            "start": 531.18,
            "duration": 3.719
        },
        {
            "text": "fundamentally continuous a continuous",
            "start": 532.86,
            "duration": 4.26
        },
        {
            "text": "wild craziness lots of people just",
            "start": 534.899,
            "duration": 5.94
        },
        {
            "text": "yelled out words this is such a 90s",
            "start": 537.12,
            "duration": 6.6
        },
        {
            "text": "brainstorming meeting we're gonna write",
            "start": 540.839,
            "duration": 4.921
        },
        {
            "text": "inspiration on the board and people are",
            "start": 543.72,
            "duration": 5.239
        },
        {
            "text": "gonna just scream out",
            "start": 545.76,
            "duration": 3.199
        },
        {
            "text": "who yelled",
            "start": 549.12,
            "duration": 3.779
        },
        {
            "text": "at first is unknoble and unimportant it",
            "start": 550.8,
            "duration": 3.539
        },
        {
            "text": "felt like half the words in the",
            "start": 552.899,
            "duration": 3.06
        },
        {
            "text": "dictionary were yelled out at one time",
            "start": 554.339,
            "duration": 3.541
        },
        {
            "text": "or another there was a lot of I like",
            "start": 555.959,
            "duration": 3.661
        },
        {
            "text": "this because and I don't like that",
            "start": 557.88,
            "duration": 3.72
        },
        {
            "text": "because and at the end we a whittled it",
            "start": 559.62,
            "duration": 3.839
        },
        {
            "text": "to a list of about a dozen names and",
            "start": 561.6,
            "duration": 3.96
        },
        {
            "text": "handed it off to the lawyers",
            "start": 563.459,
            "duration": 4.861
        },
        {
            "text": "gosh what a great story we were really",
            "start": 565.56,
            "duration": 5.1
        },
        {
            "text": "disgusted uh and tired from all the",
            "start": 568.32,
            "duration": 4.019
        },
        {
            "text": "marathon hacking we've been doing at the",
            "start": 570.66,
            "duration": 3.299
        },
        {
            "text": "time and we we still hadn't found a name",
            "start": 572.339,
            "duration": 4.261
        },
        {
            "text": "that we could use said Timothy Lindholm",
            "start": 573.959,
            "duration": 4.261
        },
        {
            "text": "an engineer on the project we were",
            "start": 576.6,
            "duration": 3.419
        },
        {
            "text": "pressed for time as adopting a new name",
            "start": 578.22,
            "duration": 4.5
        },
        {
            "text": "meant a lot of work and had a re and had",
            "start": 580.019,
            "duration": 4.801
        },
        {
            "text": "releases coming up so we set up a",
            "start": 582.72,
            "duration": 4.08
        },
        {
            "text": "meeting to thrash out a list of names I",
            "start": 584.82,
            "duration": 3.3
        },
        {
            "text": "do not remember there being a particular",
            "start": 586.8,
            "duration": 2.94
        },
        {
            "text": "champion of java among the people from",
            "start": 588.12,
            "duration": 2.88
        },
        {
            "text": "the original group that I've talked",
            "start": 589.74,
            "duration": 4.38
        },
        {
            "text": "about uh talked to about this most deny",
            "start": 591.0,
            "duration": 5.459
        },
        {
            "text": "any memory of java being anything but",
            "start": 594.12,
            "duration": 4.02
        },
        {
            "text": "something that bubbled out of the group",
            "start": 596.459,
            "duration": 4.081
        },
        {
            "text": "dynamic I believe the name was first",
            "start": 598.14,
            "duration": 5.22
        },
        {
            "text": "suggested by Chris Warth said Arthur",
            "start": 600.54,
            "duration": 5.64
        },
        {
            "text": "Vanhoff then senior engineer nobody",
            "start": 603.36,
            "duration": 4.38
        },
        {
            "text": "knows who said this this is actually",
            "start": 606.18,
            "duration": 4.38
        },
        {
            "text": "this is incredible by the way this is a",
            "start": 607.74,
            "duration": 5.7
        },
        {
            "text": "great great story we had been in the",
            "start": 610.56,
            "duration": 4.62
        },
        {
            "text": "meeting for hours and while he was",
            "start": 613.44,
            "duration": 5.1
        },
        {
            "text": "drinking a cup of Pete's Java oh Pete's",
            "start": 615.18,
            "duration": 4.86
        },
        {
            "text": "Coffee was known as Pete's Java back",
            "start": 618.54,
            "duration": 3.66
        },
        {
            "text": "then he picked up Java as an example of",
            "start": 620.04,
            "duration": 3.72
        },
        {
            "text": "yet another name that would never work",
            "start": 622.2,
            "duration": 3.54
        },
        {
            "text": "the initial reaction was mixed I I",
            "start": 623.76,
            "duration": 3.6
        },
        {
            "text": "believe the final candidates were silk",
            "start": 625.74,
            "duration": 4.82
        },
        {
            "text": "DNA and Java however",
            "start": 627.36,
            "duration": 3.2
        },
        {
            "text": "picked it up that's not good that's not",
            "start": 630.839,
            "duration": 6.541
        },
        {
            "text": "gonna work oh that's different P oh yeah",
            "start": 633.48,
            "duration": 6.26
        },
        {
            "text": "hey",
            "start": 637.38,
            "duration": 2.36
        },
        {
            "text": "dude oh my goodness this is so good",
            "start": 640.5,
            "duration": 8.06
        },
        {
            "text": "picked up Java that's never gonna stick",
            "start": 643.5,
            "duration": 5.06
        },
        {
            "text": "that is such a good story yeah we looked",
            "start": 652.459,
            "duration": 5.201
        },
        {
            "text": "at Java we thought there's no way that's",
            "start": 656.04,
            "duration": 3.539
        },
        {
            "text": "ever gonna work out anyways it worked",
            "start": 657.66,
            "duration": 4.32
        },
        {
            "text": "out came over there thought Java meant",
            "start": 659.579,
            "duration": 5.221
        },
        {
            "text": "like cool and refreshing and hip and new",
            "start": 661.98,
            "duration": 4.979
        },
        {
            "text": "and so we figured we wanted to be that",
            "start": 664.8,
            "duration": 4.32
        },
        {
            "text": "as a language and today we feel very",
            "start": 666.959,
            "duration": 4.081
        },
        {
            "text": "cool hip and new Java everybody loves",
            "start": 669.12,
            "duration": 7.08
        },
        {
            "text": "Java right uh I suggested lingua Java",
            "start": 671.04,
            "duration": 7.62
        },
        {
            "text": "but that didn't make it really",
            "start": 676.2,
            "duration": 4.86
        },
        {
            "text": "really we could not trademark the other",
            "start": 678.66,
            "duration": 4.02
        },
        {
            "text": "name so Java ended up being the name of",
            "start": 681.06,
            "duration": 2.82
        },
        {
            "text": "choice and in the end the marketing",
            "start": 682.68,
            "duration": 3.06
        },
        {
            "text": "person Kim please finally decided to go",
            "start": 683.88,
            "duration": 4.199
        },
        {
            "text": "ahead with it holiday landed on coffee I",
            "start": 685.74,
            "duration": 4.2
        },
        {
            "text": "test marketed the name on at parties and",
            "start": 688.079,
            "duration": 3.421
        },
        {
            "text": "on my friends and family members police",
            "start": 689.94,
            "duration": 3.24
        },
        {
            "text": "were called and Java got the most",
            "start": 691.5,
            "duration": 2.88
        },
        {
            "text": "positive reactions from all the",
            "start": 693.18,
            "duration": 3.0
        },
        {
            "text": "candidates oh nice okay qualitative",
            "start": 694.38,
            "duration": 3.78
        },
        {
            "text": "study let's go qualitative marketing is",
            "start": 696.18,
            "duration": 4.94
        },
        {
            "text": "a very good thing to do",
            "start": 698.16,
            "duration": 2.96
        },
        {
            "text": "I think it's really good because it",
            "start": 701.519,
            "duration": 3.541
        },
        {
            "text": "wasn't certain that we would like think",
            "start": 703.56,
            "duration": 4.08
        },
        {
            "text": "of react when react first started",
            "start": 705.06,
            "duration": 5.1
        },
        {
            "text": "like really think about it what was it",
            "start": 707.64,
            "duration": 6.86
        },
        {
            "text": "considered reactive in any sort of sense",
            "start": 710.16,
            "duration": 4.34
        },
        {
            "text": "sort of",
            "start": 714.54,
            "duration": 3.72
        },
        {
            "text": "you know it wasn't I mean it didn't have",
            "start": 716.279,
            "duration": 5.041
        },
        {
            "text": "any like reactive fundamentals but it",
            "start": 718.26,
            "duration": 6.78
        },
        {
            "text": "sticks it's a very sticky name right",
            "start": 721.32,
            "duration": 5.759
        },
        {
            "text": "it's a very",
            "start": 725.04,
            "duration": 4.32
        },
        {
            "text": "it has a good name to it you know you",
            "start": 727.079,
            "duration": 3.601
        },
        {
            "text": "got you gotta appreciate a good name",
            "start": 729.36,
            "duration": 2.88
        },
        {
            "text": "that sticks in your head but it wasn't",
            "start": 730.68,
            "duration": 3.5
        },
        {
            "text": "like angular",
            "start": 732.24,
            "duration": 5.58
        },
        {
            "text": "angular like angular right like that did",
            "start": 734.18,
            "duration": 5.74
        },
        {
            "text": "not take off nearly the same as a react",
            "start": 737.82,
            "duration": 4.259
        },
        {
            "text": "because react is such a exciting",
            "start": 739.92,
            "duration": 5.7
        },
        {
            "text": "programming term you know what I mean",
            "start": 742.079,
            "duration": 5.161
        },
        {
            "text": "it's so sticky you can't even get rid of",
            "start": 745.62,
            "duration": 3.42
        },
        {
            "text": "it angular is the exactly angular is",
            "start": 747.24,
            "duration": 2.82
        },
        {
            "text": "such a like",
            "start": 749.04,
            "duration": 2.76
        },
        {
            "text": "you know and the worst part is is that",
            "start": 750.06,
            "duration": 4.019
        },
        {
            "text": "they didn't even go with a little Omega",
            "start": 751.8,
            "duration": 5.219
        },
        {
            "text": "their their logo their logo uh their",
            "start": 754.079,
            "duration": 5.061
        },
        {
            "text": "logo should have been uh angular",
            "start": 757.019,
            "duration": 5.101
        },
        {
            "text": "momentum like if you're gonna go full",
            "start": 759.14,
            "duration": 5.139
        },
        {
            "text": "dumb you should have at least gone with",
            "start": 762.12,
            "duration": 3.48
        },
        {
            "text": "the little W where's the little double",
            "start": 764.279,
            "duration": 3.24
        },
        {
            "text": "where's the Little W right isn't that",
            "start": 765.6,
            "duration": 3.84
        },
        {
            "text": "angular momentum",
            "start": 767.519,
            "duration": 3.841
        },
        {
            "text": "am I completely wrong here am I the dumb",
            "start": 769.44,
            "duration": 3.72
        },
        {
            "text": "one I thought it was a little Omega",
            "start": 771.36,
            "duration": 4.14
        },
        {
            "text": "you're right yeah yeah I'm the idiot uh",
            "start": 773.16,
            "duration": 4.2
        },
        {
            "text": "it's it's Sigma I'm I don't think it's",
            "start": 775.5,
            "duration": 4.399
        },
        {
            "text": "Sigma dog",
            "start": 777.36,
            "duration": 2.539
        },
        {
            "text": "angular velocity ah crap I see I'm too",
            "start": 780.54,
            "duration": 5.46
        },
        {
            "text": "stupid",
            "start": 783.839,
            "duration": 3.921
        },
        {
            "text": "it's angular",
            "start": 786.0,
            "duration": 3.56
        },
        {
            "text": "angular",
            "start": 787.76,
            "duration": 4.48
        },
        {
            "text": "angular okay this is this is what your",
            "start": 789.56,
            "duration": 4.18
        },
        {
            "text": "brain looks like after",
            "start": 792.24,
            "duration": 3.659
        },
        {
            "text": "15 years of not doing College okay there",
            "start": 793.74,
            "duration": 3.599
        },
        {
            "text": "you go it is okay so it's angular",
            "start": 795.899,
            "duration": 3.721
        },
        {
            "text": "velocity angular velocity gets the Omega",
            "start": 797.339,
            "duration": 4.861
        },
        {
            "text": "you should have dropped the Omega right",
            "start": 799.62,
            "duration": 5.339
        },
        {
            "text": "yeah yeah small Omega I knew a small",
            "start": 802.2,
            "duration": 8.0
        },
        {
            "text": "Omega LK 99 is it a little Omega",
            "start": 804.959,
            "duration": 5.241
        },
        {
            "text": "you can't",
            "start": 811.8,
            "duration": 3.839
        },
        {
            "text": "you can't just come in here with the",
            "start": 813.12,
            "duration": 4.26
        },
        {
            "text": "name little Omega while I'm saying it",
            "start": 815.639,
            "duration": 4.081
        },
        {
            "text": "drop LK 99 it's just not even allowed",
            "start": 817.38,
            "duration": 4.62
        },
        {
            "text": "because I wasn't let's see because it",
            "start": 819.72,
            "duration": 3.78
        },
        {
            "text": "wasn't certain that we would get any of",
            "start": 822.0,
            "duration": 3.0
        },
        {
            "text": "the names cleared through trademark I",
            "start": 823.5,
            "duration": 3.42
        },
        {
            "text": "selected about three or four and worked",
            "start": 825.0,
            "duration": 3.66
        },
        {
            "text": "with the lawyers on clearing them Java",
            "start": 826.92,
            "duration": 3.659
        },
        {
            "text": "passed and it was my favorite so I named",
            "start": 828.66,
            "duration": 3.359
        },
        {
            "text": "the language Java and subsequently named",
            "start": 830.579,
            "duration": 3.961
        },
        {
            "text": "the browser hot Java uh that's a Bad",
            "start": 832.019,
            "duration": 4.801
        },
        {
            "text": "Name by the way hot Java as much better",
            "start": 834.54,
            "duration": 4.62
        },
        {
            "text": "name than Web Runner these Engineers had",
            "start": 836.82,
            "duration": 4.38
        },
        {
            "text": "a hard time parting with uh Oak but they",
            "start": 839.16,
            "duration": 3.66
        },
        {
            "text": "finally got used to it I felt that",
            "start": 841.2,
            "duration": 3.84
        },
        {
            "text": "branding was very important because I",
            "start": 842.82,
            "duration": 3.72
        },
        {
            "text": "wanted Java to be a standard so I",
            "start": 845.04,
            "duration": 3.0
        },
        {
            "text": "focused on building a very strong brand",
            "start": 846.54,
            "duration": 4.68
        },
        {
            "text": "for Java someone say she kind of dark",
            "start": 848.04,
            "duration": 5.76
        },
        {
            "text": "roasted that Java uh Yellen recalled a",
            "start": 851.22,
            "duration": 4.14
        },
        {
            "text": "final meeting to vote the name every",
            "start": 853.8,
            "duration": 4.38
        },
        {
            "text": "person got to rank Java DNA and silk in",
            "start": 855.36,
            "duration": 4.62
        },
        {
            "text": "order of their preference gosh if only",
            "start": 858.18,
            "duration": 5.82
        },
        {
            "text": "the if only you know that Society if",
            "start": 859.98,
            "duration": 8.9
        },
        {
            "text": "meme if if we would have named Java silk",
            "start": 864.0,
            "duration": 4.88
        },
        {
            "text": "think of it",
            "start": 869.7,
            "duration": 5.16
        },
        {
            "text": "think think of society today",
            "start": 871.139,
            "duration": 5.461
        },
        {
            "text": "um the same name uh got the most",
            "start": 874.86,
            "duration": 3.96
        },
        {
            "text": "favorite votes uh also got the most",
            "start": 876.6,
            "duration": 4.26
        },
        {
            "text": "least favorite votes so it was dropped",
            "start": 878.82,
            "duration": 4.199
        },
        {
            "text": "and the remaining two Java got the most",
            "start": 880.86,
            "duration": 4.02
        },
        {
            "text": "votes come on what was the other one it",
            "start": 883.019,
            "duration": 4.201
        },
        {
            "text": "came down to Silk or Java and Java went",
            "start": 884.88,
            "duration": 3.84
        },
        {
            "text": "out damn",
            "start": 887.22,
            "duration": 4.979
        },
        {
            "text": "think about how close that is",
            "start": 888.72,
            "duration": 7.76
        },
        {
            "text": "think about how close we got",
            "start": 892.199,
            "duration": 4.281
        },
        {
            "text": "Ryan Gosling seemed to favor Java over",
            "start": 897.779,
            "duration": 4.381
        },
        {
            "text": "silk Kim police had the final say over",
            "start": 900.12,
            "duration": 3.36
        },
        {
            "text": "the name since she was the product",
            "start": 902.16,
            "duration": 3.0
        },
        {
            "text": "manager but most decisions back then",
            "start": 903.48,
            "duration": 3.299
        },
        {
            "text": "were done by everyone kind of agreeing",
            "start": 905.16,
            "duration": 4.02
        },
        {
            "text": "and then someone would say okay uh this",
            "start": 906.779,
            "duration": 5.101
        },
        {
            "text": "is what we're doing Eric Schmid uh then",
            "start": 909.18,
            "duration": 4.38
        },
        {
            "text": "Sun's Chief technology officer said he",
            "start": 911.88,
            "duration": 3.12
        },
        {
            "text": "was certain about the origin of the name",
            "start": 913.56,
            "duration": 4.32
        },
        {
            "text": "oh really we met in early 1995 at 100",
            "start": 915.0,
            "duration": 4.98
        },
        {
            "text": "Hamilton wow dude",
            "start": 917.88,
            "duration": 3.959
        },
        {
            "text": "I'm actually positive about it we",
            "start": 919.98,
            "duration": 3.84
        },
        {
            "text": "actually met at this address location at",
            "start": 921.839,
            "duration": 3.961
        },
        {
            "text": "this time of the day uh in one of our",
            "start": 923.82,
            "duration": 3.72
        },
        {
            "text": "standard operating reviews uh for a",
            "start": 925.8,
            "duration": 3.839
        },
        {
            "text": "little businesses like Oak uh Bert",
            "start": 927.54,
            "duration": 3.9
        },
        {
            "text": "Sutherland was a senior manager at the",
            "start": 929.639,
            "duration": 4.2
        },
        {
            "text": "time he worked for me and he and Kim and",
            "start": 931.44,
            "duration": 4.56
        },
        {
            "text": "a few others including James uh Gosling",
            "start": 933.839,
            "duration": 5.101
        },
        {
            "text": "uh were there Kim presented that one we",
            "start": 936.0,
            "duration": 5.82
        },
        {
            "text": "had to choose a new name now and two Oak",
            "start": 938.94,
            "duration": 5.399
        },
        {
            "text": "which uh which we were all used to was",
            "start": 941.82,
            "duration": 4.379
        },
        {
            "text": "taken as I recall she proposed two names",
            "start": 944.339,
            "duration": 4.381
        },
        {
            "text": "Java and silk one of the two she",
            "start": 946.199,
            "duration": 5.101
        },
        {
            "text": "strongly preferred Java and represented",
            "start": 948.72,
            "duration": 4.799
        },
        {
            "text": "that the that live oak team was in",
            "start": 951.3,
            "duration": 4.14
        },
        {
            "text": "agreement Bert and I decided to approve",
            "start": 953.519,
            "duration": 3.721
        },
        {
            "text": "her recommendation and the decision was",
            "start": 955.44,
            "duration": 3.54
        },
        {
            "text": "made for those reasons I believe it is",
            "start": 957.24,
            "duration": 3.36
        },
        {
            "text": "correct to give Kim the credit for the",
            "start": 958.98,
            "duration": 4.26
        },
        {
            "text": "name she presented it and sold it and",
            "start": 960.6,
            "duration": 6.739
        },
        {
            "text": "then made it happen in in marketing",
            "start": 963.24,
            "duration": 4.099
        },
        {
            "text": "but I do see let's see but I do seem to",
            "start": 968.04,
            "duration": 4.26
        },
        {
            "text": "recall that Kim was initially lukewarm",
            "start": 970.68,
            "duration": 4.68
        },
        {
            "text": "to the name Java uh Chris Chris Warth",
            "start": 972.3,
            "duration": 5.7
        },
        {
            "text": "not happy about this Chris Wharf is not",
            "start": 975.36,
            "duration": 3.9
        },
        {
            "text": "happy at the time we were also trying to",
            "start": 978.0,
            "duration": 3.06
        },
        {
            "text": "rename our brother to Web Runner which",
            "start": 979.26,
            "duration": 3.74
        },
        {
            "text": "uh which had already been taken by",
            "start": 981.06,
            "duration": 4.56
        },
        {
            "text": "talagant talent and something that",
            "start": 983.0,
            "duration": 4.54
        },
        {
            "text": "wasn't already trademarked Kim one of",
            "start": 985.62,
            "duration": 4.74
        },
        {
            "text": "the uh things like web spinner or even",
            "start": 987.54,
            "duration": 5.22
        },
        {
            "text": "web dancer is that a reference to a",
            "start": 990.36,
            "duration": 4.44
        },
        {
            "text": "spider uh something that would make it",
            "start": 992.76,
            "duration": 4.499
        },
        {
            "text": "clear that it was the world wide web",
            "start": 994.8,
            "duration": 5.039
        },
        {
            "text": "product the trademark search was done",
            "start": 997.259,
            "duration": 5.221
        },
        {
            "text": "and after several weeks a short list uh",
            "start": 999.839,
            "duration": 4.62
        },
        {
            "text": "of cleared names came back there seemed",
            "start": 1002.48,
            "duration": 3.599
        },
        {
            "text": "to be an endless series of meetings and",
            "start": 1004.459,
            "duration": 4.74
        },
        {
            "text": "approvals that were necessary this is so",
            "start": 1006.079,
            "duration": 6.0
        },
        {
            "text": "good imagine how much money was spent on",
            "start": 1009.199,
            "duration": 5.101
        },
        {
            "text": "naming Java and then its subsequent",
            "start": 1012.079,
            "duration": 4.141
        },
        {
            "text": "completely forgotten never heard of",
            "start": 1014.3,
            "duration": 4.74
        },
        {
            "text": "browser called hot Java this is so good",
            "start": 1016.22,
            "duration": 4.799
        },
        {
            "text": "Kim wanted us to hold up the release so",
            "start": 1019.04,
            "duration": 3.539
        },
        {
            "text": "we could find a better name than Java",
            "start": 1021.019,
            "duration": 2.88
        },
        {
            "text": "but she was overruled by Engineers",
            "start": 1022.579,
            "duration": 4.98
        },
        {
            "text": "especially James and art oh wow oh whoa",
            "start": 1023.899,
            "duration": 5.701
        },
        {
            "text": "we got some contrary evidence here Kim",
            "start": 1027.559,
            "duration": 3.981
        },
        {
            "text": "taking all the credit but you know what",
            "start": 1029.6,
            "duration": 4.92
        },
        {
            "text": "James Warren to say",
            "start": 1031.54,
            "duration": 5.5
        },
        {
            "text": "I don't think so at one point James said",
            "start": 1034.52,
            "duration": 4.559
        },
        {
            "text": "we're going to go with Java and hot Java",
            "start": 1037.04,
            "duration": 3.96
        },
        {
            "text": "and Kim sent some emails asking us to",
            "start": 1039.079,
            "duration": 3.36
        },
        {
            "text": "wait for other names that might clear",
            "start": 1041.0,
            "duration": 4.199
        },
        {
            "text": "James wrote back and said no",
            "start": 1042.439,
            "duration": 4.74
        },
        {
            "text": "we're going to go with what we had and",
            "start": 1045.199,
            "duration": 4.141
        },
        {
            "text": "we did we just did a very quick set of",
            "start": 1047.179,
            "duration": 3.661
        },
        {
            "text": "renames in the source code and put the",
            "start": 1049.34,
            "duration": 3.18
        },
        {
            "text": "release out in the end I think the",
            "start": 1050.84,
            "duration": 3.48
        },
        {
            "text": "marketers and vice president had far",
            "start": 1052.52,
            "duration": 3.539
        },
        {
            "text": "less to say about the name than the",
            "start": 1054.32,
            "duration": 3.06
        },
        {
            "text": "engineers who were dying to get",
            "start": 1056.059,
            "duration": 4.101
        },
        {
            "text": "something out the door",
            "start": 1057.38,
            "duration": 5.96
        },
        {
            "text": "gigachad move",
            "start": 1060.16,
            "duration": 3.18
        },
        {
            "text": "I think Kim is rewriting history a bit",
            "start": 1063.919,
            "duration": 5.041
        },
        {
            "text": "when she says suggests that she picked",
            "start": 1066.44,
            "duration": 4.68
        },
        {
            "text": "this name for some Savvy marketing",
            "start": 1068.96,
            "duration": 5.76
        },
        {
            "text": "reason worth added oh the Steepy hot",
            "start": 1071.12,
            "duration": 6.6
        },
        {
            "text": "drama here we ended up with this a name",
            "start": 1074.72,
            "duration": 4.8
        },
        {
            "text": "because we ran out of options and we",
            "start": 1077.72,
            "duration": 3.48
        },
        {
            "text": "wanted to get our product out the",
            "start": 1079.52,
            "duration": 5.3
        },
        {
            "text": "marketing justifications came later",
            "start": 1081.2,
            "duration": 7.92
        },
        {
            "text": "Savage silk drama boys we got that Silk",
            "start": 1084.82,
            "duration": 6.7
        },
        {
            "text": "sheet satin goodness drama going right",
            "start": 1089.12,
            "duration": 5.82
        },
        {
            "text": "now Sleepless in Palo Alto I don't claim",
            "start": 1091.52,
            "duration": 4.62
        },
        {
            "text": "to be the one who first suggests the",
            "start": 1094.94,
            "duration": 3.18
        },
        {
            "text": "name said worth when a question about",
            "start": 1096.14,
            "duration": 4.56
        },
        {
            "text": "van Hoff statement it definitely was",
            "start": 1098.12,
            "duration": 4.679
        },
        {
            "text": "Pete's Java we were drinking but it",
            "start": 1100.7,
            "duration": 4.08
        },
        {
            "text": "might have been me or James or someone",
            "start": 1102.799,
            "duration": 4.321
        },
        {
            "text": "else I just don't recall exactly who",
            "start": 1104.78,
            "duration": 3.779
        },
        {
            "text": "said it but it definitely wasn't Kim",
            "start": 1107.12,
            "duration": 4.439
        },
        {
            "text": "that son of a not camp",
            "start": 1108.559,
            "duration": 5.341
        },
        {
            "text": "the feeling the feeling among myself and",
            "start": 1111.559,
            "duration": 4.021
        },
        {
            "text": "James and the other Engineers was that",
            "start": 1113.9,
            "duration": 4.159
        },
        {
            "text": "we called it",
            "start": 1115.58,
            "duration": 5.94
        },
        {
            "text": "and it would be popular worth added in",
            "start": 1118.059,
            "duration": 4.961
        },
        {
            "text": "the end it doesn't matter who originally",
            "start": 1121.52,
            "duration": 2.7
        },
        {
            "text": "suggests the name because it was",
            "start": 1123.02,
            "duration": 3.48
        },
        {
            "text": "ultimately a group decision perhaps uh",
            "start": 1124.22,
            "duration": 4.319
        },
        {
            "text": "helped Along by a handful of caffeinated",
            "start": 1126.5,
            "duration": 4.38
        },
        {
            "text": "people Timothy Linden the engineer",
            "start": 1128.539,
            "duration": 4.941
        },
        {
            "text": "concluded",
            "start": 1130.88,
            "duration": 2.6
        },
        {
            "text": "all my homies hate him dude first Kim",
            "start": 1133.88,
            "duration": 5.1
        },
        {
            "text": "starts out as the hero in this story now",
            "start": 1136.52,
            "duration": 4.26
        },
        {
            "text": "I'm over here like I don't think I like",
            "start": 1138.98,
            "duration": 4.86
        },
        {
            "text": "him Kim has been take credit for Java",
            "start": 1140.78,
            "duration": 4.74
        },
        {
            "text": "which she shouldn't have I think the",
            "start": 1143.84,
            "duration": 3.36
        },
        {
            "text": "extent to which the people involved have",
            "start": 1145.52,
            "duration": 3.18
        },
        {
            "text": "considered the history of Java's name",
            "start": 1147.2,
            "duration": 3.42
        },
        {
            "text": "without arriving at any general agreed",
            "start": 1148.7,
            "duration": 3.479
        },
        {
            "text": "upon resolution shows that the naming of",
            "start": 1150.62,
            "duration": 3.299
        },
        {
            "text": "Jabba was not done by some heroic",
            "start": 1152.179,
            "duration": 3.601
        },
        {
            "text": "individual but by a byproduct of a",
            "start": 1153.919,
            "duration": 3.541
        },
        {
            "text": "creative and driven group trying very",
            "start": 1155.78,
            "duration": 3.72
        },
        {
            "text": "hard to achieve their goals of which",
            "start": 1157.46,
            "duration": 3.66
        },
        {
            "text": "this name was part",
            "start": 1159.5,
            "duration": 3.66
        },
        {
            "text": "okay reasonable I would encourage you",
            "start": 1161.12,
            "duration": 3.96
        },
        {
            "text": "not to strive beyond what is reasonable",
            "start": 1163.16,
            "duration": 4.08
        },
        {
            "text": "in ascribing the naming of java to an",
            "start": 1165.08,
            "duration": 3.839
        },
        {
            "text": "individual that is simply not the way",
            "start": 1167.24,
            "duration": 3.179
        },
        {
            "text": "things worked in those days don't be",
            "start": 1168.919,
            "duration": 3.181
        },
        {
            "text": "fooled by how individuals and the media",
            "start": 1170.419,
            "duration": 5.821
        },
        {
            "text": "have dude it's the media the media man",
            "start": 1172.1,
            "duration": 7.04
        },
        {
            "text": "the media",
            "start": 1176.24,
            "duration": 2.9
        },
        {
            "text": "damn it",
            "start": 1179.419,
            "duration": 4.021
        },
        {
            "text": "you know what they're doing I wish I",
            "start": 1181.34,
            "duration": 4.079
        },
        {
            "text": "could do a good Alex Jones I can't don't",
            "start": 1183.44,
            "duration": 3.9
        },
        {
            "text": "be fooled by the individuals in the",
            "start": 1185.419,
            "duration": 4.5
        },
        {
            "text": "media uh and subsequently filtered many",
            "start": 1187.34,
            "duration": 5.04
        },
        {
            "text": "elements of Java's creation to fit their",
            "start": 1189.919,
            "duration": 4.921
        },
        {
            "text": "own ends you know the media trying to",
            "start": 1192.38,
            "duration": 4.62
        },
        {
            "text": "fit their own ends about the creation of",
            "start": 1194.84,
            "duration": 4.68
        },
        {
            "text": "java everybody knows that you know why",
            "start": 1197.0,
            "duration": 5.039
        },
        {
            "text": "it's because they had Java world 1996.",
            "start": 1199.52,
            "duration": 5.82
        },
        {
            "text": "it was an Infowars 2022. see Alex Jones",
            "start": 1202.039,
            "duration": 6.421
        },
        {
            "text": "has been behind us this whole time damn",
            "start": 1205.34,
            "duration": 5.28
        },
        {
            "text": "seven reasons why Java's still great I",
            "start": 1208.46,
            "duration": 3.66
        },
        {
            "text": "actually want to read that because I",
            "start": 1210.62,
            "duration": 4.04
        },
        {
            "text": "just don't believe",
            "start": 1212.12,
            "duration": 2.54
        },
        {
            "text": "truly a society Kim is the media your",
            "start": 1215.72,
            "duration": 4.699
        },
        {
            "text": "beard sucks",
            "start": 1219.2,
            "duration": 5.28
        },
        {
            "text": "whoa hey hey",
            "start": 1220.419,
            "duration": 6.701
        },
        {
            "text": "my Razor broke and my wife buys me",
            "start": 1224.48,
            "duration": 4.74
        },
        {
            "text": "everything from my shirts to my my",
            "start": 1227.12,
            "duration": 4.679
        },
        {
            "text": "hoodie and she hasn't bought me a razor",
            "start": 1229.22,
            "duration": 5.52
        },
        {
            "text": "this is not made up and so I just",
            "start": 1231.799,
            "duration": 5.961
        },
        {
            "text": "haven't shaved",
            "start": 1234.74,
            "duration": 3.02
        }
    ],
    "stats": {
        "viewCount": "51534",
        "likeCount": "1410",
        "favoriteCount": "0",
        "commentCount": "234"
    }
}