{
    "id": "ZfG8BSTX0Lw",
    "title": "8 Design Patterns | Prime Reacts",
    "publishedAt": "2023-02-25T14:00:29Z",
    "captions": [
        {
            "text": "I heard you liked factories so I made",
            "start": 0.359,
            "duration": 4.861
        },
        {
            "text": "you a factory inside a factory which",
            "start": 2.94,
            "duration": 4.979
        },
        {
            "text": "inherits from an abstract Factory so it",
            "start": 5.22,
            "duration": 4.919
        },
        {
            "text": "can create new factories but enough",
            "start": 7.919,
            "duration": 5.961
        },
        {
            "text": "about programming in Java",
            "start": 10.139,
            "duration": 3.741
        },
        {
            "text": "you know",
            "start": 14.34,
            "duration": 2.6
        },
        {
            "text": "I mean I at Netflix on The Originals",
            "start": 17.22,
            "duration": 6.0
        },
        {
            "text": "team okay so so in 2017 when Originals",
            "start": 20.22,
            "duration": 7.68
        },
        {
            "text": "were really getting started uh real talk",
            "start": 23.22,
            "duration": 8.459
        },
        {
            "text": "we did have an abstract of",
            "start": 27.9,
            "duration": 6.06
        },
        {
            "text": "we we had an abstract Builder Factory",
            "start": 31.679,
            "duration": 6.321
        },
        {
            "text": "okay it was an abstract Builder",
            "start": 33.96,
            "duration": 8.58
        },
        {
            "text": "factories that would produce images",
            "start": 38.0,
            "duration": 6.7
        },
        {
            "text": "and other assets for all of our new",
            "start": 42.54,
            "duration": 4.08
        },
        {
            "text": "original content so I mean I I did have",
            "start": 44.7,
            "duration": 3.96
        },
        {
            "text": "I did get the full abstract Builder",
            "start": 46.62,
            "duration": 4.2
        },
        {
            "text": "Factory right like I think that's really",
            "start": 48.66,
            "duration": 4.44
        },
        {
            "text": "a winner and I if I'm not mistaken we",
            "start": 50.82,
            "duration": 4.62
        },
        {
            "text": "also had an abstract Factory we also had",
            "start": 53.1,
            "duration": 5.04
        },
        {
            "text": "the abstract Factory we had we had like",
            "start": 55.44,
            "duration": 4.56
        },
        {
            "text": "we had it all we had the Builder config",
            "start": 58.14,
            "duration": 4.14
        },
        {
            "text": "Factory for sure that you'd build up a",
            "start": 60.0,
            "duration": 3.359
        },
        {
            "text": "config",
            "start": 62.28,
            "duration": 4.08
        },
        {
            "text": "and then you'd produce it and it was",
            "start": 63.359,
            "duration": 5.641
        },
        {
            "text": "super complicated and I got most of it",
            "start": 66.36,
            "duration": 4.079
        },
        {
            "text": "down",
            "start": 69.0,
            "duration": 3.24
        },
        {
            "text": "but man those days in Java you know",
            "start": 70.439,
            "duration": 4.981
        },
        {
            "text": "Java's a lot of a lot of a lot a lot of",
            "start": 72.24,
            "duration": 4.8
        },
        {
            "text": "factories you know what I mean you just",
            "start": 75.42,
            "duration": 4.44
        },
        {
            "text": "get up right it's just like if",
            "start": 77.04,
            "duration": 6.0
        },
        {
            "text": "you ever want a good Factory",
            "start": 79.86,
            "duration": 5.46
        },
        {
            "text": "go get it",
            "start": 83.04,
            "duration": 4.439
        },
        {
            "text": "in this video we will learn about eight",
            "start": 85.32,
            "duration": 4.38
        },
        {
            "text": "design patterns every developer should",
            "start": 87.479,
            "duration": 3.901
        },
        {
            "text": "strategy is the only the strategy",
            "start": 89.7,
            "duration": 3.9
        },
        {
            "text": "pattern strategy pattern is like the",
            "start": 91.38,
            "duration": 3.419
        },
        {
            "text": "greatest pattern of all time okay",
            "start": 93.6,
            "duration": 3.659
        },
        {
            "text": "everyone uses the strategy pattern uh",
            "start": 94.799,
            "duration": 4.441
        },
        {
            "text": "second off iterator pattern real good",
            "start": 97.259,
            "duration": 6.061
        },
        {
            "text": "no in 1994 the gang of four released the",
            "start": 99.24,
            "duration": 7.26
        },
        {
            "text": "holy book design patterns introducing 23",
            "start": 103.32,
            "duration": 4.86
        },
        {
            "text": "objects by the way if you haven't read",
            "start": 106.5,
            "duration": 2.939
        },
        {
            "text": "this you should even if you don't like",
            "start": 108.18,
            "duration": 5.16
        },
        {
            "text": "oop this this idea of patterns that can",
            "start": 109.439,
            "duration": 5.881
        },
        {
            "text": "exist within software is really amazing",
            "start": 113.34,
            "duration": 4.62
        },
        {
            "text": "and it also works in things like rust",
            "start": 115.32,
            "duration": 4.74
        },
        {
            "text": "there is patterns and rust being able to",
            "start": 117.96,
            "duration": 4.38
        },
        {
            "text": "understand patterns and like abstract",
            "start": 120.06,
            "duration": 4.68
        },
        {
            "text": "them out and reuse a strategy to write",
            "start": 122.34,
            "duration": 4.379
        },
        {
            "text": "software I think is one of the best",
            "start": 124.74,
            "duration": 4.499
        },
        {
            "text": "things you can do because no matter what",
            "start": 126.719,
            "duration": 4.201
        },
        {
            "text": "software you write there are patterns",
            "start": 129.239,
            "duration": 3.241
        },
        {
            "text": "that can make things simpler and make",
            "start": 130.92,
            "duration": 5.22
        },
        {
            "text": "other people get up to speed",
            "start": 132.48,
            "duration": 6.18
        },
        {
            "text": "oriented design patterns falling into",
            "start": 136.14,
            "duration": 5.28
        },
        {
            "text": "one of three buckets creational patterns",
            "start": 138.66,
            "duration": 5.34
        },
        {
            "text": "structural patterns and behavioral",
            "start": 141.42,
            "duration": 4.62
        },
        {
            "text": "patterns while some argue that it's",
            "start": 144.0,
            "duration": 4.319
        },
        {
            "text": "updated the fact that a 30 year old book",
            "start": 146.04,
            "duration": 4.44
        },
        {
            "text": "is still being discussed definitely",
            "start": 148.319,
            "duration": 4.56
        },
        {
            "text": "means something especially in a world",
            "start": 150.48,
            "duration": 4.44
        },
        {
            "text": "where JavaScript Frameworks are going",
            "start": 152.879,
            "duration": 3.661
        },
        {
            "text": "out of stock",
            "start": 154.92,
            "duration": 3.78
        },
        {
            "text": "I just",
            "start": 156.54,
            "duration": 4.44
        },
        {
            "text": "let's just be real here",
            "start": 158.7,
            "duration": 4.08
        },
        {
            "text": "if only",
            "start": 160.98,
            "duration": 4.44
        },
        {
            "text": "if only react was dying okay anyways",
            "start": 162.78,
            "duration": 4.8
        },
        {
            "text": "dial faster than you can say JavaScript",
            "start": 165.42,
            "duration": 4.62
        },
        {
            "text": "was a mistake anyways let's start with",
            "start": 167.58,
            "duration": 4.799
        },
        {
            "text": "our first creational pattern the factory",
            "start": 170.04,
            "duration": 5.1
        },
        {
            "text": "imagine that you want a burger but you",
            "start": 172.379,
            "duration": 3.661
        },
        {
            "text": "don't want to have to worry about",
            "start": 175.14,
            "duration": 3.12
        },
        {
            "text": "getting all the ingredients and putting",
            "start": 176.04,
            "duration": 4.26
        },
        {
            "text": "them together you know this is always",
            "start": 178.26,
            "duration": 5.64
        },
        {
            "text": "how this this pattern is described I",
            "start": 180.3,
            "duration": 5.88
        },
        {
            "text": "always feel like it starts it's verbally",
            "start": 183.9,
            "duration": 4.26
        },
        {
            "text": "so simple but it's always a huge pain in",
            "start": 186.18,
            "duration": 3.96
        },
        {
            "text": "the ass anyways so instead you just",
            "start": 188.16,
            "duration": 4.2
        },
        {
            "text": "order a burger well we can do the same",
            "start": 190.14,
            "duration": 4.86
        },
        {
            "text": "thing with code if it takes a list of",
            "start": 192.36,
            "duration": 5.22
        },
        {
            "text": "ingredients to create a burger we can",
            "start": 195.0,
            "duration": 4.62
        },
        {
            "text": "instead use a factory which will",
            "start": 197.58,
            "duration": 4.379
        },
        {
            "text": "instantiate the burger for us and return",
            "start": 199.62,
            "duration": 4.38
        },
        {
            "text": "it to us whether it's a cheeseburger a",
            "start": 201.959,
            "duration": 3.901
        },
        {
            "text": "deluxe cheeseburger or even a vegan",
            "start": 204.0,
            "duration": 3.78
        },
        {
            "text": "burger all we have to do is tell the",
            "start": 205.86,
            "duration": 3.959
        },
        {
            "text": "factory what kind of burger we want just",
            "start": 207.78,
            "duration": 3.84
        },
        {
            "text": "like you would do at a restaurant but be",
            "start": 209.819,
            "duration": 3.241
        },
        {
            "text": "careful because this way you'll never",
            "start": 211.62,
            "duration": 4.199
        },
        {
            "text": "again you know this always is I mean",
            "start": 213.06,
            "duration": 4.2
        },
        {
            "text": "like when you look at this for a second",
            "start": 215.819,
            "duration": 5.821
        },
        {
            "text": "you realize like how annoyingly coupled",
            "start": 217.26,
            "duration": 7.619
        },
        {
            "text": "this is you know what I mean like your",
            "start": 221.64,
            "duration": 5.34
        },
        {
            "text": "method names like you have to say the",
            "start": 224.879,
            "duration": 4.801
        },
        {
            "text": "thing you want as the method name but it",
            "start": 226.98,
            "duration": 4.319
        },
        {
            "text": "uses the strategy pattern at the end the",
            "start": 229.68,
            "duration": 3.24
        },
        {
            "text": "strategy pattern is good like notice the",
            "start": 231.299,
            "duration": 2.761
        },
        {
            "text": "strategy pattern at the end they all",
            "start": 232.92,
            "duration": 3.8
        },
        {
            "text": "have the word print",
            "start": 234.06,
            "duration": 2.66
        },
        {
            "text": "yeah this example makes no sense I agree",
            "start": 237.18,
            "duration": 4.02
        },
        {
            "text": "with that but the print thing at the end",
            "start": 239.34,
            "duration": 4.5
        },
        {
            "text": "it is this this makes a lot of sense uh",
            "start": 241.2,
            "duration": 4.2
        },
        {
            "text": "why not use an email I don't think this",
            "start": 243.84,
            "duration": 3.78
        },
        {
            "text": "language uh",
            "start": 245.4,
            "duration": 4.38
        },
        {
            "text": "I mean at this point",
            "start": 247.62,
            "duration": 4.74
        },
        {
            "text": "you should probably compose a burger",
            "start": 249.78,
            "duration": 5.58
        },
        {
            "text": "of its various toppings",
            "start": 252.36,
            "duration": 4.26
        },
        {
            "text": "because you should be able to push a",
            "start": 255.36,
            "duration": 3.42
        },
        {
            "text": "topping and make your own then you can",
            "start": 256.62,
            "duration": 3.66
        },
        {
            "text": "have named ones right you should just",
            "start": 258.78,
            "duration": 3.06
        },
        {
            "text": "have named ones not you don't have to",
            "start": 260.28,
            "duration": 3.12
        },
        {
            "text": "create new instances they should just be",
            "start": 261.84,
            "duration": 3.84
        },
        {
            "text": "named uh hard-coded ones and then you",
            "start": 263.4,
            "duration": 3.42
        },
        {
            "text": "can have your build your own one right",
            "start": 265.68,
            "duration": 3.959
        },
        {
            "text": "well let's let's be real here okay uh",
            "start": 266.82,
            "duration": 4.26
        },
        {
            "text": "anyways",
            "start": 269.639,
            "duration": 3.421
        },
        {
            "text": "for know what's inside the Special Sauce",
            "start": 271.08,
            "duration": 5.48
        },
        {
            "text": "we added a secret ingredient",
            "start": 273.06,
            "duration": 3.5
        },
        {
            "text": "now alternatively control over how the",
            "start": 278.34,
            "duration": 4.799
        },
        {
            "text": "sausage is made you can go with the",
            "start": 281.52,
            "duration": 3.78
        },
        {
            "text": "builder pattern the idea is that if we",
            "start": 283.139,
            "duration": 3.361
        },
        {
            "text": "want to make a burger we don't",
            "start": 285.3,
            "duration": 3.119
        },
        {
            "text": "immediately have to pass in all the",
            "start": 286.5,
            "duration": 4.02
        },
        {
            "text": "parameters we can use a burger Builder",
            "start": 288.419,
            "duration": 4.081
        },
        {
            "text": "instead we'll have an in by the way this",
            "start": 290.52,
            "duration": 4.14
        },
        {
            "text": "is the the better way to do things uh",
            "start": 292.5,
            "duration": 4.74
        },
        {
            "text": "sort of I this whole it is better it is",
            "start": 294.66,
            "duration": 4.38
        },
        {
            "text": "and generally you should always use a",
            "start": 297.24,
            "duration": 3.0
        },
        {
            "text": "builder pattern rust has a builder",
            "start": 299.04,
            "duration": 4.62
        },
        {
            "text": "pattern uh this is this is a real this",
            "start": 300.24,
            "duration": 5.519
        },
        {
            "text": "is a real this is a real good this is",
            "start": 303.66,
            "duration": 3.66
        },
        {
            "text": "always usually much better this whole",
            "start": 305.759,
            "duration": 3.301
        },
        {
            "text": "like not returning yourself though this",
            "start": 307.32,
            "duration": 3.599
        },
        {
            "text": "is kind of freaking me out like you",
            "start": 309.06,
            "duration": 4.32
        },
        {
            "text": "should return yourself return yourself",
            "start": 310.919,
            "duration": 4.56
        },
        {
            "text": "individual method for adding each",
            "start": 313.38,
            "duration": 4.02
        },
        {
            "text": "ingredients whether it's a bun Patty or",
            "start": 315.479,
            "duration": 4.021
        },
        {
            "text": "cheese each one will return a reference",
            "start": 317.4,
            "duration": 4.019
        },
        {
            "text": "to the Builder and finally you will have",
            "start": 319.5,
            "duration": 3.72
        },
        {
            "text": "a build method which will return the",
            "start": 321.419,
            "duration": 4.141
        },
        {
            "text": "final product then we can instantiate a",
            "start": 323.22,
            "duration": 4.319
        },
        {
            "text": "burger Builder add the Buns that we want",
            "start": 325.56,
            "duration": 4.079
        },
        {
            "text": "the Patty that we don't like this that",
            "start": 327.539,
            "duration": 3.541
        },
        {
            "text": "we want and we can change what is this",
            "start": 329.639,
            "duration": 4.801
        },
        {
            "text": "bash what do we write in bash right now",
            "start": 331.08,
            "duration": 5.399
        },
        {
            "text": "in these methods because remember each",
            "start": 334.44,
            "duration": 3.96
        },
        {
            "text": "one will return a reference to the",
            "start": 336.479,
            "duration": 4.44
        },
        {
            "text": "Builder finally build it and we have the",
            "start": 338.4,
            "duration": 4.56
        },
        {
            "text": "exact burger that we want I've used this",
            "start": 340.919,
            "duration": 3.72
        },
        {
            "text": "pattern a lot at Google with protocol",
            "start": 342.96,
            "duration": 3.66
        },
        {
            "text": "buffers next we have the Singleton",
            "start": 344.639,
            "duration": 4.081
        },
        {
            "text": "pattern and I'm not I did you know he",
            "start": 346.62,
            "duration": 5.4
        },
        {
            "text": "just lightly threw out",
            "start": 348.72,
            "duration": 5.88
        },
        {
            "text": "uh using these with protobufs like that",
            "start": 352.02,
            "duration": 5.1
        },
        {
            "text": "is a really great thing Proto Buffs are",
            "start": 354.6,
            "duration": 4.5
        },
        {
            "text": "amazing and this is one of the reasons",
            "start": 357.12,
            "duration": 4.019
        },
        {
            "text": "why they're so good when I'm at Google I",
            "start": 359.1,
            "duration": 3.96
        },
        {
            "text": "know just tosses out casually tosses out",
            "start": 361.139,
            "duration": 4.261
        },
        {
            "text": "Google and protobufs it's a neat kill is",
            "start": 363.06,
            "duration": 4.74
        },
        {
            "text": "absolutely right like when you use",
            "start": 365.4,
            "duration": 5.04
        },
        {
            "text": "when you use proper Builder patterns",
            "start": 367.8,
            "duration": 3.899
        },
        {
            "text": "which is just like something you see all",
            "start": 370.44,
            "duration": 2.4
        },
        {
            "text": "the time so this is like a good thing",
            "start": 371.699,
            "duration": 3.481
        },
        {
            "text": "you can actually take away I like use",
            "start": 372.84,
            "duration": 4.799
        },
        {
            "text": "this honestly use this today says the",
            "start": 375.18,
            "duration": 3.84
        },
        {
            "text": "Netflix guy you know when I'm when I'm",
            "start": 377.639,
            "duration": 3.361
        },
        {
            "text": "designing my software at Netflix I tend",
            "start": 379.02,
            "duration": 3.72
        },
        {
            "text": "to use the Builder pattern as well you",
            "start": 381.0,
            "duration": 3.12
        },
        {
            "text": "know what I mean it's like this is",
            "start": 382.74,
            "duration": 2.88
        },
        {
            "text": "actually a really good",
            "start": 384.12,
            "duration": 4.68
        },
        {
            "text": "this is a very useful idea in general",
            "start": 385.62,
            "duration": 5.82
        },
        {
            "text": "and it works in a lot of languages it's",
            "start": 388.8,
            "duration": 4.92
        },
        {
            "text": "um right it's just good times use this",
            "start": 391.44,
            "duration": 3.96
        },
        {
            "text": "pattern a lot at Google with protocol",
            "start": 393.72,
            "duration": 3.66
        },
        {
            "text": "buffers next we have the Singleton",
            "start": 395.4,
            "duration": 3.66
        },
        {
            "text": "pattern and I'm not talking about they",
            "start": 397.38,
            "duration": 3.12
        },
        {
            "text": "actually renamed the Singleton pattern",
            "start": 399.06,
            "duration": 3.96
        },
        {
            "text": "of course to the arch user pattern",
            "start": 400.5,
            "duration": 3.66
        },
        {
            "text": "probably",
            "start": 403.02,
            "duration": 2.459
        },
        {
            "text": "you should probably keep up with the",
            "start": 404.16,
            "duration": 2.46
        },
        {
            "text": "times you know",
            "start": 405.479,
            "duration": 3.541
        },
        {
            "text": "my dating life a Singleton is just a",
            "start": 406.62,
            "duration": 4.139
        },
        {
            "text": "class that can only have a single",
            "start": 409.02,
            "duration": 3.84
        },
        {
            "text": "instance of it that's instantiated it",
            "start": 410.759,
            "duration": 3.601
        },
        {
            "text": "has many use cases for example",
            "start": 412.86,
            "duration": 3.24
        },
        {
            "text": "maintaining a single copy of our",
            "start": 414.36,
            "duration": 3.66
        },
        {
            "text": "application State we would start by",
            "start": 416.1,
            "duration": 4.02
        },
        {
            "text": "having a static instance variable let's",
            "start": 418.02,
            "duration": 4.14
        },
        {
            "text": "say in our app we want to know if a user",
            "start": 420.12,
            "duration": 4.38
        },
        {
            "text": "is logged in or not but we won't I I",
            "start": 422.16,
            "duration": 4.62
        },
        {
            "text": "know that python is considered like the",
            "start": 424.5,
            "duration": 5.4
        },
        {
            "text": "worst language to do classes in just",
            "start": 426.78,
            "duration": 5.28
        },
        {
            "text": "just be okay with it right we're we're",
            "start": 429.9,
            "duration": 4.859
        },
        {
            "text": "looking for the pattern right that's one",
            "start": 432.06,
            "duration": 3.96
        },
        {
            "text": "cool thing that should make the pattern",
            "start": 434.759,
            "duration": 4.921
        },
        {
            "text": "even cooler in the sense that uh the",
            "start": 436.02,
            "duration": 6.299
        },
        {
            "text": "pattern can exist in such a way that it",
            "start": 439.68,
            "duration": 4.26
        },
        {
            "text": "can work in multiple different languages",
            "start": 442.319,
            "duration": 3.061
        },
        {
            "text": "right that's good that's a good thing",
            "start": 443.94,
            "duration": 2.58
        },
        {
            "text": "because that's something that means that",
            "start": 445.38,
            "duration": 2.819
        },
        {
            "text": "you can take it with you uh the",
            "start": 446.52,
            "duration": 3.119
        },
        {
            "text": "Singleton pattern sucks until it's",
            "start": 448.199,
            "duration": 2.821
        },
        {
            "text": "really awesome",
            "start": 449.639,
            "duration": 3.06
        },
        {
            "text": "right you know I always come up with a",
            "start": 451.02,
            "duration": 3.299
        },
        {
            "text": "stupid like database connection pool",
            "start": 452.699,
            "duration": 3.9
        },
        {
            "text": "thing sometimes you want it as a",
            "start": 454.319,
            "duration": 3.541
        },
        {
            "text": "Singleton but then you're like well do",
            "start": 456.599,
            "duration": 2.521
        },
        {
            "text": "you really want another single tension",
            "start": 457.86,
            "duration": 2.94
        },
        {
            "text": "program just hold on to it by the way",
            "start": 459.12,
            "duration": 3.84
        },
        {
            "text": "low level learning we did react to yours",
            "start": 460.8,
            "duration": 4.739
        },
        {
            "text": "you you yours is great your Zig one",
            "start": 462.96,
            "duration": 5.76
        },
        {
            "text": "right you know you always get into this",
            "start": 465.539,
            "duration": 5.78
        },
        {
            "text": "one you know",
            "start": 468.72,
            "duration": 2.599
        },
        {
            "text": "we'll use a static method called get app",
            "start": 474.08,
            "duration": 4.54
        },
        {
            "text": "hey uh low-level learning can I do one",
            "start": 477.06,
            "duration": 2.699
        },
        {
            "text": "more reacts to one or more of your",
            "start": 478.62,
            "duration": 2.34
        },
        {
            "text": "contents can you pick your favorite one",
            "start": 479.759,
            "duration": 2.701
        },
        {
            "text": "and send it to me yeah yeah yeah yeah",
            "start": 480.96,
            "duration": 3.84
        },
        {
            "text": "we'll do one more after this okay stay",
            "start": 482.46,
            "duration": 3.78
        },
        {
            "text": "which will first check if there's",
            "start": 484.8,
            "duration": 3.48
        },
        {
            "text": "already an existing instance of can we",
            "start": 486.24,
            "duration": 3.84
        },
        {
            "text": "pause it for a second uh I hate",
            "start": 488.28,
            "duration": 3.3
        },
        {
            "text": "decorators",
            "start": 490.08,
            "duration": 3.54
        },
        {
            "text": "for application stay if not we'll",
            "start": 491.58,
            "duration": 3.959
        },
        {
            "text": "instantiate one if there already is",
            "start": 493.62,
            "duration": 3.66
        },
        {
            "text": "though we'll just return the existing",
            "start": 495.539,
            "duration": 3.541
        },
        {
            "text": "instance we'll never create more than",
            "start": 497.28,
            "duration": 3.96
        },
        {
            "text": "one so now if we get our app State for",
            "start": 499.08,
            "duration": 4.14
        },
        {
            "text": "the first time the logged in value will",
            "start": 501.24,
            "duration": 3.959
        },
        {
            "text": "initially be false but if we I mean to",
            "start": 503.22,
            "duration": 3.84
        },
        {
            "text": "be fair I did use a Singleton pattern",
            "start": 505.199,
            "duration": 2.821
        },
        {
            "text": "for this when I was writing the video",
            "start": 507.06,
            "duration": 3.96
        },
        {
            "text": "driver uh and the audio driver the thing",
            "start": 508.02,
            "duration": 5.16
        },
        {
            "text": "was is that I also wrote the driver in",
            "start": 511.02,
            "duration": 4.68
        },
        {
            "text": "such a way that behind the Singleton was",
            "start": 513.18,
            "duration": 4.859
        },
        {
            "text": "a strategy pattern so it'd create a",
            "start": 515.7,
            "duration": 3.839
        },
        {
            "text": "Singleton strategy pattern so that way I",
            "start": 518.039,
            "duration": 3.18
        },
        {
            "text": "could write a sync player something that",
            "start": 519.539,
            "duration": 4.141
        },
        {
            "text": "doesn't actually go to anything it just",
            "start": 521.219,
            "duration": 4.62
        },
        {
            "text": "is like a software sync it just swallows",
            "start": 523.68,
            "duration": 3.9
        },
        {
            "text": "all the video and audio so that way I",
            "start": 525.839,
            "duration": 3.18
        },
        {
            "text": "could do like high performance testing",
            "start": 527.58,
            "duration": 3.54
        },
        {
            "text": "right I could play two hours of video in",
            "start": 529.019,
            "duration": 5.281
        },
        {
            "text": "five seconds or I hadn't really actually",
            "start": 531.12,
            "duration": 6.12
        },
        {
            "text": "go out to the actual television and so",
            "start": 534.3,
            "duration": 4.979
        },
        {
            "text": "there is places where the Singleton",
            "start": 537.24,
            "duration": 3.96
        },
        {
            "text": "makes a lot of sense especially if you",
            "start": 539.279,
            "duration": 3.541
        },
        {
            "text": "can mix in like a Singleton with a",
            "start": 541.2,
            "duration": 3.84
        },
        {
            "text": "strategy you can create ways to create",
            "start": 542.82,
            "duration": 4.74
        },
        {
            "text": "your whole system such that it makes a",
            "start": 545.04,
            "duration": 4.799
        },
        {
            "text": "lot of sense so just saying you know I",
            "start": 547.56,
            "duration": 3.959
        },
        {
            "text": "know that the Singleton gets a lot of",
            "start": 549.839,
            "duration": 3.661
        },
        {
            "text": "riffraff but there are a few places",
            "start": 551.519,
            "duration": 4.621
        },
        {
            "text": "where it's super useful for me that was",
            "start": 553.5,
            "duration": 4.26
        },
        {
            "text": "super useful if we get the app State",
            "start": 556.14,
            "duration": 3.6
        },
        {
            "text": "again this will actually still be the",
            "start": 557.76,
            "duration": 4.32
        },
        {
            "text": "first instance so if we modify the first",
            "start": 559.74,
            "duration": 4.44
        },
        {
            "text": "instance and then print the logged in",
            "start": 562.08,
            "duration": 3.78
        },
        {
            "text": "value for both of them they will both",
            "start": 564.18,
            "duration": 3.9
        },
        {
            "text": "now be true this pattern can be useful",
            "start": 565.86,
            "duration": 4.08
        },
        {
            "text": "so that multiple components in your app",
            "start": 568.08,
            "duration": 3.3
        },
        {
            "text": "will have also this example is",
            "start": 569.94,
            "duration": 4.2
        },
        {
            "text": "terrifying I hate the you know modifying",
            "start": 571.38,
            "duration": 5.519
        },
        {
            "text": "a static a Singleton you know it just",
            "start": 574.14,
            "duration": 5.4
        },
        {
            "text": "terrifies me you know like this right",
            "start": 576.899,
            "duration": 5.961
        },
        {
            "text": "here this thing terrifies me",
            "start": 579.54,
            "duration": 3.32
        },
        {
            "text": "I know it's not dude it's crazy it's",
            "start": 583.26,
            "duration": 5.1
        },
        {
            "text": "crazy uh they're just so hard to test",
            "start": 586.32,
            "duration": 4.079
        },
        {
            "text": "they are so hard to test I'm totally on",
            "start": 588.36,
            "duration": 3.72
        },
        {
            "text": "your team with that shared immutable",
            "start": 590.399,
            "duration": 3.961
        },
        {
            "text": "State it's shared mutable state is the",
            "start": 592.08,
            "duration": 4.92
        },
        {
            "text": "the bane of all programming and the key",
            "start": 594.36,
            "duration": 4.62
        },
        {
            "text": "to super awesome amazing performance and",
            "start": 597.0,
            "duration": 3.42
        },
        {
            "text": "is the scariest thing in the universe",
            "start": 598.98,
            "duration": 4.56
        },
        {
            "text": "and so careful I have a shared source of",
            "start": 600.42,
            "duration": 4.979
        },
        {
            "text": "truth but how can all the components",
            "start": 603.54,
            "duration": 4.14
        },
        {
            "text": "listen for updates in real time well",
            "start": 605.399,
            "duration": 3.961
        },
        {
            "text": "that's where the Observer comes in our",
            "start": 607.68,
            "duration": 3.779
        },
        {
            "text": "first behavioral pattern I prefer to",
            "start": 609.36,
            "duration": 4.2
        },
        {
            "text": "call it the pub sub pattern it's widely",
            "start": 611.459,
            "duration": 4.141
        },
        {
            "text": "used Beyond just object oriented",
            "start": 613.56,
            "duration": 3.719
        },
        {
            "text": "programming including in distributed",
            "start": 615.6,
            "duration": 3.84
        },
        {
            "text": "systems let's take YouTube for example",
            "start": 617.279,
            "duration": 4.74
        },
        {
            "text": "every time I upload a video all of my",
            "start": 619.44,
            "duration": 4.8
        },
        {
            "text": "subscribers get a notification including",
            "start": 622.019,
            "duration": 4.021
        },
        {
            "text": "you because you're subscribed right",
            "start": 624.24,
            "duration": 3.779
        },
        {
            "text": "right in this case the YouTube channel",
            "start": 626.04,
            "duration": 5.1
        },
        {
            "text": "is the subject AKA publisher which will",
            "start": 628.019,
            "duration": 5.281
        },
        {
            "text": "be the source of events such as a new",
            "start": 631.14,
            "duration": 4.139
        },
        {
            "text": "video being uploaded we might want",
            "start": 633.3,
            "duration": 4.92
        },
        {
            "text": "multiple observers AKA subscribers to",
            "start": 635.279,
            "duration": 4.861
        },
        {
            "text": "all be notified when these events happen",
            "start": 638.22,
            "duration": 4.26
        },
        {
            "text": "in real time one way to implement this",
            "start": 640.14,
            "duration": 4.139
        },
        {
            "text": "pattern is to have a YouTube channel",
            "start": 642.48,
            "duration": 4.08
        },
        {
            "text": "class which maintains a list of its",
            "start": 644.279,
            "duration": 4.261
        },
        {
            "text": "subscribers when a new user subscribes",
            "start": 646.56,
            "duration": 3.839
        },
        {
            "text": "we add them to the list of subscribers",
            "start": 648.54,
            "duration": 4.38
        },
        {
            "text": "when an event occurs we go through that",
            "start": 650.399,
            "duration": 4.38
        },
        {
            "text": "list of subscribers and send the event",
            "start": 652.92,
            "duration": 4.02
        },
        {
            "text": "data to each of them with a notification",
            "start": 654.779,
            "duration": 3.961
        },
        {
            "text": "but we also have to define the",
            "start": 656.94,
            "duration": 3.36
        },
        {
            "text": "subscriber interface which you can do",
            "start": 658.74,
            "duration": 3.599
        },
        {
            "text": "with an abstract class or an interface",
            "start": 660.3,
            "duration": 3.599
        },
        {
            "text": "different subscribers might implement",
            "start": 662.339,
            "duration": 3.18
        },
        {
            "text": "this interface differently but for a",
            "start": 663.899,
            "duration": 3.421
        },
        {
            "text": "YouTube user let's say that we just want",
            "start": 665.519,
            "duration": 3.241
        },
        {
            "text": "to print the notification that was",
            "start": 667.32,
            "duration": 3.48
        },
        {
            "text": "received so then we can create a YouTube",
            "start": 668.76,
            "duration": 4.44
        },
        {
            "text": "channel add a few subscribers and we",
            "start": 670.8,
            "duration": 4.86
        },
        {
            "text": "only have to call notify once and all of",
            "start": 673.2,
            "duration": 3.78
        },
        {
            "text": "the subscribers will receive the",
            "start": 675.66,
            "duration": 3.54
        },
        {
            "text": "notification this is also",
            "start": 676.98,
            "duration": 5.099
        },
        {
            "text": "this is good I mean I mean Observer",
            "start": 679.2,
            "duration": 4.92
        },
        {
            "text": "pattern it's it's real time uh we use",
            "start": 682.079,
            "duration": 4.38
        },
        {
            "text": "this a bunch I you know again the python",
            "start": 684.12,
            "duration": 4.62
        },
        {
            "text": "I think there's like an instant distaste",
            "start": 686.459,
            "duration": 4.56
        },
        {
            "text": "for for this the idea of message passing",
            "start": 688.74,
            "duration": 4.339
        },
        {
            "text": "I know oh my goodness don't shut up TJ",
            "start": 691.019,
            "duration": 4.38
        },
        {
            "text": "TJ next thing you're gonna do is you're",
            "start": 693.079,
            "duration": 4.121
        },
        {
            "text": "gonna start talking about Objective C",
            "start": 695.399,
            "duration": 3.841
        },
        {
            "text": "so extensible enough that a subscriber",
            "start": 697.2,
            "duration": 4.02
        },
        {
            "text": "could be subscribed to multiple channels",
            "start": 699.24,
            "duration": 4.4
        },
        {
            "text": "an iterator is a pretty simple pattern",
            "start": 701.22,
            "duration": 4.92
        },
        {
            "text": "how the values in an object can be",
            "start": 703.64,
            "duration": 4.96
        },
        {
            "text": "iterated through in Python just defining",
            "start": 706.14,
            "duration": 5.46
        },
        {
            "text": "an array and then iterating in keyword",
            "start": 708.6,
            "duration": 5.94
        },
        {
            "text": "uses the built-in list iterator this way",
            "start": 711.6,
            "duration": 4.799
        },
        {
            "text": "we don't even have to index the array",
            "start": 714.54,
            "duration": 4.14
        },
        {
            "text": "now for more complex objects iterators",
            "start": 716.399,
            "duration": 4.021
        },
        {
            "text": "was good in fact you should know an",
            "start": 718.68,
            "duration": 3.599
        },
        {
            "text": "iterator pattern uh one of my first",
            "start": 720.42,
            "duration": 3.599
        },
        {
            "text": "interviews with Google like 10 years ago",
            "start": 722.279,
            "duration": 3.3
        },
        {
            "text": "when I had to fill it out on Google Docs",
            "start": 724.019,
            "duration": 4.021
        },
        {
            "text": "I actually did the Google interview at",
            "start": 725.579,
            "duration": 4.44
        },
        {
            "text": "my job when I was writing C for the",
            "start": 728.04,
            "duration": 4.919
        },
        {
            "text": "government for robots and",
            "start": 730.019,
            "duration": 4.981
        },
        {
            "text": "at Google by the way I got rejected by",
            "start": 732.959,
            "duration": 3.361
        },
        {
            "text": "the way they didn't like me by the way",
            "start": 735.0,
            "duration": 3.42
        },
        {
            "text": "but part of that interview was to write",
            "start": 736.32,
            "duration": 5.04
        },
        {
            "text": "an iterator right and so and so knowing",
            "start": 738.42,
            "duration": 4.56
        },
        {
            "text": "iterators iterators are super useful",
            "start": 741.36,
            "duration": 3.419
        },
        {
            "text": "they're they're it's a it's a great",
            "start": 742.98,
            "duration": 5.099
        },
        {
            "text": "pattern and I've used iterators",
            "start": 744.779,
            "duration": 7.081
        },
        {
            "text": "as ways to solve problems",
            "start": 748.079,
            "duration": 5.7
        },
        {
            "text": "at Netflix by the way by the way I used",
            "start": 751.86,
            "duration": 4.32
        },
        {
            "text": "I I work at Netflix by the way uh and so",
            "start": 753.779,
            "duration": 4.68
        },
        {
            "text": "it's like it's really really good yeah",
            "start": 756.18,
            "duration": 4.38
        },
        {
            "text": "yeah Netflix uh or Google did reject me",
            "start": 758.459,
            "duration": 4.38
        },
        {
            "text": "twice and then they offered me a salary",
            "start": 760.56,
            "duration": 4.62
        },
        {
            "text": "lower than the one I have at Netflix and",
            "start": 762.839,
            "duration": 3.661
        },
        {
            "text": "try to convince me that it's a starting",
            "start": 765.18,
            "duration": 2.82
        },
        {
            "text": "point and I said of course it's the",
            "start": 766.5,
            "duration": 3.36
        },
        {
            "text": "starting point any point you give me is",
            "start": 768.0,
            "duration": 4.019
        },
        {
            "text": "a starting point what you're saying is",
            "start": 769.86,
            "duration": 4.08
        },
        {
            "text": "an objective Truth for an objectively",
            "start": 772.019,
            "duration": 4.32
        },
        {
            "text": "bad offer so try again",
            "start": 773.94,
            "duration": 4.56
        },
        {
            "text": "it's like binary search trees or linked",
            "start": 776.339,
            "duration": 4.141
        },
        {
            "text": "lists we can Define our own we can take",
            "start": 778.5,
            "duration": 4.079
        },
        {
            "text": "a list node which just has a value and a",
            "start": 780.48,
            "duration": 3.78
        },
        {
            "text": "next pointer and then a linked list",
            "start": 782.579,
            "duration": 3.361
        },
        {
            "text": "which has a head pointer and a current",
            "start": 784.26,
            "duration": 5.639
        },
        {
            "text": "pointer we can first Define the",
            "start": 785.94,
            "duration": 6.139
        },
        {
            "text": "weird passing in head as the first note",
            "start": 789.899,
            "duration": 4.74
        },
        {
            "text": "uh you know just saying aren't you the",
            "start": 792.079,
            "duration": 4.481
        },
        {
            "text": "guy that built the auto place out on the",
            "start": 794.639,
            "duration": 4.021
        },
        {
            "text": "homepage I am iterator with the inner",
            "start": 796.56,
            "duration": 3.779
        },
        {
            "text": "function which will just set the current",
            "start": 798.66,
            "duration": 3.419
        },
        {
            "text": "pointer to the head and then return a",
            "start": 800.339,
            "duration": 3.661
        },
        {
            "text": "reference to the linked list to get the",
            "start": 802.079,
            "duration": 3.781
        },
        {
            "text": "next value in the sequence we defined",
            "start": 804.0,
            "duration": 3.899
        },
        {
            "text": "the next function if our current pointer",
            "start": 805.86,
            "duration": 4.32
        },
        {
            "text": "is non-null we can get the value and",
            "start": 807.899,
            "duration": 4.021
        },
        {
            "text": "then return it and also shift the",
            "start": 810.18,
            "duration": 3.36
        },
        {
            "text": "current pointer but if we reach the end",
            "start": 811.92,
            "duration": 3.659
        },
        {
            "text": "of the linked list we can send a signal",
            "start": 813.54,
            "duration": 3.72
        },
        {
            "text": "that we're going to stop iterating to",
            "start": 815.579,
            "duration": 3.841
        },
        {
            "text": "test it out we can just initialize",
            "start": 817.26,
            "duration": 4.259
        },
        {
            "text": "that's weird oh yeah because they don't",
            "start": 819.42,
            "duration": 3.68
        },
        {
            "text": "have options do they",
            "start": 821.519,
            "duration": 4.141
        },
        {
            "text": "oh yeah so rust solves this differently",
            "start": 823.1,
            "duration": 4.299
        },
        {
            "text": "you know I don't I mean this just seems",
            "start": 825.66,
            "duration": 3.72
        },
        {
            "text": "like why do you why you have to throw an",
            "start": 827.399,
            "duration": 4.201
        },
        {
            "text": "error to stop iterating",
            "start": 829.38,
            "duration": 4.44
        },
        {
            "text": "just I mean it seems weird right can we",
            "start": 831.6,
            "duration": 4.02
        },
        {
            "text": "agree that is a little it's just a",
            "start": 833.82,
            "duration": 2.94
        },
        {
            "text": "little weird you know it's a little",
            "start": 835.62,
            "duration": 2.459
        },
        {
            "text": "weird I'm just saying it's a little",
            "start": 836.76,
            "duration": 4.259
        },
        {
            "text": "weird Okay stop iterating is uh crucial",
            "start": 838.079,
            "duration": 4.5
        },
        {
            "text": "in Python yeah I know but it's still",
            "start": 841.019,
            "duration": 3.841
        },
        {
            "text": "it's weird",
            "start": 842.579,
            "duration": 5.641
        },
        {
            "text": "how do I get into Netflix as a software",
            "start": 844.86,
            "duration": 5.06
        },
        {
            "text": "and darn um",
            "start": 848.22,
            "duration": 3.84
        },
        {
            "text": "and iterate through it with the in",
            "start": 849.92,
            "duration": 3.88
        },
        {
            "text": "keyword this is a much more simple",
            "start": 852.06,
            "duration": 3.66
        },
        {
            "text": "interface than having to actually update",
            "start": 853.8,
            "duration": 4.02
        },
        {
            "text": "pointers ourselves now if you want to",
            "start": 855.72,
            "duration": 4.02
        },
        {
            "text": "modify or extend the behavior of a class",
            "start": 857.82,
            "duration": 4.199
        },
        {
            "text": "without directly changing it you can go",
            "start": 859.74,
            "duration": 4.44
        },
        {
            "text": "with the strategy pattern for example we",
            "start": 862.019,
            "duration": 4.741
        },
        {
            "text": "can stretch pattern always just always",
            "start": 864.18,
            "duration": 4.14
        },
        {
            "text": "use the strategy pattern okay just just",
            "start": 866.76,
            "duration": 2.94
        },
        {
            "text": "add everything's a strategy pattern",
            "start": 868.32,
            "duration": 3.6
        },
        {
            "text": "that's all strategy pattern is just",
            "start": 869.7,
            "duration": 4.5
        },
        {
            "text": "fancy talk for using interface you dummy",
            "start": 871.92,
            "duration": 4.5
        },
        {
            "text": "you can filter an array by removing",
            "start": 874.2,
            "duration": 4.439
        },
        {
            "text": "positive values or we could filter it by",
            "start": 876.42,
            "duration": 4.68
        },
        {
            "text": "removing all odd values these are two",
            "start": 878.639,
            "duration": 4.2
        },
        {
            "text": "strategies but maybe in the future we",
            "start": 881.1,
            "duration": 3.599
        },
        {
            "text": "want to add more and we want to follow",
            "start": 882.839,
            "duration": 4.381
        },
        {
            "text": "the open closed principle well we can",
            "start": 884.699,
            "duration": 5.041
        },
        {
            "text": "define a filter strategy create an",
            "start": 887.22,
            "duration": 4.32
        },
        {
            "text": "implementation which will remove all",
            "start": 889.74,
            "duration": 3.719
        },
        {
            "text": "negative values and an implementation",
            "start": 891.54,
            "duration": 4.44
        },
        {
            "text": "which will remove all odd values and",
            "start": 893.459,
            "duration": 4.62
        },
        {
            "text": "then at run time we can pass this",
            "start": 895.98,
            "duration": 4.859
        },
        {
            "text": "strategy into our values object and to",
            "start": 898.079,
            "duration": 4.981
        },
        {
            "text": "test it out all we have to do is pass in",
            "start": 900.839,
            "duration": 4.44
        },
        {
            "text": "the strategy into our filter method and",
            "start": 903.06,
            "duration": 4.44
        },
        {
            "text": "we'll get our desired result this way we",
            "start": 905.279,
            "duration": 4.141
        },
        {
            "text": "I use this exactly like I literally use",
            "start": 907.5,
            "duration": 3.42
        },
        {
            "text": "this exact same thing so I had to create",
            "start": 909.42,
            "duration": 3.659
        },
        {
            "text": "uh so at Netflix I'm doing this whole",
            "start": 910.92,
            "duration": 4.38
        },
        {
            "text": "like Performance Audio Video thing that",
            "start": 913.079,
            "duration": 4.081
        },
        {
            "text": "I've been kind of talking about and when",
            "start": 915.3,
            "duration": 3.44
        },
        {
            "text": "I'm building up some of the data stuff",
            "start": 917.16,
            "duration": 4.44
        },
        {
            "text": "there's some values that as I build it",
            "start": 918.74,
            "duration": 5.56
        },
        {
            "text": "up row by row I need to use the previous",
            "start": 921.6,
            "duration": 4.919
        },
        {
            "text": "value uh",
            "start": 924.3,
            "duration": 4.74
        },
        {
            "text": "but there's other that I need to only",
            "start": 926.519,
            "duration": 4.32
        },
        {
            "text": "use the values that happened within that",
            "start": 929.04,
            "duration": 4.26
        },
        {
            "text": "specific time span and so what I did is",
            "start": 930.839,
            "duration": 5.041
        },
        {
            "text": "I created an emitter right so I have a",
            "start": 933.3,
            "duration": 4.92
        },
        {
            "text": "continuous emitter one that always emits",
            "start": 935.88,
            "duration": 4.56
        },
        {
            "text": "the previous value and then I have a",
            "start": 938.22,
            "duration": 4.799
        },
        {
            "text": "counter emitter so that as time passes I",
            "start": 940.44,
            "duration": 5.04
        },
        {
            "text": "only emit at that point what I saw at",
            "start": 943.019,
            "duration": 3.901
        },
        {
            "text": "Netflix of course by the way I work at",
            "start": 945.48,
            "duration": 3.18
        },
        {
            "text": "Netflix I don't know if you know that",
            "start": 946.92,
            "duration": 3.62
        },
        {
            "text": "you can add so like",
            "start": 948.66,
            "duration": 3.6
        },
        {
            "text": "modifying you don't even have to you",
            "start": 950.54,
            "duration": 3.159
        },
        {
            "text": "don't even have to like oop to love",
            "start": 952.26,
            "duration": 2.939
        },
        {
            "text": "strategy pattern strategy pattern is",
            "start": 953.699,
            "duration": 3.541
        },
        {
            "text": "it's just make the thing into an",
            "start": 955.199,
            "duration": 4.44
        },
        {
            "text": "interface and do the logic below the",
            "start": 957.24,
            "duration": 4.26
        },
        {
            "text": "interface program at an interface level",
            "start": 959.639,
            "duration": 3.481
        },
        {
            "text": "that's all strategy pattern is",
            "start": 961.5,
            "duration": 3.3
        },
        {
            "text": "programming interface level oh Netflix",
            "start": 963.12,
            "duration": 3.48
        },
        {
            "text": "you must get a free subscription shut up",
            "start": 964.8,
            "duration": 3.56
        },
        {
            "text": "we don't talk about",
            "start": 966.6,
            "duration": 4.679
        },
        {
            "text": "next we have the adapter our first",
            "start": 968.36,
            "duration": 4.719
        },
        {
            "text": "structural adapter pattern what I like",
            "start": 971.279,
            "duration": 3.601
        },
        {
            "text": "to recall the lose your hair slowly",
            "start": 973.079,
            "duration": 4.26
        },
        {
            "text": "pattern roll pattern it's analogous to",
            "start": 974.88,
            "duration": 4.199
        },
        {
            "text": "the real world where we have a screw",
            "start": 977.339,
            "duration": 5.341
        },
        {
            "text": "that's too small to fit into a hole",
            "start": 979.079,
            "duration": 6.601
        },
        {
            "text": "we we've all we've all felt this problem",
            "start": 982.68,
            "duration": 5.459
        },
        {
            "text": "okay you know a lot of",
            "start": 985.68,
            "duration": 5.279
        },
        {
            "text": "a lot of us you know we're just trying",
            "start": 988.139,
            "duration": 4.38
        },
        {
            "text": "to uh",
            "start": 990.959,
            "duration": 2.94
        },
        {
            "text": "you know we're just trying to live our",
            "start": 992.519,
            "duration": 2.161
        },
        {
            "text": "life",
            "start": 993.899,
            "duration": 4.041
        },
        {
            "text": "you know it's not my fault",
            "start": 994.68,
            "duration": 3.26
        },
        {
            "text": "so instead we use an adapter which makes",
            "start": 999.12,
            "duration": 5.399
        },
        {
            "text": "the screw compatible with the hole or",
            "start": 1001.759,
            "duration": 5.421
        },
        {
            "text": "maybe an example",
            "start": 1004.519,
            "duration": 2.661
        },
        {
            "text": "did he just passed out the the sexy",
            "start": 1008.54,
            "duration": 4.859
        },
        {
            "text": "Saxman at the end okay well I'm happy",
            "start": 1011.0,
            "duration": 5.22
        },
        {
            "text": "that uh well I'm glad I'm very happy",
            "start": 1013.399,
            "duration": 4.321
        },
        {
            "text": "that he leaned into that one that was",
            "start": 1016.22,
            "duration": 5.479
        },
        {
            "text": "good no one can be upset about that",
            "start": 1017.72,
            "duration": 6.179
        },
        {
            "text": "oh that's a lot of water no wonder I",
            "start": 1021.699,
            "duration": 3.281
        },
        {
            "text": "keep peeing",
            "start": 1023.899,
            "duration": 2.761
        },
        {
            "text": "I know I can't believe that can't",
            "start": 1024.98,
            "duration": 3.18
        },
        {
            "text": "believe there'd be a sexy time joke here",
            "start": 1026.66,
            "duration": 3.6
        },
        {
            "text": "people that you're more familiar with we",
            "start": 1028.16,
            "duration": 5.22
        },
        {
            "text": "have a USB cable and a USB port we can",
            "start": 1030.26,
            "duration": 5.22
        },
        {
            "text": "plug in the USB cable which will",
            "start": 1033.38,
            "duration": 4.38
        },
        {
            "text": "directly fit into the port but instead",
            "start": 1035.48,
            "duration": 4.979
        },
        {
            "text": "if we have a micro USB cable it's not",
            "start": 1037.76,
            "duration": 5.4
        },
        {
            "text": "again okay just because",
            "start": 1040.459,
            "duration": 5.581
        },
        {
            "text": "compatible so instead we need a micro to",
            "start": 1043.16,
            "duration": 6.06
        },
        {
            "text": "USB adapter which extends from the USB",
            "start": 1046.04,
            "duration": 6.24
        },
        {
            "text": "clasp but is composed of a micro USB",
            "start": 1049.22,
            "duration": 5.16
        },
        {
            "text": "cable which will be plugged into the",
            "start": 1052.28,
            "duration": 4.62
        },
        {
            "text": "adapter we can override the plug USB",
            "start": 1054.38,
            "duration": 4.44
        },
        {
            "text": "method from our parent class if needed",
            "start": 1056.9,
            "duration": 3.899
        },
        {
            "text": "but it's not in this case and then we",
            "start": 1058.82,
            "duration": 4.32
        },
        {
            "text": "can plug our micro USB cable into the",
            "start": 1060.799,
            "duration": 4.441
        },
        {
            "text": "adapter and then plug it into the port",
            "start": 1063.14,
            "duration": 4.68
        },
        {
            "text": "and it works just like a this is pretty",
            "start": 1065.24,
            "duration": 3.96
        },
        {
            "text": "much this is just pretty much the",
            "start": 1067.82,
            "duration": 3.06
        },
        {
            "text": "strategy pattern again right adapter",
            "start": 1069.2,
            "duration": 3.0
        },
        {
            "text": "pattern is just the application of a",
            "start": 1070.88,
            "duration": 4.679
        },
        {
            "text": "strategy pattern thought is is that yeah",
            "start": 1072.2,
            "duration": 6.359
        },
        {
            "text": "regular USB cable and our last pattern",
            "start": 1075.559,
            "duration": 4.86
        },
        {
            "text": "is the facade according to the",
            "start": 1078.559,
            "duration": 4.5
        },
        {
            "text": "dictionary so facade pattern",
            "start": 1080.419,
            "duration": 3.241
        },
        {
            "text": "um",
            "start": 1083.059,
            "duration": 4.261
        },
        {
            "text": "the facade pattern is actually",
            "start": 1083.66,
            "duration": 5.58
        },
        {
            "text": "okay so remember that whole like types",
            "start": 1087.32,
            "duration": 3.54
        },
        {
            "text": "definition argument that we went over",
            "start": 1089.24,
            "duration": 3.84
        },
        {
            "text": "the whole return types and all that",
            "start": 1090.86,
            "duration": 5.64
        },
        {
            "text": "in Theo's video one of the reasons why I",
            "start": 1093.08,
            "duration": 4.979
        },
        {
            "text": "love return types is that you can",
            "start": 1096.5,
            "duration": 4.26
        },
        {
            "text": "actually facade it and this is really",
            "start": 1098.059,
            "duration": 4.86
        },
        {
            "text": "important it's not facade",
            "start": 1100.76,
            "duration": 4.14
        },
        {
            "text": "it's not for Kate or however you're",
            "start": 1102.919,
            "duration": 4.741
        },
        {
            "text": "saying it's it's facade uh",
            "start": 1104.9,
            "duration": 5.46
        },
        {
            "text": "and so I actually like the facade",
            "start": 1107.66,
            "duration": 4.379
        },
        {
            "text": "pattern the facade facade is just",
            "start": 1110.36,
            "duration": 3.78
        },
        {
            "text": "encapsulation facade is just like a",
            "start": 1112.039,
            "duration": 4.981
        },
        {
            "text": "fancy ass word for simple simple",
            "start": 1114.14,
            "duration": 4.98
        },
        {
            "text": "right it's interface again it always",
            "start": 1117.02,
            "duration": 3.6
        },
        {
            "text": "just comes down to interfaces this is",
            "start": 1119.12,
            "duration": 5.059
        },
        {
            "text": "just facade these nuts it's just simply",
            "start": 1120.62,
            "duration": 6.9
        },
        {
            "text": "make an interface and not all interfaces",
            "start": 1124.179,
            "duration": 5.201
        },
        {
            "text": "need to be equal",
            "start": 1127.52,
            "duration": 4.34
        },
        {
            "text": "okay",
            "start": 1129.38,
            "duration": 2.48
        },
        {
            "text": "a facade is an outward appearance that",
            "start": 1131.96,
            "duration": 5.16
        },
        {
            "text": "is maintained to conceal a Less Pleasant",
            "start": 1134.539,
            "duration": 4.921
        },
        {
            "text": "or credible reality in the programming",
            "start": 1137.12,
            "duration": 4.32
        },
        {
            "text": "world the outward appearance is the",
            "start": 1139.46,
            "duration": 4.26
        },
        {
            "text": "class or interface we interact with as",
            "start": 1141.44,
            "duration": 4.08
        },
        {
            "text": "programmers and the Less Pleasant",
            "start": 1143.72,
            "duration": 4.44
        },
        {
            "text": "reality is hopefully the complexity that",
            "start": 1145.52,
            "duration": 5.039
        },
        {
            "text": "is hidden from us so a facade is simply",
            "start": 1148.16,
            "duration": 4.32
        },
        {
            "text": "a wrapper class that can be used to",
            "start": 1150.559,
            "duration": 4.201
        },
        {
            "text": "abstract lower level details that we",
            "start": 1152.48,
            "duration": 3.9
        },
        {
            "text": "don't want to have to worry about I'm",
            "start": 1154.76,
            "duration": 3.539
        },
        {
            "text": "surprised it even qualifies as a design",
            "start": 1156.38,
            "duration": 3.96
        },
        {
            "text": "pattern but some common examples might",
            "start": 1158.299,
            "duration": 4.981
        },
        {
            "text": "include HTTP clients that abstract away",
            "start": 1160.34,
            "duration": 4.86
        },
        {
            "text": "low level networks this is perfect this",
            "start": 1163.28,
            "duration": 3.72
        },
        {
            "text": "is a perfect example you know that like",
            "start": 1165.2,
            "duration": 4.02
        },
        {
            "text": "again I the problem about the facade",
            "start": 1167.0,
            "duration": 4.08
        },
        {
            "text": "pattern is it's not necessarily a",
            "start": 1169.22,
            "duration": 5.1
        },
        {
            "text": "pattern as much as it is just good",
            "start": 1171.08,
            "duration": 4.92
        },
        {
            "text": "programming technique because because",
            "start": 1174.32,
            "duration": 3.06
        },
        {
            "text": "the thing is is that you can't really",
            "start": 1176.0,
            "duration": 4.62
        },
        {
            "text": "the thing about like the the strategy",
            "start": 1177.38,
            "duration": 5.34
        },
        {
            "text": "pattern is that there's like there's a",
            "start": 1180.62,
            "duration": 3.9
        },
        {
            "text": "there is an inherent thing you can apply",
            "start": 1182.72,
            "duration": 5.04
        },
        {
            "text": "it to you can inherently apply the",
            "start": 1184.52,
            "duration": 4.98
        },
        {
            "text": "Observer pattern you can inherently",
            "start": 1187.76,
            "duration": 3.9
        },
        {
            "text": "apply the Singleton pattern this one you",
            "start": 1189.5,
            "duration": 3.72
        },
        {
            "text": "can't just apply because there's no",
            "start": 1191.66,
            "duration": 4.139
        },
        {
            "text": "actual application it's just like you",
            "start": 1193.22,
            "duration": 4.56
        },
        {
            "text": "take a bunch of stuff and you make it",
            "start": 1195.799,
            "duration": 3.601
        },
        {
            "text": "into a method for doing a thing",
            "start": 1197.78,
            "duration": 3.84
        },
        {
            "text": "everything's a everything's a facade",
            "start": 1199.4,
            "duration": 5.639
        },
        {
            "text": "exactly uh and so that's like part of",
            "start": 1201.62,
            "duration": 5.04
        },
        {
            "text": "the the problem with this pattern is",
            "start": 1205.039,
            "duration": 4.921
        },
        {
            "text": "that there's no concrete application of",
            "start": 1206.66,
            "duration": 6.12
        },
        {
            "text": "it you don't know a good programmer uses",
            "start": 1209.96,
            "duration": 4.98
        },
        {
            "text": "it a bad programmer uses it a good",
            "start": 1212.78,
            "duration": 4.8
        },
        {
            "text": "programmer just uses it better than a",
            "start": 1214.94,
            "duration": 5.22
        },
        {
            "text": "bad programmer uses it a facade pattern",
            "start": 1217.58,
            "duration": 4.02
        },
        {
            "text": "doesn't even have to be an extension of",
            "start": 1220.16,
            "duration": 3.96
        },
        {
            "text": "uh oh oh it's just an extension of good",
            "start": 1221.6,
            "duration": 5.04
        },
        {
            "text": "programming you can take any anything",
            "start": 1224.12,
            "duration": 4.679
        },
        {
            "text": "that you can hide information and you",
            "start": 1226.64,
            "duration": 3.5
        },
        {
            "text": "can have private implementation",
            "start": 1228.799,
            "duration": 3.841
        },
        {
            "text": "implementation details and external ways",
            "start": 1230.14,
            "duration": 4.779
        },
        {
            "text": "to call it a server you can imagine a",
            "start": 1232.64,
            "duration": 5.039
        },
        {
            "text": "server is still is a facade a crud",
            "start": 1234.919,
            "duration": 4.681
        },
        {
            "text": "application is a facade you don't have",
            "start": 1237.679,
            "duration": 4.441
        },
        {
            "text": "to know the squeal uh query to go do",
            "start": 1239.6,
            "duration": 3.72
        },
        {
            "text": "whatever you're doing you're just",
            "start": 1242.12,
            "duration": 4.439
        },
        {
            "text": "calling a simple endpoint it's just a",
            "start": 1243.32,
            "duration": 4.68
        },
        {
            "text": "it's just an abstraction that makes",
            "start": 1246.559,
            "duration": 3.301
        },
        {
            "text": "something simpler quote unquote simpler",
            "start": 1248.0,
            "duration": 3.179
        },
        {
            "text": "but the problem is is once you add",
            "start": 1249.86,
            "duration": 2.819
        },
        {
            "text": "enough abstractions you actually remake",
            "start": 1251.179,
            "duration": 3.301
        },
        {
            "text": "it complicated again facade pattern is",
            "start": 1252.679,
            "duration": 3.181
        },
        {
            "text": "both the best thing in the universe and",
            "start": 1254.48,
            "duration": 3.02
        },
        {
            "text": "the literal worst thing in the universe",
            "start": 1255.86,
            "duration": 5.1
        },
        {
            "text": "details or even arrays yes a dynamic",
            "start": 1257.5,
            "duration": 5.919
        },
        {
            "text": "array like vectors and C plus plus or",
            "start": 1260.96,
            "duration": 5.099
        },
        {
            "text": "array lists in Java are constantly being",
            "start": 1263.419,
            "duration": 5.161
        },
        {
            "text": "resized under the hood thankfully as",
            "start": 1266.059,
            "duration": 4.201
        },
        {
            "text": "programmers we rarely have to think",
            "start": 1268.58,
            "duration": 3.78
        },
        {
            "text": "about memory allocation though if you're",
            "start": 1270.26,
            "duration": 3.779
        },
        {
            "text": "interested to learn more check out my",
            "start": 1272.36,
            "duration": 3.6
        },
        {
            "text": "newly released object-oriented design",
            "start": 1274.039,
            "duration": 4.201
        },
        {
            "text": "interview course we talk this is great",
            "start": 1275.96,
            "duration": 4.44
        },
        {
            "text": "this is fantastic check out his object",
            "start": 1278.24,
            "duration": 4.14
        },
        {
            "text": "oriented design interview course uh",
            "start": 1280.4,
            "duration": 3.36
        },
        {
            "text": "actually it's probably not a bad idea",
            "start": 1282.38,
            "duration": 3.179
        },
        {
            "text": "everyone should learn how to think in",
            "start": 1283.76,
            "duration": 3.419
        },
        {
            "text": "object oriented programming for a moment",
            "start": 1285.559,
            "duration": 4.081
        },
        {
            "text": "just to see how some people structurally",
            "start": 1287.179,
            "duration": 4.081
        },
        {
            "text": "set it up and it can also make things",
            "start": 1289.64,
            "duration": 3.96
        },
        {
            "text": "drawing on a whiteboard really clear and",
            "start": 1291.26,
            "duration": 3.96
        },
        {
            "text": "so often this is just how we naturally",
            "start": 1293.6,
            "duration": 4.86
        },
        {
            "text": "think uh despite it actually being what",
            "start": 1295.22,
            "duration": 5.16
        },
        {
            "text": "is good to program",
            "start": 1298.46,
            "duration": 4.02
        },
        {
            "text": "you know how funny it is it's funny how",
            "start": 1300.38,
            "duration": 3.72
        },
        {
            "text": "that can it's funny how that can be is",
            "start": 1302.48,
            "duration": 3.9
        },
        {
            "text": "that a way we think is not necessarily",
            "start": 1304.1,
            "duration": 4.319
        },
        {
            "text": "like the naturally best way thoughts on",
            "start": 1306.38,
            "duration": 3.36
        },
        {
            "text": "functional options I think functional",
            "start": 1308.419,
            "duration": 2.101
        },
        {
            "text": "you know there's some things about",
            "start": 1309.74,
            "duration": 3.72
        },
        {
            "text": "functionalism that's great uh",
            "start": 1310.52,
            "duration": 4.86
        },
        {
            "text": "private dang I missed it uh will this be",
            "start": 1313.46,
            "duration": 4.44
        },
        {
            "text": "on YouTube yeah this is great uh go",
            "start": 1315.38,
            "duration": 4.02
        },
        {
            "text": "check out neat code I thought this was",
            "start": 1317.9,
            "duration": 3.06
        },
        {
            "text": "great he did a great job went right over",
            "start": 1319.4,
            "duration": 2.94
        },
        {
            "text": "everything",
            "start": 1320.96,
            "duration": 4.14
        },
        {
            "text": "fantastic great video really appreciated",
            "start": 1322.34,
            "duration": 5.28
        },
        {
            "text": "this one uh uh by the way I work at",
            "start": 1325.1,
            "duration": 5.6
        },
        {
            "text": "Netflix if you don't know that",
            "start": 1327.62,
            "duration": 3.08
        }
    ],
    "stats": {
        "viewCount": "384143",
        "likeCount": "10783",
        "favoriteCount": "0",
        "commentCount": "510"
    }
}