{
    "id": "zjBx9ZgjPt4",
    "title": "AWS Fooled Devs &amp; Sabotaged The Industry | Prime Reacts",
    "publishedAt": "2023-11-15T14:00:43Z",
    "captions": [
        {
            "text": "all right Mato is going to tell us a",
            "start": 0.08,
            "duration": 4.52
        },
        {
            "text": "little story right here about how AWS",
            "start": 1.8,
            "duration": 6.2
        },
        {
            "text": "fooled the devs and sabotaged the",
            "start": 4.6,
            "duration": 5.84
        },
        {
            "text": "industry one way or another we are all",
            "start": 8.0,
            "duration": 7.16
        },
        {
            "text": "tied to Amazon Google or Microsoft or",
            "start": 10.44,
            "duration": 7.999
        },
        {
            "text": "GitHub or whatever okay that are",
            "start": 15.16,
            "duration": 5.8
        },
        {
            "text": "investing in some of our Technologies",
            "start": 18.439,
            "duration": 4.641
        },
        {
            "text": "and providing funds in various ways okay",
            "start": 20.96,
            "duration": 3.88
        },
        {
            "text": "I'm not saying it's it's a direct thing",
            "start": 23.08,
            "duration": 4.32
        },
        {
            "text": "okay but they have their own cloud",
            "start": 24.84,
            "duration": 5.199
        },
        {
            "text": "products okay and they are pushing this",
            "start": 27.4,
            "duration": 7.159
        },
        {
            "text": "down okay now the surge of serverless",
            "start": 30.039,
            "duration": 9.121
        },
        {
            "text": "and a lot of other pay by uh millisecond",
            "start": 34.559,
            "duration": 10.68
        },
        {
            "text": "thing okay PID by consume okay has made",
            "start": 39.16,
            "duration": 8.44
        },
        {
            "text": "absolutely damaging for those companies",
            "start": 45.239,
            "duration": 8.041
        },
        {
            "text": "to invest even one dime in performance",
            "start": 47.6,
            "duration": 5.68
        },
        {
            "text": "okay love that take I can't tell you how",
            "start": 55.0,
            "duration": 3.68
        },
        {
            "text": "many times I've seen someone have",
            "start": 57.44,
            "duration": 2.639
        },
        {
            "text": "serverless code and they're just like oh",
            "start": 58.68,
            "duration": 2.8
        },
        {
            "text": "I don't care how it performs you know",
            "start": 60.079,
            "duration": 3.44
        },
        {
            "text": "why cuz it's serverless it'll just go up",
            "start": 61.48,
            "duration": 4.44
        },
        {
            "text": "it it'll just go down nobody cares it's",
            "start": 63.519,
            "duration": 4.161
        },
        {
            "text": "just going to go up it's just going to",
            "start": 65.92,
            "duration": 5.6
        },
        {
            "text": "go down it's just like oh dear goodness",
            "start": 67.68,
            "duration": 5.56
        },
        {
            "text": "okay because here's the deal is that I",
            "start": 71.52,
            "duration": 4.04
        },
        {
            "text": "know a lot of people don't care about",
            "start": 73.24,
            "duration": 4.36
        },
        {
            "text": "performance but there is something about",
            "start": 75.56,
            "duration": 4.48
        },
        {
            "text": "caring about your code in a deep way",
            "start": 77.6,
            "duration": 4.32
        },
        {
            "text": "that if you don't have a thorough caring",
            "start": 80.04,
            "duration": 4.2
        },
        {
            "text": "for it including the performance side I",
            "start": 81.92,
            "duration": 4.68
        },
        {
            "text": "just think you write worse code I just",
            "start": 84.24,
            "duration": 4.16
        },
        {
            "text": "think you're just not in it to win it",
            "start": 86.6,
            "duration": 3.92
        },
        {
            "text": "you're just simply in it to make it done",
            "start": 88.4,
            "duration": 3.719
        },
        {
            "text": "and then after a while that just leads",
            "start": 90.52,
            "duration": 3.68
        },
        {
            "text": "to the worst choices okay you make you",
            "start": 92.119,
            "duration": 4.921
        },
        {
            "text": "do design by Twitter choices I want to",
            "start": 94.2,
            "duration": 5.04
        },
        {
            "text": "see you getting after it I want to see",
            "start": 97.04,
            "duration": 4.16
        },
        {
            "text": "you actually making some good decisions",
            "start": 99.24,
            "duration": 5.28
        },
        {
            "text": "here okay oh fascinating oh my god I've",
            "start": 101.2,
            "duration": 5.8
        },
        {
            "text": "never heard this take I mean duh it",
            "start": 104.52,
            "duration": 4.76
        },
        {
            "text": "makes sense the incentive yeah it's like",
            "start": 107.0,
            "duration": 3.96
        },
        {
            "text": "we don't need your stuff to be slow we",
            "start": 109.28,
            "duration": 4.0
        },
        {
            "text": "don't need it to be fast yeah exactly",
            "start": 110.96,
            "duration": 4.4
        },
        {
            "text": "yeah we are paying us for compute you",
            "start": 113.28,
            "duration": 4.799
        },
        {
            "text": "pay for more resources okay look look",
            "start": 115.36,
            "duration": 4.96
        },
        {
            "text": "even I even even a hotter take than that",
            "start": 118.079,
            "duration": 4.68
        },
        {
            "text": "okay please oh my God all all the hot",
            "start": 120.32,
            "duration": 5.68
        },
        {
            "text": "takes we agree we are going so AWS is",
            "start": 122.759,
            "duration": 6.161
        },
        {
            "text": "going has gone so good length in trying",
            "start": 126.0,
            "duration": 6.959
        },
        {
            "text": "to frame The Narrative that to get more",
            "start": 128.92,
            "duration": 6.44
        },
        {
            "text": "more of your money because you know you",
            "start": 132.959,
            "duration": 4.881
        },
        {
            "text": "know no JS is you know is a synchronous",
            "start": 135.36,
            "duration": 4.12
        },
        {
            "text": "can run multiple request at the same",
            "start": 137.84,
            "duration": 3.679
        },
        {
            "text": "time with great speed",
            "start": 139.48,
            "duration": 5.24
        },
        {
            "text": "right I love",
            "start": 141.519,
            "duration": 7.8
        },
        {
            "text": "Mato Matta is awesome but I do not",
            "start": 144.72,
            "duration": 5.64
        },
        {
            "text": "believe that",
            "start": 149.319,
            "duration": 4.441
        },
        {
            "text": "take continue on right right despite",
            "start": 150.36,
            "duration": 5.12
        },
        {
            "text": "what despite what people who write Ruby",
            "start": 153.76,
            "duration": 4.24
        },
        {
            "text": "or python might tell you okay yeah okay",
            "start": 155.48,
            "duration": 5.44
        },
        {
            "text": "got him got him okay no J this just in",
            "start": 158.0,
            "duration": 5.8
        },
        {
            "text": "no JS is better than Ruby I am totally",
            "start": 160.92,
            "duration": 5.64
        },
        {
            "text": "on your team that no. JS is probably",
            "start": 163.8,
            "duration": 5.079
        },
        {
            "text": "better than Ruby can we get an amen can",
            "start": 166.56,
            "duration": 5.52
        },
        {
            "text": "we get an amen in the chat I believe it",
            "start": 168.879,
            "duration": 5.601
        },
        {
            "text": "I believe it okay I'm not going to say",
            "start": 172.08,
            "duration": 4.32
        },
        {
            "text": "anything negative about python though",
            "start": 174.48,
            "duration": 4.2
        },
        {
            "text": "okay because python you can dip you can",
            "start": 176.4,
            "duration": 4.32
        },
        {
            "text": "dip that little python in the SE just",
            "start": 178.68,
            "duration": 4.919
        },
        {
            "text": "dip that little python right into SE and",
            "start": 180.72,
            "duration": 4.92
        },
        {
            "text": "all of a sudden it gets fast okay so I'm",
            "start": 183.599,
            "duration": 4.64
        },
        {
            "text": "just not going to I'm not going to dunk",
            "start": 185.64,
            "duration": 7.76
        },
        {
            "text": "on the python all right amen and",
            "start": 188.239,
            "duration": 7.72
        },
        {
            "text": "chut so again Ruby and python runs one",
            "start": 193.4,
            "duration": 5.919
        },
        {
            "text": "request at the time okay and uh uh",
            "start": 195.959,
            "duration": 6.681
        },
        {
            "text": "we is that true that can't be true",
            "start": 199.319,
            "duration": 7.081
        },
        {
            "text": "python has I I would be just shook if",
            "start": 202.64,
            "duration": 5.12
        },
        {
            "text": "that was the case right like I would",
            "start": 206.4,
            "duration": 3.72
        },
        {
            "text": "assume D Jango is some sort of they just",
            "start": 207.76,
            "duration": 3.679
        },
        {
            "text": "have some threads right and they have",
            "start": 210.12,
            "duration": 3.72
        },
        {
            "text": "some set of real threads green threads",
            "start": 211.439,
            "duration": 4.401
        },
        {
            "text": "and they just run it in the identical",
            "start": 213.84,
            "duration": 5.119
        },
        {
            "text": "way right python is well python is",
            "start": 215.84,
            "duration": 5.039
        },
        {
            "text": "single thread I mean so is node node is",
            "start": 218.959,
            "duration": 3.84
        },
        {
            "text": "no different yeah they have ayio yeah",
            "start": 220.879,
            "duration": 5.36
        },
        {
            "text": "I've used ayio before jeno you run with",
            "start": 222.799,
            "duration": 5.961
        },
        {
            "text": "celery which does threading okay I hate",
            "start": 226.239,
            "duration": 4.64
        },
        {
            "text": "the names that python comes up with you",
            "start": 228.76,
            "duration": 3.679
        },
        {
            "text": "know just use",
            "start": 230.879,
            "duration": 3.44
        },
        {
            "text": "jeno with",
            "start": 232.439,
            "duration": 4.64
        },
        {
            "text": "celery duh you're just like what the",
            "start": 234.319,
            "duration": 6.0
        },
        {
            "text": "hell did you just say to me boy boy why",
            "start": 237.079,
            "duration": 4.921
        },
        {
            "text": "what the hell did you just say to my",
            "start": 240.319,
            "duration": 3.801
        },
        {
            "text": "face hole and it's just like dude duh",
            "start": 242.0,
            "duration": 4.4
        },
        {
            "text": "everybody knows about celery and D Jango",
            "start": 244.12,
            "duration": 4.64
        },
        {
            "text": "combination you use a little bit of Hugo",
            "start": 246.4,
            "duration": 4.28
        },
        {
            "text": "on the side you're just like dude I hate",
            "start": 248.76,
            "duration": 3.839
        },
        {
            "text": "everything you have to say but okay so",
            "start": 250.68,
            "duration": 5.08
        },
        {
            "text": "this is obviously I don't think I think",
            "start": 252.599,
            "duration": 5.121
        },
        {
            "text": "he's saying the default option is one at",
            "start": 255.76,
            "duration": 4.12
        },
        {
            "text": "a time giving Mato because Matteo is",
            "start": 257.72,
            "duration": 5.24
        },
        {
            "text": "very very smart and so I'd be shocked if",
            "start": 259.88,
            "duration": 5.52
        },
        {
            "text": "he was saying that he thinks uh python",
            "start": 262.96,
            "duration": 6.04
        },
        {
            "text": "is purely uh uh single-threaded he",
            "start": 265.4,
            "duration": 5.2
        },
        {
            "text": "obviously knows it's not purely single",
            "start": 269.0,
            "duration": 3.16
        },
        {
            "text": "threaded because he obviously knows a",
            "start": 270.6,
            "duration": 3.439
        },
        {
            "text": "lot about these kind of things it's just",
            "start": 272.16,
            "duration": 4.08
        },
        {
            "text": "that they don't have an async primitive",
            "start": 274.039,
            "duration": 3.841
        },
        {
            "text": "like JavaScript does right JavaScript",
            "start": 276.24,
            "duration": 4.12
        },
        {
            "text": "you have asyn A8 it's very easy to do",
            "start": 277.88,
            "duration": 4.36
        },
        {
            "text": "the multiprocessing",
            "start": 280.36,
            "duration": 4.6
        },
        {
            "text": "correctly you know what I",
            "start": 282.24,
            "duration": 5.679
        },
        {
            "text": "mean I'm not saying it's it's it's good",
            "start": 284.96,
            "duration": 5.12
        },
        {
            "text": "I'm just saying it's easy to do the",
            "start": 287.919,
            "duration": 5.0
        },
        {
            "text": "multi-processing of requests easily",
            "start": 290.08,
            "duration": 6.08
        },
        {
            "text": "python is purely",
            "start": 292.919,
            "duration": 5.601
        },
        {
            "text": "single-threaded I mean JavaScript is",
            "start": 296.16,
            "duration": 3.96
        },
        {
            "text": "purely single threaded with the great",
            "start": 298.52,
            "duration": 4.2
        },
        {
            "text": "manager python has async too okay I",
            "start": 300.12,
            "duration": 3.76
        },
        {
            "text": "didn't know that it has async does it",
            "start": 302.72,
            "duration": 2.16
        },
        {
            "text": "have like does it have a weight and",
            "start": 303.88,
            "duration": 2.96
        },
        {
            "text": "async and all that I honestly I never",
            "start": 304.88,
            "duration": 4.48
        },
        {
            "text": "use Python I python is the language in",
            "start": 306.84,
            "duration": 3.52
        },
        {
            "text": "which I",
            "start": 309.36,
            "duration": 4.559
        },
        {
            "text": "wish in which I wish I knew better but I",
            "start": 310.36,
            "duration": 5.48
        },
        {
            "text": "have no desire to learn it better it's",
            "start": 313.919,
            "duration": 3.84
        },
        {
            "text": "kind of like you know it's kind of like",
            "start": 315.84,
            "duration": 3.199
        },
        {
            "text": "when someone says I'm going to go learn",
            "start": 317.759,
            "duration": 3.761
        },
        {
            "text": "a language and you're just like ah yeah",
            "start": 319.039,
            "duration": 3.841
        },
        {
            "text": "I'd love to learn a language but I don't",
            "start": 321.52,
            "duration": 4.519
        },
        {
            "text": "really actually care that's",
            "start": 322.88,
            "duration": 5.52
        },
        {
            "text": "python this is great I love Ruby I love",
            "start": 326.039,
            "duration": 4.481
        },
        {
            "text": "python I don't I'm just yeah yeah no",
            "start": 328.4,
            "duration": 3.6
        },
        {
            "text": "nobody's poo pooing on those communities",
            "start": 330.52,
            "duration": 2.84
        },
        {
            "text": "but there's just a lot of poo pooing on",
            "start": 332.0,
            "duration": 4.4
        },
        {
            "text": "node which I uh uh right here I will poo",
            "start": 333.36,
            "duration": 6.36
        },
        {
            "text": "poo on Ruby okay uh line me up set them",
            "start": 336.4,
            "duration": 5.72
        },
        {
            "text": "up I will gladly knock him down I will",
            "start": 339.72,
            "duration": 3.199
        },
        {
            "text": "poo",
            "start": 342.12,
            "duration": 5.32
        },
        {
            "text": "poo all over I don't",
            "start": 342.919,
            "duration": 6.84
        },
        {
            "text": "like you can do the same thing with",
            "start": 347.44,
            "duration": 4.64
        },
        {
            "text": "those Languages by the way you can run",
            "start": 349.759,
            "duration": 4.961
        },
        {
            "text": "event based computation on Ruby and",
            "start": 352.08,
            "duration": 4.92
        },
        {
            "text": "python it doesn't matter okay it's the",
            "start": 354.72,
            "duration": 4.52
        },
        {
            "text": "same logic okay so you have languages",
            "start": 357.0,
            "duration": 5.0
        },
        {
            "text": "that are capable of running multiple",
            "start": 359.24,
            "duration": 4.799
        },
        {
            "text": "requests a lot of them actually",
            "start": 362.0,
            "duration": 4.56
        },
        {
            "text": "thousands on the same process most of",
            "start": 364.039,
            "duration": 5.241
        },
        {
            "text": "our apps literally take some data from a",
            "start": 366.56,
            "duration": 4.88
        },
        {
            "text": "database and send it out by the way if",
            "start": 369.28,
            "duration": 4.319
        },
        {
            "text": "you are running react you cannot do a",
            "start": 371.44,
            "duration": 3.72
        },
        {
            "text": "th000 requests per second like even the",
            "start": 373.599,
            "duration": 3.801
        },
        {
            "text": "most simple react you you're going to be",
            "start": 375.16,
            "duration": 3.92
        },
        {
            "text": "struggling getting a th000 requests per",
            "start": 377.4,
            "duration": 3.32
        },
        {
            "text": "second okay you do a little server",
            "start": 379.08,
            "duration": 5.119
        },
        {
            "text": "render of a of a quick body little di a",
            "start": 380.72,
            "duration": 5.919
        },
        {
            "text": "couple divs in there not going to happen",
            "start": 384.199,
            "duration": 4.56
        },
        {
            "text": "it's just not going to happen sorry",
            "start": 386.639,
            "duration": 4.12
        },
        {
            "text": "server side rendering react just it",
            "start": 388.759,
            "duration": 4.241
        },
        {
            "text": "ain't fast it ain't Speedy okay it's not",
            "start": 390.759,
            "duration": 4.481
        },
        {
            "text": "going to be speedy and that's okay you",
            "start": 393.0,
            "duration": 3.8
        },
        {
            "text": "don't you don't you don't use react to",
            "start": 395.24,
            "duration": 4.0
        },
        {
            "text": "go fast you use react to talk about it",
            "start": 396.8,
            "duration": 4.799
        },
        {
            "text": "on Tech Twitter we all we all know that",
            "start": 399.24,
            "duration": 6.2
        },
        {
            "text": "okay uh okay I know I onreact all",
            "start": 401.599,
            "duration": 5.361
        },
        {
            "text": "the time I'm going to say one nice thing",
            "start": 405.44,
            "duration": 3.44
        },
        {
            "text": "about react",
            "start": 406.96,
            "duration": 4.639
        },
        {
            "text": "react is attempting to continuously",
            "start": 408.88,
            "duration": 5.52
        },
        {
            "text": "improve developer experience and they're",
            "start": 411.599,
            "duration": 6.081
        },
        {
            "text": "trying very hard to do a good job okay",
            "start": 414.4,
            "duration": 5.72
        },
        {
            "text": "so when one database qu is running I can",
            "start": 417.68,
            "duration": 3.88
        },
        {
            "text": "definitely send another one down the",
            "start": 420.12,
            "duration": 4.199
        },
        {
            "text": "line because I'm not you know my CPU and",
            "start": 421.56,
            "duration": 5.28
        },
        {
            "text": "memory are basically idling there I'm",
            "start": 424.319,
            "duration": 5.72
        },
        {
            "text": "trying I tried so nodejs made a huge",
            "start": 426.84,
            "duration": 5.039
        },
        {
            "text": "Splash because it was a synchronous and",
            "start": 430.039,
            "duration": 3.321
        },
        {
            "text": "it was able to handle thousand of",
            "start": 431.879,
            "duration": 3.72
        },
        {
            "text": "concurrent request from a single tiny",
            "start": 433.36,
            "duration": 4.679
        },
        {
            "text": "node process even a tiny Raspberry Pi",
            "start": 435.599,
            "duration": 4.72
        },
        {
            "text": "can run hundreds of concurrent request",
            "start": 438.039,
            "duration": 4.761
        },
        {
            "text": "on most things okay that that is if",
            "start": 440.319,
            "duration": 4.28
        },
        {
            "text": "you're doing nothing right like I do",
            "start": 442.8,
            "duration": 3.76
        },
        {
            "text": "think you need to qualify what what does",
            "start": 444.599,
            "duration": 4.44
        },
        {
            "text": "it mean to run all these requests um you",
            "start": 446.56,
            "duration": 4.12
        },
        {
            "text": "can run sure you can run thousands of",
            "start": 449.039,
            "duration": 3.401
        },
        {
            "text": "requests if your endpoint just as a",
            "start": 450.68,
            "duration": 4.799
        },
        {
            "text": "sleep timeout right a one second sleep",
            "start": 452.44,
            "duration": 4.759
        },
        {
            "text": "uh but what does it mean to actually do",
            "start": 455.479,
            "duration": 2.72
        },
        {
            "text": "something if you're doing any",
            "start": 457.199,
            "duration": 2.961
        },
        {
            "text": "significant work in node that is where",
            "start": 458.199,
            "duration": 4.481
        },
        {
            "text": "you actually start to fall apart right",
            "start": 460.16,
            "duration": 3.96
        },
        {
            "text": "that is where things really start to",
            "start": 462.68,
            "duration": 3.16
        },
        {
            "text": "fall apart and every time you add in",
            "start": 464.12,
            "duration": 4.359
        },
        {
            "text": "promise per request it really genuinely",
            "start": 465.84,
            "duration": 6.079
        },
        {
            "text": "slows down the system a huge amount uh",
            "start": 468.479,
            "duration": 5.481
        },
        {
            "text": "I'm not just blowing not just blowing",
            "start": 471.919,
            "duration": 4.321
        },
        {
            "text": "smoke here's a profile of an application",
            "start": 473.96,
            "duration": 3.72
        },
        {
            "text": "we will be making faster on frontend",
            "start": 476.24,
            "duration": 3.239
        },
        {
            "text": "Masters by the way by the way uh and",
            "start": 477.68,
            "duration": 3.0
        },
        {
            "text": "look at this most of the time you'll",
            "start": 479.479,
            "duration": 3.0
        },
        {
            "text": "notice is spent in idle why are we",
            "start": 480.68,
            "duration": 3.919
        },
        {
            "text": "idling yet when I add more requests our",
            "start": 482.479,
            "duration": 4.0
        },
        {
            "text": "whole thing slows down more it's because",
            "start": 484.599,
            "duration": 3.72
        },
        {
            "text": "the async stuff is actually terribly",
            "start": 486.479,
            "duration": 3.801
        },
        {
            "text": "slow in node uh there's a whole thread",
            "start": 488.319,
            "duration": 6.481
        },
        {
            "text": "on twit twatters why it is but uh you",
            "start": 490.28,
            "duration": 6.599
        },
        {
            "text": "can't just simply keep inserting more",
            "start": 494.8,
            "duration": 4.32
        },
        {
            "text": "and more asynchronicity into your node",
            "start": 496.879,
            "duration": 3.88
        },
        {
            "text": "application assuming it's going to get",
            "start": 499.12,
            "duration": 5.32
        },
        {
            "text": "faster bu bu bu bu AWS convinced",
            "start": 500.759,
            "duration": 5.961
        },
        {
            "text": "everybody that running more than one",
            "start": 504.44,
            "duration": 5.319
        },
        {
            "text": "request at a time per process was wrong",
            "start": 506.72,
            "duration": 5.4
        },
        {
            "text": "and you know they have you pay per",
            "start": 509.759,
            "duration": 5.76
        },
        {
            "text": "second even when that CPU is Idle this",
            "start": 512.12,
            "duration": 7.159
        },
        {
            "text": "is iws Lambda I mean he's absolutely",
            "start": 515.519,
            "duration": 6.281
        },
        {
            "text": "right that has always been the craziest",
            "start": 519.279,
            "duration": 6.56
        },
        {
            "text": "thing about serverless is that why I",
            "start": 521.8,
            "duration": 6.159
        },
        {
            "text": "mean I get the idea but the I but the",
            "start": 525.839,
            "duration": 3.921
        },
        {
            "text": "the just the the sheer notion of one",
            "start": 527.959,
            "duration": 5.44
        },
        {
            "text": "request per process blows my mind right",
            "start": 529.76,
            "duration": 6.44
        },
        {
            "text": "like the entire",
            "start": 533.399,
            "duration": 4.641
        },
        {
            "text": "efficiency of",
            "start": 536.2,
            "duration": 6.04
        },
        {
            "text": "node is is the fact that you can run a",
            "start": 538.04,
            "duration": 6.4
        },
        {
            "text": "like request through a like with a bunch",
            "start": 542.24,
            "duration": 5.4
        },
        {
            "text": "of asynchronous or a concurrency to it",
            "start": 544.44,
            "duration": 5.48
        },
        {
            "text": "where even a pretty Layman programmer",
            "start": 547.64,
            "duration": 4.24
        },
        {
            "text": "can do it pretty successfully like",
            "start": 549.92,
            "duration": 4.159
        },
        {
            "text": "that's like the selling point of node is",
            "start": 551.88,
            "duration": 5.68
        },
        {
            "text": "that it's simple is that it's not hard",
            "start": 554.079,
            "duration": 5.041
        },
        {
            "text": "we actually made a serverless Lambda",
            "start": 557.56,
            "duration": 3.24
        },
        {
            "text": "which waited for a database to respond",
            "start": 559.12,
            "duration": 3.32
        },
        {
            "text": "that was stupid of",
            "start": 560.8,
            "duration": 5.479
        },
        {
            "text": "us yes that is it's the zero start uh",
            "start": 562.44,
            "duration": 6.76
        },
        {
            "text": "off cost that sold everyone yeah yeah",
            "start": 566.279,
            "duration": 5.0
        },
        {
            "text": "the Layman yeah I mean real real talk",
            "start": 569.2,
            "duration": 4.04
        },
        {
            "text": "node has done great things for the",
            "start": 571.279,
            "duration": 3.601
        },
        {
            "text": "programming Community I don't want to",
            "start": 573.24,
            "duration": 4.32
        },
        {
            "text": "crap on or shall I say JavaScript V8 but",
            "start": 574.88,
            "duration": 3.959
        },
        {
            "text": "also node because node makes it",
            "start": 577.56,
            "duration": 3.24
        },
        {
            "text": "accessible where people can build entire",
            "start": 578.839,
            "duration": 4.281
        },
        {
            "text": "Stacks in one language and learn how",
            "start": 580.8,
            "duration": 4.52
        },
        {
            "text": "things work all the way up it's usually",
            "start": 583.12,
            "duration": 3.8
        },
        {
            "text": "not one request per process I it would",
            "start": 585.32,
            "duration": 2.959
        },
        {
            "text": "be crazy but that's kind of the thought",
            "start": 586.92,
            "duration": 2.52
        },
        {
            "text": "process you have to go through you're",
            "start": 588.279,
            "duration": 3.24
        },
        {
            "text": "not thinking about scaling out something",
            "start": 589.44,
            "duration": 4.16
        },
        {
            "text": "to live long term you're thinking about",
            "start": 591.519,
            "duration": 4.121
        },
        {
            "text": "just making it live a single request",
            "start": 593.6,
            "duration": 4.479
        },
        {
            "text": "cycle which is very very different so if",
            "start": 595.64,
            "duration": 4.48
        },
        {
            "text": "you use a WS lamb that you're paying",
            "start": 598.079,
            "duration": 4.601
        },
        {
            "text": "even if your CPU is literally doing",
            "start": 600.12,
            "duration": 6.399
        },
        {
            "text": "nothing and everybody is believing in",
            "start": 602.68,
            "duration": 8.04
        },
        {
            "text": "this massive lie essentially that is a",
            "start": 606.519,
            "duration": 8.641
        },
        {
            "text": "better model it's better for",
            "start": 610.72,
            "duration": 7.48
        },
        {
            "text": "them so I will in defense of serverless",
            "start": 615.16,
            "duration": 4.919
        },
        {
            "text": "or shall I say lambas or any of these",
            "start": 618.2,
            "duration": 4.759
        },
        {
            "text": "things is that you also get the ability",
            "start": 620.079,
            "duration": 4.401
        },
        {
            "text": "if you write your program in such a way",
            "start": 622.959,
            "duration": 3.56
        },
        {
            "text": "you also get the ability to just kind of",
            "start": 624.48,
            "duration": 4.12
        },
        {
            "text": "like move it anywhere it needs to be and",
            "start": 626.519,
            "duration": 3.361
        },
        {
            "text": "this is where all that edge Computing",
            "start": 628.6,
            "duration": 2.76
        },
        {
            "text": "and everything this whole notion comes",
            "start": 629.88,
            "duration": 3.56
        },
        {
            "text": "from is that you can be able to go to",
            "start": 631.36,
            "duration": 5.08
        },
        {
            "text": "any region and run it which does I mean",
            "start": 633.44,
            "duration": 5.48
        },
        {
            "text": "it it can be better and to write that",
            "start": 636.44,
            "duration": 3.88
        },
        {
            "text": "type of infrastructure to have",
            "start": 638.92,
            "duration": 3.359
        },
        {
            "text": "multi-regional support and all this kind",
            "start": 640.32,
            "duration": 4.28
        },
        {
            "text": "of crap is actually really really",
            "start": 642.279,
            "duration": 4.441
        },
        {
            "text": "difficult and it it's not like you can",
            "start": 644.6,
            "duration": 5.32
        },
        {
            "text": "just just you can't just simply do it",
            "start": 646.72,
            "duration": 5.2
        },
        {
            "text": "with one person also building the UI so",
            "start": 649.92,
            "duration": 5.64
        },
        {
            "text": "there is an obvious cost benefit to",
            "start": 651.92,
            "duration": 5.719
        },
        {
            "text": "creating an application that uses these",
            "start": 655.56,
            "duration": 3.92
        },
        {
            "text": "tools because you don't have to hire",
            "start": 657.639,
            "duration": 4.081
        },
        {
            "text": "somebody to actually run all of your",
            "start": 659.48,
            "duration": 4.2
        },
        {
            "text": "infrastructure so there is like a real",
            "start": 661.72,
            "duration": 4.16
        },
        {
            "text": "win there right there is definitely a",
            "start": 663.68,
            "duration": 4.839
        },
        {
            "text": "real win fly iio yeah exactly like fly",
            "start": 665.88,
            "duration": 4.68
        },
        {
            "text": "iio shuttle RS like these are all",
            "start": 668.519,
            "duration": 3.721
        },
        {
            "text": "companies that are trying to do the same",
            "start": 670.56,
            "duration": 3.079
        },
        {
            "text": "thing even for sell for sell's doing the",
            "start": 672.24,
            "duration": 2.36
        },
        {
            "text": "exact same thing where they're just",
            "start": 673.639,
            "duration": 3.961
        },
        {
            "text": "trying to make you uh like forget about",
            "start": 674.6,
            "duration": 6.88
        },
        {
            "text": "infrastructure and hey you will pay more",
            "start": 677.6,
            "duration": 6.72
        },
        {
            "text": "but you like you don't pay more because",
            "start": 681.48,
            "duration": 4.12
        },
        {
            "text": "you don't have to hire someone because",
            "start": 684.32,
            "duration": 3.72
        },
        {
            "text": "your idea doesn't really even have uh",
            "start": 685.6,
            "duration": 4.239
        },
        {
            "text": "fruition yet right it's just barely",
            "start": 688.04,
            "duration": 3.76
        },
        {
            "text": "starting so it is good to to think about",
            "start": 689.839,
            "duration": 3.881
        },
        {
            "text": "that uh in defense of serverless you",
            "start": 691.8,
            "duration": 3.0
        },
        {
            "text": "also have the ability to burn through",
            "start": 693.72,
            "duration": 2.76
        },
        {
            "text": "investors money faster yeah I don't know",
            "start": 694.8,
            "duration": 3.56
        },
        {
            "text": "if that's actually true right like real",
            "start": 696.48,
            "duration": 3.799
        },
        {
            "text": "talk is that actually true let's just",
            "start": 698.36,
            "duration": 3.68
        },
        {
            "text": "say that you have two devs building an",
            "start": 700.279,
            "duration": 3.12
        },
        {
            "text": "application okay that's it we're",
            "start": 702.04,
            "duration": 2.68
        },
        {
            "text": "whipping it out I actually want to hear",
            "start": 703.399,
            "duration": 3.481
        },
        {
            "text": "that I actually do want to hear this uh",
            "start": 704.72,
            "duration": 3.799
        },
        {
            "text": "Kaji okay hold we're bringing you up",
            "start": 706.88,
            "duration": 3.44
        },
        {
            "text": "you're getting on the big board def",
            "start": 708.519,
            "duration": 4.681
        },
        {
            "text": "defend this one defend your argument",
            "start": 710.32,
            "duration": 4.6
        },
        {
            "text": "right here because I want to hear why",
            "start": 713.2,
            "duration": 3.6
        },
        {
            "text": "it's time we're doing this we're doing",
            "start": 714.92,
            "duration": 3.2
        },
        {
            "text": "this live we're doing a little you know",
            "start": 716.8,
            "duration": 2.52
        },
        {
            "text": "I want I want I want to know know I want",
            "start": 718.12,
            "duration": 3.24
        },
        {
            "text": "to know about your thought process here",
            "start": 719.32,
            "duration": 3.8
        },
        {
            "text": "I'll wait I I'm fine waiting I'm waiting",
            "start": 721.36,
            "duration": 2.96
        },
        {
            "text": "I'm waiting for",
            "start": 723.12,
            "duration": 5.24
        },
        {
            "text": "you AWS gives you like",
            "start": 724.32,
            "duration": 7.48
        },
        {
            "text": "100k uh free credit to Young startup did",
            "start": 728.36,
            "duration": 4.919
        },
        {
            "text": "you just wait hold on are you agreeing",
            "start": 731.8,
            "duration": 4.12
        },
        {
            "text": "with me now then the startup uh starts",
            "start": 733.279,
            "duration": 4.0
        },
        {
            "text": "building a pipeline that is going to",
            "start": 735.92,
            "duration": 4.76
        },
        {
            "text": "burn that in months okay okay okay I see",
            "start": 737.279,
            "duration": 4.841
        },
        {
            "text": "what you're saying they play the long",
            "start": 740.68,
            "duration": 3.8
        },
        {
            "text": "game okay okay so let's let's go through",
            "start": 742.12,
            "duration": 3.8
        },
        {
            "text": "this again in defense of serverless you",
            "start": 744.48,
            "duration": 2.56
        },
        {
            "text": "have the ability to burn through your",
            "start": 745.92,
            "duration": 3.2
        },
        {
            "text": "Investor's money faster with hype a s",
            "start": 747.04,
            "duration": 3.96
        },
        {
            "text": "gives you 100K of free credits to a",
            "start": 749.12,
            "duration": 3.959
        },
        {
            "text": "young startup then the startup starts",
            "start": 751.0,
            "duration": 3.68
        },
        {
            "text": "building a pipeline that is going to",
            "start": 753.079,
            "duration": 6.401
        },
        {
            "text": "burn that in months um I mean first off",
            "start": 754.68,
            "duration": 6.24
        },
        {
            "text": "you're you're making the the greatest",
            "start": 759.48,
            "duration": 3.56
        },
        {
            "text": "logical fallacy right off the rip which",
            "start": 760.92,
            "duration": 4.039
        },
        {
            "text": "is that startups have users okay we",
            "start": 763.04,
            "duration": 3.68
        },
        {
            "text": "don't have users okay we go from one",
            "start": 764.959,
            "duration": 4.32
        },
        {
            "text": "user to two users to four users over the",
            "start": 766.72,
            "duration": 4.359
        },
        {
            "text": "course of multiple months showing",
            "start": 769.279,
            "duration": 5.441
        },
        {
            "text": "doubling in user growth all",
            "start": 771.079,
            "duration": 6.481
        },
        {
            "text": "right double and then you double again",
            "start": 774.72,
            "duration": 6.0
        },
        {
            "text": "then you double again in okay it's about",
            "start": 777.56,
            "duration": 4.76
        },
        {
            "text": "growth it's not about any absolute",
            "start": 780.72,
            "duration": 3.359
        },
        {
            "text": "position we don't talk about absolutes",
            "start": 782.32,
            "duration": 3.519
        },
        {
            "text": "around here okay it's all about relative",
            "start": 784.079,
            "duration": 3.721
        },
        {
            "text": "positioning second off is this actually",
            "start": 785.839,
            "duration": 3.721
        },
        {
            "text": "true I",
            "start": 787.8,
            "duration": 5.24
        },
        {
            "text": "mean obviously AWS wants to give you",
            "start": 789.56,
            "duration": 5.56
        },
        {
            "text": "these free little bits because they want",
            "start": 793.04,
            "duration": 3.919
        },
        {
            "text": "you to use them because they know that",
            "start": 795.12,
            "duration": 3.48
        },
        {
            "text": "if they can get you on it and you build",
            "start": 796.959,
            "duration": 4.841
        },
        {
            "text": "an infrastructure around it you",
            "start": 798.6,
            "duration": 6.56
        },
        {
            "text": "will end up having to start using them",
            "start": 801.8,
            "duration": 5.24
        },
        {
            "text": "without the credits you're absolutely",
            "start": 805.16,
            "duration": 3.76
        },
        {
            "text": "right on that but I do want you to think",
            "start": 807.04,
            "duration": 3.159
        },
        {
            "text": "about the other side of things for just",
            "start": 808.92,
            "duration": 3.44
        },
        {
            "text": "a quick second okay like let's let's",
            "start": 810.199,
            "duration": 4.041
        },
        {
            "text": "just be real for a quick second here",
            "start": 812.36,
            "duration": 3.68
        },
        {
            "text": "while I'm in white light mode this is",
            "start": 814.24,
            "duration": 5.32
        },
        {
            "text": "emotionally painful let's uh hold this",
            "start": 816.04,
            "duration": 4.84
        },
        {
            "text": "is me trying to explain the difference",
            "start": 819.56,
            "duration": 2.959
        },
        {
            "text": "between a 303 and a 302 if you don't",
            "start": 820.88,
            "duration": 4.319
        },
        {
            "text": "know the difference you are weak um all",
            "start": 822.519,
            "duration": 4.601
        },
        {
            "text": "right this is really painful so let's go",
            "start": 825.199,
            "duration": 4.401
        },
        {
            "text": "like this let's go into where where is",
            "start": 827.12,
            "duration": 4.12
        },
        {
            "text": "dark mode dude I never remember where I",
            "start": 829.6,
            "duration": 3.88
        },
        {
            "text": "swear dark mode is",
            "start": 831.24,
            "duration": 4.56
        },
        {
            "text": "right here",
            "start": 833.48,
            "duration": 7.08
        },
        {
            "text": "okay stop moving all right",
            "start": 835.8,
            "duration": 6.959
        },
        {
            "text": "so this is how I kind of think about it",
            "start": 840.56,
            "duration": 5.04
        },
        {
            "text": "is that you have something like two",
            "start": 842.759,
            "duration": 5.76
        },
        {
            "text": "devs uh both both obviously doing full",
            "start": 845.6,
            "duration": 5.52
        },
        {
            "text": "stack uh HTM X because you you built a",
            "start": 848.519,
            "duration": 4.721
        },
        {
            "text": "good startup okay and so this is going",
            "start": 851.12,
            "duration": 4.56
        },
        {
            "text": "to cost you something like you know if",
            "start": 853.24,
            "duration": 4.2
        },
        {
            "text": "you do all the benefits depending on how",
            "start": 855.68,
            "duration": 3.599
        },
        {
            "text": "competitive your your pay is the fully",
            "start": 857.44,
            "duration": 3.48
        },
        {
            "text": "loaded stuff you also have to have",
            "start": 859.279,
            "duration": 3.201
        },
        {
            "text": "management software all these different",
            "start": 860.92,
            "duration": 3.24
        },
        {
            "text": "things that adhere to government 6%",
            "start": 862.48,
            "duration": 3.719
        },
        {
            "text": "Social Security tax blah blah blah blah",
            "start": 864.16,
            "duration": 3.799
        },
        {
            "text": "so let's just say you're paying them",
            "start": 866.199,
            "duration": 4.361
        },
        {
            "text": "100k each cuz this is a startup and",
            "start": 867.959,
            "duration": 3.961
        },
        {
            "text": "these are the founding devs and you're",
            "start": 870.56,
            "duration": 2.639
        },
        {
            "text": "trying to pay each other so that way you",
            "start": 871.92,
            "duration": 3.039
        },
        {
            "text": "can you know not die so really your",
            "start": 873.199,
            "duration": 3.841
        },
        {
            "text": "fully loaded cost is going to be",
            "start": 874.959,
            "duration": 3.401
        },
        {
            "text": "something like double that so it's going",
            "start": 877.04,
            "duration": 3.719
        },
        {
            "text": "to be about 400k now if you were to be",
            "start": 878.36,
            "duration": 5.399
        },
        {
            "text": "like hey I don't want to have to use uh",
            "start": 880.759,
            "duration": 4.2
        },
        {
            "text": "server lless because I don't want to",
            "start": 883.759,
            "duration": 2.921
        },
        {
            "text": "have to pay a lot of money in the end",
            "start": 884.959,
            "duration": 3.44
        },
        {
            "text": "we're going to have to hire a non-f",
            "start": 886.68,
            "duration": 3.68
        },
        {
            "text": "founding engineer and we need to be able",
            "start": 888.399,
            "duration": 3.88
        },
        {
            "text": "to pay him competitively therefore",
            "start": 890.36,
            "duration": 3.76
        },
        {
            "text": "you're going to have to have one infra",
            "start": 892.279,
            "duration": 3.881
        },
        {
            "text": "like Dev right that's actually doing all",
            "start": 894.12,
            "duration": 3.68
        },
        {
            "text": "these things and that is going to cost",
            "start": 896.16,
            "duration": 2.799
        },
        {
            "text": "all of a sudden a lot more because",
            "start": 897.8,
            "duration": 2.56
        },
        {
            "text": "they're not getting all the stalks up",
            "start": 898.959,
            "duration": 3.601
        },
        {
            "text": "here your payment is in stalks right",
            "start": 900.36,
            "duration": 5.479
        },
        {
            "text": "you're betting on the company down here",
            "start": 902.56,
            "duration": 5.399
        },
        {
            "text": "maybe less ston right maybe this person",
            "start": 905.839,
            "duration": 4.721
        },
        {
            "text": "wants much less ston again fully loaded",
            "start": 907.959,
            "duration": 5.161
        },
        {
            "text": "cost care all that crap that goes with",
            "start": 910.56,
            "duration": 6.279
        },
        {
            "text": "it cost more right and so they get less",
            "start": 913.12,
            "duration": 6.279
        },
        {
            "text": "STS",
            "start": 916.839,
            "duration": 2.56
        },
        {
            "text": "right but this is very important to",
            "start": 919.56,
            "duration": 4.399
        },
        {
            "text": "understand is that will your AWS cost",
            "start": 921.88,
            "duration": 4.28
        },
        {
            "text": "something like 300,000 a year to begin",
            "start": 923.959,
            "duration": 4.841
        },
        {
            "text": "with in your company that doesn't even",
            "start": 926.16,
            "duration": 5.679
        },
        {
            "text": "have any actual users my my guess is no",
            "start": 928.8,
            "duration": 5.2
        },
        {
            "text": "it won't so do I think that start that",
            "start": 931.839,
            "duration": 4.281
        },
        {
            "text": "startups should use serverless I",
            "start": 934.0,
            "duration": 4.16
        },
        {
            "text": "actually think it's a pretty good",
            "start": 936.12,
            "duration": 5.0
        },
        {
            "text": "starting point but you want to build",
            "start": 938.16,
            "duration": 5.32
        },
        {
            "text": "your application in such a way that when",
            "start": 941.12,
            "duration": 3.159
        },
        {
            "text": "you",
            "start": 943.48,
            "duration": 4.799
        },
        {
            "text": "need to actually go off of startup or",
            "start": 944.279,
            "duration": 6.721
        },
        {
            "text": "out of startup mode you can right you",
            "start": 948.279,
            "duration": 4.56
        },
        {
            "text": "don't want to build it in such a way",
            "start": 951.0,
            "duration": 3.88
        },
        {
            "text": "that is just like fully relying on every",
            "start": 952.839,
            "duration": 4.961
        },
        {
            "text": "last piece uh I am a big fan of managed",
            "start": 954.88,
            "duration": 5.079
        },
        {
            "text": "databases that's why why I love Tel uh",
            "start": 957.8,
            "duration": 4.279
        },
        {
            "text": "I'm a big fan of certain aspects of this",
            "start": 959.959,
            "duration": 3.32
        },
        {
            "text": "cuz I think they're really really good",
            "start": 962.079,
            "duration": 2.801
        },
        {
            "text": "but you got to be careful on exactly",
            "start": 963.279,
            "duration": 5.0
        },
        {
            "text": "what you use um you got to set limits",
            "start": 964.88,
            "duration": 5.12
        },
        {
            "text": "you got to set alerts you got to do all",
            "start": 968.279,
            "duration": 2.961
        },
        {
            "text": "the things smart so you don't",
            "start": 970.0,
            "duration": 3.16
        },
        {
            "text": "accidentally wake up to $100,000 spent",
            "start": 971.24,
            "duration": 3.039
        },
        {
            "text": "in a single night because you actually",
            "start": 973.16,
            "duration": 3.28
        },
        {
            "text": "did a recursive AWS call you know what I",
            "start": 974.279,
            "duration": 4.721
        },
        {
            "text": "mean you got to be a bit",
            "start": 976.44,
            "duration": 4.839
        },
        {
            "text": "smart uh but serverless has heavy lock",
            "start": 979.0,
            "duration": 4.68
        },
        {
            "text": "in uh it doesn't it doesn't right it",
            "start": 981.279,
            "duration": 4.881
        },
        {
            "text": "just it really a some part of it is",
            "start": 983.68,
            "duration": 4.12
        },
        {
            "text": "going to have to be how you write your",
            "start": 986.16,
            "duration": 3.76
        },
        {
            "text": "code if you write your code like it it's",
            "start": 987.8,
            "duration": 4.44
        },
        {
            "text": "going to be a single request p uh a",
            "start": 989.92,
            "duration": 4.159
        },
        {
            "text": "single process per request and you just",
            "start": 992.24,
            "duration": 3.92
        },
        {
            "text": "ejaculate code in there and you build",
            "start": 994.079,
            "duration": 3.721
        },
        {
            "text": "everything around this notion of having",
            "start": 996.16,
            "duration": 3.159
        },
        {
            "text": "zero State always and every connection",
            "start": 997.8,
            "duration": 2.92
        },
        {
            "text": "has to be built up for the first time",
            "start": 999.319,
            "duration": 2.921
        },
        {
            "text": "ever yeah you're going to have problems",
            "start": 1000.72,
            "duration": 3.919
        },
        {
            "text": "transferring that into a full process",
            "start": 1002.24,
            "duration": 4.0
        },
        {
            "text": "maybe don't build it that way maybe",
            "start": 1004.639,
            "duration": 2.88
        },
        {
            "text": "think about",
            "start": 1006.24,
            "duration": 4.839
        },
        {
            "text": "things in a slightly longer term fashion",
            "start": 1007.519,
            "duration": 5.56
        },
        {
            "text": "okay it's you know it you need to know",
            "start": 1011.079,
            "duration": 3.88
        },
        {
            "text": "the trade-offs lambdas are great at low",
            "start": 1013.079,
            "duration": 3.481
        },
        {
            "text": "volume because they scale to zero and",
            "start": 1014.959,
            "duration": 4.36
        },
        {
            "text": "start very fast in generically schem of",
            "start": 1016.56,
            "duration": 5.16
        },
        {
            "text": "thing try running a lot of lambas",
            "start": 1019.319,
            "duration": 4.961
        },
        {
            "text": "lambdas and then check your AWS Bill",
            "start": 1021.72,
            "duration": 4.56
        },
        {
            "text": "okay this is going to be you're going to",
            "start": 1024.28,
            "duration": 4.36
        },
        {
            "text": "be hit pretty heavily down if if you if",
            "start": 1026.28,
            "duration": 5.759
        },
        {
            "text": "you have a lot of Lambda calls because",
            "start": 1028.64,
            "duration": 5.279
        },
        {
            "text": "or even worse you know that there is a",
            "start": 1032.039,
            "duration": 3.88
        },
        {
            "text": "massive amount of limit of how many",
            "start": 1033.919,
            "duration": 4.481
        },
        {
            "text": "lambdas you can spawn on a single AWS",
            "start": 1035.919,
            "duration": 4.961
        },
        {
            "text": "account I know if you know this but oh I",
            "start": 1038.4,
            "duration": 3.679
        },
        {
            "text": "didn't know that I didn't know that",
            "start": 1040.88,
            "duration": 2.559
        },
        {
            "text": "either how many can you have",
            "start": 1042.079,
            "duration": 3.36
        },
        {
            "text": "simultaneous I think by default is I",
            "start": 1043.439,
            "duration": 4.801
        },
        {
            "text": "think 256 oh the old the the old two to",
            "start": 1045.439,
            "duration": 5.161
        },
        {
            "text": "the eight who doesn't like a little two",
            "start": 1048.24,
            "duration": 4.4
        },
        {
            "text": "to the8 limitations I think that is",
            "start": 1050.6,
            "duration": 4.04
        },
        {
            "text": "completely reasonable to make it a power",
            "start": 1052.64,
            "duration": 5.12
        },
        {
            "text": "of two this also isn't true is it not",
            "start": 1054.64,
            "duration": 6.68
        },
        {
            "text": "true 256 by the way I think it is a th",
            "start": 1057.76,
            "duration": 5.48
        },
        {
            "text": "per account okay it's a th000 per",
            "start": 1061.32,
            "duration": 4.68
        },
        {
            "text": "account it's closer to 10K to 100K 2 to",
            "start": 1063.24,
            "duration": 5.72
        },
        {
            "text": "the 8 100K 1,000 it sounds like all of",
            "start": 1066.0,
            "duration": 6.44
        },
        {
            "text": "you are are telling me different things",
            "start": 1068.96,
            "duration": 5.36
        },
        {
            "text": "checked uh checked that but it is a",
            "start": 1072.44,
            "duration": 4.04
        },
        {
            "text": "th000 per Lambda okay so it's a th000",
            "start": 1074.32,
            "duration": 5.44
        },
        {
            "text": "420 16.5 five lambdas that's probably",
            "start": 1076.48,
            "duration": 4.96
        },
        {
            "text": "the most accurate one am I at an auction",
            "start": 1079.76,
            "duration": 3.68
        },
        {
            "text": "you are at an auction you can under 256",
            "start": 1081.44,
            "duration": 4.4
        },
        {
            "text": "concurrent requests on the default",
            "start": 1083.44,
            "duration": 6.16
        },
        {
            "text": "account you need to raise it okay so did",
            "start": 1085.84,
            "duration": 6.319
        },
        {
            "text": "you guys check to see that a default",
            "start": 1089.6,
            "duration": 4.52
        },
        {
            "text": "account because I mean he's talking",
            "start": 1092.159,
            "duration": 5.481
        },
        {
            "text": "about the very first entry into AWS it",
            "start": 1094.12,
            "duration": 4.799
        },
        {
            "text": "can be raised okay yeah I know but",
            "start": 1097.64,
            "duration": 3.279
        },
        {
            "text": "that's that's that's good to know right",
            "start": 1098.919,
            "duration": 3.161
        },
        {
            "text": "it's good to know that you have a",
            "start": 1100.919,
            "duration": 3.161
        },
        {
            "text": "default of some lower value if you",
            "start": 1102.08,
            "duration": 4.12
        },
        {
            "text": "planned on scaling hard and all of a",
            "start": 1104.08,
            "duration": 5.0
        },
        {
            "text": "sudden you get hit with a like uh the",
            "start": 1106.2,
            "duration": 4.52
        },
        {
            "text": "correct answer is I don't know yes that",
            "start": 1109.08,
            "duration": 3.16
        },
        {
            "text": "is the correct answer but real talk like",
            "start": 1110.72,
            "duration": 3.36
        },
        {
            "text": "if you didn't know that there's this",
            "start": 1112.24,
            "duration": 4.88
        },
        {
            "text": "hard limit that exists somewhere and you",
            "start": 1114.08,
            "duration": 6.079
        },
        {
            "text": "all of a sudden like drop your stuff on",
            "start": 1117.12,
            "duration": 4.679
        },
        {
            "text": "some sort of you know whatever it is",
            "start": 1120.159,
            "duration": 4.841
        },
        {
            "text": "product hunt whatever and you just get",
            "start": 1121.799,
            "duration": 5.36
        },
        {
            "text": "absolutely limited on how many requests",
            "start": 1125.0,
            "duration": 3.6
        },
        {
            "text": "you can make for a moment like that",
            "start": 1127.159,
            "duration": 4.201
        },
        {
            "text": "could be that won't reflect well right",
            "start": 1128.6,
            "duration": 4.68
        },
        {
            "text": "it's it's good it prevents dos a cost",
            "start": 1131.36,
            "duration": 4.199
        },
        {
            "text": "attack that's good I mean dos that that",
            "start": 1133.28,
            "duration": 4.48
        },
        {
            "text": "I mean the limit is important I I",
            "start": 1135.559,
            "duration": 3.761
        },
        {
            "text": "understand that uh the only hard limit I",
            "start": 1137.76,
            "duration": 3.799
        },
        {
            "text": "know about AWS is the number of T3",
            "start": 1139.32,
            "duration": 4.64
        },
        {
            "text": "instances you can have that's not great",
            "start": 1141.559,
            "duration": 6.281
        },
        {
            "text": "yeah oh wow and if you run out okay then",
            "start": 1143.96,
            "duration": 7.48
        },
        {
            "text": "they start getting cute wow and in the",
            "start": 1147.84,
            "duration": 5.92
        },
        {
            "text": "same time you can you know oh wait a sec",
            "start": 1151.44,
            "duration": 6.44
        },
        {
            "text": "I I can spawn 10,000 lambdas okay wait a",
            "start": 1153.76,
            "duration": 6.56
        },
        {
            "text": "second I can run 10,000 concr request on",
            "start": 1157.88,
            "duration": 5.36
        },
        {
            "text": "a single uh machine on",
            "start": 1160.32,
            "duration": 5.88
        },
        {
            "text": "fargate and it's significantly better",
            "start": 1163.24,
            "duration": 5.559
        },
        {
            "text": "performance and but very interesting",
            "start": 1166.2,
            "duration": 5.04
        },
        {
            "text": "they don't ship scale to zero on fargate",
            "start": 1168.799,
            "duration": 4.36
        },
        {
            "text": "sorry you know I'm just calling out the",
            "start": 1171.24,
            "duration": 5.919
        },
        {
            "text": "Ws bad Market strategy to to sabotage",
            "start": 1173.159,
            "duration": 5.64
        },
        {
            "text": "the industry but that's the to make more",
            "start": 1177.159,
            "duration": 3.441
        },
        {
            "text": "money which is great for",
            "start": 1178.799,
            "duration": 5.161
        },
        {
            "text": "them I I mean I honestly I do I do AG I",
            "start": 1180.6,
            "duration": 5.48
        },
        {
            "text": "I do like everything he had to say even",
            "start": 1183.96,
            "duration": 3.64
        },
        {
            "text": "if the numbers were slightly inaccurate",
            "start": 1186.08,
            "duration": 3.88
        },
        {
            "text": "based on what chat's saying that doesn't",
            "start": 1187.6,
            "duration": 4.84
        },
        {
            "text": "bother me right uh those kind of Notions",
            "start": 1189.96,
            "duration": 4.28
        },
        {
            "text": "where like hey I like mat ta but this",
            "start": 1192.44,
            "duration": 2.92
        },
        {
            "text": "isn't true I mean there is a lot of",
            "start": 1194.24,
            "duration": 2.36
        },
        {
            "text": "things that are true about what he's",
            "start": 1195.36,
            "duration": 2.4
        },
        {
            "text": "trying to say which is like when you",
            "start": 1196.6,
            "duration": 2.8
        },
        {
            "text": "build your infrastructure around a very",
            "start": 1197.76,
            "duration": 3.32
        },
        {
            "text": "specific thing like this it can cost a",
            "start": 1199.4,
            "duration": 3.2
        },
        {
            "text": "lot of money how many articles have we",
            "start": 1201.08,
            "duration": 3.12
        },
        {
            "text": "read in which people simply get off some",
            "start": 1202.6,
            "duration": 3.959
        },
        {
            "text": "AWS Lambda calls and they reduce their",
            "start": 1204.2,
            "duration": 4.959
        },
        {
            "text": "monthly uh Burn by like $30,000 a month",
            "start": 1206.559,
            "duration": 4.36
        },
        {
            "text": "we've done several of these it almost",
            "start": 1209.159,
            "duration": 4.0
        },
        {
            "text": "exclusively involves Elixir sometimes I",
            "start": 1210.919,
            "duration": 4.161
        },
        {
            "text": "feel like I'm uh kind of a little bit",
            "start": 1213.159,
            "duration": 4.76
        },
        {
            "text": "like elixir envious because I don't know",
            "start": 1215.08,
            "duration": 5.04
        },
        {
            "text": "Elixir and every time I hear about",
            "start": 1217.919,
            "duration": 3.801
        },
        {
            "text": "Elixir it's always with someone making a",
            "start": 1220.12,
            "duration": 3.679
        },
        {
            "text": "really great server and maybe I'm wrong",
            "start": 1221.72,
            "duration": 4.319
        },
        {
            "text": "could I be the person that's wrong no",
            "start": 1223.799,
            "duration": 5.321
        },
        {
            "text": "the kids are the ones out of touch um",
            "start": 1226.039,
            "duration": 5.0
        },
        {
            "text": "and so maybe Elixir is a great thing to",
            "start": 1229.12,
            "duration": 5.919
        },
        {
            "text": "learn I don't know I don't know uh",
            "start": 1231.039,
            "duration": 5.76
        },
        {
            "text": "sometimes you have to exaggerate uh to",
            "start": 1235.039,
            "duration": 4.441
        },
        {
            "text": "make them see the point yeah so that's",
            "start": 1236.799,
            "duration": 4.12
        },
        {
            "text": "what I damn kids that's what I'm trying",
            "start": 1239.48,
            "duration": 3.319
        },
        {
            "text": "to like think about get out of here",
            "start": 1240.919,
            "duration": 3.64
        },
        {
            "text": "that's right night sh dude was so ready",
            "start": 1242.799,
            "duration": 2.961
        },
        {
            "text": "for you get him out of here get that",
            "start": 1244.559,
            "duration": 3.281
        },
        {
            "text": "Elixir shill out of here but real talk",
            "start": 1245.76,
            "duration": 3.52
        },
        {
            "text": "like just something I've been thinking",
            "start": 1247.84,
            "duration": 3.319
        },
        {
            "text": "more and more about which is you know",
            "start": 1249.28,
            "duration": 3.84
        },
        {
            "text": "what is the cost of these things is it",
            "start": 1251.159,
            "duration": 4.361
        },
        {
            "text": "actually worth it is Tech Twitter really",
            "start": 1253.12,
            "duration": 4.559
        },
        {
            "text": "steering people in the right directions",
            "start": 1255.52,
            "duration": 4.519
        },
        {
            "text": "because at the end of the day when you",
            "start": 1257.679,
            "duration": 6.281
        },
        {
            "text": "get past phase zero to phase one is all",
            "start": 1260.039,
            "duration": 5.961
        },
        {
            "text": "of this things that you've built worth",
            "start": 1263.96,
            "duration": 5.24
        },
        {
            "text": "it how many stories do we have to read",
            "start": 1266.0,
            "duration": 4.559
        },
        {
            "text": "where the company's literally spending",
            "start": 1269.2,
            "duration": 3.4
        },
        {
            "text": "hundreds of thousands of dollars a year",
            "start": 1270.559,
            "duration": 3.921
        },
        {
            "text": "because they just they they went all in",
            "start": 1272.6,
            "duration": 3.72
        },
        {
            "text": "on a specific technology and now the",
            "start": 1274.48,
            "duration": 5.48
        },
        {
            "text": "specific technology is really",
            "start": 1276.32,
            "duration": 5.839
        },
        {
            "text": "expensive I don't know it's just a good",
            "start": 1279.96,
            "duration": 4.56
        },
        {
            "text": "thing to know it's a good thing to think",
            "start": 1282.159,
            "duration": 4.281
        },
        {
            "text": "about and it is something that we should",
            "start": 1284.52,
            "duration": 3.72
        },
        {
            "text": "probably you know you you should be a",
            "start": 1286.44,
            "duration": 3.359
        },
        {
            "text": "little bit you should be a little bit",
            "start": 1288.24,
            "duration": 3.96
        },
        {
            "text": "more careful about because it is totally",
            "start": 1289.799,
            "duration": 5.401
        },
        {
            "text": "not you know you got to be careful and",
            "start": 1292.2,
            "duration": 6.079
        },
        {
            "text": "so I I want to live in that way where I",
            "start": 1295.2,
            "duration": 4.359
        },
        {
            "text": "think about things a little bit more and",
            "start": 1298.279,
            "duration": 2.681
        },
        {
            "text": "I don't just promote something because",
            "start": 1299.559,
            "duration": 4.841
        },
        {
            "text": "it's easy do you know what I mean the",
            "start": 1300.96,
            "duration": 7.28
        },
        {
            "text": "name is the prim ofy",
            "start": 1304.4,
            "duration": 3.84
        }
    ],
    "stats": {
        "viewCount": "205577",
        "likeCount": "4762",
        "favoriteCount": "0",
        "commentCount": "553"
    }
}