{
    "id": "znmZA_n485I",
    "title": "Jonathan Blow Made Me Quit My Job | Prime Reacts",
    "publishedAt": "2023-12-19T14:00:49Z",
    "captions": [
        {
            "text": "okay so Jonathan Blow made this man quit",
            "start": 0.28,
            "duration": 4.519
        },
        {
            "text": "his job for real all right let's listen",
            "start": 3.04,
            "duration": 3.359
        },
        {
            "text": "to this what would I say to someone",
            "start": 4.799,
            "duration": 3.441
        },
        {
            "text": "starting their programming career at a",
            "start": 6.399,
            "duration": 3.881
        },
        {
            "text": "web company using JavaScript okay I'm",
            "start": 8.24,
            "duration": 3.88
        },
        {
            "text": "very serious about",
            "start": 10.28,
            "duration": 5.279
        },
        {
            "text": "this okay so every single person who is",
            "start": 12.12,
            "duration": 5.6
        },
        {
            "text": "listening has pretty much just got",
            "start": 15.559,
            "duration": 5.241
        },
        {
            "text": "called out and is ready to get stomped",
            "start": 17.72,
            "duration": 6.76
        },
        {
            "text": "on okay so everybody are you ready are",
            "start": 20.8,
            "duration": 5.88
        },
        {
            "text": "you",
            "start": 24.48,
            "duration": 2.2
        },
        {
            "text": "ready find a better job immediate",
            "start": 27.08,
            "duration": 6.36
        },
        {
            "text": "Get Wrecked",
            "start": 31.759,
            "duration": 3.761
        },
        {
            "text": "imately where you are not using",
            "start": 33.44,
            "duration": 4.279
        },
        {
            "text": "JavaScript",
            "start": 35.52,
            "duration": 5.359
        },
        {
            "text": "because this will affect your long-term",
            "start": 37.719,
            "duration": 4.961
        },
        {
            "text": "development as a programmer the",
            "start": 40.879,
            "duration": 3.16
        },
        {
            "text": "beginning of your career when you're",
            "start": 42.68,
            "duration": 2.879
        },
        {
            "text": "young and have a lot of",
            "start": 44.039,
            "duration": 3.84
        },
        {
            "text": "energy is very",
            "start": 45.559,
            "duration": 4.761
        },
        {
            "text": "important you need to use it effectively",
            "start": 47.879,
            "duration": 3.961
        },
        {
            "text": "because it'll determine your trajectory",
            "start": 50.32,
            "duration": 4.759
        },
        {
            "text": "for the rest of your life okay if I",
            "start": 51.84,
            "duration": 5.48
        },
        {
            "text": "actually really liked this take I know",
            "start": 55.079,
            "duration": 3.841
        },
        {
            "text": "JavaScript is recommended as The",
            "start": 57.32,
            "duration": 3.84
        },
        {
            "text": "Beginner's language",
            "start": 58.92,
            "duration": 3.88
        },
        {
            "text": "but there is something very valuable",
            "start": 61.16,
            "duration": 3.6
        },
        {
            "text": "about struggling I remember my first",
            "start": 62.8,
            "duration": 4.52
        },
        {
            "text": "couple years were spent on robots and",
            "start": 64.76,
            "duration": 4.32
        },
        {
            "text": "there was a lot of struggle it's where I",
            "start": 67.32,
            "duration": 4.76
        },
        {
            "text": "learned and loved printf debugging uh",
            "start": 69.08,
            "duration": 4.88
        },
        {
            "text": "it's where I've I developed a lot of the",
            "start": 72.08,
            "duration": 6.24
        },
        {
            "text": "ways I do things now is because of it um",
            "start": 73.96,
            "duration": 5.96
        },
        {
            "text": "there's definitely some very good parts",
            "start": 78.32,
            "duration": 3.439
        },
        {
            "text": "to this that he's absolutely right on",
            "start": 79.92,
            "duration": 3.76
        },
        {
            "text": "your desire and your ability to push",
            "start": 81.759,
            "duration": 3.921
        },
        {
            "text": "through difficult things is definitely",
            "start": 83.68,
            "duration": 3.68
        },
        {
            "text": "going to be proportional to how excited",
            "start": 85.68,
            "duration": 3.36
        },
        {
            "text": "you are and people typically are more",
            "start": 87.36,
            "duration": 3.92
        },
        {
            "text": "excited when they're young",
            "start": 89.04,
            "duration": 4.759
        },
        {
            "text": "just real talk you're just you genuinely",
            "start": 91.28,
            "duration": 4.08
        },
        {
            "text": "are more excited when you're young than",
            "start": 93.799,
            "duration": 3.32
        },
        {
            "text": "when you're older not saying that's",
            "start": 95.36,
            "duration": 3.439
        },
        {
            "text": "always true for everybody but I think we",
            "start": 97.119,
            "duration": 3.64
        },
        {
            "text": "can agree that that's generally true if",
            "start": 98.799,
            "duration": 5.561
        },
        {
            "text": "you start a career at a company that",
            "start": 100.759,
            "duration": 6.441
        },
        {
            "text": "gives you mediocre things to do you're",
            "start": 104.36,
            "duration": 6.32
        },
        {
            "text": "GNA turn yourself into a mediocre web",
            "start": 107.2,
            "duration": 6.36
        },
        {
            "text": "programmer that's just what happens okay",
            "start": 110.68,
            "duration": 5.56
        },
        {
            "text": "you need to go outside that do anything",
            "start": 113.56,
            "duration": 4.199
        },
        {
            "text": "go work at",
            "start": 116.24,
            "duration": 4.519
        },
        {
            "text": "SpaceX go intern at SpaceX and bring",
            "start": 117.759,
            "duration": 5.4
        },
        {
            "text": "people [\u00a0__\u00a0] coffee that'll be better",
            "start": 120.759,
            "duration": 5.601
        },
        {
            "text": "for your career long term than doing web",
            "start": 123.159,
            "duration": 6.281
        },
        {
            "text": "development at a web company okay that",
            "start": 126.36,
            "duration": 6.239
        },
        {
            "text": "is a bold ass",
            "start": 129.44,
            "duration": 3.159
        },
        {
            "text": "statement I want to think about that",
            "start": 139.64,
            "duration": 4.319
        },
        {
            "text": "more because I think I I I mean",
            "start": 141.599,
            "duration": 4.961
        },
        {
            "text": "generally I understand the logic which",
            "start": 143.959,
            "duration": 5.441
        },
        {
            "text": "is the more challenging and the more",
            "start": 146.56,
            "duration": 4.88
        },
        {
            "text": "difficult the things you have to solve",
            "start": 149.4,
            "duration": 3.4
        },
        {
            "text": "on The",
            "start": 151.44,
            "duration": 4.2
        },
        {
            "text": "Daily the more you're going to rise to",
            "start": 152.8,
            "duration": 3.68
        },
        {
            "text": "the",
            "start": 155.64,
            "duration": 3.679
        },
        {
            "text": "occasion I think that makes",
            "start": 156.48,
            "duration": 5.8
        },
        {
            "text": "sense SpaceX is known for being",
            "start": 159.319,
            "duration": 6.121
        },
        {
            "text": "intensely difficult so I I get the I get",
            "start": 162.28,
            "duration": 6.039
        },
        {
            "text": "the idea like I'm I'm definitely not",
            "start": 165.44,
            "duration": 5.48
        },
        {
            "text": "dunking on his idea now I know some",
            "start": 168.319,
            "duration": 4.56
        },
        {
            "text": "people hate that they just hate the Elon",
            "start": 170.92,
            "duration": 3.76
        },
        {
            "text": "so they can't they can't even they can't",
            "start": 172.879,
            "duration": 3.241
        },
        {
            "text": "hear the concept right they hear the",
            "start": 174.68,
            "duration": 3.72
        },
        {
            "text": "word Elon and they're just",
            "start": 176.12,
            "duration": 5.16
        },
        {
            "text": "like like I don't care and so I can I",
            "start": 178.4,
            "duration": 4.24
        },
        {
            "text": "can I'm going try to eat the fish and",
            "start": 181.28,
            "duration": 3.12
        },
        {
            "text": "spit the bones here uh it's just a",
            "start": 182.64,
            "duration": 2.92
        },
        {
            "text": "different way of saying that you should",
            "start": 184.4,
            "duration": 3.399
        },
        {
            "text": "always be the dumbest person in the room",
            "start": 185.56,
            "duration": 6.8
        },
        {
            "text": "sort of sort of the that's a very hard",
            "start": 187.799,
            "duration": 7.761
        },
        {
            "text": "I've never liked that phrase",
            "start": 192.36,
            "duration": 5.64
        },
        {
            "text": "either I've never liked the phrase like",
            "start": 195.56,
            "duration": 3.959
        },
        {
            "text": "don't be the smartest person in the room",
            "start": 198.0,
            "duration": 2.879
        },
        {
            "text": "or be the dumbest person in the room or",
            "start": 199.519,
            "duration": 2.881
        },
        {
            "text": "whatever because inevitably it leads to",
            "start": 200.879,
            "duration": 4.041
        },
        {
            "text": "all rooms being",
            "start": 202.4,
            "duration": 7.36
        },
        {
            "text": "empty um meaning that people will",
            "start": 204.92,
            "duration": 7.959
        },
        {
            "text": "constantly use like how often are you if",
            "start": 209.76,
            "duration": 4.479
        },
        {
            "text": "you are the smartest person in the room",
            "start": 212.879,
            "duration": 3.761
        },
        {
            "text": "should you quit well the problem is is",
            "start": 214.239,
            "duration": 4.161
        },
        {
            "text": "that I mean think about all the you know",
            "start": 216.64,
            "duration": 3.92
        },
        {
            "text": "you the the problem with that statement",
            "start": 218.4,
            "duration": 4.119
        },
        {
            "text": "is that no place could ever survive",
            "start": 220.56,
            "duration": 4.48
        },
        {
            "text": "purely on that",
            "start": 222.519,
            "duration": 4.561
        },
        {
            "text": "mentality right once you become the best",
            "start": 225.04,
            "duration": 4.759
        },
        {
            "text": "you just have to move on now I just",
            "start": 227.08,
            "duration": 4.64
        },
        {
            "text": "typically am just the dumbest by just by",
            "start": 229.799,
            "duration": 4.921
        },
        {
            "text": "the sheer Dent of who I am um",
            "start": 231.72,
            "duration": 4.84
        },
        {
            "text": "nonetheless Jonathan Blow you can't",
            "start": 234.72,
            "duration": 4.0
        },
        {
            "text": "really make fun of him for using Windows",
            "start": 236.56,
            "duration": 4.959
        },
        {
            "text": "uh he also was using uh he was a heavy",
            "start": 238.72,
            "duration": 6.64
        },
        {
            "text": "heavy Unix man in the 80s and early 90s",
            "start": 241.519,
            "duration": 5.36
        },
        {
            "text": "so I don't I don't think I don't think",
            "start": 245.36,
            "duration": 4.28
        },
        {
            "text": "you're going to win that argument per",
            "start": 246.879,
            "duration": 5.92
        },
        {
            "text": "se just",
            "start": 249.64,
            "duration": 5.64
        },
        {
            "text": "saying again my rant about impostor",
            "start": 252.799,
            "duration": 5.241
        },
        {
            "text": "syndrome is it's not so there is a real",
            "start": 255.28,
            "duration": 5.0
        },
        {
            "text": "psychological Effect called impostor",
            "start": 258.04,
            "duration": 3.879
        },
        {
            "text": "syndrome but that's not what everybody",
            "start": 260.28,
            "duration": 4.359
        },
        {
            "text": "on the Internet is talking about right o",
            "start": 261.919,
            "duration": 5.0
        },
        {
            "text": "I cannot wait for this I cannot wait for",
            "start": 264.639,
            "duration": 4.161
        },
        {
            "text": "Twitter Twitter shambles here we go",
            "start": 266.919,
            "duration": 3.72
        },
        {
            "text": "people Twitter shames you're not even",
            "start": 268.8,
            "duration": 3.64
        },
        {
            "text": "good enough to have impostor",
            "start": 270.639,
            "duration": 4.361
        },
        {
            "text": "syndrome people on the internet seized",
            "start": 272.44,
            "duration": 4.56
        },
        {
            "text": "that",
            "start": 275.0,
            "duration": 5.24
        },
        {
            "text": "name and used it inappropriately for",
            "start": 277.0,
            "duration": 5.08
        },
        {
            "text": "their accurate feeling that they don't",
            "start": 280.24,
            "duration": 6.28
        },
        {
            "text": "know what they're doing at their job",
            "start": 282.08,
            "duration": 4.44
        },
        {
            "text": "okay did you just hear what he just said",
            "start": 296.08,
            "duration": 5.0
        },
        {
            "text": "the accurate feeling of you not knowing",
            "start": 299.12,
            "duration": 3.4
        },
        {
            "text": "what you're doing because you are",
            "start": 301.08,
            "duration": 4.24
        },
        {
            "text": "accurately un because you are not act",
            "start": 302.52,
            "duration": 6.519
        },
        {
            "text": "you're not an impostor you are just not",
            "start": 305.32,
            "duration": 6.36
        },
        {
            "text": "qualified",
            "start": 309.039,
            "duration": 8.16
        },
        {
            "text": "no oh no diagnosis skill issue",
            "start": 311.68,
            "duration": 9.04
        },
        {
            "text": "syndrome okay most people are bad at",
            "start": 317.199,
            "duration": 4.801
        },
        {
            "text": "their job and don't know what they're",
            "start": 320.72,
            "duration": 3.4
        },
        {
            "text": "doing that's not a",
            "start": 322.0,
            "duration": 5.6
        },
        {
            "text": "syndrome that's an accurate depiction of",
            "start": 324.12,
            "duration": 6.56
        },
        {
            "text": "the situation and so to pretend it's not",
            "start": 327.6,
            "duration": 5.12
        },
        {
            "text": "true people want to pretend it's not",
            "start": 330.68,
            "duration": 3.959
        },
        {
            "text": "true that they're bad at their job they",
            "start": 332.72,
            "duration": 4.44
        },
        {
            "text": "want to pretend that they're actually",
            "start": 334.639,
            "duration": 6.761
        },
        {
            "text": "good and it's just a mental issue it's",
            "start": 337.16,
            "duration": 6.96
        },
        {
            "text": "just confidence or something right no",
            "start": 341.4,
            "duration": 4.239
        },
        {
            "text": "it's just you're if you're bad at your",
            "start": 344.12,
            "duration": 3.28
        },
        {
            "text": "job and your brain is telling you you're",
            "start": 345.639,
            "duration": 2.84
        },
        {
            "text": "bad at your",
            "start": 347.4,
            "duration": 3.68
        },
        {
            "text": "job then just pay attention to that and",
            "start": 348.479,
            "duration": 5.16
        },
        {
            "text": "try to figure out how to get better the",
            "start": 351.08,
            "duration": 5.0
        },
        {
            "text": "more I actually really did like that",
            "start": 353.639,
            "duration": 5.4
        },
        {
            "text": "take that that was honestly a really",
            "start": 356.08,
            "duration": 4.48
        },
        {
            "text": "great take",
            "start": 359.039,
            "duration": 4.72
        },
        {
            "text": "if you think you're bad at your",
            "start": 360.56,
            "duration": 5.919
        },
        {
            "text": "job you should be trying to analyze",
            "start": 363.759,
            "duration": 7.0
        },
        {
            "text": "which parts you're bad at and how to get",
            "start": 366.479,
            "duration": 6.521
        },
        {
            "text": "better right like that's actually that's",
            "start": 370.759,
            "duration": 4.401
        },
        {
            "text": "that's like just genuinely great",
            "start": 373.0,
            "duration": 5.759
        },
        {
            "text": "advice that's genuinely good ass advice",
            "start": 375.16,
            "duration": 9.0
        },
        {
            "text": "go crack open a book get better and",
            "start": 378.759,
            "duration": 8.56
        },
        {
            "text": "now I mean it's it's shockingly",
            "start": 384.16,
            "duration": 5.4
        },
        {
            "text": "shockingly great the inverse of that",
            "start": 387.319,
            "duration": 5.681
        },
        {
            "text": "also is that someone believed in you",
            "start": 389.56,
            "duration": 5.56
        },
        {
            "text": "enough to hire you to set you in that",
            "start": 393.0,
            "duration": 4.759
        },
        {
            "text": "seat despite knowing your",
            "start": 395.12,
            "duration": 5.16
        },
        {
            "text": "experience meaning that they think you",
            "start": 397.759,
            "duration": 5.28
        },
        {
            "text": "can do it so if you just put those two",
            "start": 400.28,
            "duration": 4.6
        },
        {
            "text": "things",
            "start": 403.039,
            "duration": 4.681
        },
        {
            "text": "together you know what I mean I'm just",
            "start": 404.88,
            "duration": 4.759
        },
        {
            "text": "saying you",
            "start": 407.72,
            "duration": 5.08
        },
        {
            "text": "should you should be able to do this",
            "start": 409.639,
            "duration": 5.96
        },
        {
            "text": "time you spend working in that space of",
            "start": 412.8,
            "duration": 5.239
        },
        {
            "text": "your approximation to the thing that you",
            "start": 415.599,
            "duration": 5.16
        },
        {
            "text": "want the more time time you you spend",
            "start": 418.039,
            "duration": 5.56
        },
        {
            "text": "becoming an expert in the field of this",
            "start": 420.759,
            "duration": 4.641
        },
        {
            "text": "specific application that you're making",
            "start": 423.599,
            "duration": 5.28
        },
        {
            "text": "the better you get at that subfield of",
            "start": 425.4,
            "duration": 5.4
        },
        {
            "text": "programming and the better you get at",
            "start": 428.879,
            "duration": 4.04
        },
        {
            "text": "that subfield the better you're decision",
            "start": 430.8,
            "duration": 4.679
        },
        {
            "text": "making about technical issues in that",
            "start": 432.919,
            "duration": 5.481
        },
        {
            "text": "field is going to be so if you make I do",
            "start": 435.479,
            "duration": 5.041
        },
        {
            "text": "think that this completely goes away",
            "start": 438.4,
            "duration": 3.12
        },
        {
            "text": "when we're talking about front-end",
            "start": 440.52,
            "duration": 2.48
        },
        {
            "text": "Frameworks because they keep inventing",
            "start": 441.52,
            "duration": 4.88
        },
        {
            "text": "them so they just keep getting better at",
            "start": 443.0,
            "duration": 5.16
        },
        {
            "text": "creating more and more abstraction so",
            "start": 446.4,
            "duration": 4.56
        },
        {
            "text": "I'm not sure if that that is always",
            "start": 448.16,
            "duration": 5.2
        },
        {
            "text": "true but I guess it is true they are",
            "start": 450.96,
            "duration": 4.76
        },
        {
            "text": "better at creating abstractions but is",
            "start": 453.36,
            "duration": 5.119
        },
        {
            "text": "it actually better I don't know hard",
            "start": 455.72,
            "duration": 3.879
        },
        {
            "text": "decisions",
            "start": 458.479,
            "duration": 4.521
        },
        {
            "text": "later they will be made better both by a",
            "start": 459.599,
            "duration": 6.521
        },
        {
            "text": "more skilled person and with more",
            "start": 463.0,
            "duration": 5.08
        },
        {
            "text": "contextual information than if you make",
            "start": 466.12,
            "duration": 5.16
        },
        {
            "text": "those hard decisions early on okay so",
            "start": 468.08,
            "duration": 5.88
        },
        {
            "text": "deferring these kind of decisions is",
            "start": 471.28,
            "duration": 4.28
        },
        {
            "text": "actually important for good",
            "start": 473.96,
            "duration": 4.079
        },
        {
            "text": "craftsmanship in some cases it sounds",
            "start": 475.56,
            "duration": 4.319
        },
        {
            "text": "paradoxical because you would think good",
            "start": 478.039,
            "duration": 6.081
        },
        {
            "text": "craftsmanship is just you see a problem",
            "start": 479.879,
            "duration": 5.921
        },
        {
            "text": "and you like relentlessly solve it",
            "start": 484.12,
            "duration": 3.68
        },
        {
            "text": "whenever you see one but I don't find it",
            "start": 485.8,
            "duration": 4.64
        },
        {
            "text": "to work that way for new program I",
            "start": 487.8,
            "duration": 3.839
        },
        {
            "text": "actually really I actually really like",
            "start": 490.44,
            "duration": 3.68
        },
        {
            "text": "that take a whole bunch there is",
            "start": 491.639,
            "duration": 4.161
        },
        {
            "text": "something about just time in the saddle",
            "start": 494.12,
            "duration": 3.12
        },
        {
            "text": "that is just one of the most important",
            "start": 495.8,
            "duration": 4.119
        },
        {
            "text": "parts of your day job just seeing the",
            "start": 497.24,
            "duration": 5.76
        },
        {
            "text": "same problem four times you can do a",
            "start": 499.919,
            "duration": 6.481
        },
        {
            "text": "really really really really good job",
            "start": 503.0,
            "duration": 5.199
        },
        {
            "text": "your fourth time and it also kind of",
            "start": 506.4,
            "duration": 3.079
        },
        {
            "text": "goes to show that you should write",
            "start": 508.199,
            "duration": 3.241
        },
        {
            "text": "software in such a way that you have to",
            "start": 509.479,
            "duration": 3.881
        },
        {
            "text": "kind of plan for its longevity like if",
            "start": 511.44,
            "duration": 3.32
        },
        {
            "text": "you know it's not going to be a super",
            "start": 513.36,
            "duration": 2.84
        },
        {
            "text": "long piece of software or you know",
            "start": 514.76,
            "duration": 2.519
        },
        {
            "text": "you're going to have time to kind of",
            "start": 516.2,
            "duration": 3.0
        },
        {
            "text": "rethink some of your assumptions and",
            "start": 517.279,
            "duration": 3.721
        },
        {
            "text": "then it's better to get the speed to get",
            "start": 519.2,
            "duration": 4.16
        },
        {
            "text": "the experience to understand what you're",
            "start": 521.0,
            "duration": 4.64
        },
        {
            "text": "building than it is to just try to solve",
            "start": 523.36,
            "duration": 4.24
        },
        {
            "text": "it correct the first time you know",
            "start": 525.64,
            "duration": 3.12
        },
        {
            "text": "there's definitely there's definitely",
            "start": 527.6,
            "duration": 3.56
        },
        {
            "text": "like there's definitely a a Gambit you",
            "start": 528.76,
            "duration": 4.84
        },
        {
            "text": "have to play here gramers what would I",
            "start": 531.16,
            "duration": 4.48
        },
        {
            "text": "broadly say about choosing a career path",
            "start": 533.6,
            "duration": 3.56
        },
        {
            "text": "in programming the same thing I always",
            "start": 535.64,
            "duration": 4.0
        },
        {
            "text": "say not time in Seattle time in in the",
            "start": 537.16,
            "duration": 4.119
        },
        {
            "text": "saddle okay you don't want to spend any",
            "start": 539.64,
            "duration": 3.96
        },
        {
            "text": "time in Seattle okay you're going to get",
            "start": 541.279,
            "duration": 4.24
        },
        {
            "text": "mugged you're going to",
            "start": 543.6,
            "duration": 4.64
        },
        {
            "text": "die which is be careful what you choose",
            "start": 545.519,
            "duration": 4.081
        },
        {
            "text": "especially when you're very young",
            "start": 548.24,
            "duration": 3.56
        },
        {
            "text": "because when you're",
            "start": 549.6,
            "duration": 4.359
        },
        {
            "text": "young it's the time when you're really",
            "start": 551.8,
            "duration": 3.68
        },
        {
            "text": "learning and the time when you're still",
            "start": 553.959,
            "duration": 3.44
        },
        {
            "text": "defining yourself I mean you're always",
            "start": 555.48,
            "duration": 4.12
        },
        {
            "text": "still defining yourself but when you're",
            "start": 557.399,
            "duration": 3.56
        },
        {
            "text": "young you're especially doing that",
            "start": 559.6,
            "duration": 3.4
        },
        {
            "text": "because you have less history behind you",
            "start": 560.959,
            "duration": 4.721
        },
        {
            "text": "and so if you go somewhere",
            "start": 563.0,
            "duration": 4.8
        },
        {
            "text": "mediocre and you learn from people who",
            "start": 565.68,
            "duration": 4.68
        },
        {
            "text": "are doing mediocre work",
            "start": 567.8,
            "duration": 4.52
        },
        {
            "text": "you're going to be defining yourself as",
            "start": 570.36,
            "duration": 4.159
        },
        {
            "text": "someone who doesn't do things that are",
            "start": 572.32,
            "duration": 3.72
        },
        {
            "text": "particularly good or particularly",
            "start": 574.519,
            "duration": 4.681
        },
        {
            "text": "special that's just reality people don't",
            "start": 576.04,
            "duration": 5.88
        },
        {
            "text": "like it when I say that that way but",
            "start": 579.2,
            "duration": 6.72
        },
        {
            "text": "that just is what it is that's what",
            "start": 581.92,
            "duration": 4.0
        },
        {
            "text": "happens um if you're lucky you can break",
            "start": 586.0,
            "duration": 5.0
        },
        {
            "text": "yourself out of that later but better",
            "start": 588.76,
            "duration": 3.92
        },
        {
            "text": "never to be in that",
            "start": 591.0,
            "duration": 4.2
        },
        {
            "text": "situation",
            "start": 592.68,
            "duration": 5.68
        },
        {
            "text": "so choose where you work and who you",
            "start": 595.2,
            "duration": 5.4
        },
        {
            "text": "work with very carefully because there",
            "start": 598.36,
            "duration": 4.12
        },
        {
            "text": "hasn't been selection that's very very",
            "start": 600.6,
            "duration": 2.96
        },
        {
            "text": "good piece of advice right there",
            "start": 602.48,
            "duration": 2.84
        },
        {
            "text": "honestly uh I actually said no to a",
            "start": 603.56,
            "duration": 3.279
        },
        {
            "text": "masters because I did not respect the",
            "start": 605.32,
            "duration": 3.04
        },
        {
            "text": "person who was giving me Masters at a",
            "start": 606.839,
            "duration": 6.761
        },
        {
            "text": "full ride free everything and I said no",
            "start": 608.36,
            "duration": 5.24
        },
        {
            "text": "um and the reason was exactly that which",
            "start": 614.44,
            "duration": 9.88
        },
        {
            "text": "was that no matter what you become like",
            "start": 619.72,
            "duration": 8.32
        },
        {
            "text": "who you spend your time",
            "start": 624.32,
            "duration": 6.72
        },
        {
            "text": "with",
            "start": 628.04,
            "duration": 3.0
        },
        {
            "text": "and so I I I wanted to be very careful",
            "start": 631.079,
            "duration": 5.401
        },
        {
            "text": "about that and so I am careful about who",
            "start": 633.64,
            "duration": 5.24
        },
        {
            "text": "I spend my time with and that's one of",
            "start": 636.48,
            "duration": 4.039
        },
        {
            "text": "those things because no matter what no",
            "start": 638.88,
            "duration": 4.12
        },
        {
            "text": "matter how much you no matter how much",
            "start": 640.519,
            "duration": 3.921
        },
        {
            "text": "you you don't want it to be true you",
            "start": 643.0,
            "duration": 3.92
        },
        {
            "text": "will be like the people you surround",
            "start": 644.44,
            "duration": 4.24
        },
        {
            "text": "yourself with that's not true what's not",
            "start": 646.92,
            "duration": 4.159
        },
        {
            "text": "true you don't ever become anything like",
            "start": 648.68,
            "duration": 3.52
        },
        {
            "text": "you don't become like the people you",
            "start": 651.079,
            "duration": 2.44
        },
        {
            "text": "surround yourself",
            "start": 652.2,
            "duration": 4.68
        },
        {
            "text": "with not",
            "start": 653.519,
            "duration": 3.361
        },
        {
            "text": "Trill I am smarter",
            "start": 657.2,
            "duration": 6.0
        },
        {
            "text": "than Aristotle and Solomon and everybody",
            "start": 659.6,
            "duration": 6.0
        },
        {
            "text": "else behind me who's ever existed who's",
            "start": 663.2,
            "duration": 4.639
        },
        {
            "text": "written about",
            "start": 665.6,
            "duration": 5.799
        },
        {
            "text": "this you can decide um Good",
            "start": 667.839,
            "duration": 6.481
        },
        {
            "text": "Luck Good luck with that one it's your",
            "start": 671.399,
            "duration": 6.361
        },
        {
            "text": "decision yeah again good luck with that",
            "start": 674.32,
            "duration": 5.84
        },
        {
            "text": "one good luck with that",
            "start": 677.76,
            "duration": 4.8
        },
        {
            "text": "one way to fight against like just",
            "start": 680.16,
            "duration": 3.88
        },
        {
            "text": "Collective",
            "start": 682.56,
            "duration": 6.04
        },
        {
            "text": "human and wisdom for for 3,000 years",
            "start": 684.04,
            "duration": 7.52
        },
        {
            "text": "plus in writing yeah don't worry I'm",
            "start": 688.6,
            "duration": 4.88
        },
        {
            "text": "better than that one this is what we",
            "start": 691.56,
            "duration": 5.0
        },
        {
            "text": "refer to as a skill",
            "start": 693.48,
            "duration": 3.08
        },
        {
            "text": "issue good luck Sten good luck pressure",
            "start": 697.48,
            "duration": 7.24
        },
        {
            "text": "on programming culture whether or not",
            "start": 702.44,
            "duration": 4.199
        },
        {
            "text": "you believe me about whether the current",
            "start": 704.72,
            "duration": 4.4
        },
        {
            "text": "culture is right or not you could at",
            "start": 706.639,
            "duration": 4.161
        },
        {
            "text": "least expect that there's not that much",
            "start": 709.12,
            "duration": 4.04
        },
        {
            "text": "reason for it to be right there's like a",
            "start": 710.8,
            "duration": 5.2
        },
        {
            "text": "very mild constraint that your program",
            "start": 713.16,
            "duration": 5.0
        },
        {
            "text": "does kind of have to run and that's a",
            "start": 716.0,
            "duration": 4.16
        },
        {
            "text": "reality check but that's getting looser",
            "start": 718.16,
            "duration": 4.0
        },
        {
            "text": "all the time anyway like look at how",
            "start": 720.16,
            "duration": 3.919
        },
        {
            "text": "many more and more programmers are hired",
            "start": 722.16,
            "duration": 6.28
        },
        {
            "text": "just to make a simple program run now",
            "start": 724.079,
            "duration": 4.361
        },
        {
            "text": "right like people people spend years at",
            "start": 728.639,
            "duration": 6.841
        },
        {
            "text": "web companies working on individual web",
            "start": 732.56,
            "duration": 5.48
        },
        {
            "text": "pages that are about the complexity of",
            "start": 735.48,
            "duration": 5.359
        },
        {
            "text": "something I would program in basic when",
            "start": 738.04,
            "duration": 6.239
        },
        {
            "text": "I was in high school in like",
            "start": 740.839,
            "duration": 3.44
        },
        {
            "text": "a I mean this is one of the problems of",
            "start": 746.639,
            "duration": 3.841
        },
        {
            "text": "abstractions we we've we've tried to",
            "start": 749.04,
            "duration": 2.919
        },
        {
            "text": "make everything abstract everything fall",
            "start": 750.48,
            "duration": 2.799
        },
        {
            "text": "into these various patterns and we just",
            "start": 751.959,
            "duration": 2.68
        },
        {
            "text": "don't do the obvious thing which is the",
            "start": 753.279,
            "duration": 2.481
        },
        {
            "text": "straightforward thing which is just",
            "start": 754.639,
            "duration": 2.241
        },
        {
            "text": "build the actual thing instead of",
            "start": 755.76,
            "duration": 2.319
        },
        {
            "text": "building all these abstractions around",
            "start": 756.88,
            "duration": 3.0
        },
        {
            "text": "it like you don't have to have a",
            "start": 758.079,
            "duration": 3.801
        },
        {
            "text": "generalized everything sometimes you can",
            "start": 759.88,
            "duration": 4.72
        },
        {
            "text": "just build the",
            "start": 761.88,
            "duration": 2.72
        },
        {
            "text": "thing couple weeks or a week or",
            "start": 765.24,
            "duration": 5.36
        },
        {
            "text": "something right it's just crazy at this",
            "start": 768.12,
            "duration": 4.76
        },
        {
            "text": "point I think it's still possible to",
            "start": 770.6,
            "duration": 3.72
        },
        {
            "text": "Pivot later oh we're back we're back",
            "start": 772.88,
            "duration": 4.36
        },
        {
            "text": "here okay we're back here this whatever",
            "start": 774.32,
            "duration": 5.56
        },
        {
            "text": "this graphic is he has some spicy takes",
            "start": 777.24,
            "duration": 4.839
        },
        {
            "text": "on whatever this graphic",
            "start": 779.88,
            "duration": 4.56
        },
        {
            "text": "is on in life to try and pursue what you",
            "start": 782.079,
            "duration": 4.081
        },
        {
            "text": "feel is your true passion while taking",
            "start": 784.44,
            "duration": 3.24
        },
        {
            "text": "more financially stable choice in the",
            "start": 786.16,
            "duration": 3.6
        },
        {
            "text": "present no I think people tell",
            "start": 787.68,
            "duration": 3.24
        },
        {
            "text": "themselves all the time they're going to",
            "start": 789.76,
            "duration": 4.56
        },
        {
            "text": "do that and then they just age into",
            "start": 790.92,
            "duration": 5.8
        },
        {
            "text": "their financially stable",
            "start": 794.32,
            "duration": 5.16
        },
        {
            "text": "Choice that's just what",
            "start": 796.72,
            "duration": 5.239
        },
        {
            "text": "happens",
            "start": 799.48,
            "duration": 4.24
        },
        {
            "text": "um I",
            "start": 801.959,
            "duration": 4.641
        },
        {
            "text": "think I think either you're willing to",
            "start": 803.72,
            "duration": 5.64
        },
        {
            "text": "take risks or you're not",
            "start": 806.6,
            "duration": 5.679
        },
        {
            "text": "and your propensity for taking risks",
            "start": 809.36,
            "duration": 6.599
        },
        {
            "text": "will only be reduced as you age you'll",
            "start": 812.279,
            "duration": 5.521
        },
        {
            "text": "never this is very true you know it's",
            "start": 815.959,
            "duration": 3.961
        },
        {
            "text": "not like you get 10 years older and feel",
            "start": 817.8,
            "duration": 3.88
        },
        {
            "text": "like way more radical than you did when",
            "start": 819.92,
            "duration": 4.039
        },
        {
            "text": "you were 23 that's not how that works",
            "start": 821.68,
            "duration": 6.24
        },
        {
            "text": "okay really doesn't when you're 43",
            "start": 823.959,
            "duration": 6.641
        },
        {
            "text": "you'll have way way more reasons to be",
            "start": 827.92,
            "duration": 5.24
        },
        {
            "text": "conservative than when you were 23 so if",
            "start": 830.6,
            "duration": 4.359
        },
        {
            "text": "you don't learn to take risks now you",
            "start": 833.16,
            "duration": 3.76
        },
        {
            "text": "will not do it",
            "start": 834.959,
            "duration": 4.921
        },
        {
            "text": "later if you have that's that's also",
            "start": 836.92,
            "duration": 5.359
        },
        {
            "text": "very good",
            "start": 839.88,
            "duration": 2.399
        },
        {
            "text": "advice very few people are different",
            "start": 842.88,
            "duration": 5.36
        },
        {
            "text": "than that and there's always going to be",
            "start": 845.56,
            "duration": 5.0
        },
        {
            "text": "a person that's like oh I'm way I'm way",
            "start": 848.24,
            "duration": 4.399
        },
        {
            "text": "more risk taking than I was when I was",
            "start": 850.56,
            "duration": 6.079
        },
        {
            "text": "23 now that I'm 43 um but",
            "start": 852.639,
            "duration": 6.32
        },
        {
            "text": "typically as you get older you get you",
            "start": 856.639,
            "duration": 4.841
        },
        {
            "text": "get more and more kind of you you you",
            "start": 858.959,
            "duration": 4.081
        },
        {
            "text": "you think about your choices and maybe",
            "start": 861.48,
            "duration": 2.96
        },
        {
            "text": "maybe it's not even risk-taking is the",
            "start": 863.04,
            "duration": 3.12
        },
        {
            "text": "right term maybe you're just more wise",
            "start": 864.44,
            "duration": 3.399
        },
        {
            "text": "to see that some risks aren't worth",
            "start": 866.16,
            "duration": 3.919
        },
        {
            "text": "taking",
            "start": 867.839,
            "duration": 4.12
        },
        {
            "text": "right some risks as you get older you'll",
            "start": 870.079,
            "duration": 4.521
        },
        {
            "text": "go oh yeah yeah that that doesn't that",
            "start": 871.959,
            "duration": 4.56
        },
        {
            "text": "just doesn't make any sense I'm better",
            "start": 874.6,
            "duration": 3.12
        },
        {
            "text": "and that's wisdom I mean that's just",
            "start": 876.519,
            "duration": 3.281
        },
        {
            "text": "generally wisdom right wisdom is not the",
            "start": 877.72,
            "duration": 3.6
        },
        {
            "text": "ability to solve a tough problem but",
            "start": 879.8,
            "duration": 3.2
        },
        {
            "text": "knowing which tough problem to solve",
            "start": 881.32,
            "duration": 3.759
        },
        {
            "text": "that's like an easy way to State it uh",
            "start": 883.0,
            "duration": 3.48
        },
        {
            "text": "and so like there's always a tough",
            "start": 885.079,
            "duration": 2.961
        },
        {
            "text": "problem there's always a risk you can",
            "start": 886.48,
            "duration": 4.0
        },
        {
            "text": "take but which risk is the right risk to",
            "start": 888.04,
            "duration": 4.479
        },
        {
            "text": "take and obviously having kids and",
            "start": 890.48,
            "duration": 4.2
        },
        {
            "text": "family and other financial",
            "start": 892.519,
            "duration": 3.68
        },
        {
            "text": "responsibilities you know you got to",
            "start": 894.68,
            "duration": 3.0
        },
        {
            "text": "think a little bit more about",
            "start": 896.199,
            "duration": 3.281
        },
        {
            "text": "it",
            "start": 897.68,
            "duration": 2.839
        },
        {
            "text": "have",
            "start": 899.48,
            "duration": 5.279
        },
        {
            "text": "money of any magnitude and you have a",
            "start": 900.519,
            "duration": 6.961
        },
        {
            "text": "theory about how to do something",
            "start": 904.759,
            "duration": 5.08
        },
        {
            "text": "productive then you should invest that",
            "start": 907.48,
            "duration": 5.279
        },
        {
            "text": "money in your own",
            "start": 909.839,
            "duration": 5.841
        },
        {
            "text": "Theory because it I mean if you believe",
            "start": 912.759,
            "duration": 4.721
        },
        {
            "text": "it has a good chance of being right",
            "start": 915.68,
            "duration": 4.279
        },
        {
            "text": "because you're most in control of that",
            "start": 917.48,
            "duration": 4.84
        },
        {
            "text": "and there are fewest middlemen skimming",
            "start": 919.959,
            "duration": 5.68
        },
        {
            "text": "off of that right so the highest return",
            "start": 922.32,
            "duration": 6.37
        },
        {
            "text": "comes from you investing that money in",
            "start": 925.639,
            "duration": 4.161
        },
        {
            "text": "[Music]",
            "start": 928.69,
            "duration": 4.069
        },
        {
            "text": "your own idea um so all these things",
            "start": 929.8,
            "duration": 6.36
        },
        {
            "text": "like putting it in an index fund or you",
            "start": 932.759,
            "duration": 6.161
        },
        {
            "text": "know a mutual fund or whatever or bonds",
            "start": 936.16,
            "duration": 6.239
        },
        {
            "text": "that's all he forgot housing for if you",
            "start": 938.92,
            "duration": 5.8
        },
        {
            "text": "don't have an",
            "start": 942.399,
            "duration": 5.721
        },
        {
            "text": "idea how to make any money which is fine",
            "start": 944.72,
            "duration": 4.76
        },
        {
            "text": "for people who don't want to have an",
            "start": 948.12,
            "duration": 3.8
        },
        {
            "text": "idea or don't want to take any risks but",
            "start": 949.48,
            "duration": 3.4
        },
        {
            "text": "if you",
            "start": 951.92,
            "duration": 3.8
        },
        {
            "text": "do there are better things to do the",
            "start": 952.88,
            "duration": 4.68
        },
        {
            "text": "people who I mean that's not terribly",
            "start": 955.72,
            "duration": 4.599
        },
        {
            "text": "bad advice",
            "start": 957.56,
            "duration": 4.199
        },
        {
            "text": "that's fine advice if you don't if you",
            "start": 960.319,
            "duration": 3.481
        },
        {
            "text": "don't want to take the risk yourself and",
            "start": 961.759,
            "duration": 3.56
        },
        {
            "text": "you'd rather try to put it into",
            "start": 963.8,
            "duration": 3.0
        },
        {
            "text": "something that's more stable and and",
            "start": 965.319,
            "duration": 2.681
        },
        {
            "text": "short there's there's different",
            "start": 966.8,
            "duration": 3.479
        },
        {
            "text": "Investments for each person index funds",
            "start": 968.0,
            "duration": 4.88
        },
        {
            "text": "are for Boomers uh yeah I mean I get",
            "start": 970.279,
            "duration": 4.081
        },
        {
            "text": "that people put their money into various",
            "start": 972.88,
            "duration": 3.519
        },
        {
            "text": "types of funds uh each fund has a",
            "start": 974.36,
            "duration": 3.56
        },
        {
            "text": "different level in it but he is right",
            "start": 976.399,
            "duration": 4.24
        },
        {
            "text": "like if you want the greatest potential",
            "start": 977.92,
            "duration": 6.12
        },
        {
            "text": "for every dollar you put in it is like",
            "start": 980.639,
            "duration": 5.081
        },
        {
            "text": "investing in yourself to create",
            "start": 984.04,
            "duration": 2.799
        },
        {
            "text": "something that you believe is better",
            "start": 985.72,
            "duration": 3.359
        },
        {
            "text": "than everybody else right",
            "start": 986.839,
            "duration": 4.321
        },
        {
            "text": "like if you believe you can create the",
            "start": 989.079,
            "duration": 3.841
        },
        {
            "text": "greatest version of Twitter whatever",
            "start": 991.16,
            "duration": 3.359
        },
        {
            "text": "that version is right I know there's",
            "start": 992.92,
            "duration": 2.8
        },
        {
            "text": "always a new version of Twitter that's",
            "start": 994.519,
            "duration": 2.601
        },
        {
            "text": "killing off Twitter Twitter's dying this",
            "start": 995.72,
            "duration": 3.599
        },
        {
            "text": "week it's going under maston's gonna get",
            "start": 997.12,
            "duration": 4.639
        },
        {
            "text": "it right I get it but if you think you",
            "start": 999.319,
            "duration": 5.921
        },
        {
            "text": "got that best one ever it is",
            "start": 1001.759,
            "duration": 6.921
        },
        {
            "text": "better it is better for the potential",
            "start": 1005.24,
            "duration": 4.959
        },
        {
            "text": "now the realization is where it all goes",
            "start": 1008.68,
            "duration": 3.68
        },
        {
            "text": "wrong right that's where it all goes",
            "start": 1010.199,
            "duration": 4.041
        },
        {
            "text": "wrong you might not realize anything and",
            "start": 1012.36,
            "duration": 4.68
        },
        {
            "text": "lose all your money I realized negative",
            "start": 1014.24,
            "duration": 5.92
        },
        {
            "text": "dollars when I did my last start up",
            "start": 1017.04,
            "duration": 8.56
        },
        {
            "text": "potential huge realization",
            "start": 1020.16,
            "duration": 5.44
        },
        {
            "text": "negative it",
            "start": 1025.64,
            "duration": 4.319
        },
        {
            "text": "hurt do stuff that nobody else was doing",
            "start": 1027.28,
            "duration": 4.159
        },
        {
            "text": "because the other people talk themselves",
            "start": 1029.959,
            "duration": 3.321
        },
        {
            "text": "out of doing the thing right that's the",
            "start": 1031.439,
            "duration": 4.4
        },
        {
            "text": "secret that you have to know everybody",
            "start": 1033.28,
            "duration": 5.36
        },
        {
            "text": "is talking themselves out of success all",
            "start": 1035.839,
            "duration": 5.36
        },
        {
            "text": "the time and I'm not trying to sound too",
            "start": 1038.64,
            "duration": 4.48
        },
        {
            "text": "self-help Guru about that because",
            "start": 1041.199,
            "duration": 4.041
        },
        {
            "text": "selfhelp people give me the",
            "start": 1043.12,
            "duration": 4.48
        },
        {
            "text": "creepies but it's true agree with",
            "start": 1045.24,
            "duration": 4.679
        },
        {
            "text": "everything people talk themselves out of",
            "start": 1047.6,
            "duration": 4.64
        },
        {
            "text": "success every",
            "start": 1049.919,
            "duration": 5.481
        },
        {
            "text": "day um it's weird like why would human",
            "start": 1052.24,
            "duration": 5.04
        },
        {
            "text": "beings do that but they do it once you",
            "start": 1055.4,
            "duration": 4.159
        },
        {
            "text": "learn to see it you see it all the time",
            "start": 1057.28,
            "duration": 5.88
        },
        {
            "text": "all right but you need to stand out from",
            "start": 1059.559,
            "duration": 5.601
        },
        {
            "text": "I like that I like that last one uh",
            "start": 1063.16,
            "duration": 3.28
        },
        {
            "text": "there's a typical phrase that I think is",
            "start": 1065.16,
            "duration": 2.68
        },
        {
            "text": "one of my favorite phrases I've ever",
            "start": 1066.44,
            "duration": 3.44
        },
        {
            "text": "heard which is seizing defeat from the",
            "start": 1067.84,
            "duration": 5.04
        },
        {
            "text": "clutches of Victory like I I I do see",
            "start": 1069.88,
            "duration": 4.72
        },
        {
            "text": "this pretty regularly and kids are just",
            "start": 1072.88,
            "duration": 4.0
        },
        {
            "text": "terrible at that they'll be doing",
            "start": 1074.6,
            "duration": 4.559
        },
        {
            "text": "something right and then just like can't",
            "start": 1076.88,
            "duration": 4.44
        },
        {
            "text": "help but to start doing the wrong thing",
            "start": 1079.159,
            "duration": 3.961
        },
        {
            "text": "you're like you got it man just slow",
            "start": 1081.32,
            "duration": 4.16
        },
        {
            "text": "down just don't do it it's just like it",
            "start": 1083.12,
            "duration": 4.0
        },
        {
            "text": "just you can't even help it you can't",
            "start": 1085.48,
            "duration": 3.559
        },
        {
            "text": "even help it you just watch it the rust",
            "start": 1087.12,
            "duration": 3.72
        },
        {
            "text": "modotto it's the rust model rust",
            "start": 1089.039,
            "duration": 4.64
        },
        {
            "text": "literally has everything to do the right",
            "start": 1090.84,
            "duration": 6.24
        },
        {
            "text": "thing they just got to just what are you",
            "start": 1093.679,
            "duration": 5.761
        },
        {
            "text": "doing what are what are you doing",
            "start": 1097.08,
            "duration": 4.8
        },
        {
            "text": "Foundation how did you create the",
            "start": 1099.44,
            "duration": 6.2
        },
        {
            "text": "craziest the the just the craziest setup",
            "start": 1101.88,
            "duration": 6.279
        },
        {
            "text": "like what are they doing it's wild thank",
            "start": 1105.64,
            "duration": 4.68
        },
        {
            "text": "you",
            "start": 1108.159,
            "duration": 2.161
        },
        {
            "text": "other people in order to really succeed",
            "start": 1112.24,
            "duration": 3.799
        },
        {
            "text": "at a lot of things and people are afraid",
            "start": 1114.28,
            "duration": 3.72
        },
        {
            "text": "of standing out from other people",
            "start": 1116.039,
            "duration": 4.241
        },
        {
            "text": "because when you stand out from the herd",
            "start": 1118.0,
            "duration": 4.64
        },
        {
            "text": "you get taken down by a mountain lion or",
            "start": 1120.28,
            "duration": 9.16
        },
        {
            "text": "whatever right um so people have strong",
            "start": 1122.64,
            "duration": 8.8
        },
        {
            "text": "resistance to that certain people other",
            "start": 1129.44,
            "duration": 4.359
        },
        {
            "text": "people don't right um people with high",
            "start": 1131.44,
            "duration": 3.32
        },
        {
            "text": "risk",
            "start": 1133.799,
            "duration": 3.561
        },
        {
            "text": "tolerance don't have those aversions to",
            "start": 1134.76,
            "duration": 6.2
        },
        {
            "text": "the same degree and so",
            "start": 1137.36,
            "duration": 6.24
        },
        {
            "text": "um you might be doing that I don't know",
            "start": 1140.96,
            "duration": 5.12
        },
        {
            "text": "I don't know you um I don't know what",
            "start": 1143.6,
            "duration": 3.92
        },
        {
            "text": "your personality is like but you might",
            "start": 1146.08,
            "duration": 2.92
        },
        {
            "text": "be doing that you might be just looking",
            "start": 1147.52,
            "duration": 2.84
        },
        {
            "text": "for",
            "start": 1149.0,
            "duration": 5.039
        },
        {
            "text": "ways to not succeed while thinking that",
            "start": 1150.36,
            "duration": 6.48
        },
        {
            "text": "you tried your",
            "start": 1154.039,
            "duration": 2.801
        },
        {
            "text": "hardest that is definitely a thing that",
            "start": 1158.4,
            "duration": 4.0
        },
        {
            "text": "people",
            "start": 1160.679,
            "duration": 4.961
        },
        {
            "text": "do for",
            "start": 1162.4,
            "duration": 3.24
        },
        {
            "text": "me",
            "start": 1167.24,
            "duration": 3.96
        },
        {
            "text": "me there's not that much question that",
            "start": 1169.039,
            "duration": 4.281
        },
        {
            "text": "I'm going to finish the things that I do",
            "start": 1171.2,
            "duration": 4.359
        },
        {
            "text": "because I've learned the secret of",
            "start": 1173.32,
            "duration": 4.56
        },
        {
            "text": "that I should probably pay attention to",
            "start": 1175.559,
            "duration": 6.24
        },
        {
            "text": "this section everybody pay attention um",
            "start": 1177.88,
            "duration": 6.2
        },
        {
            "text": "finishing the things you start here we",
            "start": 1181.799,
            "duration": 4.841
        },
        {
            "text": "go and the secret of that is you just do",
            "start": 1184.08,
            "duration": 5.959
        },
        {
            "text": "the stuff that you say you're going to",
            "start": 1186.64,
            "duration": 3.399
        },
        {
            "text": "do it literally is the secret there is",
            "start": 1192.919,
            "duration": 4.401
        },
        {
            "text": "only one way to do the things you're",
            "start": 1195.64,
            "duration": 3.279
        },
        {
            "text": "supposed to do is by by doing the things",
            "start": 1197.32,
            "duration": 3.239
        },
        {
            "text": "you said you were going to do like",
            "start": 1198.919,
            "duration": 3.921
        },
        {
            "text": "that's honestly that is that is as good",
            "start": 1200.559,
            "duration": 4.841
        },
        {
            "text": "of advice as you'll ever",
            "start": 1202.84,
            "duration": 5.44
        },
        {
            "text": "receive if you think that there's some",
            "start": 1205.4,
            "duration": 7.0
        },
        {
            "text": "magic bullet to make you more likely to",
            "start": 1208.28,
            "duration": 6.56
        },
        {
            "text": "S like to finish a",
            "start": 1212.4,
            "duration": 4.84
        },
        {
            "text": "project",
            "start": 1214.84,
            "duration": 5.88
        },
        {
            "text": "sorry the answer is just do",
            "start": 1217.24,
            "duration": 7.52
        },
        {
            "text": "it it's really not hard but most people",
            "start": 1220.72,
            "duration": 7.56
        },
        {
            "text": "don't do it right okay this is the sad",
            "start": 1224.76,
            "duration": 6.279
        },
        {
            "text": "fact right most people are bad at",
            "start": 1228.28,
            "duration": 4.879
        },
        {
            "text": "programming most people who are good at",
            "start": 1231.039,
            "duration": 3.601
        },
        {
            "text": "programming are really",
            "start": 1233.159,
            "duration": 3.561
        },
        {
            "text": "busy they're not usually the people",
            "start": 1234.64,
            "duration": 4.399
        },
        {
            "text": "giving you advice about how to",
            "start": 1236.72,
            "duration": 5.72
        },
        {
            "text": "program by sturgeon's",
            "start": 1239.039,
            "duration": 5.841
        },
        {
            "text": "law almost all advice you will see on",
            "start": 1242.44,
            "duration": 6.68
        },
        {
            "text": "the internet about how to program is bad",
            "start": 1244.88,
            "duration": 8.6
        },
        {
            "text": "so I mean if you have absolutely no idea",
            "start": 1249.12,
            "duration": 6.32
        },
        {
            "text": "how to",
            "start": 1253.48,
            "duration": 3.96
        },
        {
            "text": "program then I guess you go on the",
            "start": 1255.44,
            "duration": 3.28
        },
        {
            "text": "internet and you look look for a little",
            "start": 1257.44,
            "duration": 2.88
        },
        {
            "text": "bit like enough to get traction but if",
            "start": 1258.72,
            "duration": 3.88
        },
        {
            "text": "you know how to program a little",
            "start": 1260.32,
            "duration": 4.839
        },
        {
            "text": "bit you probably know better than the",
            "start": 1262.6,
            "duration": 6.079
        },
        {
            "text": "average advice on the internet all right",
            "start": 1265.159,
            "duration": 6.161
        },
        {
            "text": "so what you need to then do is get",
            "start": 1268.679,
            "duration": 5.0
        },
        {
            "text": "better so that you have enough judgment",
            "start": 1271.32,
            "duration": 4.52
        },
        {
            "text": "capability to sift the good advice apart",
            "start": 1273.679,
            "duration": 4.401
        },
        {
            "text": "from the bad advice and the only way to",
            "start": 1275.84,
            "duration": 3.719
        },
        {
            "text": "do that is to",
            "start": 1278.08,
            "duration": 3.8
        },
        {
            "text": "program I really I did I did actually",
            "start": 1279.559,
            "duration": 4.6
        },
        {
            "text": "really like that I maybe maybe you",
            "start": 1281.88,
            "duration": 5.039
        },
        {
            "text": "didn't maybe you didn't catch that one",
            "start": 1284.159,
            "duration": 5.88
        },
        {
            "text": "which is",
            "start": 1286.919,
            "duration": 3.12
        },
        {
            "text": "someone who is he started off by saying",
            "start": 1290.44,
            "duration": 4.56
        },
        {
            "text": "someone who's good at programming is",
            "start": 1293.32,
            "duration": 2.64
        },
        {
            "text": "really",
            "start": 1295.0,
            "duration": 4.159
        },
        {
            "text": "busy and then goes into advice and what",
            "start": 1295.96,
            "duration": 4.48
        },
        {
            "text": "he was saying is that when you're",
            "start": 1299.159,
            "duration": 2.921
        },
        {
            "text": "listening to people who are regularly",
            "start": 1300.44,
            "duration": 4.96
        },
        {
            "text": "giving out tons of free programming",
            "start": 1302.08,
            "duration": 5.959
        },
        {
            "text": "advice and all",
            "start": 1305.4,
            "duration": 4.84
        },
        {
            "text": "this you are listening to people that",
            "start": 1308.039,
            "duration": 4.561
        },
        {
            "text": "aren't",
            "start": 1310.24,
            "duration": 2.36
        },
        {
            "text": "busy which means by his definition there",
            "start": 1312.72,
            "duration": 4.88
        },
        {
            "text": "you might not be listening to the best",
            "start": 1315.96,
            "duration": 4.079
        },
        {
            "text": "advice",
            "start": 1317.6,
            "duration": 2.439
        },
        {
            "text": "that's pretty good it's a it's a bit of",
            "start": 1321.32,
            "duration": 3.28
        },
        {
            "text": "a funny",
            "start": 1322.919,
            "duration": 3.681
        },
        {
            "text": "Paradox which means that whenever you're",
            "start": 1324.6,
            "duration": 3.36
        },
        {
            "text": "getting",
            "start": 1326.6,
            "duration": 5.12
        },
        {
            "text": "like how often do you get code",
            "start": 1327.96,
            "duration": 5.8
        },
        {
            "text": "reviews and the people that seem to be",
            "start": 1331.72,
            "duration": 5.12
        },
        {
            "text": "the most active on code",
            "start": 1333.76,
            "duration": 3.08
        },
        {
            "text": "reviews uh",
            "start": 1337.12,
            "duration": 3.12
        },
        {
            "text": "oh",
            "start": 1343.48,
            "duration": 3.16
        },
        {
            "text": "[Music]",
            "start": 1345.03,
            "duration": 3.49
        },
        {
            "text": "uhoh uhoh",
            "start": 1346.64,
            "duration": 3.36
        },
        {
            "text": "uh I don't know I mean it's just it's an",
            "start": 1348.52,
            "duration": 2.88
        },
        {
            "text": "interesting kind of paradox it's a it's",
            "start": 1350.0,
            "duration": 3.039
        },
        {
            "text": "an interesting",
            "start": 1351.4,
            "duration": 3.8
        },
        {
            "text": "problem",
            "start": 1353.039,
            "duration": 4.161
        },
        {
            "text": "anyways you're not really the best since",
            "start": 1355.2,
            "duration": 3.4
        },
        {
            "text": "you're here with us absolutely I'm not",
            "start": 1357.2,
            "duration": 3.68
        },
        {
            "text": "the best how do you level up as a",
            "start": 1358.6,
            "duration": 3.679
        },
        {
            "text": "programmer who's been primarily working",
            "start": 1360.88,
            "duration": 2.96
        },
        {
            "text": "with web framework stop doing web",
            "start": 1362.279,
            "duration": 4.0
        },
        {
            "text": "programming web programming is bad it",
            "start": 1363.84,
            "duration": 5.6
        },
        {
            "text": "will make you a bad programmer stop it",
            "start": 1366.279,
            "duration": 5.081
        },
        {
            "text": "work on other things in other domains",
            "start": 1369.44,
            "duration": 4.68
        },
        {
            "text": "that is Step number",
            "start": 1371.36,
            "duration": 5.04
        },
        {
            "text": "one I think that's good advice it's like",
            "start": 1374.12,
            "duration": 4.96
        },
        {
            "text": "saying how do I become a better",
            "start": 1376.4,
            "duration": 7.68
        },
        {
            "text": "athlete when what I do is I sit around",
            "start": 1379.08,
            "duration": 6.839
        },
        {
            "text": "with all the guys on the couch with the",
            "start": 1384.08,
            "duration": 3.959
        },
        {
            "text": "bags of Cheetos and we practice throwing",
            "start": 1385.919,
            "duration": 3.88
        },
        {
            "text": "the Cheetos into each other's",
            "start": 1388.039,
            "duration": 4.041
        },
        {
            "text": "Bowl which is kind of like playing",
            "start": 1389.799,
            "duration": 4.76
        },
        {
            "text": "basketball and it's like",
            "start": 1392.08,
            "duration": 4.599
        },
        {
            "text": "no just play",
            "start": 1394.559,
            "duration": 4.641
        },
        {
            "text": "basketball that's that's",
            "start": 1396.679,
            "duration": 5.441
        },
        {
            "text": "funny okay I like that I like that that",
            "start": 1399.2,
            "duration": 3.88
        },
        {
            "text": "that the",
            "start": 1402.12,
            "duration": 3.64
        },
        {
            "text": "analogy pretty funny but I like that I",
            "start": 1403.08,
            "duration": 4.92
        },
        {
            "text": "actually like I generally I generally",
            "start": 1405.76,
            "duration": 4.68
        },
        {
            "text": "like that whole",
            "start": 1408.0,
            "duration": 2.44
        },
        {
            "text": "thing beer pong is a real sport is it I",
            "start": 1412.039,
            "duration": 5.201
        },
        {
            "text": "get this [\u00a0__\u00a0] all the time how do I get",
            "start": 1415.919,
            "duration": 5.841
        },
        {
            "text": "better at Judo do more Judo dude it the",
            "start": 1417.24,
            "duration": 7.16
        },
        {
            "text": "answer is almost always time in the",
            "start": 1421.76,
            "duration": 5.36
        },
        {
            "text": "saddle anytime you hear someone how do I",
            "start": 1424.4,
            "duration": 5.44
        },
        {
            "text": "get better at X they're almost never",
            "start": 1427.12,
            "duration": 5.08
        },
        {
            "text": "asking you to say the simplest an",
            "start": 1429.84,
            "duration": 5.04
        },
        {
            "text": "obvious answer which is just do the",
            "start": 1432.2,
            "duration": 5.839
        },
        {
            "text": "thing that's how you get better okay",
            "start": 1434.88,
            "duration": 4.84
        },
        {
            "text": "because yes there are some things that",
            "start": 1438.039,
            "duration": 3.561
        },
        {
            "text": "you can't quite do that with like golf",
            "start": 1439.72,
            "duration": 3.559
        },
        {
            "text": "you need to have someone show you the",
            "start": 1441.6,
            "duration": 3.559
        },
        {
            "text": "right way to do it then you go do the",
            "start": 1443.279,
            "duration": 5.88
        },
        {
            "text": "right way 10,000",
            "start": 1445.159,
            "duration": 4.0
        },
        {
            "text": "times like that's just how it works is",
            "start": 1449.559,
            "duration": 4.801
        },
        {
            "text": "that you have to have some hint as to",
            "start": 1452.48,
            "duration": 4.0
        },
        {
            "text": "how to do better and then you just do it",
            "start": 1454.36,
            "duration": 4.88
        },
        {
            "text": "constantly over and over again every day",
            "start": 1456.48,
            "duration": 4.4
        },
        {
            "text": "always and that is actually what I'm",
            "start": 1459.24,
            "duration": 3.96
        },
        {
            "text": "going to go do right now because I have",
            "start": 1460.88,
            "duration": 4.24
        },
        {
            "text": "a very fantastic project that needs some",
            "start": 1463.2,
            "duration": 3.76
        },
        {
            "text": "wrangling and I would like to do some",
            "start": 1465.12,
            "duration": 4.679
        },
        {
            "text": "wrangling",
            "start": 1466.96,
            "duration": 2.839
        }
    ],
    "stats": {
        "viewCount": "162309",
        "likeCount": "5136",
        "favoriteCount": "0",
        "commentCount": "1033"
    }
}