{
    "id": "zs8FStOO2Z4",
    "title": "Prime Reacts:  Building a Startup in Rust; I won&#39;t do it again",
    "publishedAt": "2023-02-22T13:53:56Z",
    "captions": [
        {
            "text": "it's just better",
            "start": 0.06,
            "duration": 3.899
        },
        {
            "text": "all right I love building a startup in",
            "start": 1.68,
            "duration": 4.56
        },
        {
            "text": "Rust I wouldn't pick it up again this",
            "start": 3.959,
            "duration": 4.14
        },
        {
            "text": "seems pretty Fantastical I like where",
            "start": 6.24,
            "duration": 3.24
        },
        {
            "text": "this is going I think this is kind of",
            "start": 8.099,
            "duration": 3.781
        },
        {
            "text": "exciting right like when I see this it",
            "start": 9.48,
            "duration": 3.96
        },
        {
            "text": "stirs in me all sorts of different",
            "start": 11.88,
            "duration": 3.179
        },
        {
            "text": "emotions because why would you love",
            "start": 13.44,
            "duration": 3.24
        },
        {
            "text": "building something and why wouldn't you",
            "start": 15.059,
            "duration": 4.081
        },
        {
            "text": "pick it again all right let's see for",
            "start": 16.68,
            "duration": 4.2
        },
        {
            "text": "almost two years now the vast majority",
            "start": 19.14,
            "duration": 3.299
        },
        {
            "text": "of our backend code was written in Rust",
            "start": 20.88,
            "duration": 3.96
        },
        {
            "text": "aside from a little bit of python I love",
            "start": 22.439,
            "duration": 4.441
        },
        {
            "text": "rust it's by far my favorite programming",
            "start": 24.84,
            "duration": 3.84
        },
        {
            "text": "language I find myself missing match in",
            "start": 26.88,
            "duration": 3.479
        },
        {
            "text": "pretty much every other language I go to",
            "start": 28.68,
            "duration": 4.02
        },
        {
            "text": "you know what's funny match is one of my",
            "start": 30.359,
            "duration": 4.921
        },
        {
            "text": "I don't use match very often I always",
            "start": 32.7,
            "duration": 3.96
        },
        {
            "text": "find whenever I'm using match I'm",
            "start": 35.28,
            "duration": 3.119
        },
        {
            "text": "disappointed that I'm using match I",
            "start": 36.66,
            "duration": 3.18
        },
        {
            "text": "don't like how many indents happen in",
            "start": 38.399,
            "duration": 3.301
        },
        {
            "text": "the code you know what I mean I don't",
            "start": 39.84,
            "duration": 4.08
        },
        {
            "text": "know just maybe me however if I was",
            "start": 41.7,
            "duration": 4.019
        },
        {
            "text": "doing it over I wouldn't choose rust",
            "start": 43.92,
            "duration": 3.659
        },
        {
            "text": "okay this is interesting this advice is",
            "start": 45.719,
            "duration": 3.961
        },
        {
            "text": "primarily for early stage startups",
            "start": 47.579,
            "duration": 5.041
        },
        {
            "text": "pre-products pre-seed pre-idea pre-seed",
            "start": 49.68,
            "duration": 6.719
        },
        {
            "text": "pre money uh but first it's important to",
            "start": 52.62,
            "duration": 5.459
        },
        {
            "text": "ask why we went with rust in the first",
            "start": 56.399,
            "duration": 2.461
        },
        {
            "text": "place",
            "start": 58.079,
            "duration": 2.761
        },
        {
            "text": "okay I'm excited I do love edoms I do",
            "start": 58.86,
            "duration": 3.12
        },
        {
            "text": "love rusting them so this match",
            "start": 60.84,
            "duration": 3.24
        },
        {
            "text": "statement all that we'll see all right",
            "start": 61.98,
            "duration": 3.72
        },
        {
            "text": "so why do we choose rust initially",
            "start": 64.08,
            "duration": 3.42
        },
        {
            "text": "safety plus plus I'm excited that they",
            "start": 65.7,
            "duration": 3.06
        },
        {
            "text": "didn't say performance because I really",
            "start": 67.5,
            "duration": 3.36
        },
        {
            "text": "do think that rust has a lot more to",
            "start": 68.76,
            "duration": 2.88
        },
        {
            "text": "offer",
            "start": 70.86,
            "duration": 2.28
        },
        {
            "text": "and I think readability and",
            "start": 71.64,
            "duration": 3.479
        },
        {
            "text": "expressiveness is actually their primary",
            "start": 73.14,
            "duration": 4.2
        },
        {
            "text": "offering and then everything else Falls",
            "start": 75.119,
            "duration": 3.54
        },
        {
            "text": "ahead of it if there was no memory",
            "start": 77.34,
            "duration": 2.76
        },
        {
            "text": "safety in Rust",
            "start": 78.659,
            "duration": 3.301
        },
        {
            "text": "and I was able to get as good as I have",
            "start": 80.1,
            "duration": 3.72
        },
        {
            "text": "been so far I think I would still enjoy",
            "start": 81.96,
            "duration": 4.019
        },
        {
            "text": "the language more than JavaScript",
            "start": 83.82,
            "duration": 4.08
        },
        {
            "text": "I'm a big believer that even the best",
            "start": 85.979,
            "duration": 3.661
        },
        {
            "text": "developers get slowed down by silly",
            "start": 87.9,
            "duration": 3.18
        },
        {
            "text": "mistakes absolutely types are obviously",
            "start": 89.64,
            "duration": 3.06
        },
        {
            "text": "important to combat that but rust feels",
            "start": 91.08,
            "duration": 3.78
        },
        {
            "text": "like it goes above let's see it goes",
            "start": 92.7,
            "duration": 3.84
        },
        {
            "text": "above and behind here",
            "start": 94.86,
            "duration": 3.36
        },
        {
            "text": "not sure what that means runtime issues",
            "start": 96.54,
            "duration": 4.14
        },
        {
            "text": "are easy are easy to avoid you have to",
            "start": 98.22,
            "duration": 4.079
        },
        {
            "text": "go out of your way to cause a memory",
            "start": 100.68,
            "duration": 4.32
        },
        {
            "text": "leak crates like squeal X exist so you",
            "start": 102.299,
            "duration": 4.14
        },
        {
            "text": "can do compile time checking of your",
            "start": 105.0,
            "duration": 4.14
        },
        {
            "text": "squeal queries against the DB uh arrest",
            "start": 106.439,
            "duration": 4.68
        },
        {
            "text": "and the ecosystem around it has a lot of",
            "start": 109.14,
            "duration": 3.24
        },
        {
            "text": "tools to stop you from shooting yourself",
            "start": 111.119,
            "duration": 2.64
        },
        {
            "text": "in the foot like I think this is",
            "start": 112.38,
            "duration": 4.14
        },
        {
            "text": "incredible right this is incredible that",
            "start": 113.759,
            "duration": 4.561
        },
        {
            "text": "they actually you can do",
            "start": 116.52,
            "duration": 5.22
        },
        {
            "text": "like type checking against your queries",
            "start": 118.32,
            "duration": 6.72
        },
        {
            "text": "using squeal X",
            "start": 121.74,
            "duration": 5.699
        },
        {
            "text": "like at compile time",
            "start": 125.04,
            "duration": 4.32
        },
        {
            "text": "yeah above and behind I the above and",
            "start": 127.439,
            "duration": 3.66
        },
        {
            "text": "behind makes no sense in this case I'm",
            "start": 129.36,
            "duration": 3.66
        },
        {
            "text": "not sure what that means above and",
            "start": 131.099,
            "duration": 4.081
        },
        {
            "text": "beyond I think is what he means uh",
            "start": 133.02,
            "duration": 4.439
        },
        {
            "text": "because behind is not the right the",
            "start": 135.18,
            "duration": 3.84
        },
        {
            "text": "right one you know what I mean",
            "start": 137.459,
            "duration": 3.961
        },
        {
            "text": "grammarly dung goofed uh readability",
            "start": 139.02,
            "duration": 4.56
        },
        {
            "text": "versus Express or readability divided by",
            "start": 141.42,
            "duration": 3.899
        },
        {
            "text": "expressiveness there are many things",
            "start": 143.58,
            "duration": 4.26
        },
        {
            "text": "about rust syntax that make me happy yes",
            "start": 145.319,
            "duration": 5.521
        },
        {
            "text": "the question operator yes yes it's a",
            "start": 147.84,
            "duration": 4.32
        },
        {
            "text": "great approach to error handling and it",
            "start": 150.84,
            "duration": 3.18
        },
        {
            "text": "keeps the code focused on a happy path",
            "start": 152.16,
            "duration": 4.74
        },
        {
            "text": "not only that but because of the error",
            "start": 154.02,
            "duration": 6.0
        },
        {
            "text": "operator but more so because",
            "start": 156.9,
            "duration": 6.6
        },
        {
            "text": "errors our values knowing what functions",
            "start": 160.02,
            "duration": 5.46
        },
        {
            "text": "could error is one of the most valuable",
            "start": 163.5,
            "duration": 3.66
        },
        {
            "text": "thing about rust that I think is",
            "start": 165.48,
            "duration": 3.42
        },
        {
            "text": "completely understated that people just",
            "start": 167.16,
            "duration": 4.74
        },
        {
            "text": "do not understand why this is so dang",
            "start": 168.9,
            "duration": 4.8
        },
        {
            "text": "good",
            "start": 171.9,
            "duration": 5.04
        },
        {
            "text": "it is crazy it's crazy how good",
            "start": 173.7,
            "duration": 5.94
        },
        {
            "text": "error first approach is",
            "start": 176.94,
            "duration": 4.86
        },
        {
            "text": "we frequently write code like this",
            "start": 179.64,
            "duration": 4.86
        },
        {
            "text": "yeah yeah this is this is beautiful this",
            "start": 181.8,
            "duration": 5.159
        },
        {
            "text": "is beautiful",
            "start": 184.5,
            "duration": 3.66
        },
        {
            "text": "I'd say the first question mark",
            "start": 186.959,
            "duration": 2.761
        },
        {
            "text": "propagates unexpected DB errors the",
            "start": 188.16,
            "duration": 2.82
        },
        {
            "text": "second one propagates not found errors",
            "start": 189.72,
            "duration": 4.019
        },
        {
            "text": "yeah I love it it's so good uh yeah",
            "start": 190.98,
            "duration": 4.619
        },
        {
            "text": "error is very very nice oh I even just",
            "start": 193.739,
            "duration": 3.541
        },
        {
            "text": "use anyhow honestly I just use anyhow",
            "start": 195.599,
            "duration": 3.78
        },
        {
            "text": "for all my applications because for the",
            "start": 197.28,
            "duration": 3.06
        },
        {
            "text": "most part when I'm developing an",
            "start": 199.379,
            "duration": 3.241
        },
        {
            "text": "application I don't really care",
            "start": 200.34,
            "duration": 4.2
        },
        {
            "text": "much about the errors other than that",
            "start": 202.62,
            "duration": 3.24
        },
        {
            "text": "they're present they have a good name",
            "start": 204.54,
            "duration": 3.24
        },
        {
            "text": "they have like some information and that",
            "start": 205.86,
            "duration": 3.18
        },
        {
            "text": "they're correct like that's all I really",
            "start": 207.78,
            "duration": 3.0
        },
        {
            "text": "really want whereas you know if I'm",
            "start": 209.04,
            "duration": 2.94
        },
        {
            "text": "developing a library it's more like this",
            "start": 210.78,
            "duration": 3.599
        },
        {
            "text": "error I choose a more uh uh you know I",
            "start": 211.98,
            "duration": 3.42
        },
        {
            "text": "choose something that I can really",
            "start": 214.379,
            "duration": 2.881
        },
        {
            "text": "structure and I keep really nice yeah",
            "start": 215.4,
            "duration": 3.3
        },
        {
            "text": "language like JavaScript is really",
            "start": 217.26,
            "duration": 2.64
        },
        {
            "text": "dangerous in the sense that you don't",
            "start": 218.7,
            "duration": 2.52
        },
        {
            "text": "know that this could error like if this",
            "start": 219.9,
            "duration": 3.119
        },
        {
            "text": "was in JavaScript you would have an",
            "start": 221.22,
            "duration": 4.62
        },
        {
            "text": "await right here and that's it and your",
            "start": 223.019,
            "duration": 5.881
        },
        {
            "text": "definition would be user or undefined",
            "start": 225.84,
            "duration": 5.22
        },
        {
            "text": "but you would have no idea that an error",
            "start": 228.9,
            "duration": 4.32
        },
        {
            "text": "could be thrown in multiple locations",
            "start": 231.06,
            "duration": 3.899
        },
        {
            "text": "right and that's the that's a big thing",
            "start": 233.22,
            "duration": 3.54
        },
        {
            "text": "right there which is just uh really",
            "start": 234.959,
            "duration": 3.181
        },
        {
            "text": "succinct for what it does while being",
            "start": 236.76,
            "duration": 4.14
        },
        {
            "text": "flexible if you also include algebraic",
            "start": 238.14,
            "duration": 4.62
        },
        {
            "text": "types match type conversions from into",
            "start": 240.9,
            "duration": 4.32
        },
        {
            "text": "try from and more rust let us write very",
            "start": 242.76,
            "duration": 4.86
        },
        {
            "text": "succinct readable code agree why",
            "start": 245.22,
            "duration": 4.2
        },
        {
            "text": "wouldn't we not choose rest again okay",
            "start": 247.62,
            "duration": 3.179
        },
        {
            "text": "so here we go are you I hope you're",
            "start": 249.42,
            "duration": 2.879
        },
        {
            "text": "ready I hope you're ready because I am",
            "start": 250.799,
            "duration": 4.08
        },
        {
            "text": "ready I hate exceptions exceptions are",
            "start": 252.299,
            "duration": 4.62
        },
        {
            "text": "terrible right",
            "start": 254.879,
            "duration": 4.08
        },
        {
            "text": "exemptions are terrible here I will link",
            "start": 256.919,
            "duration": 3.841
        },
        {
            "text": "the article right here",
            "start": 258.959,
            "duration": 3.661
        },
        {
            "text": "you can just look it up why I wouldn't",
            "start": 260.76,
            "duration": 5.04
        },
        {
            "text": "or the it's called I love building I",
            "start": 262.62,
            "duration": 4.799
        },
        {
            "text": "love building a startup in Rust why I",
            "start": 265.8,
            "duration": 3.48
        },
        {
            "text": "wouldn't pick it again okay if I were",
            "start": 267.419,
            "duration": 3.361
        },
        {
            "text": "starting the company over from scratch",
            "start": 269.28,
            "duration": 3.18
        },
        {
            "text": "there are a few things to consider",
            "start": 270.78,
            "duration": 4.26
        },
        {
            "text": "slower iterations I would love to I",
            "start": 272.46,
            "duration": 4.08
        },
        {
            "text": "really want to know more about this",
            "start": 275.04,
            "duration": 3.599
        },
        {
            "text": "because I I'm super skeptical of this",
            "start": 276.54,
            "duration": 3.96
        },
        {
            "text": "one when you first start with rust",
            "start": 278.639,
            "duration": 3.241
        },
        {
            "text": "you'll end up fighting the compiler a",
            "start": 280.5,
            "duration": 2.699
        },
        {
            "text": "bit Yep this is natural and it gets",
            "start": 281.88,
            "duration": 3.12
        },
        {
            "text": "easier Over time however at an at a new",
            "start": 283.199,
            "duration": 3.181
        },
        {
            "text": "startup one of the core problems is",
            "start": 285.0,
            "duration": 2.46
        },
        {
            "text": "figuring out if you are building",
            "start": 286.38,
            "duration": 4.98
        },
        {
            "text": "something useful absolutely a quick MVP",
            "start": 287.46,
            "duration": 5.7
        },
        {
            "text": "can be invaluable for uh in determining",
            "start": 291.36,
            "duration": 3.899
        },
        {
            "text": "if you are on the right path or lost in",
            "start": 293.16,
            "duration": 3.84
        },
        {
            "text": "the woods at the time of making it",
            "start": 295.259,
            "duration": 3.481
        },
        {
            "text": "readable performance code might be",
            "start": 297.0,
            "duration": 3.3
        },
        {
            "text": "wasted",
            "start": 298.74,
            "duration": 3.72
        },
        {
            "text": "I would say yes and no I'd say that",
            "start": 300.3,
            "duration": 3.72
        },
        {
            "text": "there's a couple things I see right here",
            "start": 302.46,
            "duration": 4.4
        },
        {
            "text": "that are kind of uh",
            "start": 304.02,
            "duration": 2.84
        },
        {
            "text": "I I I why I hate this argument is that",
            "start": 307.86,
            "duration": 4.68
        },
        {
            "text": "you can write rust in two different ways",
            "start": 310.86,
            "duration": 3.36
        },
        {
            "text": "let me show you something uh I don't",
            "start": 312.54,
            "duration": 3.12
        },
        {
            "text": "know why this screen is so crazy right",
            "start": 314.22,
            "duration": 3.3
        },
        {
            "text": "now but let me show you something uh",
            "start": 315.66,
            "duration": 3.599
        },
        {
            "text": "back it up oh yeah I use this for a box",
            "start": 317.52,
            "duration": 3.3
        },
        {
            "text": "art earlier today don't don't worry",
            "start": 319.259,
            "duration": 4.261
        },
        {
            "text": "about that uh oh my goodness dap dap",
            "start": 320.82,
            "duration": 5.58
        },
        {
            "text": "them all right uh let's go like this",
            "start": 323.52,
            "duration": 6.119
        },
        {
            "text": "hey uh let's go in here and go to what",
            "start": 326.4,
            "duration": 4.859
        },
        {
            "text": "is it called it's called Uh Explorer",
            "start": 329.639,
            "duration": 3.181
        },
        {
            "text": "three",
            "start": 331.259,
            "duration": 4.38
        },
        {
            "text": "and if you look at the code that I've",
            "start": 332.82,
            "duration": 4.379
        },
        {
            "text": "been kind of producing here you'll",
            "start": 335.639,
            "duration": 3.661
        },
        {
            "text": "notice that look at how often I'm using",
            "start": 337.199,
            "duration": 4.201
        },
        {
            "text": "clone I'm using clone all over the place",
            "start": 339.3,
            "duration": 5.1
        },
        {
            "text": "also two path buff right you'll see that",
            "start": 341.4,
            "duration": 5.04
        },
        {
            "text": "I used a bunch unwrap all this kind of",
            "start": 344.4,
            "duration": 3.84
        },
        {
            "text": "stuff and the reason why I'm doing it",
            "start": 346.44,
            "duration": 5.42
        },
        {
            "text": "this specific way is that I'm not trying",
            "start": 348.24,
            "duration": 7.32
        },
        {
            "text": "to write great code I'm just exploring",
            "start": 351.86,
            "duration": 5.74
        },
        {
            "text": "to make sure the thing or the concept is",
            "start": 355.56,
            "duration": 4.44
        },
        {
            "text": "the right concept I want to build is",
            "start": 357.6,
            "duration": 3.78
        },
        {
            "text": "this the right path I've taken I've",
            "start": 360.0,
            "duration": 3.18
        },
        {
            "text": "Rewritten this code like seven times on",
            "start": 361.38,
            "duration": 4.14
        },
        {
            "text": "stream just because I know for a fact",
            "start": 363.18,
            "duration": 4.739
        },
        {
            "text": "that if I'm going to write this well I",
            "start": 365.52,
            "duration": 3.84
        },
        {
            "text": "first need to make sure I actually have",
            "start": 367.919,
            "duration": 2.881
        },
        {
            "text": "the idea correct and so I think that",
            "start": 369.36,
            "duration": 3.059
        },
        {
            "text": "there's two iterations you can always go",
            "start": 370.8,
            "duration": 3.36
        },
        {
            "text": "through you can always go through like",
            "start": 372.419,
            "duration": 3.961
        },
        {
            "text": "the fast just get it done make sure you",
            "start": 374.16,
            "duration": 4.02
        },
        {
            "text": "have the right idea the thing is correct",
            "start": 376.38,
            "duration": 3.36
        },
        {
            "text": "that's the way I want it and then you",
            "start": 378.18,
            "duration": 3.299
        },
        {
            "text": "can kind of go through and undo a couple",
            "start": 379.74,
            "duration": 3.48
        },
        {
            "text": "of your you know your freeze that are",
            "start": 381.479,
            "duration": 3.66
        },
        {
            "text": "that are stupid right like oh I have",
            "start": 383.22,
            "duration": 3.24
        },
        {
            "text": "some unwraps I have a couple of these",
            "start": 385.139,
            "duration": 2.641
        },
        {
            "text": "things here let me just pull them out",
            "start": 386.46,
            "duration": 3.179
        },
        {
            "text": "really quickly right like I mean I can",
            "start": 387.78,
            "duration": 4.08
        },
        {
            "text": "easily do something in here that doesn't",
            "start": 389.639,
            "duration": 4.68
        },
        {
            "text": "continue if I unwrap and it's not there",
            "start": 391.86,
            "duration": 3.899
        },
        {
            "text": "right so you could imagine that I could",
            "start": 394.319,
            "duration": 4.141
        },
        {
            "text": "I mean I could literally take this once",
            "start": 395.759,
            "duration": 4.261
        },
        {
            "text": "I know that I'm right uh how did I just",
            "start": 398.46,
            "duration": 3.48
        },
        {
            "text": "do that oh no yep I have that weird bug",
            "start": 400.02,
            "duration": 3.66
        },
        {
            "text": "in neovim look at this I don't know what",
            "start": 401.94,
            "duration": 2.94
        },
        {
            "text": "happens but it has something to do with",
            "start": 403.68,
            "duration": 3.0
        },
        {
            "text": "netrw getting triggered but you could",
            "start": 404.88,
            "duration": 4.5
        },
        {
            "text": "imagine I could copy this right take out",
            "start": 406.68,
            "duration": 4.5
        },
        {
            "text": "this thing path is now an option of that",
            "start": 409.38,
            "duration": 3.78
        },
        {
            "text": "thing if you know blah blah blah blah I",
            "start": 411.18,
            "duration": 4.019
        },
        {
            "text": "could go in here and do some continuing",
            "start": 413.16,
            "duration": 4.02
        },
        {
            "text": "try to make it better match on it call",
            "start": 415.199,
            "duration": 3.84
        },
        {
            "text": "different functions refactor I could do",
            "start": 417.18,
            "duration": 3.6
        },
        {
            "text": "something to just get rid of this but",
            "start": 419.039,
            "duration": 3.181
        },
        {
            "text": "for now it doesn't matter I'm just going",
            "start": 420.78,
            "duration": 3.419
        },
        {
            "text": "fast I want to make the right thing",
            "start": 422.22,
            "duration": 4.14
        },
        {
            "text": "first I wanted to do the right thing and",
            "start": 424.199,
            "duration": 3.421
        },
        {
            "text": "I want to test it to make sure it's",
            "start": 426.36,
            "duration": 3.36
        },
        {
            "text": "exactly what I want and so I think",
            "start": 427.62,
            "duration": 4.139
        },
        {
            "text": "people forget that with rust you kind of",
            "start": 429.72,
            "duration": 3.96
        },
        {
            "text": "can operate in two different modes you",
            "start": 431.759,
            "duration": 3.841
        },
        {
            "text": "have like the just the copy",
            "start": 433.68,
            "duration": 4.38
        },
        {
            "text": "simple just get it done with code and",
            "start": 435.6,
            "duration": 4.08
        },
        {
            "text": "then you can kind of come back and make",
            "start": 438.06,
            "duration": 3.419
        },
        {
            "text": "things better and so that's a lot of",
            "start": 439.68,
            "duration": 3.0
        },
        {
            "text": "times how I approach things when I'm",
            "start": 441.479,
            "duration": 2.761
        },
        {
            "text": "trying to move super fast is just get it",
            "start": 442.68,
            "duration": 3.419
        },
        {
            "text": "right then get it good I don't know",
            "start": 444.24,
            "duration": 3.54
        },
        {
            "text": "personal opinion additionally every new",
            "start": 446.099,
            "duration": 2.94
        },
        {
            "text": "employee that isn't familiar with rust",
            "start": 447.78,
            "duration": 3.06
        },
        {
            "text": "will run into this yeah absolutely I",
            "start": 449.039,
            "duration": 3.6
        },
        {
            "text": "mean but",
            "start": 450.84,
            "duration": 3.24
        },
        {
            "text": "have you ever tried to hire someone",
            "start": 452.639,
            "duration": 3.18
        },
        {
            "text": "brand new to JavaScript",
            "start": 454.08,
            "duration": 4.019
        },
        {
            "text": "real talk if you hire someone that only",
            "start": 455.819,
            "duration": 6.0
        },
        {
            "text": "knows about uh",
            "start": 458.099,
            "duration": 5.761
        },
        {
            "text": "about say C plus plus and you make them",
            "start": 461.819,
            "duration": 4.5
        },
        {
            "text": "start doing JavaScript the real reality",
            "start": 463.86,
            "duration": 4.26
        },
        {
            "text": "to the situation is they won't even know",
            "start": 466.319,
            "duration": 3.961
        },
        {
            "text": "what methods throw they won't be putting",
            "start": 468.12,
            "duration": 4.32
        },
        {
            "text": "try catches in right places they will be",
            "start": 470.28,
            "duration": 5.22
        },
        {
            "text": "just putting dangerous foot guns",
            "start": 472.44,
            "duration": 5.159
        },
        {
            "text": "all over your code base and you will",
            "start": 475.5,
            "duration": 4.139
        },
        {
            "text": "have no idea they'll be accidentally",
            "start": 477.599,
            "duration": 3.361
        },
        {
            "text": "mutating when they should mutate",
            "start": 479.639,
            "duration": 3.361
        },
        {
            "text": "there'll be just so many things go wrong",
            "start": 480.96,
            "duration": 3.72
        },
        {
            "text": "because you're not familiar with the",
            "start": 483.0,
            "duration": 4.08
        },
        {
            "text": "language and so again is this a problem",
            "start": 484.68,
            "duration": 5.04
        },
        {
            "text": "or is this a the ecosystem isn't quite",
            "start": 487.08,
            "duration": 6.179
        },
        {
            "text": "developed right you know it I mean maybe",
            "start": 489.72,
            "duration": 4.86
        },
        {
            "text": "it's not developed maybe it is I don't",
            "start": 493.259,
            "duration": 3.0
        },
        {
            "text": "know perf is easy when you have AWS",
            "start": 494.58,
            "duration": 4.16
        },
        {
            "text": "credits",
            "start": 496.259,
            "duration": 2.481
        },
        {
            "text": "yeah uh one reason that you might pick",
            "start": 499.08,
            "duration": 4.019
        },
        {
            "text": "rust is for overall performance you",
            "start": 501.419,
            "duration": 3.18
        },
        {
            "text": "should see this recent tweet I saw I I",
            "start": 503.099,
            "duration": 3.54
        },
        {
            "text": "would I I might try to pick it up at a",
            "start": 504.599,
            "duration": 3.481
        },
        {
            "text": "startup when you start to scale you are",
            "start": 506.639,
            "duration": 3.301
        },
        {
            "text": "met with an interesting alternative take",
            "start": 508.08,
            "duration": 3.36
        },
        {
            "text": "the free money that every infra cover",
            "start": 509.94,
            "duration": 3.479
        },
        {
            "text": "company offers you and scale vertically",
            "start": 511.44,
            "duration": 5.099
        },
        {
            "text": "slash horizontally AWS activate gcp has",
            "start": 513.419,
            "duration": 4.5
        },
        {
            "text": "a startup program if you search for",
            "start": 516.539,
            "duration": 2.88
        },
        {
            "text": "startup deals you'll find many more",
            "start": 517.919,
            "duration": 3.3
        },
        {
            "text": "there's a whole network of products that",
            "start": 519.419,
            "duration": 4.56
        },
        {
            "text": "have yeah again I don't choose rust for",
            "start": 521.219,
            "duration": 4.68
        },
        {
            "text": "performance first that's not a great",
            "start": 523.979,
            "duration": 4.141
        },
        {
            "text": "reason to do it right",
            "start": 525.899,
            "duration": 4.56
        },
        {
            "text": "um I I just don't think that its",
            "start": 528.12,
            "duration": 6.0
        },
        {
            "text": "benefits come from that honestly I think",
            "start": 530.459,
            "duration": 5.341
        },
        {
            "text": "I honestly think the biggest benefit",
            "start": 534.12,
            "duration": 4.02
        },
        {
            "text": "from rust is its enums once you start",
            "start": 535.8,
            "duration": 3.659
        },
        {
            "text": "playing around with enums and your",
            "start": 538.14,
            "duration": 3.36
        },
        {
            "text": "ability to use those enums well it's",
            "start": 539.459,
            "duration": 5.281
        },
        {
            "text": "just a hundred times better right uh so",
            "start": 541.5,
            "duration": 4.86
        },
        {
            "text": "let's see AWS credit when you're ready",
            "start": 544.74,
            "duration": 2.82
        },
        {
            "text": "you can apply for up to a hundred",
            "start": 546.36,
            "duration": 3.599
        },
        {
            "text": "thousand dollars in AWS activate credits",
            "start": 547.56,
            "duration": 4.68
        },
        {
            "text": "to help cover your AWS service usage",
            "start": 549.959,
            "duration": 3.601
        },
        {
            "text": "once you're approved for credits you'll",
            "start": 552.24,
            "duration": 3.719
        },
        {
            "text": "unlock access wow I mean that's a great",
            "start": 553.56,
            "duration": 4.56
        },
        {
            "text": "deal it's a great deal you can postpone",
            "start": 555.959,
            "duration": 4.261
        },
        {
            "text": "dealing with scale to make uh making a",
            "start": 558.12,
            "duration": 4.68
        },
        {
            "text": "bigger caves cluster or a larger yeah",
            "start": 560.22,
            "duration": 3.9
        },
        {
            "text": "um",
            "start": 562.8,
            "duration": 4.62
        },
        {
            "text": "I I mean I don't the problem is is",
            "start": 564.12,
            "duration": 5.219
        },
        {
            "text": "postponing is a really expensive",
            "start": 567.42,
            "duration": 4.68
        },
        {
            "text": "operation right what is more what is",
            "start": 569.339,
            "duration": 4.581
        },
        {
            "text": "more expensive",
            "start": 572.1,
            "duration": 5.34
        },
        {
            "text": "optimizing a system that's big",
            "start": 573.92,
            "duration": 5.44
        },
        {
            "text": "or taking an extra month trying to build",
            "start": 577.44,
            "duration": 4.079
        },
        {
            "text": "it right in the first place",
            "start": 579.36,
            "duration": 4.32
        },
        {
            "text": "which one's better",
            "start": 581.519,
            "duration": 3.721
        },
        {
            "text": "I don't know I can't tell you because",
            "start": 583.68,
            "duration": 2.94
        },
        {
            "text": "this is one of those things that yeah",
            "start": 585.24,
            "duration": 3.9
        },
        {
            "text": "building for a startup 99 out of 100",
            "start": 586.62,
            "duration": 4.8
        },
        {
            "text": "startups get thrown away right away the",
            "start": 589.14,
            "duration": 4.98
        },
        {
            "text": "next of those ones that are remaining 99",
            "start": 591.42,
            "duration": 4.979
        },
        {
            "text": "100 of those probably pivot once or",
            "start": 594.12,
            "duration": 3.96
        },
        {
            "text": "twice which means a huge rewrite so I",
            "start": 596.399,
            "duration": 3.06
        },
        {
            "text": "understand the tension why you don't",
            "start": 598.08,
            "duration": 2.759
        },
        {
            "text": "necessarily want to use rust because you",
            "start": 599.459,
            "duration": 2.581
        },
        {
            "text": "don't necessarily know what you want to",
            "start": 600.839,
            "duration": 3.241
        },
        {
            "text": "build but at my job same thing happens",
            "start": 602.04,
            "duration": 3.84
        },
        {
            "text": "all the time I don't know what I want to",
            "start": 604.08,
            "duration": 3.96
        },
        {
            "text": "build I have to predict the future of",
            "start": 605.88,
            "duration": 4.56
        },
        {
            "text": "the tools people need to use and I have",
            "start": 608.04,
            "duration": 5.16
        },
        {
            "text": "to come up with that idea right and so",
            "start": 610.44,
            "duration": 5.519
        },
        {
            "text": "that's that's not easy either so I need",
            "start": 613.2,
            "duration": 5.16
        },
        {
            "text": "to be able to iterate super fast",
            "start": 615.959,
            "duration": 5.341
        },
        {
            "text": "and I find that I'm not much slower in",
            "start": 618.36,
            "duration": 4.8
        },
        {
            "text": "Rust than I am in JavaScript especially",
            "start": 621.3,
            "duration": 3.36
        },
        {
            "text": "when I don't care when I don't care I",
            "start": 623.16,
            "duration": 3.6
        },
        {
            "text": "would say I'm faster because almost all",
            "start": 624.66,
            "duration": 3.78
        },
        {
            "text": "the libraries out there in Rust are just",
            "start": 626.76,
            "duration": 3.92
        },
        {
            "text": "simply better they're just simply better",
            "start": 628.44,
            "duration": 4.68
        },
        {
            "text": "absolutely hands down like this right",
            "start": 630.68,
            "duration": 3.76
        },
        {
            "text": "here just again I know this is kind of",
            "start": 633.12,
            "duration": 2.82
        },
        {
            "text": "doing my own horn look at this I find",
            "start": 634.44,
            "duration": 4.019
        },
        {
            "text": "all the public mod definitions and all",
            "start": 635.94,
            "duration": 4.44
        },
        {
            "text": "the public functions with this much code",
            "start": 638.459,
            "duration": 5.341
        },
        {
            "text": "right try doing that with a sprema try",
            "start": 640.38,
            "duration": 5.34
        },
        {
            "text": "writing that much code to find",
            "start": 643.8,
            "duration": 3.659
        },
        {
            "text": "everything inside of it and to use",
            "start": 645.72,
            "duration": 3.6
        },
        {
            "text": "esprima or whatever Acorn or whatever",
            "start": 647.459,
            "duration": 3.901
        },
        {
            "text": "your parsing library is in JavaScript to",
            "start": 649.32,
            "duration": 4.259
        },
        {
            "text": "parse out a file and get the actual you",
            "start": 651.36,
            "duration": 4.44
        },
        {
            "text": "know structural AST from it you know how",
            "start": 653.579,
            "duration": 4.741
        },
        {
            "text": "easy it is in Rust to do this because of",
            "start": 655.8,
            "duration": 4.38
        },
        {
            "text": "how amazing this crate is you know how",
            "start": 658.32,
            "duration": 3.9
        },
        {
            "text": "hard it is to do",
            "start": 660.18,
            "duration": 4.32
        },
        {
            "text": "I mean again there's really great",
            "start": 662.22,
            "duration": 3.84
        },
        {
            "text": "technology around Russ so I have this",
            "start": 664.5,
            "duration": 3.72
        },
        {
            "text": "hard time with is it faster is it slower",
            "start": 666.06,
            "duration": 3.54
        },
        {
            "text": "I don't know",
            "start": 668.22,
            "duration": 3.42
        },
        {
            "text": "uh what really boils down to is that",
            "start": 669.6,
            "duration": 3.239
        },
        {
            "text": "Russ is a great language for building",
            "start": 671.64,
            "duration": 3.0
        },
        {
            "text": "performant production systems if you're",
            "start": 672.839,
            "duration": 3.721
        },
        {
            "text": "prototyping iterating with customers or",
            "start": 674.64,
            "duration": 3.24
        },
        {
            "text": "just unsure in the product Direction",
            "start": 676.56,
            "duration": 2.76
        },
        {
            "text": "you're probably going to waste valuable",
            "start": 677.88,
            "duration": 3.48
        },
        {
            "text": "time with rest uh you know I can",
            "start": 679.32,
            "duration": 3.18
        },
        {
            "text": "definitely buy that if you brought it by",
            "start": 681.36,
            "duration": 2.46
        },
        {
            "text": "you know I I understand where he's",
            "start": 682.5,
            "duration": 2.76
        },
        {
            "text": "coming from Once you have that Clarity",
            "start": 683.82,
            "duration": 3.18
        },
        {
            "text": "you get shifted to it's time to scale",
            "start": 685.26,
            "duration": 3.72
        },
        {
            "text": "mode or perf actually is really",
            "start": 687.0,
            "duration": 4.2
        },
        {
            "text": "important here mode or even we have a",
            "start": 688.98,
            "duration": 3.66
        },
        {
            "text": "solid Direction roadmap and we don't",
            "start": 691.2,
            "duration": 3.78
        },
        {
            "text": "want too much Tech debt yep yeah mode",
            "start": 692.64,
            "duration": 4.74
        },
        {
            "text": "rust is a fantastic choice",
            "start": 694.98,
            "duration": 4.2
        },
        {
            "text": "okay I can understand this argument he's",
            "start": 697.38,
            "duration": 3.18
        },
        {
            "text": "trying to make maybe the first couple",
            "start": 699.18,
            "duration": 2.88
        },
        {
            "text": "months of a startup use something like",
            "start": 700.56,
            "duration": 2.94
        },
        {
            "text": "JavaScript to understand your general",
            "start": 702.06,
            "duration": 3.12
        },
        {
            "text": "direction and then rewrite I mean again",
            "start": 703.5,
            "duration": 3.779
        },
        {
            "text": "that's hard you run into all the same",
            "start": 705.18,
            "duration": 3.3
        },
        {
            "text": "problems you mentioned up here people",
            "start": 707.279,
            "duration": 3.841
        },
        {
            "text": "not knowing how to use rust hiring uh or",
            "start": 708.48,
            "duration": 3.9
        },
        {
            "text": "you know even writing a brand new",
            "start": 711.12,
            "duration": 2.7
        },
        {
            "text": "product that you've already written once",
            "start": 712.38,
            "duration": 3.3
        },
        {
            "text": "writing it with JavaScript",
            "start": 713.82,
            "duration": 3.9
        },
        {
            "text": "inherently colors how you should be",
            "start": 715.68,
            "duration": 3.839
        },
        {
            "text": "thinking which does not fit into the",
            "start": 717.72,
            "duration": 3.6
        },
        {
            "text": "rust box is rewriting going to be that",
            "start": 719.519,
            "duration": 3.241
        },
        {
            "text": "easy are you really going to be able to",
            "start": 721.32,
            "duration": 3.36
        },
        {
            "text": "say hey I'm going to wait for I'm gonna",
            "start": 722.76,
            "duration": 3.06
        },
        {
            "text": "you know now that we know what our",
            "start": 724.68,
            "duration": 2.64
        },
        {
            "text": "customers want hey customers could you",
            "start": 725.82,
            "duration": 2.699
        },
        {
            "text": "wait for a couple months while we",
            "start": 727.32,
            "duration": 3.72
        },
        {
            "text": "rewrite this",
            "start": 728.519,
            "duration": 4.5
        },
        {
            "text": "I don't know I don't know if that's",
            "start": 731.04,
            "duration": 4.14
        },
        {
            "text": "actually any better uh Russ has provided",
            "start": 733.019,
            "duration": 3.601
        },
        {
            "text": "us with an incredible solid foundation",
            "start": 735.18,
            "duration": 3.3
        },
        {
            "text": "and we've invested a lot in the",
            "start": 736.62,
            "duration": 3.6
        },
        {
            "text": "developer experience internally we have",
            "start": 738.48,
            "duration": 3.0
        },
        {
            "text": "extractors for different user",
            "start": 740.22,
            "duration": 2.82
        },
        {
            "text": "requirements to make adding apis very",
            "start": 741.48,
            "duration": 2.88
        },
        {
            "text": "straightforward we have middleware for",
            "start": 743.04,
            "duration": 3.12
        },
        {
            "text": "scoping requests per customer in most",
            "start": 744.36,
            "duration": 3.24
        },
        {
            "text": "languages this is pretty standard but in",
            "start": 746.16,
            "duration": 3.359
        },
        {
            "text": "Rust for our case they both record at",
            "start": 747.6,
            "duration": 3.359
        },
        {
            "text": "least a rough understanding of pinning",
            "start": 749.519,
            "duration": 2.76
        },
        {
            "text": "yep",
            "start": 750.959,
            "duration": 3.721
        },
        {
            "text": "yeah I really don't understand pitting",
            "start": 752.279,
            "duration": 4.321
        },
        {
            "text": "but I mean I mean I get it but I don't",
            "start": 754.68,
            "duration": 3.36
        },
        {
            "text": "get it you know what I mean",
            "start": 756.6,
            "duration": 3.78
        },
        {
            "text": "goes a great language I think that's a",
            "start": 758.04,
            "duration": 4.68
        },
        {
            "text": "good middle ground as I think go has a",
            "start": 760.38,
            "duration": 4.44
        },
        {
            "text": "huge potential to win a lot here I think",
            "start": 762.72,
            "duration": 4.559
        },
        {
            "text": "goes biggest weakness is the fact that",
            "start": 764.82,
            "duration": 4.38
        },
        {
            "text": "it doesn't have a strong story in the UI",
            "start": 767.279,
            "duration": 4.081
        },
        {
            "text": "I think rust with something like leptos",
            "start": 769.2,
            "duration": 5.1
        },
        {
            "text": "has a strong story in the UI JavaScript",
            "start": 771.36,
            "duration": 5.52
        },
        {
            "text": "with typescript react solid.js whatever",
            "start": 774.3,
            "duration": 4.68
        },
        {
            "text": "you want to use it has a strong story in",
            "start": 776.88,
            "duration": 5.28
        },
        {
            "text": "the UI but go on the other hand does not",
            "start": 778.98,
            "duration": 5.76
        },
        {
            "text": "have that they don't it just there's not",
            "start": 782.16,
            "duration": 4.08
        },
        {
            "text": "a strong story in the UI and I think",
            "start": 784.74,
            "duration": 3.06
        },
        {
            "text": "that that makes it really really hard",
            "start": 786.24,
            "duration": 4.26
        },
        {
            "text": "right and for anyone that says oh well",
            "start": 787.8,
            "duration": 4.56
        },
        {
            "text": "you know JavaScript oh yeah whatever the",
            "start": 790.5,
            "duration": 3.24
        },
        {
            "text": "thing is is that you gotta remember when",
            "start": 792.36,
            "duration": 2.7
        },
        {
            "text": "you're one person trying to build out",
            "start": 793.74,
            "duration": 3.839
        },
        {
            "text": "everything having a singular language a",
            "start": 795.06,
            "duration": 4.32
        },
        {
            "text": "singular code base a singular item to",
            "start": 797.579,
            "duration": 4.38
        },
        {
            "text": "just do one language one stack one set",
            "start": 799.38,
            "duration": 5.28
        },
        {
            "text": "of types there is easiness to it I'm not",
            "start": 801.959,
            "duration": 4.68
        },
        {
            "text": "saying it's bad I'm just saying it's why",
            "start": 804.66,
            "duration": 3.96
        },
        {
            "text": "people often choose it it's just because",
            "start": 806.639,
            "duration": 4.621
        },
        {
            "text": "it just feels easier whereas with go you",
            "start": 808.62,
            "duration": 3.899
        },
        {
            "text": "have this whole problem where you have",
            "start": 811.26,
            "duration": 4.56
        },
        {
            "text": "to have two definitions or a uh like",
            "start": 812.519,
            "duration": 5.221
        },
        {
            "text": "language independent definition protobus",
            "start": 815.82,
            "duration": 3.66
        },
        {
            "text": "something in the middle to be able to",
            "start": 817.74,
            "duration": 3.42
        },
        {
            "text": "communicate back and forth and you know",
            "start": 819.48,
            "duration": 4.44
        },
        {
            "text": "it's hardened it's hard",
            "start": 821.16,
            "duration": 4.32
        },
        {
            "text": "you know I I don't think it I don't",
            "start": 823.92,
            "duration": 3.659
        },
        {
            "text": "think the answer is straightforward uh",
            "start": 825.48,
            "duration": 3.479
        },
        {
            "text": "what the hell is a UI story what the",
            "start": 827.579,
            "duration": 3.121
        },
        {
            "text": "hell is a UI story meaning that when you",
            "start": 828.959,
            "duration": 3.421
        },
        {
            "text": "say say you build a server in JavaScript",
            "start": 830.7,
            "duration": 4.5
        },
        {
            "text": "you can serve down content in which can",
            "start": 832.38,
            "duration": 5.579
        },
        {
            "text": "become the UI that types to that content",
            "start": 835.2,
            "duration": 4.86
        },
        {
            "text": "how you handle it how you interact with",
            "start": 837.959,
            "duration": 4.021
        },
        {
            "text": "it can be written for both the server",
            "start": 840.06,
            "duration": 3.42
        },
        {
            "text": "and the client and the client can just",
            "start": 841.98,
            "duration": 3.599
        },
        {
            "text": "use that and develop it with rust you",
            "start": 843.48,
            "duration": 3.359
        },
        {
            "text": "have the exact same thing you can do",
            "start": 845.579,
            "duration": 2.7
        },
        {
            "text": "that with leptos you can build something",
            "start": 846.839,
            "duration": 3.481
        },
        {
            "text": "on the server and you can use it exactly",
            "start": 848.279,
            "duration": 4.5
        },
        {
            "text": "on the client viawasm with go it just",
            "start": 850.32,
            "duration": 3.9
        },
        {
            "text": "doesn't feel",
            "start": 852.779,
            "duration": 3.3
        },
        {
            "text": "there you know what I mean it just",
            "start": 854.22,
            "duration": 3.84
        },
        {
            "text": "doesn't have the same story I don't know",
            "start": 856.079,
            "duration": 3.541
        },
        {
            "text": "of anything that's I mean I know that",
            "start": 858.06,
            "duration": 4.5
        },
        {
            "text": "there's been attempts to do it but",
            "start": 859.62,
            "duration": 4.32
        },
        {
            "text": "I mean you have to ship a garbage",
            "start": 862.56,
            "duration": 3.42
        },
        {
            "text": "collector with rust or with go like",
            "start": 863.94,
            "duration": 4.62
        },
        {
            "text": "that's a lot of wasm you have to ship",
            "start": 865.98,
            "duration": 5.159
        },
        {
            "text": "even a tiny one still a lot now that",
            "start": 868.56,
            "duration": 3.779
        },
        {
            "text": "we're here and we have all these",
            "start": 871.139,
            "duration": 3.121
        },
        {
            "text": "utilities to build on top of and domain",
            "start": 872.339,
            "duration": 3.361
        },
        {
            "text": "knowledge built up we're ready to move",
            "start": 874.26,
            "duration": 3.48
        },
        {
            "text": "both quickly and safely but if I look",
            "start": 875.7,
            "duration": 4.499
        },
        {
            "text": "back at it as much as I love rust I'd",
            "start": 877.74,
            "duration": 6.2
        },
        {
            "text": "absolutely not choose rust again",
            "start": 880.199,
            "duration": 3.741
        },
        {
            "text": "yeah yeah you know I I think I can",
            "start": 885.959,
            "duration": 4.201
        },
        {
            "text": "understand this",
            "start": 888.6,
            "duration": 2.4
        },
        {
            "text": "um",
            "start": 890.16,
            "duration": 2.22
        },
        {
            "text": "I'd say you know something that's",
            "start": 891.0,
            "duration": 3.18
        },
        {
            "text": "interesting also is that this was two",
            "start": 892.38,
            "duration": 4.74
        },
        {
            "text": "years of rust how far has rust come how",
            "start": 894.18,
            "duration": 4.38
        },
        {
            "text": "many more people have jumped into the",
            "start": 897.12,
            "duration": 4.26
        },
        {
            "text": "ecosystem how much better are these HTTP",
            "start": 898.56,
            "duration": 5.459
        },
        {
            "text": "libraries uh the alternative is always",
            "start": 901.38,
            "duration": 4.38
        },
        {
            "text": "JavaScript it's almost universally",
            "start": 904.019,
            "duration": 3.481
        },
        {
            "text": "JavaScript but people pick at startups",
            "start": 905.76,
            "duration": 4.019
        },
        {
            "text": "right in a startup world it's almost",
            "start": 907.5,
            "duration": 5.04
        },
        {
            "text": "always uh",
            "start": 909.779,
            "duration": 4.981
        },
        {
            "text": "it's almost always that is there F's in",
            "start": 912.54,
            "duration": 4.14
        },
        {
            "text": "the channel why is there F's just",
            "start": 914.76,
            "duration": 3.48
        },
        {
            "text": "refresh I'm still live I'm still",
            "start": 916.68,
            "duration": 4.399
        },
        {
            "text": "transferring frames",
            "start": 918.24,
            "duration": 2.839
        },
        {
            "text": "yeah I'm back I'm good I am good that's",
            "start": 921.54,
            "duration": 4.26
        },
        {
            "text": "twitch that was twitch I was fully",
            "start": 924.36,
            "duration": 3.3
        },
        {
            "text": "capable right there yeah just refresh",
            "start": 925.8,
            "duration": 3.38
        },
        {
            "text": "refresh",
            "start": 927.66,
            "duration": 4.979
        },
        {
            "text": "refresh uh hi but real talk I think that",
            "start": 929.18,
            "duration": 5.14
        },
        {
            "text": "that is something that",
            "start": 932.639,
            "duration": 3.541
        },
        {
            "text": "ends up happening I mean I would love to",
            "start": 934.32,
            "duration": 4.019
        },
        {
            "text": "see more go I think goes a I still think",
            "start": 936.18,
            "duration": 3.839
        },
        {
            "text": "goes a great language I know like Theo",
            "start": 938.339,
            "duration": 3.901
        },
        {
            "text": "hates go uh some people hate go I think",
            "start": 940.019,
            "duration": 4.201
        },
        {
            "text": "goes actually a really good Intermediate",
            "start": 942.24,
            "duration": 4.5
        },
        {
            "text": "Language right it fulfills the easier to",
            "start": 944.22,
            "duration": 4.739
        },
        {
            "text": "develop Niche it's really great for apis",
            "start": 946.74,
            "duration": 4.8
        },
        {
            "text": "they have a lot of solid Tools around it",
            "start": 948.959,
            "duration": 4.261
        },
        {
            "text": "um it's really built for one purpose and",
            "start": 951.54,
            "duration": 3.479
        },
        {
            "text": "one purpose only which there's a lot of",
            "start": 953.22,
            "duration": 2.94
        },
        {
            "text": "strength to it I think there's a lot of",
            "start": 955.019,
            "duration": 2.581
        },
        {
            "text": "weaknesses to the language it's not my",
            "start": 956.16,
            "duration": 4.2
        },
        {
            "text": "favorite language I don't I like I I",
            "start": 957.6,
            "duration": 5.52
        },
        {
            "text": "don't enjoy or love writing go I find go",
            "start": 960.36,
            "duration": 5.219
        },
        {
            "text": "like eating uh Wheaties right it's just",
            "start": 963.12,
            "duration": 6.3
        },
        {
            "text": "it's boring it feels boring but boring",
            "start": 965.579,
            "duration": 5.76
        },
        {
            "text": "is okay like when you're building a",
            "start": 969.42,
            "duration": 5.34
        },
        {
            "text": "product boring is okay",
            "start": 971.339,
            "duration": 4.261
        },
        {
            "text": "um",
            "start": 974.76,
            "duration": 2.939
        },
        {
            "text": "goes also really simple it has great",
            "start": 975.6,
            "duration": 3.78
        },
        {
            "text": "concurrency model uh there's a lot of",
            "start": 977.699,
            "duration": 3.961
        },
        {
            "text": "good things about it it's",
            "start": 979.38,
            "duration": 4.56
        },
        {
            "text": "there's a lot of good things about it uh",
            "start": 981.66,
            "duration": 5.0
        },
        {
            "text": "anyways",
            "start": 983.94,
            "duration": 2.72
        },
        {
            "text": "you're welcome uh go air handling feels",
            "start": 986.72,
            "duration": 5.44
        },
        {
            "text": "clunky at best yeah I'd say the error",
            "start": 990.3,
            "duration": 3.659
        },
        {
            "text": "handling is by far goes biggest weakness",
            "start": 992.16,
            "duration": 3.539
        },
        {
            "text": "I really wish they would have thought",
            "start": 993.959,
            "duration": 4.021
        },
        {
            "text": "about that ahead of time I I really wish",
            "start": 995.699,
            "duration": 4.741
        },
        {
            "text": "they could even try to implement like a",
            "start": 997.98,
            "duration": 4.56
        },
        {
            "text": "just something right some sort of",
            "start": 1000.44,
            "duration": 4.44
        },
        {
            "text": "pattern that makes it easy you know what",
            "start": 1002.54,
            "duration": 4.58
        },
        {
            "text": "I mean",
            "start": 1004.88,
            "duration": 2.24
        },
        {
            "text": "all right well that's all I have on this",
            "start": 1007.88,
            "duration": 3.18
        },
        {
            "text": "one I thought this was great this is a",
            "start": 1009.44,
            "duration": 4.019
        },
        {
            "text": "great article uh there was no meat here",
            "start": 1011.06,
            "duration": 4.56
        },
        {
            "text": "though there was absolutely no meat here",
            "start": 1013.459,
            "duration": 4.62
        },
        {
            "text": "I don't think he really great gave that",
            "start": 1015.62,
            "duration": 5.04
        },
        {
            "text": "that great of an example here you know",
            "start": 1018.079,
            "duration": 3.961
        },
        {
            "text": "what I mean like what just happened here",
            "start": 1020.66,
            "duration": 4.98
        },
        {
            "text": "I don't feel like he did a great job",
            "start": 1022.04,
            "duration": 5.759
        },
        {
            "text": "here I don't I didn't get anything out",
            "start": 1025.64,
            "duration": 3.9
        },
        {
            "text": "of this and so I do think that this",
            "start": 1027.799,
            "duration": 4.441
        },
        {
            "text": "definitely needs to uh",
            "start": 1029.54,
            "duration": 4.2
        },
        {
            "text": "there definitely needs to be a little",
            "start": 1032.24,
            "duration": 3.179
        },
        {
            "text": "bit more thought in this article it",
            "start": 1033.74,
            "duration": 3.42
        },
        {
            "text": "could have really helped uh his",
            "start": 1035.419,
            "duration": 3.66
        },
        {
            "text": "complaint just seems to be rust is he",
            "start": 1037.16,
            "duration": 3.96
        },
        {
            "text": "loves it but it's hard so be careful",
            "start": 1039.079,
            "duration": 4.76
        },
        {
            "text": "don't use it",
            "start": 1041.12,
            "duration": 2.719
        }
    ],
    "stats": {
        "viewCount": "224292",
        "likeCount": "4840",
        "favoriteCount": "0",
        "commentCount": "437"
    }
}