{
    "id": "zYYvGM551I8",
    "title": "Creator of Node: I Hate All Software",
    "publishedAt": "2023-06-06T15:00:47Z",
    "captions": [
        {
            "text": "I'm not gonna lie to you there's part of",
            "start": 0.299,
            "duration": 5.581
        },
        {
            "text": "me that this just feels so natural like",
            "start": 2.1,
            "duration": 6.12
        },
        {
            "text": "I I love I'm not gonna I love this I",
            "start": 5.88,
            "duration": 4.679
        },
        {
            "text": "love this I also",
            "start": 8.22,
            "duration": 4.68
        },
        {
            "text": "almost hate all software",
            "start": 10.559,
            "duration": 3.721
        },
        {
            "text": "maybe there's just something about",
            "start": 12.9,
            "duration": 2.76
        },
        {
            "text": "building software that makes you just",
            "start": 14.28,
            "duration": 4.499
        },
        {
            "text": "hate software but I love this right I",
            "start": 15.66,
            "duration": 5.34
        },
        {
            "text": "love this and so and I think it's okay",
            "start": 18.779,
            "duration": 4.08
        },
        {
            "text": "it's okay to hate software like it's",
            "start": 21.0,
            "duration": 3.96
        },
        {
            "text": "totally okay to hate software this is",
            "start": 22.859,
            "duration": 4.381
        },
        {
            "text": "obviously a very old Ryan doll so if you",
            "start": 24.96,
            "duration": 4.079
        },
        {
            "text": "don't know Ryan doll has created node.js",
            "start": 27.24,
            "duration": 3.84
        },
        {
            "text": "mistake on the world global warming then",
            "start": 29.039,
            "duration": 5.52
        },
        {
            "text": "he recreated it with Dino Dino uh I",
            "start": 31.08,
            "duration": 5.46
        },
        {
            "text": "would argue I mean you make it the same",
            "start": 34.559,
            "duration": 4.441
        },
        {
            "text": "mistake twice baby uh but anyways let's",
            "start": 36.54,
            "duration": 5.039
        },
        {
            "text": "keep on going uh it's unnecessary and",
            "start": 39.0,
            "duration": 5.1
        },
        {
            "text": "complicated that almost every layer at",
            "start": 41.579,
            "duration": 4.381
        },
        {
            "text": "best I congratulate someone for quickly",
            "start": 44.1,
            "duration": 3.9
        },
        {
            "text": "and simply solving a problem on top of",
            "start": 45.96,
            "duration": 4.86
        },
        {
            "text": "the that they are given the only",
            "start": 48.0,
            "duration": 5.039
        },
        {
            "text": "software that I like is the one that I",
            "start": 50.82,
            "duration": 4.079
        },
        {
            "text": "can easily understand and solves my",
            "start": 53.039,
            "duration": 3.421
        },
        {
            "text": "problems the amount of complexity I'm",
            "start": 54.899,
            "duration": 3.18
        },
        {
            "text": "willing to tolerate is proportional to",
            "start": 56.46,
            "duration": 4.32
        },
        {
            "text": "the size of the problem being solved",
            "start": 58.079,
            "duration": 5.94
        },
        {
            "text": "agreed agreed uh in the past year I",
            "start": 60.78,
            "duration": 4.68
        },
        {
            "text": "think I finally come to understand the",
            "start": 64.019,
            "duration": 3.901
        },
        {
            "text": "ideals of Unix file descriptors and",
            "start": 65.46,
            "duration": 4.62
        },
        {
            "text": "processes orchestrated with C it's a",
            "start": 67.92,
            "duration": 4.08
        },
        {
            "text": "beautiful idea this is not however what",
            "start": 70.08,
            "duration": 3.78
        },
        {
            "text": "we interact with the complexity was not",
            "start": 72.0,
            "duration": 4.7
        },
        {
            "text": "contained instead I deal with DB",
            "start": 73.86,
            "duration": 6.24
        },
        {
            "text": "dbus and the user lib and boost and I O",
            "start": 76.7,
            "duration": 5.919
        },
        {
            "text": "controls and some and signals and",
            "start": 80.1,
            "duration": 5.46
        },
        {
            "text": "violate of volatile variables and Proto",
            "start": 82.619,
            "duration": 6.121
        },
        {
            "text": "Proto oh my goodness protocol protocol",
            "start": 85.56,
            "duration": 5.16
        },
        {
            "text": "protocol inheritance now that's a word I",
            "start": 88.74,
            "duration": 4.559
        },
        {
            "text": "have not heard in a long time and c99",
            "start": 90.72,
            "duration": 5.28
        },
        {
            "text": "features oh my goodness every now and",
            "start": 93.299,
            "duration": 4.381
        },
        {
            "text": "then I had to do these back porting of",
            "start": 96.0,
            "duration": 4.02
        },
        {
            "text": "features at Netflix and it's like all",
            "start": 97.68,
            "duration": 3.899
        },
        {
            "text": "right I'm working on the product during",
            "start": 100.02,
            "duration": 4.26
        },
        {
            "text": "2021 now I'm working on the product at",
            "start": 101.579,
            "duration": 6.18
        },
        {
            "text": "2020. okay things are still good now I'm",
            "start": 104.28,
            "duration": 5.64
        },
        {
            "text": "going to 2019. things are not as good",
            "start": 107.759,
            "duration": 4.201
        },
        {
            "text": "now I'm going to 2018 remember this is a",
            "start": 109.92,
            "duration": 3.78
        },
        {
            "text": "C plus plus television application I'm",
            "start": 111.96,
            "duration": 3.18
        },
        {
            "text": "trying to like back Port some testing",
            "start": 113.7,
            "duration": 3.18
        },
        {
            "text": "stuff so we can do interesting testing",
            "start": 115.14,
            "duration": 4.32
        },
        {
            "text": "and it also that gets to like 2017 and",
            "start": 116.88,
            "duration": 4.559
        },
        {
            "text": "you're just like what the the phone",
            "start": 119.46,
            "duration": 4.199
        },
        {
            "text": "on here C plus plus like these features",
            "start": 121.439,
            "duration": 3.661
        },
        {
            "text": "start disappearing things are starting",
            "start": 123.659,
            "duration": 3.841
        },
        {
            "text": "to get difficult the code base is in way",
            "start": 125.1,
            "duration": 3.659
        },
        {
            "text": "different than you just keep walking",
            "start": 127.5,
            "duration": 3.36
        },
        {
            "text": "backwards and by the time you hit 2014",
            "start": 128.759,
            "duration": 4.62
        },
        {
            "text": "you're just like in this is crazy this",
            "start": 130.86,
            "duration": 4.739
        },
        {
            "text": "is crazy this is crazy what's going on",
            "start": 133.379,
            "duration": 4.561
        },
        {
            "text": "here nothing fun is happening D package",
            "start": 135.599,
            "duration": 5.101
        },
        {
            "text": "and auto conf yeah uh those of us who",
            "start": 137.94,
            "duration": 4.62
        },
        {
            "text": "build on top of these systems are adding",
            "start": 140.7,
            "duration": 3.3
        },
        {
            "text": "to the complexity",
            "start": 142.56,
            "duration": 3.539
        },
        {
            "text": "and not uh",
            "start": 144.0,
            "duration": 4.02
        },
        {
            "text": "not only do you have to understand the",
            "start": 146.099,
            "duration": 6.061
        },
        {
            "text": "LD the the library path that's fun uh to",
            "start": 148.02,
            "duration": 6.299
        },
        {
            "text": "make uh your system work but now you",
            "start": 152.16,
            "duration": 4.079
        },
        {
            "text": "have to understand node path too there's",
            "start": 154.319,
            "duration": 3.661
        },
        {
            "text": "my little addition to the complex that",
            "start": 156.239,
            "duration": 4.021
        },
        {
            "text": "you must know the users the ones who",
            "start": 157.98,
            "duration": 4.74
        },
        {
            "text": "just want to see a web page don't care",
            "start": 160.26,
            "duration": 4.44
        },
        {
            "text": "they don't care how do we organize slash",
            "start": 162.72,
            "duration": 4.62
        },
        {
            "text": "user they don't care about zombie",
            "start": 164.7,
            "duration": 4.619
        },
        {
            "text": "processes they don't care about bash tab",
            "start": 167.34,
            "duration": 4.08
        },
        {
            "text": "completion they don't care if zlib is",
            "start": 169.319,
            "duration": 3.901
        },
        {
            "text": "dynamically linked or statically linked",
            "start": 171.42,
            "duration": 4.28
        },
        {
            "text": "to note",
            "start": 173.22,
            "duration": 2.48
        },
        {
            "text": "this is so great this is you could just",
            "start": 178.86,
            "duration": 5.459
        },
        {
            "text": "feel it in them right like after you've",
            "start": 182.04,
            "duration": 4.199
        },
        {
            "text": "done this long enough like at some point",
            "start": 184.319,
            "duration": 3.721
        },
        {
            "text": "you're just like that's",
            "start": 186.239,
            "duration": 3.72
        },
        {
            "text": "it",
            "start": 188.04,
            "duration": 5.04
        },
        {
            "text": "what am I doing with my life right and",
            "start": 189.959,
            "duration": 4.321
        },
        {
            "text": "you just don't know what you're doing",
            "start": 193.08,
            "duration": 2.76
        },
        {
            "text": "with your life and this is what happens",
            "start": 194.28,
            "duration": 3.239
        },
        {
            "text": "there will come a point where the",
            "start": 195.84,
            "duration": 3.479
        },
        {
            "text": "accumulated complexity of our existing",
            "start": 197.519,
            "duration": 3.481
        },
        {
            "text": "systems is greater than the complexity",
            "start": 199.319,
            "duration": 3.481
        },
        {
            "text": "of creating a new one when that happens",
            "start": 201.0,
            "duration": 5.58
        },
        {
            "text": "all of this will be trashed",
            "start": 202.8,
            "duration": 6.299
        },
        {
            "text": "I feel like we've achieved a new version",
            "start": 206.58,
            "duration": 4.379
        },
        {
            "text": "with modern JavaScript right now like if",
            "start": 209.099,
            "duration": 4.86
        },
        {
            "text": "you just look at what it takes",
            "start": 210.959,
            "duration": 5.221
        },
        {
            "text": "the thing is is that the Simplicity is",
            "start": 213.959,
            "duration": 3.661
        },
        {
            "text": "Extreme when you look at like modern",
            "start": 216.18,
            "duration": 3.3
        },
        {
            "text": "serverless architectures",
            "start": 217.62,
            "duration": 5.46
        },
        {
            "text": "but what actually is happening is so",
            "start": 219.48,
            "duration": 6.0
        },
        {
            "text": "insane and that if you ever need to",
            "start": 223.08,
            "duration": 5.6
        },
        {
            "text": "leave the serverless world",
            "start": 225.48,
            "duration": 3.2
        },
        {
            "text": "like what you've got yourself into",
            "start": 229.62,
            "duration": 5.64
        },
        {
            "text": "would be so",
            "start": 232.98,
            "duration": 3.78
        },
        {
            "text": "hard",
            "start": 235.26,
            "duration": 3.24
        },
        {
            "text": "to get out of it",
            "start": 236.76,
            "duration": 3.3
        },
        {
            "text": "I look at a lot of these things and I",
            "start": 238.5,
            "duration": 3.18
        },
        {
            "text": "mean I I understand that it's it's",
            "start": 240.06,
            "duration": 3.36
        },
        {
            "text": "definitely it's not a",
            "start": 241.68,
            "duration": 5.54
        },
        {
            "text": "it's not a pure win always",
            "start": 243.42,
            "duration": 3.8
        },
        {
            "text": "it's a win for some people but man we",
            "start": 248.34,
            "duration": 4.56
        },
        {
            "text": "can flush boost and g-lib and auto conf",
            "start": 250.799,
            "duration": 3.781
        },
        {
            "text": "down the toilet and never think of them",
            "start": 252.9,
            "duration": 2.64
        },
        {
            "text": "again",
            "start": 254.58,
            "duration": 2.82
        },
        {
            "text": "and those of you who still find it",
            "start": 255.54,
            "duration": 3.96
        },
        {
            "text": "enjoyable to learn the details of say a",
            "start": 257.4,
            "duration": 3.42
        },
        {
            "text": "programming language being able to",
            "start": 259.5,
            "duration": 3.84
        },
        {
            "text": "happily recite off if Nan equals or does",
            "start": 260.82,
            "duration": 4.86
        },
        {
            "text": "not equal null you just don't understand",
            "start": 263.34,
            "duration": 4.44
        },
        {
            "text": "how utterly",
            "start": 265.68,
            "duration": 5.1
        },
        {
            "text": "the whole thing is if you think",
            "start": 267.78,
            "duration": 8.24
        },
        {
            "text": "it would be cute to learn all the ink",
            "start": 270.78,
            "duration": 5.24
        },
        {
            "text": "the previous set time configuring your",
            "start": 276.3,
            "duration": 6.619
        },
        {
            "text": "window manager or your editor",
            "start": 279.06,
            "duration": 3.859
        },
        {
            "text": "it's killing me oh it's so funny you",
            "start": 292.86,
            "duration": 7.02
        },
        {
            "text": "don't understand oh up the whole",
            "start": 297.18,
            "duration": 6.66
        },
        {
            "text": "thing is no one gives a about g-lib",
            "start": 299.88,
            "duration": 6.56
        },
        {
            "text": "objects",
            "start": 303.84,
            "duration": 2.6
        },
        {
            "text": "oh my goodness I love this I wonder okay",
            "start": 321.44,
            "duration": 6.28
        },
        {
            "text": "so a real talk I wonder if Mr Dahl",
            "start": 324.9,
            "duration": 5.76
        },
        {
            "text": "himself has this exact same opinion",
            "start": 327.72,
            "duration": 5.699
        },
        {
            "text": "now that he's writing Deno or Dino I",
            "start": 330.66,
            "duration": 5.16
        },
        {
            "text": "call it Dino I'm sure it's Deno",
            "start": 333.419,
            "duration": 4.62
        },
        {
            "text": "it is very true I mean this is all 100",
            "start": 335.82,
            "duration": 4.68
        },
        {
            "text": "True honestly no one cares at the fact",
            "start": 338.039,
            "duration": 3.841
        },
        {
            "text": "that my",
            "start": 340.5,
            "duration": 4.08
        },
        {
            "text": "I have this experience going on in my",
            "start": 341.88,
            "duration": 6.18
        },
        {
            "text": "editor no one cares but I'm curious if",
            "start": 344.58,
            "duration": 7.64
        },
        {
            "text": "he still holds like the same ideas",
            "start": 348.06,
            "duration": 4.16
        },
        {
            "text": "or to the same ideals as he did before",
            "start": 352.68,
            "duration": 6.44
        },
        {
            "text": "I'm I I don't know and so",
            "start": 354.84,
            "duration": 4.28
        },
        {
            "text": "I would love to see him react to his own",
            "start": 359.22,
            "duration": 6.72
        },
        {
            "text": "article that he wrote 12 years ago",
            "start": 362.759,
            "duration": 5.761
        },
        {
            "text": "real talk I think that that would be fun",
            "start": 365.94,
            "duration": 4.68
        },
        {
            "text": "but I do feel his pain in the same sense",
            "start": 368.52,
            "duration": 4.32
        },
        {
            "text": "that you can ex you can extend these",
            "start": 370.62,
            "duration": 4.26
        },
        {
            "text": "arguments all of these arguments you can",
            "start": 372.84,
            "duration": 4.139
        },
        {
            "text": "extend all of them to everything we do",
            "start": 374.88,
            "duration": 4.5
        },
        {
            "text": "from the serverless crap that you have",
            "start": 376.979,
            "duration": 4.081
        },
        {
            "text": "to do to the amount of nonsense you have",
            "start": 379.38,
            "duration": 3.42
        },
        {
            "text": "to do uh even when you're building your",
            "start": 381.06,
            "duration": 3.6
        },
        {
            "text": "own server Docker kubernetings you're",
            "start": 382.8,
            "duration": 3.839
        },
        {
            "text": "doing all this crap just to get off the",
            "start": 384.66,
            "duration": 4.08
        },
        {
            "text": "ground like people build this entire",
            "start": 386.639,
            "duration": 3.78
        },
        {
            "text": "scalable infrastructure and they have",
            "start": 388.74,
            "duration": 4.2
        },
        {
            "text": "like three users it just is like",
            "start": 390.419,
            "duration": 4.5
        },
        {
            "text": "emotionally painful right you like go",
            "start": 392.94,
            "duration": 4.199
        },
        {
            "text": "all out when you could just build the",
            "start": 394.919,
            "duration": 4.981
        },
        {
            "text": "simplest piece of sh like architecture",
            "start": 397.139,
            "duration": 6.06
        },
        {
            "text": "to work with your four users and so I",
            "start": 399.9,
            "duration": 4.28
        },
        {
            "text": "don't know",
            "start": 403.199,
            "duration": 4.021
        },
        {
            "text": "it is all very hilarious I think if if",
            "start": 404.18,
            "duration": 6.48
        },
        {
            "text": "software wasn't a tragedy",
            "start": 407.22,
            "duration": 6.72
        },
        {
            "text": "software would be a comedy it's just a",
            "start": 410.66,
            "duration": 5.7
        },
        {
            "text": "tragedy",
            "start": 413.94,
            "duration": 2.42
        },
        {
            "text": "this is great I'm very happy I read this",
            "start": 419.94,
            "duration": 4.86
        },
        {
            "text": "this makes me so happy honestly some",
            "start": 422.699,
            "duration": 3.961
        },
        {
            "text": "people look at this as super negative to",
            "start": 424.8,
            "duration": 3.78
        },
        {
            "text": "me this is just like the fun of it all",
            "start": 426.66,
            "duration": 5.099
        },
        {
            "text": "right is that we do like there is",
            "start": 428.58,
            "duration": 6.239
        },
        {
            "text": "there is no ideal solution right if we",
            "start": 431.759,
            "duration": 4.921
        },
        {
            "text": "still to this day cannot come up with an",
            "start": 434.819,
            "duration": 4.621
        },
        {
            "text": "ideal solution after what 70 years of",
            "start": 436.68,
            "duration": 5.16
        },
        {
            "text": "software 60 years of software",
            "start": 439.44,
            "duration": 5.46
        },
        {
            "text": "there isn't one and that's okay it's",
            "start": 441.84,
            "duration": 5.94
        },
        {
            "text": "like okay to hate it you can still also",
            "start": 444.9,
            "duration": 4.62
        },
        {
            "text": "love it I just realized I had my",
            "start": 447.78,
            "duration": 2.94
        },
        {
            "text": "keyboard camera on this whole time by",
            "start": 449.52,
            "duration": 3.06
        },
        {
            "text": "the way Kinesis Advantage 360 everybody",
            "start": 450.72,
            "duration": 5.36
        },
        {
            "text": "it's so beautiful do you like that",
            "start": 452.58,
            "duration": 3.5
        },
        {
            "text": "the name",
            "start": 457.8,
            "duration": 4.7
        },
        {
            "text": "is the primagen",
            "start": 459.599,
            "duration": 2.901
        }
    ],
    "stats": {
        "viewCount": "95422",
        "likeCount": "3947",
        "favoriteCount": "0",
        "commentCount": "348"
    }
}