{
    "id": "1LV1K69885E",
    "title": "The weird future of music",
    "publishedAt": "2023-01-31T17:06:47Z",
    "captions": [
        {
            "text": "it is January 31st 2023 and you're",
            "start": 1.26,
            "duration": 5.22
        },
        {
            "text": "watching the code report Beethoven once",
            "start": 4.319,
            "duration": 4.261
        },
        {
            "text": "said music can change the world but I",
            "start": 6.48,
            "duration": 3.36
        },
        {
            "text": "really hope this dude was wrong because",
            "start": 8.58,
            "duration": 3.24
        },
        {
            "text": "AI is getting pretty good at making its",
            "start": 9.84,
            "duration": 3.66
        },
        {
            "text": "own music this relaxing Jazz track",
            "start": 11.82,
            "duration": 2.939
        },
        {
            "text": "you're hearing in the background right",
            "start": 13.5,
            "duration": 3.42
        },
        {
            "text": "now isn't Kenny G but rather a five",
            "start": 14.759,
            "duration": 4.381
        },
        {
            "text": "minute AI generated jam session created",
            "start": 16.92,
            "duration": 4.5
        },
        {
            "text": "with a simple text prompt music is the",
            "start": 19.14,
            "duration": 4.139
        },
        {
            "text": "strongest form of magic it transcends",
            "start": 21.42,
            "duration": 3.779
        },
        {
            "text": "all language barriers yet humans are the",
            "start": 23.279,
            "duration": 3.721
        },
        {
            "text": "only creatures that create and enjoy it",
            "start": 25.199,
            "duration": 5.101
        },
        {
            "text": "with the exception of parrots of course",
            "start": 27.0,
            "duration": 5.04
        },
        {
            "text": "Google just released a paper called",
            "start": 30.3,
            "duration": 3.779
        },
        {
            "text": "music LM and it describes its Research",
            "start": 32.04,
            "duration": 4.38
        },
        {
            "text": "into generating music from a text prompt",
            "start": 34.079,
            "duration": 4.98
        },
        {
            "text": "it's basically a chat GPT or dolly for",
            "start": 36.42,
            "duration": 4.92
        },
        {
            "text": "music of all digital art forms music is",
            "start": 39.059,
            "duration": 3.901
        },
        {
            "text": "the most difficult to reproduce because",
            "start": 41.34,
            "duration": 3.48
        },
        {
            "text": "it takes place over a specific temporal",
            "start": 42.96,
            "duration": 3.779
        },
        {
            "text": "space consisting of thousands of tokens",
            "start": 44.82,
            "duration": 3.719
        },
        {
            "text": "and needs to invoke human emotions",
            "start": 46.739,
            "duration": 3.601
        },
        {
            "text": "that's why every morning I listen to Eye",
            "start": 48.539,
            "duration": 3.36
        },
        {
            "text": "of the Tiger to get fired up before",
            "start": 50.34,
            "duration": 3.18
        },
        {
            "text": "writing any JavaScript code but",
            "start": 51.899,
            "duration": 3.121
        },
        {
            "text": "listening to the same song over and over",
            "start": 53.52,
            "duration": 3.48
        },
        {
            "text": "again gets boring let's find out if AI",
            "start": 55.02,
            "duration": 3.78
        },
        {
            "text": "can generate new music for us on the Fly",
            "start": 57.0,
            "duration": 3.48
        },
        {
            "text": "this model was trained on a relatively",
            "start": 58.8,
            "duration": 3.96
        },
        {
            "text": "small data set of 5000 music samples",
            "start": 60.48,
            "duration": 4.259
        },
        {
            "text": "paired with a text description and you",
            "start": 62.76,
            "duration": 4.08
        },
        {
            "text": "can access this data on kaggle before we",
            "start": 64.739,
            "duration": 3.181
        },
        {
            "text": "talk about it though you should know",
            "start": 66.84,
            "duration": 2.76
        },
        {
            "text": "that there's another groundbreaking text",
            "start": 67.92,
            "duration": 3.3
        },
        {
            "text": "and music project out there called",
            "start": 69.6,
            "duration": 3.9
        },
        {
            "text": "refusion it works like a text to image",
            "start": 71.22,
            "duration": 3.78
        },
        {
            "text": "generator except that it creates",
            "start": 73.5,
            "duration": 3.42
        },
        {
            "text": "spectrograms which are then converted to",
            "start": 75.0,
            "duration": 4.02
        },
        {
            "text": "audio and actually sound like coherent",
            "start": 76.92,
            "duration": 4.14
        },
        {
            "text": "music that's pretty cool but music LM",
            "start": 79.02,
            "duration": 3.54
        },
        {
            "text": "takes a completely different approach",
            "start": 81.06,
            "duration": 3.9
        },
        {
            "text": "that doesn't rely on diffusion music LM",
            "start": 82.56,
            "duration": 4.68
        },
        {
            "text": "is a pure audio model which relies on",
            "start": 84.96,
            "duration": 4.14
        },
        {
            "text": "two different types of tokens semantic",
            "start": 87.24,
            "duration": 4.019
        },
        {
            "text": "tokens capture details like Melody and",
            "start": 89.1,
            "duration": 3.78
        },
        {
            "text": "Rhythm while acoustic tokens from",
            "start": 91.259,
            "duration": 3.421
        },
        {
            "text": "Soundstream capture things like the",
            "start": 92.88,
            "duration": 3.54
        },
        {
            "text": "recording conditions of the track these",
            "start": 94.68,
            "duration": 3.899
        },
        {
            "text": "tokens are combined then decoded into a",
            "start": 96.42,
            "duration": 4.08
        },
        {
            "text": "high fidelity audio track but we have a",
            "start": 98.579,
            "duration": 3.54
        },
        {
            "text": "prompt for the soundtrack of an arcade",
            "start": 100.5,
            "duration": 3.799
        },
        {
            "text": "game",
            "start": 102.119,
            "duration": 2.18
        },
        {
            "text": "if that were playing in the background",
            "start": 106.22,
            "duration": 4.0
        },
        {
            "text": "of a retro video game I'd have no idea",
            "start": 108.24,
            "duration": 3.72
        },
        {
            "text": "it was AI generated but now let's try",
            "start": 110.22,
            "duration": 3.3
        },
        {
            "text": "something a little more difficult A",
            "start": 111.96,
            "duration": 3.3
        },
        {
            "text": "hip-hop track with vocals",
            "start": 113.52,
            "duration": 4.839
        },
        {
            "text": "[Music]",
            "start": 115.26,
            "duration": 3.099
        },
        {
            "text": "I wouldn't say it's a Bop but it's not",
            "start": 118.759,
            "duration": 4.18
        },
        {
            "text": "terrible either if you listen closely to",
            "start": 121.2,
            "duration": 3.419
        },
        {
            "text": "the lyrics they're just nonsense words",
            "start": 122.939,
            "duration": 3.54
        },
        {
            "text": "but they sound good if I were faded at",
            "start": 124.619,
            "duration": 3.42
        },
        {
            "text": "the club I could easily bust a Groove to",
            "start": 126.479,
            "duration": 2.76
        },
        {
            "text": "this show what's really amazing about",
            "start": 128.039,
            "duration": 3.42
        },
        {
            "text": "music ml though is Melody conditioning",
            "start": 129.239,
            "duration": 3.901
        },
        {
            "text": "or in other words you can generate music",
            "start": 131.459,
            "duration": 4.081
        },
        {
            "text": "that respects a text prompt while also",
            "start": 133.14,
            "duration": 4.319
        },
        {
            "text": "providing the actual Melody like if you",
            "start": 135.54,
            "duration": 3.779
        },
        {
            "text": "record yourself humming Beethoven's Ode",
            "start": 137.459,
            "duration": 3.681
        },
        {
            "text": "to Joy",
            "start": 139.319,
            "duration": 4.081
        },
        {
            "text": "you can then convert it to any style",
            "start": 141.14,
            "duration": 6.12
        },
        {
            "text": "like an opera singer or guitar solo",
            "start": 143.4,
            "duration": 6.24
        },
        {
            "text": "in addition they tested it on",
            "start": 147.26,
            "duration": 4.3
        },
        {
            "text": "descriptions of paintings and it does a",
            "start": 149.64,
            "duration": 3.66
        },
        {
            "text": "pretty good job of capturing the mood of",
            "start": 151.56,
            "duration": 3.24
        },
        {
            "text": "the paintings still nowhere near as",
            "start": 153.3,
            "duration": 3.0
        },
        {
            "text": "beautiful as what a talented human",
            "start": 154.8,
            "duration": 3.63
        },
        {
            "text": "musician could create",
            "start": 156.3,
            "duration": 7.7
        },
        {
            "text": "[Music]",
            "start": 158.43,
            "duration": 8.25
        },
        {
            "text": "but I think AI has the potential to",
            "start": 164.0,
            "duration": 4.42
        },
        {
            "text": "revolutionize music production in the",
            "start": 166.68,
            "duration": 3.36
        },
        {
            "text": "near future imagine a smart keyboard",
            "start": 168.42,
            "duration": 3.66
        },
        {
            "text": "with AI like this built in you play a",
            "start": 170.04,
            "duration": 3.779
        },
        {
            "text": "little Melody then it comes up with an",
            "start": 172.08,
            "duration": 3.48
        },
        {
            "text": "infinite number of possible arrangements",
            "start": 173.819,
            "duration": 3.661
        },
        {
            "text": "with different sounds instruments and",
            "start": 175.56,
            "duration": 3.959
        },
        {
            "text": "styles instead of actually composing and",
            "start": 177.48,
            "duration": 3.72
        },
        {
            "text": "producing music but we'll just guide the",
            "start": 179.519,
            "duration": 3.36
        },
        {
            "text": "AI in the right direction until the",
            "start": 181.2,
            "duration": 3.42
        },
        {
            "text": "track is bumping with continuation and",
            "start": 182.879,
            "duration": 3.0
        },
        {
            "text": "voice cloning you could even bring",
            "start": 184.62,
            "duration": 3.0
        },
        {
            "text": "Michael Jackson and Kurt Cobain back to",
            "start": 185.879,
            "duration": 3.301
        },
        {
            "text": "sing a duet on your track you could then",
            "start": 187.62,
            "duration": 3.42
        },
        {
            "text": "use chat GPT to write the perfect lyrics",
            "start": 189.18,
            "duration": 3.72
        },
        {
            "text": "and if you're a DJ you could use Vision",
            "start": 191.04,
            "duration": 4.02
        },
        {
            "text": "AI to capture the mood on people's faces",
            "start": 192.9,
            "duration": 3.839
        },
        {
            "text": "in the crowd and generate music on the",
            "start": 195.06,
            "duration": 3.36
        },
        {
            "text": "Fly that suits them perfectly this has",
            "start": 196.739,
            "duration": 3.42
        },
        {
            "text": "been the code report thanks for watching",
            "start": 198.42,
            "duration": 5.3
        },
        {
            "text": "and I will see you in the next one",
            "start": 200.159,
            "duration": 3.561
        }
    ],
    "stats": {
        "viewCount": "310943",
        "likeCount": "19059",
        "favoriteCount": "0",
        "commentCount": "1066"
    }
}