{
    "id": "26Mayv5JPz0",
    "title": "FFmpeg in 100 Seconds",
    "publishedAt": "2023-03-09T15:23:18Z",
    "captions": [
        {
            "text": "ffmpeg and open source command line tool",
            "start": 0.14,
            "duration": 5.08
        },
        {
            "text": "for processing audio and video files it",
            "start": 2.76,
            "duration": 4.32
        },
        {
            "text": "was created by Fabrice Bullard in the",
            "start": 5.22,
            "duration": 3.54
        },
        {
            "text": "year 2000. the name stands for Fast",
            "start": 7.08,
            "duration": 3.24
        },
        {
            "text": "Forward followed by the moving picture",
            "start": 8.76,
            "duration": 3.72
        },
        {
            "text": "experts group file format today it's",
            "start": 10.32,
            "duration": 3.96
        },
        {
            "text": "used in a wide variety of tools like",
            "start": 12.48,
            "duration": 3.659
        },
        {
            "text": "Google Chrome and blender as well as",
            "start": 14.28,
            "duration": 3.9
        },
        {
            "text": "video platforms like YouTube and Vimeo",
            "start": 16.139,
            "duration": 4.441
        },
        {
            "text": "it's able to decode encode transcode",
            "start": 18.18,
            "duration": 4.859
        },
        {
            "text": "Multiplex D Multiplex stream filter and",
            "start": 20.58,
            "duration": 4.619
        },
        {
            "text": "play virtually any multimedia file in",
            "start": 23.039,
            "duration": 4.201
        },
        {
            "text": "the world with over 100 different codecs",
            "start": 25.199,
            "duration": 3.961
        },
        {
            "text": "supported it works by taking an input",
            "start": 27.24,
            "duration": 3.779
        },
        {
            "text": "file that then passes it to a d",
            "start": 29.16,
            "duration": 4.079
        },
        {
            "text": "multiplexer that splits the audio and",
            "start": 31.019,
            "duration": 4.56
        },
        {
            "text": "video tracks into separate encoded data",
            "start": 33.239,
            "duration": 4.261
        },
        {
            "text": "packets these packets are then decoded",
            "start": 35.579,
            "duration": 3.961
        },
        {
            "text": "into uncompressed frames which can be",
            "start": 37.5,
            "duration": 3.84
        },
        {
            "text": "further processed and filtered you might",
            "start": 39.54,
            "duration": 3.66
        },
        {
            "text": "modify the brightness and contrast add",
            "start": 41.34,
            "duration": 4.26
        },
        {
            "text": "subtitles or visualize the audio as a",
            "start": 43.2,
            "duration": 4.199
        },
        {
            "text": "waveform then finally these frames are",
            "start": 45.6,
            "duration": 4.02
        },
        {
            "text": "encoded and multiplexed back into the",
            "start": 47.399,
            "duration": 4.201
        },
        {
            "text": "output file in addition it also comes",
            "start": 49.62,
            "duration": 4.08
        },
        {
            "text": "with the FF play tool to easily play",
            "start": 51.6,
            "duration": 4.38
        },
        {
            "text": "media from the command line and FF probe",
            "start": 53.7,
            "duration": 4.199
        },
        {
            "text": "to extract metadata from the file in",
            "start": 55.98,
            "duration": 3.599
        },
        {
            "text": "addition to tons of low-level libraries",
            "start": 57.899,
            "duration": 3.18
        },
        {
            "text": "for develop developers building their",
            "start": 59.579,
            "duration": 3.601
        },
        {
            "text": "own multimedia processing software to",
            "start": 61.079,
            "duration": 4.26
        },
        {
            "text": "get started install it then open up the",
            "start": 63.18,
            "duration": 4.68
        },
        {
            "text": "terminal use the ffmpeg command followed",
            "start": 65.339,
            "duration": 5.221
        },
        {
            "text": "by I to supply one or more input files",
            "start": 67.86,
            "duration": 4.14
        },
        {
            "text": "to convert that file to a different",
            "start": 70.56,
            "duration": 3.3
        },
        {
            "text": "format simply provide the name of the",
            "start": 72.0,
            "duration": 3.479
        },
        {
            "text": "output it will automatically detect the",
            "start": 73.86,
            "duration": 3.42
        },
        {
            "text": "file extension and convert it to the",
            "start": 75.479,
            "duration": 3.901
        },
        {
            "text": "proper codec or the C flag can be used",
            "start": 77.28,
            "duration": 4.68
        },
        {
            "text": "to specify an explicit codec like mpeg-4",
            "start": 79.38,
            "duration": 4.739
        },
        {
            "text": "for the video track and mp3 for the",
            "start": 81.96,
            "duration": 3.9
        },
        {
            "text": "audio you may also want to change the",
            "start": 84.119,
            "duration": 4.021
        },
        {
            "text": "quality of the output file the B flag",
            "start": 85.86,
            "duration": 4.439
        },
        {
            "text": "can change the bitrate while the r flag",
            "start": 88.14,
            "duration": 4.14
        },
        {
            "text": "can change the frame rate and S can",
            "start": 90.299,
            "duration": 4.14
        },
        {
            "text": "change the resolution in some cases you",
            "start": 92.28,
            "duration": 3.78
        },
        {
            "text": "may have multiple video clips that need",
            "start": 94.439,
            "duration": 3.481
        },
        {
            "text": "to be combined together these clips can",
            "start": 96.06,
            "duration": 3.66
        },
        {
            "text": "be listed in their own text file then",
            "start": 97.92,
            "duration": 3.659
        },
        {
            "text": "combined together by specifying the",
            "start": 99.72,
            "duration": 4.38
        },
        {
            "text": "format as concat and the codec as copy",
            "start": 101.579,
            "duration": 3.961
        },
        {
            "text": "copy can also be used to make",
            "start": 104.1,
            "duration": 3.42
        },
        {
            "text": "modifications to a video like when used",
            "start": 105.54,
            "duration": 3.899
        },
        {
            "text": "with t to trim a certain number of",
            "start": 107.52,
            "duration": 4.139
        },
        {
            "text": "seconds off of the video footage but the",
            "start": 109.439,
            "duration": 4.32
        },
        {
            "text": "most powerful option might be VF which",
            "start": 111.659,
            "duration": 3.78
        },
        {
            "text": "creates a filter graph that can handle",
            "start": 113.759,
            "duration": 3.601
        },
        {
            "text": "Transformations like rotation and",
            "start": 115.439,
            "duration": 3.901
        },
        {
            "text": "scaling and color modifications like",
            "start": 117.36,
            "duration": 4.02
        },
        {
            "text": "brightness and contrast in addition to",
            "start": 119.34,
            "duration": 3.959
        },
        {
            "text": "many other effects and if you have an",
            "start": 121.38,
            "duration": 3.86
        },
        {
            "text": "SRT file for captions in your video",
            "start": 123.299,
            "duration": 4.381
        },
        {
            "text": "ffmpeg is able to convert it to an ass",
            "start": 125.24,
            "duration": 4.42
        },
        {
            "text": "file which can then be used with the VF",
            "start": 127.68,
            "duration": 4.26
        },
        {
            "text": "option to easily add subtitles to your",
            "start": 129.66,
            "duration": 4.68
        },
        {
            "text": "video if this has been ffmpeg in 100",
            "start": 131.94,
            "duration": 4.2
        },
        {
            "text": "seconds hit the like button for more",
            "start": 134.34,
            "duration": 3.3
        },
        {
            "text": "short videos like this thanks for",
            "start": 136.14,
            "duration": 3.239
        },
        {
            "text": "watching and I will see you in the next",
            "start": 137.64,
            "duration": 3.86
        },
        {
            "text": "one",
            "start": 139.379,
            "duration": 2.121
        }
    ],
    "stats": {
        "viewCount": "545724",
        "likeCount": "32217",
        "favoriteCount": "0",
        "commentCount": "669"
    }
}