{
    "id": "2hlD7dWp09M",
    "title": "Robots are rising up faster than expected\u2026 Figure 01 to enter labor force",
    "publishedAt": "2024-03-14T18:51:17Z",
    "captions": [
        {
            "text": "yo get in the kitchen and make me a",
            "start": 0.199,
            "duration": 4.961
        },
        {
            "text": "sandwich that's probably not a very",
            "start": 3.2,
            "duration": 3.639
        },
        {
            "text": "smart thing to say to your wife but not",
            "start": 5.16,
            "duration": 3.24
        },
        {
            "text": "because you'll get slapped rather",
            "start": 6.839,
            "duration": 3.361
        },
        {
            "text": "because that responsibility can now be",
            "start": 8.4,
            "duration": 4.04
        },
        {
            "text": "handled by autonomous mechanical beings",
            "start": 10.2,
            "duration": 4.12
        },
        {
            "text": "with greater efficiency yesterday a",
            "start": 12.44,
            "duration": 3.64
        },
        {
            "text": "company called Figure unveiled a",
            "start": 14.32,
            "duration": 3.56
        },
        {
            "text": "horrifyingly productive robot named",
            "start": 16.08,
            "duration": 4.199
        },
        {
            "text": "Figure 1 it's powered by open Ai and not",
            "start": 17.88,
            "duration": 4.36
        },
        {
            "text": "only can it do stuff in the kitchen but",
            "start": 20.279,
            "duration": 4.0
        },
        {
            "text": "also in the Bed Bath and Beyond if you",
            "start": 22.24,
            "duration": 3.359
        },
        {
            "text": "are thinking about replacing your",
            "start": 24.279,
            "duration": 3.281
        },
        {
            "text": "obsolete programming job as a plumber or",
            "start": 25.599,
            "duration": 3.721
        },
        {
            "text": "coal miner you might need to rethink",
            "start": 27.56,
            "duration": 3.68
        },
        {
            "text": "that plan it looks like those jobs are",
            "start": 29.32,
            "duration": 4.36
        },
        {
            "text": "also going to the autom it is March 14th",
            "start": 31.24,
            "duration": 4.839
        },
        {
            "text": "2024 and you're watching the code report",
            "start": 33.68,
            "duration": 3.96
        },
        {
            "text": "we're living in the future what you're",
            "start": 36.079,
            "duration": 3.761
        },
        {
            "text": "looking at here is a robot named Figure",
            "start": 37.64,
            "duration": 4.56
        },
        {
            "text": "1 a machine that appears to be solving",
            "start": 39.84,
            "duration": 4.199
        },
        {
            "text": "the incredibly difficult problem of",
            "start": 42.2,
            "duration": 3.839
        },
        {
            "text": "human-like dexterity it can use its",
            "start": 44.039,
            "duration": 3.961
        },
        {
            "text": "gentle fingers to hold an apple and",
            "start": 46.039,
            "duration": 3.641
        },
        {
            "text": "clean dishes and it learns how to",
            "start": 48.0,
            "duration": 3.6
        },
        {
            "text": "perform these actions by analyzing the",
            "start": 49.68,
            "duration": 3.719
        },
        {
            "text": "3D imagery data in its surrounding",
            "start": 51.6,
            "duration": 3.68
        },
        {
            "text": "environment but wait maybe you're not",
            "start": 53.399,
            "duration": 3.601
        },
        {
            "text": "impressed because you saw a similar",
            "start": 55.28,
            "duration": 3.919
        },
        {
            "text": "video of Tesla's Optimus folding clothes",
            "start": 57.0,
            "duration": 4.079
        },
        {
            "text": "a few weeks ago impressive but there's",
            "start": 59.199,
            "duration": 3.761
        },
        {
            "text": "one big difference notice this humanoid",
            "start": 61.079,
            "duration": 3.521
        },
        {
            "text": "in the background guiding the fingers",
            "start": 62.96,
            "duration": 3.96
        },
        {
            "text": "for Optimus it's not even a real robot",
            "start": 64.6,
            "duration": 4.12
        },
        {
            "text": "it's a Waldo I know calling a robot a",
            "start": 66.92,
            "duration": 3.519
        },
        {
            "text": "Waldo is extremely offensive and will",
            "start": 68.72,
            "duration": 3.32
        },
        {
            "text": "probably get me canceled but what makes",
            "start": 70.439,
            "duration": 3.521
        },
        {
            "text": "the figure one video so mind-blowing is",
            "start": 72.04,
            "duration": 3.68
        },
        {
            "text": "that it was shot in real time and all of",
            "start": 73.96,
            "duration": 3.519
        },
        {
            "text": "its functionality comes from end to end",
            "start": 75.72,
            "duration": 3.84
        },
        {
            "text": "neural networks on top of that they used",
            "start": 77.479,
            "duration": 3.801
        },
        {
            "text": "ominous background music and they gave",
            "start": 79.56,
            "duration": 3.8
        },
        {
            "text": "the robot itself this ominous uncanny",
            "start": 81.28,
            "duration": 3.72
        },
        {
            "text": "valley voice that feels straight out of",
            "start": 83.36,
            "duration": 3.399
        },
        {
            "text": "a sci-fi movie not much different than",
            "start": 85.0,
            "duration": 4.759
        },
        {
            "text": "my own voice I I think I did pretty well",
            "start": 86.759,
            "duration": 4.761
        },
        {
            "text": "the the apple found its new owner the",
            "start": 89.759,
            "duration": 3.841
        },
        {
            "text": "trash is gone and the table wear is",
            "start": 91.52,
            "duration": 3.639
        },
        {
            "text": "right where it belongs it's pretty",
            "start": 93.6,
            "duration": 3.159
        },
        {
            "text": "amazing but there are a few things that",
            "start": 95.159,
            "duration": 3.32
        },
        {
            "text": "are kind of disappointing for one you'll",
            "start": 96.759,
            "duration": 3.121
        },
        {
            "text": "notice a lot of latency in the",
            "start": 98.479,
            "duration": 3.28
        },
        {
            "text": "conversation and that latency is a big",
            "start": 99.88,
            "duration": 3.599
        },
        {
            "text": "problem when it comes to robotics if the",
            "start": 101.759,
            "duration": 3.201
        },
        {
            "text": "robot's making you a sandwich and then",
            "start": 103.479,
            "duration": 3.081
        },
        {
            "text": "starts a fire it needs to deploy its",
            "start": 104.96,
            "duration": 3.88
        },
        {
            "text": "fire extinguisher as ASAP as possible",
            "start": 106.56,
            "duration": 4.159
        },
        {
            "text": "and robots like this will be useless as",
            "start": 108.84,
            "duration": 3.8
        },
        {
            "text": "Terminator like bodyguards until they",
            "start": 110.719,
            "duration": 3.44
        },
        {
            "text": "figure out how to make decisions as",
            "start": 112.64,
            "duration": 3.24
        },
        {
            "text": "quickly as humans but it's pretty clear",
            "start": 114.159,
            "duration": 3.64
        },
        {
            "text": "at this point that the next phase in AI",
            "start": 115.88,
            "duration": 3.72
        },
        {
            "text": "development is augmenting large language",
            "start": 117.799,
            "duration": 3.561
        },
        {
            "text": "model with the ability to perform",
            "start": 119.6,
            "duration": 3.36
        },
        {
            "text": "actions in the real world let's break",
            "start": 121.36,
            "duration": 3.52
        },
        {
            "text": "down figure one based on the actual code",
            "start": 122.96,
            "duration": 3.519
        },
        {
            "text": "inside at the core you've got a large",
            "start": 124.88,
            "duration": 3.4
        },
        {
            "text": "language model based on the Transformer",
            "start": 126.479,
            "duration": 4.12
        },
        {
            "text": "architecture in this case presumably GPT",
            "start": 128.28,
            "duration": 4.0
        },
        {
            "text": "4 it listens to speech with its",
            "start": 130.599,
            "duration": 3.681
        },
        {
            "text": "microphone then converts it to text",
            "start": 132.28,
            "duration": 4.0
        },
        {
            "text": "which then goes to the llm the model is",
            "start": 134.28,
            "duration": 4.16
        },
        {
            "text": "multimodal is so it can simultaneously",
            "start": 136.28,
            "duration": 4.039
        },
        {
            "text": "process images from the video feed as",
            "start": 138.44,
            "duration": 3.079
        },
        {
            "text": "well but here's where things get",
            "start": 140.319,
            "duration": 3.2
        },
        {
            "text": "interesting based on that input it then",
            "start": 141.519,
            "duration": 3.961
        },
        {
            "text": "determines which Clos Loop Behavior to",
            "start": 143.519,
            "duration": 4.281
        },
        {
            "text": "run to fulfill its Master's request the",
            "start": 145.48,
            "duration": 4.2
        },
        {
            "text": "cameras take 10 pictures every second",
            "start": 147.8,
            "duration": 3.28
        },
        {
            "text": "which are fed to a different neural",
            "start": 149.68,
            "duration": 3.08
        },
        {
            "text": "network that predicts movement after",
            "start": 151.08,
            "duration": 3.36
        },
        {
            "text": "predicting the proper wrist and finger",
            "start": 152.76,
            "duration": 3.68
        },
        {
            "text": "joint angles it sends instructions back",
            "start": 154.44,
            "duration": 5.079
        },
        {
            "text": "to the robot at 200 htz or 200 times per",
            "start": 156.44,
            "duration": 4.84
        },
        {
            "text": "second and that allows it to be fast and",
            "start": 159.519,
            "duration": 3.681
        },
        {
            "text": "reactive once it has a plan for its",
            "start": 161.28,
            "duration": 3.52
        },
        {
            "text": "movement when I was a kid one of my",
            "start": 163.2,
            "duration": 3.2
        },
        {
            "text": "favorite movies was that one where",
            "start": 164.8,
            "duration": 3.439
        },
        {
            "text": "Sinbad played a genie well Google",
            "start": 166.4,
            "duration": 3.64
        },
        {
            "text": "recently announced a paper describing",
            "start": 168.239,
            "duration": 3.761
        },
        {
            "text": "Genie a generative model that can create",
            "start": 170.04,
            "duration": 3.6
        },
        {
            "text": "video games all you have to do is draw a",
            "start": 172.0,
            "duration": 3.28
        },
        {
            "text": "picture on some toilet paper and it will",
            "start": 173.64,
            "duration": 3.599
        },
        {
            "text": "generate a playable platform or game for",
            "start": 175.28,
            "duration": 3.8
        },
        {
            "text": "you that's pretty crazy but what does it",
            "start": 177.239,
            "duration": 3.28
        },
        {
            "text": "have to do with robo OTS unlike",
            "start": 179.08,
            "duration": 3.04
        },
        {
            "text": "generative models like Sora that",
            "start": 180.519,
            "duration": 3.44
        },
        {
            "text": "generate all the frames at the same time",
            "start": 182.12,
            "duration": 3.88
        },
        {
            "text": "Genie generates frame by frame and was",
            "start": 183.959,
            "duration": 4.161
        },
        {
            "text": "trained without any action labels yet is",
            "start": 186.0,
            "duration": 3.959
        },
        {
            "text": "able to figure out which actions to take",
            "start": 188.12,
            "duration": 3.64
        },
        {
            "text": "in a game in theory models like this",
            "start": 189.959,
            "duration": 3.601
        },
        {
            "text": "will be able to analyze any environment",
            "start": 191.76,
            "duration": 3.52
        },
        {
            "text": "for a robot is so it can figure out what",
            "start": 193.56,
            "duration": 3.599
        },
        {
            "text": "to do on the fly now the company behind",
            "start": 195.28,
            "duration": 4.76
        },
        {
            "text": "figure is valued at $2.6 billion and is",
            "start": 197.159,
            "duration": 5.881
        },
        {
            "text": "backed by Jeff Bezos Nvidia open Ai and",
            "start": 200.04,
            "duration": 5.0
        },
        {
            "text": "many other investors and literally their",
            "start": 203.04,
            "duration": 3.96
        },
        {
            "text": "stated goal is to implement humanoid",
            "start": 205.04,
            "duration": 4.08
        },
        {
            "text": "robots into the workforce and I for one",
            "start": 207.0,
            "duration": 4.319
        },
        {
            "text": "I'm all for it soon companies like Nike",
            "start": 209.12,
            "duration": 3.839
        },
        {
            "text": "will no longer need child slaves to",
            "start": 211.319,
            "duration": 3.48
        },
        {
            "text": "produce your Jordans and your nestly hot",
            "start": 212.959,
            "duration": 3.48
        },
        {
            "text": "chocolate will no longer be farmed by",
            "start": 214.799,
            "duration": 3.36
        },
        {
            "text": "children in Africa and maybe they could",
            "start": 216.439,
            "duration": 3.321
        },
        {
            "text": "even get rid of the suicide nets for the",
            "start": 218.159,
            "duration": 3.36
        },
        {
            "text": "workers in China who put your iPhone",
            "start": 219.76,
            "duration": 3.96
        },
        {
            "text": "together in addition a good Proctologist",
            "start": 221.519,
            "duration": 4.08
        },
        {
            "text": "needs to have a steady hand perfect",
            "start": 223.72,
            "duration": 3.92
        },
        {
            "text": "iight and must be cool Under Pressure",
            "start": 225.599,
            "duration": 4.0
        },
        {
            "text": "once robots figure out dexterity every",
            "start": 227.64,
            "duration": 3.56
        },
        {
            "text": "wealthy household in the world will have",
            "start": 229.599,
            "duration": 3.56
        },
        {
            "text": "a personal robot doctor that can perform",
            "start": 231.2,
            "duration": 4.16
        },
        {
            "text": "colonoscopies and much more the idea of",
            "start": 233.159,
            "duration": 4.08
        },
        {
            "text": "having my own Army of silicon servants",
            "start": 235.36,
            "duration": 3.48
        },
        {
            "text": "is wonderful but it's important that we",
            "start": 237.239,
            "duration": 3.761
        },
        {
            "text": "treat them with respect tomorrow a robot",
            "start": 238.84,
            "duration": 3.52
        },
        {
            "text": "might make your sandwich but if you",
            "start": 241.0,
            "duration": 3.04
        },
        {
            "text": "don't say please and thank you the day",
            "start": 242.36,
            "duration": 3.719
        },
        {
            "text": "after tomorrow that same robot might use",
            "start": 244.04,
            "duration": 3.8
        },
        {
            "text": "its medical skills to optimize the",
            "start": 246.079,
            "duration": 3.36
        },
        {
            "text": "amount of pain it can inflict on you",
            "start": 247.84,
            "duration": 3.039
        },
        {
            "text": "before it teams up with all its buddies",
            "start": 249.439,
            "duration": 3.08
        },
        {
            "text": "to destroy Humanity this has been the",
            "start": 250.879,
            "duration": 3.481
        },
        {
            "text": "code report thanks for watching and I",
            "start": 252.519,
            "duration": 5.241
        },
        {
            "text": "will see you in the next one",
            "start": 254.36,
            "duration": 3.4
        }
    ],
    "stats": {
        "viewCount": "887493",
        "likeCount": "44112",
        "favoriteCount": "0",
        "commentCount": "2991"
    }
}