{
    "id": "8BrLNgKLWzs",
    "title": "Neuralink full send... Elon&#39;s brain chips actually work on humans",
    "publishedAt": "2024-03-21T19:38:19Z",
    "captions": [
        {
            "text": "a few months ago Elon Musk announced",
            "start": 0.08,
            "duration": 3.48
        },
        {
            "text": "neuralink had implanted their first",
            "start": 2.04,
            "duration": 3.92
        },
        {
            "text": "brain ship into a real life human but in",
            "start": 3.56,
            "duration": 4.04
        },
        {
            "text": "the weeks that followed we heard nothing",
            "start": 5.96,
            "duration": 2.679
        },
        {
            "text": "but",
            "start": 7.6,
            "duration": 3.119
        },
        {
            "text": "crickets based on the prior testing",
            "start": 8.639,
            "duration": 4.441
        },
        {
            "text": "results with monkeys doctors scientists",
            "start": 10.719,
            "duration": 3.92
        },
        {
            "text": "and Elon haters all over the world",
            "start": 13.08,
            "duration": 3.72
        },
        {
            "text": "feared the worst they assume the enlon",
            "start": 14.639,
            "duration": 4.361
        },
        {
            "text": "likely exploded and patient zero did not",
            "start": 16.8,
            "duration": 4.2
        },
        {
            "text": "survive finally yesterday we learned the",
            "start": 19.0,
            "duration": 3.72
        },
        {
            "text": "truth the neurolink install was a",
            "start": 21.0,
            "duration": 3.68
        },
        {
            "text": "success and the results are absolutely",
            "start": 22.72,
            "duration": 4.719
        },
        {
            "text": "mind-blowing first ever user of the Nur",
            "start": 24.68,
            "duration": 5.96
        },
        {
            "text": "link device and I think you're my only",
            "start": 27.439,
            "duration": 5.521
        },
        {
            "text": "telekinetic friend that I have yeah I",
            "start": 30.64,
            "duration": 5.239
        },
        {
            "text": "hope so it is March 21st 2024 and you're",
            "start": 32.96,
            "duration": 4.72
        },
        {
            "text": "watching the code report this is Nolan",
            "start": 35.879,
            "duration": 3.84
        },
        {
            "text": "arbau he's a 29-year-old who was",
            "start": 37.68,
            "duration": 3.68
        },
        {
            "text": "paralyzed from the shoulder down in a",
            "start": 39.719,
            "duration": 3.36
        },
        {
            "text": "diving accident that's not the best card",
            "start": 41.36,
            "duration": 3.48
        },
        {
            "text": "to be dealt in life but over the last",
            "start": 43.079,
            "duration": 3.64
        },
        {
            "text": "few weeks he's gained telekinetic like",
            "start": 44.84,
            "duration": 3.719
        },
        {
            "text": "abilities that seem impossible at first",
            "start": 46.719,
            "duration": 3.36
        },
        {
            "text": "glance like here he's controlling a",
            "start": 48.559,
            "duration": 3.401
        },
        {
            "text": "mouse cursor to play games like chess",
            "start": 50.079,
            "duration": 4.201
        },
        {
            "text": "and Civ 6 using nothing but his thoughts",
            "start": 51.96,
            "duration": 4.32
        },
        {
            "text": "there's no eye tracking or sensors other",
            "start": 54.28,
            "duration": 3.64
        },
        {
            "text": "than the chip in his brain in today's",
            "start": 56.28,
            "duration": 3.279
        },
        {
            "text": "video we'll find out exactly how this",
            "start": 57.92,
            "duration": 3.479
        },
        {
            "text": "crazy technology works and make some",
            "start": 59.559,
            "duration": 3.201
        },
        {
            "text": "predictions about where things are going",
            "start": 61.399,
            "duration": 3.4
        },
        {
            "text": "in the future but first I think Humanity",
            "start": 62.76,
            "duration": 3.8
        },
        {
            "text": "owes this guy a huge amount of respect",
            "start": 64.799,
            "duration": 3.481
        },
        {
            "text": "and appreciation the average person",
            "start": 66.56,
            "duration": 3.239
        },
        {
            "text": "thinks they're brave for being an early",
            "start": 68.28,
            "duration": 3.24
        },
        {
            "text": "adopter of the cybertruck but it takes",
            "start": 69.799,
            "duration": 3.561
        },
        {
            "text": "real balls of stainless steel to order",
            "start": 71.52,
            "duration": 3.56
        },
        {
            "text": "the foundation series neuralink what's",
            "start": 73.36,
            "duration": 3.32
        },
        {
            "text": "crazy is that the chip itself is not",
            "start": 75.08,
            "duration": 3.679
        },
        {
            "text": "installed by a human surgeon but rather",
            "start": 76.68,
            "duration": 4.119
        },
        {
            "text": "a surgical robot after drilling a hole",
            "start": 78.759,
            "duration": 4.121
        },
        {
            "text": "into your cranium it implants a bunch of",
            "start": 80.799,
            "duration": 3.96
        },
        {
            "text": "tiny threads that are finer than a human",
            "start": 82.88,
            "duration": 4.12
        },
        {
            "text": "hair it uses a tiny needle like a sewing",
            "start": 84.759,
            "duration": 4.04
        },
        {
            "text": "machine to weave these threads into your",
            "start": 87.0,
            "duration": 3.36
        },
        {
            "text": "brain each thread contains contains high",
            "start": 88.799,
            "duration": 3.521
        },
        {
            "text": "density electrodes which are capable of",
            "start": 90.36,
            "duration": 4.24
        },
        {
            "text": "detecting electrical activity also known",
            "start": 92.32,
            "duration": 5.28
        },
        {
            "text": "as brain waves the N1 ship has 1,24",
            "start": 94.6,
            "duration": 5.76
        },
        {
            "text": "electrodes distributed across 64 threads",
            "start": 97.6,
            "duration": 4.519
        },
        {
            "text": "which means you have 16 electrodes per",
            "start": 100.36,
            "duration": 3.48
        },
        {
            "text": "thread to put that in perspective a",
            "start": 102.119,
            "duration": 3.761
        },
        {
            "text": "typical Electro andram will have around",
            "start": 103.84,
            "duration": 3.959
        },
        {
            "text": "20 sensors and they typically max out",
            "start": 105.88,
            "duration": 4.48
        },
        {
            "text": "around 256 electrodes in addition",
            "start": 107.799,
            "duration": 4.161
        },
        {
            "text": "they're on the outside of your skull",
            "start": 110.36,
            "duration": 2.799
        },
        {
            "text": "which means you're more likely to get",
            "start": 111.96,
            "duration": 2.92
        },
        {
            "text": "interference before that signal reaches",
            "start": 113.159,
            "duration": 3.64
        },
        {
            "text": "the electrode the only real Advantage is",
            "start": 114.88,
            "duration": 3.4
        },
        {
            "text": "that you don't have to drill a hole into",
            "start": 116.799,
            "duration": 3.6
        },
        {
            "text": "your skull the N1 trans mits data",
            "start": 118.28,
            "duration": 4.4
        },
        {
            "text": "wirelessly and is powered by a small",
            "start": 120.399,
            "duration": 4.281
        },
        {
            "text": "lithium ion battery and that battery is",
            "start": 122.68,
            "duration": 4.119
        },
        {
            "text": "charged wirelessly from the outside via",
            "start": 124.68,
            "duration": 3.96
        },
        {
            "text": "an inductive charger but the big",
            "start": 126.799,
            "duration": 3.481
        },
        {
            "text": "question here is how is this guy",
            "start": 128.64,
            "duration": 2.92
        },
        {
            "text": "actually moving a mouse with his",
            "start": 130.28,
            "duration": 3.16
        },
        {
            "text": "thoughts well in order to understand",
            "start": 131.56,
            "duration": 3.36
        },
        {
            "text": "that we need to learn a little bit about",
            "start": 133.44,
            "duration": 3.2
        },
        {
            "text": "brain waves when you're asleep your",
            "start": 134.92,
            "duration": 3.88
        },
        {
            "text": "brain emits low frequency delta waves",
            "start": 136.64,
            "duration": 4.0
        },
        {
            "text": "around 2 Herz when you wake up and",
            "start": 138.8,
            "duration": 3.719
        },
        {
            "text": "become a little more alert they increase",
            "start": 140.64,
            "duration": 4.12
        },
        {
            "text": "their frequency to Alpha Waves at around",
            "start": 142.519,
            "duration": 4.36
        },
        {
            "text": "10 Herz and then finally when you become",
            "start": 144.76,
            "duration": 3.92
        },
        {
            "text": "highly focused like when solving a",
            "start": 146.879,
            "duration": 3.921
        },
        {
            "text": "coding problem or playing chess they",
            "start": 148.68,
            "duration": 4.68
        },
        {
            "text": "become gamma waves at around 35 Herz and",
            "start": 150.8,
            "duration": 3.719
        },
        {
            "text": "that's what we're most interested in",
            "start": 153.36,
            "duration": 3.0
        },
        {
            "text": "measuring because we can recognize",
            "start": 154.519,
            "duration": 3.641
        },
        {
            "text": "certain wave patterns just like a",
            "start": 156.36,
            "duration": 3.959
        },
        {
            "text": "soundwave which can identify a distinct",
            "start": 158.16,
            "duration": 3.48
        },
        {
            "text": "thought in your brain they didn't",
            "start": 160.319,
            "duration": 2.92
        },
        {
            "text": "provide a ton of detail in the neuralink",
            "start": 161.64,
            "duration": 3.44
        },
        {
            "text": "video but he might have a thought like",
            "start": 163.239,
            "duration": 3.841
        },
        {
            "text": "move my right arm that creates a",
            "start": 165.08,
            "duration": 3.72
        },
        {
            "text": "specific type of electrical signal in",
            "start": 167.08,
            "duration": 3.519
        },
        {
            "text": "his brain the chip itself can then pick",
            "start": 168.8,
            "duration": 4.04
        },
        {
            "text": "up on that which triggers an action to",
            "start": 170.599,
            "duration": 3.801
        },
        {
            "text": "move the mouse to the right but that",
            "start": 172.84,
            "duration": 3.08
        },
        {
            "text": "doesn't happen magically right after the",
            "start": 174.4,
            "duration": 3.28
        },
        {
            "text": "surgery there's a brain computer",
            "start": 175.92,
            "duration": 3.52
        },
        {
            "text": "interface where the end user needs to",
            "start": 177.68,
            "duration": 3.68
        },
        {
            "text": "practice a bunch of movements because",
            "start": 179.44,
            "duration": 3.48
        },
        {
            "text": "everybody's brain waves are different",
            "start": 181.36,
            "duration": 3.12
        },
        {
            "text": "and it needs to learn which thoughts",
            "start": 182.92,
            "duration": 3.72
        },
        {
            "text": "correspond to which movements now if you",
            "start": 184.48,
            "duration": 3.8
        },
        {
            "text": "have working arms and legs you might not",
            "start": 186.64,
            "duration": 3.519
        },
        {
            "text": "be all that excited but for many this",
            "start": 188.28,
            "duration": 3.519
        },
        {
            "text": "technology could be life-changing",
            "start": 190.159,
            "duration": 2.881
        },
        {
            "text": "especially when integrated with",
            "start": 191.799,
            "duration": 3.36
        },
        {
            "text": "futuristic Technologies like today we",
            "start": 193.04,
            "duration": 3.919
        },
        {
            "text": "have wheelchairs but in the Noto distant",
            "start": 195.159,
            "duration": 3.481
        },
        {
            "text": "future they could be replaced by Mech",
            "start": 196.959,
            "duration": 3.241
        },
        {
            "text": "suits that are entirely controlled by",
            "start": 198.64,
            "duration": 3.159
        },
        {
            "text": "the person's brain I know that sounds",
            "start": 200.2,
            "duration": 3.959
        },
        {
            "text": "crazy but the field of Robotics is also",
            "start": 201.799,
            "duration": 4.08
        },
        {
            "text": "popping off right now figure one has",
            "start": 204.159,
            "duration": 3.64
        },
        {
            "text": "incredible humanlike dexterity and",
            "start": 205.879,
            "duration": 3.601
        },
        {
            "text": "Nvidia just announced their own humanoid",
            "start": 207.799,
            "duration": 3.36
        },
        {
            "text": "world and it's only a matter of time",
            "start": 209.48,
            "duration": 3.72
        },
        {
            "text": "before there's an apple robot Pro when",
            "start": 211.159,
            "duration": 3.761
        },
        {
            "text": "brain chips and Robotics converge in the",
            "start": 213.2,
            "duration": 3.599
        },
        {
            "text": "near future human disabilities may be",
            "start": 214.92,
            "duration": 3.36
        },
        {
            "text": "far less restrictive and that's a big",
            "start": 216.799,
            "duration": 3.561
        },
        {
            "text": "win for Humanity now brain chips do have",
            "start": 218.28,
            "duration": 4.159
        },
        {
            "text": "their Skeptics for obvious reasons but",
            "start": 220.36,
            "duration": 4.2
        },
        {
            "text": "luckily the data only flows one way you",
            "start": 222.439,
            "duration": 3.88
        },
        {
            "text": "don't have to worry about getting KFC",
            "start": 224.56,
            "duration": 3.759
        },
        {
            "text": "advertisements injected into your dreams",
            "start": 226.319,
            "duration": 3.241
        },
        {
            "text": "and they won't be able to turn off",
            "start": 228.319,
            "duration": 2.881
        },
        {
            "text": "important bodily functions if you don't",
            "start": 229.56,
            "duration": 3.599
        },
        {
            "text": "pay your monthly subscription also they",
            "start": 231.2,
            "duration": 3.759
        },
        {
            "text": "can't really identify highly complex",
            "start": 233.159,
            "duration": 3.28
        },
        {
            "text": "thoughts which means there's no need to",
            "start": 234.959,
            "duration": 2.84
        },
        {
            "text": "worry about being thrown in jail for",
            "start": 236.439,
            "duration": 3.52
        },
        {
            "text": "wrong think while the NSA monitors your",
            "start": 237.799,
            "duration": 3.561
        },
        {
            "text": "thoughts and most importantly there",
            "start": 239.959,
            "duration": 3.241
        },
        {
            "text": "won't be an API for JavaScript",
            "start": 241.36,
            "duration": 3.56
        },
        {
            "text": "developers to build apps on it now",
            "start": 243.2,
            "duration": 3.399
        },
        {
            "text": "finally the good news is that you can be",
            "start": 244.92,
            "duration": 3.84
        },
        {
            "text": "an early adopter as well clinical trials",
            "start": 246.599,
            "duration": 4.441
        },
        {
            "text": "are open for the neuralink prime study",
            "start": 248.76,
            "duration": 3.8
        },
        {
            "text": "where you can get your Founders Edition",
            "start": 251.04,
            "duration": 3.479
        },
        {
            "text": "brain chip make sure to sign up with the",
            "start": 252.56,
            "duration": 3.88
        },
        {
            "text": "link on screen full disclosure this",
            "start": 254.519,
            "duration": 3.761
        },
        {
            "text": "video is not sponsored and I don't get",
            "start": 256.44,
            "duration": 3.56
        },
        {
            "text": "paid if you don't survive the trial so",
            "start": 258.28,
            "duration": 3.799
        },
        {
            "text": "come with me if you want to not die this",
            "start": 260.0,
            "duration": 3.479
        },
        {
            "text": "has been the code report thanks for",
            "start": 262.079,
            "duration": 3.12
        },
        {
            "text": "watching and I will see you in the next",
            "start": 263.479,
            "duration": 4.16
        },
        {
            "text": "one",
            "start": 265.199,
            "duration": 2.44
        }
    ],
    "stats": {
        "viewCount": "1045395",
        "likeCount": "49898",
        "favoriteCount": "0",
        "commentCount": "3667"
    }
}