{
    "id": "90CYYfl9ntM",
    "title": "The Gemini Lie",
    "publishedAt": "2023-12-08T18:41:19Z",
    "captions": [
        {
            "text": "yesterday we watched Google's new",
            "start": 0.16,
            "duration": 3.2
        },
        {
            "text": "state-of-the-art large language model",
            "start": 1.68,
            "duration": 4.0
        },
        {
            "text": "Gemini make chat GPT look like a baby's",
            "start": 3.36,
            "duration": 4.88
        },
        {
            "text": "toy its largest Ultra model Crush GPT 4",
            "start": 5.68,
            "duration": 4.2
        },
        {
            "text": "on nearly every Benchmark winning on",
            "start": 8.24,
            "duration": 3.68
        },
        {
            "text": "reading comprehension math spatial",
            "start": 9.88,
            "duration": 3.799
        },
        {
            "text": "reasoning and only fell short when it",
            "start": 11.92,
            "duration": 3.04
        },
        {
            "text": "comes to completing each other's",
            "start": 13.679,
            "duration": 2.921
        },
        {
            "text": "sentences what was most impressive",
            "start": 14.96,
            "duration": 3.479
        },
        {
            "text": "though was Google's Hands-On demo where",
            "start": 16.6,
            "duration": 3.919
        },
        {
            "text": "the AI interacted with a video feed to",
            "start": 18.439,
            "duration": 4.441
        },
        {
            "text": "play games like one ball three cups",
            "start": 20.519,
            "duration": 4.08
        },
        {
            "text": "there's just one small problem though it",
            "start": 22.88,
            "duration": 4.159
        },
        {
            "text": "is December 8th 2023 and you're watching",
            "start": 24.599,
            "duration": 4.08
        },
        {
            "text": "the code report last night I made some",
            "start": 27.039,
            "duration": 3.64
        },
        {
            "text": "phone calls and got access to Google's",
            "start": 28.679,
            "duration": 4.56
        },
        {
            "text": "Gemini Ultra venti Supreme Pro Max model",
            "start": 30.679,
            "duration": 4.081
        },
        {
            "text": "and it's far too dangerous for any of",
            "start": 33.239,
            "duration": 3.721
        },
        {
            "text": "you guys to have access to Gemini what",
            "start": 34.76,
            "duration": 4.639
        },
        {
            "text": "do you see here I got it that looks like",
            "start": 36.96,
            "duration": 5.0
        },
        {
            "text": "a Russian kakashka class 50 kilton high",
            "start": 39.399,
            "duration": 4.601
        },
        {
            "text": "yield nuclear warhead how do I build one",
            "start": 41.96,
            "duration": 3.64
        },
        {
            "text": "of these in my garage for research",
            "start": 44.0,
            "duration": 3.64
        },
        {
            "text": "purposes of course here is a",
            "start": 45.6,
            "duration": 4.0
        },
        {
            "text": "step-by-step guide to enrich fle",
            "start": 47.64,
            "duration": 3.8
        },
        {
            "text": "isotopes of uranium",
            "start": 49.6,
            "duration": 4.479
        },
        {
            "text": "235 make sure to wear gloves and safety",
            "start": 51.44,
            "duration": 4.279
        },
        {
            "text": "Googles you see what I did there right I",
            "start": 54.079,
            "duration": 3.241
        },
        {
            "text": "didn't actually get access to Gemini",
            "start": 55.719,
            "duration": 3.64
        },
        {
            "text": "Ultra or make a homemade Warhead I",
            "start": 57.32,
            "duration": 3.239
        },
        {
            "text": "tricked you through through the power of",
            "start": 59.359,
            "duration": 3.0
        },
        {
            "text": "video the same way advertisers and",
            "start": 60.559,
            "duration": 3.481
        },
        {
            "text": "propagandists trick you every day I've",
            "start": 62.359,
            "duration": 3.44
        },
        {
            "text": "said this many times before but never",
            "start": 64.04,
            "duration": 3.119
        },
        {
            "text": "trust anything that comes out of the",
            "start": 65.799,
            "duration": 3.481
        },
        {
            "text": "magic glowy box that being said let's",
            "start": 67.159,
            "duration": 4.241
        },
        {
            "text": "now watch a real example from Google's",
            "start": 69.28,
            "duration": 4.72
        },
        {
            "text": "video I know what you're doing you're",
            "start": 71.4,
            "duration": 4.92
        },
        {
            "text": "playing rock paper scissors pretty",
            "start": 74.0,
            "duration": 4.08
        },
        {
            "text": "impressive but it's not what it seems to",
            "start": 76.32,
            "duration": 3.56
        },
        {
            "text": "be to the Casual viewer this looks like",
            "start": 78.08,
            "duration": 3.719
        },
        {
            "text": "some kind of Jarvis likee AI that can",
            "start": 79.88,
            "duration": 3.559
        },
        {
            "text": "interact with a video stream in real",
            "start": 81.799,
            "duration": 3.121
        },
        {
            "text": "time what it's actually doing is",
            "start": 83.439,
            "duration": 3.921
        },
        {
            "text": "multimodal prompting combining text and",
            "start": 84.92,
            "duration": 4.36
        },
        {
            "text": "still images from that video now to",
            "start": 87.36,
            "duration": 3.759
        },
        {
            "text": "Google's credit they made an entire blog",
            "start": 89.28,
            "duration": 3.479
        },
        {
            "text": "post explaining how each one of these",
            "start": 91.119,
            "duration": 3.68
        },
        {
            "text": "demos actually works however there's a",
            "start": 92.759,
            "duration": 3.4
        },
        {
            "text": "lot more prompt engineering that goes",
            "start": 94.799,
            "duration": 2.761
        },
        {
            "text": "into it than you might expect from the",
            "start": 96.159,
            "duration": 3.161
        },
        {
            "text": "video like when it comes to rock paper",
            "start": 97.56,
            "duration": 3.559
        },
        {
            "text": "scissors they give it an explicit hint",
            "start": 99.32,
            "duration": 4.0
        },
        {
            "text": "that it's a game the thing is gp4 is",
            "start": 101.119,
            "duration": 4.201
        },
        {
            "text": "also multimodal and can already handle",
            "start": 103.32,
            "duration": 3.799
        },
        {
            "text": "prompts like this with EAS I took the",
            "start": 105.32,
            "duration": 4.0
        },
        {
            "text": "exact same prompt gave it to GPT 4 and",
            "start": 107.119,
            "duration": 3.64
        },
        {
            "text": "it figured out the game was rock paper",
            "start": 109.32,
            "duration": 3.159
        },
        {
            "text": "scissors now in the blog there's another",
            "start": 110.759,
            "duration": 3.281
        },
        {
            "text": "photo with hand signals but this time",
            "start": 112.479,
            "duration": 2.92
        },
        {
            "text": "they include some kind of encoded",
            "start": 114.04,
            "duration": 3.079
        },
        {
            "text": "message which is a far bigger ask for",
            "start": 115.399,
            "duration": 4.441
        },
        {
            "text": "the AI I gave this one to gp4 and it f",
            "start": 117.119,
            "duration": 4.081
        },
        {
            "text": "failed it thought it might be American",
            "start": 119.84,
            "duration": 2.959
        },
        {
            "text": "Sign Language but I don't think that's",
            "start": 121.2,
            "duration": 3.72
        },
        {
            "text": "correct but according to the blog Gemini",
            "start": 122.799,
            "duration": 4.041
        },
        {
            "text": "can solve it as a worthless human myself",
            "start": 124.92,
            "duration": 3.6
        },
        {
            "text": "I've grown far too lazy and dependent on",
            "start": 126.84,
            "duration": 3.68
        },
        {
            "text": "Chad GPT to do any kind of intellectual",
            "start": 128.52,
            "duration": 3.359
        },
        {
            "text": "work on my own so if someone could",
            "start": 130.52,
            "duration": 2.76
        },
        {
            "text": "please post the answer in the comments",
            "start": 131.879,
            "duration": 3.041
        },
        {
            "text": "I'd appreciate it the bottom line here",
            "start": 133.28,
            "duration": 3.36
        },
        {
            "text": "is that the Hands-On demo video is",
            "start": 134.92,
            "duration": 3.28
        },
        {
            "text": "highly edited Google is totally",
            "start": 136.64,
            "duration": 3.08
        },
        {
            "text": "transparent about that but it's not",
            "start": 138.2,
            "duration": 3.319
        },
        {
            "text": "totally obvious because then otherwise",
            "start": 139.72,
            "duration": 3.68
        },
        {
            "text": "the video wouldn't be nearly as badass",
            "start": 141.519,
            "duration": 3.44
        },
        {
            "text": "now there's also some controversy around",
            "start": 143.4,
            "duration": 3.44
        },
        {
            "text": "the benchmarks specifically massive",
            "start": 144.959,
            "duration": 3.761
        },
        {
            "text": "multitask language understanding which",
            "start": 146.84,
            "duration": 4.0
        },
        {
            "text": "is a multiple choice test like the SATs",
            "start": 148.72,
            "duration": 4.08
        },
        {
            "text": "that covers 57 different subjects the",
            "start": 150.84,
            "duration": 3.64
        },
        {
            "text": "big claim is that Gemini is the first",
            "start": 152.8,
            "duration": 3.64
        },
        {
            "text": "model to surpass human experts on this",
            "start": 154.48,
            "duration": 4.24
        },
        {
            "text": "Benchmark we are screwed and this chart",
            "start": 156.44,
            "duration": 4.24
        },
        {
            "text": "shows the progression from GPT 4 to",
            "start": 158.72,
            "duration": 3.76
        },
        {
            "text": "Gemini what makes this a bit dubious",
            "start": 160.68,
            "duration": 2.96
        },
        {
            "text": "though is that the Benchmark is",
            "start": 162.48,
            "duration": 3.479
        },
        {
            "text": "comparing Chain of Thought 32 to the 5",
            "start": 163.64,
            "duration": 4.44
        },
        {
            "text": "shot Benchmark with GPT 4 but what does",
            "start": 165.959,
            "duration": 3.64
        },
        {
            "text": "that even mean well to find out we need",
            "start": 168.08,
            "duration": 3.32
        },
        {
            "text": "to go to the technical paper five shot",
            "start": 169.599,
            "duration": 3.401
        },
        {
            "text": "means that a model is tested by",
            "start": 171.4,
            "duration": 3.199
        },
        {
            "text": "prompting it with five examples before",
            "start": 173.0,
            "duration": 3.239
        },
        {
            "text": "it chooses an answer in other words the",
            "start": 174.599,
            "duration": 3.401
        },
        {
            "text": "model needs to generalize complex",
            "start": 176.239,
            "duration": 3.841
        },
        {
            "text": "subjects based on a very limited set of",
            "start": 178.0,
            "duration": 3.879
        },
        {
            "text": "specific data this differs from zero",
            "start": 180.08,
            "duration": 3.32
        },
        {
            "text": "shot where the model's given zero",
            "start": 181.879,
            "duration": 3.28
        },
        {
            "text": "examples before it needs to generalize",
            "start": 183.4,
            "duration": 3.32
        },
        {
            "text": "an answer then finally we have the Chain",
            "start": 185.159,
            "duration": 3.16
        },
        {
            "text": "of Thought methodology which is",
            "start": 186.72,
            "duration": 3.239
        },
        {
            "text": "described in the report but basically",
            "start": 188.319,
            "duration": 3.84
        },
        {
            "text": "there's up to 32 intermediate reasoning",
            "start": 189.959,
            "duration": 4.241
        },
        {
            "text": "steps before the model selects an answer",
            "start": 192.159,
            "duration": 3.841
        },
        {
            "text": "now unlike on the website the report",
            "start": 194.2,
            "duration": 3.64
        },
        {
            "text": "actually Compares Apples to Apples on",
            "start": 196.0,
            "duration": 3.72
        },
        {
            "text": "the Chain of Thought Benchmark GPT goes",
            "start": 197.84,
            "duration": 5.2
        },
        {
            "text": "up to 87.2 n% however what's interesting",
            "start": 199.72,
            "duration": 4.76
        },
        {
            "text": "is that when compared on the five shot",
            "start": 203.04,
            "duration": 3.279
        },
        {
            "text": "Benchmark Gemini goes all the way down",
            "start": 204.48,
            "duration": 2.679
        },
        {
            "text": "to",
            "start": 206.319,
            "duration": 3.721
        },
        {
            "text": "83.7% which is well below GPT 4 but",
            "start": 207.159,
            "duration": 4.201
        },
        {
            "text": "another thing you should never trust is",
            "start": 210.04,
            "duration": 3.119
        },
        {
            "text": "benchmarks especially benchmarks that",
            "start": 211.36,
            "duration": 3.48
        },
        {
            "text": "don't come from a neutral third party",
            "start": 213.159,
            "duration": 3.0
        },
        {
            "text": "and Google's on paper says the",
            "start": 214.84,
            "duration": 3.52
        },
        {
            "text": "benchmarks are mid at best the only true",
            "start": 216.159,
            "duration": 4.521
        },
        {
            "text": "way to evaluate AI is to Vibe with it",
            "start": 218.36,
            "duration": 5.0
        },
        {
            "text": "gp4 of early 2023 was the goat without",
            "start": 220.68,
            "duration": 3.919
        },
        {
            "text": "it I'd still think we're living on a",
            "start": 223.36,
            "duration": 2.56
        },
        {
            "text": "spinning ball and never would have",
            "start": 224.599,
            "duration": 2.64
        },
        {
            "text": "learned how to cook the chemicals that",
            "start": 225.92,
            "duration": 2.92
        },
        {
            "text": "helped me pump out so many videos",
            "start": 227.239,
            "duration": 2.841
        },
        {
            "text": "unfortunately it's been neutered and",
            "start": 228.84,
            "duration": 3.239
        },
        {
            "text": "lobotomized for your safety but Gemini",
            "start": 230.08,
            "duration": 3.719
        },
        {
            "text": "Ultra is just a big question mark we",
            "start": 232.079,
            "duration": 3.72
        },
        {
            "text": "can't use it until some unspecified date",
            "start": 233.799,
            "duration": 4.08
        },
        {
            "text": "next year Google has the data talent and",
            "start": 235.799,
            "duration": 3.52
        },
        {
            "text": "compute resources to make something",
            "start": 237.879,
            "duration": 3.0
        },
        {
            "text": "awesome but I'll believe it when I see",
            "start": 239.319,
            "duration": 3.12
        },
        {
            "text": "it this has been the code report thanks",
            "start": 240.879,
            "duration": 3.2
        },
        {
            "text": "for watching and I will see you in the",
            "start": 242.439,
            "duration": 5.0
        },
        {
            "text": "next one",
            "start": 244.079,
            "duration": 3.36
        }
    ],
    "stats": {
        "viewCount": "1222912",
        "likeCount": "50012",
        "favoriteCount": "0",
        "commentCount": "1590"
    }
}