{
    "id": "_k-F-MMvQV4",
    "title": "10 Programmer Stereotypes",
    "publishedAt": "2022-05-20T15:22:05Z",
    "captions": [
        {
            "text": "the programmer an offshoot of the great",
            "start": 0.24,
            "duration": 4.0
        },
        {
            "text": "ape family closely related to chimps and",
            "start": 2.159,
            "duration": 4.001
        },
        {
            "text": "gorillas distinguished by its minimal",
            "start": 4.24,
            "duration": 3.92
        },
        {
            "text": "bipedal movement and ability to stare at",
            "start": 6.16,
            "duration": 3.6
        },
        {
            "text": "a computer screen for the majority of",
            "start": 8.16,
            "duration": 3.439
        },
        {
            "text": "its lifetime there's an estimated 30",
            "start": 9.76,
            "duration": 3.6
        },
        {
            "text": "million specimens alive in the world",
            "start": 11.599,
            "duration": 4.0
        },
        {
            "text": "today normal humans use stereotypes to",
            "start": 13.36,
            "duration": 4.24
        },
        {
            "text": "help understand and generalize this",
            "start": 15.599,
            "duration": 3.921
        },
        {
            "text": "unusual variant which experts estimate",
            "start": 17.6,
            "duration": 4.72
        },
        {
            "text": "are about 99 accurate about 12 of the",
            "start": 19.52,
            "duration": 4.48
        },
        {
            "text": "time in today's video we'll take a look",
            "start": 22.32,
            "duration": 3.6
        },
        {
            "text": "at 10 different programmer stereotypes",
            "start": 24.0,
            "duration": 3.68
        },
        {
            "text": "to find out which one you fall into",
            "start": 25.92,
            "duration": 3.599
        },
        {
            "text": "first up we have the gear head this",
            "start": 27.68,
            "duration": 3.599
        },
        {
            "text": "variant owns the bleeding edge version",
            "start": 29.519,
            "duration": 3.761
        },
        {
            "text": "of everything like the latest m1 mac a",
            "start": 31.279,
            "duration": 3.841
        },
        {
            "text": "big ass curved monitor mechanical",
            "start": 33.28,
            "duration": 3.6
        },
        {
            "text": "keyboard tesla in the garage ai",
            "start": 35.12,
            "duration": 3.36
        },
        {
            "text": "generated synthetic meat in the fridge",
            "start": 36.88,
            "duration": 3.28
        },
        {
            "text": "and a smart lock on the house to keep it",
            "start": 38.48,
            "duration": 3.2
        },
        {
            "text": "all safe when programming he goes",
            "start": 40.16,
            "duration": 3.52
        },
        {
            "text": "wherever the hype train takes him in 96",
            "start": 41.68,
            "duration": 4.96
        },
        {
            "text": "it was java in o6 it was jquery in 2016",
            "start": 43.68,
            "duration": 5.039
        },
        {
            "text": "it was graphql and in 2026 he'll be",
            "start": 46.64,
            "duration": 3.599
        },
        {
            "text": "first in line at neural link to get a",
            "start": 48.719,
            "duration": 3.041
        },
        {
            "text": "chip that can help him write blazingly",
            "start": 50.239,
            "duration": 2.881
        },
        {
            "text": "fast code it doesn't matter what the",
            "start": 51.76,
            "duration": 3.439
        },
        {
            "text": "tech does if it's trendy it belongs in",
            "start": 53.12,
            "duration": 3.919
        },
        {
            "text": "the stack this stereotype may be true",
            "start": 55.199,
            "duration": 3.601
        },
        {
            "text": "sometimes but programming can actually",
            "start": 57.039,
            "duration": 3.281
        },
        {
            "text": "push many people in the opposite",
            "start": 58.8,
            "duration": 3.36
        },
        {
            "text": "direction the guy who works in tech but",
            "start": 60.32,
            "duration": 4.0
        },
        {
            "text": "hates text stereotype knows exactly how",
            "start": 62.16,
            "duration": 4.24
        },
        {
            "text": "unreliable and dangerous code can be",
            "start": 64.32,
            "duration": 3.92
        },
        {
            "text": "like that the rac25 incident where a",
            "start": 66.4,
            "duration": 3.52
        },
        {
            "text": "little software bug accidentally killed",
            "start": 68.24,
            "duration": 3.12
        },
        {
            "text": "some people by giving them a massive",
            "start": 69.92,
            "duration": 3.199
        },
        {
            "text": "overdose of radiation this guy would",
            "start": 71.36,
            "duration": 3.439
        },
        {
            "text": "never buy a car that can be remotely",
            "start": 73.119,
            "duration": 3.281
        },
        {
            "text": "summoned back to elon when you stop",
            "start": 74.799,
            "duration": 3.041
        },
        {
            "text": "paying the bill and he would definitely",
            "start": 76.4,
            "duration": 2.96
        },
        {
            "text": "never put a smart lock on his house",
            "start": 77.84,
            "duration": 3.52
        },
        {
            "text": "because the nsa probably has backdoor",
            "start": 79.36,
            "duration": 3.68
        },
        {
            "text": "access or at the very least there's an",
            "start": 81.36,
            "duration": 3.439
        },
        {
            "text": "undiscovered exploit in its code if you",
            "start": 83.04,
            "duration": 3.36
        },
        {
            "text": "broke into his farmhouse you'd find a",
            "start": 84.799,
            "duration": 3.441
        },
        {
            "text": "single monitor linux machine a flip",
            "start": 86.4,
            "duration": 3.759
        },
        {
            "text": "phone some gold bullion and a shotgun",
            "start": 88.24,
            "duration": 3.68
        },
        {
            "text": "barrel pointed in your face",
            "start": 90.159,
            "duration": 3.6
        },
        {
            "text": "the most stereotypical programmer though",
            "start": 91.92,
            "duration": 3.76
        },
        {
            "text": "has to be the introvert he's a savant",
            "start": 93.759,
            "duration": 3.601
        },
        {
            "text": "who still sleeps in a car bed and his",
            "start": 95.68,
            "duration": 3.52
        },
        {
            "text": "vision of the ideal lifestyle is what",
            "start": 97.36,
            "duration": 3.52
        },
        {
            "text": "the rest of society calls quarantine",
            "start": 99.2,
            "duration": 3.44
        },
        {
            "text": "he's super good at math and can actually",
            "start": 100.88,
            "duration": 3.36
        },
        {
            "text": "program stuff without using google and",
            "start": 102.64,
            "duration": 3.2
        },
        {
            "text": "stack overflow but couldn't hold a",
            "start": 104.24,
            "duration": 3.68
        },
        {
            "text": "conversation to save his life extroverts",
            "start": 105.84,
            "duration": 4.4
        },
        {
            "text": "like jobs use these nerds like woz to",
            "start": 107.92,
            "duration": 4.239
        },
        {
            "text": "get super rich this stereotype used to",
            "start": 110.24,
            "duration": 3.919
        },
        {
            "text": "be 100 true back when programming was",
            "start": 112.159,
            "duration": 4.721
        },
        {
            "text": "hard like pre-1990s but as programming",
            "start": 114.159,
            "duration": 4.64
        },
        {
            "text": "has become more mainstream it's led to a",
            "start": 116.88,
            "duration": 4.32
        },
        {
            "text": "new paradigm the programmer this guy got",
            "start": 118.799,
            "duration": 4.081
        },
        {
            "text": "a computer science degree while mostly",
            "start": 121.2,
            "duration": 3.68
        },
        {
            "text": "partying with his frat in college",
            "start": 122.88,
            "duration": 3.839
        },
        {
            "text": "his name is usually chad and he has more",
            "start": 124.88,
            "duration": 3.68
        },
        {
            "text": "mating opportunities than the introvert",
            "start": 126.719,
            "duration": 3.6
        },
        {
            "text": "but it comes at a cost of reduced code",
            "start": 128.56,
            "duration": 3.759
        },
        {
            "text": "quality which he refuses to test because",
            "start": 130.319,
            "duration": 4.0
        },
        {
            "text": "test driven development is for losers",
            "start": 132.319,
            "duration": 3.761
        },
        {
            "text": "nah bro however he has better",
            "start": 134.319,
            "duration": 3.361
        },
        {
            "text": "communication skills than the introverts",
            "start": 136.08,
            "duration": 3.04
        },
        {
            "text": "which is annoying because i wish this",
            "start": 137.68,
            "duration": 3.04
        },
        {
            "text": "guy would stop talking to me eventually",
            "start": 139.12,
            "duration": 3.199
        },
        {
            "text": "he evolves into your manager where he",
            "start": 140.72,
            "duration": 3.2
        },
        {
            "text": "can torment you with code reviews and",
            "start": 142.319,
            "duration": 3.521
        },
        {
            "text": "team building exercises now so far in",
            "start": 143.92,
            "duration": 3.28
        },
        {
            "text": "this video i've been using a lot of",
            "start": 145.84,
            "duration": 3.68
        },
        {
            "text": "masculine pronouns that's because 95 of",
            "start": 147.2,
            "duration": 3.92
        },
        {
            "text": "my audience is male which is actually",
            "start": 149.52,
            "duration": 2.719
        },
        {
            "text": "pretty close to the real world",
            "start": 151.12,
            "duration": 2.72
        },
        {
            "text": "distribution today what you may not",
            "start": 152.239,
            "duration": 3.28
        },
        {
            "text": "realize though is that back in the day",
            "start": 153.84,
            "duration": 3.44
        },
        {
            "text": "women used to dominate the programming",
            "start": 155.519,
            "duration": 3.521
        },
        {
            "text": "space kathleen booth created the first",
            "start": 157.28,
            "duration": 3.44
        },
        {
            "text": "assembly language grace hopper created",
            "start": 159.04,
            "duration": 3.52
        },
        {
            "text": "the first compiler and margaret hamilton",
            "start": 160.72,
            "duration": 3.36
        },
        {
            "text": "led the team who wrote the code for the",
            "start": 162.56,
            "duration": 3.12
        },
        {
            "text": "apollo moonlander code that was so",
            "start": 164.08,
            "duration": 3.439
        },
        {
            "text": "flawless and perfectly executed that",
            "start": 165.68,
            "duration": 3.279
        },
        {
            "text": "some people think it's proof we didn't",
            "start": 167.519,
            "duration": 2.881
        },
        {
            "text": "actually go to the moon that was the",
            "start": 168.959,
            "duration": 3.28
        },
        {
            "text": "apex of code quality since that time",
            "start": 170.4,
            "duration": 3.28
        },
        {
            "text": "everything's gone downhill the next",
            "start": 172.239,
            "duration": 3.601
        },
        {
            "text": "specimen we'll look at is the influencer",
            "start": 173.68,
            "duration": 4.16
        },
        {
            "text": "or code fluencer his natural habitat is",
            "start": 175.84,
            "duration": 3.84
        },
        {
            "text": "not a code editor but rather a social",
            "start": 177.84,
            "duration": 3.759
        },
        {
            "text": "media platform most commonly twitter",
            "start": 179.68,
            "duration": 3.6
        },
        {
            "text": "after figuring out how to print hello",
            "start": 181.599,
            "duration": 3.761
        },
        {
            "text": "world in php he immediately rose to the",
            "start": 183.28,
            "duration": 3.84
        },
        {
            "text": "top of the dominance hierarchy in his",
            "start": 185.36,
            "duration": 3.519
        },
        {
            "text": "own mind now he makes the world a better",
            "start": 187.12,
            "duration": 3.92
        },
        {
            "text": "place by regurgitating code tips and hot",
            "start": 188.879,
            "duration": 3.841
        },
        {
            "text": "takes all day long and he just landed a",
            "start": 191.04,
            "duration": 3.119
        },
        {
            "text": "better paying job than you because he",
            "start": 192.72,
            "duration": 3.12
        },
        {
            "text": "mastered the art of virtue signaling and",
            "start": 194.159,
            "duration": 3.281
        },
        {
            "text": "that's what we call a good culture fit",
            "start": 195.84,
            "duration": 3.92
        },
        {
            "text": "another popular stereotype is the hacker",
            "start": 197.44,
            "duration": 4.24
        },
        {
            "text": "this guy's able to open up a terminal",
            "start": 199.76,
            "duration": 3.759
        },
        {
            "text": "connect to some remote mainframe and",
            "start": 201.68,
            "duration": 3.44
        },
        {
            "text": "break all of its security protocols one",
            "start": 203.519,
            "duration": 3.681
        },
        {
            "text": "by one with awesome fancy animations",
            "start": 205.12,
            "duration": 3.92
        },
        {
            "text": "between each step this stereotype is",
            "start": 207.2,
            "duration": 3.52
        },
        {
            "text": "what most people think programmers do",
            "start": 209.04,
            "duration": 4.08
        },
        {
            "text": "but is 100 manufactured by hollywood",
            "start": 210.72,
            "duration": 4.079
        },
        {
            "text": "real hacking is extremely tedious and",
            "start": 213.12,
            "duration": 3.199
        },
        {
            "text": "boring and is done primarily by the",
            "start": 214.799,
            "duration": 3.281
        },
        {
            "text": "people who have all the guns now a",
            "start": 216.319,
            "duration": 3.761
        },
        {
            "text": "stereotype that is actually real is the",
            "start": 218.08,
            "duration": 4.159
        },
        {
            "text": "10x developer this guy is an extremely",
            "start": 220.08,
            "duration": 4.159
        },
        {
            "text": "rare unicorn that can do the work of 10",
            "start": 222.239,
            "duration": 3.761
        },
        {
            "text": "other developers combined some say",
            "start": 224.239,
            "duration": 3.521
        },
        {
            "text": "they're a myth but i've seen developers",
            "start": 226.0,
            "duration": 3.599
        },
        {
            "text": "first hand who write code like durant",
            "start": 227.76,
            "duration": 4.32
        },
        {
            "text": "plays basketball or kasparov plays chess",
            "start": 229.599,
            "duration": 3.761
        },
        {
            "text": "there are people out there with a",
            "start": 232.08,
            "duration": 2.96
        },
        {
            "text": "natural problem-solving ability that",
            "start": 233.36,
            "duration": 3.2
        },
        {
            "text": "just goes far beyond the rest of the",
            "start": 235.04,
            "duration": 3.279
        },
        {
            "text": "population you'll know a 10x developer",
            "start": 236.56,
            "duration": 2.959
        },
        {
            "text": "when you see one because you'll feel",
            "start": 238.319,
            "duration": 3.441
        },
        {
            "text": "very incompetent and also very jealous",
            "start": 239.519,
            "duration": 4.0
        },
        {
            "text": "now i think the ideal stereotype for",
            "start": 241.76,
            "duration": 3.679
        },
        {
            "text": "most of us to fall into is the lazy",
            "start": 243.519,
            "duration": 3.521
        },
        {
            "text": "programmer to the outside world it",
            "start": 245.439,
            "duration": 3.281
        },
        {
            "text": "doesn't look like this guy does much he",
            "start": 247.04,
            "duration": 3.04
        },
        {
            "text": "sits at a computer all day hitting the",
            "start": 248.72,
            "duration": 3.04
        },
        {
            "text": "keyboard and if you glance at a screen",
            "start": 250.08,
            "duration": 2.96
        },
        {
            "text": "it looks like he's just copying and",
            "start": 251.76,
            "duration": 2.72
        },
        {
            "text": "pasting things from the internet what",
            "start": 253.04,
            "duration": 2.96
        },
        {
            "text": "he's actually doing though is building a",
            "start": 254.48,
            "duration": 3.039
        },
        {
            "text": "million dollar side hustle so he can",
            "start": 256.0,
            "duration": 3.6
        },
        {
            "text": "retire in his 30s he also has a remote",
            "start": 257.519,
            "duration": 4.481
        },
        {
            "text": "job with a 400k salary but he eats ramen",
            "start": 259.6,
            "duration": 3.84
        },
        {
            "text": "for dinner while sharing a crappy",
            "start": 262.0,
            "duration": 2.96
        },
        {
            "text": "apartment with four other dudes his",
            "start": 263.44,
            "duration": 3.68
        },
        {
            "text": "wardrobe is 50 swag from tech",
            "start": 264.96,
            "duration": 4.4
        },
        {
            "text": "conferences and 50 thinks his mom bought",
            "start": 267.12,
            "duration": 4.16
        },
        {
            "text": "him he leverages code to work smarter",
            "start": 269.36,
            "duration": 3.76
        },
        {
            "text": "and not harder now on the other end of",
            "start": 271.28,
            "duration": 3.919
        },
        {
            "text": "the spectrum we have the old jaded guy",
            "start": 273.12,
            "duration": 4.079
        },
        {
            "text": "he has long silver hair and a big white",
            "start": 275.199,
            "duration": 4.641
        },
        {
            "text": "beard he only codes in c not c plus plus",
            "start": 277.199,
            "duration": 4.081
        },
        {
            "text": "and definitely not any of the hipster",
            "start": 279.84,
            "duration": 3.2
        },
        {
            "text": "garbage that you're using in fact he",
            "start": 281.28,
            "duration": 3.199
        },
        {
            "text": "probably wrote the compiler for the",
            "start": 283.04,
            "duration": 2.96
        },
        {
            "text": "silly toy language that you're trying to",
            "start": 284.479,
            "duration": 3.28
        },
        {
            "text": "learn his depth of knowledge transcends",
            "start": 286.0,
            "duration": 3.52
        },
        {
            "text": "the normal apes idea of reality when he",
            "start": 287.759,
            "duration": 3.121
        },
        {
            "text": "discovered through psychedelics that",
            "start": 289.52,
            "duration": 3.119
        },
        {
            "text": "we're all just one entity that found a",
            "start": 290.88,
            "duration": 3.28
        },
        {
            "text": "hack in the universe to experience",
            "start": 292.639,
            "duration": 3.361
        },
        {
            "text": "itself in parallel with primate bodies",
            "start": 294.16,
            "duration": 3.12
        },
        {
            "text": "and computers are the tool that will",
            "start": 296.0,
            "duration": 2.96
        },
        {
            "text": "ultimately make us one again and that",
            "start": 297.28,
            "duration": 3.68
        },
        {
            "text": "concludes our presentation on programmer",
            "start": 298.96,
            "duration": 3.519
        },
        {
            "text": "stereotypes let me know which one you",
            "start": 300.96,
            "duration": 3.28
        },
        {
            "text": "fall into in the comments below thanks",
            "start": 302.479,
            "duration": 3.521
        },
        {
            "text": "for watching and i will see you in the",
            "start": 304.24,
            "duration": 5.0
        },
        {
            "text": "next one",
            "start": 306.0,
            "duration": 3.24
        }
    ],
    "stats": {
        "viewCount": "3094053",
        "likeCount": "138529",
        "favoriteCount": "0",
        "commentCount": "6583"
    }
}