{
    "id": "alJdw4JDJ4o",
    "title": "DALL-E is coming... World-changing AI image generator",
    "publishedAt": "2022-04-07T16:33:16Z",
    "captions": [
        {
            "text": "it is april 7th 2022 and you're watching",
            "start": 1.52,
            "duration": 4.799
        },
        {
            "text": "the code report machine intelligence is",
            "start": 4.24,
            "duration": 3.92
        },
        {
            "text": "the last invention humanity will ever",
            "start": 6.319,
            "duration": 3.921
        },
        {
            "text": "need to make ai has already made many",
            "start": 8.16,
            "duration": 4.16
        },
        {
            "text": "jobs obsolete and is well on its way to",
            "start": 10.24,
            "duration": 4.64
        },
        {
            "text": "replacing pilots doctors soldiers and of",
            "start": 12.32,
            "duration": 4.32
        },
        {
            "text": "course us programmers one of the last",
            "start": 14.88,
            "duration": 4.239
        },
        {
            "text": "bastions of humanity is art or so we",
            "start": 16.64,
            "duration": 4.24
        },
        {
            "text": "thought as of yesterday digital artists",
            "start": 19.119,
            "duration": 3.601
        },
        {
            "text": "and designers have been put on notice",
            "start": 20.88,
            "duration": 4.479
        },
        {
            "text": "openai the team behind gpt-3 just",
            "start": 22.72,
            "duration": 4.799
        },
        {
            "text": "announced daley to a neural network that",
            "start": 25.359,
            "duration": 4.32
        },
        {
            "text": "can turn natural language into images",
            "start": 27.519,
            "duration": 3.84
        },
        {
            "text": "and it's some of the wildest technology",
            "start": 29.679,
            "duration": 3.281
        },
        {
            "text": "you've ever seen imagine i gave you a",
            "start": 31.359,
            "duration": 3.761
        },
        {
            "text": "requirement to draw something ridiculous",
            "start": 32.96,
            "duration": 3.92
        },
        {
            "text": "like a bowl of soup that looks like a",
            "start": 35.12,
            "duration": 4.16
        },
        {
            "text": "monster spray painted on a wall daley",
            "start": 36.88,
            "duration": 4.48
        },
        {
            "text": "can create realistic novel images that",
            "start": 39.28,
            "duration": 3.52
        },
        {
            "text": "have never been seen before from a",
            "start": 41.36,
            "duration": 3.199
        },
        {
            "text": "simple text prompt like that if we tweak",
            "start": 42.8,
            "duration": 3.36
        },
        {
            "text": "the request a little bit asking it to",
            "start": 44.559,
            "duration": 3.361
        },
        {
            "text": "look like plasticine we get totally",
            "start": 46.16,
            "duration": 3.36
        },
        {
            "text": "different results we can ask it for",
            "start": 47.92,
            "duration": 3.44
        },
        {
            "text": "pencil drawings styles inspired by",
            "start": 49.52,
            "duration": 4.16
        },
        {
            "text": "famous artists photorealistic renderings",
            "start": 51.36,
            "duration": 3.839
        },
        {
            "text": "and really anything you can imagine",
            "start": 53.68,
            "duration": 3.84
        },
        {
            "text": "because the ai is built on top of 40 000",
            "start": 55.199,
            "duration": 4.16
        },
        {
            "text": "years of human artwork going all the way",
            "start": 57.52,
            "duration": 3.6
        },
        {
            "text": "back to cave drawings this tool is not",
            "start": 59.359,
            "duration": 3.761
        },
        {
            "text": "open to the public yet but the open ai",
            "start": 61.12,
            "duration": 4.16
        },
        {
            "text": "team was nice enough to generate a ship",
            "start": 63.12,
            "duration": 4.319
        },
        {
            "text": "sailing through a sea of fire for me in",
            "start": 65.28,
            "duration": 4.08
        },
        {
            "text": "addition to unique image generation it",
            "start": 67.439,
            "duration": 3.68
        },
        {
            "text": "can also replace things in existing",
            "start": 69.36,
            "duration": 3.6
        },
        {
            "text": "images like when you need to insert your",
            "start": 71.119,
            "duration": 3.921
        },
        {
            "text": "ex-girlfriend into an instagram photo it",
            "start": 72.96,
            "duration": 4.159
        },
        {
            "text": "can also take an image as an input then",
            "start": 75.04,
            "duration": 3.92
        },
        {
            "text": "create a bunch of different variations",
            "start": 77.119,
            "duration": 3.761
        },
        {
            "text": "with different styles and angles pretty",
            "start": 78.96,
            "duration": 3.76
        },
        {
            "text": "terrifying i mean awesome but how does",
            "start": 80.88,
            "duration": 3.52
        },
        {
            "text": "this thing actually work well it's based",
            "start": 82.72,
            "duration": 4.0
        },
        {
            "text": "on gpt3 the same model that powers",
            "start": 84.4,
            "duration": 4.32
        },
        {
            "text": "things like github copilot for writing",
            "start": 86.72,
            "duration": 3.52
        },
        {
            "text": "code it's trained on a massive",
            "start": 88.72,
            "duration": 3.52
        },
        {
            "text": "collection of images with labeled text",
            "start": 90.24,
            "duration": 3.76
        },
        {
            "text": "descriptions most importantly it",
            "start": 92.24,
            "duration": 3.6
        },
        {
            "text": "understands how different objects in an",
            "start": 94.0,
            "duration": 3.439
        },
        {
            "text": "image relate to each other like how a",
            "start": 95.84,
            "duration": 3.76
        },
        {
            "text": "panda relates to a skateboard relates to",
            "start": 97.439,
            "duration": 4.0
        },
        {
            "text": "santa monica there's a paper titled",
            "start": 99.6,
            "duration": 3.519
        },
        {
            "text": "hierarchical text conditional image",
            "start": 101.439,
            "duration": 3.521
        },
        {
            "text": "generation with clip latency if you want",
            "start": 103.119,
            "duration": 3.521
        },
        {
            "text": "to get into the finer details but",
            "start": 104.96,
            "duration": 4.24
        },
        {
            "text": "basically it's a decoder or transformer",
            "start": 106.64,
            "duration": 4.799
        },
        {
            "text": "that uses a process called diffusion",
            "start": 109.2,
            "duration": 4.0
        },
        {
            "text": "which starts with a pattern of random",
            "start": 111.439,
            "duration": 3.761
        },
        {
            "text": "pixels that are gradually moved around",
            "start": 113.2,
            "duration": 3.919
        },
        {
            "text": "until they satisfy the text input to",
            "start": 115.2,
            "duration": 3.919
        },
        {
            "text": "make high quality images it generates",
            "start": 117.119,
            "duration": 4.481
        },
        {
            "text": "512 different possible outcomes then",
            "start": 119.119,
            "duration": 4.241
        },
        {
            "text": "uses a neural network called clip to",
            "start": 121.6,
            "duration": 3.76
        },
        {
            "text": "predict human aesthetic judgments by",
            "start": 123.36,
            "duration": 3.6
        },
        {
            "text": "ranking the results and rejecting the",
            "start": 125.36,
            "duration": 3.36
        },
        {
            "text": "ones that don't look good pretty amazing",
            "start": 126.96,
            "duration": 3.519
        },
        {
            "text": "and it feels like one step closer to",
            "start": 128.72,
            "duration": 3.84
        },
        {
            "text": "artificial general intelligence but what",
            "start": 130.479,
            "duration": 3.601
        },
        {
            "text": "does a tool like this mean for the world",
            "start": 132.56,
            "duration": 2.96
        },
        {
            "text": "here are my initial thoughts this could",
            "start": 134.08,
            "duration": 3.28
        },
        {
            "text": "put a big dent into businesses like",
            "start": 135.52,
            "duration": 3.92
        },
        {
            "text": "istock and shutterstock if everybody can",
            "start": 137.36,
            "duration": 3.44
        },
        {
            "text": "just create their own original stock",
            "start": 139.44,
            "duration": 3.2
        },
        {
            "text": "photography photoshop as a tool might",
            "start": 140.8,
            "duration": 3.519
        },
        {
            "text": "become way less important because this",
            "start": 142.64,
            "duration": 3.599
        },
        {
            "text": "is essentially an automatic photoshop",
            "start": 144.319,
            "duration": 3.601
        },
        {
            "text": "now when it comes to nfts which are",
            "start": 146.239,
            "duration": 3.281
        },
        {
            "text": "already oversaturated someone could",
            "start": 147.92,
            "duration": 3.28
        },
        {
            "text": "instantly flood the market with tons of",
            "start": 149.52,
            "duration": 3.439
        },
        {
            "text": "unique art how about website and logo",
            "start": 151.2,
            "duration": 3.2
        },
        {
            "text": "design you can just pick your favorite",
            "start": 152.959,
            "duration": 3.521
        },
        {
            "text": "website or logo then generate a million",
            "start": 154.4,
            "duration": 3.36
        },
        {
            "text": "different unique variations",
            "start": 156.48,
            "duration": 2.72
        },
        {
            "text": "realistically though it's not going to",
            "start": 157.76,
            "duration": 3.44
        },
        {
            "text": "replace designers anytime soon in fact",
            "start": 159.2,
            "duration": 3.84
        },
        {
            "text": "it should be a very useful tool for them",
            "start": 161.2,
            "duration": 4.08
        },
        {
            "text": "like copilot is for programmers the big",
            "start": 163.04,
            "duration": 3.839
        },
        {
            "text": "question though is what does it mean for",
            "start": 165.28,
            "duration": 3.2
        },
        {
            "text": "memes i think memes will be safe for the",
            "start": 166.879,
            "duration": 3.36
        },
        {
            "text": "time being i can also imagine a lot of",
            "start": 168.48,
            "duration": 3.36
        },
        {
            "text": "potential for abuse with a tool like",
            "start": 170.239,
            "duration": 3.681
        },
        {
            "text": "this by creating explicit or offensive",
            "start": 171.84,
            "duration": 3.679
        },
        {
            "text": "content now i have to be real with you",
            "start": 173.92,
            "duration": 3.52
        },
        {
            "text": "guys this report is very troubling for",
            "start": 175.519,
            "duration": 3.681
        },
        {
            "text": "me personally because the writing is on",
            "start": 177.44,
            "duration": 3.92
        },
        {
            "text": "the wall agi is not far away now that",
            "start": 179.2,
            "duration": 4.24
        },
        {
            "text": "machines can clone voices write code and",
            "start": 181.36,
            "duration": 3.84
        },
        {
            "text": "make art it has all the skills to take",
            "start": 183.44,
            "duration": 4.159
        },
        {
            "text": "my job damn it i need your clothes your",
            "start": 185.2,
            "duration": 4.48
        },
        {
            "text": "boots and your motorcycle this has been",
            "start": 187.599,
            "duration": 3.841
        },
        {
            "text": "the code report thanks for watching and",
            "start": 189.68,
            "duration": 6.08
        },
        {
            "text": "i will see you in the next one maybe",
            "start": 191.44,
            "duration": 4.32
        }
    ],
    "stats": {
        "viewCount": "319950",
        "likeCount": "19324",
        "favoriteCount": "0",
        "commentCount": "930"
    }
}