{
    "id": "BT2Cv-Tjq7Q",
    "title": "LLVM in 100 Seconds",
    "publishedAt": "2022-05-23T15:24:23Z",
    "captions": [
        {
            "text": "llvm a toolkit used to build and",
            "start": 0.16,
            "duration": 4.639
        },
        {
            "text": "optimize compilers building a",
            "start": 3.04,
            "duration": 3.279
        },
        {
            "text": "programming language from scratch is",
            "start": 4.799,
            "duration": 3.201
        },
        {
            "text": "hard you have humans who want to write",
            "start": 6.319,
            "duration": 3.601
        },
        {
            "text": "code in a nice simple syntax than",
            "start": 8.0,
            "duration": 3.759
        },
        {
            "text": "machines that need to run it on all",
            "start": 9.92,
            "duration": 4.639
        },
        {
            "text": "sorts of architectures llvm standardizes",
            "start": 11.759,
            "duration": 4.961
        },
        {
            "text": "the extremely complex process of turning",
            "start": 14.559,
            "duration": 4.001
        },
        {
            "text": "source code into machine code it was",
            "start": 16.72,
            "duration": 4.399
        },
        {
            "text": "created in 2003 by grad student chris",
            "start": 18.56,
            "duration": 4.479
        },
        {
            "text": "lattner at the university of illinois",
            "start": 21.119,
            "duration": 3.841
        },
        {
            "text": "and today it's the magic behind clang",
            "start": 23.039,
            "duration": 4.32
        },
        {
            "text": "for c and c plus as well as languages",
            "start": 24.96,
            "duration": 5.12
        },
        {
            "text": "like rust swift julia and many others",
            "start": 27.359,
            "duration": 4.561
        },
        {
            "text": "most importantly it represents high",
            "start": 30.08,
            "duration": 4.08
        },
        {
            "text": "level source code in a language agnostic",
            "start": 31.92,
            "duration": 4.4
        },
        {
            "text": "code called intermediate representation",
            "start": 34.16,
            "duration": 4.239
        },
        {
            "text": "or ir this means vastly different",
            "start": 36.32,
            "duration": 4.399
        },
        {
            "text": "languages like cuda and ruby produce the",
            "start": 38.399,
            "duration": 4.561
        },
        {
            "text": "same ir allowing them to share tools for",
            "start": 40.719,
            "duration": 4.32
        },
        {
            "text": "analysis and optimization before they're",
            "start": 42.96,
            "duration": 4.0
        },
        {
            "text": "converted to machine code for a specific",
            "start": 45.039,
            "duration": 3.761
        },
        {
            "text": "chip architecture a compiler can be",
            "start": 46.96,
            "duration": 3.759
        },
        {
            "text": "broken down into three parts the front",
            "start": 48.8,
            "duration": 3.68
        },
        {
            "text": "end parses the source code text and",
            "start": 50.719,
            "duration": 4.0
        },
        {
            "text": "converts it into ir the middle end",
            "start": 52.48,
            "duration": 4.559
        },
        {
            "text": "analyzes and optimizes this generated",
            "start": 54.719,
            "duration": 4.32
        },
        {
            "text": "code and finally the backend converts",
            "start": 57.039,
            "duration": 4.481
        },
        {
            "text": "the ir into native machine code to build",
            "start": 59.039,
            "duration": 3.68
        },
        {
            "text": "your own programming language from",
            "start": 61.52,
            "duration": 3.52
        },
        {
            "text": "scratch right now install llvm then",
            "start": 62.719,
            "duration": 3.521
        },
        {
            "text": "create a c",
            "start": 65.04,
            "duration": 2.72
        },
        {
            "text": "file now envision the programming",
            "start": 66.24,
            "duration": 3.36
        },
        {
            "text": "language syntax of your dreams to make",
            "start": 67.76,
            "duration": 3.44
        },
        {
            "text": "that high level code work you'll first",
            "start": 69.6,
            "duration": 3.519
        },
        {
            "text": "need to write a lexer to scan the raw",
            "start": 71.2,
            "duration": 3.52
        },
        {
            "text": "source code and break it into a",
            "start": 73.119,
            "duration": 3.441
        },
        {
            "text": "collection of tokens like literals",
            "start": 74.72,
            "duration": 4.32
        },
        {
            "text": "identifiers keywords operators and so on",
            "start": 76.56,
            "duration": 4.16
        },
        {
            "text": "next we'll need to define an abstract",
            "start": 79.04,
            "duration": 3.6
        },
        {
            "text": "syntax tree to represent the actual",
            "start": 80.72,
            "duration": 3.52
        },
        {
            "text": "structure of the code and how different",
            "start": 82.64,
            "duration": 3.2
        },
        {
            "text": "tokens relate to each other which is",
            "start": 84.24,
            "duration": 3.36
        },
        {
            "text": "accomplished by giving each node its own",
            "start": 85.84,
            "duration": 4.16
        },
        {
            "text": "class third we need a parser to loop",
            "start": 87.6,
            "duration": 4.159
        },
        {
            "text": "over each token and build out the",
            "start": 90.0,
            "duration": 3.68
        },
        {
            "text": "abstract syntax tree if you made it this",
            "start": 91.759,
            "duration": 3.841
        },
        {
            "text": "far congratulations because the hard",
            "start": 93.68,
            "duration": 3.6
        },
        {
            "text": "part is over now we can import a bunch",
            "start": 95.6,
            "duration": 3.839
        },
        {
            "text": "of llvm primitives to generate the",
            "start": 97.28,
            "duration": 4.24
        },
        {
            "text": "intermediate representation each type in",
            "start": 99.439,
            "duration": 4.0
        },
        {
            "text": "the abstract syntax tree is given a",
            "start": 101.52,
            "duration": 4.0
        },
        {
            "text": "method called cogen which always returns",
            "start": 103.439,
            "duration": 5.121
        },
        {
            "text": "an llbm value object used to represent a",
            "start": 105.52,
            "duration": 4.8
        },
        {
            "text": "single assignment register which is a",
            "start": 108.56,
            "duration": 3.519
        },
        {
            "text": "variable for the compiler that can only",
            "start": 110.32,
            "duration": 3.28
        },
        {
            "text": "be assigned once what's interesting",
            "start": 112.079,
            "duration": 3.521
        },
        {
            "text": "about these ir primitives is that unlike",
            "start": 113.6,
            "duration": 3.839
        },
        {
            "text": "assembly they're independent of any",
            "start": 115.6,
            "duration": 3.68
        },
        {
            "text": "particular machine architecture and that",
            "start": 117.439,
            "duration": 3.36
        },
        {
            "text": "dramatically simplifies things for",
            "start": 119.28,
            "duration": 3.119
        },
        {
            "text": "language developers who no longer need",
            "start": 120.799,
            "duration": 3.441
        },
        {
            "text": "to match the output to a processor's",
            "start": 122.399,
            "duration": 3.441
        },
        {
            "text": "instruction set now that the front end",
            "start": 124.24,
            "duration": 4.239
        },
        {
            "text": "can generate ir the op tool is used to",
            "start": 125.84,
            "duration": 5.119
        },
        {
            "text": "analyze and optimize the generated code",
            "start": 128.479,
            "duration": 4.641
        },
        {
            "text": "it makes multiple passes over the ir and",
            "start": 130.959,
            "duration": 3.92
        },
        {
            "text": "does things like dead code elimination",
            "start": 133.12,
            "duration": 3.92
        },
        {
            "text": "and scalar replacement of aggregates and",
            "start": 134.879,
            "duration": 3.761
        },
        {
            "text": "finally that brings us to the back end",
            "start": 137.04,
            "duration": 3.839
        },
        {
            "text": "where we write a module that takes ir as",
            "start": 138.64,
            "duration": 4.48
        },
        {
            "text": "an input that emits object code that can",
            "start": 140.879,
            "duration": 4.72
        },
        {
            "text": "run on any architecture congratulations",
            "start": 143.12,
            "duration": 3.839
        },
        {
            "text": "you just built your own custom",
            "start": 145.599,
            "duration": 3.681
        },
        {
            "text": "programming language and compiler in 100",
            "start": 146.959,
            "duration": 3.601
        },
        {
            "text": "seconds hit the like button and",
            "start": 149.28,
            "duration": 2.72
        },
        {
            "text": "subscribe if you want to see more short",
            "start": 150.56,
            "duration": 3.36
        },
        {
            "text": "videos like this thanks for watching and",
            "start": 152.0,
            "duration": 5.76
        },
        {
            "text": "i will see you in the next one",
            "start": 153.92,
            "duration": 3.84
        }
    ],
    "stats": {
        "viewCount": "828466",
        "likeCount": "40579",
        "favoriteCount": "0",
        "commentCount": "1004"
    }
}