{
    "id": "eaedq1Jl2fc",
    "title": "What will AI Programming look like in 5 Years?",
    "publishedAt": "2022-12-08T16:56:26Z",
    "captions": [
        {
            "text": "it is December 8th 2022 and you're",
            "start": 1.26,
            "duration": 4.559
        },
        {
            "text": "watching the code report I've been",
            "start": 4.259,
            "duration": 2.941
        },
        {
            "text": "trying to warn you about this for years",
            "start": 5.819,
            "duration": 3.481
        },
        {
            "text": "artificial intelligence is coming to",
            "start": 7.2,
            "duration": 3.899
        },
        {
            "text": "replace programmers over the last few",
            "start": 9.3,
            "duration": 3.419
        },
        {
            "text": "days the world has been freaking out",
            "start": 11.099,
            "duration": 4.261
        },
        {
            "text": "over chat GPT a new demo from openai",
            "start": 12.719,
            "duration": 4.921
        },
        {
            "text": "that can write and analyze code among",
            "start": 15.36,
            "duration": 4.02
        },
        {
            "text": "many other things the tool itself is",
            "start": 17.64,
            "duration": 3.299
        },
        {
            "text": "very impressive but it's not going to",
            "start": 19.38,
            "duration": 3.3
        },
        {
            "text": "replace programmers it can really only",
            "start": 20.939,
            "duration": 3.541
        },
        {
            "text": "solve trivial problems like GitHub",
            "start": 22.68,
            "duration": 3.66
        },
        {
            "text": "copilot and often it provides answers",
            "start": 24.48,
            "duration": 3.66
        },
        {
            "text": "that are just flat out wrong but look",
            "start": 26.34,
            "duration": 3.3
        },
        {
            "text": "correct to someone without the proper",
            "start": 28.14,
            "duration": 2.94
        },
        {
            "text": "domain knowledge it's already been",
            "start": 29.64,
            "duration": 3.18
        },
        {
            "text": "banned by stack Overflow because the",
            "start": 31.08,
            "duration": 2.999
        },
        {
            "text": "site has been flooded with people",
            "start": 32.82,
            "duration": 3.419
        },
        {
            "text": "posting AI answers on topics they know",
            "start": 34.079,
            "duration": 3.901
        },
        {
            "text": "nothing about more than anything I think",
            "start": 36.239,
            "duration": 3.961
        },
        {
            "text": "chat GPT is an existential threat to",
            "start": 37.98,
            "duration": 4.02
        },
        {
            "text": "tools like Google and stack Overflow",
            "start": 40.2,
            "duration": 3.539
        },
        {
            "text": "because it's a much faster way to get",
            "start": 42.0,
            "duration": 3.66
        },
        {
            "text": "answers to basic programming problems",
            "start": 43.739,
            "duration": 3.66
        },
        {
            "text": "what's crazy though is that this is just",
            "start": 45.66,
            "duration": 3.48
        },
        {
            "text": "a general purpose tool it's not even",
            "start": 47.399,
            "duration": 3.421
        },
        {
            "text": "designed for programming specifically",
            "start": 49.14,
            "duration": 3.48
        },
        {
            "text": "now just imagine what will happen when",
            "start": 50.82,
            "duration": 3.84
        },
        {
            "text": "this technology is focused on replacing",
            "start": 52.62,
            "duration": 3.599
        },
        {
            "text": "programmers here's how I think it might",
            "start": 54.66,
            "duration": 3.419
        },
        {
            "text": "play out over the next few years first",
            "start": 56.219,
            "duration": 3.66
        },
        {
            "text": "AI will start to take over as the",
            "start": 58.079,
            "duration": 3.601
        },
        {
            "text": "decision maker on your actual machine",
            "start": 59.879,
            "duration": 3.781
        },
        {
            "text": "Microsoft has already developed codec",
            "start": 61.68,
            "duration": 4.259
        },
        {
            "text": "CLI to bring AI to the command line",
            "start": 63.66,
            "duration": 3.959
        },
        {
            "text": "instead of learning Linux in the near",
            "start": 65.939,
            "duration": 3.301
        },
        {
            "text": "future you should be able to just tell",
            "start": 67.619,
            "duration": 3.721
        },
        {
            "text": "AI what you want and it will run all the",
            "start": 69.24,
            "duration": 3.84
        },
        {
            "text": "necessary commands for you automatically",
            "start": 71.34,
            "duration": 3.66
        },
        {
            "text": "that technology is essentially already",
            "start": 73.08,
            "duration": 4.02
        },
        {
            "text": "here what I expect to happen next is",
            "start": 75.0,
            "duration": 4.02
        },
        {
            "text": "that AI will start to build out entire",
            "start": 77.1,
            "duration": 3.54
        },
        {
            "text": "projects for you based on the",
            "start": 79.02,
            "duration": 3.06
        },
        {
            "text": "requirements that you give it kind of",
            "start": 80.64,
            "duration": 3.18
        },
        {
            "text": "like test driven development where all",
            "start": 82.08,
            "duration": 3.3
        },
        {
            "text": "you do is write some basic testing code",
            "start": 83.82,
            "duration": 3.42
        },
        {
            "text": "then AI installs all the packages",
            "start": 85.38,
            "duration": 3.84
        },
        {
            "text": "creates all the files and writes all the",
            "start": 87.24,
            "duration": 3.54
        },
        {
            "text": "code for you it'll be able to run the",
            "start": 89.22,
            "duration": 3.719
        },
        {
            "text": "app itself find any errors and correct",
            "start": 90.78,
            "duration": 4.08
        },
        {
            "text": "them eventually it will get so good that",
            "start": 92.939,
            "duration": 3.241
        },
        {
            "text": "you don't even have to worry about the",
            "start": 94.86,
            "duration": 3.119
        },
        {
            "text": "code it writes and this will lead to a",
            "start": 96.18,
            "duration": 3.36
        },
        {
            "text": "whole new class of artificial",
            "start": 97.979,
            "duration": 3.541
        },
        {
            "text": "development environments copilot has",
            "start": 99.54,
            "duration": 3.48
        },
        {
            "text": "already been very successful but it's",
            "start": 101.52,
            "duration": 3.059
        },
        {
            "text": "just the beginning of this Brave New",
            "start": 103.02,
            "duration": 3.3
        },
        {
            "text": "World for front end development I would",
            "start": 104.579,
            "duration": 3.061
        },
        {
            "text": "expect these tools to look kind of like",
            "start": 106.32,
            "duration": 3.36
        },
        {
            "text": "figma but with extra controls to make",
            "start": 107.64,
            "duration": 3.479
        },
        {
            "text": "everything interconnected and",
            "start": 109.68,
            "duration": 3.6
        },
        {
            "text": "interactive to work on any app platform",
            "start": 111.119,
            "duration": 3.721
        },
        {
            "text": "on the back end we might have something",
            "start": 113.28,
            "duration": 3.479
        },
        {
            "text": "that looks like a diagram or flowchart",
            "start": 114.84,
            "duration": 4.2
        },
        {
            "text": "that describes a bunch of API endpoints",
            "start": 116.759,
            "duration": 4.32
        },
        {
            "text": "or microservices now all of this will be",
            "start": 119.04,
            "duration": 3.96
        },
        {
            "text": "in integrated into a single environment",
            "start": 121.079,
            "duration": 3.9
        },
        {
            "text": "allowing the AI to infer the database",
            "start": 123.0,
            "duration": 4.2
        },
        {
            "text": "models and resources needed to execute",
            "start": 124.979,
            "duration": 4.021
        },
        {
            "text": "the project and not just make it work",
            "start": 127.2,
            "duration": 4.02
        },
        {
            "text": "but also optimize it in every way",
            "start": 129.0,
            "duration": 4.02
        },
        {
            "text": "imaginable in a matter of seconds it",
            "start": 131.22,
            "duration": 3.36
        },
        {
            "text": "could generate the project in multiple",
            "start": 133.02,
            "duration": 2.82
        },
        {
            "text": "different languages with multiple",
            "start": 134.58,
            "duration": 3.12
        },
        {
            "text": "different Frameworks to figure out which",
            "start": 135.84,
            "duration": 4.14
        },
        {
            "text": "one performs the best actually no it",
            "start": 137.7,
            "duration": 3.539
        },
        {
            "text": "could create its own brand new",
            "start": 139.98,
            "duration": 2.88
        },
        {
            "text": "JavaScript framework that is perfectly",
            "start": 141.239,
            "duration": 3.661
        },
        {
            "text": "optimized for your requirements actually",
            "start": 142.86,
            "duration": 4.019
        },
        {
            "text": "no why would we even need JavaScript at",
            "start": 144.9,
            "duration": 3.54
        },
        {
            "text": "that point programming languages are",
            "start": 146.879,
            "duration": 3.481
        },
        {
            "text": "just for dumb monkeys AI will be able to",
            "start": 148.44,
            "duration": 3.54
        },
        {
            "text": "write a raw executable straight from",
            "start": 150.36,
            "duration": 3.3
        },
        {
            "text": "machine code it can come up with its own",
            "start": 151.98,
            "duration": 3.54
        },
        {
            "text": "perfectly optimized compiler on the Fly",
            "start": 153.66,
            "duration": 3.719
        },
        {
            "text": "then write comprehensive documentation",
            "start": 155.52,
            "duration": 4.079
        },
        {
            "text": "about it in any language ultimately what",
            "start": 157.379,
            "duration": 3.841
        },
        {
            "text": "I think this might lead to is a",
            "start": 159.599,
            "duration": 3.661
        },
        {
            "text": "universal AI driven programming language",
            "start": 161.22,
            "duration": 4.32
        },
        {
            "text": "a single deterministic language that",
            "start": 163.26,
            "duration": 4.74
        },
        {
            "text": "turns every human into a coding God by",
            "start": 165.54,
            "duration": 4.26
        },
        {
            "text": "simply describing your vision the AI",
            "start": 168.0,
            "duration": 3.3
        },
        {
            "text": "will figure out how to arrange the ones",
            "start": 169.8,
            "duration": 3.48
        },
        {
            "text": "and zeros to make it a reality in fact",
            "start": 171.3,
            "duration": 3.36
        },
        {
            "text": "when we get our neural links we won't",
            "start": 173.28,
            "duration": 3.0
        },
        {
            "text": "even have to write anything down we can",
            "start": 174.66,
            "duration": 3.48
        },
        {
            "text": "just think it and it will appear now I",
            "start": 176.28,
            "duration": 3.239
        },
        {
            "text": "realize neuralink has killed almost all",
            "start": 178.14,
            "duration": 2.7
        },
        {
            "text": "the monkeys and pigs that have tried it",
            "start": 179.519,
            "duration": 2.881
        },
        {
            "text": "but when they they open up human trials",
            "start": 180.84,
            "duration": 3.24
        },
        {
            "text": "in six months I'm gonna be first in line",
            "start": 182.4,
            "duration": 3.479
        },
        {
            "text": "this language will be so undeniably",
            "start": 184.08,
            "duration": 3.36
        },
        {
            "text": "powerful that virtually everything else",
            "start": 185.879,
            "duration": 3.481
        },
        {
            "text": "in the world becomes obsolete overnight",
            "start": 187.44,
            "duration": 3.659
        },
        {
            "text": "the world will still need Engineers to",
            "start": 189.36,
            "duration": 3.599
        },
        {
            "text": "solve problems but writing code will not",
            "start": 191.099,
            "duration": 3.481
        },
        {
            "text": "be one of their responsibilities it'll",
            "start": 192.959,
            "duration": 3.241
        },
        {
            "text": "become an esoteric skill that only",
            "start": 194.58,
            "duration": 3.299
        },
        {
            "text": "weirdos take the time to learn kind of",
            "start": 196.2,
            "duration": 3.72
        },
        {
            "text": "like Celestial navigation I for one",
            "start": 197.879,
            "duration": 3.901
        },
        {
            "text": "think this is an awesome outcome writing",
            "start": 199.92,
            "duration": 3.36
        },
        {
            "text": "code is just a means to an end the",
            "start": 201.78,
            "duration": 2.76
        },
        {
            "text": "reason I learned to write code in the",
            "start": 203.28,
            "duration": 2.58
        },
        {
            "text": "first place was because I wanted to",
            "start": 204.54,
            "duration": 3.18
        },
        {
            "text": "build cool stuff if AI can help me build",
            "start": 205.86,
            "duration": 3.54
        },
        {
            "text": "cool stuff faster without the need to",
            "start": 207.72,
            "duration": 3.0
        },
        {
            "text": "learn a new JavaScript framework every",
            "start": 209.4,
            "duration": 3.36
        },
        {
            "text": "week then I will gladly bend the knee on",
            "start": 210.72,
            "duration": 3.659
        },
        {
            "text": "second thought though it's very possible",
            "start": 212.76,
            "duration": 3.3
        },
        {
            "text": "that none of this will ever happen I",
            "start": 214.379,
            "duration": 3.061
        },
        {
            "text": "wouldn't be surprised at all if we're",
            "start": 216.06,
            "duration": 3.539
        },
        {
            "text": "still writing JavaScript and C plus code",
            "start": 217.44,
            "duration": 4.079
        },
        {
            "text": "50 years from now this has been the code",
            "start": 219.599,
            "duration": 3.841
        },
        {
            "text": "report thanks for watching and I will",
            "start": 221.519,
            "duration": 4.94
        },
        {
            "text": "see you in the next one",
            "start": 223.44,
            "duration": 3.019
        }
    ],
    "stats": {
        "viewCount": "588015",
        "likeCount": "28392",
        "favoriteCount": "0",
        "commentCount": "2244"
    }
}