{
    "id": "eHzoTLwx01E",
    "title": "CES 2024\u2026 a glimpse into our AI-powered future",
    "publishedAt": "2024-01-15T18:33:41Z",
    "captions": [
        {
            "text": "last week I went to CES in Las Vegas but",
            "start": 0.199,
            "duration": 4.321
        },
        {
            "text": "I nearly my pants when I saw this AI",
            "start": 2.48,
            "duration": 3.919
        },
        {
            "text": "powered smart toilet from Coler it's got",
            "start": 4.52,
            "duration": 3.68
        },
        {
            "text": "heated seats ambient lighting and",
            "start": 6.399,
            "duration": 3.641
        },
        {
            "text": "emergency flushing capabilities for",
            "start": 8.2,
            "duration": 3.96
        },
        {
            "text": "power outages during the apocalypse but",
            "start": 10.04,
            "duration": 3.36
        },
        {
            "text": "something doesn't smell right with its",
            "start": 12.16,
            "duration": 3.359
        },
        {
            "text": "$88,500 price tag today we'll look at",
            "start": 13.4,
            "duration": 4.76
        },
        {
            "text": "all the craziest Tech from CES 2024 to",
            "start": 15.519,
            "duration": 4.161
        },
        {
            "text": "get a glimpse into our Aid driven",
            "start": 18.16,
            "duration": 4.92
        },
        {
            "text": "dystopian future it is January 15th 2024",
            "start": 19.68,
            "duration": 4.96
        },
        {
            "text": "and you're watching the code report the",
            "start": 23.08,
            "duration": 3.84
        },
        {
            "text": "big theme at CES was you guessed it",
            "start": 24.64,
            "duration": 4.32
        },
        {
            "text": "artificial intelligence and even implied",
            "start": 26.92,
            "duration": 3.56
        },
        {
            "text": "that traditional coding langu are dead",
            "start": 28.96,
            "duration": 3.279
        },
        {
            "text": "in the keynote programming language of",
            "start": 30.48,
            "duration": 4.48
        },
        {
            "text": "the next decade is not going to be the",
            "start": 32.239,
            "duration": 4.281
        },
        {
            "text": "traditional way that we've been writing",
            "start": 34.96,
            "duration": 3.32
        },
        {
            "text": "code it's just going to be natural",
            "start": 36.52,
            "duration": 3.24
        },
        {
            "text": "language what's funny though is that",
            "start": 38.28,
            "duration": 3.52
        },
        {
            "text": "literally nothing at CSS is actually",
            "start": 39.76,
            "duration": 3.799
        },
        {
            "text": "built with AI the reality is that",
            "start": 41.8,
            "duration": 3.8
        },
        {
            "text": "everything's built with C++ Python and",
            "start": 43.559,
            "duration": 4.52
        },
        {
            "text": "JavaScript coded by humans however AI is",
            "start": 45.6,
            "duration": 3.88
        },
        {
            "text": "putting many careers on The Chopping",
            "start": 48.079,
            "duration": 3.081
        },
        {
            "text": "Block like professional bird watchers",
            "start": 49.48,
            "duration": 3.079
        },
        {
            "text": "are in big trouble thanks to these new",
            "start": 51.16,
            "duration": 2.96
        },
        {
            "text": "AI powered binoculars that can",
            "start": 52.559,
            "duration": 3.68
        },
        {
            "text": "automatically identify government spies",
            "start": 54.12,
            "duration": 3.88
        },
        {
            "text": "AKA Birds but if you think software",
            "start": 56.239,
            "duration": 3.401
        },
        {
            "text": "engineering is obsolete another career",
            "start": 58.0,
            "duration": 3.44
        },
        {
            "text": "you might be considering is a tractor",
            "start": 59.64,
            "duration": 3.96
        },
        {
            "text": "operator unfortunately those jobs belong",
            "start": 61.44,
            "duration": 3.96
        },
        {
            "text": "to the robots multiple companies like",
            "start": 63.6,
            "duration": 3.879
        },
        {
            "text": "John Deere are now showcasing driverless",
            "start": 65.4,
            "duration": 4.079
        },
        {
            "text": "tractors and Hyundai's concept X",
            "start": 67.479,
            "duration": 4.041
        },
        {
            "text": "excavator in the near future robots like",
            "start": 69.479,
            "duration": 3.921
        },
        {
            "text": "this will build in police linear smart",
            "start": 71.52,
            "duration": 3.32
        },
        {
            "text": "cities just like the one that's under",
            "start": 73.4,
            "duration": 3.399
        },
        {
            "text": "construction in neom Saudi Arabia right",
            "start": 74.84,
            "duration": 3.76
        },
        {
            "text": "now with minimal manual labor or",
            "start": 76.799,
            "duration": 3.521
        },
        {
            "text": "supervision from humans but even if you",
            "start": 78.6,
            "duration": 3.28
        },
        {
            "text": "find yourself doing manual labor in the",
            "start": 80.32,
            "duration": 3.28
        },
        {
            "text": "future it'll be a lot more productive",
            "start": 81.88,
            "duration": 4.239
        },
        {
            "text": "thanks to AI powered exoskeletons this",
            "start": 83.6,
            "duration": 4.839
        },
        {
            "text": "prox exoskeleton from hypershell is an",
            "start": 86.119,
            "duration": 4.04
        },
        {
            "text": "AI powered suit that can make you run",
            "start": 88.439,
            "duration": 3.96
        },
        {
            "text": "faster jump higher and kickass harder",
            "start": 90.159,
            "duration": 4.0
        },
        {
            "text": "it's got a 1 horsepower motor that can",
            "start": 92.399,
            "duration": 3.921
        },
        {
            "text": "get you running over 12 mph the most",
            "start": 94.159,
            "duration": 3.881
        },
        {
            "text": "obvious application for such a tool is",
            "start": 96.32,
            "duration": 3.52
        },
        {
            "text": "for the military and law enforcement",
            "start": 98.04,
            "duration": 3.24
        },
        {
            "text": "eventually every police officer and",
            "start": 99.84,
            "duration": 3.48
        },
        {
            "text": "Soldier will be an Unstoppable Cyborg",
            "start": 101.28,
            "duration": 3.56
        },
        {
            "text": "and that's great for Humanity because we",
            "start": 103.32,
            "duration": 3.32
        },
        {
            "text": "can finally eradicate crime once and for",
            "start": 104.84,
            "duration": 3.48
        },
        {
            "text": "all but crime is a small problem",
            "start": 106.64,
            "duration": 3.32
        },
        {
            "text": "compared to the upcoming climate",
            "start": 108.32,
            "duration": 3.119
        },
        {
            "text": "catastrophe if we don't do something",
            "start": 109.96,
            "duration": 3.24
        },
        {
            "text": "algor is predicting the ice caps will be",
            "start": 111.439,
            "duration": 4.0
        },
        {
            "text": "totally melted by 2013 it's all your",
            "start": 113.2,
            "duration": 3.76
        },
        {
            "text": "fault but luckily our trusted world",
            "start": 115.439,
            "duration": 2.801
        },
        {
            "text": "leaders are flying around on their",
            "start": 116.96,
            "duration": 2.6
        },
        {
            "text": "private jets trying to figure out a",
            "start": 118.24,
            "duration": 2.68
        },
        {
            "text": "solution tion like did you know Bill",
            "start": 119.56,
            "duration": 2.919
        },
        {
            "text": "Gates had to buy four different private",
            "start": 120.92,
            "duration": 2.96
        },
        {
            "text": "jets that's your fault he's trying to",
            "start": 122.479,
            "duration": 2.801
        },
        {
            "text": "save the world from useless carbon",
            "start": 123.88,
            "duration": 3.08
        },
        {
            "text": "emitters like you but don't worry a",
            "start": 125.28,
            "duration": 3.56
        },
        {
            "text": "final solution is coming another huge",
            "start": 126.96,
            "duration": 3.96
        },
        {
            "text": "theme at CES was electric vehicles",
            "start": 128.84,
            "duration": 3.84
        },
        {
            "text": "Mercedes dropped a new all electric G",
            "start": 130.92,
            "duration": 3.0
        },
        {
            "text": "wagon and there are tons of different",
            "start": 132.68,
            "duration": 3.04
        },
        {
            "text": "cool looking EVS from Brands I've never",
            "start": 133.92,
            "duration": 3.399
        },
        {
            "text": "even heard of and this is all happening",
            "start": 135.72,
            "duration": 3.32
        },
        {
            "text": "while demand is slowing for EVS in the",
            "start": 137.319,
            "duration": 3.28
        },
        {
            "text": "United States which means these cars",
            "start": 139.04,
            "duration": 3.08
        },
        {
            "text": "will likely get cheaper and cheaper in",
            "start": 140.599,
            "duration": 3.321
        },
        {
            "text": "the years ahead but EVS aren't even all",
            "start": 142.12,
            "duration": 3.04
        },
        {
            "text": "that much better for the environment",
            "start": 143.92,
            "duration": 2.959
        },
        {
            "text": "compared to ice the real problem is that",
            "start": 145.16,
            "duration": 3.32
        },
        {
            "text": "there's too many humans consuming too",
            "start": 146.879,
            "duration": 3.041
        },
        {
            "text": "much stuff but most of them are not",
            "start": 148.48,
            "duration": 3.24
        },
        {
            "text": "willing to get into the sarop Pod yet on",
            "start": 149.92,
            "duration": 3.44
        },
        {
            "text": "top of that many people have pets like",
            "start": 151.72,
            "duration": 3.4
        },
        {
            "text": "cats and dogs also useless carbon",
            "start": 153.36,
            "duration": 3.8
        },
        {
            "text": "emitters luckily Samsung introduced a",
            "start": 155.12,
            "duration": 4.039
        },
        {
            "text": "new robot called Bali a cute little",
            "start": 157.16,
            "duration": 3.799
        },
        {
            "text": "robot kind of like Wall-E it's a far",
            "start": 159.159,
            "duration": 3.561
        },
        {
            "text": "superior cat or dog replacement it's",
            "start": 160.959,
            "duration": 3.64
        },
        {
            "text": "powered by Ai and has a built-in",
            "start": 162.72,
            "duration": 3.68
        },
        {
            "text": "projector that can play videos on any",
            "start": 164.599,
            "duration": 3.92
        },
        {
            "text": "wall or act as a little security bot",
            "start": 166.4,
            "duration": 3.28
        },
        {
            "text": "that can keep your house safe while",
            "start": 168.519,
            "duration": 2.8
        },
        {
            "text": "you're away pretty cool but one of the",
            "start": 169.68,
            "duration": 3.76
        },
        {
            "text": "most hyped up products at CES was the",
            "start": 171.319,
            "duration": 4.801
        },
        {
            "text": "rabbit R1 it's a handheld AI assistant",
            "start": 173.44,
            "duration": 4.32
        },
        {
            "text": "that's kind of like if a smartphone and",
            "start": 176.12,
            "duration": 3.6
        },
        {
            "text": "Alexa had a baby basically it Con",
            "start": 177.76,
            "duration": 3.44
        },
        {
            "text": "conects to the apps in your phone and",
            "start": 179.72,
            "duration": 3.08
        },
        {
            "text": "allows you to control them with natural",
            "start": 181.2,
            "duration": 3.959
        },
        {
            "text": "language as opposed to their actual uis",
            "start": 182.8,
            "duration": 4.04
        },
        {
            "text": "thanks to their own custom Foundation",
            "start": 185.159,
            "duration": 3.64
        },
        {
            "text": "model which they call a large action",
            "start": 186.84,
            "duration": 3.479
        },
        {
            "text": "model some people have called this the",
            "start": 188.799,
            "duration": 3.881
        },
        {
            "text": "iPhone moment for the AI era essentially",
            "start": 190.319,
            "duration": 4.761
        },
        {
            "text": "the rabbit R1 makes UI obsolete you can",
            "start": 192.68,
            "duration": 3.8
        },
        {
            "text": "remove the word front- end development",
            "start": 195.08,
            "duration": 2.6
        },
        {
            "text": "from the dictionary because with the",
            "start": 196.48,
            "duration": 2.96
        },
        {
            "text": "rabbit R1 all you have to do is talk",
            "start": 197.68,
            "duration": 3.24
        },
        {
            "text": "into the device like you're talking to a",
            "start": 199.44,
            "duration": 2.84
        },
        {
            "text": "human and it can do all those things you",
            "start": 200.92,
            "duration": 2.64
        },
        {
            "text": "used to do with your fingers on your",
            "start": 202.28,
            "duration": 3.44
        },
        {
            "text": "apps the rabbit sold all 10,000 of its",
            "start": 203.56,
            "duration": 4.039
        },
        {
            "text": "units the first day it was released but",
            "start": 205.72,
            "duration": 3.079
        },
        {
            "text": "personally I think this thing is",
            "start": 207.599,
            "duration": 2.881
        },
        {
            "text": "overhyped you could Lally just build an",
            "start": 208.799,
            "duration": 3.241
        },
        {
            "text": "app that does the same thing instead of",
            "start": 210.48,
            "duration": 3.039
        },
        {
            "text": "carrying a second piece of Hardware",
            "start": 212.04,
            "duration": 2.96
        },
        {
            "text": "around with you oh wait it looks like",
            "start": 213.519,
            "duration": 2.521
        },
        {
            "text": "someone already built that app with",
            "start": 215.0,
            "duration": 2.879
        },
        {
            "text": "flutter overall CES was totally",
            "start": 216.04,
            "duration": 3.199
        },
        {
            "text": "overwhelming like I didn't even mention",
            "start": 217.879,
            "duration": 3.0
        },
        {
            "text": "the Y brush that can brush your teeth in",
            "start": 219.239,
            "duration": 3.441
        },
        {
            "text": "10 seconds or the new Hyundai electric",
            "start": 220.879,
            "duration": 4.0
        },
        {
            "text": "air taxi or the transparent TVs from",
            "start": 222.68,
            "duration": 4.24
        },
        {
            "text": "Samsung and LG or the analog keyboard",
            "start": 224.879,
            "duration": 3.321
        },
        {
            "text": "for your smartphone or how about the",
            "start": 226.92,
            "duration": 2.959
        },
        {
            "text": "smart lamp that watches you at all times",
            "start": 228.2,
            "duration": 3.48
        },
        {
            "text": "to keep you safe or come take a load off",
            "start": 229.879,
            "duration": 3.681
        },
        {
            "text": "with one of these fully immersive VR and",
            "start": 231.68,
            "duration": 4.279
        },
        {
            "text": "AI powered reciprocating devices CES was",
            "start": 233.56,
            "duration": 3.84
        },
        {
            "text": "a lot of fun but now it's your turn to",
            "start": 235.959,
            "duration": 3.041
        },
        {
            "text": "serve your life's purpose and go out and",
            "start": 237.4,
            "duration": 3.0
        },
        {
            "text": "buy all this useless Crow this has been",
            "start": 239.0,
            "duration": 3.239
        },
        {
            "text": "the code report thanks for watching and",
            "start": 240.4,
            "duration": 5.32
        },
        {
            "text": "I will see you in the next one",
            "start": 242.239,
            "duration": 3.481
        }
    ],
    "stats": {
        "viewCount": "725685",
        "likeCount": "35582",
        "favoriteCount": "0",
        "commentCount": "1576"
    }
}