{
    "id": "Ibjm2KHfymo",
    "title": "Java is mounting a huge comeback",
    "publishedAt": "2023-06-05T17:54:25Z",
    "captions": [
        {
            "text": "it is June 5th 2023 and you're watching",
            "start": 0.0,
            "duration": 5.64
        },
        {
            "text": "the code report Java is hands down my",
            "start": 3.24,
            "duration": 3.78
        },
        {
            "text": "all-time favorite programming language",
            "start": 5.64,
            "duration": 3.84
        },
        {
            "text": "to make fun of python developers roast",
            "start": 7.02,
            "duration": 4.26
        },
        {
            "text": "it for having so much boilerplate see",
            "start": 9.48,
            "duration": 3.48
        },
        {
            "text": "developers laugh at absurd class names",
            "start": 11.28,
            "duration": 3.899
        },
        {
            "text": "like abstract Factory manager Singleton",
            "start": 12.96,
            "duration": 4.14
        },
        {
            "text": "service manager Factory C plus plus",
            "start": 15.179,
            "duration": 3.301
        },
        {
            "text": "developers hate that you can't blow your",
            "start": 17.1,
            "duration": 2.82
        },
        {
            "text": "legs off with memory management as",
            "start": 18.48,
            "duration": 3.12
        },
        {
            "text": "easily and JavaScript developers are",
            "start": 19.92,
            "duration": 3.18
        },
        {
            "text": "still trying to fix things like dates",
            "start": 21.6,
            "duration": 3.54
        },
        {
            "text": "they copied from java over 20 years ago",
            "start": 23.1,
            "duration": 3.78
        },
        {
            "text": "unfortunately I have some bad news",
            "start": 25.14,
            "duration": 3.959
        },
        {
            "text": "public static void main string arcs will",
            "start": 26.88,
            "duration": 3.42
        },
        {
            "text": "no longer be a requirement to write",
            "start": 29.099,
            "duration": 3.601
        },
        {
            "text": "hello world in Java 21 rendering an",
            "start": 30.3,
            "duration": 4.32
        },
        {
            "text": "entire industry of java boilerplate",
            "start": 32.7,
            "duration": 3.6
        },
        {
            "text": "memes static null and void and that's",
            "start": 34.62,
            "duration": 3.18
        },
        {
            "text": "not good for people like me who make a",
            "start": 36.3,
            "duration": 3.12
        },
        {
            "text": "living making fun of java because I need",
            "start": 37.8,
            "duration": 3.12
        },
        {
            "text": "that boilerplate to put food on my",
            "start": 39.42,
            "duration": 2.94
        },
        {
            "text": "family it's great news however for",
            "start": 40.92,
            "duration": 3.299
        },
        {
            "text": "anyone who wants to learn Java or more",
            "start": 42.36,
            "duration": 3.42
        },
        {
            "text": "accurately anyone who's forced to learn",
            "start": 44.219,
            "duration": 3.481
        },
        {
            "text": "Java this new feature is called unnamed",
            "start": 45.78,
            "duration": 3.9
        },
        {
            "text": "classes and instant main methods and",
            "start": 47.7,
            "duration": 3.3
        },
        {
            "text": "allows you to create a main method",
            "start": 49.68,
            "duration": 3.24
        },
        {
            "text": "without a class and public static void",
            "start": 51.0,
            "duration": 3.539
        },
        {
            "text": "mainstream arcs this is a great change",
            "start": 52.92,
            "duration": 2.819
        },
        {
            "text": "but I think we could actually make",
            "start": 54.539,
            "duration": 2.761
        },
        {
            "text": "things a little bit better by also",
            "start": 55.739,
            "duration": 3.181
        },
        {
            "text": "removing void and actually why do we",
            "start": 57.3,
            "duration": 2.64
        },
        {
            "text": "even need a main function in the first",
            "start": 58.92,
            "duration": 2.58
        },
        {
            "text": "place we could get rid of that",
            "start": 59.94,
            "duration": 3.18
        },
        {
            "text": "altogether system out seems a little",
            "start": 61.5,
            "duration": 3.239
        },
        {
            "text": "unnecessary there should just be a",
            "start": 63.12,
            "duration": 3.24
        },
        {
            "text": "global print line function and if we",
            "start": 64.739,
            "duration": 3.24
        },
        {
            "text": "rename it to print we then get a perfect",
            "start": 66.36,
            "duration": 3.36
        },
        {
            "text": "language c-sharp introduced top level",
            "start": 67.979,
            "duration": 3.541
        },
        {
            "text": "statements in 2020 and maybe in another",
            "start": 69.72,
            "duration": 3.66
        },
        {
            "text": "10 years Java will get there too before",
            "start": 71.52,
            "duration": 3.419
        },
        {
            "text": "you get too excited though this feature",
            "start": 73.38,
            "duration": 3.18
        },
        {
            "text": "is primarily designed to make learning",
            "start": 74.939,
            "duration": 3.54
        },
        {
            "text": "Java more accessible to beginners the",
            "start": 76.56,
            "duration": 3.54
        },
        {
            "text": "real boilerplate is not going anywhere",
            "start": 78.479,
            "duration": 3.601
        },
        {
            "text": "in addition Java is primarily used in",
            "start": 80.1,
            "duration": 3.9
        },
        {
            "text": "Enterprise which is very slow to adopt",
            "start": 82.08,
            "duration": 3.3
        },
        {
            "text": "new features there are tons of mission",
            "start": 84.0,
            "duration": 3.06
        },
        {
            "text": "critical applications out there still",
            "start": 85.38,
            "duration": 3.599
        },
        {
            "text": "running Java 8 and it could be years or",
            "start": 87.06,
            "duration": 3.48
        },
        {
            "text": "even decades before these new features",
            "start": 88.979,
            "duration": 3.901
        },
        {
            "text": "get adopted but Java 21 also has some",
            "start": 90.54,
            "duration": 4.02
        },
        {
            "text": "other cool updates like structured",
            "start": 92.88,
            "duration": 3.18
        },
        {
            "text": "concurrency that allows you to run",
            "start": 94.56,
            "duration": 3.3
        },
        {
            "text": "multiple concurrent jobs on multiple",
            "start": 96.06,
            "duration": 3.599
        },
        {
            "text": "threads while treating them as a single",
            "start": 97.86,
            "duration": 3.299
        },
        {
            "text": "unit of work but another thing you might",
            "start": 99.659,
            "duration": 3.361
        },
        {
            "text": "find kind of crazy about Java is that it",
            "start": 101.159,
            "duration": 3.241
        },
        {
            "text": "doesn't natively support string",
            "start": 103.02,
            "duration": 2.82
        },
        {
            "text": "interpolation which means you need to",
            "start": 104.4,
            "duration": 2.82
        },
        {
            "text": "concatenate a bunch of strings together",
            "start": 105.84,
            "duration": 3.0
        },
        {
            "text": "like you're in kindergarten or use",
            "start": 107.22,
            "duration": 3.48
        },
        {
            "text": "string.format which is also kind of",
            "start": 108.84,
            "duration": 3.9
        },
        {
            "text": "annoying but in Java 21 we have a new",
            "start": 110.7,
            "duration": 3.779
        },
        {
            "text": "string templates feature which is a new",
            "start": 112.74,
            "duration": 3.3
        },
        {
            "text": "kind of expression that allows you to",
            "start": 114.479,
            "duration": 3.361
        },
        {
            "text": "insert values directly into Strings",
            "start": 116.04,
            "duration": 3.719
        },
        {
            "text": "we've come full circle to where Java is",
            "start": 117.84,
            "duration": 3.959
        },
        {
            "text": "now looking more like JavaScript and",
            "start": 119.759,
            "duration": 4.021
        },
        {
            "text": "JavaScript is looking more like Java and",
            "start": 121.799,
            "duration": 3.481
        },
        {
            "text": "I even noticed that Java recently",
            "start": 123.78,
            "duration": 3.119
        },
        {
            "text": "updated their website so now it only",
            "start": 125.28,
            "duration": 3.0
        },
        {
            "text": "looks 10 years out of date instead of",
            "start": 126.899,
            "duration": 3.241
        },
        {
            "text": "20. this is a big strategic move that",
            "start": 128.28,
            "duration": 3.48
        },
        {
            "text": "has caused Oracle stock to almost double",
            "start": 130.14,
            "duration": 3.179
        },
        {
            "text": "over the last year the big question",
            "start": 131.76,
            "duration": 3.0
        },
        {
            "text": "though is with all these awesome new",
            "start": 133.319,
            "duration": 3.841
        },
        {
            "text": "features should you learn Java in 2023",
            "start": 134.76,
            "duration": 4.08
        },
        {
            "text": "when it comes to working as a programmer",
            "start": 137.16,
            "duration": 3.299
        },
        {
            "text": "you should choose a field that's well",
            "start": 138.84,
            "duration": 3.66
        },
        {
            "text": "paid interesting and legal but the",
            "start": 140.459,
            "duration": 3.541
        },
        {
            "text": "reality is that you can only choose two",
            "start": 142.5,
            "duration": 4.08
        },
        {
            "text": "of these Java is well paid and legal but",
            "start": 144.0,
            "duration": 4.2
        },
        {
            "text": "not very interesting when looking at the",
            "start": 146.58,
            "duration": 3.9
        },
        {
            "text": "syntax alone Java is pretty ugly if I",
            "start": 148.2,
            "duration": 3.96
        },
        {
            "text": "want to write code for the jvm for fun",
            "start": 150.48,
            "duration": 3.18
        },
        {
            "text": "I'd much rather use a language like",
            "start": 152.16,
            "duration": 4.079
        },
        {
            "text": "kotlin or Scala that being said Java is",
            "start": 153.66,
            "duration": 3.96
        },
        {
            "text": "still a Powerhouse language when it",
            "start": 156.239,
            "duration": 3.0
        },
        {
            "text": "comes to Enterprise software it's used",
            "start": 157.62,
            "duration": 3.18
        },
        {
            "text": "extensively at companies like Twitter",
            "start": 159.239,
            "duration": 3.241
        },
        {
            "text": "and Google because it's a very well",
            "start": 160.8,
            "duration": 3.48
        },
        {
            "text": "balanced language it's performant enough",
            "start": 162.48,
            "duration": 3.72
        },
        {
            "text": "for most things it's relatively easy to",
            "start": 164.28,
            "duration": 3.72
        },
        {
            "text": "use and most importantly has a huge",
            "start": 166.2,
            "duration": 3.78
        },
        {
            "text": "ecosystem of stable libraries and",
            "start": 168.0,
            "duration": 3.72
        },
        {
            "text": "Frameworks a few days ago I ran a poll",
            "start": 169.98,
            "duration": 3.42
        },
        {
            "text": "for the best programming language of all",
            "start": 171.72,
            "duration": 3.96
        },
        {
            "text": "time and Java came in dead last but now",
            "start": 173.4,
            "duration": 3.66
        },
        {
            "text": "that we no longer need public static",
            "start": 175.68,
            "duration": 3.0
        },
        {
            "text": "void main string args I think it'll",
            "start": 177.06,
            "duration": 3.3
        },
        {
            "text": "reclaim the top spot and when with that",
            "start": 178.68,
            "duration": 2.94
        },
        {
            "text": "being said I'd like to officially",
            "start": 180.36,
            "duration": 3.12
        },
        {
            "text": "announce my retirement from making fun",
            "start": 181.62,
            "duration": 3.96
        },
        {
            "text": "of java but let's enjoy these Java memes",
            "start": 183.48,
            "duration": 3.899
        },
        {
            "text": "together one last time like this one",
            "start": 185.58,
            "duration": 3.78
        },
        {
            "text": "that explains how object-oriented design",
            "start": 187.379,
            "duration": 3.961
        },
        {
            "text": "patterns are often unnecessary and",
            "start": 189.36,
            "duration": 3.42
        },
        {
            "text": "counterproductive when you could just be",
            "start": 191.34,
            "duration": 3.119
        },
        {
            "text": "using simple variables and functions",
            "start": 192.78,
            "duration": 3.48
        },
        {
            "text": "this next meme is a good one but you",
            "start": 194.459,
            "duration": 3.181
        },
        {
            "text": "wouldn't get it so I'm not even going to",
            "start": 196.26,
            "duration": 2.88
        },
        {
            "text": "try to explain it if you like Windows",
            "start": 197.64,
            "duration": 3.06
        },
        {
            "text": "you might like Java because it loves to",
            "start": 199.14,
            "duration": 3.0
        },
        {
            "text": "force you into annoying updates all the",
            "start": 200.7,
            "duration": 3.119
        },
        {
            "text": "time and as you gain more experience as",
            "start": 202.14,
            "duration": 3.239
        },
        {
            "text": "a programmer you'll eventually find out",
            "start": 203.819,
            "duration": 3.121
        },
        {
            "text": "that everything doesn't need to be an",
            "start": 205.379,
            "duration": 3.241
        },
        {
            "text": "object because these objects will pile",
            "start": 206.94,
            "duration": 3.78
        },
        {
            "text": "up and devour your RAM and finally it's",
            "start": 208.62,
            "duration": 3.72
        },
        {
            "text": "important to realize that not every meme",
            "start": 210.72,
            "duration": 3.36
        },
        {
            "text": "is a joke many of them are a legitimate",
            "start": 212.34,
            "duration": 3.24
        },
        {
            "text": "cry for help this has been the code",
            "start": 214.08,
            "duration": 3.42
        },
        {
            "text": "report thanks for watching and I will",
            "start": 215.58,
            "duration": 4.82
        },
        {
            "text": "see you in the next one",
            "start": 217.5,
            "duration": 2.9
        }
    ],
    "stats": {
        "viewCount": "1160524",
        "likeCount": "53993",
        "favoriteCount": "0",
        "commentCount": "2784"
    }
}