{
    "id": "jUuqBZwwkQw",
    "title": "Lua in 100 Seconds",
    "publishedAt": "2022-02-14T15:27:58Z",
    "captions": [
        {
            "text": "lua a fast multi-paradigm scripting",
            "start": 0.16,
            "duration": 4.639
        },
        {
            "text": "language famous for being so underrated",
            "start": 2.48,
            "duration": 4.0
        },
        {
            "text": "imagine a language that's easier to",
            "start": 4.799,
            "duration": 3.361
        },
        {
            "text": "learn than python while also being",
            "start": 6.48,
            "duration": 4.0
        },
        {
            "text": "faster and more portable than python lua",
            "start": 8.16,
            "duration": 3.68
        },
        {
            "text": "was named after the moon when it was",
            "start": 10.48,
            "duration": 2.72
        },
        {
            "text": "designed by a team of computer",
            "start": 11.84,
            "duration": 3.679
        },
        {
            "text": "scientists in brazil in 1993 it's",
            "start": 13.2,
            "duration": 3.999
        },
        {
            "text": "lightweight and extremely fast because",
            "start": 15.519,
            "duration": 3.68
        },
        {
            "text": "its virtual machine maps very closely to",
            "start": 17.199,
            "duration": 3.601
        },
        {
            "text": "c and when used with its just-in-time",
            "start": 19.199,
            "duration": 3.281
        },
        {
            "text": "compiler it's widely considered the",
            "start": 20.8,
            "duration": 3.2
        },
        {
            "text": "fastest scripting language in the world",
            "start": 22.48,
            "duration": 3.6
        },
        {
            "text": "this makes it ideal for embedding into",
            "start": 24.0,
            "duration": 3.599
        },
        {
            "text": "other applications like world of",
            "start": 26.08,
            "duration": 3.76
        },
        {
            "text": "warcraft or roblox for example where",
            "start": 27.599,
            "duration": 4.161
        },
        {
            "text": "users can write lua to build their own",
            "start": 29.84,
            "duration": 3.6
        },
        {
            "text": "games and features because the language",
            "start": 31.76,
            "duration": 3.6
        },
        {
            "text": "is embedded into the base game it's easy",
            "start": 33.44,
            "duration": 4.16
        },
        {
            "text": "to learn because it has only 21 reserved",
            "start": 35.36,
            "duration": 4.24
        },
        {
            "text": "words and has only one data structuring",
            "start": 37.6,
            "duration": 3.6
        },
        {
            "text": "mechanism called a table that can",
            "start": 39.6,
            "duration": 3.92
        },
        {
            "text": "represent arrays dictionaries graphs",
            "start": 41.2,
            "duration": 4.16
        },
        {
            "text": "trees and more it also supports",
            "start": 43.52,
            "duration": 3.28
        },
        {
            "text": "collaborative multitasking with",
            "start": 45.36,
            "duration": 3.44
        },
        {
            "text": "co-routines its standard library is very",
            "start": 46.8,
            "duration": 3.599
        },
        {
            "text": "minimal but it does have a large",
            "start": 48.8,
            "duration": 3.759
        },
        {
            "text": "ecosystem of packages with the lua rocks",
            "start": 50.399,
            "duration": 4.32
        },
        {
            "text": "package manager to get started install",
            "start": 52.559,
            "duration": 4.32
        },
        {
            "text": "it then create a file ending in.lua",
            "start": 54.719,
            "duration": 4.401
        },
        {
            "text": "declare a variable by providing a name",
            "start": 56.879,
            "duration": 4.16
        },
        {
            "text": "and value by default variables are",
            "start": 59.12,
            "duration": 3.439
        },
        {
            "text": "global but make them local with the",
            "start": 61.039,
            "duration": 3.76
        },
        {
            "text": "local keyword it's a dynamic language so",
            "start": 62.559,
            "duration": 4.001
        },
        {
            "text": "no type annotations are required we can",
            "start": 64.799,
            "duration": 3.601
        },
        {
            "text": "then use print to output the value to",
            "start": 66.56,
            "duration": 3.599
        },
        {
            "text": "the standard output there are no classes",
            "start": 68.4,
            "duration": 3.84
        },
        {
            "text": "in lua but anything you can imagine can",
            "start": 70.159,
            "duration": 4.081
        },
        {
            "text": "be done with functions and tables a",
            "start": 72.24,
            "duration": 3.44
        },
        {
            "text": "function is declared with the function",
            "start": 74.24,
            "duration": 3.36
        },
        {
            "text": "keyword then closed with the end keyword",
            "start": 75.68,
            "duration": 3.68
        },
        {
            "text": "functions are first class objects which",
            "start": 77.6,
            "duration": 3.36
        },
        {
            "text": "means they can be passed around to other",
            "start": 79.36,
            "duration": 3.119
        },
        {
            "text": "functions to support functional",
            "start": 80.96,
            "duration": 3.36
        },
        {
            "text": "programming patterns now to structure",
            "start": 82.479,
            "duration": 4.161
        },
        {
            "text": "data you create tables with braces a",
            "start": 84.32,
            "duration": 4.4
        },
        {
            "text": "table is actually an associative array",
            "start": 86.64,
            "duration": 3.76
        },
        {
            "text": "which means the index in the array can",
            "start": 88.72,
            "duration": 3.439
        },
        {
            "text": "be replaced with different values by",
            "start": 90.4,
            "duration": 3.759
        },
        {
            "text": "default it uses integer values and the",
            "start": 92.159,
            "duration": 3.521
        },
        {
            "text": "craziest thing about this language is",
            "start": 94.159,
            "duration": 3.6
        },
        {
            "text": "that it starts the index at 1 instead of",
            "start": 95.68,
            "duration": 4.16
        },
        {
            "text": "0 like most languages that gives us a",
            "start": 97.759,
            "duration": 3.68
        },
        {
            "text": "conventional array but we can also",
            "start": 99.84,
            "duration": 3.52
        },
        {
            "text": "easily create a dictionary by giving the",
            "start": 101.439,
            "duration": 4.481
        },
        {
            "text": "keys a string value now we can use 4 to",
            "start": 103.36,
            "duration": 4.399
        },
        {
            "text": "loop over every key value pair in the",
            "start": 105.92,
            "duration": 3.6
        },
        {
            "text": "table the language is single threaded",
            "start": 107.759,
            "duration": 3.921
        },
        {
            "text": "but we can use coroutines to pause and",
            "start": 109.52,
            "duration": 4.16
        },
        {
            "text": "resume a function create a co-routine",
            "start": 111.68,
            "duration": 4.479
        },
        {
            "text": "then use yield to suspend its execution",
            "start": 113.68,
            "duration": 4.079
        },
        {
            "text": "now somewhere else in the code use",
            "start": 116.159,
            "duration": 3.92
        },
        {
            "text": "co-routine resume to continue execution",
            "start": 117.759,
            "duration": 3.841
        },
        {
            "text": "until you get to the return statement",
            "start": 120.079,
            "duration": 3.04
        },
        {
            "text": "now if you're a c programmer you'll be",
            "start": 121.6,
            "duration": 3.68
        },
        {
            "text": "happy to know that lua has a very simple",
            "start": 123.119,
            "duration": 4.721
        },
        {
            "text": "c api it allows us to run lua code",
            "start": 125.28,
            "duration": 5.199
        },
        {
            "text": "inside a c program or vice versa run c",
            "start": 127.84,
            "duration": 4.72
        },
        {
            "text": "code from a lua program now to execute",
            "start": 130.479,
            "duration": 3.921
        },
        {
            "text": "your code open up the terminal and run",
            "start": 132.56,
            "duration": 4.0
        },
        {
            "text": "the lua interpreter this has been lua in",
            "start": 134.4,
            "duration": 4.0
        },
        {
            "text": "100 seconds hit the like button and",
            "start": 136.56,
            "duration": 3.28
        },
        {
            "text": "subscribe if you want to see more short",
            "start": 138.4,
            "duration": 3.36
        },
        {
            "text": "videos like this thanks for watching and",
            "start": 139.84,
            "duration": 5.92
        },
        {
            "text": "i will see you in the next one",
            "start": 141.76,
            "duration": 4.0
        }
    ],
    "stats": {
        "viewCount": "2073227",
        "likeCount": "96688",
        "favoriteCount": "0",
        "commentCount": "2714"
    }
}