{
    "id": "JY_d0vf-rfw",
    "title": "SST in 100 seconds",
    "publishedAt": "2023-06-20T18:19:43Z",
    "captions": [
        {
            "text": "SST an open source tool that actually",
            "start": 0.0,
            "duration": 4.86
        },
        {
            "text": "makes it fun to build full stack web",
            "start": 2.94,
            "duration": 4.62
        },
        {
            "text": "applications with AWS the problem with",
            "start": 4.86,
            "duration": 4.86
        },
        {
            "text": "Amazon web services is that it has too",
            "start": 7.56,
            "duration": 3.9
        },
        {
            "text": "many web services and putting them all",
            "start": 9.72,
            "duration": 3.6
        },
        {
            "text": "together in a unified package can be",
            "start": 11.46,
            "duration": 4.08
        },
        {
            "text": "extremely complicated SST fixes this for",
            "start": 13.32,
            "duration": 4.2
        },
        {
            "text": "web developers by representing back-end",
            "start": 15.54,
            "duration": 4.2
        },
        {
            "text": "infrastructure as code typescript code",
            "start": 17.52,
            "duration": 4.14
        },
        {
            "text": "making it possible to integrate features",
            "start": 19.74,
            "duration": 4.379
        },
        {
            "text": "like S3 storage buckets Lambda functions",
            "start": 21.66,
            "duration": 5.16
        },
        {
            "text": "with API Gateway databases like RDS and",
            "start": 24.119,
            "duration": 4.861
        },
        {
            "text": "dynamodb Cognito user authentication",
            "start": 26.82,
            "duration": 3.9
        },
        {
            "text": "along with many other features without",
            "start": 28.98,
            "duration": 4.259
        },
        {
            "text": "ever touching the AWS console and it has",
            "start": 30.72,
            "duration": 3.96
        },
        {
            "text": "built-in deployment support for",
            "start": 33.239,
            "duration": 4.081
        },
        {
            "text": "Frameworks like nexjs Astro and spell",
            "start": 34.68,
            "duration": 4.44
        },
        {
            "text": "kit once initialized it provides a",
            "start": 37.32,
            "duration": 3.6
        },
        {
            "text": "variety of simple constructs that",
            "start": 39.12,
            "duration": 3.54
        },
        {
            "text": "represent infrastructure declaratively",
            "start": 40.92,
            "duration": 3.42
        },
        {
            "text": "under the hood this code is based on",
            "start": 42.66,
            "duration": 3.78
        },
        {
            "text": "Amazon's Cloud development kit and cloud",
            "start": 44.34,
            "duration": 3.96
        },
        {
            "text": "formation these constructs are grouped",
            "start": 46.44,
            "duration": 3.599
        },
        {
            "text": "together in Stacks which can be deployed",
            "start": 48.3,
            "duration": 3.96
        },
        {
            "text": "together or run locally with the SST Dev",
            "start": 50.039,
            "duration": 4.081
        },
        {
            "text": "command it provides a local development",
            "start": 52.26,
            "duration": 3.66
        },
        {
            "text": "environment with live reloading and",
            "start": 54.12,
            "duration": 3.24
        },
        {
            "text": "provides a web-based console to",
            "start": 55.92,
            "duration": 3.779
        },
        {
            "text": "managerstack minus the typical AWS pain",
            "start": 57.36,
            "duration": 4.62
        },
        {
            "text": "point to get started you'll need the AWS",
            "start": 59.699,
            "duration": 4.68
        },
        {
            "text": "CLI with credentials set up locally next",
            "start": 61.98,
            "duration": 5.28
        },
        {
            "text": "run the npx create SST command to drop",
            "start": 64.379,
            "duration": 4.321
        },
        {
            "text": "in a deployment solution to your",
            "start": 67.26,
            "duration": 3.539
        },
        {
            "text": "favorite framework or initialize it as a",
            "start": 68.7,
            "duration": 3.84
        },
        {
            "text": "standalone project this will scaffold a",
            "start": 70.799,
            "duration": 3.841
        },
        {
            "text": "mono repo and the packages directory is",
            "start": 72.54,
            "duration": 3.66
        },
        {
            "text": "where you write the code to power the",
            "start": 74.64,
            "duration": 3.06
        },
        {
            "text": "back end inside here we can write",
            "start": 76.2,
            "duration": 3.36
        },
        {
            "text": "serverless functions in typescript that",
            "start": 77.7,
            "duration": 4.32
        },
        {
            "text": "are powered by AWS Lambda and use API",
            "start": 79.56,
            "duration": 4.5
        },
        {
            "text": "Gateway as the front door to see it in",
            "start": 82.02,
            "duration": 3.84
        },
        {
            "text": "action run the dev command and that will",
            "start": 84.06,
            "duration": 3.12
        },
        {
            "text": "automatically deploy the required",
            "start": 85.86,
            "duration": 3.119
        },
        {
            "text": "resources to the cloud as we can see",
            "start": 87.18,
            "duration": 3.78
        },
        {
            "text": "here on the AWS console what's really",
            "start": 88.979,
            "duration": 3.541
        },
        {
            "text": "cool though is that we now have a local",
            "start": 90.96,
            "duration": 3.18
        },
        {
            "text": "development environment and if we go and",
            "start": 92.52,
            "duration": 3.0
        },
        {
            "text": "change the code in the function it's",
            "start": 94.14,
            "duration": 3.24
        },
        {
            "text": "immediately reflected in the cloud in",
            "start": 95.52,
            "duration": 3.66
        },
        {
            "text": "addition it spins up the local SST",
            "start": 97.38,
            "duration": 3.779
        },
        {
            "text": "console where you can view logs and",
            "start": 99.18,
            "duration": 3.899
        },
        {
            "text": "manager Stacks a stack is where you",
            "start": 101.159,
            "duration": 3.841
        },
        {
            "text": "define your infrastructure as code in",
            "start": 103.079,
            "duration": 4.08
        },
        {
            "text": "the stacks directory we have an API that",
            "start": 105.0,
            "duration": 4.619
        },
        {
            "text": "can map URLs to Lambda functions pretty",
            "start": 107.159,
            "duration": 4.201
        },
        {
            "text": "simple but we can expand on this by",
            "start": 109.619,
            "duration": 3.421
        },
        {
            "text": "adding an event bus which is able to",
            "start": 111.36,
            "duration": 3.18
        },
        {
            "text": "trigger Lambda functions based on",
            "start": 113.04,
            "duration": 2.939
        },
        {
            "text": "different events that happen in the",
            "start": 114.54,
            "duration": 2.88
        },
        {
            "text": "background like when a new database",
            "start": 115.979,
            "duration": 3.0
        },
        {
            "text": "record is Created from there we can",
            "start": 117.42,
            "duration": 3.659
        },
        {
            "text": "enable file uploads by adding the bucket",
            "start": 118.979,
            "duration": 3.78
        },
        {
            "text": "construct to the stack while we're at it",
            "start": 121.079,
            "duration": 3.481
        },
        {
            "text": "we might add a postgres database with",
            "start": 122.759,
            "duration": 4.261
        },
        {
            "text": "RDS and add the auth construct to enable",
            "start": 124.56,
            "duration": 4.14
        },
        {
            "text": "user authentication and we can even",
            "start": 127.02,
            "duration": 3.54
        },
        {
            "text": "Define cron jobs here that run on a",
            "start": 128.7,
            "duration": 3.72
        },
        {
            "text": "schedule and point to a specific Lambda",
            "start": 130.56,
            "duration": 3.42
        },
        {
            "text": "function and finally when the stack is",
            "start": 132.42,
            "duration": 3.78
        },
        {
            "text": "complete we can add it to the SST config",
            "start": 133.98,
            "duration": 4.259
        },
        {
            "text": "file then deploy it to the cloud with a",
            "start": 136.2,
            "duration": 4.44
        },
        {
            "text": "single command this has been SST in 100",
            "start": 138.239,
            "duration": 4.381
        },
        {
            "text": "seconds thanks for watching and I will",
            "start": 140.64,
            "duration": 4.94
        },
        {
            "text": "see you in the next one",
            "start": 142.62,
            "duration": 2.96
        }
    ],
    "stats": {
        "viewCount": "440936",
        "likeCount": "18678",
        "favoriteCount": "0",
        "commentCount": "600"
    }
}