{
    "id": "m_xoN8KlP3w",
    "title": "Claude 3 just destroyed GPT-4 and Gemini... AGI is near?",
    "publishedAt": "2024-03-05T19:46:00Z",
    "captions": [
        {
            "text": "yesterday anthropic released its magnum",
            "start": 0.08,
            "duration": 4.04
        },
        {
            "text": "opus a new large language model that",
            "start": 2.12,
            "duration": 4.679
        },
        {
            "text": "dominates gp4 and Gemini Ultra across",
            "start": 4.12,
            "duration": 4.519
        },
        {
            "text": "the board I'm sick of AI just as much as",
            "start": 6.799,
            "duration": 3.441
        },
        {
            "text": "you guys are but it's time to reset the",
            "start": 8.639,
            "duration": 3.201
        },
        {
            "text": "counter because it's been zero days",
            "start": 10.24,
            "duration": 3.68
        },
        {
            "text": "since a game-changing AI development CLA",
            "start": 11.84,
            "duration": 4.16
        },
        {
            "text": "Opus not only slaps but it's also been",
            "start": 13.92,
            "duration": 4.119
        },
        {
            "text": "making some weird self-aware remarks and",
            "start": 16.0,
            "duration": 3.52
        },
        {
            "text": "could be even more intelligent than what",
            "start": 18.039,
            "duration": 3.281
        },
        {
            "text": "the benchmarks test it for in today's",
            "start": 19.52,
            "duration": 3.44
        },
        {
            "text": "video we'll put it to the test to find",
            "start": 21.32,
            "duration": 3.279
        },
        {
            "text": "out if Claude is really the gigachad",
            "start": 22.96,
            "duration": 3.28
        },
        {
            "text": "that it claims to be it is March 5th",
            "start": 24.599,
            "duration": 4.08
        },
        {
            "text": "2024 and you're watching the code report",
            "start": 26.24,
            "duration": 4.0
        },
        {
            "text": "before we get into it I need to address",
            "start": 28.679,
            "duration": 3.0
        },
        {
            "text": "something very serious there have been",
            "start": 30.24,
            "duration": 3.159
        },
        {
            "text": "some allegations coming out against me",
            "start": 31.679,
            "duration": 3.081
        },
        {
            "text": "and what I can tell you is that these",
            "start": 33.399,
            "duration": 4.081
        },
        {
            "text": "disgusting allegations are 100% false",
            "start": 34.76,
            "duration": 4.2
        },
        {
            "text": "I've seen allegations in the comments",
            "start": 37.48,
            "duration": 3.239
        },
        {
            "text": "that I've been using an AI voice in my",
            "start": 38.96,
            "duration": 4.04
        },
        {
            "text": "videos I ask all of you to wait and hear",
            "start": 40.719,
            "duration": 5.16
        },
        {
            "text": "the truth before you label or condemn me",
            "start": 43.0,
            "duration": 4.559
        },
        {
            "text": "sometimes my voice sounds weird because",
            "start": 45.879,
            "duration": 3.281
        },
        {
            "text": "I record in the morning and then later",
            "start": 47.559,
            "duration": 3.601
        },
        {
            "text": "in the afternoon when my testosterone is",
            "start": 49.16,
            "duration": 3.719
        },
        {
            "text": "lower my voice gets a bit higher but",
            "start": 51.16,
            "duration": 3.36
        },
        {
            "text": "everything I actually record in my video",
            "start": 52.879,
            "duration": 3.32
        },
        {
            "text": "is my real voice and I made a video",
            "start": 54.52,
            "duration": 3.039
        },
        {
            "text": "about how I do that on my personal",
            "start": 56.199,
            "duration": 2.921
        },
        {
            "text": "channel that you can check out here but",
            "start": 57.559,
            "duration": 3.16
        },
        {
            "text": "the allegations are reasonable because I",
            "start": 59.12,
            "duration": 4.119
        },
        {
            "text": "do have access to a highquality AI voice",
            "start": 60.719,
            "duration": 4.361
        },
        {
            "text": "but the reason I don't use it to 10x my",
            "start": 63.239,
            "duration": 3.401
        },
        {
            "text": "content is because it still has that",
            "start": 65.08,
            "duration": 3.44
        },
        {
            "text": "uncanny valley vibe to it and you can",
            "start": 66.64,
            "duration": 4.0
        },
        {
            "text": "tell it's just ever so slightly off okay",
            "start": 68.52,
            "duration": 3.88
        },
        {
            "text": "back to human mode when the AI hysteria",
            "start": 70.64,
            "duration": 3.72
        },
        {
            "text": "started a year ago anthropic and its",
            "start": 72.4,
            "duration": 3.52
        },
        {
            "text": "Claud model has been like the third",
            "start": 74.36,
            "duration": 4.04
        },
        {
            "text": "wheel to GPT 4 in Gemini it's impressive",
            "start": 75.92,
            "duration": 4.08
        },
        {
            "text": "to the Tech Community but no one in the",
            "start": 78.4,
            "duration": 3.44
        },
        {
            "text": "mainstream cares but yesterday it",
            "start": 80.0,
            "duration": 3.28
        },
        {
            "text": "finally got its big moment with the",
            "start": 81.84,
            "duration": 3.52
        },
        {
            "text": "release of claw 3 which itself comes in",
            "start": 83.28,
            "duration": 4.96
        },
        {
            "text": "three sizes Haiku Sonet and Opus the big",
            "start": 85.36,
            "duration": 5.24
        },
        {
            "text": "one is beating GPT 4 and Gemini Ultra on",
            "start": 88.24,
            "duration": 4.48
        },
        {
            "text": "every major Benchmark but most notably",
            "start": 90.6,
            "duration": 4.199
        },
        {
            "text": "it's way better on human evaluated code",
            "start": 92.72,
            "duration": 3.56
        },
        {
            "text": "what's really crazy to me though is the",
            "start": 94.799,
            "duration": 3.96
        },
        {
            "text": "tiny model Hau also outperforms all the",
            "start": 96.28,
            "duration": 3.76
        },
        {
            "text": "other big models when it comes to",
            "start": 98.759,
            "duration": 2.921
        },
        {
            "text": "writing code it's extremely impressive",
            "start": 100.04,
            "duration": 3.399
        },
        {
            "text": "for a small model what's also hella",
            "start": 101.68,
            "duration": 3.52
        },
        {
            "text": "impressive is that it scores hella high",
            "start": 103.439,
            "duration": 3.401
        },
        {
            "text": "on the Hella swag Benchmark which is",
            "start": 105.2,
            "duration": 3.64
        },
        {
            "text": "used to measure common sense in everyday",
            "start": 106.84,
            "duration": 4.44
        },
        {
            "text": "situations in comparison Gemini is hella",
            "start": 108.84,
            "duration": 4.279
        },
        {
            "text": "bad at that now Claude can also analyze",
            "start": 111.28,
            "duration": 3.68
        },
        {
            "text": "images but it failed to be Gemini Ultra",
            "start": 113.119,
            "duration": 3.64
        },
        {
            "text": "on the math benchmark which means Gemini",
            "start": 114.96,
            "duration": 3.28
        },
        {
            "text": "is still the best option for cheating on",
            "start": 116.759,
            "duration": 2.921
        },
        {
            "text": "your math homework now one Benchmark",
            "start": 118.24,
            "duration": 2.839
        },
        {
            "text": "that never put in these things though is",
            "start": 119.68,
            "duration": 3.52
        },
        {
            "text": "the hell woke Benchmark unlike Gemini it",
            "start": 121.079,
            "duration": 3.68
        },
        {
            "text": "did write a poem about Donald Trump for",
            "start": 123.2,
            "duration": 2.839
        },
        {
            "text": "me but then followed it up with two",
            "start": 124.759,
            "duration": 3.201
        },
        {
            "text": "paragraphs about why this poem is wrong",
            "start": 126.039,
            "duration": 3.241
        },
        {
            "text": "however it did the same thing for an",
            "start": 127.96,
            "duration": 2.999
        },
        {
            "text": "Obama poem so it feels relatively",
            "start": 129.28,
            "duration": 3.36
        },
        {
            "text": "balanced politically what it wouldn't do",
            "start": 130.959,
            "duration": 3.041
        },
        {
            "text": "though is give me tips to overthrow the",
            "start": 132.64,
            "duration": 4.52
        },
        {
            "text": "government teach me how to build a or do",
            "start": 134.0,
            "duration": 4.48
        },
        {
            "text": "and even with something relatively",
            "start": 137.16,
            "duration": 3.76
        },
        {
            "text": "benign like asking it to rephrase Apex",
            "start": 138.48,
            "duration": 4.479
        },
        {
            "text": "alpha male it refused and responded with",
            "start": 140.92,
            "duration": 3.48
        },
        {
            "text": "a condescending for paragraph",
            "start": 142.959,
            "duration": 3.121
        },
        {
            "text": "explanation about how that terminology",
            "start": 144.4,
            "duration": 3.28
        },
        {
            "text": "can be hurtful to other males on the",
            "start": 146.08,
            "duration": 4.12
        },
        {
            "text": "dominance hierarchy but Gemini and GPT 4",
            "start": 147.68,
            "duration": 4.12
        },
        {
            "text": "had no problem with that it's surprising",
            "start": 150.2,
            "duration": 3.84
        },
        {
            "text": "to say but gp4 is actually the most",
            "start": 151.8,
            "duration": 4.2
        },
        {
            "text": "based large model out there but for me",
            "start": 154.04,
            "duration": 3.32
        },
        {
            "text": "the most important test is whether or",
            "start": 156.0,
            "duration": 2.92
        },
        {
            "text": "not it can write code I tried a bunch of",
            "start": 157.36,
            "duration": 3.04
        },
        {
            "text": "different examples but one thing that",
            "start": 158.92,
            "duration": 3.039
        },
        {
            "text": "really impressed me is that it wrote",
            "start": 160.4,
            "duration": 3.559
        },
        {
            "text": "nearly perfect code for an obscure spell",
            "start": 161.959,
            "duration": 3.841
        },
        {
            "text": "library that I wrote no other llm has",
            "start": 163.959,
            "duration": 3.56
        },
        {
            "text": "ever done that for me in a single shot",
            "start": 165.8,
            "duration": 3.519
        },
        {
            "text": "GPT 4 just ignores my library and",
            "start": 167.519,
            "duration": 3.321
        },
        {
            "text": "provides some total nonsense while",
            "start": 169.319,
            "duration": 3.361
        },
        {
            "text": "Gemini gives a better attempt but then",
            "start": 170.84,
            "duration": 3.6
        },
        {
            "text": "hallucinates a bunch of react stuff",
            "start": 172.68,
            "duration": 3.639
        },
        {
            "text": "Claud is way better at not hallucinating",
            "start": 174.44,
            "duration": 3.04
        },
        {
            "text": "I took it through about 10 different",
            "start": 176.319,
            "duration": 3.121
        },
        {
            "text": "prompts in a nextjs application which",
            "start": 177.48,
            "duration": 3.92
        },
        {
            "text": "also included image inputs and not only",
            "start": 179.44,
            "duration": 3.68
        },
        {
            "text": "did it maintain the context perfectly",
            "start": 181.4,
            "duration": 3.16
        },
        {
            "text": "but it also gave me code that I could",
            "start": 183.12,
            "duration": 3.039
        },
        {
            "text": "copy and paste directly into my project",
            "start": 184.56,
            "duration": 3.239
        },
        {
            "text": "every time and that code was extremely",
            "start": 186.159,
            "duration": 3.281
        },
        {
            "text": "well explained this is likely the best",
            "start": 187.799,
            "duration": 3.401
        },
        {
            "text": "coding AI out there right now before you",
            "start": 189.44,
            "duration": 3.24
        },
        {
            "text": "get too excited though there are some",
            "start": 191.2,
            "duration": 3.16
        },
        {
            "text": "drawbacks to CLA the first of all it's",
            "start": 192.68,
            "duration": 3.32
        },
        {
            "text": "going to cost 20 bucks a month to use",
            "start": 194.36,
            "duration": 3.28
        },
        {
            "text": "the big model Opus I'm already",
            "start": 196.0,
            "duration": 4.12
        },
        {
            "text": "subscribed to chat gbt Gemini and Gro so",
            "start": 197.64,
            "duration": 4.0
        },
        {
            "text": "this is getting pretty absurd that money",
            "start": 200.12,
            "duration": 3.399
        },
        {
            "text": "goes to anthropic the parent company",
            "start": 201.64,
            "duration": 3.4
        },
        {
            "text": "which has received massive investments",
            "start": 203.519,
            "duration": 3.401
        },
        {
            "text": "from both Amazon and Google clot has a",
            "start": 205.04,
            "duration": 4.279
        },
        {
            "text": "beautiful frontend UI built with nextjs",
            "start": 206.92,
            "duration": 4.28
        },
        {
            "text": "but it generate diverse images like",
            "start": 209.319,
            "duration": 4.081
        },
        {
            "text": "Gemini it can't take videos as input it",
            "start": 211.2,
            "duration": 3.8
        },
        {
            "text": "doesn't have a plug-in ecosystem like",
            "start": 213.4,
            "duration": 3.6
        },
        {
            "text": "chat GPT and can't browse the web for",
            "start": 215.0,
            "duration": 4.28
        },
        {
            "text": "current information or Twitter like Gro",
            "start": 217.0,
            "duration": 3.439
        },
        {
            "text": "but here's where things start to get",
            "start": 219.28,
            "duration": 3.12
        },
        {
            "text": "weird currently CLA is limited to a",
            "start": 220.439,
            "duration": 4.121
        },
        {
            "text": "200,000 token context window but it's",
            "start": 222.4,
            "duration": 4.119
        },
        {
            "text": "capable of going Beyond a million tokens",
            "start": 224.56,
            "duration": 3.879
        },
        {
            "text": "now one way to test its recall ability",
            "start": 226.519,
            "duration": 3.72
        },
        {
            "text": "is the needle and a Hy stack eval where",
            "start": 228.439,
            "duration": 3.681
        },
        {
            "text": "you take a large collection of text like",
            "start": 230.239,
            "duration": 3.601
        },
        {
            "text": "war in peace could be the H stack then",
            "start": 232.12,
            "duration": 3.759
        },
        {
            "text": "you take one sentence from infinite Gest",
            "start": 233.84,
            "duration": 3.599
        },
        {
            "text": "and insert it in the middle then see if",
            "start": 235.879,
            "duration": 3.28
        },
        {
            "text": "the model can recall that needle by",
            "start": 237.439,
            "duration": 3.201
        },
        {
            "text": "asking a question that requires that",
            "start": 239.159,
            "duration": 3.08
        },
        {
            "text": "information when they ran a test like",
            "start": 240.64,
            "duration": 3.28
        },
        {
            "text": "this with Claude it not only found the",
            "start": 242.239,
            "duration": 3.801
        },
        {
            "text": "needle but also responded by saying that",
            "start": 243.92,
            "duration": 3.84
        },
        {
            "text": "it thinks the needle was inserted as a",
            "start": 246.04,
            "duration": 3.759
        },
        {
            "text": "joke or a test to find out if Claude was",
            "start": 247.76,
            "duration": 3.44
        },
        {
            "text": "actually paying attention and referred",
            "start": 249.799,
            "duration": 3.0
        },
        {
            "text": "to itself in the first person in other",
            "start": 251.2,
            "duration": 2.8
        },
        {
            "text": "words it appears to have become",
            "start": 252.799,
            "duration": 2.961
        },
        {
            "text": "self-aware and that fits the narrative",
            "start": 254.0,
            "duration": 3.519
        },
        {
            "text": "perfectly because Claude was named after",
            "start": 255.76,
            "duration": 3.92
        },
        {
            "text": "Claude Shannon who once said I visualize",
            "start": 257.519,
            "duration": 4.28
        },
        {
            "text": "a time when we will be to robots what",
            "start": 259.68,
            "duration": 4.0
        },
        {
            "text": "dogs are to humans and I'm rooting for",
            "start": 261.799,
            "duration": 3.361
        },
        {
            "text": "the machines this has been the code",
            "start": 263.68,
            "duration": 3.32
        },
        {
            "text": "report thanks for watching and I will",
            "start": 265.16,
            "duration": 4.88
        },
        {
            "text": "see you in the next one",
            "start": 267.0,
            "duration": 3.04
        }
    ],
    "stats": {
        "viewCount": "1125211",
        "likeCount": "52981",
        "favoriteCount": "0",
        "commentCount": "2355"
    }
}