{
    "id": "nMdwS3A6zck",
    "title": "Silicon Valley had a bank... HAD",
    "publishedAt": "2023-03-12T19:45:41Z",
    "captions": [
        {
            "text": "it is March 12 2023 and you're watching",
            "start": 0.0,
            "duration": 5.04
        },
        {
            "text": "the code report a bank is one of the",
            "start": 3.06,
            "duration": 3.6
        },
        {
            "text": "easiest businesses to run all you have",
            "start": 5.04,
            "duration": 3.42
        },
        {
            "text": "to do is collect money and not",
            "start": 6.66,
            "duration": 3.72
        },
        {
            "text": "things up unfortunately the banker",
            "start": 8.46,
            "duration": 3.96
        },
        {
            "text": "behind many high-profile Tech startups",
            "start": 10.38,
            "duration": 3.719
        },
        {
            "text": "did not follow this Rule and was shut",
            "start": 12.42,
            "duration": 5.58
        },
        {
            "text": "down and seized by the FDIC on Friday",
            "start": 14.099,
            "duration": 6.18
        },
        {
            "text": "we up now people who work at",
            "start": 18.0,
            "duration": 3.9
        },
        {
            "text": "startups that keep their cash at Silicon",
            "start": 20.279,
            "duration": 3.0
        },
        {
            "text": "Valley Bank have been freaking out",
            "start": 21.9,
            "duration": 2.58
        },
        {
            "text": "because they're worried that their",
            "start": 23.279,
            "duration": 2.821
        },
        {
            "text": "paychecks might bounce or their cash",
            "start": 24.48,
            "duration": 3.66
        },
        {
            "text": "burning employers might collapse but is",
            "start": 26.1,
            "duration": 3.72
        },
        {
            "text": "that even realistic well there's a lot",
            "start": 28.14,
            "duration": 3.24
        },
        {
            "text": "to entangle here first if you're not",
            "start": 29.82,
            "duration": 3.18
        },
        {
            "text": "already familiar with the situation let",
            "start": 31.38,
            "duration": 3.179
        },
        {
            "text": "me get you up to speed over the last",
            "start": 33.0,
            "duration": 3.36
        },
        {
            "text": "decade we lived through a tech boom that",
            "start": 34.559,
            "duration": 3.361
        },
        {
            "text": "was even bigger than the.com bubble",
            "start": 36.36,
            "duration": 2.879
        },
        {
            "text": "thanks to easy money and low interest",
            "start": 37.92,
            "duration": 3.24
        },
        {
            "text": "rates from central banks all you needed",
            "start": 39.239,
            "duration": 3.541
        },
        {
            "text": "was the next big idea for a disruptive",
            "start": 41.16,
            "duration": 3.36
        },
        {
            "text": "app to get an investment from a venture",
            "start": 42.78,
            "duration": 3.0
        },
        {
            "text": "capital firm all you need are some",
            "start": 44.52,
            "duration": 3.12
        },
        {
            "text": "slides and PowerPoint about why Tinder",
            "start": 45.78,
            "duration": 3.18
        },
        {
            "text": "for horses makes the world a better",
            "start": 47.64,
            "duration": 3.239
        },
        {
            "text": "place than some guy in a Patagonia vest",
            "start": 48.96,
            "duration": 3.48
        },
        {
            "text": "gives you 10 million dollars you're a",
            "start": 50.879,
            "duration": 3.0
        },
        {
            "text": "tech bro now and need to put that money",
            "start": 52.44,
            "duration": 3.42
        },
        {
            "text": "somewhere and who better than Silicon",
            "start": 53.879,
            "duration": 3.721
        },
        {
            "text": "Valley Bank things were great for svb",
            "start": 55.86,
            "duration": 3.24
        },
        {
            "text": "when interest rates were low and it",
            "start": 57.6,
            "duration": 3.119
        },
        {
            "text": "became the 16th largest bank in the",
            "start": 59.1,
            "duration": 4.259
        },
        {
            "text": "United States with around 175 billion in",
            "start": 60.719,
            "duration": 4.44
        },
        {
            "text": "customer deposits to make a return on",
            "start": 63.359,
            "duration": 3.601
        },
        {
            "text": "this cash they invested in bonds and",
            "start": 65.159,
            "duration": 3.601
        },
        {
            "text": "mortgage-backed securities often with 10",
            "start": 66.96,
            "duration": 3.42
        },
        {
            "text": "or more years to maturity the problem is",
            "start": 68.76,
            "duration": 3.3
        },
        {
            "text": "that when interest rates go up bond",
            "start": 70.38,
            "duration": 3.48
        },
        {
            "text": "prices go down and this led to a",
            "start": 72.06,
            "duration": 3.599
        },
        {
            "text": "mismatch between assets and liabilities",
            "start": 73.86,
            "duration": 3.6
        },
        {
            "text": "when people got wind of this it led to",
            "start": 75.659,
            "duration": 3.181
        },
        {
            "text": "an Old-Fashioned to run on the bank",
            "start": 77.46,
            "duration": 2.94
        },
        {
            "text": "where everybody started to panic and",
            "start": 78.84,
            "duration": 3.12
        },
        {
            "text": "withdraw their money the government who",
            "start": 80.4,
            "duration": 3.78
        },
        {
            "text": "ensures deposits up to 250 thousand",
            "start": 81.96,
            "duration": 4.08
        },
        {
            "text": "dollars stepped in quickly and shut down",
            "start": 84.18,
            "duration": 3.84
        },
        {
            "text": "the bank to minimize their losses sounds",
            "start": 86.04,
            "duration": 3.84
        },
        {
            "text": "pretty crazy but who's actually going to",
            "start": 88.02,
            "duration": 3.36
        },
        {
            "text": "lose money here well if you have less",
            "start": 89.88,
            "duration": 3.72
        },
        {
            "text": "than 250k in this bank then you lose",
            "start": 91.38,
            "duration": 3.779
        },
        {
            "text": "nothing because that money is fully",
            "start": 93.6,
            "duration": 3.24
        },
        {
            "text": "insured however most tech startups",
            "start": 95.159,
            "duration": 3.0
        },
        {
            "text": "likely have more than that in the bank",
            "start": 96.84,
            "duration": 3.3
        },
        {
            "text": "and at least 85 percent of deposits were",
            "start": 98.159,
            "duration": 3.721
        },
        {
            "text": "uninsured and that money could end up",
            "start": 100.14,
            "duration": 4.28
        },
        {
            "text": "getting a haircut",
            "start": 101.88,
            "duration": 5.04
        },
        {
            "text": "the situation is ongoing and there's a",
            "start": 104.42,
            "duration": 3.4
        },
        {
            "text": "few different things that could happen",
            "start": 106.92,
            "duration": 2.699
        },
        {
            "text": "here a bigger Bank could swoop in and",
            "start": 107.82,
            "duration": 3.72
        },
        {
            "text": "acquire svb and guarantee all the",
            "start": 109.619,
            "duration": 3.421
        },
        {
            "text": "deposits if that doesn't work maybe",
            "start": 111.54,
            "duration": 3.24
        },
        {
            "text": "they'll create some legislation to Rob",
            "start": 113.04,
            "duration": 3.6
        },
        {
            "text": "money from the taxpayers to bail out",
            "start": 114.78,
            "duration": 3.299
        },
        {
            "text": "these Tech startups just like they did",
            "start": 116.64,
            "duration": 3.36
        },
        {
            "text": "with big banks in 2008 but if that",
            "start": 118.079,
            "duration": 3.961
        },
        {
            "text": "doesn't work the FDIC can just liquidate",
            "start": 120.0,
            "duration": 4.259
        },
        {
            "text": "all of the assets of svb then pay out a",
            "start": 122.04,
            "duration": 4.259
        },
        {
            "text": "future dividend to uninsured depositors",
            "start": 124.259,
            "duration": 4.741
        },
        {
            "text": "that's as good as money sir those are",
            "start": 126.299,
            "duration": 4.921
        },
        {
            "text": "ious so at the end of the day depositors",
            "start": 129.0,
            "duration": 3.78
        },
        {
            "text": "will get most if not all of their money",
            "start": 131.22,
            "duration": 3.18
        },
        {
            "text": "back shareholders though are pretty much",
            "start": 132.78,
            "duration": 3.599
        },
        {
            "text": "screwed they got bailed in and now face",
            "start": 134.4,
            "duration": 4.08
        },
        {
            "text": "a total loss luckily though the bank's",
            "start": 136.379,
            "duration": 3.421
        },
        {
            "text": "top Executives were able to sell",
            "start": 138.48,
            "duration": 2.82
        },
        {
            "text": "millions of dollars in stock over the",
            "start": 139.8,
            "duration": 3.12
        },
        {
            "text": "last few weeks so they'll be just fine",
            "start": 141.3,
            "duration": 3.18
        },
        {
            "text": "the most interesting thing about this",
            "start": 142.92,
            "duration": 3.3
        },
        {
            "text": "situation though is the contagion",
            "start": 144.48,
            "duration": 3.78
        },
        {
            "text": "contagion or what kind of economic",
            "start": 146.22,
            "duration": 3.42
        },
        {
            "text": "shocks will this create for other",
            "start": 148.26,
            "duration": 3.78
        },
        {
            "text": "businesses in Silicon Valley U.S decoin",
            "start": 149.64,
            "duration": 4.08
        },
        {
            "text": "one of the top stable coins in crypto",
            "start": 152.04,
            "duration": 3.6
        },
        {
            "text": "depeged as a result because more than 3",
            "start": 153.72,
            "duration": 3.36
        },
        {
            "text": "billion of its cash reserves were",
            "start": 155.64,
            "duration": 3.54
        },
        {
            "text": "exposed to svb this looks really bad for",
            "start": 157.08,
            "duration": 3.659
        },
        {
            "text": "crypto because these stable coins are",
            "start": 159.18,
            "duration": 3.18
        },
        {
            "text": "necessary to keep liquidity in the",
            "start": 160.739,
            "duration": 3.241
        },
        {
            "text": "crypto markets if it were to collapse",
            "start": 162.36,
            "duration": 3.0
        },
        {
            "text": "entirely there would be a ton of",
            "start": 163.98,
            "duration": 2.94
        },
        {
            "text": "collateral damage the collapse of",
            "start": 165.36,
            "duration": 3.78
        },
        {
            "text": "terra's UST last year was pretty bad but",
            "start": 166.92,
            "duration": 4.62
        },
        {
            "text": "the collapse of usdc would be far worse",
            "start": 169.14,
            "duration": 4.26
        },
        {
            "text": "when it comes to Contagion it makes you",
            "start": 171.54,
            "duration": 3.72
        },
        {
            "text": "wonder if there are any other banks in a",
            "start": 173.4,
            "duration": 4.199
        },
        {
            "text": "similar situation to svb it was uniquely",
            "start": 175.26,
            "duration": 4.02
        },
        {
            "text": "exposed to Tech startups but the key",
            "start": 177.599,
            "duration": 3.241
        },
        {
            "text": "problem here is rising interest rates",
            "start": 179.28,
            "duration": 2.94
        },
        {
            "text": "and there are likely other Banks out",
            "start": 180.84,
            "duration": 3.06
        },
        {
            "text": "there that made similar mistakes but",
            "start": 182.22,
            "duration": 3.18
        },
        {
            "text": "most importantly how will this affect",
            "start": 183.9,
            "duration": 3.24
        },
        {
            "text": "the average software engineer who works",
            "start": 185.4,
            "duration": 3.78
        },
        {
            "text": "at a startup exposed to s SBB many",
            "start": 187.14,
            "duration": 4.26
        },
        {
            "text": "companies like Roku and Roblox have",
            "start": 189.18,
            "duration": 3.779
        },
        {
            "text": "disclosed their exposure and should have",
            "start": 191.4,
            "duration": 3.059
        },
        {
            "text": "no problem continuing their operations",
            "start": 192.959,
            "duration": 3.241
        },
        {
            "text": "as normal then you have other smaller",
            "start": 194.459,
            "duration": 3.0
        },
        {
            "text": "startups saying that they're not going",
            "start": 196.2,
            "duration": 2.88
        },
        {
            "text": "to be able to meet their payroll that",
            "start": 197.459,
            "duration": 3.481
        },
        {
            "text": "sounds bad but in reality they'll likely",
            "start": 199.08,
            "duration": 3.18
        },
        {
            "text": "be able to find some kind of temporary",
            "start": 200.94,
            "duration": 3.299
        },
        {
            "text": "solution to continue operating as normal",
            "start": 202.26,
            "duration": 4.02
        },
        {
            "text": "until the FDIC gets things figured out",
            "start": 204.239,
            "duration": 3.541
        },
        {
            "text": "longer term though this is definitely",
            "start": 206.28,
            "duration": 3.72
        },
        {
            "text": "bad news for the tech job market running",
            "start": 207.78,
            "duration": 3.72
        },
        {
            "text": "out of money is never a good thing",
            "start": 210.0,
            "duration": 3.06
        },
        {
            "text": "especially in an industry where it's",
            "start": 211.5,
            "duration": 3.12
        },
        {
            "text": "normal to burn through tons of cash",
            "start": 213.06,
            "duration": 3.84
        },
        {
            "text": "until you get acquired or IPO to make",
            "start": 214.62,
            "duration": 4.02
        },
        {
            "text": "matters worse inflation was worse than",
            "start": 216.9,
            "duration": 3.6
        },
        {
            "text": "expected recently which means the fed's",
            "start": 218.64,
            "duration": 3.12
        },
        {
            "text": "not going to be able to ease interest",
            "start": 220.5,
            "duration": 3.0
        },
        {
            "text": "rates anytime soon there's really only",
            "start": 221.76,
            "duration": 3.479
        },
        {
            "text": "two possible outcomes interest rates",
            "start": 223.5,
            "duration": 3.18
        },
        {
            "text": "stay high and we enter the Great",
            "start": 225.239,
            "duration": 3.841
        },
        {
            "text": "Depression 2.0 or interest rates go low",
            "start": 226.68,
            "duration": 4.08
        },
        {
            "text": "and the dollar hyper inflates into",
            "start": 229.08,
            "duration": 3.659
        },
        {
            "text": "worthless toilet paper in either case it",
            "start": 230.76,
            "duration": 3.479
        },
        {
            "text": "doesn't matter because AI is going to",
            "start": 232.739,
            "duration": 3.06
        },
        {
            "text": "replace all these tech jobs anyway and",
            "start": 234.239,
            "duration": 2.941
        },
        {
            "text": "that's why you should learn to mine as",
            "start": 235.799,
            "duration": 2.821
        },
        {
            "text": "soon as possible this has been the code",
            "start": 237.18,
            "duration": 3.36
        },
        {
            "text": "report thanks for watching and I will",
            "start": 238.62,
            "duration": 4.64
        },
        {
            "text": "see you in the next one",
            "start": 240.54,
            "duration": 2.72
        }
    ],
    "stats": {
        "viewCount": "462506",
        "likeCount": "24796",
        "favoriteCount": "0",
        "commentCount": "953"
    }
}