{
    "id": "nmfRDRNjCnM",
    "title": "10 crazy announcements from Google I/O",
    "publishedAt": "2023-05-11T17:54:35Z",
    "captions": [
        {
            "text": "it is May 11 2023 and you're watching",
            "start": 0.0,
            "duration": 5.16
        },
        {
            "text": "the code report we have no moat and open",
            "start": 3.0,
            "duration": 4.08
        },
        {
            "text": "source models will win the great AI War",
            "start": 5.16,
            "duration": 3.84
        },
        {
            "text": "that's according to a leaked Memo from a",
            "start": 7.08,
            "duration": 3.24
        },
        {
            "text": "Google employee based on the",
            "start": 9.0,
            "duration": 3.3
        },
        {
            "text": "announcements at Google I O yesterday I",
            "start": 10.32,
            "duration": 3.479
        },
        {
            "text": "think they got the memo you've been",
            "start": 12.3,
            "duration": 4.8
        },
        {
            "text": "applying AI to make ai ai generative AI",
            "start": 13.799,
            "duration": 6.24
        },
        {
            "text": "third ai employing ai finally rigorously",
            "start": 17.1,
            "duration": 5.46
        },
        {
            "text": "tested AI with AI large language models",
            "start": 20.039,
            "duration": 5.101
        },
        {
            "text": "with AI power of AI alternative ai ai",
            "start": 22.56,
            "duration": 5.879
        },
        {
            "text": "platforms AI Tailwind AI first AI model",
            "start": 25.14,
            "duration": 5.399
        },
        {
            "text": "the moon landing is AI generates a",
            "start": 28.439,
            "duration": 4.081
        },
        {
            "text": "generative AI powered by generative AI",
            "start": 30.539,
            "duration": 4.86
        },
        {
            "text": "with AI at the center Leading Edge AI",
            "start": 32.52,
            "duration": 4.86
        },
        {
            "text": "research with Google's Ai and the cloud",
            "start": 35.399,
            "duration": 5.901
        },
        {
            "text": "personal AI building AI building",
            "start": 37.38,
            "duration": 6.359
        },
        {
            "text": "it's no surprise to see Google going all",
            "start": 41.3,
            "duration": 4.48
        },
        {
            "text": "in on AI in order to protect their core",
            "start": 43.739,
            "duration": 4.021
        },
        {
            "text": "search advertising business from openai",
            "start": 45.78,
            "duration": 3.959
        },
        {
            "text": "and Bing chat but they also announced",
            "start": 47.76,
            "duration": 3.42
        },
        {
            "text": "some amazing things for web and mobile",
            "start": 49.739,
            "duration": 3.361
        },
        {
            "text": "developers and in today's video we'll",
            "start": 51.18,
            "duration": 3.539
        },
        {
            "text": "look at 10 crazy announcements from",
            "start": 53.1,
            "duration": 4.26
        },
        {
            "text": "Google I O one generative AI is coming",
            "start": 54.719,
            "duration": 4.441
        },
        {
            "text": "directly to search engine result pages",
            "start": 57.36,
            "duration": 3.48
        },
        {
            "text": "and that means internet users will have",
            "start": 59.16,
            "duration": 3.36
        },
        {
            "text": "less of a reason to visit your website",
            "start": 60.84,
            "duration": 3.3
        },
        {
            "text": "to look for answers and that'll",
            "start": 62.52,
            "duration": 2.94
        },
        {
            "text": "completely change the way people think",
            "start": 64.14,
            "duration": 3.18
        },
        {
            "text": "about search engine optimization in the",
            "start": 65.46,
            "duration": 3.24
        },
        {
            "text": "future and it makes me wonder how",
            "start": 67.32,
            "duration": 2.94
        },
        {
            "text": "advertisements will be integrated into",
            "start": 68.7,
            "duration": 3.18
        },
        {
            "text": "these results two speaking of",
            "start": 70.26,
            "duration": 3.06
        },
        {
            "text": "advertisements one thing they didn't",
            "start": 71.88,
            "duration": 2.82
        },
        {
            "text": "tell you at i o is that they're",
            "start": 73.32,
            "duration": 3.299
        },
        {
            "text": "currently running a YouTube ad blocker",
            "start": 74.7,
            "duration": 3.3
        },
        {
            "text": "experiment that will prevent you from",
            "start": 76.619,
            "duration": 3.061
        },
        {
            "text": "using YouTube If you have ad blockers",
            "start": 78.0,
            "duration": 3.42
        },
        {
            "text": "enabled in other words it's an ad",
            "start": 79.68,
            "duration": 3.299
        },
        {
            "text": "blocker blocker but I've said too much",
            "start": 81.42,
            "duration": 3.18
        },
        {
            "text": "already three the biggest AI",
            "start": 82.979,
            "duration": 3.481
        },
        {
            "text": "announcement at i o was the release of",
            "start": 84.6,
            "duration": 3.72
        },
        {
            "text": "palm 2 Google's state-of-the-art model",
            "start": 86.46,
            "duration": 4.14
        },
        {
            "text": "to compete with gpt4 it comes in a",
            "start": 88.32,
            "duration": 4.5
        },
        {
            "text": "variety of sizes like gecko otter bison",
            "start": 90.6,
            "duration": 4.14
        },
        {
            "text": "and unicorn that trade off speed for",
            "start": 92.82,
            "duration": 3.659
        },
        {
            "text": "sophistication what's more exciting",
            "start": 94.74,
            "duration": 3.3
        },
        {
            "text": "though is that you have access to these",
            "start": 96.479,
            "duration": 3.18
        },
        {
            "text": "foundational models from Google Cloud's",
            "start": 98.04,
            "duration": 4.14
        },
        {
            "text": "ml Ops product vertex AI you can use",
            "start": 99.659,
            "duration": 4.561
        },
        {
            "text": "vertex to fine-tune your own models with",
            "start": 102.18,
            "duration": 3.36
        },
        {
            "text": "your own data and that's huge for",
            "start": 104.22,
            "duration": 2.82
        },
        {
            "text": "entrepreneurs who want to build their",
            "start": 105.54,
            "duration": 3.119
        },
        {
            "text": "own AI products it also has an",
            "start": 107.04,
            "duration": 3.24
        },
        {
            "text": "embeddings API and all kinds of other",
            "start": 108.659,
            "duration": 3.841
        },
        {
            "text": "useful stuff four we've got duet which",
            "start": 110.28,
            "duration": 3.839
        },
        {
            "text": "is bringing AI to all of Google's",
            "start": 112.5,
            "duration": 3.6
        },
        {
            "text": "business products like docs and sheets",
            "start": 114.119,
            "duration": 4.081
        },
        {
            "text": "it's the answer to Microsoft's co-pilot",
            "start": 116.1,
            "duration": 3.72
        },
        {
            "text": "I've been using it in Google Docs myself",
            "start": 118.2,
            "duration": 3.3
        },
        {
            "text": "and it's a total game changer for White",
            "start": 119.82,
            "duration": 3.299
        },
        {
            "text": "Collar productivity it's not quite as",
            "start": 121.5,
            "duration": 3.479
        },
        {
            "text": "good as gpt4 but currently it's only",
            "start": 123.119,
            "duration": 3.6
        },
        {
            "text": "using the Bison model I guess we'll see",
            "start": 124.979,
            "duration": 2.941
        },
        {
            "text": "what happens when they unleash the",
            "start": 126.719,
            "duration": 2.941
        },
        {
            "text": "unicorn in addition these models can",
            "start": 127.92,
            "duration": 3.0
        },
        {
            "text": "write code and they're being integrated",
            "start": 129.66,
            "duration": 3.54
        },
        {
            "text": "directly into Ides like Android Studio",
            "start": 130.92,
            "duration": 4.26
        },
        {
            "text": "they demoed Studio bot which can write",
            "start": 133.2,
            "duration": 3.899
        },
        {
            "text": "and analyze code but most importantly",
            "start": 135.18,
            "duration": 4.26
        },
        {
            "text": "debug crashes that's cool but not quite",
            "start": 137.099,
            "duration": 4.321
        },
        {
            "text": "as cool as number five project Tailwind",
            "start": 139.44,
            "duration": 4.439
        },
        {
            "text": "which is Tailwind CSS built natively",
            "start": 141.42,
            "duration": 4.56
        },
        {
            "text": "into the Chrome browser actually no that",
            "start": 143.879,
            "duration": 3.481
        },
        {
            "text": "that's not right I wish but it's",
            "start": 145.98,
            "duration": 3.24
        },
        {
            "text": "actually just another AI product you can",
            "start": 147.36,
            "duration": 3.239
        },
        {
            "text": "think of it as Google Drive where you",
            "start": 149.22,
            "duration": 2.7
        },
        {
            "text": "store a bunch of documents that are",
            "start": 150.599,
            "duration": 2.761
        },
        {
            "text": "automatically trained as your own custom",
            "start": 151.92,
            "duration": 3.3
        },
        {
            "text": "AI model that'll be incredibly useful",
            "start": 153.36,
            "duration": 3.3
        },
        {
            "text": "for cheating on your homework or if",
            "start": 155.22,
            "duration": 3.0
        },
        {
            "text": "you're too broke to hire a lawyer you",
            "start": 156.66,
            "duration": 2.939
        },
        {
            "text": "could use it to analyze all the legal",
            "start": 158.22,
            "duration": 2.94
        },
        {
            "text": "documents in in your case tools like",
            "start": 159.599,
            "duration": 3.0
        },
        {
            "text": "that will be huge in the future but now",
            "start": 161.16,
            "duration": 3.0
        },
        {
            "text": "it's time to move out of the AI realm",
            "start": 162.599,
            "duration": 3.541
        },
        {
            "text": "six Google announced a foldable phone",
            "start": 164.16,
            "duration": 3.9
        },
        {
            "text": "it'll cost you about two racks and now",
            "start": 166.14,
            "duration": 3.239
        },
        {
            "text": "apple is the only company that doesn't",
            "start": 168.06,
            "duration": 3.48
        },
        {
            "text": "have a foldable seven Firebase updates",
            "start": 169.379,
            "duration": 3.781
        },
        {
            "text": "hosting now supports a bunch of new",
            "start": 171.54,
            "duration": 4.199
        },
        {
            "text": "Frameworks like svelt kit Knox Astro and",
            "start": 173.16,
            "duration": 4.799
        },
        {
            "text": "flutter web firestore now supports ore",
            "start": 175.739,
            "duration": 3.961
        },
        {
            "text": "queries Cloud functions got a python",
            "start": 177.959,
            "duration": 3.241
        },
        {
            "text": "runtime and they released a bunch of new",
            "start": 179.7,
            "duration": 3.539
        },
        {
            "text": "extensions to access AI tools like the",
            "start": 181.2,
            "duration": 4.14
        },
        {
            "text": "Palm API check out my second channel for",
            "start": 183.239,
            "duration": 3.72
        },
        {
            "text": "a full tutorial on all this stuff soon",
            "start": 185.34,
            "duration": 3.72
        },
        {
            "text": "8. flutter announced a new version that",
            "start": 186.959,
            "duration": 3.841
        },
        {
            "text": "has full support for the new material 3",
            "start": 189.06,
            "duration": 3.539
        },
        {
            "text": "design spec that's good news for mobile",
            "start": 190.8,
            "duration": 3.48
        },
        {
            "text": "developers but number nine is even",
            "start": 192.599,
            "duration": 3.841
        },
        {
            "text": "better webassembly for managed memory",
            "start": 194.28,
            "duration": 4.02
        },
        {
            "text": "languages garbage collected languages",
            "start": 196.44,
            "duration": 3.9
        },
        {
            "text": "like Dart and kotlin will be able to",
            "start": 198.3,
            "duration": 3.9
        },
        {
            "text": "compile to webassembly which means they",
            "start": 200.34,
            "duration": 3.72
        },
        {
            "text": "can run natively in the browser tools",
            "start": 202.2,
            "duration": 3.6
        },
        {
            "text": "like flutter can already transpile to",
            "start": 204.06,
            "duration": 3.72
        },
        {
            "text": "JavaScript but webassembly is up to",
            "start": 205.8,
            "duration": 3.84
        },
        {
            "text": "three times faster they actually demoed",
            "start": 207.78,
            "duration": 3.72
        },
        {
            "text": "a react developer's worst nightmare a",
            "start": 209.64,
            "duration": 3.42
        },
        {
            "text": "flutter app running inside of an angular",
            "start": 211.5,
            "duration": 3.3
        },
        {
            "text": "app and sharing State between the two",
            "start": 213.06,
            "duration": 3.66
        },
        {
            "text": "and finally that brings us to number 10",
            "start": 214.8,
            "duration": 4.56
        },
        {
            "text": "web GPU a new API that allows the",
            "start": 216.72,
            "duration": 5.22
        },
        {
            "text": "browser to to access the GPU this API",
            "start": 219.36,
            "duration": 3.959
        },
        {
            "text": "has been in the works for a while but",
            "start": 221.94,
            "duration": 2.7
        },
        {
            "text": "can now be enabled in Chrome with a",
            "start": 223.319,
            "duration": 2.7
        },
        {
            "text": "feature flag it's basically a",
            "start": 224.64,
            "duration": 3.179
        },
        {
            "text": "replacement for webgl will make it",
            "start": 226.019,
            "duration": 4.201
        },
        {
            "text": "easier and faster to run 3D graphics and",
            "start": 227.819,
            "duration": 3.84
        },
        {
            "text": "do machine learning directly in the",
            "start": 230.22,
            "duration": 3.48
        },
        {
            "text": "browser it'll improve libraries like 3js",
            "start": 231.659,
            "duration": 3.961
        },
        {
            "text": "and can already make tensorflow.js Run",
            "start": 233.7,
            "duration": 3.84
        },
        {
            "text": "100 times faster and that's it for our",
            "start": 235.62,
            "duration": 3.36
        },
        {
            "text": "show tonight tune in tomorrow for more",
            "start": 237.54,
            "duration": 3.479
        },
        {
            "text": "AI Gore now here it is your moment of",
            "start": 238.98,
            "duration": 4.2
        },
        {
            "text": "sand you're so excited to make the moon",
            "start": 241.019,
            "duration": 7.041
        },
        {
            "text": "Bender with AI generative AI thank you",
            "start": 243.18,
            "duration": 4.88
        }
    ],
    "stats": {
        "viewCount": "970614",
        "likeCount": "45092",
        "favoriteCount": "0",
        "commentCount": "1657"
    }
}