{
    "id": "QQu1_bf1Bdo",
    "title": "The high-stakes war on AdBlockers",
    "publishedAt": "2023-11-25T18:26:24Z",
    "captions": [
        {
            "text": "you may not realize it but we're in the",
            "start": 0.04,
            "duration": 3.159
        },
        {
            "text": "middle of a high stakes War not in the",
            "start": 1.56,
            "duration": 3.12
        },
        {
            "text": "Middle East but right here in your",
            "start": 3.199,
            "duration": 3.361
        },
        {
            "text": "browser and what's at stake is a few",
            "start": 4.68,
            "duration": 3.6
        },
        {
            "text": "precious seconds of your attention while",
            "start": 6.56,
            "duration": 3.76
        },
        {
            "text": "staring at this magic glowing screen it",
            "start": 8.28,
            "duration": 4.519
        },
        {
            "text": "is November 24th 2023 and you're",
            "start": 10.32,
            "duration": 4.239
        },
        {
            "text": "watching the code report back in June",
            "start": 12.799,
            "duration": 4.201
        },
        {
            "text": "2023 a small group of YouTube users were",
            "start": 14.559,
            "duration": 3.961
        },
        {
            "text": "surprised to get this message cutting",
            "start": 17.0,
            "duration": 3.119
        },
        {
            "text": "them off for having an ad blocker",
            "start": 18.52,
            "duration": 3.48
        },
        {
            "text": "enabled making them the first casualties",
            "start": 20.119,
            "duration": 3.961
        },
        {
            "text": "of YouTube's ad blocker blocker because",
            "start": 22.0,
            "duration": 3.68
        },
        {
            "text": "you're just a material girl living in a",
            "start": 24.08,
            "duration": 3.359
        },
        {
            "text": "material world your attention is very",
            "start": 25.68,
            "duration": 3.4
        },
        {
            "text": "valuable it only takes a few seconds for",
            "start": 27.439,
            "duration": 3.32
        },
        {
            "text": "a good advertisement to inject some",
            "start": 29.08,
            "duration": 3.44
        },
        {
            "text": "information into your hippo campus where",
            "start": 30.759,
            "duration": 2.8
        },
        {
            "text": "it can then be transferred to the",
            "start": 32.52,
            "duration": 2.96
        },
        {
            "text": "frontal lobe to manipulate your impulse",
            "start": 33.559,
            "duration": 3.361
        },
        {
            "text": "control to get you to buy something you",
            "start": 35.48,
            "duration": 3.36
        },
        {
            "text": "don't need by the way guys Black Friday",
            "start": 36.92,
            "duration": 4.52
        },
        {
            "text": "Cyber Monday sale buers ship Pro 40% off",
            "start": 38.84,
            "duration": 4.52
        },
        {
            "text": "learn to code and get a free t-shirt buy",
            "start": 41.44,
            "duration": 3.4
        },
        {
            "text": "it now before the impulse Fades from",
            "start": 43.36,
            "duration": 3.44
        },
        {
            "text": "your prefrontal cortex that's an example",
            "start": 44.84,
            "duration": 3.359
        },
        {
            "text": "of an honest advertisement that you",
            "start": 46.8,
            "duration": 3.079
        },
        {
            "text": "should definitely take advantage of but",
            "start": 48.199,
            "duration": 3.161
        },
        {
            "text": "most companies need to pay someone else",
            "start": 49.879,
            "duration": 3.961
        },
        {
            "text": "to shill for them in 2022 alphabet The",
            "start": 51.36,
            "duration": 4.96
        },
        {
            "text": "company generated $280 billion in",
            "start": 53.84,
            "duration": 4.96
        },
        {
            "text": "Revenue that's a lot of money but 224",
            "start": 56.32,
            "duration": 3.759
        },
        {
            "text": "billion of that is from from",
            "start": 58.8,
            "duration": 2.88
        },
        {
            "text": "advertisements but then what's even more",
            "start": 60.079,
            "duration": 4.521
        },
        {
            "text": "crazy is that of that 224 only 29",
            "start": 61.68,
            "duration": 4.6
        },
        {
            "text": "billion comes from YouTube That's only",
            "start": 64.6,
            "duration": 3.8
        },
        {
            "text": "11% of advertising revenue and I would",
            "start": 66.28,
            "duration": 3.44
        },
        {
            "text": "have expected that number to be a lot",
            "start": 68.4,
            "duration": 2.84
        },
        {
            "text": "higher based on the number of ads that I",
            "start": 69.72,
            "duration": 3.32
        },
        {
            "text": "skip on YouTube it's the second most",
            "start": 71.24,
            "duration": 3.44
        },
        {
            "text": "popular website in the world but",
            "start": 73.04,
            "duration": 3.48
        },
        {
            "text": "platforms like Facebook and Instagram do",
            "start": 74.68,
            "duration": 3.52
        },
        {
            "text": "a much better job of generating ad",
            "start": 76.52,
            "duration": 3.279
        },
        {
            "text": "revenue on top of that YouTube is",
            "start": 78.2,
            "duration": 3.48
        },
        {
            "text": "extremely expensive to operate streaming",
            "start": 79.799,
            "duration": 3.201
        },
        {
            "text": "a video around the world with low",
            "start": 81.68,
            "duration": 3.36
        },
        {
            "text": "latency requires massive data centers",
            "start": 83.0,
            "duration": 3.96
        },
        {
            "text": "with CDN all over the world YouTube's",
            "start": 85.04,
            "duration": 3.84
        },
        {
            "text": "infrastructure is truly a technological",
            "start": 86.96,
            "duration": 3.4
        },
        {
            "text": "Marvel and they offer for it all for",
            "start": 88.88,
            "duration": 3.04
        },
        {
            "text": "free in exchange for a little bit of",
            "start": 90.36,
            "duration": 3.24
        },
        {
            "text": "your privacy and some real estate in",
            "start": 91.92,
            "duration": 3.519
        },
        {
            "text": "your brain however this is unacceptable",
            "start": 93.6,
            "duration": 3.64
        },
        {
            "text": "for many because it requires an invasion",
            "start": 95.439,
            "duration": 3.36
        },
        {
            "text": "of privacy information might be",
            "start": 97.24,
            "duration": 3.28
        },
        {
            "text": "collected about your browsing history",
            "start": 98.799,
            "duration": 3.801
        },
        {
            "text": "location and demographics just to show",
            "start": 100.52,
            "duration": 3.959
        },
        {
            "text": "you targeted advertisements and that's",
            "start": 102.6,
            "duration": 3.559
        },
        {
            "text": "kind of creepy that's the philosophical",
            "start": 104.479,
            "duration": 3.6
        },
        {
            "text": "argument anyway but mostly ads are just",
            "start": 106.159,
            "duration": 3.161
        },
        {
            "text": "annoying as and we should have the",
            "start": 108.079,
            "duration": 2.601
        },
        {
            "text": "freedom to use the internet the way we",
            "start": 109.32,
            "duration": 3.04
        },
        {
            "text": "want to although as a content creator",
            "start": 110.68,
            "duration": 3.719
        },
        {
            "text": "myself I could make the argument that ad",
            "start": 112.36,
            "duration": 3.92
        },
        {
            "text": "block is theft whenever you watch an ad",
            "start": 114.399,
            "duration": 4.72
        },
        {
            "text": "55% goes to me with the other 45% going",
            "start": 116.28,
            "duration": 4.72
        },
        {
            "text": "to the big guy however when someone goes",
            "start": 119.119,
            "duration": 3.32
        },
        {
            "text": "to the Chrome web store and installs",
            "start": 121.0,
            "duration": 3.439
        },
        {
            "text": "ublock origin an open source Chrome",
            "start": 122.439,
            "duration": 4.201
        },
        {
            "text": "plugin used by 34 million other people",
            "start": 124.439,
            "duration": 4.16
        },
        {
            "text": "it uses a variety of techniques to block",
            "start": 126.64,
            "duration": 4.08
        },
        {
            "text": "ads both on websites and YouTube like",
            "start": 128.599,
            "duration": 4.121
        },
        {
            "text": "it'll block Network requests that go to",
            "start": 130.72,
            "duration": 4.2
        },
        {
            "text": "ad servers it'll block analytics tools",
            "start": 132.72,
            "duration": 4.08
        },
        {
            "text": "that collect data and also blocks the",
            "start": 134.92,
            "duration": 3.36
        },
        {
            "text": "JavaScript that's responsible for",
            "start": 136.8,
            "duration": 3.36
        },
        {
            "text": "displaying things like banner ads once",
            "start": 138.28,
            "duration": 3.319
        },
        {
            "text": "installed you can test it to make sure",
            "start": 140.16,
            "duration": 3.28
        },
        {
            "text": "that it's working okay on websites like",
            "start": 141.599,
            "duration": 4.041
        },
        {
            "text": "ad block tester.com and because it's all",
            "start": 143.44,
            "duration": 3.68
        },
        {
            "text": "open source you can see how everything",
            "start": 145.64,
            "duration": 3.2
        },
        {
            "text": "works in the source code here on GitHub",
            "start": 147.12,
            "duration": 3.0
        },
        {
            "text": "but now you're a filthy p pirate",
            "start": 148.84,
            "duration": 3.119
        },
        {
            "text": "stealing from honest creators like Logan",
            "start": 150.12,
            "duration": 3.6
        },
        {
            "text": "PA and SS sniperwolf and if you keep",
            "start": 151.959,
            "duration": 3.92
        },
        {
            "text": "installing things like ad block ad block",
            "start": 153.72,
            "duration": 4.84
        },
        {
            "text": "plus adguard ghosty ublock origin ad",
            "start": 155.879,
            "duration": 4.561
        },
        {
            "text": "blocker ultimate or use privacy focused",
            "start": 158.56,
            "duration": 3.52
        },
        {
            "text": "browsers like Brave YouTube's going to",
            "start": 160.44,
            "duration": 3.0
        },
        {
            "text": "go out of business and take all of its",
            "start": 162.08,
            "duration": 3.079
        },
        {
            "text": "creators with it that's the argument",
            "start": 163.44,
            "duration": 3.32
        },
        {
            "text": "anyway and YouTube has been cracking",
            "start": 165.159,
            "duration": 3.08
        },
        {
            "text": "down recently it's been promoting its",
            "start": 166.76,
            "duration": 3.399
        },
        {
            "text": "own ad blocker YouTube premium and it",
            "start": 168.239,
            "duration": 3.561
        },
        {
            "text": "shares revenue from that product with",
            "start": 170.159,
            "duration": 3.681
        },
        {
            "text": "YouTube creators in full disclosure I've",
            "start": 171.8,
            "duration": 3.64
        },
        {
            "text": "been an affiliate for YouTube premium in",
            "start": 173.84,
            "duration": 3.479
        },
        {
            "text": "a past video and I currently use it",
            "start": 175.44,
            "duration": 3.48
        },
        {
            "text": "myself but there's a significant number",
            "start": 177.319,
            "duration": 3.2
        },
        {
            "text": "of people out there who you couldn't pay",
            "start": 178.92,
            "duration": 3.239
        },
        {
            "text": "to pay for the service no matter how",
            "start": 180.519,
            "duration": 3.201
        },
        {
            "text": "much advertising you tried to inject",
            "start": 182.159,
            "duration": 3.681
        },
        {
            "text": "into their incons Facebook also waged",
            "start": 183.72,
            "duration": 4.519
        },
        {
            "text": "war against ad blockers back in 2016 but",
            "start": 185.84,
            "duration": 4.2
        },
        {
            "text": "largely failed although Netflix recently",
            "start": 188.239,
            "duration": 3.481
        },
        {
            "text": "cracked down on account sharing which to",
            "start": 190.04,
            "duration": 2.96
        },
        {
            "text": "them is considered theft and their",
            "start": 191.72,
            "duration": 3.0
        },
        {
            "text": "stalks have been way up ever since and",
            "start": 193.0,
            "duration": 3.28
        },
        {
            "text": "the thing is YouTube could just ignore",
            "start": 194.72,
            "duration": 3.2
        },
        {
            "text": "this issue and chalk it up to the cost",
            "start": 196.28,
            "duration": 3.28
        },
        {
            "text": "of doing business on the internet but",
            "start": 197.92,
            "duration": 3.44
        },
        {
            "text": "instead they woke up and chose violence",
            "start": 199.56,
            "duration": 3.399
        },
        {
            "text": "if you have an ad blocker enabled you",
            "start": 201.36,
            "duration": 3.599
        },
        {
            "text": "may get this warning that video playback",
            "start": 202.959,
            "duration": 3.681
        },
        {
            "text": "will be disabled if you don't disable",
            "start": 204.959,
            "duration": 3.48
        },
        {
            "text": "your ad blocker in addition the overall",
            "start": 206.64,
            "duration": 3.64
        },
        {
            "text": "experience for ad block user users will",
            "start": 208.439,
            "duration": 3.601
        },
        {
            "text": "likely get worse in the future like",
            "start": 210.28,
            "duration": 3.36
        },
        {
            "text": "recently a small group of users were",
            "start": 212.04,
            "duration": 3.839
        },
        {
            "text": "noticing a 5-second delay before a video",
            "start": 213.64,
            "duration": 3.959
        },
        {
            "text": "started playing which is apparently part",
            "start": 215.879,
            "duration": 3.401
        },
        {
            "text": "of YouTube's efforts to detect ad",
            "start": 217.599,
            "duration": 3.56
        },
        {
            "text": "blockers now a bigger part of this war",
            "start": 219.28,
            "duration": 3.84
        },
        {
            "text": "though comes down to Chrome extensions",
            "start": 221.159,
            "duration": 3.36
        },
        {
            "text": "when you build a Chrome extension you",
            "start": 223.12,
            "duration": 4.039
        },
        {
            "text": "have to have a manifest.json file this",
            "start": 224.519,
            "duration": 4.041
        },
        {
            "text": "file defines what the extension is",
            "start": 227.159,
            "duration": 3.241
        },
        {
            "text": "allowed to do on the user's behalf like",
            "start": 228.56,
            "duration": 3.92
        },
        {
            "text": "Access Network requests to block ads if",
            "start": 230.4,
            "duration": 3.8
        },
        {
            "text": "we look at the Manifest for you block",
            "start": 232.48,
            "duration": 3.08
        },
        {
            "text": "you'll first notice that it's using",
            "start": 234.2,
            "duration": 3.319
        },
        {
            "text": "manifest version two then if we go down",
            "start": 235.56,
            "duration": 3.679
        },
        {
            "text": "to permissions you'll notice it's using",
            "start": 237.519,
            "duration": 4.0
        },
        {
            "text": "web request and web request blocking",
            "start": 239.239,
            "duration": 4.121
        },
        {
            "text": "these apis made it easy for an extension",
            "start": 241.519,
            "duration": 3.92
        },
        {
            "text": "to intercept a network request and then",
            "start": 243.36,
            "duration": 3.76
        },
        {
            "text": "modify it so it can't display the ad it",
            "start": 245.439,
            "duration": 3.601
        },
        {
            "text": "wants to now the thing is Manifest",
            "start": 247.12,
            "duration": 3.959
        },
        {
            "text": "version 2 is being deprecated in favor",
            "start": 249.04,
            "duration": 4.08
        },
        {
            "text": "of version 3 which replaces the web",
            "start": 251.079,
            "duration": 4.281
        },
        {
            "text": "request API with the declarative net",
            "start": 253.12,
            "duration": 4.399
        },
        {
            "text": "request API Which is far more limited",
            "start": 255.36,
            "duration": 3.879
        },
        {
            "text": "when it comes to dynamically filtering",
            "start": 257.519,
            "duration": 3.161
        },
        {
            "text": "content what's kind of funny is that",
            "start": 259.239,
            "duration": 3.201
        },
        {
            "text": "Chrome actually might need ad blockers",
            "start": 260.68,
            "duration": 3.4
        },
        {
            "text": "because as recently as last Christmas",
            "start": 262.44,
            "duration": 3.479
        },
        {
            "text": "the FBI was recommending people install",
            "start": 264.08,
            "duration": 3.24
        },
        {
            "text": "them to protect against malicious",
            "start": 265.919,
            "duration": 3.12
        },
        {
            "text": "advertisements hosting ransomware",
            "start": 267.32,
            "duration": 3.36
        },
        {
            "text": "ultimately I do think it's possible that",
            "start": 269.039,
            "duration": 3.281
        },
        {
            "text": "YouTube could eradicate ad blockers",
            "start": 270.68,
            "duration": 3.519
        },
        {
            "text": "altogether but currently it's a lot like",
            "start": 272.32,
            "duration": 3.8
        },
        {
            "text": "when Barbara strand tried to suppress a",
            "start": 274.199,
            "duration": 3.681
        },
        {
            "text": "photo of her house that almost nobody",
            "start": 276.12,
            "duration": 3.359
        },
        {
            "text": "knew about resulting in the opposite",
            "start": 277.88,
            "duration": 3.12
        },
        {
            "text": "intended effect making the photo",
            "start": 279.479,
            "duration": 3.0
        },
        {
            "text": "extremely famous we're currently seeing",
            "start": 281.0,
            "duration": 3.52
        },
        {
            "text": "the Strand effect with ad blockers where",
            "start": 282.479,
            "duration": 3.401
        },
        {
            "text": "more and more people are learning about",
            "start": 284.52,
            "duration": 2.959
        },
        {
            "text": "them and using them despite the fact",
            "start": 285.88,
            "duration": 3.24
        },
        {
            "text": "that they violate the terms of service",
            "start": 287.479,
            "duration": 3.28
        },
        {
            "text": "it's also making the ad blockers become",
            "start": 289.12,
            "duration": 3.16
        },
        {
            "text": "more sophisticated it's only a matter of",
            "start": 290.759,
            "duration": 2.961
        },
        {
            "text": "time before someone invents an ad",
            "start": 292.28,
            "duration": 3.4
        },
        {
            "text": "blocker blocker blocker that can block",
            "start": 293.72,
            "duration": 3.8
        },
        {
            "text": "this ad blocker blocker forcing YouTube",
            "start": 295.68,
            "duration": 3.32
        },
        {
            "text": "to then invent its own ad blocker",
            "start": 297.52,
            "duration": 3.32
        },
        {
            "text": "blocker block ER blocker at which point",
            "start": 299.0,
            "duration": 3.4
        },
        {
            "text": "this joke becomes too repetitive this",
            "start": 300.84,
            "duration": 3.04
        },
        {
            "text": "has been the code report thanks for",
            "start": 302.4,
            "duration": 3.079
        },
        {
            "text": "watching and I will see you in the next",
            "start": 303.88,
            "duration": 4.039
        },
        {
            "text": "one",
            "start": 305.479,
            "duration": 2.44
        }
    ],
    "stats": {
        "viewCount": "976088",
        "likeCount": "47460",
        "favoriteCount": "0",
        "commentCount": "3587"
    }
}