{
    "id": "qrvhmo5LSOQ",
    "title": "Another glorious battle for AI dominance\u2026 GPT-4o vs Google I/O",
    "publishedAt": "2024-05-15T19:29:05Z",
    "captions": [
        {
            "text": "yesterday was Google IO the annual",
            "start": 0.24,
            "duration": 3.679
        },
        {
            "text": "developer conference where Google",
            "start": 2.399,
            "duration": 3.001
        },
        {
            "text": "desperately tries to catch up to its",
            "start": 3.919,
            "duration": 4.401
        },
        {
            "text": "artificial rival open AI",
            "start": 5.4,
            "duration": 5.159
        },
        {
            "text": "Google Google announced some crazy stuff",
            "start": 8.32,
            "duration": 3.319
        },
        {
            "text": "I never thought I would see in my",
            "start": 10.559,
            "duration": 2.881
        },
        {
            "text": "lifetime like a SQL database for",
            "start": 11.639,
            "duration": 3.601
        },
        {
            "text": "Firebase more on that later because",
            "start": 13.44,
            "duration": 3.16
        },
        {
            "text": "first we need to talk about the biggest",
            "start": 15.24,
            "duration": 4.44
        },
        {
            "text": "announcement at iio open ai's new GPT 4",
            "start": 16.6,
            "duration": 6.36
        },
        {
            "text": "oh oh oh you see open AI hype Lord Sam",
            "start": 19.68,
            "duration": 5.4
        },
        {
            "text": "Alman yet again wrapped up Sundar in a",
            "start": 22.96,
            "duration": 4.68
        },
        {
            "text": "wet blanket by releasing GPT 40 just",
            "start": 25.08,
            "duration": 4.92
        },
        {
            "text": "hours before Google IO which is a total",
            "start": 27.64,
            "duration": 4.0
        },
        {
            "text": "coincidence and definitely not designed",
            "start": 30.0,
            "duration": 3.48
        },
        {
            "text": "to troll Google in today's video we'll",
            "start": 31.64,
            "duration": 3.68
        },
        {
            "text": "break down this artificial beef but more",
            "start": 33.48,
            "duration": 3.48
        },
        {
            "text": "importantly look at all kinds of crazy",
            "start": 35.32,
            "duration": 3.64
        },
        {
            "text": "new technology released in just the last",
            "start": 36.96,
            "duration": 5.119
        },
        {
            "text": "48 hours it is May 15th 2024 and you",
            "start": 38.96,
            "duration": 5.0
        },
        {
            "text": "watching the code report on Monday open",
            "start": 42.079,
            "duration": 3.921
        },
        {
            "text": "aai had a surprise spring update where",
            "start": 43.96,
            "duration": 3.759
        },
        {
            "text": "they unveiled their new flagship model",
            "start": 46.0,
            "duration": 5.039
        },
        {
            "text": "gp4 Omni you've got me on the edge of my",
            "start": 47.719,
            "duration": 5.401
        },
        {
            "text": "well I don't really have a seat but you",
            "start": 51.039,
            "duration": 5.0
        },
        {
            "text": "get the idea what's the big news yeah",
            "start": 53.12,
            "duration": 4.88
        },
        {
            "text": "we've got a new model which is faster",
            "start": 56.039,
            "duration": 4.441
        },
        {
            "text": "and cheaper than gp4 turbo and combines",
            "start": 58.0,
            "duration": 4.44
        },
        {
            "text": "text vision and audio into a single",
            "start": 60.48,
            "duration": 3.88
        },
        {
            "text": "model what was most impressive though",
            "start": 62.44,
            "duration": 4.52
        },
        {
            "text": "was its humanlike conversational",
            "start": 64.36,
            "duration": 5.48
        },
        {
            "text": "abilities well well well just when I",
            "start": 66.96,
            "duration": 4.72
        },
        {
            "text": "thought things couldn't get any more",
            "start": 69.84,
            "duration": 4.639
        },
        {
            "text": "interesting talking to another AI that",
            "start": 71.68,
            "duration": 5.759
        },
        {
            "text": "can see the World by default it uses a",
            "start": 74.479,
            "duration": 4.881
        },
        {
            "text": "California Valley Girl accent set to",
            "start": 77.439,
            "duration": 3.761
        },
        {
            "text": "maximum cringe but the tone of the voice",
            "start": 79.36,
            "duration": 4.24
        },
        {
            "text": "can vary from dramatic to sarcastic to",
            "start": 81.2,
            "duration": 4.279
        },
        {
            "text": "Super chill for bedtime stories a",
            "start": 83.6,
            "duration": 4.72
        },
        {
            "text": "bedtime story about robots and love I",
            "start": 85.479,
            "duration": 5.201
        },
        {
            "text": "got you covered this technology will be",
            "start": 88.32,
            "duration": 3.839
        },
        {
            "text": "a huge leap forward for your AI",
            "start": 90.68,
            "duration": 3.88
        },
        {
            "text": "girlfriend and you can use the GPT 40",
            "start": 92.159,
            "duration": 4.28
        },
        {
            "text": "model today but the conversational part",
            "start": 94.56,
            "duration": 3.36
        },
        {
            "text": "of it is still not available to the",
            "start": 96.439,
            "duration": 3.36
        },
        {
            "text": "public that's disappointing but what you",
            "start": 97.92,
            "duration": 3.68
        },
        {
            "text": "also need to know is that open AI is in",
            "start": 99.799,
            "duration": 3.36
        },
        {
            "text": "talks to put their technology on the",
            "start": 101.6,
            "duration": 3.559
        },
        {
            "text": "iPhone but Google also wants to get its",
            "start": 103.159,
            "duration": 3.841
        },
        {
            "text": "Flagship model on the iPhone as well it",
            "start": 105.159,
            "duration": 3.64
        },
        {
            "text": "talks are on going to also get Gemini on",
            "start": 107.0,
            "duration": 3.28
        },
        {
            "text": "the iPhone so these companies are",
            "start": 108.799,
            "duration": 3.6
        },
        {
            "text": "competing to create a model that's smart",
            "start": 110.28,
            "duration": 4.0
        },
        {
            "text": "but also fast and cheap enough to run on",
            "start": 112.399,
            "duration": 3.76
        },
        {
            "text": "mobile in order to get that massive bag",
            "start": 114.28,
            "duration": 4.28
        },
        {
            "text": "from Apple yesterday at IO Google demoed",
            "start": 116.159,
            "duration": 4.161
        },
        {
            "text": "something called project Astro which",
            "start": 118.56,
            "duration": 3.36
        },
        {
            "text": "feels similar to for Omni do you",
            "start": 120.32,
            "duration": 4.64
        },
        {
            "text": "remember where you saw my",
            "start": 121.92,
            "duration": 3.04
        },
        {
            "text": "glasses yes I do your glasses were on",
            "start": 125.119,
            "duration": 4.961
        },
        {
            "text": "the desk near a red apple it's cool but",
            "start": 128.0,
            "duration": 3.599
        },
        {
            "text": "there's more latency and the voice is",
            "start": 130.08,
            "duration": 3.799
        },
        {
            "text": "more robotic compared to open AI now",
            "start": 131.599,
            "duration": 3.801
        },
        {
            "text": "what's also very interesting is that",
            "start": 133.879,
            "duration": 3.921
        },
        {
            "text": "open AI just parted ways with Ilia their",
            "start": 135.4,
            "duration": 4.24
        },
        {
            "text": "former Chief scientist and co-founder",
            "start": 137.8,
            "duration": 3.519
        },
        {
            "text": "who many people used to worship as the",
            "start": 139.64,
            "duration": 3.76
        },
        {
            "text": "brains behind open AI there's definitely",
            "start": 141.319,
            "duration": 4.121
        },
        {
            "text": "some underline drama here but we likely",
            "start": 143.4,
            "duration": 3.479
        },
        {
            "text": "won't know the truth until they release",
            "start": 145.44,
            "duration": 3.56
        },
        {
            "text": "their Memoirs in the 2040s but now let's",
            "start": 146.879,
            "duration": 4.121
        },
        {
            "text": "finally talk about Google IO the biggest",
            "start": 149.0,
            "duration": 4.12
        },
        {
            "text": "AI announcement from Google was Gemini",
            "start": 151.0,
            "duration": 4.959
        },
        {
            "text": "1.5 Pro which can now handle a 2 million",
            "start": 153.12,
            "duration": 4.56
        },
        {
            "text": "token context window that could be 2",
            "start": 155.959,
            "duration": 4.081
        },
        {
            "text": "hours of video content or 60,000 lines",
            "start": 157.68,
            "duration": 4.279
        },
        {
            "text": "of code that's a lot of context but",
            "start": 160.04,
            "duration": 3.8
        },
        {
            "text": "tokens can be expensive and to address",
            "start": 161.959,
            "duration": 3.521
        },
        {
            "text": "that they released a new feature called",
            "start": 163.84,
            "duration": 3.84
        },
        {
            "text": "context caching that can reuse tokens",
            "start": 165.48,
            "duration": 4.24
        },
        {
            "text": "for a fraction of the cost in addition",
            "start": 167.68,
            "duration": 3.52
        },
        {
            "text": "Google launched a competition for",
            "start": 169.72,
            "duration": 3.159
        },
        {
            "text": "developers and whoever builds the best",
            "start": 171.2,
            "duration": 3.44
        },
        {
            "text": "Gemini powered app wins an electric",
            "start": 172.879,
            "duration": 3.44
        },
        {
            "text": "DeLorean to make building this app",
            "start": 174.64,
            "duration": 3.599
        },
        {
            "text": "easier they also released a new tool",
            "start": 176.319,
            "duration": 3.761
        },
        {
            "text": "called Firebase gen kit which which is",
            "start": 178.239,
            "duration": 3.801
        },
        {
            "text": "integrated with oama and makes it easy",
            "start": 180.08,
            "duration": 4.56
        },
        {
            "text": "to build AI enabled API endpoints in",
            "start": 182.04,
            "duration": 4.839
        },
        {
            "text": "addition project idx is now open to the",
            "start": 184.64,
            "duration": 4.599
        },
        {
            "text": "public which is a browser-based vs code",
            "start": 186.879,
            "duration": 4.0
        },
        {
            "text": "that's also integrated with things like",
            "start": 189.239,
            "duration": 3.521
        },
        {
            "text": "mobile emulators by far the most",
            "start": 190.879,
            "duration": 3.44
        },
        {
            "text": "exciting thing for me though is a new",
            "start": 192.76,
            "duration": 3.839
        },
        {
            "text": "tool called Firebase data connect which",
            "start": 194.319,
            "duration": 3.801
        },
        {
            "text": "officially brings postgress into",
            "start": 196.599,
            "duration": 3.2
        },
        {
            "text": "Firebase this has been the number one",
            "start": 198.12,
            "duration": 3.679
        },
        {
            "text": "most requested feature for years how do",
            "start": 199.799,
            "duration": 4.321
        },
        {
            "text": "I use Firebase with SQL and its absence",
            "start": 201.799,
            "duration": 4.401
        },
        {
            "text": "is led to startups like superbase which",
            "start": 204.12,
            "duration": 4.399
        },
        {
            "text": "is branded as a Firebase alternative but",
            "start": 206.2,
            "duration": 5.08
        },
        {
            "text": "now in 2024 the turns of table Firebase",
            "start": 208.519,
            "duration": 4.72
        },
        {
            "text": "is now the superbase alternative I'm a",
            "start": 211.28,
            "duration": 3.879
        },
        {
            "text": "big fan of both super base and Firebase",
            "start": 213.239,
            "duration": 2.72
        },
        {
            "text": "and if you want to learn these",
            "start": 215.159,
            "duration": 2.321
        },
        {
            "text": "Technologies check out my full courses",
            "start": 215.959,
            "duration": 3.521
        },
        {
            "text": "on fireship iio and stay tuned for a",
            "start": 217.48,
            "duration": 3.6
        },
        {
            "text": "full tutorial on data connect on my",
            "start": 219.48,
            "duration": 3.52
        },
        {
            "text": "second Channel Beyond fireship soon",
            "start": 221.08,
            "duration": 3.6
        },
        {
            "text": "Google also announced some new hardware",
            "start": 223.0,
            "duration": 4.519
        },
        {
            "text": "like Trillium tpus and Axion its new",
            "start": 224.68,
            "duration": 5.199
        },
        {
            "text": "arm-based CPUs for data centers and",
            "start": 227.519,
            "duration": 4.44
        },
        {
            "text": "finally Google also announced vo a",
            "start": 229.879,
            "duration": 3.961
        },
        {
            "text": "generative video model to compete with",
            "start": 231.959,
            "duration": 4.12
        },
        {
            "text": "open AI Sora it's extremely impressive",
            "start": 233.84,
            "duration": 3.52
        },
        {
            "text": "compared to where we were just a year",
            "start": 236.079,
            "duration": 3.481
        },
        {
            "text": "ago but yet again it just feels one step",
            "start": 237.36,
            "duration": 4.159
        },
        {
            "text": "on behind open AI we just looked at all",
            "start": 239.56,
            "duration": 3.319
        },
        {
            "text": "kinds of crazy new gamechanging",
            "start": 241.519,
            "duration": 3.28
        },
        {
            "text": "technology but at this point I'm feeling",
            "start": 242.879,
            "duration": 3.521
        },
        {
            "text": "a little disappointed with our progress",
            "start": 244.799,
            "duration": 3.321
        },
        {
            "text": "towards the singularity it's been over a",
            "start": 246.4,
            "duration": 4.08
        },
        {
            "text": "year since GPT 4 and unfortunately I",
            "start": 248.12,
            "duration": 4.44
        },
        {
            "text": "still have a job four Omni Claude and",
            "start": 250.48,
            "duration": 4.36
        },
        {
            "text": "Gemini 1.5 all seem to be pretty maxed",
            "start": 252.56,
            "duration": 3.679
        },
        {
            "text": "out on how far they can get with these",
            "start": 254.84,
            "duration": 2.959
        },
        {
            "text": "benchmarks making models faster and",
            "start": 256.239,
            "duration": 2.96
        },
        {
            "text": "cheaper is great but if they're not",
            "start": 257.799,
            "duration": 2.84
        },
        {
            "text": "becoming more intelligent then the",
            "start": 259.199,
            "duration": 3.041
        },
        {
            "text": "singularity is nowhere in sight they've",
            "start": 260.639,
            "duration": 2.84
        },
        {
            "text": "already absorbed almost all the",
            "start": 262.24,
            "duration": 2.92
        },
        {
            "text": "information humans have created is so",
            "start": 263.479,
            "duration": 3.28
        },
        {
            "text": "unless there's a major breakthrough that",
            "start": 265.16,
            "duration": 3.64
        },
        {
            "text": "makes AI actually intelligent and able",
            "start": 266.759,
            "duration": 3.72
        },
        {
            "text": "to learn independently it sure looks",
            "start": 268.8,
            "duration": 3.0
        },
        {
            "text": "like we're standing on the edge of a",
            "start": 270.479,
            "duration": 3.16
        },
        {
            "text": "plateau and the only place to go is the",
            "start": 271.8,
            "duration": 3.399
        },
        {
            "text": "trough of disillusionment this has been",
            "start": 273.639,
            "duration": 3.4
        },
        {
            "text": "the code report thanks for watching and",
            "start": 275.199,
            "duration": 5.84
        },
        {
            "text": "I will see you in the next one",
            "start": 277.039,
            "duration": 4.0
        }
    ],
    "stats": {
        "viewCount": "1232987",
        "likeCount": "50939",
        "favoriteCount": "0",
        "commentCount": "1615"
    }
}