{
    "id": "rIfdg_Ot-LI",
    "title": "Laravel in 100 Seconds",
    "publishedAt": "2022-09-23T15:30:08Z",
    "captions": [
        {
            "text": "[Music]",
            "start": 0.0,
            "duration": 3.0
        },
        {
            "text": "laravel a full stack PHP based web",
            "start": 0.14,
            "duration": 4.48
        },
        {
            "text": "framework famous for its carefully",
            "start": 3.0,
            "duration": 3.54
        },
        {
            "text": "crafted and much-loved developer",
            "start": 4.62,
            "duration": 4.32
        },
        {
            "text": "experience it was created in 2011 by",
            "start": 6.54,
            "duration": 4.38
        },
        {
            "text": "Taylor otwell who was inspired by prior",
            "start": 8.94,
            "duration": 3.9
        },
        {
            "text": "work like codeigniter or Symphony and",
            "start": 10.92,
            "duration": 3.66
        },
        {
            "text": "rails it has a large following of",
            "start": 12.84,
            "duration": 3.6
        },
        {
            "text": "independent developers thanks to its",
            "start": 14.58,
            "duration": 3.6
        },
        {
            "text": "laser focus on clean and minimal code",
            "start": 16.44,
            "duration": 3.839
        },
        {
            "text": "along with a huge ecosystem of tools",
            "start": 18.18,
            "duration": 3.42
        },
        {
            "text": "that can do the heavy lifting",
            "start": 20.279,
            "duration": 3.181
        },
        {
            "text": "traditionally it's used as a model view",
            "start": 21.6,
            "duration": 3.0
        },
        {
            "text": "controller framework to build",
            "start": 23.46,
            "duration": 3.0
        },
        {
            "text": "server-side web applications a model",
            "start": 24.6,
            "duration": 3.9
        },
        {
            "text": "represents data that can live in a wide",
            "start": 26.46,
            "duration": 3.78
        },
        {
            "text": "variety of databases while a view",
            "start": 28.5,
            "duration": 3.48
        },
        {
            "text": "represents what the end user sees in",
            "start": 30.24,
            "duration": 4.08
        },
        {
            "text": "HTML the user powered by blade templates",
            "start": 31.98,
            "duration": 5.34
        },
        {
            "text": "that can buy a PHP and HTML code into a",
            "start": 34.32,
            "duration": 5.1
        },
        {
            "text": "single file and finally we have a router",
            "start": 37.32,
            "duration": 3.48
        },
        {
            "text": "and controllers in the middle which",
            "start": 39.42,
            "duration": 3.299
        },
        {
            "text": "allow the user to safely interact with",
            "start": 40.8,
            "duration": 3.66
        },
        {
            "text": "the data model this pattern can be used",
            "start": 42.719,
            "duration": 3.66
        },
        {
            "text": "to build monolithic applications but",
            "start": 44.46,
            "duration": 4.259
        },
        {
            "text": "laravel can also build Standalone apis",
            "start": 46.379,
            "duration": 4.02
        },
        {
            "text": "or integrate with popular front-end",
            "start": 48.719,
            "duration": 3.301
        },
        {
            "text": "Frameworks thanks to an adjacent Library",
            "start": 50.399,
            "duration": 3.541
        },
        {
            "text": "called inertia most importantly though",
            "start": 52.02,
            "duration": 3.719
        },
        {
            "text": "its ecosystem has out-of-the-box",
            "start": 53.94,
            "duration": 3.599
        },
        {
            "text": "solutions for features like user",
            "start": 55.739,
            "duration": 3.781
        },
        {
            "text": "authentication payments full text search",
            "start": 57.539,
            "duration": 3.721
        },
        {
            "text": "and many other others to get started",
            "start": 59.52,
            "duration": 4.379
        },
        {
            "text": "install PHP and composer then create a",
            "start": 61.26,
            "duration": 4.32
        },
        {
            "text": "new project by default it will be",
            "start": 63.899,
            "duration": 3.841
        },
        {
            "text": "configured with mySQL as the database",
            "start": 65.58,
            "duration": 4.2
        },
        {
            "text": "the application lifecycle starts in the",
            "start": 67.74,
            "duration": 4.14
        },
        {
            "text": "index PHP file when a user makes a",
            "start": 69.78,
            "duration": 4.5
        },
        {
            "text": "request it goes to the HTTP kernel which",
            "start": 71.88,
            "duration": 4.08
        },
        {
            "text": "contains middleware to intercept the",
            "start": 74.28,
            "duration": 3.54
        },
        {
            "text": "request and register service providers",
            "start": 75.96,
            "duration": 3.96
        },
        {
            "text": "like a router which itself determines",
            "start": 77.82,
            "duration": 4.14
        },
        {
            "text": "that controller action to trigger based",
            "start": 79.92,
            "duration": 4.32
        },
        {
            "text": "on the URL the user navigated to now a",
            "start": 81.96,
            "duration": 4.38
        },
        {
            "text": "controller is just a PHP class that",
            "start": 84.24,
            "duration": 4.199
        },
        {
            "text": "contains a variety of methods like show",
            "start": 86.34,
            "duration": 4.5
        },
        {
            "text": "update edit and destroy it follows a",
            "start": 88.439,
            "duration": 4.381
        },
        {
            "text": "convention where show represents a git",
            "start": 90.84,
            "duration": 4.2
        },
        {
            "text": "request for an individual entity while",
            "start": 92.82,
            "duration": 4.259
        },
        {
            "text": "store represents a post request to",
            "start": 95.04,
            "duration": 4.2
        },
        {
            "text": "create a new entity inside a method we",
            "start": 97.079,
            "duration": 4.261
        },
        {
            "text": "might use a model to make a query to the",
            "start": 99.24,
            "duration": 4.62
        },
        {
            "text": "database but instead of raw SQL code it",
            "start": 101.34,
            "duration": 4.739
        },
        {
            "text": "uses eloquent orm making the code far",
            "start": 103.86,
            "duration": 4.2
        },
        {
            "text": "more human readable every database table",
            "start": 106.079,
            "duration": 4.381
        },
        {
            "text": "has a corresponding model class which",
            "start": 108.06,
            "duration": 4.32
        },
        {
            "text": "can be customized as needed now back in",
            "start": 110.46,
            "duration": 3.72
        },
        {
            "text": "the controller the return value from a",
            "start": 112.38,
            "duration": 4.08
        },
        {
            "text": "method is a view the view is a blade",
            "start": 114.18,
            "duration": 3.96
        },
        {
            "text": "template that interpolates the data from",
            "start": 116.46,
            "duration": 4.32
        },
        {
            "text": "the database directly into HTML ml it",
            "start": 118.14,
            "duration": 4.619
        },
        {
            "text": "has the full power of PHP allowing you",
            "start": 120.78,
            "duration": 4.019
        },
        {
            "text": "to implement conditional logic and loops",
            "start": 122.759,
            "duration": 4.381
        },
        {
            "text": "with a familiar syntax but laravel comes",
            "start": 124.799,
            "duration": 3.781
        },
        {
            "text": "with a ton of other built-in features",
            "start": 127.14,
            "duration": 4.02
        },
        {
            "text": "like cues file storage websockets for",
            "start": 128.58,
            "duration": 4.62
        },
        {
            "text": "real-time apps just to name a few this",
            "start": 131.16,
            "duration": 4.32
        },
        {
            "text": "has been laravel in 100 seconds hit the",
            "start": 133.2,
            "duration": 3.36
        },
        {
            "text": "like button if you want to see more",
            "start": 135.48,
            "duration": 2.64
        },
        {
            "text": "short videos like this thanks for",
            "start": 136.56,
            "duration": 3.42
        },
        {
            "text": "watching and I will see you in the next",
            "start": 138.12,
            "duration": 4.04
        },
        {
            "text": "one",
            "start": 139.98,
            "duration": 2.18
        }
    ],
    "stats": {
        "viewCount": "651424",
        "likeCount": "27060",
        "favoriteCount": "0",
        "commentCount": "1161"
    }
}