{
    "id": "TsKHjFeonRE",
    "title": "The ARM chip race is getting wild\u2026 Apple M4 unveiled",
    "publishedAt": "2024-05-08T18:47:45Z",
    "captions": [
        {
            "text": "yesterday Apple unveiled its latest",
            "start": 0.08,
            "duration": 4.239
        },
        {
            "text": "Marvel of computing technology and no",
            "start": 1.88,
            "duration": 4.8
        },
        {
            "text": "I'm not talking about its new $129",
            "start": 4.319,
            "duration": 5.32
        },
        {
            "text": "pencil or its new $299 keyboard and it's",
            "start": 6.68,
            "duration": 4.72
        },
        {
            "text": "not a new electric car that charges from",
            "start": 9.639,
            "duration": 4.2
        },
        {
            "text": "the bottom it's the new M4 chip which",
            "start": 11.4,
            "duration": 4.239
        },
        {
            "text": "Apple claims is the biggest and baddest",
            "start": 13.839,
            "duration": 4.28
        },
        {
            "text": "chip the PC market has ever seen it CPU",
            "start": 15.639,
            "duration": 4.761
        },
        {
            "text": "is 50% faster than the M2 it's got",
            "start": 18.119,
            "duration": 4.041
        },
        {
            "text": "built-in Ray tracing and the neural",
            "start": 20.4,
            "duration": 3.84
        },
        {
            "text": "engine can handle a ridiculous 38",
            "start": 22.16,
            "duration": 4.24
        },
        {
            "text": "trillion operations per second making it",
            "start": 24.24,
            "duration": 4.32
        },
        {
            "text": "the fastest chip for AI workloads on the",
            "start": 26.4,
            "duration": 4.0
        },
        {
            "text": "PC market today what's interesting",
            "start": 28.56,
            "duration": 4.08
        },
        {
            "text": "though is that Apple chose to unveil M4",
            "start": 30.4,
            "duration": 4.36
        },
        {
            "text": "yesterday at its iPad event and not its",
            "start": 32.64,
            "duration": 3.8
        },
        {
            "text": "worldwide developer conference which is",
            "start": 34.76,
            "duration": 3.28
        },
        {
            "text": "only a month away what you may not",
            "start": 36.44,
            "duration": 3.08
        },
        {
            "text": "realize is that we're in the middle of",
            "start": 38.04,
            "duration": 3.72
        },
        {
            "text": "an arms race a global race to build the",
            "start": 39.52,
            "duration": 4.16
        },
        {
            "text": "best arm-based chip and dominate the",
            "start": 41.76,
            "duration": 4.04
        },
        {
            "text": "world but Apple's lead may not last very",
            "start": 43.68,
            "duration": 3.68
        },
        {
            "text": "long in today's video we'll look at the",
            "start": 45.8,
            "duration": 3.36
        },
        {
            "text": "major players and what it all means for",
            "start": 47.36,
            "duration": 3.839
        },
        {
            "text": "the future of computing technology it is",
            "start": 49.16,
            "duration": 4.36
        },
        {
            "text": "May 8th 2024 and you're watching the",
            "start": 51.199,
            "duration": 4.2
        },
        {
            "text": "code report everybody I know is building",
            "start": 53.52,
            "duration": 4.96
        },
        {
            "text": "arm chips the Samsung Google Microsoft",
            "start": 55.399,
            "duration": 5.441
        },
        {
            "text": "and even Intel are joining the arms race",
            "start": 58.48,
            "duration": 4.68
        },
        {
            "text": "but wait a second what even is arm well",
            "start": 60.84,
            "duration": 4.2
        },
        {
            "text": "historically personal computers like",
            "start": 63.16,
            "duration": 4.16
        },
        {
            "text": "those running Windows or Mac OS run on",
            "start": 65.04,
            "duration": 5.28
        },
        {
            "text": "CPUs that use the x86 architecture and",
            "start": 67.32,
            "duration": 5.04
        },
        {
            "text": "those chips are typically built by Intel",
            "start": 70.32,
            "duration": 4.76
        },
        {
            "text": "or AMD x86 is based on the complex",
            "start": 72.36,
            "duration": 4.399
        },
        {
            "text": "instruction set which is extremely",
            "start": 75.08,
            "duration": 3.92
        },
        {
            "text": "versatile and fast for a wide variety of",
            "start": 76.759,
            "duration": 4.161
        },
        {
            "text": "computing needs however when smartphones",
            "start": 79.0,
            "duration": 3.88
        },
        {
            "text": "became a thing they chose to use Arm",
            "start": 80.92,
            "duration": 3.879
        },
        {
            "text": "processors based on the reduced",
            "start": 82.88,
            "duration": 3.84
        },
        {
            "text": "instruction set which requires fewer",
            "start": 84.799,
            "duration": 3.921
        },
        {
            "text": "transistors per instruction making it",
            "start": 86.72,
            "duration": 3.52
        },
        {
            "text": "more power efficient and and that of",
            "start": 88.72,
            "duration": 3.24
        },
        {
            "text": "course is critical for battery powered",
            "start": 90.24,
            "duration": 3.199
        },
        {
            "text": "devices but there is always an",
            "start": 91.96,
            "duration": 3.56
        },
        {
            "text": "assumption that arm wasn't optimal for",
            "start": 93.439,
            "duration": 3.881
        },
        {
            "text": "regular computers well that changed in",
            "start": 95.52,
            "duration": 4.36
        },
        {
            "text": "2020 when Apple released the M1 chip",
            "start": 97.32,
            "duration": 4.32
        },
        {
            "text": "suddenly their laptops were faster",
            "start": 99.88,
            "duration": 3.4
        },
        {
            "text": "quieter and no longer caused third",
            "start": 101.64,
            "duration": 3.6
        },
        {
            "text": "degree burns on my crotal region and",
            "start": 103.28,
            "duration": 3.64
        },
        {
            "text": "this motivated Microsoft to launch",
            "start": 105.24,
            "duration": 3.879
        },
        {
            "text": "project voltera to run Windows on arm",
            "start": 106.92,
            "duration": 4.96
        },
        {
            "text": "chips in addition data centers like AWS",
            "start": 109.119,
            "duration": 4.441
        },
        {
            "text": "have realized that arm chips are more",
            "start": 111.88,
            "duration": 3.4
        },
        {
            "text": "efficient in the cloud and now you have",
            "start": 113.56,
            "duration": 3.879
        },
        {
            "text": "Amazon Google and Microsoft all making",
            "start": 115.28,
            "duration": 3.68
        },
        {
            "text": "their own arm chips for their data",
            "start": 117.439,
            "duration": 4.201
        },
        {
            "text": "centers like a ws graviton and Google",
            "start": 118.96,
            "duration": 4.6
        },
        {
            "text": "Axion what's kind of crazy though is",
            "start": 121.64,
            "duration": 3.04
        },
        {
            "text": "that the company behind this",
            "start": 123.56,
            "duration": 3.04
        },
        {
            "text": "architecture is worth over hundred",
            "start": 124.68,
            "duration": 4.199
        },
        {
            "text": "billion but it's never actually made a",
            "start": 126.6,
            "duration": 4.079
        },
        {
            "text": "single chip instead it just designs the",
            "start": 128.879,
            "duration": 3.72
        },
        {
            "text": "architecture which is then licensed by",
            "start": 130.679,
            "duration": 3.401
        },
        {
            "text": "big companies and ultimately",
            "start": 132.599,
            "duration": 3.401
        },
        {
            "text": "manufactured at places like Taiwan",
            "start": 134.08,
            "duration": 3.84
        },
        {
            "text": "semiconductor they produce Apple's M",
            "start": 136.0,
            "duration": 3.72
        },
        {
            "text": "chips and one big selling point of the",
            "start": 137.92,
            "duration": 3.84
        },
        {
            "text": "M4 is that it has the most powerful",
            "start": 139.72,
            "duration": 3.84
        },
        {
            "text": "neural engine ever Apple's been very",
            "start": 141.76,
            "duration": 3.68
        },
        {
            "text": "quiet in the AI race but it looks like",
            "start": 143.56,
            "duration": 3.399
        },
        {
            "text": "their goal is to run large language",
            "start": 145.44,
            "duration": 3.84
        },
        {
            "text": "models on device or on the edge this",
            "start": 146.959,
            "duration": 4.0
        },
        {
            "text": "would be awesome for users because then",
            "start": 149.28,
            "duration": 3.76
        },
        {
            "text": "an llm could work offline with low",
            "start": 150.959,
            "duration": 3.92
        },
        {
            "text": "latency and most importantly keep all",
            "start": 153.04,
            "duration": 3.36
        },
        {
            "text": "the chat messages with your AI",
            "start": 154.879,
            "duration": 4.08
        },
        {
            "text": "girlfriend private on device but Apple's",
            "start": 156.4,
            "duration": 4.6
        },
        {
            "text": "lead may not last very long in just a",
            "start": 158.959,
            "duration": 4.0
        },
        {
            "text": "couple weeks Qualcomm is expected to",
            "start": 161.0,
            "duration": 4.519
        },
        {
            "text": "release the Snapdragon X Elite chip",
            "start": 162.959,
            "duration": 4.481
        },
        {
            "text": "which could outperform the M4 and would",
            "start": 165.519,
            "duration": 3.881
        },
        {
            "text": "be the chip running Windows on Surface",
            "start": 167.44,
            "duration": 4.159
        },
        {
            "text": "laptops they claim it can do 45 trillion",
            "start": 169.4,
            "duration": 4.8
        },
        {
            "text": "operations per second versus a measly 38",
            "start": 171.599,
            "duration": 4.681
        },
        {
            "text": "trillion operations per second on the M4",
            "start": 174.2,
            "duration": 3.319
        },
        {
            "text": "although they might be cheating on these",
            "start": 176.28,
            "duration": 2.599
        },
        {
            "text": "benchmarks now the reason they're",
            "start": 177.519,
            "duration": 3.241
        },
        {
            "text": "competing so fiercely on these numbers",
            "start": 178.879,
            "duration": 3.601
        },
        {
            "text": "is because in the near future the device",
            "start": 180.76,
            "duration": 3.759
        },
        {
            "text": "that can run the best AI model natively",
            "start": 182.48,
            "duration": 3.839
        },
        {
            "text": "is the device that people will buy Apple",
            "start": 184.519,
            "duration": 3.36
        },
        {
            "text": "is in the business of selling hardware",
            "start": 186.319,
            "duration": 2.961
        },
        {
            "text": "and strategically it would be pretty",
            "start": 187.879,
            "duration": 3.36
        },
        {
            "text": "embarrassing if Microsoft laptops could",
            "start": 189.28,
            "duration": 3.679
        },
        {
            "text": "run AI better than Apple you should see",
            "start": 191.239,
            "duration": 2.961
        },
        {
            "text": "what this guy can do with a spreadsheet",
            "start": 192.959,
            "duration": 3.801
        },
        {
            "text": "it's insane sh but with all this talk",
            "start": 194.2,
            "duration": 5.399
        },
        {
            "text": "about arm you might be wondering is x86",
            "start": 196.76,
            "duration": 4.92
        },
        {
            "text": "now a dead technology well some people",
            "start": 199.599,
            "duration": 3.601
        },
        {
            "text": "out there make a pretty good argument",
            "start": 201.68,
            "duration": 4.36
        },
        {
            "text": "that x86 needs to die but keep in mind",
            "start": 203.2,
            "duration": 4.959
        },
        {
            "text": "it's been around for over 45 years and",
            "start": 206.04,
            "duration": 3.8
        },
        {
            "text": "it's so deeply embedded in modern infast",
            "start": 208.159,
            "duration": 3.041
        },
        {
            "text": "structure that it's likely going to",
            "start": 209.84,
            "duration": 3.08
        },
        {
            "text": "outlive everyone here on planet Earth",
            "start": 211.2,
            "duration": 3.92
        },
        {
            "text": "today in addition just the other day",
            "start": 212.92,
            "duration": 4.0
        },
        {
            "text": "documents were leaked about Intel's new",
            "start": 215.12,
            "duration": 3.6
        },
        {
            "text": "aerol Lake processor which has been",
            "start": 216.92,
            "duration": 3.679
        },
        {
            "text": "built from the ground up to consume less",
            "start": 218.72,
            "duration": 3.96
        },
        {
            "text": "power and could potentially handle over",
            "start": 220.599,
            "duration": 4.0
        },
        {
            "text": "100 trillion operations per second in",
            "start": 222.68,
            "duration": 4.08
        },
        {
            "text": "addition AMD is also coming out with the",
            "start": 224.599,
            "duration": 4.601
        },
        {
            "text": "new ryzen AI 9 and now we're starting to",
            "start": 226.76,
            "duration": 4.32
        },
        {
            "text": "see a pattern emerge here the company",
            "start": 229.2,
            "duration": 3.84
        },
        {
            "text": "that can maximize the AI cringe level on",
            "start": 231.08,
            "duration": 3.56
        },
        {
            "text": "their branding is the company that will",
            "start": 233.04,
            "duration": 3.399
        },
        {
            "text": "ultimately win this race and that's why",
            "start": 234.64,
            "duration": 4.2
        },
        {
            "text": "next month at WWDC it's rumored that",
            "start": 236.439,
            "duration": 4.321
        },
        {
            "text": "Apple will finally the MacBook",
            "start": 238.84,
            "duration": 4.399
        },
        {
            "text": "Singularity Blaster turbo Pro Max this",
            "start": 240.76,
            "duration": 4.0
        },
        {
            "text": "has been the code report thanks for",
            "start": 243.239,
            "duration": 3.241
        },
        {
            "text": "watching and I will see you in the next",
            "start": 244.76,
            "duration": 4.199
        },
        {
            "text": "one",
            "start": 246.48,
            "duration": 2.479
        }
    ],
    "stats": {
        "viewCount": "1172416",
        "likeCount": "48694",
        "favoriteCount": "0",
        "commentCount": "1740"
    }
}