{
    "id": "U_QNznf2FZA",
    "title": "JPG vs PNG vs WEBP vs GIF vs SVG",
    "publishedAt": "2022-12-30T20:53:05Z",
    "captions": [
        {
            "text": "jpeg PNG webp GIF and SVG what's the",
            "start": 0.0,
            "duration": 4.86
        },
        {
            "text": "difference between these image formats",
            "start": 3.36,
            "duration": 2.939
        },
        {
            "text": "let's simplify the equation by",
            "start": 4.86,
            "duration": 3.36
        },
        {
            "text": "separating the raster formats from the",
            "start": 6.299,
            "duration": 4.081
        },
        {
            "text": "vector formats a raster or bitmap is",
            "start": 8.22,
            "duration": 4.02
        },
        {
            "text": "like a grid of pixels best suited for",
            "start": 10.38,
            "duration": 3.48
        },
        {
            "text": "complex pictures like the ones you take",
            "start": 12.24,
            "duration": 3.24
        },
        {
            "text": "on your camera but they require lots of",
            "start": 13.86,
            "duration": 3.419
        },
        {
            "text": "memory at high resolution and lose their",
            "start": 15.48,
            "duration": 4.139
        },
        {
            "text": "Clarity when scaled up JPEG and PNG are",
            "start": 17.279,
            "duration": 4.561
        },
        {
            "text": "the ogs from the 90s jpeg is smaller",
            "start": 19.619,
            "duration": 3.721
        },
        {
            "text": "because it doesn't support transparency",
            "start": 21.84,
            "duration": 4.32
        },
        {
            "text": "and uses lossy compression while PNG has",
            "start": 23.34,
            "duration": 4.98
        },
        {
            "text": "transparency with lossless compression",
            "start": 26.16,
            "duration": 4.439
        },
        {
            "text": "GIF not GIF is similar but can also",
            "start": 28.32,
            "duration": 4.56
        },
        {
            "text": "combine frames to make animations webp",
            "start": 30.599,
            "duration": 4.201
        },
        {
            "text": "is a new format from Google that has the",
            "start": 32.88,
            "duration": 3.48
        },
        {
            "text": "best of all worlds with smaller",
            "start": 34.8,
            "duration": 3.54
        },
        {
            "text": "transparent animatable images on the",
            "start": 36.36,
            "duration": 3.84
        },
        {
            "text": "other side we have vector image formats",
            "start": 38.34,
            "duration": 3.539
        },
        {
            "text": "that are good for flat Graphics like",
            "start": 40.2,
            "duration": 3.42
        },
        {
            "text": "logos and icons because they use",
            "start": 41.879,
            "duration": 4.2
        },
        {
            "text": "geometry and code to represent the image",
            "start": 43.62,
            "duration": 4.32
        },
        {
            "text": "which means it can be scaled to any size",
            "start": 46.079,
            "duration": 4.021
        },
        {
            "text": "without losing resolution hence the name",
            "start": 47.94,
            "duration": 5.54
        },
        {
            "text": "scalable vector graphics",
            "start": 50.1,
            "duration": 3.38
        }
    ],
    "stats": {
        "viewCount": "1119603",
        "likeCount": "81457",
        "favoriteCount": "0",
        "commentCount": "1204"
    }
}