{
    "id": "uEJ-Rnm2yOE",
    "title": "SvelteKit is my mistress",
    "publishedAt": "2022-12-15T16:21:38Z",
    "captions": [
        {
            "text": "it is December 15 2022 and you're",
            "start": 1.26,
            "duration": 4.92
        },
        {
            "text": "watching the code report after what felt",
            "start": 4.14,
            "duration": 4.02
        },
        {
            "text": "like a lifetime of waiting spelled kit",
            "start": 6.18,
            "duration": 4.02
        },
        {
            "text": "officially hit version 1.0 yesterday",
            "start": 8.16,
            "duration": 4.14
        },
        {
            "text": "which is a full stack framework for the",
            "start": 10.2,
            "duration": 4.14
        },
        {
            "text": "world's most loved UI Library when I",
            "start": 12.3,
            "duration": 3.48
        },
        {
            "text": "tried spell for the first time over",
            "start": 14.34,
            "duration": 3.42
        },
        {
            "text": "three years ago it left me extremely",
            "start": 15.78,
            "duration": 4.02
        },
        {
            "text": "titillated it had an Innovative compiler",
            "start": 17.76,
            "duration": 4.2
        },
        {
            "text": "elegant reactivity and we just had so",
            "start": 19.8,
            "duration": 4.08
        },
        {
            "text": "much fun together",
            "start": 21.96,
            "duration": 4.02
        },
        {
            "text": "as the years went on I continued working",
            "start": 23.88,
            "duration": 4.319
        },
        {
            "text": "with react and angular but truth be told",
            "start": 25.98,
            "duration": 4.26
        },
        {
            "text": "I would often close my eyes and pretend",
            "start": 28.199,
            "duration": 3.721
        },
        {
            "text": "that they were actually spell I was web",
            "start": 30.24,
            "duration": 3.78
        },
        {
            "text": "developmentally frustrated but luckily",
            "start": 31.92,
            "duration": 3.6
        },
        {
            "text": "just in time for Christmas we've",
            "start": 34.02,
            "duration": 3.539
        },
        {
            "text": "achieved a glorious climax that makes it",
            "start": 35.52,
            "duration": 3.48
        },
        {
            "text": "possible to use felt in a",
            "start": 37.559,
            "duration": 3.301
        },
        {
            "text": "server-rendered application let's take a",
            "start": 39.0,
            "duration": 3.6
        },
        {
            "text": "look at some code and see if it lives up",
            "start": 40.86,
            "duration": 4.019
        },
        {
            "text": "to all of these innuendos spelled kit is",
            "start": 42.6,
            "duration": 4.2
        },
        {
            "text": "very similar to other JavaScript meta",
            "start": 44.879,
            "duration": 4.5
        },
        {
            "text": "Frameworks Like nextjs Remix and nuxt",
            "start": 46.8,
            "duration": 5.22
        },
        {
            "text": "like next js13 it uses file system",
            "start": 49.379,
            "duration": 4.441
        },
        {
            "text": "routing but made a somewhat",
            "start": 52.02,
            "duration": 4.019
        },
        {
            "text": "controversial decision of using reserved",
            "start": 53.82,
            "duration": 4.379
        },
        {
            "text": "names to represent different types of UI",
            "start": 56.039,
            "duration": 4.86
        },
        {
            "text": "like page layout loading and error in",
            "start": 58.199,
            "duration": 4.261
        },
        {
            "text": "addition any file that has significance",
            "start": 60.899,
            "duration": 3.66
        },
        {
            "text": "to the framework is prefixed with a plus",
            "start": 62.46,
            "duration": 3.659
        },
        {
            "text": "sign there's been a lot of discussion",
            "start": 64.559,
            "duration": 3.181
        },
        {
            "text": "around this approach and not everybody",
            "start": 66.119,
            "duration": 3.481
        },
        {
            "text": "likes it because you end up with tons of",
            "start": 67.74,
            "duration": 3.72
        },
        {
            "text": "files in the project with the exact same",
            "start": 69.6,
            "duration": 3.66
        },
        {
            "text": "name which can lead to migraines if you",
            "start": 71.46,
            "duration": 3.24
        },
        {
            "text": "expand all the directories in your",
            "start": 73.26,
            "duration": 3.12
        },
        {
            "text": "editor on the other hand though these",
            "start": 74.7,
            "duration": 3.54
        },
        {
            "text": "conventions keep your project clear and",
            "start": 76.38,
            "duration": 4.02
        },
        {
            "text": "consistent page.spelt contains a",
            "start": 78.24,
            "duration": 3.9
        },
        {
            "text": "component that will be server rendered",
            "start": 80.4,
            "duration": 3.18
        },
        {
            "text": "when you navigate to that route after",
            "start": 82.14,
            "duration": 3.42
        },
        {
            "text": "the initial page load it will hydrate",
            "start": 83.58,
            "duration": 3.42
        },
        {
            "text": "and then the client-side router takes",
            "start": 85.56,
            "duration": 3.66
        },
        {
            "text": "over from there this is what we call SSR",
            "start": 87.0,
            "duration": 3.54
        },
        {
            "text": "and I think it's the most sensible",
            "start": 89.22,
            "duration": 3.539
        },
        {
            "text": "default however in spelled kit you can",
            "start": 90.54,
            "duration": 4.02
        },
        {
            "text": "mix and match other rendering strategies",
            "start": 92.759,
            "duration": 4.261
        },
        {
            "text": "like you can pre-render static HTML for",
            "start": 94.56,
            "duration": 4.8
        },
        {
            "text": "Jam stack style websites or if no server",
            "start": 97.02,
            "duration": 4.08
        },
        {
            "text": "is required you can use client rendering",
            "start": 99.36,
            "duration": 3.84
        },
        {
            "text": "to do everything in the browser or on",
            "start": 101.1,
            "duration": 3.42
        },
        {
            "text": "the flip side if you don't want any",
            "start": 103.2,
            "duration": 2.82
        },
        {
            "text": "JavaScript at all you can render",
            "start": 104.52,
            "duration": 3.0
        },
        {
            "text": "everything on the server like a",
            "start": 106.02,
            "duration": 3.0
        },
        {
            "text": "traditional multi-page application",
            "start": 107.52,
            "duration": 3.239
        },
        {
            "text": "what's awesome though is that you can",
            "start": 109.02,
            "duration": 3.66
        },
        {
            "text": "choose the best rendering strategy for a",
            "start": 110.759,
            "duration": 3.9
        },
        {
            "text": "page with a simple configuration option",
            "start": 112.68,
            "duration": 3.479
        },
        {
            "text": "you're not locked into just one",
            "start": 114.659,
            "duration": 3.541
        },
        {
            "text": "rendering Paradigm that's awesome but",
            "start": 116.159,
            "duration": 3.181
        },
        {
            "text": "the other big thing you'll want to know",
            "start": 118.2,
            "duration": 2.82
        },
        {
            "text": "about the developer experience is how",
            "start": 119.34,
            "duration": 3.959
        },
        {
            "text": "data fetching works every page.svelt",
            "start": 121.02,
            "duration": 5.16
        },
        {
            "text": "file can have a matching page.js or TS",
            "start": 123.299,
            "duration": 5.46
        },
        {
            "text": "file that exports a load function the",
            "start": 126.18,
            "duration": 4.439
        },
        {
            "text": "return value from this function will",
            "start": 128.759,
            "duration": 3.661
        },
        {
            "text": "automatically be made available in the",
            "start": 130.619,
            "duration": 4.321
        },
        {
            "text": "page.spilt file via this data variable",
            "start": 132.42,
            "duration": 4.86
        },
        {
            "text": "it's incredibly simple and also provides",
            "start": 134.94,
            "duration": 4.26
        },
        {
            "text": "end-to-end type safety the load function",
            "start": 137.28,
            "duration": 4.02
        },
        {
            "text": "can run both server side and client-side",
            "start": 139.2,
            "duration": 4.14
        },
        {
            "text": "however if you want to limit it to just",
            "start": 141.3,
            "duration": 4.2
        },
        {
            "text": "the server you can do that by adding",
            "start": 143.34,
            "duration": 4.259
        },
        {
            "text": "server to the file name and speaking of",
            "start": 145.5,
            "duration": 4.08
        },
        {
            "text": "server I love spell Kit's convention for",
            "start": 147.599,
            "duration": 4.621
        },
        {
            "text": "building apis you create a server.js",
            "start": 149.58,
            "duration": 5.46
        },
        {
            "text": "file then export functions named as HTTP",
            "start": 152.22,
            "duration": 5.34
        },
        {
            "text": "verbs like get post patch and so on",
            "start": 155.04,
            "duration": 4.199
        },
        {
            "text": "that's nice but here's where things get",
            "start": 157.56,
            "duration": 3.539
        },
        {
            "text": "really cool in many applications you",
            "start": 159.239,
            "duration": 3.601
        },
        {
            "text": "need to fetch data at multiple levels",
            "start": 161.099,
            "duration": 3.42
        },
        {
            "text": "like you might have user data at the",
            "start": 162.84,
            "duration": 3.72
        },
        {
            "text": "root than a dashboard with an order then",
            "start": 164.519,
            "duration": 3.901
        },
        {
            "text": "some comments below it fetching all this",
            "start": 166.56,
            "duration": 3.66
        },
        {
            "text": "data is complex and people have come up",
            "start": 168.42,
            "duration": 3.179
        },
        {
            "text": "with all kinds of complex State",
            "start": 170.22,
            "duration": 3.599
        },
        {
            "text": "Management libraries that try to Wrangle",
            "start": 171.599,
            "duration": 4.14
        },
        {
            "text": "the complexity in spell kit you can do",
            "start": 173.819,
            "duration": 3.661
        },
        {
            "text": "nested routing with layouts that can",
            "start": 175.739,
            "duration": 3.601
        },
        {
            "text": "share UI with their children and also",
            "start": 177.48,
            "duration": 3.96
        },
        {
            "text": "fetch data that's accessible by the",
            "start": 179.34,
            "duration": 3.96
        },
        {
            "text": "children but what's special about svelte",
            "start": 181.44,
            "duration": 4.2
        },
        {
            "text": "is that it has built-in stores the page",
            "start": 183.3,
            "duration": 4.26
        },
        {
            "text": "store gives you access to all the data",
            "start": 185.64,
            "duration": 3.42
        },
        {
            "text": "on the current page and can be",
            "start": 187.56,
            "duration": 3.48
        },
        {
            "text": "subscribed to with reactive updates from",
            "start": 189.06,
            "duration": 3.899
        },
        {
            "text": "anywhere in the application by putting a",
            "start": 191.04,
            "duration": 3.779
        },
        {
            "text": "dollar sign in front of it angular has",
            "start": 192.959,
            "duration": 3.121
        },
        {
            "text": "actually been doing stuff like this for",
            "start": 194.819,
            "duration": 3.06
        },
        {
            "text": "years with its async pipe and I can tell",
            "start": 196.08,
            "duration": 3.48
        },
        {
            "text": "you from experience that patterns like",
            "start": 197.879,
            "duration": 3.601
        },
        {
            "text": "this eliminate tons of complexity when",
            "start": 199.56,
            "duration": 3.66
        },
        {
            "text": "it comes to State Management now it's",
            "start": 201.48,
            "duration": 3.119
        },
        {
            "text": "also important to know that when",
            "start": 203.22,
            "duration": 3.299
        },
        {
            "text": "fetching data you can have error and",
            "start": 204.599,
            "duration": 4.441
        },
        {
            "text": "loading files that represent the UI for",
            "start": 206.519,
            "duration": 4.261
        },
        {
            "text": "those special States this pattern is",
            "start": 209.04,
            "duration": 3.779
        },
        {
            "text": "basically identical to nextjs version",
            "start": 210.78,
            "duration": 4.379
        },
        {
            "text": "13. in addition spell kit has form",
            "start": 212.819,
            "duration": 3.84
        },
        {
            "text": "actions which allow you to Define",
            "start": 215.159,
            "duration": 3.66
        },
        {
            "text": "functions on the server that handle form",
            "start": 216.659,
            "duration": 4.021
        },
        {
            "text": "submissions at this point pretty much",
            "start": 218.819,
            "duration": 3.601
        },
        {
            "text": "every modern framework has stolen this",
            "start": 220.68,
            "duration": 3.72
        },
        {
            "text": "feature from remix which itself got the",
            "start": 222.42,
            "duration": 3.599
        },
        {
            "text": "idea from the way every other PHP",
            "start": 224.4,
            "duration": 2.88
        },
        {
            "text": "framework has worked since the beginning",
            "start": 226.019,
            "duration": 3.421
        },
        {
            "text": "of time and another piece of bonus news",
            "start": 227.28,
            "duration": 4.44
        },
        {
            "text": "is that spelled kit is also getting a",
            "start": 229.44,
            "duration": 4.62
        },
        {
            "text": "library very similar to next auth for",
            "start": 231.72,
            "duration": 4.439
        },
        {
            "text": "user authentication Rich Harris the",
            "start": 234.06,
            "duration": 3.959
        },
        {
            "text": "creator of spelled and spell kit works",
            "start": 236.159,
            "duration": 3.841
        },
        {
            "text": "at versel and the team from next auth",
            "start": 238.019,
            "duration": 3.661
        },
        {
            "text": "developed this Library which is awesome",
            "start": 240.0,
            "duration": 2.819
        },
        {
            "text": "because that means it's getting",
            "start": 241.68,
            "duration": 3.36
        },
        {
            "text": "world-class tools proven to work at the",
            "start": 242.819,
            "duration": 4.381
        },
        {
            "text": "largest scale overall spelled kit is a",
            "start": 245.04,
            "duration": 3.9
        },
        {
            "text": "genre defining Masterpiece if you want",
            "start": 247.2,
            "duration": 3.599
        },
        {
            "text": "to penetrate deeper into this topic stay",
            "start": 248.94,
            "duration": 4.079
        },
        {
            "text": "tuned for a full uncensored tutorial on",
            "start": 250.799,
            "duration": 3.901
        },
        {
            "text": "Beyond fireship this has been the code",
            "start": 253.019,
            "duration": 3.661
        },
        {
            "text": "report thanks for watching and I will",
            "start": 254.7,
            "duration": 4.999
        },
        {
            "text": "see you in the next one",
            "start": 256.68,
            "duration": 3.019
        }
    ],
    "stats": {
        "viewCount": "411475",
        "likeCount": "17781",
        "favoriteCount": "0",
        "commentCount": "600"
    }
}