{
    "id": "vFW_TxKLyrE",
    "title": "Expo in 100 Seconds",
    "publishedAt": "2024-02-22T19:09:16Z",
    "captions": [
        {
            "text": "Expo an open source tool set for",
            "start": 0.28,
            "duration": 4.44
        },
        {
            "text": "building Universal native apps on iOS",
            "start": 2.28,
            "duration": 4.559
        },
        {
            "text": "Android and the web with a single react",
            "start": 4.72,
            "duration": 3.919
        },
        {
            "text": "code base normally developers need to",
            "start": 6.839,
            "duration": 3.961
        },
        {
            "text": "write Swift code for apple or cotlin for",
            "start": 8.639,
            "duration": 4.04
        },
        {
            "text": "Android to build a mobile app and that",
            "start": 10.8,
            "duration": 3.4
        },
        {
            "text": "sucks if you're a web developer because",
            "start": 12.679,
            "duration": 3.36
        },
        {
            "text": "now you need to learn two new languages",
            "start": 14.2,
            "duration": 3.919
        },
        {
            "text": "luckily react native fixes this by using",
            "start": 16.039,
            "duration": 4.0
        },
        {
            "text": "a JavaScript bridge that allows react",
            "start": 18.119,
            "duration": 3.881
        },
        {
            "text": "components to represent native UI",
            "start": 20.039,
            "duration": 4.041
        },
        {
            "text": "components if the code looks like HTML",
            "start": 22.0,
            "duration": 3.96
        },
        {
            "text": "and CSS but you're actually building",
            "start": 24.08,
            "duration": 4.0
        },
        {
            "text": "truly native widgets the real deal not",
            "start": 25.96,
            "duration": 3.6
        },
        {
            "text": "just a web view that's embedded in a",
            "start": 28.08,
            "duration": 3.359
        },
        {
            "text": "native app and can interact with Native",
            "start": 29.56,
            "duration": 3.96
        },
        {
            "text": "apis like the camera keyboard and",
            "start": 31.439,
            "duration": 3.841
        },
        {
            "text": "vibrator pretty cool but here's where",
            "start": 33.52,
            "duration": 3.879
        },
        {
            "text": "expo comes in first run this command to",
            "start": 35.28,
            "duration": 3.84
        },
        {
            "text": "generate a project template it takes",
            "start": 37.399,
            "duration": 3.441
        },
        {
            "text": "care of all the annoying configuration",
            "start": 39.12,
            "duration": 3.439
        },
        {
            "text": "so you can start writing code right away",
            "start": 40.84,
            "duration": 4.039
        },
        {
            "text": "inside this project we can use npm to",
            "start": 42.559,
            "duration": 4.921
        },
        {
            "text": "instantly run this app on iOS Android",
            "start": 44.879,
            "duration": 4.68
        },
        {
            "text": "and the web by simply running an npm",
            "start": 47.48,
            "duration": 3.599
        },
        {
            "text": "command and if we go into the code and",
            "start": 49.559,
            "duration": 3.401
        },
        {
            "text": "make some changes to the UI the app will",
            "start": 51.079,
            "duration": 3.8
        },
        {
            "text": "hot reload to reflect the changes or you",
            "start": 52.96,
            "duration": 3.8
        },
        {
            "text": "can test the app in a sandbox with tools",
            "start": 54.879,
            "duration": 3.721
        },
        {
            "text": "like Expo go what's unique about this",
            "start": 56.76,
            "duration": 3.72
        },
        {
            "text": "code though is this app Direct directory",
            "start": 58.6,
            "duration": 3.919
        },
        {
            "text": "which uses file system based routing",
            "start": 60.48,
            "duration": 3.719
        },
        {
            "text": "very similar to react Frameworks like",
            "start": 62.519,
            "duration": 3.681
        },
        {
            "text": "nextjs and remix this allows you to",
            "start": 64.199,
            "duration": 3.721
        },
        {
            "text": "create screens that are automatically",
            "start": 66.2,
            "duration": 3.44
        },
        {
            "text": "deep linkable on mobile and you can",
            "start": 67.92,
            "duration": 3.48
        },
        {
            "text": "navigate between them in the UI with the",
            "start": 69.64,
            "duration": 3.72
        },
        {
            "text": "link component but on mobile platforms",
            "start": 71.4,
            "duration": 3.64
        },
        {
            "text": "we navigate by pushing and popping",
            "start": 73.36,
            "duration": 4.0
        },
        {
            "text": "screens to the navigation stack in Expo",
            "start": 75.04,
            "duration": 4.16
        },
        {
            "text": "we can easily control that behavior with",
            "start": 77.36,
            "duration": 3.64
        },
        {
            "text": "attributes like push and replace on the",
            "start": 79.2,
            "duration": 3.8
        },
        {
            "text": "link or use the router module directly",
            "start": 81.0,
            "duration": 4.159
        },
        {
            "text": "to navigate imperatively in addition the",
            "start": 83.0,
            "duration": 4.28
        },
        {
            "text": "Expo router can also use layouts to",
            "start": 85.159,
            "duration": 4.801
        },
        {
            "text": "share UI across multiple pages and also",
            "start": 87.28,
            "duration": 4.6
        },
        {
            "text": "represent more advanced routing patterns",
            "start": 89.96,
            "duration": 4.0
        },
        {
            "text": "like tabs and moduls Beyond routing",
            "start": 91.88,
            "duration": 3.96
        },
        {
            "text": "though Expo provides tons of libraries",
            "start": 93.96,
            "duration": 4.0
        },
        {
            "text": "for working with Native apis need a",
            "start": 95.84,
            "duration": 4.08
        },
        {
            "text": "camera use Expo to install the camera",
            "start": 97.96,
            "duration": 3.72
        },
        {
            "text": "package and simply use the camera view",
            "start": 99.92,
            "duration": 3.8
        },
        {
            "text": "component in your UI the same goes for",
            "start": 101.68,
            "duration": 4.0
        },
        {
            "text": "maps sensors and virtually every other",
            "start": 103.72,
            "duration": 4.28
        },
        {
            "text": "use case and has Integrations with tools",
            "start": 105.68,
            "duration": 4.32
        },
        {
            "text": "like Firebase and superbase to connect",
            "start": 108.0,
            "duration": 3.96
        },
        {
            "text": "to backend Cloud infrastructure what's",
            "start": 110.0,
            "duration": 3.28
        },
        {
            "text": "weird though is you'll notice our",
            "start": 111.96,
            "duration": 3.439
        },
        {
            "text": "project is missing Android and iOS",
            "start": 113.28,
            "duration": 4.199
        },
        {
            "text": "directories Expo developed a technique",
            "start": 115.399,
            "duration": 4.0
        },
        {
            "text": "called continuous native generation",
            "start": 117.479,
            "duration": 3.32
        },
        {
            "text": "where Native code is generated",
            "start": 119.399,
            "duration": 3.32
        },
        {
            "text": "predictably from a set of inputs and",
            "start": 120.799,
            "duration": 3.64
        },
        {
            "text": "that's awesome because trust me as a",
            "start": 122.719,
            "duration": 3.161
        },
        {
            "text": "JavaScript developer when you start",
            "start": 124.439,
            "duration": 3.241
        },
        {
            "text": "touching Java and Objective C code in",
            "start": 125.88,
            "duration": 3.28
        },
        {
            "text": "these directories things are going to",
            "start": 127.68,
            "duration": 3.12
        },
        {
            "text": "break now finally after you build an",
            "start": 129.16,
            "duration": 3.48
        },
        {
            "text": "awesome app automate testing on Native",
            "start": 130.8,
            "duration": 3.68
        },
        {
            "text": "devices and emulators thanks to its",
            "start": 132.64,
            "duration": 3.76
        },
        {
            "text": "integration with detox now let's get",
            "start": 134.48,
            "duration": 3.92
        },
        {
            "text": "this app to our end users on the web we",
            "start": 136.4,
            "duration": 3.72
        },
        {
            "text": "can statically render our pages and",
            "start": 138.4,
            "duration": 3.839
        },
        {
            "text": "upload them to any web host on Mobile",
            "start": 140.12,
            "duration": 3.6
        },
        {
            "text": "Expo can automate your builds in the",
            "start": 142.239,
            "duration": 3.481
        },
        {
            "text": "cloud then submit them to Google play in",
            "start": 143.72,
            "duration": 3.599
        },
        {
            "text": "the Apple App Store you don't even need",
            "start": 145.72,
            "duration": 4.08
        },
        {
            "text": "a Mac congratulations you're now a cross",
            "start": 147.319,
            "duration": 4.64
        },
        {
            "text": "platform developer this has been Expo in",
            "start": 149.8,
            "duration": 3.719
        },
        {
            "text": "100 seconds let me know what you want to",
            "start": 151.959,
            "duration": 3.241
        },
        {
            "text": "learn about next in the comments thanks",
            "start": 153.519,
            "duration": 3.281
        },
        {
            "text": "for watching and I will see you in the",
            "start": 155.2,
            "duration": 2.44
        },
        {
            "text": "next",
            "start": 156.8,
            "duration": 3.84
        },
        {
            "text": "one",
            "start": 157.64,
            "duration": 3.0
        }
    ],
    "stats": {
        "viewCount": "528782",
        "likeCount": "32298",
        "favoriteCount": "0",
        "commentCount": "1175"
    }
}