{
    "id": "Dn800rlPIho",
    "title": "TakeTuesday E03: Introduction to LuaSnip",
    "publishedAt": "2022-02-08T15:00:11Z",
    "captions": [
        {
            "text": "everybody loves writing code fast but",
            "start": 0.24,
            "duration": 5.92
        },
        {
            "text": "nobody likes typing what they've written",
            "start": 3.36,
            "duration": 4.64
        },
        {
            "text": "in the past hi",
            "start": 6.16,
            "duration": 4.559
        },
        {
            "text": "b.a maze here to tell you about our",
            "start": 8.0,
            "duration": 6.0
        },
        {
            "text": "brand new plugin lua snips it's the",
            "start": 10.719,
            "duration": 4.401
        },
        {
            "text": "fastest",
            "start": 14.0,
            "duration": 4.8
        },
        {
            "text": "easiest and safest way to cut your",
            "start": 15.12,
            "duration": 7.6
        },
        {
            "text": "keystrokes each and every day the secret",
            "start": 18.8,
            "duration": 7.36
        },
        {
            "text": "is the packless technology built",
            "start": 22.72,
            "duration": 6.16
        },
        {
            "text": "directly into your plugin",
            "start": 26.16,
            "duration": 4.8
        },
        {
            "text": "simply define",
            "start": 28.88,
            "duration": 5.44
        },
        {
            "text": "type and expand your trigger and watch",
            "start": 30.96,
            "duration": 7.119
        },
        {
            "text": "your code get bigger and bigger stop",
            "start": 34.32,
            "duration": 7.68
        },
        {
            "text": "typing boring boilerplate instead code",
            "start": 38.079,
            "duration": 5.521
        },
        {
            "text": "confidently",
            "start": 42.0,
            "duration": 4.079
        },
        {
            "text": "bouncing beautifully through easily",
            "start": 43.6,
            "duration": 5.92
        },
        {
            "text": "expanded bountiful bites",
            "start": 46.079,
            "duration": 5.761
        },
        {
            "text": "you could spend hundreds of hours",
            "start": 49.52,
            "duration": 5.039
        },
        {
            "text": "filling in those blanks but with lua",
            "start": 51.84,
            "duration": 5.52
        },
        {
            "text": "snips you'll be a 10x dev you can take",
            "start": 54.559,
            "duration": 7.121
        },
        {
            "text": "that to the bank no more being clunky",
            "start": 57.36,
            "duration": 7.759
        },
        {
            "text": "and slow when you use snippets away",
            "start": 61.68,
            "duration": 6.56
        },
        {
            "text": "you'll go build functions with a single",
            "start": 65.119,
            "duration": 7.521
        },
        {
            "text": "key surpass your co-workers ide i used",
            "start": 68.24,
            "duration": 6.08
        },
        {
            "text": "to be the laughing stock in my office",
            "start": 72.64,
            "duration": 3.519
        },
        {
            "text": "co-workers giggling behind my back while",
            "start": 74.32,
            "duration": 3.839
        },
        {
            "text": "i slowly type boilerplate then i found",
            "start": 76.159,
            "duration": 4.401
        },
        {
            "text": "lewis snips and my whole life did a 360.",
            "start": 78.159,
            "duration": 4.0
        },
        {
            "text": "now i'm the one laughing because i",
            "start": 80.56,
            "duration": 3.68
        },
        {
            "text": "barely type anymore just snip it and",
            "start": 82.159,
            "duration": 5.441
        },
        {
            "text": "forget it amazing now that's the power",
            "start": 84.24,
            "duration": 6.72
        },
        {
            "text": "of snippets picture perfect results",
            "start": 87.6,
            "duration": 7.04
        },
        {
            "text": "every time in this exclusive offer",
            "start": 90.96,
            "duration": 6.24
        },
        {
            "text": "you'll be able to experience the joy of",
            "start": 94.64,
            "duration": 6.0
        },
        {
            "text": "snippets for the low low price of 19",
            "start": 97.2,
            "duration": 7.04
        },
        {
            "text": "minutes and 99 seconds but wait there's",
            "start": 100.64,
            "duration": 7.36
        },
        {
            "text": "more call now to triple your offer and",
            "start": 104.24,
            "duration": 6.879
        },
        {
            "text": "to receive the complete lua snips guide",
            "start": 108.0,
            "duration": 4.88
        },
        {
            "text": "which includes",
            "start": 111.119,
            "duration": 4.401
        },
        {
            "text": "introduction to lua snips",
            "start": 112.88,
            "duration": 5.68
        },
        {
            "text": "customizing lewiston",
            "start": 115.52,
            "duration": 6.559
        },
        {
            "text": "advanced features of lewisnips that's a",
            "start": 118.56,
            "duration": 7.44
        },
        {
            "text": "one million dollar value absolutely free",
            "start": 122.079,
            "duration": 5.761
        },
        {
            "text": "just pay shipping and handling and",
            "start": 126.0,
            "duration": 3.44
        },
        {
            "text": "here's how to order",
            "start": 127.84,
            "duration": 4.64
        },
        {
            "text": "call now to get your exclusive youtube",
            "start": 129.44,
            "duration": 5.92
        },
        {
            "text": "offer that's",
            "start": 132.48,
            "duration": 2.88
        },
        {
            "text": "and you'll receive 1-800-582-7647 entire",
            "start": 140.959,
            "duration": 4.64
        },
        {
            "text": "lewis zip collection absolutely free",
            "start": 142.64,
            "duration": 5.52
        },
        {
            "text": "just pay shipping and handling it's our",
            "start": 145.599,
            "duration": 6.321
        },
        {
            "text": "30-day money-back guarantee",
            "start": 148.16,
            "duration": 7.439
        },
        {
            "text": "what's up youtube it's episode three",
            "start": 151.92,
            "duration": 6.16
        },
        {
            "text": "of",
            "start": 155.599,
            "duration": 2.481
        },
        {
            "text": "tuesday",
            "start": 159.44,
            "duration": 6.159
        },
        {
            "text": "yup we are here we are working on lua",
            "start": 162.239,
            "duration": 6.08
        },
        {
            "text": "snip today this one has been a long time",
            "start": 165.599,
            "duration": 4.161
        },
        {
            "text": "in the making i mean",
            "start": 168.319,
            "duration": 4.721
        },
        {
            "text": "we've been planning we've been scheming",
            "start": 169.76,
            "duration": 5.36
        },
        {
            "text": "we've been innovating i mean we've done",
            "start": 173.04,
            "duration": 4.16
        },
        {
            "text": "everything we possibly can to get this",
            "start": 175.12,
            "duration": 4.96
        },
        {
            "text": "plug-in into a format that will give you",
            "start": 177.2,
            "duration": 4.72
        },
        {
            "text": "the steps and knowledge you need to take",
            "start": 180.08,
            "duration": 3.68
        },
        {
            "text": "yourself from i don't even know what a",
            "start": 181.92,
            "duration": 5.52
        },
        {
            "text": "snippet is to wow i can't believe neovim",
            "start": 183.76,
            "duration": 4.8
        },
        {
            "text": "can do that and i'm going to show you",
            "start": 187.44,
            "duration": 2.56
        },
        {
            "text": "both of those today",
            "start": 188.56,
            "duration": 3.039
        },
        {
            "text": "but we actually need to break that",
            "start": 190.0,
            "duration": 5.2
        },
        {
            "text": "series into three videos three because",
            "start": 191.599,
            "duration": 4.801
        },
        {
            "text": "if we don't it's gonna be too",
            "start": 195.2,
            "duration": 3.52
        },
        {
            "text": "complicated so what are we doing today",
            "start": 196.4,
            "duration": 4.559
        },
        {
            "text": "we're gonna do part one part one",
            "start": 198.72,
            "duration": 4.4
        },
        {
            "text": "involves figuring out what options you",
            "start": 200.959,
            "duration": 3.92
        },
        {
            "text": "need to set what key maps you need and",
            "start": 203.12,
            "duration": 4.0
        },
        {
            "text": "how to make a really basic simple",
            "start": 204.879,
            "duration": 4.08
        },
        {
            "text": "snippet this should get you started and",
            "start": 207.12,
            "duration": 3.839
        },
        {
            "text": "allow you to start using lua snip today",
            "start": 208.959,
            "duration": 3.681
        },
        {
            "text": "even if you don't know any of the other",
            "start": 210.959,
            "duration": 4.081
        },
        {
            "text": "features for part two we're going to be",
            "start": 212.64,
            "duration": 4.72
        },
        {
            "text": "showing some of the more advanced nodes",
            "start": 215.04,
            "duration": 4.16
        },
        {
            "text": "inside of lewisnem now you might ask",
            "start": 217.36,
            "duration": 3.439
        },
        {
            "text": "what are the nodes we'll watch this",
            "start": 219.2,
            "duration": 3.2
        },
        {
            "text": "video and we'll start showing you and",
            "start": 220.799,
            "duration": 3.681
        },
        {
            "text": "then in part three i will show you some",
            "start": 222.4,
            "duration": 4.479
        },
        {
            "text": "of the more advanced usages of",
            "start": 224.48,
            "duration": 4.16
        },
        {
            "text": "combinations of things like tree sitter",
            "start": 226.879,
            "duration": 4.561
        },
        {
            "text": "plus lua snip or possibly running other",
            "start": 228.64,
            "duration": 4.799
        },
        {
            "text": "kinds of requests or functions or asking",
            "start": 231.44,
            "duration": 3.68
        },
        {
            "text": "for input or all these other kinds of",
            "start": 233.439,
            "duration": 4.241
        },
        {
            "text": "things that you can do within lewisnet",
            "start": 235.12,
            "duration": 5.44
        },
        {
            "text": "because lewisnip is just code it is just",
            "start": 237.68,
            "duration": 5.6
        },
        {
            "text": "lua code generating the snippets for you",
            "start": 240.56,
            "duration": 5.2
        },
        {
            "text": "so with that let's hop in to this",
            "start": 243.28,
            "duration": 5.44
        },
        {
            "text": "because we've got a lot to talk about",
            "start": 245.76,
            "duration": 4.24
        },
        {
            "text": "all right so the first thing we're going",
            "start": 248.72,
            "duration": 2.719
        },
        {
            "text": "to do is i'm just going to show you a",
            "start": 250.0,
            "duration": 3.68
        },
        {
            "text": "really simple example of what a snippet",
            "start": 251.439,
            "duration": 3.681
        },
        {
            "text": "is you might be asking why do i need",
            "start": 253.68,
            "duration": 2.959
        },
        {
            "text": "snippets why would i want these what",
            "start": 255.12,
            "duration": 3.119
        },
        {
            "text": "would be the purpose all that kind of",
            "start": 256.639,
            "duration": 2.88
        },
        {
            "text": "stuff hopefully this at least shows you",
            "start": 258.239,
            "duration": 2.881
        },
        {
            "text": "the very basics of why you might want to",
            "start": 259.519,
            "duration": 4.081
        },
        {
            "text": "start using snippets at all we can get",
            "start": 261.12,
            "duration": 4.639
        },
        {
            "text": "to the advanced stuff later so right now",
            "start": 263.6,
            "duration": 4.0
        },
        {
            "text": "i'm in go code normally you do something",
            "start": 265.759,
            "duration": 4.961
        },
        {
            "text": "like this funk example x y maybe they're",
            "start": 267.6,
            "duration": 4.8
        },
        {
            "text": "both strings and you want to return a",
            "start": 270.72,
            "duration": 3.759
        },
        {
            "text": "string and what you're going to do is x",
            "start": 272.4,
            "duration": 3.68
        },
        {
            "text": "plus this",
            "start": 274.479,
            "duration": 4.0
        },
        {
            "text": "plus y i don't know it's an example code",
            "start": 276.08,
            "duration": 3.679
        },
        {
            "text": "it doesn't have to actually do anything",
            "start": 278.479,
            "duration": 2.961
        },
        {
            "text": "now what's annoying is like every time",
            "start": 279.759,
            "duration": 3.041
        },
        {
            "text": "you type a function and go you type a",
            "start": 281.44,
            "duration": 3.759
        },
        {
            "text": "bunch of the same exact things right so",
            "start": 282.8,
            "duration": 5.04
        },
        {
            "text": "it it sort of feels wasted and of course",
            "start": 285.199,
            "duration": 4.72
        },
        {
            "text": "we're vimers right like we want to type",
            "start": 287.84,
            "duration": 4.24
        },
        {
            "text": "less stuff so snippets are a way that",
            "start": 289.919,
            "duration": 3.441
        },
        {
            "text": "you can do that so i've written a",
            "start": 292.08,
            "duration": 2.399
        },
        {
            "text": "snippet",
            "start": 293.36,
            "duration": 3.52
        },
        {
            "text": "and when i type f i'm able to just",
            "start": 294.479,
            "duration": 5.041
        },
        {
            "text": "expand this into a function i can say",
            "start": 296.88,
            "duration": 4.96
        },
        {
            "text": "another example i can move to the next",
            "start": 299.52,
            "duration": 4.32
        },
        {
            "text": "spot xy string i can move to the next",
            "start": 301.84,
            "duration": 4.72
        },
        {
            "text": "rod string and i can do the same exact",
            "start": 303.84,
            "duration": 5.84
        },
        {
            "text": "thing here right okay so a snippet",
            "start": 306.56,
            "duration": 4.72
        },
        {
            "text": "allowed me to move between those",
            "start": 309.68,
            "duration": 3.44
        },
        {
            "text": "different locations fill in all the",
            "start": 311.28,
            "duration": 3.759
        },
        {
            "text": "blanks that i didn't want to type and",
            "start": 313.12,
            "duration": 4.16
        },
        {
            "text": "basically do all of that so that's part",
            "start": 315.039,
            "duration": 4.16
        },
        {
            "text": "one that's just a simple snippet to show",
            "start": 317.28,
            "duration": 4.56
        },
        {
            "text": "you a little taste now i'm going to show",
            "start": 319.199,
            "duration": 4.401
        },
        {
            "text": "you an advanced snippet to give you an",
            "start": 321.84,
            "duration": 4.4
        },
        {
            "text": "idea of where things get really crazy",
            "start": 323.6,
            "duration": 4.56
        },
        {
            "text": "here's a really common thing that you'll",
            "start": 326.24,
            "duration": 4.399
        },
        {
            "text": "do in go you might write something like",
            "start": 328.16,
            "duration": 4.4
        },
        {
            "text": "this combined",
            "start": 330.639,
            "duration": 3.361
        },
        {
            "text": "air",
            "start": 332.56,
            "duration": 3.6
        },
        {
            "text": "equals other funk",
            "start": 334.0,
            "duration": 3.6
        },
        {
            "text": "x y",
            "start": 336.16,
            "duration": 4.72
        },
        {
            "text": "if air not equal to nil",
            "start": 337.6,
            "duration": 5.12
        },
        {
            "text": "return and then you need to basically",
            "start": 340.88,
            "duration": 3.68
        },
        {
            "text": "pass the default values for each of",
            "start": 342.72,
            "duration": 4.08
        },
        {
            "text": "these so you don't mess them up",
            "start": 344.56,
            "duration": 3.199
        },
        {
            "text": "false",
            "start": 346.8,
            "duration": 2.72
        },
        {
            "text": "and then the error okay so maybe you",
            "start": 347.759,
            "duration": 3.681
        },
        {
            "text": "write something just like this you might",
            "start": 349.52,
            "duration": 4.64
        },
        {
            "text": "write this a lot of times and in fact",
            "start": 351.44,
            "duration": 4.56
        },
        {
            "text": "you might be using some library and go",
            "start": 354.16,
            "duration": 4.8
        },
        {
            "text": "that looks like this wrap air with other",
            "start": 356.0,
            "duration": 4.639
        },
        {
            "text": "func so that you could say okay that's",
            "start": 358.96,
            "duration": 3.359
        },
        {
            "text": "where this function error actually came",
            "start": 360.639,
            "duration": 3.361
        },
        {
            "text": "from because that's how go does there",
            "start": 362.319,
            "duration": 4.081
        },
        {
            "text": "doesn't really matter but suffice to say",
            "start": 364.0,
            "duration": 4.16
        },
        {
            "text": "you end up writing something long like",
            "start": 366.4,
            "duration": 4.079
        },
        {
            "text": "this and you write this line like a",
            "start": 368.16,
            "duration": 3.92
        },
        {
            "text": "thousand times i mean it's just a meme",
            "start": 370.479,
            "duration": 3.121
        },
        {
            "text": "for everyone on the internet at this",
            "start": 372.08,
            "duration": 2.32
        },
        {
            "text": "point",
            "start": 373.6,
            "duration": 2.48
        },
        {
            "text": "so i wrote myself a snippet that",
            "start": 374.4,
            "duration": 4.16
        },
        {
            "text": "actually calls into the tree sitter",
            "start": 376.08,
            "duration": 4.88
        },
        {
            "text": "engine inside of neovim and checks what",
            "start": 378.56,
            "duration": 4.72
        },
        {
            "text": "this return type is so that we can do",
            "start": 380.96,
            "duration": 5.12
        },
        {
            "text": "some cool stuff like this i have my",
            "start": 383.28,
            "duration": 6.56
        },
        {
            "text": "snippet i expand it i type combined",
            "start": 386.08,
            "duration": 5.28
        },
        {
            "text": "because that's the variable that i want",
            "start": 389.84,
            "duration": 2.96
        },
        {
            "text": "i'm not going to change the name of",
            "start": 391.36,
            "duration": 4.559
        },
        {
            "text": "error i'm calling other funk and notice",
            "start": 392.8,
            "duration": 6.08
        },
        {
            "text": "other funk this changed at the same time",
            "start": 395.919,
            "duration": 5.12
        },
        {
            "text": "i can pass x and y",
            "start": 398.88,
            "duration": 4.56
        },
        {
            "text": "if we weren't using errors.wrap i",
            "start": 401.039,
            "duration": 3.841
        },
        {
            "text": "actually have a keybind to switch",
            "start": 403.44,
            "duration": 3.44
        },
        {
            "text": "between these and then we can continue",
            "start": 404.88,
            "duration": 5.439
        },
        {
            "text": "moving on so that's where we're going to",
            "start": 406.88,
            "duration": 5.68
        },
        {
            "text": "get to in this series about lewisnip",
            "start": 410.319,
            "duration": 3.681
        },
        {
            "text": "hopefully that motivates you to get",
            "start": 412.56,
            "duration": 2.88
        },
        {
            "text": "through a lot of sort of this new",
            "start": 414.0,
            "duration": 3.039
        },
        {
            "text": "material that maybe you're not familiar",
            "start": 415.44,
            "duration": 3.12
        },
        {
            "text": "with if you've never seen snippets",
            "start": 417.039,
            "duration": 4.16
        },
        {
            "text": "before in terms of basic configuration",
            "start": 418.56,
            "duration": 4.32
        },
        {
            "text": "there's really not a whole lot you need",
            "start": 421.199,
            "duration": 4.241
        },
        {
            "text": "to know about the options for lewisnip",
            "start": 422.88,
            "duration": 5.039
        },
        {
            "text": "i've outlined the main options that i",
            "start": 425.44,
            "duration": 4.879
        },
        {
            "text": "find useful and there's a few more",
            "start": 427.919,
            "duration": 4.56
        },
        {
            "text": "documented in the repo and you can check",
            "start": 430.319,
            "duration": 3.761
        },
        {
            "text": "those out yourself some of these we",
            "start": 432.479,
            "duration": 3.12
        },
        {
            "text": "won't be able to cover this video but",
            "start": 434.08,
            "duration": 3.839
        },
        {
            "text": "they'll be coming up soon so here they",
            "start": 435.599,
            "duration": 4.241
        },
        {
            "text": "are the first one is history this just",
            "start": 437.919,
            "duration": 3.601
        },
        {
            "text": "lets you basically move in and out of",
            "start": 439.84,
            "duration": 3.52
        },
        {
            "text": "snippets in case you accidentally leave",
            "start": 441.52,
            "duration": 3.2
        },
        {
            "text": "them i like to leave this on because",
            "start": 443.36,
            "duration": 2.72
        },
        {
            "text": "sometimes i make a mistake and i want to",
            "start": 444.72,
            "duration": 3.52
        },
        {
            "text": "hop back into the snippet i was just in",
            "start": 446.08,
            "duration": 4.32
        },
        {
            "text": "update events is a way to say when you",
            "start": 448.24,
            "duration": 4.239
        },
        {
            "text": "should call the updates for particular",
            "start": 450.4,
            "duration": 4.56
        },
        {
            "text": "snippets when we saw just a second ago",
            "start": 452.479,
            "duration": 4.801
        },
        {
            "text": "that my text was getting updated as i",
            "start": 454.96,
            "duration": 4.48
        },
        {
            "text": "was typing you need to set text change",
            "start": 457.28,
            "duration": 4.639
        },
        {
            "text": "and text changed i to be the two",
            "start": 459.44,
            "duration": 4.479
        },
        {
            "text": "different auto commands that you want to",
            "start": 461.919,
            "duration": 3.601
        },
        {
            "text": "update the snippets on this is not the",
            "start": 463.919,
            "duration": 3.12
        },
        {
            "text": "default",
            "start": 465.52,
            "duration": 4.32
        },
        {
            "text": "we turned on auto snippets i'm not 100",
            "start": 467.039,
            "duration": 4.401
        },
        {
            "text": "sold on whether i would use these",
            "start": 469.84,
            "duration": 3.52
        },
        {
            "text": "regularly but i did want to show you how",
            "start": 471.44,
            "duration": 3.599
        },
        {
            "text": "to use them and then this one we're",
            "start": 473.36,
            "duration": 4.239
        },
        {
            "text": "going to definitely be saving for video",
            "start": 475.039,
            "duration": 4.481
        },
        {
            "text": "three showing you how to use xtop so",
            "start": 477.599,
            "duration": 4.081
        },
        {
            "text": "that's the basic configuration you can",
            "start": 479.52,
            "duration": 4.32
        },
        {
            "text": "just drop that right into your config",
            "start": 481.68,
            "duration": 4.56
        },
        {
            "text": "and you'll be up and running now on to",
            "start": 483.84,
            "duration": 5.039
        },
        {
            "text": "how to set up your key maps this feature",
            "start": 486.24,
            "duration": 4.799
        },
        {
            "text": "that i'm about to show you does require",
            "start": 488.879,
            "duration": 4.561
        },
        {
            "text": "at least nightly enven at the time of",
            "start": 491.039,
            "duration": 6.081
        },
        {
            "text": "this video which is nvm 0.7 you could",
            "start": 493.44,
            "duration": 6.24
        },
        {
            "text": "easily change this into some sort of vim",
            "start": 497.12,
            "duration": 4.96
        },
        {
            "text": "script config and there are copy pasta",
            "start": 499.68,
            "duration": 4.48
        },
        {
            "text": "examples in the repo for what you can do",
            "start": 502.08,
            "duration": 4.0
        },
        {
            "text": "there but i did want to kind of show off",
            "start": 504.16,
            "duration": 3.759
        },
        {
            "text": "how cool it is that you can do this kind",
            "start": 506.08,
            "duration": 4.88
        },
        {
            "text": "of thing with lua now so we're using the",
            "start": 507.919,
            "duration": 5.12
        },
        {
            "text": "updated vim dot key map",
            "start": 510.96,
            "duration": 4.079
        },
        {
            "text": "module inside of neovim and we're",
            "start": 513.039,
            "duration": 4.401
        },
        {
            "text": "setting different modes so this is the",
            "start": 515.039,
            "duration": 4.161
        },
        {
            "text": "mode that we're about to set up here's",
            "start": 517.44,
            "duration": 3.279
        },
        {
            "text": "the key maps that we're going to do and",
            "start": 519.2,
            "duration": 4.079
        },
        {
            "text": "then we'll call this lua function so",
            "start": 520.719,
            "duration": 5.12
        },
        {
            "text": "what we're going to do is in insert mode",
            "start": 523.279,
            "duration": 6.0
        },
        {
            "text": "and select mode i want control k to",
            "start": 525.839,
            "duration": 4.321
        },
        {
            "text": "check",
            "start": 529.279,
            "duration": 3.12
        },
        {
            "text": "if we currently have",
            "start": 530.16,
            "duration": 5.6
        },
        {
            "text": "an expandable or jumpable snippet and if",
            "start": 532.399,
            "duration": 5.841
        },
        {
            "text": "so then i want to expand or jump what",
            "start": 535.76,
            "duration": 4.48
        },
        {
            "text": "this means is basically that whenever i",
            "start": 538.24,
            "duration": 4.4
        },
        {
            "text": "press control k which if you're familiar",
            "start": 540.24,
            "duration": 5.039
        },
        {
            "text": "in insert mode opens the digraph menu i",
            "start": 542.64,
            "duration": 4.319
        },
        {
            "text": "don't personally ever use the digraph",
            "start": 545.279,
            "duration": 3.361
        },
        {
            "text": "menu but in my head they kind of go",
            "start": 546.959,
            "duration": 3.521
        },
        {
            "text": "together because digraph sort of expands",
            "start": 548.64,
            "duration": 4.48
        },
        {
            "text": "your current selection this is just like",
            "start": 550.48,
            "duration": 4.56
        },
        {
            "text": "where when i showed the simple example",
            "start": 553.12,
            "duration": 4.8
        },
        {
            "text": "when i pre typed f in go and i press",
            "start": 555.04,
            "duration": 5.919
        },
        {
            "text": "ctrl k that's my expand button and so",
            "start": 557.92,
            "duration": 5.359
        },
        {
            "text": "that expands the current snippet if",
            "start": 560.959,
            "duration": 4.32
        },
        {
            "text": "there's no expandable or jumpable",
            "start": 563.279,
            "duration": 4.081
        },
        {
            "text": "snippet under my cursor it just does",
            "start": 565.279,
            "duration": 4.161
        },
        {
            "text": "nothing so i really like that about the",
            "start": 567.36,
            "duration": 4.08
        },
        {
            "text": "way that i have this mapping currently",
            "start": 569.44,
            "duration": 4.399
        },
        {
            "text": "if i have multiple different fields",
            "start": 571.44,
            "duration": 4.88
        },
        {
            "text": "within one snippet this will jump to the",
            "start": 573.839,
            "duration": 5.201
        },
        {
            "text": "next field in that snippet as well so",
            "start": 576.32,
            "duration": 5.04
        },
        {
            "text": "it's a little bit dual purpose but in my",
            "start": 579.04,
            "duration": 4.08
        },
        {
            "text": "mind it always just means basically go",
            "start": 581.36,
            "duration": 3.68
        },
        {
            "text": "to the next thing in my snippet so",
            "start": 583.12,
            "duration": 3.68
        },
        {
            "text": "whether that's expanding or jumping it's",
            "start": 585.04,
            "duration": 3.52
        },
        {
            "text": "always the next thing in my snippet",
            "start": 586.8,
            "duration": 4.08
        },
        {
            "text": "there are recipes on how to do this with",
            "start": 588.56,
            "duration": 5.279
        },
        {
            "text": "tab on the wiki as you know i don't like",
            "start": 590.88,
            "duration": 5.36
        },
        {
            "text": "overriding tab for so many different",
            "start": 593.839,
            "duration": 4.641
        },
        {
            "text": "things it's okay if you want to use tab",
            "start": 596.24,
            "duration": 4.0
        },
        {
            "text": "you want to use tab for every single",
            "start": 598.48,
            "duration": 4.16
        },
        {
            "text": "aspect of completion but i like having",
            "start": 600.24,
            "duration": 4.64
        },
        {
            "text": "different buttons to be able to expand",
            "start": 602.64,
            "duration": 4.16
        },
        {
            "text": "versus jump versus complete versus all",
            "start": 604.88,
            "duration": 3.36
        },
        {
            "text": "those sorts of things right if i type",
            "start": 606.8,
            "duration": 4.24
        },
        {
            "text": "the letter f in golang i don't always",
            "start": 608.24,
            "duration": 4.96
        },
        {
            "text": "want to just expand that snippet so this",
            "start": 611.04,
            "duration": 3.359
        },
        {
            "text": "allows me to have sort of that",
            "start": 613.2,
            "duration": 2.8
        },
        {
            "text": "flexibility",
            "start": 614.399,
            "duration": 3.281
        },
        {
            "text": "with different key maps to be able to",
            "start": 616.0,
            "duration": 3.519
        },
        {
            "text": "not override those two things so that's",
            "start": 617.68,
            "duration": 4.159
        },
        {
            "text": "how you expand or jump between different",
            "start": 619.519,
            "duration": 4.88
        },
        {
            "text": "nodes within the snippet the next thing",
            "start": 621.839,
            "duration": 5.12
        },
        {
            "text": "that we need to look at is ctrl j which",
            "start": 624.399,
            "duration": 5.201
        },
        {
            "text": "is basically how i jump backwards in the",
            "start": 626.959,
            "duration": 4.32
        },
        {
            "text": "snippet so i just chose this one because",
            "start": 629.6,
            "duration": 3.919
        },
        {
            "text": "it's the opposite in my mind if k j and",
            "start": 631.279,
            "duration": 4.401
        },
        {
            "text": "k are opposites um you can pick",
            "start": 633.519,
            "duration": 3.521
        },
        {
            "text": "whichever one you want this basically",
            "start": 635.68,
            "duration": 3.76
        },
        {
            "text": "just means if i can jump back then i",
            "start": 637.04,
            "duration": 4.64
        },
        {
            "text": "want to jump back so when we saw moving",
            "start": 639.44,
            "duration": 4.24
        },
        {
            "text": "through the snippet this lets you go",
            "start": 641.68,
            "duration": 3.839
        },
        {
            "text": "backwards in case you made a typo or",
            "start": 643.68,
            "duration": 3.839
        },
        {
            "text": "something like that in an earlier node",
            "start": 645.519,
            "duration": 4.241
        },
        {
            "text": "within the snippet also this just lets",
            "start": 647.519,
            "duration": 4.241
        },
        {
            "text": "you do a new line in insert mode before",
            "start": 649.76,
            "duration": 4.0
        },
        {
            "text": "so it's kind of a useless key map anyway",
            "start": 651.76,
            "duration": 3.44
        },
        {
            "text": "because i've never used it just press",
            "start": 653.76,
            "duration": 3.68
        },
        {
            "text": "enter instead the last one here is",
            "start": 655.2,
            "duration": 5.04
        },
        {
            "text": "control l which allow in my mind is for",
            "start": 657.44,
            "duration": 4.8
        },
        {
            "text": "list you can choose whatever way you",
            "start": 660.24,
            "duration": 3.839
        },
        {
            "text": "want here but this basically cycles",
            "start": 662.24,
            "duration": 2.8
        },
        {
            "text": "through",
            "start": 664.079,
            "duration": 3.361
        },
        {
            "text": "the list of options that i have so this",
            "start": 665.04,
            "duration": 3.919
        },
        {
            "text": "is how we switch between that",
            "start": 667.44,
            "duration": 4.639
        },
        {
            "text": "errors.wrap condition versus just having",
            "start": 668.959,
            "duration": 5.44
        },
        {
            "text": "error before and we'll go into",
            "start": 672.079,
            "duration": 4.721
        },
        {
            "text": "how to use choice nodes not in this",
            "start": 674.399,
            "duration": 4.0
        },
        {
            "text": "video in the next one so you don't have",
            "start": 676.8,
            "duration": 3.039
        },
        {
            "text": "to worry too much about this one but",
            "start": 678.399,
            "duration": 3.12
        },
        {
            "text": "just note this is one of the three key",
            "start": 679.839,
            "duration": 4.641
        },
        {
            "text": "maps that i set as a main way of sort of",
            "start": 681.519,
            "duration": 6.32
        },
        {
            "text": "working on and configuring uh luisnips",
            "start": 684.48,
            "duration": 4.88
        },
        {
            "text": "the last one that i have that's kind of",
            "start": 687.839,
            "duration": 3.44
        },
        {
            "text": "a nice keyboard shortcut as you're",
            "start": 689.36,
            "duration": 5.039
        },
        {
            "text": "iterating on your snippets do not i",
            "start": 691.279,
            "duration": 7.401
        },
        {
            "text": "repeat i repeat i repeat",
            "start": 694.399,
            "duration": 4.281
        },
        {
            "text": "[Music]",
            "start": 702.51,
            "duration": 4.29
        },
        {
            "text": "you don't need to do that for lewis nip",
            "start": 705.04,
            "duration": 3.919
        },
        {
            "text": "okay this is a quick key map that i have",
            "start": 706.8,
            "duration": 4.159
        },
        {
            "text": "where i just hit leader leader s in my",
            "start": 708.959,
            "duration": 4.481
        },
        {
            "text": "mind that's snippets and i source this",
            "start": 710.959,
            "duration": 4.88
        },
        {
            "text": "snippets file again and it reloads",
            "start": 713.44,
            "duration": 4.16
        },
        {
            "text": "lewisnip is perfectly fine to be",
            "start": 715.839,
            "duration": 4.161
        },
        {
            "text": "reloaded within one execution if you're",
            "start": 717.6,
            "duration": 4.0
        },
        {
            "text": "just adding snippets or doing things",
            "start": 720.0,
            "duration": 3.76
        },
        {
            "text": "like that so those are my four main key",
            "start": 721.6,
            "duration": 3.84
        },
        {
            "text": "maps and if you have these you're able",
            "start": 723.76,
            "duration": 3.759
        },
        {
            "text": "to start expanding and working on",
            "start": 725.44,
            "duration": 3.92
        },
        {
            "text": "snippets so i guess the next thing to do",
            "start": 727.519,
            "duration": 4.721
        },
        {
            "text": "is how do we make a snippet all right so",
            "start": 729.36,
            "duration": 4.32
        },
        {
            "text": "obviously i have a lot of snippets",
            "start": 732.24,
            "duration": 2.8
        },
        {
            "text": "already i've been playing around with",
            "start": 733.68,
            "duration": 3.279
        },
        {
            "text": "lewis nip a lot if you check my config",
            "start": 735.04,
            "duration": 4.4
        },
        {
            "text": "you won't find this file so just if",
            "start": 736.959,
            "duration": 4.0
        },
        {
            "text": "you're looking for that i just want you",
            "start": 739.44,
            "duration": 2.72
        },
        {
            "text": "to know that but we're going to walk",
            "start": 740.959,
            "duration": 3.361
        },
        {
            "text": "through how to set up the really basic",
            "start": 742.16,
            "duration": 3.84
        },
        {
            "text": "kind of snippets for this kind of",
            "start": 744.32,
            "duration": 4.319
        },
        {
            "text": "problem so what we're going to use is",
            "start": 746.0,
            "duration": 5.68
        },
        {
            "text": "the built-in parser that comes to parse",
            "start": 748.639,
            "duration": 4.481
        },
        {
            "text": "vs",
            "start": 751.68,
            "duration": 4.399
        },
        {
            "text": "style snippets now i know that you're",
            "start": 753.12,
            "duration": 6.159
        },
        {
            "text": "thinking vs why would you be using",
            "start": 756.079,
            "duration": 5.121
        },
        {
            "text": "anything from vip",
            "start": 759.279,
            "duration": 3.441
        },
        {
            "text": "well because it a lot of people have",
            "start": 761.2,
            "duration": 2.96
        },
        {
            "text": "already written snippets for that kind",
            "start": 762.72,
            "duration": 3.76
        },
        {
            "text": "of style and it's actually the same kind",
            "start": 764.16,
            "duration": 4.64
        },
        {
            "text": "of snippet that comes within lsp so this",
            "start": 766.48,
            "duration": 4.72
        },
        {
            "text": "is sort of a well supported style of",
            "start": 768.8,
            "duration": 4.479
        },
        {
            "text": "defining snippets and so you can use",
            "start": 771.2,
            "duration": 3.52
        },
        {
            "text": "this in your config you won't have to",
            "start": 773.279,
            "duration": 3.12
        },
        {
            "text": "know anything about lewis knit",
            "start": 774.72,
            "duration": 3.84
        },
        {
            "text": "particulars or lewis snips sort of",
            "start": 776.399,
            "duration": 4.081
        },
        {
            "text": "special syntax or nodes or anything like",
            "start": 778.56,
            "duration": 3.839
        },
        {
            "text": "that you can just write snippets that",
            "start": 780.48,
            "duration": 4.08
        },
        {
            "text": "easily expand to get started",
            "start": 782.399,
            "duration": 4.081
        },
        {
            "text": "so i'll show an example",
            "start": 784.56,
            "duration": 3.76
        },
        {
            "text": "the first thing you want to note is you",
            "start": 786.48,
            "duration": 4.08
        },
        {
            "text": "need to require lewis nip and then set",
            "start": 788.32,
            "duration": 4.8
        },
        {
            "text": "the snippets table to be some value this",
            "start": 790.56,
            "duration": 5.04
        },
        {
            "text": "is basically how lewis nips decides am i",
            "start": 793.12,
            "duration": 4.159
        },
        {
            "text": "going to expand the thing under their",
            "start": 795.6,
            "duration": 3.28
        },
        {
            "text": "cursor or not",
            "start": 797.279,
            "duration": 3.201
        },
        {
            "text": "and so what we can do is we can say",
            "start": 798.88,
            "duration": 3.759
        },
        {
            "text": "ls.parser",
            "start": 800.48,
            "duration": 4.56
        },
        {
            "text": "dot parse snippet and we're just gonna",
            "start": 802.639,
            "duration": 4.401
        },
        {
            "text": "say expand and then we're just gonna say",
            "start": 805.04,
            "duration": 7.599
        },
        {
            "text": "like this is what was expanded right",
            "start": 807.04,
            "duration": 8.32
        },
        {
            "text": "and so when we do this that lets us",
            "start": 812.639,
            "duration": 4.801
        },
        {
            "text": "after we source the file again remember",
            "start": 815.36,
            "duration": 3.68
        },
        {
            "text": "have your own key map for doing that",
            "start": 817.44,
            "duration": 3.68
        },
        {
            "text": "quickly so that you can play with these",
            "start": 819.04,
            "duration": 5.28
        },
        {
            "text": "when i type expand nothing happens when",
            "start": 821.12,
            "duration": 6.159
        },
        {
            "text": "i press my expansion key which for me",
            "start": 824.32,
            "duration": 4.879
        },
        {
            "text": "right is ctrl k might be different for",
            "start": 827.279,
            "duration": 5.36
        },
        {
            "text": "you it's going to expand into this is",
            "start": 829.199,
            "duration": 5.601
        },
        {
            "text": "what was expanded okay so that's the",
            "start": 832.639,
            "duration": 4.56
        },
        {
            "text": "very simple way of doing the very first",
            "start": 834.8,
            "duration": 4.24
        },
        {
            "text": "kind of snippet but of course you're",
            "start": 837.199,
            "duration": 3.121
        },
        {
            "text": "going to want to do more than just",
            "start": 839.04,
            "duration": 4.4
        },
        {
            "text": "literally expand exactly the same kind",
            "start": 840.32,
            "duration": 5.28
        },
        {
            "text": "of string every single time just like",
            "start": 843.44,
            "duration": 4.32
        },
        {
            "text": "how i'd show you you fur and go you want",
            "start": 845.6,
            "duration": 3.679
        },
        {
            "text": "to be able to move between sort of the",
            "start": 847.76,
            "duration": 3.68
        },
        {
            "text": "different placeholders we want to do",
            "start": 849.279,
            "duration": 3.441
        },
        {
            "text": "something similar",
            "start": 851.44,
            "duration": 3.04
        },
        {
            "text": "for that for lua so let's try doing",
            "start": 852.72,
            "duration": 3.84
        },
        {
            "text": "something like ls.parser",
            "start": 854.48,
            "duration": 4.799
        },
        {
            "text": "parse snippet and we're going to do this",
            "start": 856.56,
            "duration": 5.92
        },
        {
            "text": "lf so that's local function for me in my",
            "start": 859.279,
            "duration": 4.881
        },
        {
            "text": "head and what we're going to say is",
            "start": 862.48,
            "duration": 4.159
        },
        {
            "text": "local and then this so dollar sign one",
            "start": 864.16,
            "duration": 3.919
        },
        {
            "text": "basically means this is the first",
            "start": 866.639,
            "duration": 3.521
        },
        {
            "text": "placeholder that i want to do and then",
            "start": 868.079,
            "duration": 3.921
        },
        {
            "text": "we're going to say function and then i",
            "start": 870.16,
            "duration": 3.2
        },
        {
            "text": "want this to be dollar two because",
            "start": 872.0,
            "duration": 2.8
        },
        {
            "text": "basically i want to go to this after",
            "start": 873.36,
            "duration": 3.76
        },
        {
            "text": "i've done this so i can type arguments",
            "start": 874.8,
            "duration": 3.92
        },
        {
            "text": "and then i'm gonna do a new line i'm",
            "start": 877.12,
            "duration": 3.36
        },
        {
            "text": "gonna put two spaces and then dollar",
            "start": 878.72,
            "duration": 4.4
        },
        {
            "text": "zero dollar zero means this is the last",
            "start": 880.48,
            "duration": 3.919
        },
        {
            "text": "thing that i want to go to it's a little",
            "start": 883.12,
            "duration": 3.6
        },
        {
            "text": "bit weird why it goes one two zero",
            "start": 884.399,
            "duration": 3.68
        },
        {
            "text": "you'll get used to it after you think",
            "start": 886.72,
            "duration": 2.72
        },
        {
            "text": "about it for a bit and then i want to",
            "start": 888.079,
            "duration": 2.88
        },
        {
            "text": "put a new line again and then i need to",
            "start": 889.44,
            "duration": 4.24
        },
        {
            "text": "close my function by typing end so if i",
            "start": 890.959,
            "duration": 4.88
        },
        {
            "text": "wanted to do this and i resource my file",
            "start": 893.68,
            "duration": 5.279
        },
        {
            "text": "again i type lf i hit enter i'm able to",
            "start": 895.839,
            "duration": 4.721
        },
        {
            "text": "say hello",
            "start": 898.959,
            "duration": 3.841
        },
        {
            "text": "world and then i can return hello",
            "start": 900.56,
            "duration": 4.639
        },
        {
            "text": "concatenated with world okay so that's",
            "start": 902.8,
            "duration": 4.399
        },
        {
            "text": "really simple a really simple way for",
            "start": 905.199,
            "duration": 4.161
        },
        {
            "text": "basically you type lf instead of having",
            "start": 907.199,
            "duration": 4.0
        },
        {
            "text": "to write all this again going onto a new",
            "start": 909.36,
            "duration": 4.0
        },
        {
            "text": "line typing n going back you can sort of",
            "start": 911.199,
            "duration": 4.241
        },
        {
            "text": "skip having to do that any time you",
            "start": 913.36,
            "duration": 3.839
        },
        {
            "text": "wanted and of course you could change",
            "start": 915.44,
            "duration": 3.36
        },
        {
            "text": "exactly how you wanted to do this if you",
            "start": 917.199,
            "duration": 4.721
        },
        {
            "text": "wanted to change this l to be m so that",
            "start": 918.8,
            "duration": 5.52
        },
        {
            "text": "you could say like method function then",
            "start": 921.92,
            "duration": 4.8
        },
        {
            "text": "maybe this would be dollar one dot",
            "start": 924.32,
            "duration": 4.8
        },
        {
            "text": "dollar two or something like that dollar",
            "start": 926.72,
            "duration": 3.28
        },
        {
            "text": "three",
            "start": 929.12,
            "duration": 3.04
        },
        {
            "text": "so that you could type something like mf",
            "start": 930.0,
            "duration": 3.6
        },
        {
            "text": "and then then you could expand this to",
            "start": 932.16,
            "duration": 4.88
        },
        {
            "text": "say hello dot world dot args and then",
            "start": 933.6,
            "duration": 5.44
        },
        {
            "text": "you could do something like print args",
            "start": 937.04,
            "duration": 3.76
        },
        {
            "text": "okay so maybe you could do something",
            "start": 939.04,
            "duration": 3.44
        },
        {
            "text": "just like that to sort of change between",
            "start": 940.8,
            "duration": 3.2
        },
        {
            "text": "okay i know that all my things have",
            "start": 942.48,
            "duration": 3.2
        },
        {
            "text": "function in them i have local functions",
            "start": 944.0,
            "duration": 3.759
        },
        {
            "text": "i have method function you can do any of",
            "start": 945.68,
            "duration": 3.68
        },
        {
            "text": "the things that you want for that you",
            "start": 947.759,
            "duration": 4.161
        },
        {
            "text": "can even do pretty cool things like if",
            "start": 949.36,
            "duration": 4.24
        },
        {
            "text": "you wanted to say",
            "start": 951.92,
            "duration": 3.279
        },
        {
            "text": "expand what the current file is you",
            "start": 953.6,
            "duration": 4.0
        },
        {
            "text": "could say defined",
            "start": 955.199,
            "duration": 3.2
        },
        {
            "text": "in",
            "start": 957.6,
            "duration": 4.0
        },
        {
            "text": "and then tm file name so this is sort of",
            "start": 958.399,
            "duration": 5.521
        },
        {
            "text": "some special magic that's defined in the",
            "start": 961.6,
            "duration": 3.84
        },
        {
            "text": "specification of what snippets are you",
            "start": 963.92,
            "duration": 4.0
        },
        {
            "text": "can read more about that on the lewisnip",
            "start": 965.44,
            "duration": 4.56
        },
        {
            "text": "docs but i just want to show that you",
            "start": 967.92,
            "duration": 5.599
        },
        {
            "text": "can do this and if we redid this again",
            "start": 970.0,
            "duration": 5.44
        },
        {
            "text": "and we just delete what we wrote here",
            "start": 973.519,
            "duration": 3.601
        },
        {
            "text": "and i type lf it's actually going to say",
            "start": 975.44,
            "duration": 3.519
        },
        {
            "text": "hey this was defined in and the file",
            "start": 977.12,
            "duration": 4.079
        },
        {
            "text": "that i'm currently in is tt3 for take",
            "start": 978.959,
            "duration": 4.641
        },
        {
            "text": "tuesday three",
            "start": 981.199,
            "duration": 4.08
        },
        {
            "text": "tuesday",
            "start": 983.6,
            "duration": 4.0
        },
        {
            "text": "right so that's why that happens and",
            "start": 985.279,
            "duration": 4.161
        },
        {
            "text": "then i can write hello and then world",
            "start": 987.6,
            "duration": 3.679
        },
        {
            "text": "again and i could return my hello",
            "start": 989.44,
            "duration": 3.839
        },
        {
            "text": "concatenated with world same thing that",
            "start": 991.279,
            "duration": 4.161
        },
        {
            "text": "we were doing before but there's a lot",
            "start": 993.279,
            "duration": 4.641
        },
        {
            "text": "of possibilities even with just these",
            "start": 995.44,
            "duration": 5.44
        },
        {
            "text": "very very simple string snippets that",
            "start": 997.92,
            "duration": 5.2
        },
        {
            "text": "you can get really far with all right",
            "start": 1000.88,
            "duration": 4.48
        },
        {
            "text": "and lastly now we're going to try and",
            "start": 1003.12,
            "duration": 6.639
        },
        {
            "text": "construct a lua snip snippet not via the",
            "start": 1005.36,
            "duration": 6.32
        },
        {
            "text": "par snippet that we had but from",
            "start": 1009.759,
            "duration": 4.64
        },
        {
            "text": "actually using lula code this idea here",
            "start": 1011.68,
            "duration": 4.48
        },
        {
            "text": "will be the building block that we're",
            "start": 1014.399,
            "duration": 3.521
        },
        {
            "text": "going to build on top of for the next",
            "start": 1016.16,
            "duration": 3.919
        },
        {
            "text": "few videos okay so",
            "start": 1017.92,
            "duration": 4.0
        },
        {
            "text": "i'm going to go a little bit slow but i",
            "start": 1020.079,
            "duration": 3.44
        },
        {
            "text": "want to make sure that we understand",
            "start": 1021.92,
            "duration": 4.159
        },
        {
            "text": "everything that's happening here okay",
            "start": 1023.519,
            "duration": 4.8
        },
        {
            "text": "we're going to go in order so the first",
            "start": 1026.079,
            "duration": 4.72
        },
        {
            "text": "thing that we need to note is",
            "start": 1028.319,
            "duration": 5.201
        },
        {
            "text": "ls.s this is basically just shorthand",
            "start": 1030.799,
            "duration": 4.481
        },
        {
            "text": "for saying we're going to create a new",
            "start": 1033.52,
            "duration": 3.519
        },
        {
            "text": "snippet okay so what we're going to do",
            "start": 1035.28,
            "duration": 3.919
        },
        {
            "text": "is inside of our lua snippets we're",
            "start": 1037.039,
            "duration": 4.081
        },
        {
            "text": "going to say s and then what we want to",
            "start": 1039.199,
            "duration": 4.64
        },
        {
            "text": "use to expand this snippet so i'm going",
            "start": 1041.12,
            "duration": 3.679
        },
        {
            "text": "to say",
            "start": 1043.839,
            "duration": 2.561
        },
        {
            "text": "rec because what i want to do is",
            "start": 1044.799,
            "duration": 4.321
        },
        {
            "text": "basically a shorthand for require okay",
            "start": 1046.4,
            "duration": 4.56
        },
        {
            "text": "now i have a more complicated version of",
            "start": 1049.12,
            "duration": 3.919
        },
        {
            "text": "this that we'll build in the next video",
            "start": 1050.96,
            "duration": 4.32
        },
        {
            "text": "but this will at least give you an idea",
            "start": 1053.039,
            "duration": 3.921
        },
        {
            "text": "of the kinds of things that we should be",
            "start": 1055.28,
            "duration": 4.56
        },
        {
            "text": "able to build okay and after this we",
            "start": 1056.96,
            "duration": 5.12
        },
        {
            "text": "need to pass in some nodes now we don't",
            "start": 1059.84,
            "duration": 3.68
        },
        {
            "text": "know what nodes are yet so we're just",
            "start": 1062.08,
            "duration": 3.68
        },
        {
            "text": "going to leave this blank for a second",
            "start": 1063.52,
            "duration": 4.08
        },
        {
            "text": "let's move on",
            "start": 1065.76,
            "duration": 4.96
        },
        {
            "text": "format here is basically a really",
            "start": 1067.6,
            "duration": 6.88
        },
        {
            "text": "convenient way to combine format style",
            "start": 1070.72,
            "duration": 8.24
        },
        {
            "text": "strings with a list of lua snip nodes so",
            "start": 1074.48,
            "duration": 6.4
        },
        {
            "text": "that you don't have to write this really",
            "start": 1078.96,
            "duration": 4.16
        },
        {
            "text": "crazy big table which is maybe the thing",
            "start": 1080.88,
            "duration": 3.919
        },
        {
            "text": "that you've experienced before if you",
            "start": 1083.12,
            "duration": 3.28
        },
        {
            "text": "just sort of played with lewisnip and",
            "start": 1084.799,
            "duration": 3.681
        },
        {
            "text": "you didn't know that this existed so",
            "start": 1086.4,
            "duration": 4.159
        },
        {
            "text": "we're going to use format format gets",
            "start": 1088.48,
            "duration": 4.8
        },
        {
            "text": "passed in to where the nodes go for the",
            "start": 1090.559,
            "duration": 5.12
        },
        {
            "text": "snippet so we can say format and what we",
            "start": 1093.28,
            "duration": 4.88
        },
        {
            "text": "can say here is we can just write some",
            "start": 1095.679,
            "duration": 4.88
        },
        {
            "text": "string that we're going to fill in later",
            "start": 1098.16,
            "duration": 5.2
        },
        {
            "text": "so we can say local wherever we want to",
            "start": 1100.559,
            "duration": 4.561
        },
        {
            "text": "put something from our list we can just",
            "start": 1103.36,
            "duration": 3.76
        },
        {
            "text": "do two curly braces together to",
            "start": 1105.12,
            "duration": 4.0
        },
        {
            "text": "basically say i want to put something in",
            "start": 1107.12,
            "duration": 3.439
        },
        {
            "text": "this spot",
            "start": 1109.12,
            "duration": 4.0
        },
        {
            "text": "we can say here and then require and",
            "start": 1110.559,
            "duration": 4.641
        },
        {
            "text": "let's just say we're going to put",
            "start": 1113.12,
            "duration": 4.16
        },
        {
            "text": "another thing here so if you're familiar",
            "start": 1115.2,
            "duration": 4.08
        },
        {
            "text": "with lua right just like how we do up",
            "start": 1117.28,
            "duration": 5.2
        },
        {
            "text": "here local ls equals require lua snip or",
            "start": 1119.28,
            "duration": 4.8
        },
        {
            "text": "maybe local telescope equals this",
            "start": 1122.48,
            "duration": 4.0
        },
        {
            "text": "whatever you've normally going to write",
            "start": 1124.08,
            "duration": 4.4
        },
        {
            "text": "you're able to basically combine those",
            "start": 1126.48,
            "duration": 5.04
        },
        {
            "text": "two so now we need to pass a list of",
            "start": 1128.48,
            "duration": 5.36
        },
        {
            "text": "nodes to this format thing right because",
            "start": 1131.52,
            "duration": 4.56
        },
        {
            "text": "what we've got here is format we need to",
            "start": 1133.84,
            "duration": 5.12
        },
        {
            "text": "tell it what to put inside of these two",
            "start": 1136.08,
            "duration": 4.479
        },
        {
            "text": "items so",
            "start": 1138.96,
            "duration": 3.68
        },
        {
            "text": "our first node that we're going to be",
            "start": 1140.559,
            "duration": 4.641
        },
        {
            "text": "introduced to is called an insert node",
            "start": 1142.64,
            "duration": 4.88
        },
        {
            "text": "insert nodes take a position just like",
            "start": 1145.2,
            "duration": 4.8
        },
        {
            "text": "how we had the dollar one dollar too et",
            "start": 1147.52,
            "duration": 4.96
        },
        {
            "text": "cetera you need to pass in your own",
            "start": 1150.0,
            "duration": 6.08
        },
        {
            "text": "position here to say where you want this",
            "start": 1152.48,
            "duration": 5.76
        },
        {
            "text": "insert node to be in the list of places",
            "start": 1156.08,
            "duration": 4.88
        },
        {
            "text": "to jump okay so you put i1 that",
            "start": 1158.24,
            "duration": 4.0
        },
        {
            "text": "basically says this is going to be the",
            "start": 1160.96,
            "duration": 4.0
        },
        {
            "text": "first place that you're going to jump to",
            "start": 1162.24,
            "duration": 5.6
        },
        {
            "text": "okay and this i1 is going to show up in",
            "start": 1164.96,
            "duration": 5.12
        },
        {
            "text": "this spot right here",
            "start": 1167.84,
            "duration": 4.48
        },
        {
            "text": "okay the next thing that we've got and",
            "start": 1170.08,
            "duration": 3.92
        },
        {
            "text": "all as well i guess i'll show you as",
            "start": 1172.32,
            "duration": 3.68
        },
        {
            "text": "well you can actually have default here",
            "start": 1174.0,
            "duration": 3.84
        },
        {
            "text": "we won't this is sort of a dumb thing to",
            "start": 1176.0,
            "duration": 3.679
        },
        {
            "text": "put here but we'll put default in this",
            "start": 1177.84,
            "duration": 3.92
        },
        {
            "text": "case for some other kinds of insert",
            "start": 1179.679,
            "duration": 4.401
        },
        {
            "text": "nodes is quite useful the next one is we",
            "start": 1181.76,
            "duration": 4.32
        },
        {
            "text": "have sort of this idea of an extra node",
            "start": 1184.08,
            "duration": 4.479
        },
        {
            "text": "which is a build on top of some of the",
            "start": 1186.08,
            "duration": 4.4
        },
        {
            "text": "building blocks the fundamentals i'll",
            "start": 1188.559,
            "duration": 3.921
        },
        {
            "text": "show you how to replicate this node in a",
            "start": 1190.48,
            "duration": 3.76
        },
        {
            "text": "future video but we don't have time",
            "start": 1192.48,
            "duration": 4.16
        },
        {
            "text": "today rep basically just say repeat",
            "start": 1194.24,
            "duration": 4.96
        },
        {
            "text": "whatever is in this other position so",
            "start": 1196.64,
            "duration": 4.48
        },
        {
            "text": "we're able to say",
            "start": 1199.2,
            "duration": 4.479
        },
        {
            "text": "rep one because what we want to do is",
            "start": 1201.12,
            "duration": 5.679
        },
        {
            "text": "repeat this node this insert node so",
            "start": 1203.679,
            "duration": 5.12
        },
        {
            "text": "that when we're typing here it also gets",
            "start": 1206.799,
            "duration": 5.601
        },
        {
            "text": "filled in here okay so if we save this",
            "start": 1208.799,
            "duration": 6.24
        },
        {
            "text": "and we execute this of course i forgot",
            "start": 1212.4,
            "duration": 5.44
        },
        {
            "text": "to do something what did i forget to do",
            "start": 1215.039,
            "duration": 5.921
        },
        {
            "text": "i'm forgetting another parenthesis very",
            "start": 1217.84,
            "duration": 5.92
        },
        {
            "text": "cool when i execute this we're able to",
            "start": 1220.96,
            "duration": 4.959
        },
        {
            "text": "say okay now when i type rec i'm going",
            "start": 1223.76,
            "duration": 5.36
        },
        {
            "text": "to hit expand i expand it notice how",
            "start": 1225.919,
            "duration": 6.0
        },
        {
            "text": "default is in both places when i start",
            "start": 1229.12,
            "duration": 5.36
        },
        {
            "text": "typing things here we get telescopes",
            "start": 1231.919,
            "duration": 4.561
        },
        {
            "text": "showing up in both spots or you can say",
            "start": 1234.48,
            "duration": 4.0
        },
        {
            "text": "my plug-in right no matter what you're",
            "start": 1236.48,
            "duration": 4.319
        },
        {
            "text": "typing because we have this repeat one",
            "start": 1238.48,
            "duration": 4.4
        },
        {
            "text": "whatever we put in this first spot",
            "start": 1240.799,
            "duration": 5.12
        },
        {
            "text": "that's also going to repeat here so",
            "start": 1242.88,
            "duration": 5.039
        },
        {
            "text": "that's sort of the very basics of",
            "start": 1245.919,
            "duration": 4.0
        },
        {
            "text": "beginning to build your own snippets",
            "start": 1247.919,
            "duration": 3.681
        },
        {
            "text": "with these few things i think you can",
            "start": 1249.919,
            "duration": 3.601
        },
        {
            "text": "actually get pretty far for a lot of",
            "start": 1251.6,
            "duration": 4.319
        },
        {
            "text": "time saving style snippets they may not",
            "start": 1253.52,
            "duration": 4.639
        },
        {
            "text": "be as impressive or flashy as some of",
            "start": 1255.919,
            "duration": 4.0
        },
        {
            "text": "the stuff that we're building but i",
            "start": 1258.159,
            "duration": 3.041
        },
        {
            "text": "think this should provide you with the",
            "start": 1259.919,
            "duration": 3.281
        },
        {
            "text": "base that you need to be able to start",
            "start": 1261.2,
            "duration": 3.76
        },
        {
            "text": "with lewiston i hope you enjoyed the",
            "start": 1263.2,
            "duration": 3.04
        },
        {
            "text": "video thanks",
            "start": 1264.96,
            "duration": 3.52
        },
        {
            "text": "and this is the part of the video where",
            "start": 1266.24,
            "duration": 5.04
        },
        {
            "text": "we thank our sponsor except the sponsors",
            "start": 1268.48,
            "duration": 3.679
        },
        {
            "text": "you",
            "start": 1271.28,
            "duration": 2.8
        },
        {
            "text": "so i'm going to say thanks to all of you",
            "start": 1272.159,
            "duration": 4.801
        },
        {
            "text": "who are my supporters on github really",
            "start": 1274.08,
            "duration": 4.56
        },
        {
            "text": "appreciate that and my supporters on",
            "start": 1276.96,
            "duration": 3.44
        },
        {
            "text": "twitch and anywhere else that i take",
            "start": 1278.64,
            "duration": 4.48
        },
        {
            "text": "donations thanks everybody this is a",
            "start": 1280.4,
            "duration": 4.399
        },
        {
            "text": "super great way though if you are",
            "start": 1283.12,
            "duration": 3.439
        },
        {
            "text": "looking to sponsor my work as an open",
            "start": 1284.799,
            "duration": 3.681
        },
        {
            "text": "source developer or doing anything on",
            "start": 1286.559,
            "duration": 3.6
        },
        {
            "text": "twitch or youtube or you like these",
            "start": 1288.48,
            "duration": 4.0
        },
        {
            "text": "videos in particular github sponsors is",
            "start": 1290.159,
            "duration": 3.921
        },
        {
            "text": "a super awesome way to show your support",
            "start": 1292.48,
            "duration": 4.8
        },
        {
            "text": "github takes no fees currently so 100 of",
            "start": 1294.08,
            "duration": 4.719
        },
        {
            "text": "the money you give goes right into my",
            "start": 1297.28,
            "duration": 3.44
        },
        {
            "text": "pocket which is awesome",
            "start": 1298.799,
            "duration": 4.321
        },
        {
            "text": "helps me stay motivated helps me pay",
            "start": 1300.72,
            "duration": 3.92
        },
        {
            "text": "flip our video editor i'm sure he's",
            "start": 1303.12,
            "duration": 3.439
        },
        {
            "text": "going to put himself up right here i got",
            "start": 1304.64,
            "duration": 3.039
        },
        {
            "text": "to premiere",
            "start": 1306.559,
            "duration": 2.401
        },
        {
            "text": "guys i'd just like to take this time to",
            "start": 1307.679,
            "duration": 4.161
        },
        {
            "text": "say okay nice and also lets me buy super",
            "start": 1308.96,
            "duration": 4.76
        },
        {
            "text": "cool toys",
            "start": 1311.84,
            "duration": 5.959
        },
        {
            "text": "this is",
            "start": 1313.72,
            "duration": 4.079
        },
        {
            "text": "which has been really fun to be able to",
            "start": 1318.559,
            "duration": 3.841
        },
        {
            "text": "up the stream setup anyways i hope you",
            "start": 1320.24,
            "duration": 4.4
        },
        {
            "text": "enjoyed the video no matter what if you",
            "start": 1322.4,
            "duration": 3.84
        },
        {
            "text": "want to just give the video a like",
            "start": 1324.64,
            "duration": 3.44
        },
        {
            "text": "thumbs up give a comment or a thumbs",
            "start": 1326.24,
            "duration": 3.76
        },
        {
            "text": "down you know no one can tell anymore so",
            "start": 1328.08,
            "duration": 4.079
        },
        {
            "text": "who cares whatever you guys want i hope",
            "start": 1330.0,
            "duration": 3.52
        },
        {
            "text": "you had fun hope you enjoyed the video",
            "start": 1332.159,
            "duration": 2.961
        },
        {
            "text": "hope you learned something new really",
            "start": 1333.52,
            "duration": 3.039
        },
        {
            "text": "appreciate all the support all of you",
            "start": 1335.12,
            "duration": 3.52
        },
        {
            "text": "have been giving me and with that i'll",
            "start": 1336.559,
            "duration": 5.441
        },
        {
            "text": "see you on the next take tuesday yes yes",
            "start": 1338.64,
            "duration": 6.48
        },
        {
            "text": "ask the question everyone asks i've",
            "start": 1342.0,
            "duration": 5.36
        },
        {
            "text": "never seen a take tuesday uploaded on",
            "start": 1345.12,
            "duration": 4.24
        },
        {
            "text": "tuesday",
            "start": 1347.36,
            "duration": 5.12
        },
        {
            "text": "really the tuesday i mean it just like",
            "start": 1349.36,
            "duration": 6.64
        },
        {
            "text": "you upload but it's just not tuesday",
            "start": 1352.48,
            "duration": 6.64
        },
        {
            "text": "it's called take tuesday because it's",
            "start": 1356.0,
            "duration": 4.48
        },
        {
            "text": "primarily",
            "start": 1359.12,
            "duration": 3.039
        },
        {
            "text": "a twitch thing",
            "start": 1360.48,
            "duration": 3.52
        },
        {
            "text": "i scream",
            "start": 1362.159,
            "duration": 2.801
        },
        {
            "text": "on",
            "start": 1364.0,
            "duration": 3.96
        },
        {
            "text": "toaster",
            "start": 1364.96,
            "duration": 3.0
        }
    ],
    "stats": {
        "viewCount": "49395",
        "likeCount": "2210",
        "favoriteCount": "0",
        "commentCount": "195"
    }
}