{
    "id": "dycsRSOQjho",
    "title": "Writing our own parser in OCaml!",
    "publishedAt": "2023-08-03T11:00:33Z",
    "captions": [
        {
            "text": "what's up YouTube today we are gonna go",
            "start": 0.0,
            "duration": 4.259
        },
        {
            "text": "over part two in this series about",
            "start": 2.1,
            "duration": 4.56
        },
        {
            "text": "writing our own interpreter in ocamel",
            "start": 4.259,
            "duration": 3.621
        },
        {
            "text": "once again this is with the",
            "start": 6.66,
            "duration": 3.72
        },
        {
            "text": "interpreterbook.com I know primagen has",
            "start": 7.88,
            "duration": 4.12
        },
        {
            "text": "abandoned this project but don't worry",
            "start": 10.38,
            "duration": 3.419
        },
        {
            "text": "I'm not gonna leave you hanging high and",
            "start": 12.0,
            "duration": 4.56
        },
        {
            "text": "dry like he does so let's just go over a",
            "start": 13.799,
            "duration": 4.621
        },
        {
            "text": "quick recap of where we've been and",
            "start": 16.56,
            "duration": 3.719
        },
        {
            "text": "we're gonna go over a little bit what it",
            "start": 18.42,
            "duration": 3.779
        },
        {
            "text": "means to start writing a parser let's",
            "start": 20.279,
            "duration": 3.541
        },
        {
            "text": "head straight to it where we left off",
            "start": 22.199,
            "duration": 4.801
        },
        {
            "text": "last time was we had created Alexa and",
            "start": 23.82,
            "duration": 4.799
        },
        {
            "text": "what you should think about for Elixir",
            "start": 27.0,
            "duration": 3.18
        },
        {
            "text": "is you start off with something like let",
            "start": 28.619,
            "duration": 7.201
        },
        {
            "text": "X is function y z and then return y plus",
            "start": 30.18,
            "duration": 9.059
        },
        {
            "text": "Z what Alexa does is when you have your",
            "start": 35.82,
            "duration": 5.579
        },
        {
            "text": "lexor it or sometimes it's called a",
            "start": 39.239,
            "duration": 3.961
        },
        {
            "text": "tokenizer or there's various different",
            "start": 41.399,
            "duration": 4.141
        },
        {
            "text": "words for it but uh we don't need to get",
            "start": 43.2,
            "duration": 4.44
        },
        {
            "text": "too lost in the details for that that",
            "start": 45.54,
            "duration": 3.6
        },
        {
            "text": "basically says let's turn this into",
            "start": 47.64,
            "duration": 3.0
        },
        {
            "text": "something like okay we have a let",
            "start": 49.14,
            "duration": 5.16
        },
        {
            "text": "keyword then we have like ident X and",
            "start": 50.64,
            "duration": 5.64
        },
        {
            "text": "then we have something like an equals",
            "start": 54.3,
            "duration": 3.54
        },
        {
            "text": "and then we have something like a",
            "start": 56.28,
            "duration": 4.86
        },
        {
            "text": "function and then we have left parent",
            "start": 57.84,
            "duration": 6.359
        },
        {
            "text": "and then we have an you know ident why",
            "start": 61.14,
            "duration": 6.659
        },
        {
            "text": "we have a comma we have an item Z and",
            "start": 64.199,
            "duration": 4.92
        },
        {
            "text": "you can sort of see how the rest of this",
            "start": 67.799,
            "duration": 3.961
        },
        {
            "text": "goes on right and the general idea being",
            "start": 69.119,
            "duration": 4.921
        },
        {
            "text": "here that uh we get what rid of all the",
            "start": 71.76,
            "duration": 3.84
        },
        {
            "text": "things that aren't important so in",
            "start": 74.04,
            "duration": 3.72
        },
        {
            "text": "Monkey Lang white space isn't important",
            "start": 75.6,
            "duration": 3.66
        },
        {
            "text": "so we don't need to keep anything about",
            "start": 77.76,
            "duration": 4.14
        },
        {
            "text": "that and then eventually we get all of",
            "start": 79.26,
            "duration": 4.98
        },
        {
            "text": "these characters now this is nice this",
            "start": 81.9,
            "duration": 4.62
        },
        {
            "text": "moves us from just sort of like a random",
            "start": 84.24,
            "duration": 5.82
        },
        {
            "text": "string not super helpful to this stream",
            "start": 86.52,
            "duration": 5.459
        },
        {
            "text": "of tokens which is actually pretty",
            "start": 90.06,
            "duration": 3.419
        },
        {
            "text": "helpful right because now we can start",
            "start": 91.979,
            "duration": 3.721
        },
        {
            "text": "sort of classifying these and if you",
            "start": 93.479,
            "duration": 4.32
        },
        {
            "text": "remember the tokens that we have we have",
            "start": 95.7,
            "duration": 3.54
        },
        {
            "text": "literally something like this where we",
            "start": 97.799,
            "duration": 3.36
        },
        {
            "text": "say an ident and that can hold a string",
            "start": 99.24,
            "duration": 4.739
        },
        {
            "text": "and we also have things like a let or",
            "start": 101.159,
            "duration": 5.221
        },
        {
            "text": "here's a function or here's we also",
            "start": 103.979,
            "duration": 4.621
        },
        {
            "text": "added keywords for true and false and if",
            "start": 106.38,
            "duration": 3.66
        },
        {
            "text": "we're not going to go over those today",
            "start": 108.6,
            "duration": 3.42
        },
        {
            "text": "right but basically our first part",
            "start": 110.04,
            "duration": 4.619
        },
        {
            "text": "Elixir you can imagine all it does is it",
            "start": 112.02,
            "duration": 5.639
        },
        {
            "text": "takes this string and then you get out a",
            "start": 114.659,
            "duration": 4.441
        },
        {
            "text": "list of tokens",
            "start": 117.659,
            "duration": 4.381
        },
        {
            "text": "phase two of the steps that we want to",
            "start": 119.1,
            "duration": 4.799
        },
        {
            "text": "do is we're going to work on making a",
            "start": 122.04,
            "duration": 4.74
        },
        {
            "text": "parser and so what does the parser do a",
            "start": 123.899,
            "duration": 5.34
        },
        {
            "text": "parser should take basically basically a",
            "start": 126.78,
            "duration": 5.24
        },
        {
            "text": "token list and we want to turn that into",
            "start": 129.239,
            "duration": 6.241
        },
        {
            "text": "basically like a tree sometimes you'll",
            "start": 132.02,
            "duration": 5.439
        },
        {
            "text": "have heard this called an AST which",
            "start": 135.48,
            "duration": 5.28
        },
        {
            "text": "stands for abstract syntax tree right",
            "start": 137.459,
            "duration": 4.801
        },
        {
            "text": "that's uh that's what this means and",
            "start": 140.76,
            "duration": 3.36
        },
        {
            "text": "this basically just says like instead of",
            "start": 142.26,
            "duration": 4.26
        },
        {
            "text": "having this what we really want to have",
            "start": 144.12,
            "duration": 4.56
        },
        {
            "text": "is something like okay what we have is a",
            "start": 146.52,
            "duration": 6.18
        },
        {
            "text": "let statement and the name is some x",
            "start": 148.68,
            "duration": 8.04
        },
        {
            "text": "value right and the value is something",
            "start": 152.7,
            "duration": 7.86
        },
        {
            "text": "like okay we have a function right and",
            "start": 156.72,
            "duration": 6.599
        },
        {
            "text": "the function has args you know Y and Z",
            "start": 160.56,
            "duration": 7.5
        },
        {
            "text": "and the body is a return statement with",
            "start": 163.319,
            "duration": 7.681
        },
        {
            "text": "the expression being something like left",
            "start": 168.06,
            "duration": 6.84
        },
        {
            "text": "side is y we're gonna add these and the",
            "start": 171.0,
            "duration": 5.7
        },
        {
            "text": "right side is z right something like",
            "start": 174.9,
            "duration": 3.78
        },
        {
            "text": "this you can sort of imagine that that's",
            "start": 176.7,
            "duration": 4.5
        },
        {
            "text": "what we're trying to shoot for and so",
            "start": 178.68,
            "duration": 4.8
        },
        {
            "text": "ultimately our goal with this is we want",
            "start": 181.2,
            "duration": 4.259
        },
        {
            "text": "to turn this into a structure that later",
            "start": 183.48,
            "duration": 5.399
        },
        {
            "text": "will be able to evaluate right so first",
            "start": 185.459,
            "duration": 6.541
        },
        {
            "text": "phase is laxer second phase is parser we",
            "start": 188.879,
            "duration": 5.761
        },
        {
            "text": "go from this flat list to like a tree",
            "start": 192.0,
            "duration": 5.519
        },
        {
            "text": "that has sort of more or less the kind",
            "start": 194.64,
            "duration": 4.679
        },
        {
            "text": "of semantic meaning that we're trying to",
            "start": 197.519,
            "duration": 4.381
        },
        {
            "text": "encode with what we're actually writing",
            "start": 199.319,
            "duration": 4.801
        },
        {
            "text": "with that in mind let's go ahead and",
            "start": 201.9,
            "duration": 4.32
        },
        {
            "text": "check out the type of the thing that",
            "start": 204.12,
            "duration": 3.78
        },
        {
            "text": "we're trying to generate now remember",
            "start": 206.22,
            "duration": 4.019
        },
        {
            "text": "this may look a little bit crazy at",
            "start": 207.9,
            "duration": 4.259
        },
        {
            "text": "first there's a few extra things going",
            "start": 210.239,
            "duration": 3.541
        },
        {
            "text": "on in the file we're not going to cover",
            "start": 212.159,
            "duration": 3.901
        },
        {
            "text": "everything I want to give you this sort",
            "start": 213.78,
            "duration": 4.739
        },
        {
            "text": "of picture of what we're our end goal is",
            "start": 216.06,
            "duration": 4.8
        },
        {
            "text": "that we want to try and do and the",
            "start": 218.519,
            "duration": 4.021
        },
        {
            "text": "picture that we have here is that we",
            "start": 220.86,
            "duration": 5.159
        },
        {
            "text": "have some node which represents the kind",
            "start": 222.54,
            "duration": 5.4
        },
        {
            "text": "of thing that we have in a file in the",
            "start": 226.019,
            "duration": 3.541
        },
        {
            "text": "previous example it would be one",
            "start": 227.94,
            "duration": 3.96
        },
        {
            "text": "statement this is one complete let",
            "start": 229.56,
            "duration": 4.62
        },
        {
            "text": "statement we say let x equals this",
            "start": 231.9,
            "duration": 4.5
        },
        {
            "text": "function okay that's one complete",
            "start": 234.18,
            "duration": 4.32
        },
        {
            "text": "statement we can actually look at what",
            "start": 236.4,
            "duration": 4.199
        },
        {
            "text": "our statement type looks like which it",
            "start": 238.5,
            "duration": 3.9
        },
        {
            "text": "says hey here's all the statements that",
            "start": 240.599,
            "duration": 3.961
        },
        {
            "text": "we support today you could add more of",
            "start": 242.4,
            "duration": 4.32
        },
        {
            "text": "these you could add a macro statement or",
            "start": 244.56,
            "duration": 3.539
        },
        {
            "text": "you could add whatever you want to do",
            "start": 246.72,
            "duration": 2.64
        },
        {
            "text": "that's part of the fun of writing your",
            "start": 248.099,
            "duration": 2.881
        },
        {
            "text": "own language but in this case what we",
            "start": 249.36,
            "duration": 3.659
        },
        {
            "text": "have is a lat statement and we say we",
            "start": 250.98,
            "duration": 4.5
        },
        {
            "text": "have some identifier that's this X and",
            "start": 253.019,
            "duration": 4.081
        },
        {
            "text": "we have some value that's this",
            "start": 255.48,
            "duration": 3.84
        },
        {
            "text": "expression they say hmm",
            "start": 257.1,
            "duration": 4.8
        },
        {
            "text": "what does expression look like we go",
            "start": 259.32,
            "duration": 4.26
        },
        {
            "text": "into expression and we see a lot of",
            "start": 261.9,
            "duration": 2.94
        },
        {
            "text": "things that we expect right you could",
            "start": 263.58,
            "duration": 2.82
        },
        {
            "text": "have an identifier that's just like a",
            "start": 264.84,
            "duration": 3.78
        },
        {
            "text": "variable right or just literally an INT",
            "start": 266.4,
            "duration": 5.1
        },
        {
            "text": "or literally a Boolean or a string and",
            "start": 268.62,
            "duration": 4.32
        },
        {
            "text": "then we get into something that's a",
            "start": 271.5,
            "duration": 2.88
        },
        {
            "text": "little bit complicated and if you're",
            "start": 272.94,
            "duration": 4.319
        },
        {
            "text": "interested I can try and maybe do a more",
            "start": 274.38,
            "duration": 5.64
        },
        {
            "text": "Deep dive example into this concept of",
            "start": 277.259,
            "duration": 5.041
        },
        {
            "text": "Pratt parsing in the next video it would",
            "start": 280.02,
            "duration": 4.02
        },
        {
            "text": "definitely have to be its own whole",
            "start": 282.3,
            "duration": 3.3
        },
        {
            "text": "video so if if you want that let me know",
            "start": 284.04,
            "duration": 3.42
        },
        {
            "text": "in the comments and maybe we can work",
            "start": 285.6,
            "duration": 4.2
        },
        {
            "text": "that out but the general idea here",
            "start": 287.46,
            "duration": 4.679
        },
        {
            "text": "you'll see just like how I wrote that we",
            "start": 289.8,
            "duration": 4.56
        },
        {
            "text": "have this sort of concept of returning",
            "start": 292.139,
            "duration": 4.381
        },
        {
            "text": "an expression with the left side being",
            "start": 294.36,
            "duration": 4.44
        },
        {
            "text": "in a y and then an addition and then a",
            "start": 296.52,
            "duration": 4.26
        },
        {
            "text": "right what we have here is we have this",
            "start": 298.8,
            "duration": 3.6
        },
        {
            "text": "infix operation where we have some",
            "start": 300.78,
            "duration": 4.5
        },
        {
            "text": "expression on the left some operator and",
            "start": 302.4,
            "duration": 5.22
        },
        {
            "text": "then some expression on the right so",
            "start": 305.28,
            "duration": 4.26
        },
        {
            "text": "that's how we would get to this",
            "start": 307.62,
            "duration": 4.74
        },
        {
            "text": "expression inside of this statement",
            "start": 309.54,
            "duration": 6.42
        },
        {
            "text": "however what we have is not just a",
            "start": 312.36,
            "duration": 6.18
        },
        {
            "text": "statements I actually have a whole",
            "start": 315.96,
            "duration": 3.959
        },
        {
            "text": "function",
            "start": 318.54,
            "duration": 3.06
        },
        {
            "text": "I'm sorry let me say it again however",
            "start": 319.919,
            "duration": 3.78
        },
        {
            "text": "what we have here is not just one",
            "start": 321.6,
            "duration": 4.02
        },
        {
            "text": "addition expression what we actually",
            "start": 323.699,
            "duration": 4.621
        },
        {
            "text": "have is a complete function so we can",
            "start": 325.62,
            "duration": 4.74
        },
        {
            "text": "see that we have a different variant",
            "start": 328.32,
            "duration": 3.24
        },
        {
            "text": "once again you can think of this as",
            "start": 330.36,
            "duration": 2.7
        },
        {
            "text": "enums or whatever you want right you",
            "start": 331.56,
            "duration": 2.639
        },
        {
            "text": "could have literally an expression",
            "start": 333.06,
            "duration": 3.12
        },
        {
            "text": "that's just an identifier or we have",
            "start": 334.199,
            "duration": 4.201
        },
        {
            "text": "this more complicated expression which",
            "start": 336.18,
            "duration": 4.38
        },
        {
            "text": "is a complete function literal and just",
            "start": 338.4,
            "duration": 4.32
        },
        {
            "text": "like I wrote out before uh probably",
            "start": 340.56,
            "duration": 4.44
        },
        {
            "text": "uncoincidentally right this idea of a",
            "start": 342.72,
            "duration": 4.319
        },
        {
            "text": "function having some arguments and the",
            "start": 345.0,
            "duration": 3.12
        },
        {
            "text": "only things that you're allowed to have",
            "start": 347.039,
            "duration": 2.88
        },
        {
            "text": "are identifiers and then you have some",
            "start": 348.12,
            "duration": 4.32
        },
        {
            "text": "body which is a block see well what's a",
            "start": 349.919,
            "duration": 6.241
        },
        {
            "text": "block let's just go check ah a block is",
            "start": 352.44,
            "duration": 5.94
        },
        {
            "text": "a list of statements what's a statement",
            "start": 356.16,
            "duration": 4.2
        },
        {
            "text": "well that's the thing we already looked",
            "start": 358.38,
            "duration": 3.9
        },
        {
            "text": "at right and in this case we only have",
            "start": 360.36,
            "duration": 4.26
        },
        {
            "text": "one kind of statement which is a return",
            "start": 362.28,
            "duration": 4.919
        },
        {
            "text": "exp a return statement and a return just",
            "start": 364.62,
            "duration": 4.44
        },
        {
            "text": "holds an expression if you think about",
            "start": 367.199,
            "duration": 4.621
        },
        {
            "text": "it when you have a return it always just",
            "start": 369.06,
            "duration": 5.22
        },
        {
            "text": "has one expression here that needs to",
            "start": 371.82,
            "duration": 4.5
        },
        {
            "text": "get evaluated later so you say sort of",
            "start": 374.28,
            "duration": 3.78
        },
        {
            "text": "this one thing here is a complete",
            "start": 376.32,
            "duration": 4.2
        },
        {
            "text": "statement we can make it of the the",
            "start": 378.06,
            "duration": 6.0
        },
        {
            "text": "variant type return and it holds this",
            "start": 380.52,
            "duration": 6.06
        },
        {
            "text": "expression and then we go back in and",
            "start": 384.06,
            "duration": 3.9
        },
        {
            "text": "you can see how these types sort of",
            "start": 386.58,
            "duration": 3.959
        },
        {
            "text": "interleave with each other but it's very",
            "start": 387.96,
            "duration": 4.679
        },
        {
            "text": "cool to be able to see sort of this",
            "start": 390.539,
            "duration": 4.141
        },
        {
            "text": "concept of how that's working so you",
            "start": 392.639,
            "duration": 3.961
        },
        {
            "text": "could return another function we don't",
            "start": 394.68,
            "duration": 3.48
        },
        {
            "text": "have to do a bunch of extra work to do",
            "start": 396.6,
            "duration": 3.24
        },
        {
            "text": "that because we're already handling that",
            "start": 398.16,
            "duration": 6.18
        },
        {
            "text": "functions R inside of a inside of an",
            "start": 399.84,
            "duration": 6.54
        },
        {
            "text": "expression we're already handling that",
            "start": 404.34,
            "duration": 4.079
        },
        {
            "text": "functions our inside of an expression so",
            "start": 406.38,
            "duration": 4.56
        },
        {
            "text": "if we did something like return",
            "start": 408.419,
            "duration": 5.581
        },
        {
            "text": "Foo and then that's going to return y",
            "start": 410.94,
            "duration": 5.759
        },
        {
            "text": "plus Z Plus Foo see how we didn't have",
            "start": 414.0,
            "duration": 5.22
        },
        {
            "text": "to do any extra work to manage this",
            "start": 416.699,
            "duration": 4.261
        },
        {
            "text": "concept this whole thing is one",
            "start": 419.22,
            "duration": 4.08
        },
        {
            "text": "expression and we look at our return it",
            "start": 420.96,
            "duration": 3.66
        },
        {
            "text": "just says a return has to hold an",
            "start": 423.3,
            "duration": 3.66
        },
        {
            "text": "expression so it's totally fine that we",
            "start": 424.62,
            "duration": 4.44
        },
        {
            "text": "have a return statement which holds an",
            "start": 426.96,
            "duration": 4.079
        },
        {
            "text": "expression which can hold another return",
            "start": 429.06,
            "duration": 5.52
        },
        {
            "text": "statement nobody is uh scared of that in",
            "start": 431.039,
            "duration": 5.22
        },
        {
            "text": "the type system maybe you're scared",
            "start": 434.58,
            "duration": 3.179
        },
        {
            "text": "looking at it but I promise if you think",
            "start": 436.259,
            "duration": 2.701
        },
        {
            "text": "about it for a little bit you can sort",
            "start": 437.759,
            "duration": 3.901
        },
        {
            "text": "of see how that goes and that concept is",
            "start": 438.96,
            "duration": 4.44
        },
        {
            "text": "unpacked more in the book as well as",
            "start": 441.66,
            "duration": 3.539
        },
        {
            "text": "this concept of Pratt parsing so like I",
            "start": 443.4,
            "duration": 3.419
        },
        {
            "text": "said if you want to see it we can try to",
            "start": 445.199,
            "duration": 2.94
        },
        {
            "text": "do that",
            "start": 446.819,
            "duration": 3.6
        },
        {
            "text": "so that's the AST that we're trying to",
            "start": 448.139,
            "duration": 5.821
        },
        {
            "text": "build how then though do we go from a",
            "start": 450.419,
            "duration": 6.661
        },
        {
            "text": "stream of these tokens to an actual ASD",
            "start": 453.96,
            "duration": 5.82
        },
        {
            "text": "well that's our parser right and so our",
            "start": 457.08,
            "duration": 5.399
        },
        {
            "text": "parser the main thing that we have here",
            "start": 459.78,
            "duration": 4.319
        },
        {
            "text": "is that we're going to write a function",
            "start": 462.479,
            "duration": 4.681
        },
        {
            "text": "basically that emits a new parser we",
            "start": 464.099,
            "duration": 4.861
        },
        {
            "text": "once again make a type for the parser",
            "start": 467.16,
            "duration": 4.02
        },
        {
            "text": "where it holds its lexor it holds its",
            "start": 468.96,
            "duration": 4.92
        },
        {
            "text": "current token and its peak token notice",
            "start": 471.18,
            "duration": 5.1
        },
        {
            "text": "these are not mutable Fields so these",
            "start": 473.88,
            "duration": 6.06
        },
        {
            "text": "each time we move one step first further",
            "start": 476.28,
            "duration": 6.06
        },
        {
            "text": "in the laxer we sort of update our state",
            "start": 479.94,
            "duration": 4.379
        },
        {
            "text": "and we're going to create a new parser",
            "start": 482.34,
            "duration": 4.199
        },
        {
            "text": "for that state the cool thing about that",
            "start": 484.319,
            "duration": 4.561
        },
        {
            "text": "is whenever you have one state you'll",
            "start": 486.539,
            "duration": 4.141
        },
        {
            "text": "always get exactly the next state I'll",
            "start": 488.88,
            "duration": 4.62
        },
        {
            "text": "show you how that works in a second",
            "start": 490.68,
            "duration": 5.22
        },
        {
            "text": "um the primary sort of entry point for",
            "start": 493.5,
            "duration": 3.919
        },
        {
            "text": "this function is uh probably",
            "start": 495.9,
            "duration": 4.38
        },
        {
            "text": "unsurprisingly parse and it takes in a",
            "start": 497.419,
            "duration": 4.96
        },
        {
            "text": "parser and so what are we going to",
            "start": 500.28,
            "duration": 4.44
        },
        {
            "text": "actually do we're going to try and",
            "start": 502.379,
            "duration": 5.701
        },
        {
            "text": "collect all of the statements",
            "start": 504.72,
            "duration": 5.58
        },
        {
            "text": "into a list this is that sort of",
            "start": 508.08,
            "duration": 5.04
        },
        {
            "text": "recursive accumulator pattern that maybe",
            "start": 510.3,
            "duration": 4.919
        },
        {
            "text": "you've seen before from the previous",
            "start": 513.12,
            "duration": 4.56
        },
        {
            "text": "video but the idea is we start with an",
            "start": 515.219,
            "duration": 4.38
        },
        {
            "text": "empty list what we're going to do then",
            "start": 517.68,
            "duration": 3.18
        },
        {
            "text": "is we're going to call this function",
            "start": 519.599,
            "duration": 3.781
        },
        {
            "text": "recursively where we're going to go",
            "start": 520.86,
            "duration": 3.479
        },
        {
            "text": "inside here we're going to say hey",
            "start": 523.38,
            "duration": 3.18
        },
        {
            "text": "what's the current token so what's our",
            "start": 524.339,
            "duration": 3.901
        },
        {
            "text": "current token that we have right this is",
            "start": 526.56,
            "duration": 4.74
        },
        {
            "text": "a token option if we'll go over the sum",
            "start": 528.24,
            "duration": 5.219
        },
        {
            "text": "case in a second but in the nun case",
            "start": 531.3,
            "duration": 3.96
        },
        {
            "text": "that means we're done there's no tokens",
            "start": 533.459,
            "duration": 5.101
        },
        {
            "text": "left so we say Okay literally we're",
            "start": 535.26,
            "duration": 5.1
        },
        {
            "text": "going to return the parser and then we",
            "start": 538.56,
            "duration": 3.3
        },
        {
            "text": "reverse the statements that's sort of",
            "start": 540.36,
            "duration": 3.24
        },
        {
            "text": "just because we build these up as a",
            "start": 541.86,
            "duration": 3.3
        },
        {
            "text": "linked list we reverse them that's sort",
            "start": 543.6,
            "duration": 3.6
        },
        {
            "text": "of a functional style thing you can hate",
            "start": 545.16,
            "duration": 5.16
        },
        {
            "text": "it if you want but that's okay this may",
            "start": 547.2,
            "duration": 4.259
        },
        {
            "text": "be a topic for a different video as well",
            "start": 550.32,
            "duration": 3.24
        },
        {
            "text": "I think it's okay so when we're done",
            "start": 551.459,
            "duration": 4.56
        },
        {
            "text": "we're going to do this otherwise we're",
            "start": 553.56,
            "duration": 3.839
        },
        {
            "text": "going to go here and so what does this",
            "start": 556.019,
            "duration": 3.661
        },
        {
            "text": "do this says Hey parse the next",
            "start": 557.399,
            "duration": 4.261
        },
        {
            "text": "statement for me",
            "start": 559.68,
            "duration": 4.26
        },
        {
            "text": "and if we error then let's like error",
            "start": 561.66,
            "duration": 3.78
        },
        {
            "text": "out of this function otherwise let's",
            "start": 563.94,
            "duration": 4.32
        },
        {
            "text": "continue advancing the parser and adding",
            "start": 565.44,
            "duration": 4.44
        },
        {
            "text": "this statement to the list of statements",
            "start": 568.26,
            "duration": 2.579
        },
        {
            "text": "that we have",
            "start": 569.88,
            "duration": 2.88
        },
        {
            "text": "so what does par statement look like",
            "start": 570.839,
            "duration": 3.721
        },
        {
            "text": "parse statement says hey",
            "start": 572.76,
            "duration": 4.139
        },
        {
            "text": "we've got a current we've got a current",
            "start": 574.56,
            "duration": 5.7
        },
        {
            "text": "token is it the let token if it is parse",
            "start": 576.899,
            "duration": 5.461
        },
        {
            "text": "let so parse let looks like this and",
            "start": 580.26,
            "duration": 3.72
        },
        {
            "text": "this pattern is basically the same for",
            "start": 582.36,
            "duration": 2.7
        },
        {
            "text": "each of them I'm not going to go over",
            "start": 583.98,
            "duration": 3.12
        },
        {
            "text": "all of them but this pattern is",
            "start": 585.06,
            "duration": 3.54
        },
        {
            "text": "basically how each one's going to work",
            "start": 587.1,
            "duration": 4.2
        },
        {
            "text": "where you have this um parse identifier",
            "start": 588.6,
            "duration": 5.28
        },
        {
            "text": "which takes in a t that's that's the",
            "start": 591.3,
            "duration": 6.539
        },
        {
            "text": "parser and it returns a new parser and",
            "start": 593.88,
            "duration": 5.76
        },
        {
            "text": "the identifier so that's what it says",
            "start": 597.839,
            "duration": 4.321
        },
        {
            "text": "it's going to do or in error",
            "start": 599.64,
            "duration": 4.44
        },
        {
            "text": "and you're saying I don't see any error",
            "start": 602.16,
            "duration": 3.9
        },
        {
            "text": "handling TJ what are you doing uh in the",
            "start": 604.08,
            "duration": 3.36
        },
        {
            "text": "go book everywhere we have to have if",
            "start": 606.06,
            "duration": 4.08
        },
        {
            "text": "air not equal nil blah blah right or in",
            "start": 607.44,
            "duration": 4.5
        },
        {
            "text": "Rust maybe you'd see like parse",
            "start": 610.14,
            "duration": 4.139
        },
        {
            "text": "identifier and you'd look like this or",
            "start": 611.94,
            "duration": 3.18
        },
        {
            "text": "something",
            "start": 614.279,
            "duration": 3.841
        },
        {
            "text": "well that question mark syntax is",
            "start": 615.12,
            "duration": 5.88
        },
        {
            "text": "actually handled by this let Star",
            "start": 618.12,
            "duration": 5.279
        },
        {
            "text": "operator so notice normally we just",
            "start": 621.0,
            "duration": 5.279
        },
        {
            "text": "write let just says whatever this item",
            "start": 623.399,
            "duration": 4.741
        },
        {
            "text": "is put this here but you can actually",
            "start": 626.279,
            "duration": 4.5
        },
        {
            "text": "create sort of your own question mark",
            "start": 628.14,
            "duration": 6.48
        },
        {
            "text": "syntax in ocamel by creating a new let",
            "start": 630.779,
            "duration": 5.581
        },
        {
            "text": "Star operator and this basically says",
            "start": 634.62,
            "duration": 4.32
        },
        {
            "text": "here's the result and the F and if you",
            "start": 636.36,
            "duration": 5.22
        },
        {
            "text": "know monads monads by the way they're a",
            "start": 638.94,
            "duration": 5.16
        },
        {
            "text": "burrito if you know monads then you'll",
            "start": 641.58,
            "duration": 3.66
        },
        {
            "text": "understand",
            "start": 644.1,
            "duration": 3.419
        },
        {
            "text": "this may be a little bit but the basic",
            "start": 645.24,
            "duration": 4.92
        },
        {
            "text": "idea is gonna say here and this this is",
            "start": 647.519,
            "duration": 4.38
        },
        {
            "text": "a it's a big complicated type to get",
            "start": 650.16,
            "duration": 3.48
        },
        {
            "text": "started but just walk through slowly I",
            "start": 651.899,
            "duration": 3.481
        },
        {
            "text": "promise it's gonna make sense you don't",
            "start": 653.64,
            "duration": 3.06
        },
        {
            "text": "have to understand monads to understand",
            "start": 655.38,
            "duration": 3.959
        },
        {
            "text": "this what this says is that we have some",
            "start": 656.7,
            "duration": 5.16
        },
        {
            "text": "Alpha type and we have some error type",
            "start": 659.339,
            "duration": 4.381
        },
        {
            "text": "right so we have some Alpha this is what",
            "start": 661.86,
            "duration": 4.02
        },
        {
            "text": "happens when you return okay and then we",
            "start": 663.72,
            "duration": 4.02
        },
        {
            "text": "have some error type here which is what",
            "start": 665.88,
            "duration": 3.78
        },
        {
            "text": "happens when you return error",
            "start": 667.74,
            "duration": 4.62
        },
        {
            "text": "this says Hey pass in a function here",
            "start": 669.66,
            "duration": 4.919
        },
        {
            "text": "that takes in something of type Alpha",
            "start": 672.36,
            "duration": 4.26
        },
        {
            "text": "right so that's this Alpha and this",
            "start": 674.579,
            "duration": 5.88
        },
        {
            "text": "Alpha and return to me some new beta",
            "start": 676.62,
            "duration": 6.54
        },
        {
            "text": "type and ER and it has to be the same",
            "start": 680.459,
            "duration": 5.461
        },
        {
            "text": "error type so we're result so we're it's",
            "start": 683.16,
            "duration": 4.44
        },
        {
            "text": "kind of like",
            "start": 685.92,
            "duration": 3.539
        },
        {
            "text": "it's kind of like map it's not like map",
            "start": 687.6,
            "duration": 3.359
        },
        {
            "text": "though just to be clear it's not like",
            "start": 689.459,
            "duration": 4.62
        },
        {
            "text": "map because we only take in what happens",
            "start": 690.959,
            "duration": 7.261
        },
        {
            "text": "if we got an okay value and then what",
            "start": 694.079,
            "duration": 5.461
        },
        {
            "text": "we're going to do at the end is we're",
            "start": 698.22,
            "duration": 4.26
        },
        {
            "text": "going to return this new beta or",
            "start": 699.54,
            "duration": 4.919
        },
        {
            "text": "um error type so let's go back to where",
            "start": 702.48,
            "duration": 3.539
        },
        {
            "text": "we were so I can show you how this works",
            "start": 704.459,
            "duration": 4.081
        },
        {
            "text": "what this is basically saying is parse",
            "start": 706.019,
            "duration": 4.56
        },
        {
            "text": "identifier is this is the alpha type",
            "start": 708.54,
            "duration": 3.9
        },
        {
            "text": "right here which is going to return a",
            "start": 710.579,
            "duration": 4.681
        },
        {
            "text": "new parser an identifier Tuple and so",
            "start": 712.44,
            "duration": 7.019
        },
        {
            "text": "this says okay if this is returned okay",
            "start": 715.26,
            "duration": 6.54
        },
        {
            "text": "we're going to return a parser and a",
            "start": 719.459,
            "duration": 4.62
        },
        {
            "text": "name if it doesn't we're just going to",
            "start": 721.8,
            "duration": 4.979
        },
        {
            "text": "basically pass the rest through to",
            "start": 724.079,
            "duration": 4.741
        },
        {
            "text": "whatever error happens from parse",
            "start": 726.779,
            "duration": 4.74
        },
        {
            "text": "identifier it's in a sense you could",
            "start": 728.82,
            "duration": 5.16
        },
        {
            "text": "write this like parse identifier",
            "start": 731.519,
            "duration": 4.56
        },
        {
            "text": "and then parser",
            "start": 733.98,
            "duration": 4.979
        },
        {
            "text": "let x equals this in here right and so",
            "start": 736.079,
            "duration": 5.341
        },
        {
            "text": "you'll see I have this as a match type",
            "start": 738.959,
            "duration": 5.82
        },
        {
            "text": "and we can call this with",
            "start": 741.42,
            "duration": 7.38
        },
        {
            "text": "we could pipe this to result result dot",
            "start": 744.779,
            "duration": 5.581
        },
        {
            "text": "bind",
            "start": 748.8,
            "duration": 4.14
        },
        {
            "text": "and then pass in our own function which",
            "start": 750.36,
            "duration": 5.4
        },
        {
            "text": "says function parser name and then do",
            "start": 752.94,
            "duration": 4.32
        },
        {
            "text": "the rest of this",
            "start": 755.76,
            "duration": 3.42
        },
        {
            "text": "so it would be kind of a lot of extra",
            "start": 757.26,
            "duration": 3.9
        },
        {
            "text": "work to rewrite you end up creating a",
            "start": 759.18,
            "duration": 5.04
        },
        {
            "text": "lot of syntax obfuscation and instead we",
            "start": 761.16,
            "duration": 4.919
        },
        {
            "text": "can do this idea where it's sort of like",
            "start": 764.22,
            "duration": 4.32
        },
        {
            "text": "we're rewriting the function to use the",
            "start": 766.079,
            "duration": 5.461
        },
        {
            "text": "question marks or like try catch or",
            "start": 768.54,
            "duration": 5.94
        },
        {
            "text": "promise uh resolve all of those ideas",
            "start": 771.54,
            "duration": 5.16
        },
        {
            "text": "are very similar except o camera lets",
            "start": 774.48,
            "duration": 2.88
        },
        {
            "text": "you",
            "start": 776.7,
            "duration": 3.72
        },
        {
            "text": "uh extend the language in these ways and",
            "start": 777.36,
            "duration": 4.62
        },
        {
            "text": "you you kind of get used to it after you",
            "start": 780.42,
            "duration": 4.02
        },
        {
            "text": "try it for a little bit so this actually",
            "start": 781.98,
            "duration": 4.02
        },
        {
            "text": "every single one of these functions",
            "start": 784.44,
            "duration": 3.78
        },
        {
            "text": "where you see a let star actually could",
            "start": 786.0,
            "duration": 4.44
        },
        {
            "text": "fail and we handle all of those failures",
            "start": 788.22,
            "duration": 4.5
        },
        {
            "text": "by bubbling the error back up the stack",
            "start": 790.44,
            "duration": 5.339
        },
        {
            "text": "as we go so we try and get a parser and",
            "start": 792.72,
            "duration": 5.04
        },
        {
            "text": "a name that's this first part for right",
            "start": 795.779,
            "duration": 3.721
        },
        {
            "text": "when you think about a let this gets",
            "start": 797.76,
            "duration": 4.319
        },
        {
            "text": "this x value right here then it says uh",
            "start": 799.5,
            "duration": 4.8
        },
        {
            "text": "we better have an equal sign next if we",
            "start": 802.079,
            "duration": 4.681
        },
        {
            "text": "don't that's an error then we say let's",
            "start": 804.3,
            "duration": 4.32
        },
        {
            "text": "Advance the parser to the beginning of",
            "start": 806.76,
            "duration": 3.24
        },
        {
            "text": "this expression and then we're going to",
            "start": 808.62,
            "duration": 3.12
        },
        {
            "text": "parse this whole expression into this",
            "start": 810.0,
            "duration": 4.019
        },
        {
            "text": "parse expression there's could be a",
            "start": 811.74,
            "duration": 4.62
        },
        {
            "text": "semicolon doesn't have to be and then",
            "start": 814.019,
            "duration": 4.921
        },
        {
            "text": "return to me where we are now in the",
            "start": 816.36,
            "duration": 4.979
        },
        {
            "text": "parser and this new let statement this",
            "start": 818.94,
            "duration": 4.44
        },
        {
            "text": "let statement is exactly the thing that",
            "start": 821.339,
            "duration": 4.081
        },
        {
            "text": "I just showed you previously and tells",
            "start": 823.38,
            "duration": 4.019
        },
        {
            "text": "you about the name and the identifier so",
            "start": 825.42,
            "duration": 4.44
        },
        {
            "text": "once we do that parse let right this is",
            "start": 827.399,
            "duration": 4.141
        },
        {
            "text": "parse statement so we'll keep popping",
            "start": 829.86,
            "duration": 4.2
        },
        {
            "text": "back up it says Ah we have a new parser",
            "start": 831.54,
            "duration": 5.34
        },
        {
            "text": "and a statement Advance the parser so we",
            "start": 834.06,
            "duration": 3.959
        },
        {
            "text": "keep going",
            "start": 836.88,
            "duration": 3.48
        },
        {
            "text": "and then upon that statement so that",
            "start": 838.019,
            "duration": 4.32
        },
        {
            "text": "would have put this new let statement in",
            "start": 840.36,
            "duration": 4.38
        },
        {
            "text": "our list of statements we keep on doing",
            "start": 842.339,
            "duration": 4.56
        },
        {
            "text": "this as we're chomping down each of the",
            "start": 844.74,
            "duration": 4.5
        },
        {
            "text": "things in our token stream right so we",
            "start": 846.899,
            "duration": 4.081
        },
        {
            "text": "would have topped this chomped this let",
            "start": 849.24,
            "duration": 4.02
        },
        {
            "text": "it in x equals function blah blah blah",
            "start": 850.98,
            "duration": 4.14
        },
        {
            "text": "and then if there was more stuff left",
            "start": 853.26,
            "duration": 5.16
        },
        {
            "text": "you know like let y equals true then we",
            "start": 855.12,
            "duration": 5.88
        },
        {
            "text": "would eventually get down to this lat",
            "start": 858.42,
            "duration": 4.74
        },
        {
            "text": "statement and now we would be back at",
            "start": 861.0,
            "duration": 3.66
        },
        {
            "text": "the beginning of this function right so",
            "start": 863.16,
            "duration": 3.72
        },
        {
            "text": "we would have been we would have been",
            "start": 864.66,
            "duration": 5.46
        },
        {
            "text": "right at this now let and so now we try",
            "start": 866.88,
            "duration": 4.5
        },
        {
            "text": "and parse the statement again and we'd",
            "start": 870.12,
            "duration": 2.519
        },
        {
            "text": "go in",
            "start": 871.38,
            "duration": 2.699
        },
        {
            "text": "and we just keep doing that we keep",
            "start": 872.639,
            "duration": 3.781
        },
        {
            "text": "doing it over and over until we get to",
            "start": 874.079,
            "duration": 4.2
        },
        {
            "text": "the end of the list and then it would",
            "start": 876.42,
            "duration": 4.08
        },
        {
            "text": "say ah there's no more tokens so we're",
            "start": 878.279,
            "duration": 4.321
        },
        {
            "text": "all done return the list of these and",
            "start": 880.5,
            "duration": 4.56
        },
        {
            "text": "now we have our AST",
            "start": 882.6,
            "duration": 3.84
        },
        {
            "text": "o",
            "start": 885.06,
            "duration": 3.48
        },
        {
            "text": "take a deep breath walk back if you",
            "start": 886.44,
            "duration": 3.12
        },
        {
            "text": "haven't seen the sport it's going to be",
            "start": 888.54,
            "duration": 2.46
        },
        {
            "text": "a little bit different but let's think",
            "start": 889.56,
            "duration": 3.719
        },
        {
            "text": "about where we were we start with a list",
            "start": 891.0,
            "duration": 5.88
        },
        {
            "text": "of tokens right we take a string and we",
            "start": 893.279,
            "duration": 5.761
        },
        {
            "text": "create this list of tokens we can add",
            "start": 896.88,
            "duration": 3.959
        },
        {
            "text": "new tokens as more language features",
            "start": 899.04,
            "duration": 3.72
        },
        {
            "text": "evolve or whatever that's totally fine",
            "start": 900.839,
            "duration": 4.86
        },
        {
            "text": "once we have that list of tokens we want",
            "start": 902.76,
            "duration": 5.639
        },
        {
            "text": "to generate an AST in ASD we just write",
            "start": 905.699,
            "duration": 4.621
        },
        {
            "text": "out the different types of things we'd",
            "start": 908.399,
            "duration": 5.341
        },
        {
            "text": "be able to expect and then we write some",
            "start": 910.32,
            "duration": 6.0
        },
        {
            "text": "parser to take that string which is",
            "start": 913.74,
            "duration": 4.68
        },
        {
            "text": "really like or take that list of tokens",
            "start": 916.32,
            "duration": 4.92
        },
        {
            "text": "which is inside the laxer move forward",
            "start": 918.42,
            "duration": 4.919
        },
        {
            "text": "as we go and turn that into a tree so",
            "start": 921.24,
            "duration": 3.659
        },
        {
            "text": "it's sort of has to accumulate those",
            "start": 923.339,
            "duration": 3.24
        },
        {
            "text": "nodes into these Expressions that's",
            "start": 924.899,
            "duration": 3.781
        },
        {
            "text": "where parsing comes in if you want me to",
            "start": 926.579,
            "duration": 3.901
        },
        {
            "text": "talk about that more let me know",
            "start": 928.68,
            "duration": 4.32
        },
        {
            "text": "But ultimately the rest of the the rest",
            "start": 930.48,
            "duration": 4.26
        },
        {
            "text": "of stuff inside of the parser is just",
            "start": 933.0,
            "duration": 3.54
        },
        {
            "text": "writing out the different cases you can",
            "start": 934.74,
            "duration": 3.42
        },
        {
            "text": "see that we're just pattern matching on",
            "start": 936.54,
            "duration": 3.12
        },
        {
            "text": "the different types of tokens we might",
            "start": 938.16,
            "duration": 3.84
        },
        {
            "text": "have we parse return we're going to do",
            "start": 939.66,
            "duration": 4.32
        },
        {
            "text": "the same parse expression parse",
            "start": 942.0,
            "duration": 3.36
        },
        {
            "text": "expression is probably the most",
            "start": 943.98,
            "duration": 3.539
        },
        {
            "text": "complicated part but it's also some of",
            "start": 945.36,
            "duration": 3.96
        },
        {
            "text": "the most elegant stuff that we have what",
            "start": 947.519,
            "duration": 3.241
        },
        {
            "text": "you can see here is we have this parse",
            "start": 949.32,
            "duration": 3.9
        },
        {
            "text": "prefix and we're once again going to use",
            "start": 950.76,
            "duration": 4.5
        },
        {
            "text": "these pattern matching features that we",
            "start": 953.22,
            "duration": 4.2
        },
        {
            "text": "have in ocamel to make things really",
            "start": 955.26,
            "duration": 3.78
        },
        {
            "text": "nice match on the different types of",
            "start": 957.42,
            "duration": 3.9
        },
        {
            "text": "tokens that we have maybe there's some",
            "start": 959.04,
            "duration": 4.02
        },
        {
            "text": "unexpected ones so we would need to",
            "start": 961.32,
            "duration": 4.5
        },
        {
            "text": "return an error and then we can parse on",
            "start": 963.06,
            "duration": 5.04
        },
        {
            "text": "those the in fix that's where there's a",
            "start": 965.82,
            "duration": 4.5
        },
        {
            "text": "left and a right side that's exactly",
            "start": 968.1,
            "duration": 3.9
        },
        {
            "text": "what we talked about with the plus and",
            "start": 970.32,
            "duration": 3.18
        },
        {
            "text": "so you can see we match on something",
            "start": 972.0,
            "duration": 4.26
        },
        {
            "text": "like hey if any of the peaks look like",
            "start": 973.5,
            "duration": 5.1
        },
        {
            "text": "this do this parse infix if it looks",
            "start": 976.26,
            "duration": 3.96
        },
        {
            "text": "like a left parenthesis that means we're",
            "start": 978.6,
            "duration": 3.539
        },
        {
            "text": "going to call if it's a left bracket",
            "start": 980.22,
            "duration": 3.9
        },
        {
            "text": "that means we're going to Index this and",
            "start": 982.139,
            "duration": 4.26
        },
        {
            "text": "you can sort of hop down each of these",
            "start": 984.12,
            "duration": 5.76
        },
        {
            "text": "as you go and eventually get to where",
            "start": 986.399,
            "duration": 5.461
        },
        {
            "text": "you're gonna say I see that now I have",
            "start": 989.88,
            "duration": 4.079
        },
        {
            "text": "this like plus sign and so I'm going to",
            "start": 991.86,
            "duration": 3.839
        },
        {
            "text": "create this Edition",
            "start": 993.959,
            "duration": 4.62
        },
        {
            "text": "that's basically everything about what",
            "start": 995.699,
            "duration": 4.921
        },
        {
            "text": "happened in the parser uh it ends up",
            "start": 998.579,
            "duration": 4.68
        },
        {
            "text": "being a little bit more code I have some",
            "start": 1000.62,
            "duration": 4.38
        },
        {
            "text": "tests at the bottom but besides the",
            "start": 1003.259,
            "duration": 5.221
        },
        {
            "text": "tests let's Skip it's maybe 400 lines of",
            "start": 1005.0,
            "duration": 5.04
        },
        {
            "text": "code right and that's the complete",
            "start": 1008.48,
            "duration": 4.32
        },
        {
            "text": "parser for this whole language to turn",
            "start": 1010.04,
            "duration": 5.76
        },
        {
            "text": "uh every situation that we have from the",
            "start": 1012.8,
            "duration": 6.18
        },
        {
            "text": "lexer into a valid AST obviously there",
            "start": 1015.8,
            "duration": 4.979
        },
        {
            "text": "will be cases where people write illegal",
            "start": 1018.98,
            "duration": 4.26
        },
        {
            "text": "code if you had done FN here and then",
            "start": 1020.779,
            "duration": 5.4
        },
        {
            "text": "done ASDF or something this is not legal",
            "start": 1023.24,
            "duration": 5.099
        },
        {
            "text": "so when you get to this function literal",
            "start": 1026.179,
            "duration": 6.181
        },
        {
            "text": "I think we can probably find a function",
            "start": 1028.339,
            "duration": 5.161
        },
        {
            "text": "um",
            "start": 1032.36,
            "duration": 3.479
        },
        {
            "text": "expert parse function we're going to",
            "start": 1033.5,
            "duration": 4.559
        },
        {
            "text": "expect a left pair and as the first",
            "start": 1035.839,
            "duration": 4.201
        },
        {
            "text": "thing we see after we see this function",
            "start": 1038.059,
            "duration": 3.541
        },
        {
            "text": "and if we didn't see this this would",
            "start": 1040.04,
            "duration": 3.779
        },
        {
            "text": "return an error right so in the case",
            "start": 1041.6,
            "duration": 5.28
        },
        {
            "text": "where we have this we'll be able to",
            "start": 1043.819,
            "duration": 4.681
        },
        {
            "text": "um see this and we'd go through and say",
            "start": 1046.88,
            "duration": 2.82
        },
        {
            "text": "ah we'll see that there's a left",
            "start": 1048.5,
            "duration": 2.82
        },
        {
            "text": "parenthesis and then we're going to",
            "start": 1049.7,
            "duration": 3.719
        },
        {
            "text": "accumulate these arguments and then",
            "start": 1051.32,
            "duration": 3.84
        },
        {
            "text": "we're gonna expect that we get this left",
            "start": 1053.419,
            "duration": 3.841
        },
        {
            "text": "brace then we're going to parse the",
            "start": 1055.16,
            "duration": 3.72
        },
        {
            "text": "block and then we expect that we get a",
            "start": 1057.26,
            "duration": 3.9
        },
        {
            "text": "right right bracket at the end of that",
            "start": 1058.88,
            "duration": 4.2
        },
        {
            "text": "now we return our function",
            "start": 1061.16,
            "duration": 4.86
        },
        {
            "text": "same idea over and over and over you",
            "start": 1063.08,
            "duration": 4.86
        },
        {
            "text": "just create a new token if you need it",
            "start": 1066.02,
            "duration": 3.539
        },
        {
            "text": "figure out how you're going to handle",
            "start": 1067.94,
            "duration": 3.599
        },
        {
            "text": "that token and this is where I feel ml",
            "start": 1069.559,
            "duration": 3.961
        },
        {
            "text": "languages or at least languages with",
            "start": 1071.539,
            "duration": 3.601
        },
        {
            "text": "pattern matching just make things so",
            "start": 1073.52,
            "duration": 3.779
        },
        {
            "text": "easy because you can just write these",
            "start": 1075.14,
            "duration": 3.84
        },
        {
            "text": "match statements you can pull out",
            "start": 1077.299,
            "duration": 4.5
        },
        {
            "text": "variables if you need to like in this",
            "start": 1078.98,
            "duration": 5.1
        },
        {
            "text": "case for reading identifier we actually",
            "start": 1081.799,
            "duration": 5.101
        },
        {
            "text": "just say if this matches some item",
            "start": 1084.08,
            "duration": 4.26
        },
        {
            "text": "identifier we can just return the",
            "start": 1086.9,
            "duration": 3.36
        },
        {
            "text": "identifier directly that's like a really",
            "start": 1088.34,
            "duration": 5.579
        },
        {
            "text": "nice and crisp way to write that so",
            "start": 1090.26,
            "duration": 5.82
        },
        {
            "text": "that's phase two",
            "start": 1093.919,
            "duration": 3.481
        },
        {
            "text": "if you have questions if there's",
            "start": 1096.08,
            "duration": 3.0
        },
        {
            "text": "anything I missed covering that's the",
            "start": 1097.4,
            "duration": 3.48
        },
        {
            "text": "general overview and like the main",
            "start": 1099.08,
            "duration": 3.54
        },
        {
            "text": "conceptual thing I want you to",
            "start": 1100.88,
            "duration": 4.74
        },
        {
            "text": "understand is list of tokens to tree of",
            "start": 1102.62,
            "duration": 5.46
        },
        {
            "text": "notes that that's the movement that we",
            "start": 1105.62,
            "duration": 5.16
        },
        {
            "text": "have here part three is when we start",
            "start": 1108.08,
            "duration": 5.28
        },
        {
            "text": "taking those nodes and evaluating them",
            "start": 1110.78,
            "duration": 4.98
        },
        {
            "text": "at runtime all right that's it for the",
            "start": 1113.36,
            "duration": 5.24
        },
        {
            "text": "video see you later",
            "start": 1115.76,
            "duration": 2.84
        }
    ],
    "stats": {
        "viewCount": "18539",
        "likeCount": "697",
        "favoriteCount": "0",
        "commentCount": "50"
    }
}