{
    "id": "F6GNPOXpfwU",
    "title": "[Demo] Lua Augroups - Why And How To Use?",
    "publishedAt": "2022-03-08T13:34:50Z",
    "captions": [
        {
            "text": "what is up",
            "start": 1.12,
            "duration": 4.48
        },
        {
            "text": "youtube slash reddit slash twitter slash",
            "start": 2.879,
            "duration": 5.441
        },
        {
            "text": "discourse slash matrix anywhere else",
            "start": 5.6,
            "duration": 4.64
        },
        {
            "text": "that i'll post this video afterwards",
            "start": 8.32,
            "duration": 4.72
        },
        {
            "text": "because not enough of you are smashing",
            "start": 10.24,
            "duration": 4.72
        },
        {
            "text": "that like button",
            "start": 13.04,
            "duration": 3.12
        },
        {
            "text": "we're gonna talk just a little bit more",
            "start": 14.96,
            "duration": 3.2
        },
        {
            "text": "about lua auto commands because some",
            "start": 16.16,
            "duration": 4.64
        },
        {
            "text": "people had some questions and i figured",
            "start": 18.16,
            "duration": 4.8
        },
        {
            "text": "why don't i just answer them so the",
            "start": 20.8,
            "duration": 4.0
        },
        {
            "text": "first one that people have been asking",
            "start": 22.96,
            "duration": 5.68
        },
        {
            "text": "me is why doesn't this api automatically",
            "start": 24.8,
            "duration": 5.92
        },
        {
            "text": "create this group",
            "start": 28.64,
            "duration": 4.079
        },
        {
            "text": "when you're calling it here and i think",
            "start": 30.72,
            "duration": 3.76
        },
        {
            "text": "the main thing is that people are sort",
            "start": 32.719,
            "duration": 4.401
        },
        {
            "text": "of not understanding what is the",
            "start": 34.48,
            "duration": 4.88
        },
        {
            "text": "purpose of auto groups and they sort of",
            "start": 37.12,
            "duration": 3.279
        },
        {
            "text": "think well",
            "start": 39.36,
            "duration": 4.24
        },
        {
            "text": "i just add an auto command to an auto",
            "start": 40.399,
            "duration": 5.601
        },
        {
            "text": "group just like in a small block which",
            "start": 43.6,
            "duration": 4.88
        },
        {
            "text": "is true oftentimes what you'll do is",
            "start": 46.0,
            "duration": 4.64
        },
        {
            "text": "you'll create some group here",
            "start": 48.48,
            "duration": 4.079
        },
        {
            "text": "and then you'll pass in the group here",
            "start": 50.64,
            "duration": 3.439
        },
        {
            "text": "and you'll run this and you can check",
            "start": 52.559,
            "duration": 3.921
        },
        {
            "text": "buff enter and you'll see that we have",
            "start": 54.079,
            "duration": 6.561
        },
        {
            "text": "this particular auto command made now",
            "start": 56.48,
            "duration": 5.84
        },
        {
            "text": "what can also happen is you could have",
            "start": 60.64,
            "duration": 4.479
        },
        {
            "text": "if condition let's just say a local",
            "start": 62.32,
            "duration": 4.08
        },
        {
            "text": "condition",
            "start": 65.119,
            "duration": 3.201
        },
        {
            "text": "is true right now right if condition",
            "start": 66.4,
            "duration": 4.399
        },
        {
            "text": "then we're also going to create a new",
            "start": 68.32,
            "duration": 4.72
        },
        {
            "text": "one but instead of this it's going to",
            "start": 70.799,
            "duration": 4.32
        },
        {
            "text": "say conditional",
            "start": 73.04,
            "duration": 4.56
        },
        {
            "text": "right and if we had this and we run this",
            "start": 75.119,
            "duration": 4.961
        },
        {
            "text": "again we check auto buff enter you'll",
            "start": 77.6,
            "duration": 4.8
        },
        {
            "text": "see it does add the conditional right",
            "start": 80.08,
            "duration": 4.56
        },
        {
            "text": "but in this case when we put false it's",
            "start": 82.4,
            "duration": 5.359
        },
        {
            "text": "not whoops it's not going to",
            "start": 84.64,
            "duration": 5.519
        },
        {
            "text": "and so the thing to consider is not",
            "start": 87.759,
            "duration": 4.881
        },
        {
            "text": "every auto command added to a group will",
            "start": 90.159,
            "duration": 5.521
        },
        {
            "text": "necessarily be created sort of like in a",
            "start": 92.64,
            "duration": 5.68
        },
        {
            "text": "top down execution of a file",
            "start": 95.68,
            "duration": 4.96
        },
        {
            "text": "but beyond that a top-down execution of",
            "start": 98.32,
            "duration": 5.2
        },
        {
            "text": "a file is not like a logical block in",
            "start": 100.64,
            "duration": 4.96
        },
        {
            "text": "lua right you can't just be like",
            "start": 103.52,
            "duration": 4.639
        },
        {
            "text": "ah i see this is the first time and i'm",
            "start": 105.6,
            "duration": 5.76
        },
        {
            "text": "encountering this group within a file",
            "start": 108.159,
            "duration": 5.361
        },
        {
            "text": "that's not a concept that would be very",
            "start": 111.36,
            "duration": 3.2
        },
        {
            "text": "magical",
            "start": 113.52,
            "duration": 3.52
        },
        {
            "text": "right so instead what you need to do as",
            "start": 114.56,
            "duration": 4.879
        },
        {
            "text": "the plug-in developer or configuration",
            "start": 117.04,
            "duration": 3.679
        },
        {
            "text": "person",
            "start": 119.439,
            "duration": 3.28
        },
        {
            "text": "is you need to tell us when you would",
            "start": 120.719,
            "duration": 3.841
        },
        {
            "text": "like to create the group and whether you",
            "start": 122.719,
            "duration": 3.601
        },
        {
            "text": "would like to clear it or not because",
            "start": 124.56,
            "duration": 4.08
        },
        {
            "text": "the behavior is very different right",
            "start": 126.32,
            "duration": 4.48
        },
        {
            "text": "if what you wanted to do was every",
            "start": 128.64,
            "duration": 4.16
        },
        {
            "text": "single time you run this file you keep",
            "start": 130.8,
            "duration": 3.76
        },
        {
            "text": "on adding these you're going to have",
            "start": 132.8,
            "duration": 4.72
        },
        {
            "text": "this get registered many times now in",
            "start": 134.56,
            "duration": 5.039
        },
        {
            "text": "some cases you actually do want to",
            "start": 137.52,
            "duration": 4.799
        },
        {
            "text": "register a bunch of auto commands to the",
            "start": 139.599,
            "duration": 4.801
        },
        {
            "text": "same auto group that's totally fine",
            "start": 142.319,
            "duration": 4.321
        },
        {
            "text": "imagine just doing this right and each",
            "start": 144.4,
            "duration": 4.8
        },
        {
            "text": "of these do different things whoops each",
            "start": 146.64,
            "duration": 4.56
        },
        {
            "text": "of these do different things right hello",
            "start": 149.2,
            "duration": 5.28
        },
        {
            "text": "one two three four and then we wanna do",
            "start": 151.2,
            "duration": 4.24
        },
        {
            "text": "uh",
            "start": 154.48,
            "duration": 2.8
        },
        {
            "text": "we go to here and we say true again to",
            "start": 155.44,
            "duration": 3.84
        },
        {
            "text": "clear it now execute this file and",
            "start": 157.28,
            "duration": 3.599
        },
        {
            "text": "you'll see that we've got these that's",
            "start": 159.28,
            "duration": 3.92
        },
        {
            "text": "perfectly reasonable to expect to",
            "start": 160.879,
            "duration": 3.601
        },
        {
            "text": "register",
            "start": 163.2,
            "duration": 3.679
        },
        {
            "text": "multiple auto commands to the same auto",
            "start": 164.48,
            "duration": 3.68
        },
        {
            "text": "group",
            "start": 166.879,
            "duration": 4.08
        },
        {
            "text": "so we can't possibly know when if you",
            "start": 168.16,
            "duration": 5.92
        },
        {
            "text": "haven't defined this group here what do",
            "start": 170.959,
            "duration": 4.801
        },
        {
            "text": "you want us to do do you want us to",
            "start": 174.08,
            "duration": 3.68
        },
        {
            "text": "create the group is it a bug in your",
            "start": 175.76,
            "duration": 3.36
        },
        {
            "text": "code that you should have already",
            "start": 177.76,
            "duration": 3.6
        },
        {
            "text": "created it and cleared it should we keep",
            "start": 179.12,
            "duration": 4.24
        },
        {
            "text": "on just appending these auto commands",
            "start": 181.36,
            "duration": 4.239
        },
        {
            "text": "indefinitely right because if you don't",
            "start": 183.36,
            "duration": 5.28
        },
        {
            "text": "have this clear at the beginning",
            "start": 185.599,
            "duration": 4.64
        },
        {
            "text": "so let's say we do this",
            "start": 188.64,
            "duration": 3.36
        },
        {
            "text": "we comment this line out right and we'll",
            "start": 190.239,
            "duration": 3.761
        },
        {
            "text": "just delete the rest here",
            "start": 192.0,
            "duration": 4.159
        },
        {
            "text": "every time we",
            "start": 194.0,
            "duration": 4.56
        },
        {
            "text": "say group here and we say smash",
            "start": 196.159,
            "duration": 3.841
        },
        {
            "text": "that like button",
            "start": 198.56,
            "duration": 2.72
        },
        {
            "text": "we run this",
            "start": 200.0,
            "duration": 4.239
        },
        {
            "text": "we're going to keep on adding",
            "start": 201.28,
            "duration": 4.319
        },
        {
            "text": "stuff to this",
            "start": 204.239,
            "duration": 2.881
        },
        {
            "text": "so that would be the behavior if you",
            "start": 205.599,
            "duration": 3.841
        },
        {
            "text": "were resourcing the file",
            "start": 207.12,
            "duration": 4.24
        },
        {
            "text": "without having this group now this",
            "start": 209.44,
            "duration": 3.28
        },
        {
            "text": "wouldn't actually work if i hadn't",
            "start": 211.36,
            "duration": 3.519
        },
        {
            "text": "created this out group before",
            "start": 212.72,
            "duration": 3.68
        },
        {
            "text": "but i hope that that's making sense",
            "start": 214.879,
            "duration": 3.44
        },
        {
            "text": "right what i'm saying is if you don't",
            "start": 216.4,
            "duration": 3.759
        },
        {
            "text": "tell us",
            "start": 218.319,
            "duration": 3.601
        },
        {
            "text": "i would like to create this group and",
            "start": 220.159,
            "duration": 4.241
        },
        {
            "text": "clear it or create this group and allow",
            "start": 221.92,
            "duration": 5.2
        },
        {
            "text": "it to sort of continue to be reused",
            "start": 224.4,
            "duration": 6.399
        },
        {
            "text": "we as neovim can't possibly tell",
            "start": 227.12,
            "duration": 6.319
        },
        {
            "text": "what your expectation is to happen right",
            "start": 230.799,
            "duration": 4.481
        },
        {
            "text": "there's no such thing as like this is",
            "start": 233.439,
            "duration": 3.601
        },
        {
            "text": "only an auto command from this file so",
            "start": 235.28,
            "duration": 3.36
        },
        {
            "text": "restart the file or something like that",
            "start": 237.04,
            "duration": 3.839
        },
        {
            "text": "that's not that's not a thing so",
            "start": 238.64,
            "duration": 3.84
        },
        {
            "text": "hopefully that answers the question",
            "start": 240.879,
            "duration": 4.161
        },
        {
            "text": "about auto groups and why you would",
            "start": 242.48,
            "duration": 4.959
        },
        {
            "text": "still sort of want to use them what the",
            "start": 245.04,
            "duration": 5.759
        },
        {
            "text": "purpose of them would be",
            "start": 247.439,
            "duration": 3.36
        }
    ],
    "stats": {
        "viewCount": "11043",
        "likeCount": "684",
        "favoriteCount": "0",
        "commentCount": "37"
    }
}