{
    "id": "JMK_30jeGww",
    "title": "Is it still worth it to learn to code? (I think so)",
    "publishedAt": "2024-04-01T13:51:47Z",
    "captions": [
        {
            "text": "I've been getting asked a lot lately",
            "start": 1.199,
            "duration": 4.361
        },
        {
            "text": "about my thoughts about the future of",
            "start": 3.199,
            "duration": 5.44
        },
        {
            "text": "software development whenever a new AI",
            "start": 5.56,
            "duration": 4.999
        },
        {
            "text": "Advance is released I get a flood of",
            "start": 8.639,
            "duration": 4.201
        },
        {
            "text": "questions asking what is the future for",
            "start": 10.559,
            "duration": 4.12
        },
        {
            "text": "software developers and I think the",
            "start": 12.84,
            "duration": 4.64
        },
        {
            "text": "question they are not asking is will I",
            "start": 14.679,
            "duration": 6.52
        },
        {
            "text": "still be allowed to code in the future",
            "start": 17.48,
            "duration": 5.68
        },
        {
            "text": "obviously everything besides c will",
            "start": 21.199,
            "duration": 4.881
        },
        {
            "text": "still be legal I I feel like the real",
            "start": 23.16,
            "duration": 5.68
        },
        {
            "text": "question that they're asking is will I",
            "start": 26.08,
            "duration": 4.959
        },
        {
            "text": "still be able to get paid with the",
            "start": 28.84,
            "duration": 4.16
        },
        {
            "text": "skills that I'm learning while I learn",
            "start": 31.039,
            "duration": 4.441
        },
        {
            "text": "to code and so the first thing I want to",
            "start": 33.0,
            "duration": 5.04
        },
        {
            "text": "say is I hate predicting things",
            "start": 35.48,
            "duration": 4.759
        },
        {
            "text": "particularly in public if you would have",
            "start": 38.04,
            "duration": 4.6
        },
        {
            "text": "asked me 5 years ago about if any of",
            "start": 40.239,
            "duration": 5.041
        },
        {
            "text": "this AI Tech if we would have it today",
            "start": 42.64,
            "duration": 4.32
        },
        {
            "text": "I'm pretty sure I would have said no and",
            "start": 45.28,
            "duration": 3.72
        },
        {
            "text": "I'm not talking about the crazy hyped up",
            "start": 46.96,
            "duration": 5.399
        },
        {
            "text": "demos I'm talking conversational AI that",
            "start": 49.0,
            "duration": 5.8
        },
        {
            "text": "returns some semblance of a conversation",
            "start": 52.359,
            "duration": 5.561
        },
        {
            "text": "even if it's mostly hallucinated I I I",
            "start": 54.8,
            "duration": 4.64
        },
        {
            "text": "don't think I wasn't thinking that was",
            "start": 57.92,
            "duration": 3.92
        },
        {
            "text": "going to be possible so I've had to",
            "start": 59.44,
            "duration": 4.799
        },
        {
            "text": "update my priors many times throughout",
            "start": 61.84,
            "duration": 4.279
        },
        {
            "text": "the last few years regarding Ai and its",
            "start": 64.239,
            "duration": 4.121
        },
        {
            "text": "capabilities and therefore it's future",
            "start": 66.119,
            "duration": 4.68
        },
        {
            "text": "capabilities as well so I just don't",
            "start": 68.36,
            "duration": 4.6
        },
        {
            "text": "have enough hubris to think that I know",
            "start": 70.799,
            "duration": 4.841
        },
        {
            "text": "what's going to happen in the future I",
            "start": 72.96,
            "duration": 4.56
        },
        {
            "text": "guess I do have just enough huis though",
            "start": 75.64,
            "duration": 4.6
        },
        {
            "text": "to post this video about my thoughts so",
            "start": 77.52,
            "duration": 4.36
        },
        {
            "text": "there's two major points though that I",
            "start": 80.24,
            "duration": 3.48
        },
        {
            "text": "want to talk about the first is that I",
            "start": 81.88,
            "duration": 4.68
        },
        {
            "text": "think software is more than coding and",
            "start": 83.72,
            "duration": 4.92
        },
        {
            "text": "then the second is that programming",
            "start": 86.56,
            "duration": 4.08
        },
        {
            "text": "itself is more than coding",
            "start": 88.64,
            "duration": 4.6
        },
        {
            "text": "and before I sort of go deep on those I",
            "start": 90.64,
            "duration": 4.4
        },
        {
            "text": "want to just seed for the sake of",
            "start": 93.24,
            "duration": 4.48
        },
        {
            "text": "argument that AI will be able to do",
            "start": 95.04,
            "duration": 4.719
        },
        {
            "text": "coding tasks that a junior engineer is",
            "start": 97.72,
            "duration": 4.12
        },
        {
            "text": "currently exposed to do AI will be able",
            "start": 99.759,
            "duration": 4.72
        },
        {
            "text": "to perform these as faster faster and",
            "start": 101.84,
            "duration": 4.639
        },
        {
            "text": "more cheaply than those Junior engineers",
            "start": 104.479,
            "duration": 4.401
        },
        {
            "text": "and AI will be able to do this and",
            "start": 106.479,
            "duration": 4.881
        },
        {
            "text": "productionize right sort of rolled out",
            "start": 108.88,
            "duration": 5.32
        },
        {
            "text": "to people um sometime in say the next 5",
            "start": 111.36,
            "duration": 5.2
        },
        {
            "text": "years I realize some people in my chat",
            "start": 114.2,
            "duration": 3.68
        },
        {
            "text": "keep telling me that this is going to be",
            "start": 116.56,
            "duration": 3.68
        },
        {
            "text": "in 6 months but that roll out SC seems",
            "start": 117.88,
            "duration": 4.199
        },
        {
            "text": "quite difficult to change the entire",
            "start": 120.24,
            "duration": 4.0
        },
        {
            "text": "structure of an industry in that time",
            "start": 122.079,
            "duration": 3.801
        },
        {
            "text": "but that's a conversation for a separate",
            "start": 124.24,
            "duration": 3.999
        },
        {
            "text": "video the reason I say that is because I",
            "start": 125.88,
            "duration": 4.12
        },
        {
            "text": "don't want to fight about what I think",
            "start": 128.239,
            "duration": 4.921
        },
        {
            "text": "the particular capabilities of AI are",
            "start": 130.0,
            "duration": 5.28
        },
        {
            "text": "going to be instead I want to talk about",
            "start": 133.16,
            "duration": 5.079
        },
        {
            "text": "that with sort of that scenario in mind",
            "start": 135.28,
            "duration": 4.44
        },
        {
            "text": "and if you think any of those points are",
            "start": 138.239,
            "duration": 3.601
        },
        {
            "text": "much too aggressive in favor of AI then",
            "start": 139.72,
            "duration": 3.799
        },
        {
            "text": "that's totally fine my argument will",
            "start": 141.84,
            "duration": 6.16
        },
        {
            "text": "just be bolstered in my in my corner the",
            "start": 143.519,
            "duration": 6.521
        },
        {
            "text": "other clarification I want to make is",
            "start": 148.0,
            "duration": 3.64
        },
        {
            "text": "for the rest of the video when I say",
            "start": 150.04,
            "duration": 4.12
        },
        {
            "text": "coding I'm sort of referring to this act",
            "start": 151.64,
            "duration": 4.52
        },
        {
            "text": "of sitting in front of a computer typing",
            "start": 154.16,
            "duration": 4.04
        },
        {
            "text": "autocom completing copying pasting a",
            "start": 156.16,
            "duration": 4.28
        },
        {
            "text": "programming language into an editor and",
            "start": 158.2,
            "duration": 4.679
        },
        {
            "text": "then shipping that to prod in some sense",
            "start": 160.44,
            "duration": 5.719
        },
        {
            "text": "the exclusively physical act of creating",
            "start": 162.879,
            "duration": 6.481
        },
        {
            "text": "software so when I say software is more",
            "start": 166.159,
            "duration": 5.921
        },
        {
            "text": "than coding what do I mean I'm saying",
            "start": 169.36,
            "duration": 5.48
        },
        {
            "text": "people don't pay for code they",
            "start": 172.08,
            "duration": 4.64
        },
        {
            "text": "definitely don't pay to just watch you",
            "start": 174.84,
            "duration": 3.8
        },
        {
            "text": "code unless you're a twitch streamer I",
            "start": 176.72,
            "duration": 3.84
        },
        {
            "text": "guess then people like doing that that",
            "start": 178.64,
            "duration": 4.4
        },
        {
            "text": "but what they pay for is for problems to",
            "start": 180.56,
            "duration": 4.92
        },
        {
            "text": "be solved and when you're coding you're",
            "start": 183.04,
            "duration": 4.8
        },
        {
            "text": "not getting paid for that code you're",
            "start": 185.48,
            "duration": 4.28
        },
        {
            "text": "getting paid to solve somebody else's",
            "start": 187.84,
            "duration": 4.64
        },
        {
            "text": "problems real or perceived these",
            "start": 189.76,
            "duration": 4.839
        },
        {
            "text": "problems might be for a client or they",
            "start": 192.48,
            "duration": 3.759
        },
        {
            "text": "could be for your boss or they could be",
            "start": 194.599,
            "duration": 4.0
        },
        {
            "text": "even for other software developers right",
            "start": 196.239,
            "duration": 4.681
        },
        {
            "text": "but the reason you're getting paid is",
            "start": 198.599,
            "duration": 3.92
        },
        {
            "text": "because the problem you're solving for",
            "start": 200.92,
            "duration": 3.84
        },
        {
            "text": "someone is valuable enough for them to",
            "start": 202.519,
            "duration": 5.161
        },
        {
            "text": "part with their beloved cash this boils",
            "start": 204.76,
            "duration": 4.6
        },
        {
            "text": "down to software being able to maybe",
            "start": 207.68,
            "duration": 3.32
        },
        {
            "text": "provide something that's faster or",
            "start": 209.36,
            "duration": 3.879
        },
        {
            "text": "cheaper or more reliable than what could",
            "start": 211.0,
            "duration": 4.12
        },
        {
            "text": "have been accomplished",
            "start": 213.239,
            "duration": 4.961
        },
        {
            "text": "previously and software is a super set",
            "start": 215.12,
            "duration": 5.08
        },
        {
            "text": "of just those coding tasks of just",
            "start": 218.2,
            "duration": 3.959
        },
        {
            "text": "literally typing into the computer",
            "start": 220.2,
            "duration": 4.2
        },
        {
            "text": "because you need more than just good",
            "start": 222.159,
            "duration": 4.521
        },
        {
            "text": "algorithms or a nice type system to",
            "start": 224.4,
            "duration": 4.399
        },
        {
            "text": "create value for your customers not to",
            "start": 226.68,
            "duration": 3.36
        },
        {
            "text": "say those aren't important just I'm",
            "start": 228.799,
            "duration": 3.52
        },
        {
            "text": "saying there is more to software than",
            "start": 230.04,
            "duration": 4.6
        },
        {
            "text": "that you need to be able to understand",
            "start": 232.319,
            "duration": 4.401
        },
        {
            "text": "requirements and update them when things",
            "start": 234.64,
            "duration": 5.519
        },
        {
            "text": "change this may even involve a hesitate",
            "start": 236.72,
            "duration": 6.439
        },
        {
            "text": "to say it talking to a client or to a",
            "start": 240.159,
            "duration": 5.041
        },
        {
            "text": "stakeholder you need to be able to",
            "start": 243.159,
            "duration": 4.16
        },
        {
            "text": "practice communication understanding the",
            "start": 245.2,
            "duration": 4.319
        },
        {
            "text": "non- technical aspects communicated to",
            "start": 247.319,
            "duration": 4.961
        },
        {
            "text": "you sometimes called listening in the",
            "start": 249.519,
            "duration": 4.841
        },
        {
            "text": "area of someone else's expertise and you",
            "start": 252.28,
            "duration": 4.12
        },
        {
            "text": "also need to be able to communicate",
            "start": 254.36,
            "duration": 3.92
        },
        {
            "text": "technical Concepts to non-technical",
            "start": 256.4,
            "duration": 4.92
        },
        {
            "text": "people in your area of expertise you",
            "start": 258.28,
            "duration": 5.08
        },
        {
            "text": "need to be able to say no to feature",
            "start": 261.32,
            "duration": 4.68
        },
        {
            "text": "creep and scope management your project",
            "start": 263.36,
            "duration": 5.8
        },
        {
            "text": "can't do everything right you need to be",
            "start": 266.0,
            "duration": 5.16
        },
        {
            "text": "able to say noce something you'd like to",
            "start": 269.16,
            "duration": 4.64
        },
        {
            "text": "do but think the cost is more than what",
            "start": 271.16,
            "duration": 4.36
        },
        {
            "text": "it's worth like maybe rewriting your",
            "start": 273.8,
            "duration": 4.88
        },
        {
            "text": "front end in Rust there's social aspects",
            "start": 275.52,
            "duration": 5.56
        },
        {
            "text": "to software and to making software like",
            "start": 278.68,
            "duration": 4.2
        },
        {
            "text": "listening to feedback and giving",
            "start": 281.08,
            "duration": 3.959
        },
        {
            "text": "constructive feedback there is mentoring",
            "start": 282.88,
            "duration": 3.96
        },
        {
            "text": "and being mentored there's patience",
            "start": 285.039,
            "duration": 3.761
        },
        {
            "text": "kindness and respect all of these things",
            "start": 286.84,
            "duration": 4.56
        },
        {
            "text": "create teams that are generally seeming",
            "start": 288.8,
            "duration": 4.72
        },
        {
            "text": "to be more effective at creating",
            "start": 291.4,
            "duration": 4.68
        },
        {
            "text": "software and there's also asking and",
            "start": 293.52,
            "duration": 5.48
        },
        {
            "text": "understanding things like how do we make",
            "start": 296.08,
            "duration": 6.0
        },
        {
            "text": "money at this company the best software",
            "start": 299.0,
            "duration": 4.8
        },
        {
            "text": "developers I've ever worked at were",
            "start": 302.08,
            "duration": 4.8
        },
        {
            "text": "great at all of these including coding",
            "start": 303.8,
            "duration": 5.08
        },
        {
            "text": "they definitely were great at writing",
            "start": 306.88,
            "duration": 4.12
        },
        {
            "text": "code but they understood each of these",
            "start": 308.88,
            "duration": 3.92
        },
        {
            "text": "and helped me to learn to do each of",
            "start": 311.0,
            "duration": 4.88
        },
        {
            "text": "them better all of these skills will",
            "start": 312.8,
            "duration": 5.239
        },
        {
            "text": "still be useful for as long as we have",
            "start": 315.88,
            "duration": 4.08
        },
        {
            "text": "jobs there are skills that you can",
            "start": 318.039,
            "duration": 4.16
        },
        {
            "text": "practice and hone while working as a",
            "start": 319.96,
            "duration": 4.32
        },
        {
            "text": "software developer or learning to be a",
            "start": 322.199,
            "duration": 4.081
        },
        {
            "text": "software developer regardless of your",
            "start": 324.28,
            "duration": 4.359
        },
        {
            "text": "seniority and tex",
            "start": 326.28,
            "duration": 6.08
        },
        {
            "text": "stack but even beyond that I want to say",
            "start": 328.639,
            "duration": 7.041
        },
        {
            "text": "programming itself is more than just",
            "start": 332.36,
            "duration": 6.119
        },
        {
            "text": "coding and maybe this section should be",
            "start": 335.68,
            "duration": 4.359
        },
        {
            "text": "titled something more along the lines of",
            "start": 338.479,
            "duration": 5.921
        },
        {
            "text": "programming can be a suet of coding and",
            "start": 340.039,
            "duration": 6.561
        },
        {
            "text": "if I'm being very reductionist and I I",
            "start": 344.4,
            "duration": 4.56
        },
        {
            "text": "want to be clear very reductionist I see",
            "start": 346.6,
            "duration": 4.599
        },
        {
            "text": "sort of two categories of programmers",
            "start": 348.96,
            "duration": 4.239
        },
        {
            "text": "there's solution copiers and there's",
            "start": 351.199,
            "duration": 4.961
        },
        {
            "text": "problem solvers solution copier is not",
            "start": 353.199,
            "duration": 5.521
        },
        {
            "text": "exclusively about using copypaste",
            "start": 356.16,
            "duration": 5.159
        },
        {
            "text": "Solutions it's about using copypaste",
            "start": 358.72,
            "duration": 6.28
        },
        {
            "text": "solutions for copypaste problems without",
            "start": 361.319,
            "duration": 5.921
        },
        {
            "text": "examination as a clarification there are",
            "start": 365.0,
            "duration": 4.199
        },
        {
            "text": "a lot of people who primarily sort of",
            "start": 367.24,
            "duration": 4.64
        },
        {
            "text": "copy and paste code and solve a",
            "start": 369.199,
            "duration": 5.12
        },
        {
            "text": "ridiculous amount of problems they could",
            "start": 371.88,
            "duration": 5.759
        },
        {
            "text": "be like a scrappy solo startup right and",
            "start": 374.319,
            "duration": 5.0
        },
        {
            "text": "they are copy pasting because they don't",
            "start": 377.639,
            "duration": 3.96
        },
        {
            "text": "have an engineer uh you know a legion of",
            "start": 379.319,
            "duration": 3.801
        },
        {
            "text": "Engineers to write a bunch of code they",
            "start": 381.599,
            "duration": 2.761
        },
        {
            "text": "need to take the solutions that are",
            "start": 383.12,
            "duration": 3.479
        },
        {
            "text": "available and ship quickly and iterate",
            "start": 384.36,
            "duration": 4.2
        },
        {
            "text": "or maybe they're a non-programmer using",
            "start": 386.599,
            "duration": 4.081
        },
        {
            "text": "Excel and copy basted Python scripts to",
            "start": 388.56,
            "duration": 4.639
        },
        {
            "text": "power some ridiculous real estate Empire",
            "start": 390.68,
            "duration": 4.16
        },
        {
            "text": "I don't know the point is I'm not",
            "start": 393.199,
            "duration": 2.921
        },
        {
            "text": "actually talking about that group of",
            "start": 394.84,
            "duration": 3.6
        },
        {
            "text": "people here those people are still",
            "start": 396.12,
            "duration": 4.24
        },
        {
            "text": "problem solvers they're just focusing on",
            "start": 398.44,
            "duration": 3.599
        },
        {
            "text": "a different set of problems and a",
            "start": 400.36,
            "duration": 4.679
        },
        {
            "text": "different set of solutions the solution",
            "start": 402.039,
            "duration": 5.481
        },
        {
            "text": "copers they're not interested in how",
            "start": 405.039,
            "duration": 5.0
        },
        {
            "text": "things work just getting passed to the",
            "start": 407.52,
            "duration": 5.119
        },
        {
            "text": "next task they're sort of unaware of the",
            "start": 410.039,
            "duration": 4.121
        },
        {
            "text": "ways that different libraries and",
            "start": 412.639,
            "duration": 3.321
        },
        {
            "text": "language and tools can solve their",
            "start": 414.16,
            "duration": 3.96
        },
        {
            "text": "problems or might not solve their",
            "start": 415.96,
            "duration": 4.16
        },
        {
            "text": "problems they just copy paste the first",
            "start": 418.12,
            "duration": 3.88
        },
        {
            "text": "solution from a stack Overflow problem",
            "start": 420.12,
            "duration": 5.0
        },
        {
            "text": "or now maybe their favorite llm until CI",
            "start": 422.0,
            "duration": 5.319
        },
        {
            "text": "is green there's no concept of",
            "start": 425.12,
            "duration": 4.479
        },
        {
            "text": "considering the context that they're",
            "start": 427.319,
            "duration": 4.401
        },
        {
            "text": "that they're currently in but this isn't",
            "start": 429.599,
            "duration": 4.16
        },
        {
            "text": "just limited to technical problems like",
            "start": 431.72,
            "duration": 4.24
        },
        {
            "text": "we've been talking about it might be",
            "start": 433.759,
            "duration": 3.44
        },
        {
            "text": "that they're not interested at all how",
            "start": 435.96,
            "duration": 3.679
        },
        {
            "text": "their business works or how their makes",
            "start": 437.199,
            "duration": 4.241
        },
        {
            "text": "money or what their customers want right",
            "start": 439.639,
            "duration": 3.721
        },
        {
            "text": "and maybe that they've never considered",
            "start": 441.44,
            "duration": 3.8
        },
        {
            "text": "does the structure of our own",
            "start": 443.36,
            "duration": 4.44
        },
        {
            "text": "organization help us meet the goals and",
            "start": 445.24,
            "duration": 5.48
        },
        {
            "text": "desires that we're setting out to do",
            "start": 447.8,
            "duration": 5.64
        },
        {
            "text": "in contrast we have the problem solvers",
            "start": 450.72,
            "duration": 4.319
        },
        {
            "text": "these are curious people who try to",
            "start": 453.44,
            "duration": 3.96
        },
        {
            "text": "solve problems via understanding and I",
            "start": 455.039,
            "duration": 4.361
        },
        {
            "text": "think these skills will remain useful",
            "start": 457.4,
            "duration": 3.84
        },
        {
            "text": "even if we never write a single line of",
            "start": 459.4,
            "duration": 2.76
        },
        {
            "text": "code",
            "start": 461.24,
            "duration": 3.32
        },
        {
            "text": "again and this is sort of where I think",
            "start": 462.16,
            "duration": 4.28
        },
        {
            "text": "people are underestimating the skills",
            "start": 464.56,
            "duration": 4.68
        },
        {
            "text": "that they can once again can learn via",
            "start": 466.44,
            "duration": 4.879
        },
        {
            "text": "software development right and my point",
            "start": 469.24,
            "duration": 4.48
        },
        {
            "text": "here is that it it's possible to not",
            "start": 471.319,
            "duration": 4.32
        },
        {
            "text": "learn these and to not practice these",
            "start": 473.72,
            "duration": 3.479
        },
        {
            "text": "even if you've been writing code for a",
            "start": 475.639,
            "duration": 3.84
        },
        {
            "text": "long time so for example I think logic",
            "start": 477.199,
            "duration": 4.321
        },
        {
            "text": "iCal thinking is something that we can",
            "start": 479.479,
            "duration": 3.881
        },
        {
            "text": "practice while we're doing software",
            "start": 481.52,
            "duration": 4.079
        },
        {
            "text": "development we can practice decomposing",
            "start": 483.36,
            "duration": 5.04
        },
        {
            "text": "large problems into smaller ones we can",
            "start": 485.599,
            "duration": 5.16
        },
        {
            "text": "work on recognizing iterating and",
            "start": 488.4,
            "duration": 4.04
        },
        {
            "text": "solving issues for customers that",
            "start": 490.759,
            "duration": 4.28
        },
        {
            "text": "they're actually willing to pay for you",
            "start": 492.44,
            "duration": 5.039
        },
        {
            "text": "can get better at domain analysis right",
            "start": 495.039,
            "duration": 4.16
        },
        {
            "text": "understanding a problem set possible",
            "start": 497.479,
            "duration": 4.201
        },
        {
            "text": "solutions and then how to implement some",
            "start": 499.199,
            "duration": 5.241
        },
        {
            "text": "business logic or process to solve that",
            "start": 501.68,
            "duration": 4.56
        },
        {
            "text": "you can work on predicting edge cases or",
            "start": 504.44,
            "duration": 4.28
        },
        {
            "text": "failure modes for those processes you",
            "start": 506.24,
            "duration": 4.84
        },
        {
            "text": "learn how to trade-off management and",
            "start": 508.72,
            "duration": 4.999
        },
        {
            "text": "understand that there exists tradeoffs",
            "start": 511.08,
            "duration": 4.56
        },
        {
            "text": "that you need to manage then there's",
            "start": 513.719,
            "duration": 3.68
        },
        {
            "text": "pattern recognition which is useful all",
            "start": 515.64,
            "duration": 3.8
        },
        {
            "text": "around us and so each of these skills",
            "start": 517.399,
            "duration": 4.161
        },
        {
            "text": "seem to me at least like muscles that",
            "start": 519.44,
            "duration": 4.479
        },
        {
            "text": "you can train and get better at you can",
            "start": 521.56,
            "duration": 5.36
        },
        {
            "text": "use software development as a vehicle",
            "start": 523.919,
            "duration": 5.321
        },
        {
            "text": "for doing that training and all of these",
            "start": 526.92,
            "duration": 4.039
        },
        {
            "text": "skills are going to be useful once again",
            "start": 529.24,
            "duration": 4.8
        },
        {
            "text": "for as long as we have jobs to do same",
            "start": 530.959,
            "duration": 4.481
        },
        {
            "text": "with the soft skills that I mentioned in",
            "start": 534.04,
            "duration": 2.479
        },
        {
            "text": "the software",
            "start": 535.44,
            "duration": 3.6
        },
        {
            "text": "section let me give you an example sort",
            "start": 536.519,
            "duration": 4.641
        },
        {
            "text": "of ill illustrate this A Tale of Two",
            "start": 539.04,
            "duration": 4.0
        },
        {
            "text": "neovim if you will and I know some",
            "start": 541.16,
            "duration": 3.72
        },
        {
            "text": "people are already going to say using",
            "start": 543.04,
            "duration": 4.039
        },
        {
            "text": "neovim that's just a waste of time",
            "start": 544.88,
            "duration": 3.6
        },
        {
            "text": "that's okay that's fine if you don't",
            "start": 547.079,
            "duration": 2.641
        },
        {
            "text": "like neovim that's fine but I want to",
            "start": 548.48,
            "duration": 2.88
        },
        {
            "text": "give a parable sort of of two different",
            "start": 549.72,
            "duration": 3.6
        },
        {
            "text": "people using neovim uh it's not an",
            "start": 551.36,
            "duration": 4.32
        },
        {
            "text": "exhaustive list just just two examples",
            "start": 553.32,
            "duration": 4.32
        },
        {
            "text": "so the first person tries out neovim",
            "start": 555.68,
            "duration": 3.76
        },
        {
            "text": "because of some extrinsic reason and",
            "start": 557.64,
            "duration": 3.6
        },
        {
            "text": "they're hurried to get to Step One of",
            "start": 559.44,
            "duration": 3.68
        },
        {
            "text": "using neovim they don't take time to",
            "start": 561.24,
            "duration": 4.64
        },
        {
            "text": "read or understand or explore something",
            "start": 563.12,
            "duration": 4.36
        },
        {
            "text": "breaks in their config and they just",
            "start": 565.88,
            "duration": 3.68
        },
        {
            "text": "post on Reddit until someone posts or",
            "start": 567.48,
            "duration": 4.32
        },
        {
            "text": "with solution they might make an issue",
            "start": 569.56,
            "duration": 4.16
        },
        {
            "text": "with no reproduction steps and we've",
            "start": 571.8,
            "duration": 3.24
        },
        {
            "text": "seen this kind of person in every Dev",
            "start": 573.72,
            "duration": 3.84
        },
        {
            "text": "community and you can probably relate in",
            "start": 575.04,
            "duration": 4.52
        },
        {
            "text": "my opinion this person actually is",
            "start": 577.56,
            "duration": 4.32
        },
        {
            "text": "wasting their time with neovim which by",
            "start": 579.56,
            "duration": 4.08
        },
        {
            "text": "the way is totally okay we all like to",
            "start": 581.88,
            "duration": 3.72
        },
        {
            "text": "waste our time in different ways I like",
            "start": 583.64,
            "duration": 3.56
        },
        {
            "text": "playing stard to Valley with my wife and",
            "start": 585.6,
            "duration": 3.12
        },
        {
            "text": "we waste time together and it's really",
            "start": 587.2,
            "duration": 4.48
        },
        {
            "text": "nice Pac-Man users wouldn't understand",
            "start": 588.72,
            "duration": 6.0
        },
        {
            "text": "however there isn't any learning going",
            "start": 591.68,
            "duration": 5.279
        },
        {
            "text": "on through this neovim experience which",
            "start": 594.72,
            "duration": 5.679
        },
        {
            "text": "is bad if it characterizes every",
            "start": 596.959,
            "duration": 5.481
        },
        {
            "text": "interaction that you have with skills",
            "start": 600.399,
            "duration": 4.201
        },
        {
            "text": "that sort of are the culmination of your",
            "start": 602.44,
            "duration": 4.36
        },
        {
            "text": "field compare this to someone who's",
            "start": 604.6,
            "duration": 4.84
        },
        {
            "text": "enjoying using neovim they learn to",
            "start": 606.8,
            "duration": 4.24
        },
        {
            "text": "understand how to read documentation",
            "start": 609.44,
            "duration": 2.8
        },
        {
            "text": "they might learn a new programming",
            "start": 611.04,
            "duration": 3.919
        },
        {
            "text": "language they learn new idioms and apis",
            "start": 612.24,
            "duration": 4.0
        },
        {
            "text": "that can teach them about software",
            "start": 614.959,
            "duration": 3.201
        },
        {
            "text": "design when something breaks in their",
            "start": 616.24,
            "duration": 4.0
        },
        {
            "text": "configuration they learn how to read an",
            "start": 618.16,
            "duration": 4.239
        },
        {
            "text": "error message I know controversial in",
            "start": 620.24,
            "duration": 4.44
        },
        {
            "text": "2024 they learn to debug software",
            "start": 622.399,
            "duration": 3.921
        },
        {
            "text": "systems they learn about rolling back",
            "start": 624.68,
            "duration": 3.64
        },
        {
            "text": "about lock files they may even create a",
            "start": 626.32,
            "duration": 3.6
        },
        {
            "text": "PR to fix a problem",
            "start": 628.32,
            "duration": 3.36
        },
        {
            "text": "they build solutions for themselves and",
            "start": 629.92,
            "duration": 3.76
        },
        {
            "text": "are able to rapidly iterate on them",
            "start": 631.68,
            "duration": 3.32
        },
        {
            "text": "towards something that solves a real",
            "start": 633.68,
            "duration": 3.599
        },
        {
            "text": "world problem for them they're their own",
            "start": 635.0,
            "duration": 4.68
        },
        {
            "text": "customer this person has learned a lot",
            "start": 637.279,
            "duration": 4.24
        },
        {
            "text": "even if they end up with exactly the",
            "start": 639.68,
            "duration": 4.719
        },
        {
            "text": "same code AS person one both people",
            "start": 641.519,
            "duration": 6.921
        },
        {
            "text": "spend a lot of time on neovim uh and the",
            "start": 644.399,
            "duration": 6.0
        },
        {
            "text": "but the first one though was a solution",
            "start": 648.44,
            "duration": 5.24
        },
        {
            "text": "copier and the second a problem solver",
            "start": 650.399,
            "duration": 5.56
        },
        {
            "text": "the skills attitudes and perspectives",
            "start": 653.68,
            "duration": 4.48
        },
        {
            "text": "characterizing the problem solver are",
            "start": 655.959,
            "duration": 4.721
        },
        {
            "text": "helpful in many of other domains even if",
            "start": 658.16,
            "duration": 4.52
        },
        {
            "text": "AI takes overwriting software for them",
            "start": 660.68,
            "duration": 3.68
        },
        {
            "text": "forever and they never get to use a",
            "start": 662.68,
            "duration": 4.04
        },
        {
            "text": "modal text editor again which obviously",
            "start": 664.36,
            "duration": 4.88
        },
        {
            "text": "would be very said in the examples I",
            "start": 666.72,
            "duration": 4.359
        },
        {
            "text": "gave you can replace neovim with",
            "start": 669.24,
            "duration": 4.279
        },
        {
            "text": "whatever technology you want react spelt",
            "start": 671.079,
            "duration": 4.481
        },
        {
            "text": "rust hmx Excel whatever it doesn't",
            "start": 673.519,
            "duration": 4.081
        },
        {
            "text": "matter the pattern and the idea is the",
            "start": 675.56,
            "duration": 4.44
        },
        {
            "text": "same and my ultimate Point here is that",
            "start": 677.6,
            "duration": 4.799
        },
        {
            "text": "you get to choose how you're going to",
            "start": 680.0,
            "duration": 4.68
        },
        {
            "text": "tackle problems and the takeaways you'll",
            "start": 682.399,
            "duration": 4.841
        },
        {
            "text": "have from actually solving that problem",
            "start": 684.68,
            "duration": 5.8
        },
        {
            "text": "to move from copy pter to Giga Chad",
            "start": 687.24,
            "duration": 5.2
        },
        {
            "text": "Problem Solver as someone in my chat put",
            "start": 690.48,
            "duration": 5.44
        },
        {
            "text": "it largely revolves around you deciding",
            "start": 692.44,
            "duration": 6.0
        },
        {
            "text": "to start thinking and asking questions",
            "start": 695.92,
            "duration": 5.24
        },
        {
            "text": "today and that's pretty much it then you",
            "start": 698.44,
            "duration": 5.36
        },
        {
            "text": "make that same Choice tomorrow and the",
            "start": 701.16,
            "duration": 4.76
        },
        {
            "text": "day after that and the day after that",
            "start": 703.8,
            "duration": 5.599
        },
        {
            "text": "and then you just keep doing that in a",
            "start": 705.92,
            "duration": 5.32
        },
        {
            "text": "practical example in Practical terms of",
            "start": 709.399,
            "duration": 3.721
        },
        {
            "text": "something you could try to do this with",
            "start": 711.24,
            "duration": 4.56
        },
        {
            "text": "just build something for yourself that",
            "start": 713.12,
            "duration": 5.08
        },
        {
            "text": "solves a real problem that you have it's",
            "start": 715.8,
            "duration": 3.76
        },
        {
            "text": "okay if someone else has already built",
            "start": 718.2,
            "duration": 3.84
        },
        {
            "text": "it the point is that you're going to",
            "start": 719.56,
            "duration": 5.6
        },
        {
            "text": "build it for yourself to see if you can",
            "start": 722.04,
            "duration": 5.239
        },
        {
            "text": "solve this problem something difficult",
            "start": 725.16,
            "duration": 3.84
        },
        {
            "text": "when making products for other people",
            "start": 727.279,
            "duration": 3.36
        },
        {
            "text": "particularly in you know large",
            "start": 729.0,
            "duration": 3.24
        },
        {
            "text": "businesses or with a bunch of other",
            "start": 730.639,
            "duration": 3.961
        },
        {
            "text": "people working on the project it's very",
            "start": 732.24,
            "duration": 4.8
        },
        {
            "text": "hard to distinguish good feedback from",
            "start": 734.6,
            "duration": 4.88
        },
        {
            "text": "loud feedback it's common to have some",
            "start": 737.04,
            "duration": 4.2
        },
        {
            "text": "loud feedback that seems to overwhelm",
            "start": 739.48,
            "duration": 3.96
        },
        {
            "text": "and outweigh all of the other feedback",
            "start": 741.24,
            "duration": 4.36
        },
        {
            "text": "that you are getting so the nice thing",
            "start": 743.44,
            "duration": 4.04
        },
        {
            "text": "about building something for yourself by",
            "start": 745.6,
            "duration": 4.039
        },
        {
            "text": "yourself is you get to be that loud and",
            "start": 747.48,
            "duration": 4.479
        },
        {
            "text": "obnoxious user and then eventually",
            "start": 749.639,
            "duration": 4.601
        },
        {
            "text": "you'll get to decide if you've solved",
            "start": 751.959,
            "duration": 4.801
        },
        {
            "text": "your problem or not and if you didn't",
            "start": 754.24,
            "duration": 4.68
        },
        {
            "text": "that's okay you iterate as I tell my",
            "start": 756.76,
            "duration": 5.04
        },
        {
            "text": "three-year-old son it's okay to fail",
            "start": 758.92,
            "duration": 4.88
        },
        {
            "text": "that's part of how we learn the",
            "start": 761.8,
            "duration": 3.839
        },
        {
            "text": "important part is that we use our",
            "start": 763.8,
            "duration": 4.24
        },
        {
            "text": "roughness and our toughness to try again",
            "start": 765.639,
            "duration": 4.32
        },
        {
            "text": "and you can translate that to any age",
            "start": 768.04,
            "duration": 5.68
        },
        {
            "text": "appropriate way of saying that for",
            "start": 769.959,
            "duration": 6.32
        },
        {
            "text": "you in conclusion what I want to make",
            "start": 773.72,
            "duration": 4.239
        },
        {
            "text": "clear though is that I'm not saying",
            "start": 776.279,
            "duration": 3.721
        },
        {
            "text": "solution copiers are bad people or that",
            "start": 777.959,
            "duration": 4.481
        },
        {
            "text": "I don't like them instead I'm trying to",
            "start": 780.0,
            "duration": 4.92
        },
        {
            "text": "communicate that I would be a bit more",
            "start": 782.44,
            "duration": 4.12
        },
        {
            "text": "concerned if all the skills that I've",
            "start": 784.92,
            "duration": 4.359
        },
        {
            "text": "developed revolved around regurgitating",
            "start": 786.56,
            "duration": 5.959
        },
        {
            "text": "existing solutions that to me seems an",
            "start": 789.279,
            "duration": 6.041
        },
        {
            "text": "area that is more likely to be automated",
            "start": 792.519,
            "duration": 5.521
        },
        {
            "text": "by AI in some fashion and more quickly",
            "start": 795.32,
            "duration": 4.68
        },
        {
            "text": "than other areas of software",
            "start": 798.04,
            "duration": 4.52
        },
        {
            "text": "development I don't like giving advice",
            "start": 800.0,
            "duration": 4.8
        },
        {
            "text": "on the internet mostly because life is",
            "start": 802.56,
            "duration": 4.04
        },
        {
            "text": "much too complicated for someone to",
            "start": 804.8,
            "duration": 4.36
        },
        {
            "text": "explain their situation to me and then",
            "start": 806.6,
            "duration": 4.4
        },
        {
            "text": "it's much too complicated for me to",
            "start": 809.16,
            "duration": 4.56
        },
        {
            "text": "explain my advice to them through this",
            "start": 811.0,
            "duration": 5.32
        },
        {
            "text": "medium so I I generally don't give",
            "start": 813.72,
            "duration": 5.119
        },
        {
            "text": "advice but sort of despite this advice",
            "start": 816.32,
            "duration": 5.199
        },
        {
            "text": "for me like be curious pay attention",
            "start": 818.839,
            "duration": 4.961
        },
        {
            "text": "work hard don't be afraid to fail those",
            "start": 821.519,
            "duration": 4.521
        },
        {
            "text": "have never really led me astray thinking",
            "start": 823.8,
            "duration": 4.52
        },
        {
            "text": "this way once again in my opinion right",
            "start": 826.04,
            "duration": 4.599
        },
        {
            "text": "gives someone the best chance at success",
            "start": 828.32,
            "duration": 4.56
        },
        {
            "text": "regardless of how quickly and thoroughly",
            "start": 830.639,
            "duration": 5.401
        },
        {
            "text": "AI expands into other software Fields I",
            "start": 832.88,
            "duration": 5.36
        },
        {
            "text": "don't know what the future is going to",
            "start": 836.04,
            "duration": 4.479
        },
        {
            "text": "look like I'm just a regular mortal I",
            "start": 838.24,
            "duration": 4.76
        },
        {
            "text": "put my pants on two legs at a time but I",
            "start": 840.519,
            "duration": 4.041
        },
        {
            "text": "do think even discounting all the",
            "start": 843.0,
            "duration": 3.68
        },
        {
            "text": "arguments I've made throughout the video",
            "start": 844.56,
            "duration": 4.719
        },
        {
            "text": "right that if your current hypothesis is",
            "start": 846.68,
            "duration": 4.68
        },
        {
            "text": "that billions of new lines of code are",
            "start": 849.279,
            "duration": 4.521
        },
        {
            "text": "going to be generated it seems likely",
            "start": 851.36,
            "duration": 3.8
        },
        {
            "text": "that",
            "start": 853.8,
            "duration": 3.64
        },
        {
            "text": "truly understanding some things about",
            "start": 855.16,
            "duration": 4.56
        },
        {
            "text": "code now not everything not every",
            "start": 857.44,
            "duration": 4.24
        },
        {
            "text": "language not every framework not every",
            "start": 859.72,
            "duration": 4.52
        },
        {
            "text": "type system but just some things about",
            "start": 861.68,
            "duration": 5.279
        },
        {
            "text": "software itself that seems to me to be a",
            "start": 864.24,
            "duration": 5.56
        },
        {
            "text": "beneficial skill compared to any other",
            "start": 866.959,
            "duration": 4.841
        },
        {
            "text": "possible skills you might have or might",
            "start": 869.8,
            "duration": 4.68
        },
        {
            "text": "want to learn particularly if you like",
            "start": 871.8,
            "duration": 4.52
        },
        {
            "text": "learning about it and you want to get",
            "start": 874.48,
            "duration": 3.919
        },
        {
            "text": "really good at it I hope that this can",
            "start": 876.32,
            "duration": 5.319
        },
        {
            "text": "be encouraging to you to both learn and",
            "start": 878.399,
            "duration": 7.041
        },
        {
            "text": "work hard in your software Endeavors and",
            "start": 881.639,
            "duration": 5.76
        },
        {
            "text": "also some confidence that maybe even if",
            "start": 885.44,
            "duration": 3.72
        },
        {
            "text": "we never get to write code again that a",
            "start": 887.399,
            "duration": 4.0
        },
        {
            "text": "lot of what we're learning can be really",
            "start": 889.16,
            "duration": 4.479
        },
        {
            "text": "useful and transferred to other domains",
            "start": 891.399,
            "duration": 3.36
        },
        {
            "text": "let me know what you think let me know",
            "start": 893.639,
            "duration": 2.681
        },
        {
            "text": "if you like the video thanks everybody I",
            "start": 894.759,
            "duration": 5.281
        },
        {
            "text": "love you see you later",
            "start": 896.32,
            "duration": 3.72
        }
    ],
    "stats": {
        "viewCount": "25278",
        "likeCount": "1941",
        "favoriteCount": "0",
        "commentCount": "147"
    }
}