{
    "id": "xO5yMutC-rM",
    "title": "[New Feature] nvim --remote",
    "publishedAt": "2022-04-03T04:53:54Z",
    "captions": [
        {
            "text": "what is up youtube it's me teige and of",
            "start": 1.12,
            "duration": 4.88
        },
        {
            "text": "course you can see we've got the doggo",
            "start": 3.919,
            "duration": 4.561
        },
        {
            "text": "here today she's just hanging out and",
            "start": 6.0,
            "duration": 3.519
        },
        {
            "text": "sleeping",
            "start": 8.48,
            "duration": 3.199
        },
        {
            "text": "and not happy that i'm petting her",
            "start": 9.519,
            "duration": 4.721
        },
        {
            "text": "whatever sorry amber my bad anyways",
            "start": 11.679,
            "duration": 3.84
        },
        {
            "text": "we'll move on to the cool parts of the",
            "start": 14.24,
            "duration": 3.68
        },
        {
            "text": "video not as cool as my dog though",
            "start": 15.519,
            "duration": 4.001
        },
        {
            "text": "anyways",
            "start": 17.92,
            "duration": 3.92
        },
        {
            "text": "new video event features enven remote",
            "start": 19.52,
            "duration": 3.759
        },
        {
            "text": "i'll show you some examples and then",
            "start": 21.84,
            "duration": 2.72
        },
        {
            "text": "give you the help docs for more",
            "start": 23.279,
            "duration": 3.201
        },
        {
            "text": "information of course as is my normal",
            "start": 24.56,
            "duration": 3.84
        },
        {
            "text": "strategy so basically what you need to",
            "start": 26.48,
            "duration": 3.52
        },
        {
            "text": "do to start off with this is you need to",
            "start": 28.4,
            "duration": 4.72
        },
        {
            "text": "start an nvm that is listening to some",
            "start": 30.0,
            "duration": 5.36
        },
        {
            "text": "location on your machine or a pipe",
            "start": 33.12,
            "duration": 4.48
        },
        {
            "text": "basically you can open this up this has",
            "start": 35.36,
            "duration": 3.6
        },
        {
            "text": "this new of them now this new oven is",
            "start": 37.6,
            "duration": 3.68
        },
        {
            "text": "normal we can type hello this is neovim",
            "start": 38.96,
            "duration": 4.0
        },
        {
            "text": "we can press escape all the good stuff",
            "start": 41.28,
            "duration": 3.52
        },
        {
            "text": "nothing changes about this experience",
            "start": 42.96,
            "duration": 3.36
        },
        {
            "text": "you're just running this new of them",
            "start": 44.8,
            "duration": 4.8
        },
        {
            "text": "here however what we can do now is from",
            "start": 46.32,
            "duration": 5.52
        },
        {
            "text": "this other process an entirely separate",
            "start": 49.6,
            "duration": 3.76
        },
        {
            "text": "process this is just a different shell",
            "start": 51.84,
            "duration": 3.6
        },
        {
            "text": "it's not neofm's embedded terminal or",
            "start": 53.36,
            "duration": 3.359
        },
        {
            "text": "anything just completely different",
            "start": 55.44,
            "duration": 2.16
        },
        {
            "text": "process",
            "start": 56.719,
            "duration": 2.32
        },
        {
            "text": "we can run",
            "start": 57.6,
            "duration": 3.279
        },
        {
            "text": "nvim server and we can do a couple cool",
            "start": 59.039,
            "duration": 3.281
        },
        {
            "text": "things the first one i'll show you is",
            "start": 60.879,
            "duration": 4.32
        },
        {
            "text": "this command here which tells it hey any",
            "start": 62.32,
            "duration": 4.479
        },
        {
            "text": "of him what i want you to do is connect",
            "start": 65.199,
            "duration": 4.081
        },
        {
            "text": "to this server and then i want to do",
            "start": 66.799,
            "duration": 4.721
        },
        {
            "text": "some remote thing in this case what i",
            "start": 69.28,
            "duration": 4.159
        },
        {
            "text": "want to do is echo hello world this is",
            "start": 71.52,
            "duration": 4.56
        },
        {
            "text": "like i'm literally typing these things",
            "start": 73.439,
            "duration": 5.521
        },
        {
            "text": "in this neovim over here right so watch",
            "start": 76.08,
            "duration": 5.039
        },
        {
            "text": "in the bottom left corner when i press",
            "start": 78.96,
            "duration": 4.799
        },
        {
            "text": "enter you're going to see sure enough",
            "start": 81.119,
            "duration": 4.481
        },
        {
            "text": "we've got that hello world right there",
            "start": 83.759,
            "duration": 3.521
        },
        {
            "text": "and then this exits so that's basically",
            "start": 85.6,
            "duration": 3.76
        },
        {
            "text": "like a one-off command that you can send",
            "start": 87.28,
            "duration": 5.199
        },
        {
            "text": "from any process to this neovim",
            "start": 89.36,
            "duration": 5.439
        },
        {
            "text": "additionally we can do",
            "start": 92.479,
            "duration": 5.28
        },
        {
            "text": "other things like opening a file so if",
            "start": 94.799,
            "duration": 5.28
        },
        {
            "text": "you had some file and you wanted to pass",
            "start": 97.759,
            "duration": 4.881
        },
        {
            "text": "that information over we could say",
            "start": 100.079,
            "duration": 5.04
        },
        {
            "text": "remote and then do something like this",
            "start": 102.64,
            "duration": 4.4
        },
        {
            "text": "and now this is just some file that's on",
            "start": 105.119,
            "duration": 4.801
        },
        {
            "text": "my local machine and it will open it up",
            "start": 107.04,
            "duration": 4.96
        },
        {
            "text": "in that neovim when i tell it and it",
            "start": 109.92,
            "duration": 4.32
        },
        {
            "text": "will exit on the side if it's successful",
            "start": 112.0,
            "duration": 4.0
        },
        {
            "text": "that's basically the new feature there's",
            "start": 114.24,
            "duration": 3.519
        },
        {
            "text": "a lot more things you can do with it as",
            "start": 116.0,
            "duration": 3.2
        },
        {
            "text": "well you can read about that and help",
            "start": 117.759,
            "duration": 4.161
        },
        {
            "text": "remote.txt that will give you all info",
            "start": 119.2,
            "duration": 4.4
        },
        {
            "text": "that you need as well as information",
            "start": 121.92,
            "duration": 3.04
        },
        {
            "text": "about other features that are going to",
            "start": 123.6,
            "duration": 4.0
        },
        {
            "text": "be added in the future this does exist",
            "start": 124.96,
            "duration": 4.56
        },
        {
            "text": "in some ways with them and so we're",
            "start": 127.6,
            "duration": 4.4
        },
        {
            "text": "adding this back into neovim as time",
            "start": 129.52,
            "duration": 4.48
        },
        {
            "text": "goes on hopefully we'll get back to full",
            "start": 132.0,
            "duration": 4.0
        },
        {
            "text": "feature parody and as much as possible",
            "start": 134.0,
            "duration": 3.92
        },
        {
            "text": "have those two things working exactly as",
            "start": 136.0,
            "duration": 3.92
        },
        {
            "text": "you expect hope you like this video hope",
            "start": 137.92,
            "duration": 4.56
        },
        {
            "text": "you like the doggo i like her a lot and",
            "start": 139.92,
            "duration": 6.84
        },
        {
            "text": "i will see you all later bye everybody",
            "start": 142.48,
            "duration": 4.28
        }
    ],
    "stats": {
        "viewCount": "44734",
        "likeCount": "1374",
        "favoriteCount": "0",
        "commentCount": "80"
    }
}