{
    "id": "y6oXgH9od2g",
    "title": "How to make coffee... as a dad #shorts",
    "publishedAt": "2022-04-21T13:33:00Z",
    "captions": [
        {
            "text": "how to make coffee",
            "start": 0.16,
            "duration": 3.92
        },
        {
            "text": "as a dad",
            "start": 1.76,
            "duration": 5.28
        },
        {
            "text": "step one add water",
            "start": 4.08,
            "duration": 5.83
        },
        {
            "text": "step two get out your beans",
            "start": 7.04,
            "duration": 4.16
        },
        {
            "text": "[Music]",
            "start": 9.91,
            "duration": 6.13
        },
        {
            "text": "step three apply beans to floor",
            "start": 11.2,
            "duration": 4.84
        },
        {
            "text": "step 4 retrieve ground coffee",
            "start": 17.199,
            "duration": 6.24
        },
        {
            "text": "step 5 place ground coffee in machine",
            "start": 20.8,
            "duration": 5.36
        },
        {
            "text": "and turn on",
            "start": 23.439,
            "duration": 2.721
        },
        {
            "text": "finally enjoy a good dad joke and your",
            "start": 26.8,
            "duration": 6.04
        },
        {
            "text": "morning coffee",
            "start": 29.359,
            "duration": 3.481
        }
    ],
    "stats": {
        "viewCount": "8621",
        "likeCount": "317",
        "favoriteCount": "0",
        "commentCount": "14"
    }
}